{
    "bounding_box": [
        [
            549, 
            25, 
            130, 
            37
        ], 
        [
            290, 
            81, 
            370, 
            26
        ], 
        [
            417, 
            138, 
            244, 
            28
        ], 
        [
            108, 
            167, 
            552, 
            28
        ], 
        [
            298, 
            197, 
            363, 
            28
        ], 
        [
            489, 
            255, 
            172, 
            28
        ], 
        [
            343, 
            284, 
            318, 
            27
        ], 
        [
            560, 
            314, 
            101, 
            24
        ], 
        [
            52, 
            342, 
            608, 
            27
        ], 
        [
            496, 
            401, 
            164, 
            28
        ], 
        [
            475, 
            430, 
            185, 
            27
        ], 
        [
            527, 
            459, 
            133, 
            24
        ], 
        [
            511, 
            489, 
            149, 
            18
        ]
    ], 
    "image_height": 540, 
    "image_width": 720, 
    "transcription": [
        "u0645_u0633_u0627_u0631 u0020 u0627_u0644_u0639_u0645_u0644", 
        "u0020_u062a_u0637_u0628_u064a_u0642 u0020 u0645_u0634_u0631_u0648_u0639 u0020 u0631_u0627_u0626_u062f u0020 u0628_u062a_u0643_u0646_u0648_u0644_u0648_u062c_u064a_u0627 u0020 u0627_u0644_u0645_u0639_u0644_u0648_u0645_u0627_u062a_u000d", 
        "u0627_u0639_u062f u0020 u0627_u0644_u0646_u0638_u0631 u0020 u0641_u064a u0020 u0627_u0625_u0633_u062a_u0631_u0627_u062a_u064a_u062c_u064a_u062a_u0643 u0020 u000d", 
        "u0627_u0639_u062f u0020 u0627_u0644_u0646_u0638_u0631 u0020 u0641_u064a u0020 u062a_u062d_u0644_u064a_u0644_u0627_u062a_u0643 u0020 u2013 u0020 u0641_u0645_u0646 u0020 u0627_u0644_u0645_u0645_u0643_u0646 u0020 u0623_u0646 u0020 u062a_u0643_u0648_u0646 u0020 u0627_u0644_u0628_u064a_u0626_u0629 u0020 u0642_u062f u0020 u0627_u062e_u062a_u0644_u0641_u062a u0020 u000d", 
        "u0643_u0644 u0020 u0627_u0644_u0641_u0642_u0631_u0627_u062a u0020 u0627_u0644_u0642_u0627_u0646_u0648_u0646_u064a_u0629 u0020 u0641_u064a u0020 u0645_u0643_u0627_u0646_u0647_u0627 u0020 u0627_u0644_u0635_u062d_u064a_u062d_u061f u0020 u000d", 
        "u062c_u0627_u0647_u0632_u064a_u0629 u0020 u0627_u0644_u0645_u0624_u0633_u0633_u0629 u0020 u003a_u000d", 
        "u0645_u0647_u0627_u0631_u0627_u062a u0020 u0627_u0644_u0645_u0648_u0638_u0641_u064a_u0646 u0020 u2013 u0020 u0627_u0644_u062a_u0639_u0644_u064a_u0645_u002f u0020 u0627_u0644_u062a_u062f_u0631_u064a_u0628_u000d", 
        "u0633_u064a_u0631 u0020 u0627_u0644_u0639_u0645_u0644 u0020 u000d", 
        "u062e_u062f_u0645_u0627_u062a u0020 u0627_u0644_u0648_u0627_u062c_u0647_u0629 u0020 u0028_u0645_u0643_u0627_u062a_u0628 u0020 u0627_u0644_u0648_u0627_u062c_u0647_u0629_u0029 u0020 u002f u0020 u062f_u0639_u0645 u0020 u0627_u0644_u0632_u0628_u0627_u0626_u0646 u0020 u0628_u0643_u0641_u0627_u0621_u0629 u0020 u0648 u0020 u0645_u0647_u0627_u0631_u0629 u0020 u0639_u0627_u0644_u064a_u0629_u002e_u000d", 
        "u0627_u0644_u0642_u062f_u0631_u0629 u0020 u0627_u0644_u062a_u0643_u0646_u0648_u0644_u0648_u062c_u064a_u0629_u000d", 
        "u0627_u0644_u062e_u0648_u0627_u062f_u0645 u0020 u0028_u0627_u0644_u0633_u064a_u0631_u0641_u0631_u0627_u062a_u0029_u000d", 
        "u062e_u0637_u0648_u0637 u0020 u0627_u0644_u0627_u062a_u0635_u0627_u0644_u000d", 
        "u0627_u0644_u062e_u062f_u0645_u0627_u062a u0020 u0627_u0644_u0645_u0633_u0627_u0646_u062f_u0629"
    ]
}