{
    "bounding_box": [
        [
            100, 
            91, 
            522, 
            42
        ], 
        [
            383, 
            197, 
            278, 
            26
        ], 
        [
            94, 
            241, 
            568, 
            26
        ]
    ], 
    "image_height": 540, 
    "image_width": 720, 
    "transcription": [
        "u0633_u0644_u0648_u0643_u064a_u0627_u062a u0020 u0645_u0647_u0627_u0631_u0629 u0020 u0627_u0644_u062a_u0639_u0627_u0645_u0644 u0020 u0645_u0639 u0020 u0623_u0633_u0626_u0644_u0629 u0020 u0627_u0644_u0637_u0644_u0627_u0628", 
        "u0644_u0627 u0020 u064a_u0647_u0645_u0644 u0020 u0627_u0644_u062a_u0639_u0627_u0645_u0644 u0020 u0645_u0639 u0020 u0633_u0624_u0627_u0644 u0020 u0623_u064a u0020 u0637_u0627_u0644_u0628_u002e_u000d", 
        "u064a_u0646_u0648_u0639 u0020 u0645_u0646 u0020 u0623_u0646_u0645_u0627_u0637 u0020 u0627_u0644_u0627_u0633_u062a_u062c_u0627_u0628_u0629 u0020 u0644_u0633_u0624_u0627_u0644 u0020 u0627_u0644_u0637_u0627_u0644_u0628 u0020 u062d_u0633_u0628 u0020 u0645_u062a_u063a_u064a_u0631_u0627_u062a u0020 u0627_u0644_u0645_u0648_u0642_u0641 u0020 u0627_u0644_u062a_u0639_u0644_u064a_u0645_u064a_u002e_u000d"
    ]
}