{
    "bounding_box": [
        [
            285, 
            13, 
            140, 
            19
        ], 
        [
            144, 
            48, 
            430, 
            22
        ], 
        [
            283, 
            126, 
            121, 
            26
        ], 
        [
            183, 
            169, 
            322, 
            25
        ], 
        [
            87, 
            204, 
            577, 
            29
        ], 
        [
            140, 
            242, 
            523, 
            30
        ], 
        [
            129, 
            280, 
            534, 
            30
        ], 
        [
            43, 
            322, 
            620, 
            27
        ], 
        [
            190, 
            362, 
            474, 
            26
        ], 
        [
            285, 
            398, 
            378, 
            29
        ]
    ], 
    "image_height": 540, 
    "image_width": 720, 
    "transcription": [
        "u0627_u0644_u0645_u0628_u062d_u062b u0020 u0627_u0644_u0631_u0627_u0628_u0639_u000b", 
        "u062e_u0635_u0627_u0626_u0635 u0020 u0627_u0644_u0646_u0638_u0627_u0645 u0020 u0627_u0644_u0627_u0642_u062a_u0635_u0627_u062f_u064a u0020 u0627_u0644_u0625_u0633_u0644_u0627_u0645_u064a u0020 u0648_u0623_u0647_u062f_u0627_u0641_u0647", 
        "u0627_u0644_u0645_u0637_u0644_u0628 u0020 u0627_u0644_u0623_u0648_u0644_u000d", 
        "u062e_u0635_u0627_u0626_u0635 u0020 u0627_u0644_u0646_u0638_u0627_u0645 u0020 u0627_u0644_u0627_u0642_u062a_u0635_u0627_u062f_u064a u0020 u0627_u0644_u0625_u0633_u0644_u0627_u0645_u064a_u000d", 
        "u0627_u0644_u062e_u0627_u0635_u064a_u0629 u0020 u0627_u0644_u0623_u0648_u0644_u0649_u003a u0020 u0627_u0644_u0646_u0638_u0627_u0645 u0020 u0627_u0644_u0627_u0642_u062a_u0635_u0627_u062f_u064a u0020 u0627_u0644_u0625_u0633_u0644_u0627_u0645_u064a u0020 u062c_u0632_u0621 u0020 u0645_u0646 u0020 u0646_u0638_u0627_u0645 u0020 u0627_u0644_u0625_u0633_u0644_u0627_u0645_u003a_u000d", 
        "u0623_u0648_u0644_u0627_u064b_u002d u0020 u0644_u0644_u0646_u0634_u0627_u0637 u0020 u0020_u0627_u0644_u0627_u0642_u062a_u0635_u0627_u062f_u064a u0020 u0641_u064a u0020 u0627_u0644_u0625_u0633_u0644_u0627_u0645 u0020 u0637_u0627_u0628_u0639 u0020 u062a_u0639_u0628_u062f_u064a u0020 u0648_u0647_u062f_u0641 u0020 u0633_u0627_u0645 u0020 u002e_u000d", 
        "u062b_u0627_u0646_u064a_u0627_u064b u0020 u003a u0020 u0630_u0627_u062a_u064a_u0629 u0020 u0627_u0644_u0631_u0642_u0627_u0628_u0629 u0020 u0639_u0644_u0649 u0020 u0645_u0645_u0627_u0631_u0633_u0629 u0020 u0627_u0644_u0646_u0634_u0627_u0637 u0020 u0627_u0644_u0627_u0642_u062a_u0635_u0627_u062f_u064a u0020 u0641_u064a u0020 u0627_u0644_u0625_u0633_u0644_u0627_u0645_u002e_u000d", 
        "u0627_u0644_u062e_u0627_u0635_u064a_u0629 u0020 u0627_u0644_u062b_u0627_u0646_u064a_u0629_u003a u0020 u0627_u0644_u062a_u0648_u0627_u0632_u0646 u0020 u0641_u064a u0020 u0631_u0639_u0627_u064a_u0629 u0020 u0627_u0644_u0645_u0635_u0644_u062d_u0629 u0020 u0627_u0644_u0627_u0642_u062a_u0635_u0627_u062f_u064a_u0629 u0020 u0644_u0644_u0641_u0631_u062f u0020 u0648_u0627_u0644_u062c_u0645_u0627_u0639_u0629 u0020 u003a_u000d", 
        "u0627_u0644_u062e_u0627_u0635_u064a_u0629 u0020 u0627_u0644_u062b_u0627_u0644_u062b_u0629_u003a u0020 u0627_u0644_u062a_u0648_u0627_u0632_u0646 u0020 u0628_u064a_u0646 u0020 u0627_u0644_u062c_u0627_u0646_u0628_u064a_u0652_u0646 u0020 u0627_u0644_u0645_u0627_u062f_u064a u0020 u0648 u0020 u0627_u0644_u0631_u0648_u062d_u064a u0020 u000d", 
        "u0627_u0644_u062e_u0627_u0635_u064a_u0629 u0020 u0627_u0644_u0631_u0627_u0628_u0639_u0629_u003a u0020 u0627_u0644_u0627_u0642_u062a_u0635_u0627_u062f u0020 u0627_u0644_u0625_u0633_u0644_u0627_u0645_u064a u0020 u0623_u062e_u0644_u0627_u0642_u064a_u000d"
    ]
}