{
    "bounding_box": [
        [
            156, 
            79, 
            419, 
            34
        ], 
        [
            104, 
            146, 
            527, 
            25
        ], 
        [
            278, 
            175, 
            353, 
            23
        ], 
        [
            125, 
            222, 
            506, 
            26
        ], 
        [
            123, 
            269, 
            508, 
            22
        ], 
        [
            98, 
            315, 
            533, 
            25
        ], 
        [
            455, 
            345, 
            175, 
            22
        ], 
        [
            619, 
            505, 
            55, 
            12
        ], 
        [
            19, 
            504, 
            122, 
            13
        ]
    ], 
    "image_height": 540, 
    "image_width": 720, 
    "transcription": [
        "u0627_u0644_u062a_u0634_u0631_u064a_u0639_u0627_u062a u0020 u0627_u0644_u0633_u064a_u0628_u0631_u0627_u0646_u064a_u0629 u0020 u0641_u064a u0020 u0627_u0644_u0645_u0646_u0637_u0642_u0629 u0020 u0627_u0644_u0639_u0631_u0628_u064a_u0629", 
        "u062a_u0642_u0631 u0020 u062c_u0645_u064a_u0639 u0020 u0627_u0644_u062f_u0648_u0644 u0020 u0627_u0644_u0639_u0631_u0628_u064a_u0629 u0020 u0628_u0623_u0647_u0645_u064a_u0629 u0020 u0627_u0644_u062a_u0634_u0631_u064a_u0639_u0627_u062a u0020 u0627_u0644_u0633_u064a_u0628_u0631_u0627_u0646_u064a_u0629 u0020 u0644_u062a_u0637_u0648_u064a_u0631 u0020 u0645_u062c_u062a_u0645_u0639_u0020", 
        "u0627_u0644_u0645_u0639_u0644_u0648_u0645_u0627_u062a_u060c u0020 u0643_u0645_u0627 u0020 u062a_u0642_u0631_u0647_u0627 u0020 u0627_u0644_u0627_u0633_u062a_u0631_u0627_u062a_u064a_u062c_u064a_u0627_u062a u0020 u0627_u0644_u0625_u0642_u0644_u064a_u0645_u064a_u0629_u000d", 
        "u064a_u0648_u062c_u062f u0020 u062a_u0628_u0627_u064a_u0646 u0020 u0643_u0628_u064a_u0631 u0020 u0628_u064a_u0646 u0020 u062f_u0648_u0644 u0020 u0627_u0644_u0645_u0646_u0637_u0642_u0629 u0020 u0641_u064a u0020 u0648_u0636_u0639 u0020 u0627_u0644_u062a_u0634_u0631_u064a_u0639_u0627_u062a u0020 u0627_u0644_u0633_u064a_u0628_u0631_u0627_u0646_u064a_u0629_u000d", 
        "u064a_u0648_u062c_u062f u0020 u0628_u0639_u0636 u0020 u0627_u0644_u062c_u0647_u0648_u062f u0020 u0644_u062c_u0627_u0645_u0639_u0629 u0020 u0627_u0644_u062f_u0648_u0644 u0020 u0627_u0644_u0639_u0631_u0628_u064a_u0629 u0020 u2013 u0020 u0645_u062c_u0644_u0633 u0020 u0648_u0632_u0631_u0627_u0621 u0020 u0627_u0644_u0639_u062f_u0644 u0020 u0020_u000d", 
        "u0623_u0642_u0631_u062a u0020 u0627_u0644_u062f_u0648_u0644 u0020 u0627_u0644_u0639_u0631_u0628_u064a_u0629 u0020 u062e_u0644_u0627_u0644 u0020 u0639_u0627_u0645_u064a u0020 u0032_u0030_u0031_u0030 u0020 u0648 u0020 u0032_u0030_u0031_u0031 u0020 u0639_u062f_u062f_u0627_u064b u0020 u0644_u0627 u0020 u0628_u0623_u0633 u0020 u0628_u0647 u0020 u0645_u0646_u0020", 
        "u0627_u0644_u062a_u0634_u0631_u064a_u0639_u0627_u062a u0020 u0627_u0644_u0633_u064a_u0628_u0631_u0627_u0646_u064a_u0629 u0020 u000d", 
        "u062f_u002e u0020 u0646_u0628_u0627_u0644 u0020 u0625_u062f_u0644_u0628_u064a", 
        "u0643_u0627_u0646_u0648_u0646 u0020 u0627_u0644_u0623_u0648_u0644_u002f_u062f_u064a_u0633_u0645_u0628_u0631 u0020 u0032_u0030_u0031_u0031"
    ]
}