{
    "bounding_box": [
        [
            479, 
            62, 
            407, 
            41
        ], 
        [
            79, 
            148, 
            788, 
            29
        ], 
        [
            69, 
            178, 
            799, 
            28
        ], 
        [
            728, 
            209, 
            140, 
            22
        ], 
        [
            510, 
            287, 
            358, 
            29
        ], 
        [
            529, 
            326, 
            339, 
            30
        ], 
        [
            500, 
            369, 
            368, 
            29
        ]
    ], 
    "image_height": 540, 
    "image_width": 960, 
    "transcription": [
        "u0627_u0644_u0645_u0635_u0646_u0641_u0627_u062a u0020 u0641_u064a u0020 u0627_u0644_u0636_u0639_u0641_u0627_u0621 u0020 u062e_u0627_u0635_u0629", 
        "u0647_u0630_u0627 u0020 u0627_u0644_u0646_u0648_u0639 u0020 u0645_u0646 u0020 u0627_u0644_u0645_u0635_u0646_u0641_u0627_u062a u0020 u0623_u0641_u0631_u062f u0020 u0641_u064a u0020 u0627_u0644_u0636_u0639_u0641_u0627_u0621 u0020 u062e_u0627_u0635_u0629_u060c u0020 u0648_u0627_u0644_u0645_u0635_u0646_u0641_u0627_u062a u0020 u0641_u064a_u0647 u0020 u0623_u0643_u062b_u0631 u0020 u0645_u0646 u0020 u0627_u0644_u0645_u0635_u0646_u0641_u0627_u062a u0020 u0641_u064a_u0020", 
        "u0627_u0644_u062b_u0642_u0627_u062a_u060c u0020 u0648_u0623_u0643_u062b_u0631 u0020 u0647_u0630_u0647 u0020 u0627_u0644_u0645_u0635_u0646_u0641_u0627_u062a u0020 u0642_u062f u0020 u0623_u0634_u0645_u0644_u062a u0020 u0639_u0644_u0649 u0020 u0643_u0644 u0020 u0645_u0646 u0020 u062a_u0643_u0644_u0645 u0020 u0641_u064a_u0647_u060c u0020 u0648_u0625_u0646 u0020 u0644_u0645 u0020 u064a_u0643_u0646 u0020 u0636_u0639_u064a_u0641_u064b_u0627 u0020 u062d_u0642_u0651_u064b_u0627_u060c u0020 u0648_u0645_u0646_u0020", 
        "u0647_u0630_u0647 u0020 u0627_u0644_u0645_u0635_u0646_u0641_u0627_u062a_u003a_u000d", 
        "u0623 u0020 u2013 u0020 u0627_u0644_u0636_u0639_u0641_u0627_u0621 u0020 u0627_u0644_u0643_u0628_u064a_u0631 u0020 u0644_u0644_u0628_u062e_u0627_u0631_u064a u0020 u062a u0020 u0032_u0035_u0036_u0647_u0640_u002e_u000d", 
        "u0628 u0020 u2013 u0020 u0627_u0644_u0636_u0639_u0641_u0627_u0621 u0020 u0627_u0644_u0635_u063a_u064a_u0631 u0020 u0644_u0644_u0628_u062e_u0627_u0631_u064a u0020 u0623_u064a_u0636_u064b_u0627_u002e_u000d", 
        "u062c_u002d_u0645_u064a_u0632_u0627_u0646 u0020 u0627_u0644_u0627_u0639_u062a_u062f_u0627_u0644 u0020 u0641_u064a u0020 u0646_u0642_u062f u0020 u0627_u0644_u0631_u062c_u0627_u0644 u0020 u0644_u0644_u0630_u0647_u0628_u064a u0020 u002e"
    ]
}