{
    "bounding_box": [
        [
            279, 
            172, 
            375, 
            31
        ], 
        [
            135, 
            219, 
            519, 
            31
        ], 
        [
            222, 
            257, 
            433, 
            31
        ], 
        [
            213, 
            305, 
            442, 
            26
        ], 
        [
            169, 
            349, 
            486, 
            31
        ], 
        [
            138, 
            394, 
            517, 
            29
        ], 
        [
            89, 
            433, 
            565, 
            31
        ], 
        [
            413, 
            473, 
            242, 
            30
        ], 
        [
            207, 
            92, 
            304, 
            50
        ]
    ], 
    "image_height": 540, 
    "image_width": 720, 
    "transcription": [
        "u062a_u0637_u0648_u0631 u0020 u062d_u0631_u0643_u0629 u0020 u062d_u0642_u0648_u0642 u0020 u0627_u0644_u0625_u0646_u0633_u0627_u0646 u0020 u0641_u064a u0020 u0627_u0644_u0639_u0627_u0644_u0645_u000d", 
        "u062f_u0648_u0631 u0020 u0627_u0644_u062c_u0645_u0639_u064a_u0627_u062a u0020 u0648_u0645_u0624_u0633_u0633_u0627_u062a u0020 u0627_u0644_u0645_u062c_u062a_u0645_u0639 u0020 u0627_u0644_u0645_u062f_u0646_u064a u0020 u0641_u064a u0020 u0627_u0644_u0646_u0638_u0645_u0020", 
        "u0627_u0644_u062f_u064a_u0645_u0648_u0642_u0631_u0627_u0637_u064a_u0629 u0020 u0648_u0627_u0644_u062a_u0639_u0628_u064a_u0631 u0020 u0627_u0644_u0633_u0644_u0645_u064a u0020 u0639_u0646 u0020 u0627_u0644_u0645_u0637_u0627_u0644_u0628_u000d", 
        "u062f_u0648_u0631 u0020 u0627_u0644_u0627_u062d_u0632_u0627_u0628 u0020 u0648_u0627_u0644_u0646_u0642_u0627_u0628_u0627_u062a u0020 u0648_u0627_u0644_u0627_u062a_u062d_u0627_u062f_u0627_u062a u0020 u0627_u0644_u0639_u0645_u0627_u0644_u064a_u0629_u000d", 
        "u062f_u0648_u0631 u0020 u0648_u0633_u0627_u0626_u0644 u0020 u0627_u0644_u0627_u0639_u0644_u0627_u0645 u0020 u0648_u0645_u0648_u0627_u0642_u0639 u0020 u0627_u0644_u062a_u0648_u0627_u0635_u0644 u0020 u0627_u0644_u0627_u062c_u062a_u0645_u0627_u0639_u064a_u000d", 
        "u062f_u0648_u0631 u0020 u0645_u0624_u0633_u0633_u0627_u062a u0020 u0627_u0644_u062a_u0646_u0634_u0626_u0629 u0020 u0627_u0644_u0627_u062c_u062a_u0645_u0627_u0639_u064a_u0629 u0020 u0627_u0644_u0627_u062e_u0631_u0649_u003a u0020 u0627_u0644_u0627_u0633_u0631_u0629_u060c_u0020", 
        "u0627_u0644_u0645_u062f_u0631_u0633_u0629_u060c u0020 u0627_u0644_u062c_u0627_u0645_u0639_u0629_u060c u0020 u0627_u0644_u0645_u0624_u0633_u0633_u0627_u062a u0020 u0627_u0644_u062f_u064a_u0646_u064a_u0629 u0020 u0028_u0627_u0644_u0643_u0646_u064a_u0633_u0629_u060c u0020 u0627_u0644_u0645_u0633_u062c_u062f_u060c_u0020", 
        "u0627_u0644_u062d_u0633_u064a_u0646_u064a_u0629_u0029_u060c u0020 u0627_u0644_u0627_u0646_u062f_u064a_u0629_u060c u0020 u0627_u0644_u062e_u002e_u002e", 
        "u0627_u0644_u0645_u0637_u0627_u0644_u0628 u0020 u0627_u0644_u0633_u064a_u0627_u0633_u064a_u0629"
    ]
}