{
    "bounding_box": [
        [
            145, 
            51, 
            364, 
            58
        ], 
        [
            475, 
            160, 
            209, 
            31
        ], 
        [
            415, 
            236, 
            270, 
            32
        ], 
        [
            12, 
            313, 
            664, 
            34
        ], 
        [
            451, 
            353, 
            225, 
            29
        ]
    ], 
    "image_height": 540, 
    "image_width": 720, 
    "transcription": [
        "u0623_u0647_u0645_u064a_u0629 u0020 u062f_u0631_u0627_u0633_u0629 u0020 u0627_u0644_u062a_u0627_u0631_u064a_u062e", 
        "u002d u0020 u0645_u0627 u0020 u0645_u0639_u0646_u0649 u0020 u0627_u0644_u062a_u0627_u0631_u064a_u062e_u061f u0020 u000d", 
        "u002d u0020 u0644_u0645_u0627_u0630_u0627 u0020 u062b_u0644_u062b u0020 u0627_u0644_u0642_u0631_u0622_u0646 u0020 u062a_u0627_u0631_u064a_u062e_u061f_u000d", 
        "u002d u0020 u0647_u0644 u0020 u062f_u0631_u0627_u0633_u0629 u0020 u0627_u0644_u062a_u0627_u0631_u064a_u062e u0020 u0645_u0647_u0645_u0629 u0020 u0644_u0644_u0642_u0627_u062f_u0629_u061f u0020 u0627_u0644_u0639_u0644_u0645_u0627_u0621_u061f u0020 u0627_u0644_u0648_u0632_u0631_u0627_u0621_u061f u0020 u0627_u0644_u0639_u0633_u0643_u0631_u064a_u064a_u0646_u061f_u0020", 
        "u0627_u0644_u0633_u064a_u0627_u0633_u064a_u0646_u061f u0020 u0643_u064a_u0641 u0020 u0630_u0644_u0643_u061f_u0020"
    ]
}