{
    "bounding_box": [
        [
            57, 
            38, 
            101, 
            24
        ], 
        [
            82, 
            133, 
            566, 
            34
        ], 
        [
            548, 
            184, 
            101, 
            30
        ], 
        [
            453, 
            229, 
            195, 
            31
        ], 
        [
            525, 
            275, 
            124, 
            31
        ], 
        [
            498, 
            321, 
            151, 
            31
        ]
    ], 
    "image_height": 540, 
    "image_width": 720, 
    "transcription": [
        "u0646_u0634_u0627_u0637 u0020 u0031", 
        "u0645_u0646 u0020 u0647_u0645 u0020 u0623_u0647_u0644 u0020 u0627_u0644_u0643_u062a_u0627_u0628 u0020 u0627_u0644_u0630_u064a_u0646 u0020 u0648_u0631_u062f u0020 u0630_u0643_u0631_u0647_u0645 u0020 u0641_u064a u0020 u0627_u0644_u0642_u0631_u0622_u0646 u0020 u0627_u0644_u0643_u0631_u064a_u0645 u0020 u061f_u000d", 
        "u062c_u0648_u0627_u0628 u0020 u0029_u000d", 
        "u0031_u0029 u0020 u0627_u0644_u0645_u0633_u0644_u0645_u064a_u0646 u0020 u000d", 
        "u0032_u0029 u0020 u0627_u0644_u064a_u0647_u0648_u062f_u000d", 
        "u0033_u0029 u0020 u0627_u0644_u0646_u0635_u0627_u0631_u0649_u0020"
    ]
}