{
    "bounding_box": [
        [
            69, 
            81, 
            571, 
            27
        ], 
        [
            511, 
            116, 
            129, 
            24
        ], 
        [
            104, 
            148, 
            536, 
            27
        ], 
        [
            452, 
            182, 
            187, 
            23
        ], 
        [
            69, 
            216, 
            571, 
            27
        ], 
        [
            214, 
            248, 
            426, 
            28
        ], 
        [
            78, 
            283, 
            562, 
            27
        ], 
        [
            94, 
            316, 
            546, 
            27
        ]
    ], 
    "image_height": 540, 
    "image_width": 720, 
    "transcription": [
        "u0627_u0644_u0627_u0644_u062a_u0632_u0627_u0645 u0020 u0628_u0645_u0627 u0020 u062a_u0648_u0627_u062b_u0642 u0020 u0639_u0644_u064a_u0647 u0020 u0627_u0644_u0645_u062c_u0644_u0633 u0020 u0628_u0645_u0635_u0641_u0648_u0641_u0629 u0020 u0648_u062b_u064a_u0642_u0629 u0020 u0020_u0627_u0644_u062f_u0648_u0631_u0629 u0020 u0627_u0644_u0645_u062f_u0631_u0633_u064a_u0629_u0020", 
        "u0627_u0644_u0642_u0648_u0645_u064a_u0629 u0020 u0032_u0036 u0020 u0020_u002e_u000d", 
        "u0627_u0644_u062a_u0646_u0633_u064a_u0642 u0020 u0627_u0644_u062a_u0627_u0645 u0020 u0645_u0639 u0020 u0020_u0627_u0644_u0648_u0633_u0627_u0626_u0637 u0020 u0648_u0627_u0644_u0627_u062c_u0647_u0632_u0629 u0020 u0627_u0644_u0627_u0639_u0644_u0627_u0645_u064a_u0629 u0020 u0644_u062a_u0648_u062b_u064a_u0642 u0020 u0648_u0639_u0643_u0633_u0020", 
        "u0627_u0628_u062f_u0627_u0639_u0627_u062a u0020 u0627_u0644_u0637_u0644_u0627_u0628 u0020 u0020 u0020 u002e u0020 u000d", 
        "u062d_u0648_u0633_u0628_u0629 u0020 u062c_u0645_u064a_u0639 u0020 u0627_u0639_u0645_u0627_u0644 u0020 u0648_u0646_u0634_u0627_u0637_u0627_u062a u0020 u0627_u0644_u062f_u0648_u0631_u0629 u0020 u0627_u0644_u0645_u062f_u0631_u0633_u064a_u0629 u0020 u0645_u0646 u0020 u0627_u062f_u062e_u0627_u0644 u0020 u0628_u064a_u0627_u0646_u0627_u062a_u0020", 
        "u0627_u0644_u0645_u0634_u0627_u0631_u0643_u064a_u0646 u0020 u0648_u0631_u0635_u062f u0020 u0627_u0644_u0646_u062a_u0627_u0626_u062d u0020 u0627_u0644_u0645_u0628_u062f_u0639_u064a_u0646 u0020 u0648_u0627_u0644_u0645_u062a_u0645_u064a_u0632_u064a_u0646 u0020 u002e_u000d", 
        "u0627_u0644_u0627_u0644_u062a_u0632_u0627_u0645 u0020 u0628_u0645_u0648_u062c_u0647_u0627_u062a u0020 u0646_u0634_u0627_u0637_u0627_u062a u0020 u0627_u0644_u0639_u0637_u0644_u0629 u0020 u0627_u0644_u0635_u064a_u0641_u064a_u0629 u0020 u0627_u0644_u062a_u0649 u0020 u062a_u0645 u0020 u0627_u0644_u062a_u0648_u0627_u062b_u0642 u0020 u0639_u0644_u064a_u0647_u0627_u0020", 
        "u0628_u0627_u0644_u0645_u062c_u0644_u0633 u0020 u0628_u062a_u0643_u0648_u064a_u0646 u0020 u0627_u0644_u0644_u062c_u0627_u0646 u0020 u0020_u0648_u0627_u0644_u062a_u0646_u0633_u064a_u0642 u0020 u0627_u0644_u062a_u0627_u0645 u0020 u0645_u0639 u0020 u0627_u0644_u062c_u0647_u0627_u062a u0020 u0630_u0627_u062a u0020 u0627_u0644_u0635_u0644_u0629_u0020"
    ]
}