{
    "bounding_box": [
        [
            222, 
            50, 
            275, 
            35
        ], 
        [
            35, 
            133, 
            614, 
            34
        ], 
        [
            62, 
            172, 
            587, 
            34
        ], 
        [
            577, 
            221, 
            72, 
            29
        ], 
        [
            60, 
            264, 
            589, 
            31
        ], 
        [
            55, 
            302, 
            594, 
            34
        ], 
        [
            260, 
            344, 
            389, 
            30
        ], 
        [
            68, 
            392, 
            580, 
            29
        ], 
        [
            381, 
            422, 
            268, 
            36
        ]
    ], 
    "image_height": 540, 
    "image_width": 720, 
    "transcription": [
        "u0627_u0644_u062a_u0648_u062b_u064a_u0642 u0020 u062f_u0627_u062e_u0644 u0020 u0627_u0644_u0646_u0635_u0020", 
        "u062a_u0648_u062b_u064a_u0642 u0020 u0645_u0639_u0644_u0648_u0645_u0629 u0020 u0645_u0646 u0020 u0645_u0631_u062c_u0639 u0020 u062b_u0627_u0646_u0648_u064a u0020 u060c_u0648_u0647_u0630_u0627 u0020 u064a_u0643_u0648_u0646 u0020 u0641_u064a u0020 u0627_u0644_u062d_u0627_u0644_u0627_u062a u0020 u0627_u0644_u062a_u064a_u0020", 
        "u0644_u0627 u0020 u064a_u0639_u062b_u0631 u0020 u0641_u064a_u0647_u0627 u0020 u0639_u0644_u0649 u0020 u0627_u0644_u0645_u0631_u062c_u0639 u0020 u0627_u0644_u0623_u0635_u0644_u064a u0020 u0641_u064a_u0633_u062a_u0646_u062f u0020 u0625_u0644_u0649 u0020 u0645_u0631_u062c_u0639 u0020 u0622_u062e_u0631 u0020 u002e_u000d", 
        "u0645_u062b_u0627_u0644 u0020 u003a_u000d", 
        "u0627_u0644_u0645_u062f_u0645_u0646 u0020 u064a_u062a_u0646_u0627_u0632_u0644 u0020 u0639_u0646 u0020 u0627_u0644_u0645_u0646_u0641_u0639_u0629 u0020 u0627_u0644_u0622_u062c_u0644_u0629 u0020 u0645_u0646 u0020 u0623_u062c_u0644 u0020 u0645_u062a_u0639_u0629 u0020 u0639_u0627_u062c_u0644_u0629 u0020 u0648_u0625_u0646_u0020", 
        "u0643_u0627_u0646_u062a u0020 u0623_u0642_u0644 u0020 u0642_u064a_u0645_u0629 u0020 u0028_u0643_u0631_u0628_u064a u0020 u0648_u0622_u062e_u0631_u0648_u0646 u0020 u060c_u0031_u0039_u0039_u0039 u0020 u060c_u0643_u0645_u0627 u0020 u0647_u0648 u0020 u0645_u0648_u062b_u0642 u0020 u0641_u064a_u0020", 
        "u0645_u0627_u0631_u062a_u0646 u0020 u0648_u0643_u0627_u0631_u0633_u0646 u0020 u0648 u0020 u0628_u0633_u0643_u0633_u062a u0020 u060c_u0032_u0030_u0030_u0037_u0029 u0020 u002e_u000d", 
        "u0648_u0641_u064a u0020 u0647_u0630_u0647 u0020 u0627_u0644_u062d_u0627_u0644_u0629 u0020 u0644_u0627 u0020 u064a_u0648_u0636_u0639 u0020 u0641_u064a u0020 u0642_u0627_u0626_u0645_u0629 u0020 u0627_u0644_u0645_u0631_u0627_u062c_u0639 u0020 u0633_u0648_u0649 u0020 u0627_u0644_u0645_u0631_u062c_u0639_u0020", 
        "u0627_u0644_u0623_u0648_u0644_u064a u0020 u0627_u0644_u0630_u064a u0020 u062a_u0645_u062a u0020 u0642_u0631_u0627_u0621_u062a_u0647 u0020 u002e_u0020"
    ]
}