{
    "bounding_box": [
        [
            395, 
            84, 
            288, 
            54
        ], 
        [
            35, 
            162, 
            619, 
            24
        ], 
        [
            35, 
            193, 
            619, 
            24
        ], 
        [
            35, 
            222, 
            619, 
            26
        ], 
        [
            35, 
            254, 
            619, 
            25
        ], 
        [
            35, 
            283, 
            619, 
            27
        ], 
        [
            35, 
            318, 
            619, 
            24
        ], 
        [
            35, 
            349, 
            619, 
            25
        ], 
        [
            35, 
            381, 
            619, 
            24
        ], 
        [
            35, 
            409, 
            619, 
            26
        ], 
        [
            199, 
            442, 
            456, 
            23
        ]
    ], 
    "image_height": 540, 
    "image_width": 720, 
    "transcription": [
        "u0631_u0648_u0634 u0020 u0634_u0646_u0627_u0633_u06cc_u0020", 
        "u0647_u062f_u0641 u0020 u0627_u0635_u0644_u06cc u0020 u0627_u06cc_u0646 u0020 u0645_u0642_u0627_u0644_u0647 u0020 u0637_u0631_u0627_u062d_u06cc u0020 u0633_u06cc_u0633_u062a_u0645 u0020 u067e_u0631_u062f_u0627_u0632_u0634 u0020 u0645_u0648_u0627_u0632_u06cc u0020 u0628_u0631_u0627_u06cc u0020 u06a9_u0627_u0631_u0628_u0631_u062f_u0020", 
        "u067e_u0631_u062f_u0627_u0632_u0634 u0020 u062a_u0635_u0648_u06cc_u0631 u0020 u0627_u0633_u062a u0020 u002e u0020 u0627_u0632 u0020 u0644_u062d_u0627_u0638 u0020 u0641_u0646_u06cc u0020 u062f_u0631 u0020 u06a9_u0627_u0631_u0628_u0631_u062f u0020 u067e_u0631_u062f_u0627_u0632_u0634 u0020 u062a_u0635_u0648_u06cc_u0631 u0020 u0633_u0627_u062e_u062a_u0627_u0631_u0020", 
        "u067e_u0627_u06cc_u0647 u0020 u0628_u0647 u0020 u0635_u0648_u0631_u062a u0020 u0645_u0627_u062a_u0631_u06cc_u0633 u0020 u0627_u0633_u062a u0020 u0648 u0020 u067e_u0631_u062f_u0627_u0632_u0634_u06af_u0631 u0020 u0645_u0648_u0627_u0632_u06cc u0020 u0631_u0627 u0020 u062f_u0631 u0020 u0633_u0627_u062e_u062a_u0627_u0631 u0020 u0645_u0627_u062a_u0631_u06cc_u0633_u0020", 
        "u062f_u0627_u062f_u0647 u0020 u0622_u0645_u0627_u062f_u0647 u0020 u0645_u06cc_u06a9_u0646_u062f u0020 u0648 u0020 u0645_u0627_u062a_u0631_u06cc_u0633 u0020 u0647_u0627 u0020 u0628_u0647 u0020 u0628_u0644_u0648_u06a9_u0647_u0627_u06cc u0020 u06a9_u0648_u0686_u06a9_u062a_u0631_u06cc u0020 u062a_u0642_u0633_u06cc_u0645 u0020 u0645_u06cc_u0634_u0648_u0646_u062f u0020 u067e_u0646_u06cc_u0646_u0020", 
        "u067e_u0631_u062f_u0627_u0632_u0634_u06af_u0631 u0020 u0645_u062a_u0641_u0627_u0648_u062a_u06cc u0020 u0628_u0647 u0020 u0635_u0648_u0631_u062a u0020 u0647_u0645_u0632_u0645_u0627_u0646 u0020 u062a_u0635_u0648_u06cc_u0631 u0020 u0631_u0627 u0020 u067e_u0631_u062f_u0627_u0632_u0634 u0020 u0645_u06cc_u062f_u0647_u062f u0020 u002e_u0020", 
        "u067e_u0631_u062f_u0627_u0632_u0634 u0020 u0645_u0648_u0627_u0632_u06cc u0020 u0628_u0647 u0020 u06cc_u0627_u0641_u062a_u0647 u0020 u0647_u0627_u06cc u0020 u0631_u0648_u0634 u0020 u062a_u0641_u06a9_u06cc_u06a9 u0020 u0648_u0627_u0628_u0633_u062a_u0647 u0020 u0627_u0633_u062a u0020 u002e u0020 u0628_u0644_u0648_u06a9 u0020 u0639_u0645_u0644_u06a9_u0631_u062f_u0020", 
        "u0628_u0647 u0020 u0635_u0648_u0631_u062a u0020 u0645_u0633_u062a_u0642_u0644 u0020 u067e_u0631_u062f_u0627_u0632_u0634 u0020 u0645_u06cc_u0634_u0648_u062f u0020 u0648 u0020 u0648_u0642_u062a_u06cc u0020 u062a_u0645_u0627_u0645 u0020 u0646_u062a_u0627_u06cc_u062c u0020 u0627_u0632 u0020 u0647_u0631 u0020 u0628_u0644_u0648_u06a9 u0020 u062a_u0631_u06a9_u06cc_u0628_u0020", 
        "u0634_u062f_u0646_u062f u0020 u0646_u062a_u0627_u06cc_u062c u0020 u0645_u0648_u0631_u062f u0020 u0646_u0638_u0631 u0020 u0645_u0637_u0631_u062d u0020 u062e_u0648_u0627_u0647_u0646_u062f u0020 u0634_u062f u0020 u002e u0020 u062a_u0627_u062b_u06cc_u0631 u0020 u0633_u06cc_u0633_u062a_u0645 u0020 u0647_u0627_u06cc u0020 u0645_u0648_u0627_u0632_u06cc u0020 u0628_u0627_u0020", 
        "u0642_u0627_u0628_u0644_u0628_u06cc_u062a u0020 u062a_u062c_u0632_u06cc_u0647 u0020 u0639_u0645_u0644_u06a9_u0631_u062f u0020 u062f_u0631 u0020 u0628_u0644_u0648_u06a9_u0647_u0627_u06cc u0020 u06a9_u0648_u0686_u06a9 u0020 u0628_u0647 u0020 u062f_u0633_u062a u0020 u0645_u06cc u0020 u0622_u06cc_u062f u0020 u002e u0020 u0628_u0644_u0648_u06a9_u0647_u0627 u0020 u0628_u062f_u0648_u0646_u0020", 
        "u062e_u0637_u0627_u06cc u0020 u0645_u062d_u0627_u0633_u0628_u0627_u062a_u06cc u0020 u0628_u0647 u0020 u0635_u0648_u0631_u062a u0020 u0647_u0645_u0632_u0645_u0627_u0646 u0020 u067e_u0631_u062f_u0627_u0632_u0634 u0020 u0645_u06cc_u0634_u0648_u0646_u062f u0020 u002e"
    ]
}