{
    "bounding_box": [
        [
            194, 
            32, 
            324, 
            42
        ], 
        [
            37, 
            101, 
            612, 
            22
        ], 
        [
            361, 
            126, 
            288, 
            21
        ], 
        [
            37, 
            161, 
            612, 
            21
        ], 
        [
            573, 
            189, 
            76, 
            16
        ], 
        [
            276, 
            221, 
            373, 
            19
        ], 
        [
            37, 
            257, 
            612, 
            21
        ], 
        [
            403, 
            281, 
            245, 
            22
        ], 
        [
            570, 
            12, 
            117, 
            22
        ]
    ], 
    "image_height": 540, 
    "image_width": 720, 
    "transcription": [
        "u0645_u0633_u062a_u0634_u0641_u064a u0020 u0627_u0644_u0639_u0645_u0627_u0631_u0627_u062a u0020 u0627_u0644_u062c_u0627_u0645_u0639_u064a", 
        "u064a_u0642_u0639 u0020 u0627_u0644_u0645_u0634_u0631_u0648_u0639 u0020 u0634_u0645_u0627_u0644 u0020 u0645_u0633_u062a_u0634_u0641_u064a u0020 u0633_u0639_u062f u0020 u0623_u0628_u0648 u0020 u0627_u0644_u0639_u0644_u0627 u0020 u0640_u0640 u0020 u062a_u0642_u0627_u0637_u0639 u0020 u0634_u0627_u0631_u0639 u0020 u0645_u062d_u0645_u062f u0020 u0646_u062c_u064a_u0628 u0020 u0645_u0639 u0020 u0634_u0627_u0631_u0639 u0020 u0036_u0031 u0020 u0640_u0640 u0020 u0627_u0644_u0639_u0645_u0627_u0631_u0627_u062a_u0020", 
        "u0641_u064a u0020 u0645_u0633_u0627_u062d_u0629 u0020 u062e_u0627_u0644_u064a_u0629 u0020 u062a_u0628_u0644_u063a u0020 u062d_u0648_u0627_u0644_u064a u0020 u0031_u0034_u0623_u0644_u0641 u0020 u0645_u062a_u0631_u00b2_u002e_u000d", 
        "u064a_u0642_u062a_u0631_u062d u0020 u0627_u0633_u062a_u062e_u062f_u0627_u0645 u0020 u0627_u0644_u0645_u0634_u0631_u0648_u0639 u0020 u0643_u0645_u0633_u062a_u0634_u0641_u064a u0020 u0645_u062a_u0643_u0627_u0645_u0644 u0020 u002b u0020 u0627_u0633_u062a_u062b_u0645_u0627_u0631_u0627_u062a u0020 u062e_u062f_u0645_u064a_u0629 u0020 u062a_u062c_u0627_u0631_u064a_u0629 u0020 u0643_u0623_u0648_u0642_u0627_u0641 u0020 u0639_u0644_u064a_u0020", 
        "u0627_u0644_u0648_u0627_u062c_u0647_u0627_u062a u0020 u002e_u000d", 
        "u062a_u062d_u062f_u062f u0020 u0627_u0644_u062a_u0643_u0644_u0641_u0629 u0020 u0627_u0644_u062a_u0642_u062f_u064a_u0631_u064a_u0629 u0020 u0639_u0646_u062f u0020 u0627_u0643_u062a_u0645_u0627_u0644 u0020 u062f_u0631_u0627_u0633_u0629 u0020 u0627_u0644_u062c_u062f_u0648_u0649 u0020 u0627_u0644_u0623_u0648_u0644_u064a_u0629 u0020 u002e_u000d", 
        "u064a_u0645_u0643_u0646 u0020 u062a_u0646_u0641_u064a_u0630 u0020 u0627_u0644_u0645_u0634_u0631_u0648_u0639 u0020 u0639_u0644_u064a u0020 u0645_u0631_u0627_u062d_u0644 u0020 u0628_u0627_u0644_u062a_u0645_u0648_u064a_u0644 u0020 u0627_u0644_u0645_u0628_u0627_u0634_u0631 u0020 u0623_u0648 u0020 u0639_u0644_u064a u0020 u0646_u0638_u0627_u0645 u0020 u0627_u0644_u0628_u0648_u062a u0020 u0623_u0648 u0020 u0627_u0644_u0634_u0631_u0627_u0643_u0629 u0020 u0623_u0648 u0020 u0623_u064a u0020 u0635_u064a_u063a_u0629_u0020", 
        "u062a_u0645_u0648_u064a_u0644_u064a_u0629 u0020 u0623_u062e_u0631_u064a u0020 u064a_u062a_u0641_u0642 u0020 u0639_u0644_u064a_u0647_u0627 u0020 u0645_u0639 u0020 u0627_u0644_u062c_u0627_u0645_u0639_u0629_u002e", 
        "u0645_u0634_u0631_u0648_u0639 u0020 u0631_u0642_u0645 u0020 u0028_u0033_u0030_u0029"
    ]
}