{
    "bounding_box": [
        [
            39, 
            87, 
            524, 
            24
        ], 
        [
            483, 
            122, 
            80, 
            19
        ], 
        [
            99, 
            172, 
            464, 
            20
        ], 
        [
            147, 
            221, 
            415, 
            19
        ], 
        [
            260, 
            318, 
            302, 
            22
        ], 
        [
            119, 
            368, 
            443, 
            19
        ], 
        [
            149, 
            416, 
            413, 
            19
        ], 
        [
            172, 
            464, 
            390, 
            19
        ]
    ], 
    "image_height": 540, 
    "image_width": 720, 
    "transcription": [
        "u0627_u06cc_u0631_u0627_u062f u0020 u0033_u0029 u0020 u0627_u0632_u062f_u0648_u0627_u062c u0020 u0645_u0648_u0642_u062a_u060c u0020 u0628_u0627 u0020 u062a_u0648_u062c_u0647 u0020 u0628_u0647 u0020 u0644_u0632_u0648_u0645 u0020 u0645_u0647_u0631_u06cc_u0647 u0020 u0628_u0647 u0020 u0645_u0646_u0632_u0644_u0647 u0020 u06a9_u0631_u0627_u06cc_u0647 u0020 u062f_u0627_u062f_u0646_u0020", 
        "u062e_u0648_u062f u0020 u0627_u0633_u062a_u000d", 
        "u067e_u0627_u0633_u062e u0020 u0031_u003a u0020 u0645_u0647_u0631_u06cc_u0647 u0020 u062f_u0631 u0020 u0639_u0642_u062f u0020 u062f_u0627_u0626_u0645 u0020 u0647_u0645 u0020 u0627_u0633_u062a u0020 u0648_u0644_u06cc u0020 u0627_u06cc_u0646 u0020 u0627_u06cc_u0631_u0627_u062f u0020 u0622_u0646_u062c_u0627 u0020 u0645_u0637_u0631_u062d u0020 u0646_u0645_u06cc u0020 u0628_u0627_u0634_u062f_u000d", 
        "u067e_u0627_u0633_u062e u0020 u0032_u003a u0020 u062f_u0631 u0020 u0646_u0627_u0645_u0632_u062f_u06cc u0020 u06cc_u0627 u0020 u0645_u0648_u0627_u0631_u062f u0020 u0645_u062d_u0631_u0645_u06cc_u062a_u060c u0020 u0645_u0647_u0631_u06cc_u0647 u0020 u0645_u0648_u0636_u0648_u0639_u06cc_u062a u0020 u0646_u062f_u0627_u0631_u062f_u000d", 
        "u0627_u06cc_u0631_u0627_u062f u0020 u0034_u0029 u0020 u0639_u0642_u062f u0020 u0645_u0648_u0642_u062a_u060c u0020 u0647_u0645_u0627_u0646 u0020 u0641_u062d_u0634_u0627_u0621 u0020 u0627_u0633_u062a_u000d", 
        "u067e_u0627_u0633_u062e u0020 u0031_u003a u0020 u0639_u0642_u062f u0020 u0645_u0648_u0642_u062a_u060c u0020 u0646_u0647_u0627_u062f_u06cc u0020 u0627_u0633_u062a u0020 u0628_u0627 u0020 u06a9_u0627_u0631_u06a9_u0631_u062f_u0647_u0627 u0020 u0648 u0020 u0634_u0631_u0627_u06cc_u0637 u0020 u062e_u0627_u0635 u0020 u062e_u0648_u062f_u0634_u000d", 
        "u067e_u0627_u0633_u062e u0020 u0032_u003a u0020 u0639_u062f_u0645 u0020 u062c_u0648_u0627_u0632 u0020 u0631_u0648_u0627_u0628_u0637 u0020 u0645_u0648_u0627_u0632_u06cc u0020 u0648 u0020 u0644_u0632_u0648_u0645 u0020 u0631_u0639_u0627_u06cc_u062a u0020 u0639_u062f_u0647 u0020 u062a_u0648_u0633_u0637 u0020 u0632_u0646_u000d", 
        "u067e_u0627_u0633_u062e u0020 u0033_u003a u0020 u0645_u0634_u0627_u0628_u0647_u062a u0020 u0648_u0636_u0639_u06cc_u062a u0020 u0641_u0631_u0632_u0646_u062f_u0627_u0646 u0020 u062f_u0631 u0020 u0639_u0642_u062f u0020 u0645_u0648_u0642_u062a u0020 u0648 u0020 u0639_u0642_u062f u0020 u062f_u0627_u0626_u0645_u000d"
    ]
}