{
    "bounding_box": [
        [
            415, 
            47, 
            265, 
            34
        ], 
        [
            460, 
            181, 
            186, 
            24
        ], 
        [
            536, 
            211, 
            110, 
            23
        ], 
        [
            410, 
            239, 
            235, 
            22
        ], 
        [
            617, 
            269, 
            29, 
            23
        ], 
        [
            624, 
            293, 
            22, 
            27
        ]
    ], 
    "image_height": 540, 
    "image_width": 720, 
    "transcription": [
        "u0627_u0644_u0633_u0624_u0627_u0644 u0020 u0627_u0644_u062b_u0627_u0646_u064a_u003a u0020 u0623_u064a_u0629 u0020 u0645_u0646_u0647_u062c_u064a_u0629_u061f", 
        "u0627_u0644_u062d_u062c_u0628 u0020 u0648_u0627_u0644_u0625_u0642_u0641_u0627_u0644 u0020 u0648_u0627_u0644_u0645_u0646_u0639_u061f_u000d", 
        "u062a_u0631_u0628_u064a_u0629 u0020 u0627_u0644_u0648_u0627_u0632_u0639_u061f_u000d", 
        "u0627_u0644_u0642_u0627_u0646_u0648_u0646 u0020 u0648_u0627_u0644_u062c_u0632_u0627_u0621_u0627_u062a u0020 u0648_u0627_u0644_u0639_u0642_u0648_u0628_u0627_u062a_u061f_u000d", 
        "u0627_u0644_u062e_u000d", 
        "u0627_u0644_u062e"
    ]
}