{
    "bounding_box": [
        [
            223, 
            130, 
            463, 
            38
        ], 
        [
            67, 
            202, 
            609, 
            22
        ], 
        [
            433, 
            230, 
            249, 
            23
        ], 
        [
            201, 
            258, 
            481, 
            23
        ], 
        [
            45, 
            288, 
            631, 
            23
        ], 
        [
            498, 
            318, 
            185, 
            22
        ], 
        [
            141, 
            345, 
            542, 
            21
        ], 
        [
            311, 
            374, 
            364, 
            24
        ]
    ], 
    "image_height": 540, 
    "image_width": 720, 
    "transcription": [
        "u002a_u064a_u0645_u0643_u0646 u0020 u062a_u0644_u062e_u064a_u0635 u0020 u0627_u0644_u0646_u0638_u0631_u064a_u0629 u0020 u0627_u0644_u062b_u0627_u0644_u062b_u0629 u0020 u0628_u0645_u0627 u0020 u064a_u0644_u064a u0020 u003a_u000b", 
        "u0031_u002d u0020 u0648_u062c_u0648_u062f u0020 u0627_u0644_u0645_u0648_u0627_u062f u0020 u0627_u0644_u0647_u064a_u062f_u0631_u0648_u0643_u0631_u0628_u0648_u0646_u064a_u0647 u0020 u0644_u064a_u0633 u0020 u0645_u0642_u062a_u0635_u0631_u0627 u0020 u0639_u0644_u0649 u0020 u0627_u0644_u0643_u0627_u0626_u0646_u0627_u062a u0020 u0627_u0644_u062d_u064a_u0647 u0020 u062d_u064a_u062b u0020 u064a_u062d_u062a_u0648_u064a_u0020", 
        "u0627_u0644_u0646_u0638_u0627_u0645 u0020 u0627_u0644_u0634_u0645_u0633_u0649 u0020 u0639_u0644_u0649 u0020 u062a_u0644_u0643 u0020 u0627_u0644_u0645_u0648_u0627_u062f u0020 u000b", 
        "u0032_u002d u0020 u0648_u062c_u0648_u062f u0020 u0643_u0645_u064a_u0647 u0020 u0643_u0628_u064a_u0631_u0647 u0020 u0645_u0646 u0020 u063a_u0627_u0632 u0020 u0627_u0644_u0647_u064a_u0644_u064a_u0648_u0645 u0020 u0645_u0631_u0627_u0641_u0642_u0627 u0020 u0644_u0644_u063a_u0627_u0632_u0627_u062a u0020 u0627_u0644_u0646_u0642_u0637_u064a_u0647 u0020 u000b", 
        "u0033_u002d_u0643_u0645_u064a_u0627_u062a u0020 u0627_u0644_u0646_u0641_u0637 u0020 u0648_u0627_u0644_u063a_u0627_u0632 u0020 u0627_u0644_u0645_u0648_u062c_u0648_u062f u0020 u0639_u0644_u0649 u0020 u0627_u0644_u0627_u0631_u0636 u0020 u0627_u0643_u0628_u0631 u0020 u0628_u0645_u0626_u0627_u062a u0020 u0627_u0644_u0645_u0631_u0627_u062a u0020 u0645_u0646 u0020 u0627_u0644_u062a_u0642_u062f_u064a_u0631_u0627_u062a u0020 u0627_u0644_u062a_u0649_u0020", 
        "u062a_u0639_u062a_u0645_u062f u0020 u0639_u0644_u064a u0020 u0627_u0635_u0644 u0020 u062d_u064a_u0627_u062a_u064a u0020 u000b", 
        "u0034_u002d_u0627_u062d_u062a_u0645_u0627_u0644 u0020 u062a_u0627_u0643_u0633_u062f u0020 u062c_u0632_u0621 u0020 u0645_u0646 u0020 u063a_u0627_u0632 u0020 u0627_u0644_u0645_u064a_u062b_u0627_u0646 u0020 u062e_u0644_u0627_u0644 u0020 u0645_u0631_u0648_u0631_u0647 u0020 u0628_u0627_u0644_u0635_u062e_u0648_u0631 u0020 u0627_u0644_u062c_u0648_u0641_u064a_u0647 u0020 u000b", 
        "u0035_u002d u0020 u0627_u0646 u0020 u0648_u062c_u0648_u062f u0020 u0627_u062b_u0627_u0631 u0020 u0627_u0644_u0643_u0627_u0646_u0626_u0627_u062a u0020 u0627_u0644_u062d_u064a_u0647 u0020 u0641_u064a u0020 u0627_u0644_u0632_u064a_u062a u0020 u0627_u0644_u062e_u0627_u0645"
    ]
}