{
    "bounding_box": [
        [
            63, 
            41, 
            592, 
            54
        ], 
        [
            114, 
            130, 
            467, 
            51
        ], 
        [
            132, 
            184, 
            442, 
            49
        ]
    ], 
    "image_height": 540, 
    "image_width": 720, 
    "transcription": [
        "u0633_u002f u0020 u0645_u0627 u0020 u0645_u0639_u0646_u0649 u0020 u0627_u0644_u0641_u0642_u0631_u061f_u0635 u0020 u0034_u0035", 
        "u0639_u062f_u0645 u0020 u0627_u0644_u0642_u062f_u0631_u0629 u0020 u0639_u0644_u0649 u0020 u062a_u0644_u0628_u064a_u0629 u0020 u0627_u0644_u062d_u062f u0020 u0627_u0644_u0623_u062f_u0646_u0649_u0020", 
        "u0645_u0646 u0020 u0627_u062d_u062a_u064a_u0627_u062c_u0627_u062a u0020 u0627_u0644_u0623_u0633_u0631_u0629 u0020 u0627_u0644_u0623_u0633_u0627_u0633_u064a_u0629 u0020 u0020"
    ]
}