{
    "bounding_box": [
        [
            503, 
            83, 
            145, 
            20
        ], 
        [
            37, 
            134, 
            612, 
            20
        ], 
        [
            37, 
            166, 
            612, 
            17
        ], 
        [
            613, 
            198, 
            36, 
            16
        ], 
        [
            37, 
            266, 
            612, 
            22
        ], 
        [
            37, 
            297, 
            612, 
            22
        ], 
        [
            37, 
            329, 
            612, 
            20
        ], 
        [
            37, 
            360, 
            612, 
            22
        ], 
        [
            584, 
            395, 
            64, 
            16
        ], 
        [
            180, 
            13, 
            359, 
            37
        ]
    ], 
    "image_height": 540, 
    "image_width": 720, 
    "transcription": [
        "u0627_u0644_u062a_u0635_u0631_u064a_u062d u0020 u0628_u0627_u0644_u0645_u0645_u062a_u0644_u0643_u0627_u062a_u000d", 
        "u062a_u064a_u0633_u064a_u0631 u0020 u0627_u0644_u0648_u0644_u0648_u062c u0020 u0625_u0644_u0649 u0020 u0627_u0644_u0645_u0639_u0644_u0648_u0645_u0627_u062a u0020 u0627_u0644_u0645_u062a_u0639_u0644_u0642_u0629 u0020 u0628_u0645_u0645_u062a_u0644_u0643_u0627_u062a u0020 u0648_u0645_u062f_u0627_u062e_u064a_u0644 u0020 u0627_u0644_u0645_u0646_u062a_u062e_u0628_u064a_u0646 u0020 u0648_u0643_u0628_u0627_u0631 u0020 u0627_u0644_u0645_u0648_u0638_u0641_u064a_u0646_u060c u0020 u0648_u0646_u0634_u0631_u0647_u0627 u0020 u0639_u0644_u0649_u0020", 
        "u0627_u0644_u0627_u0646_u062a_u0631_u0646_u064a_u062a u0020 u0628_u063a_u064a_u0629 u0020 u062a_u0643_u0631_u064a_u0633 u0020 u0645_u0628_u0627_u062f_u0626 u0020 u0627_u0644_u0634_u0641_u0627_u0641_u064a_u0629_u060c u0020 u0648_u0627_u0644_u0645_u0633_u0627_u0621_u0644_u0629 u0020 u0648_u062d_u0645_u0627_u064a_u0629 u0020 u0627_u0644_u0645_u0627_u0644 u0020 u0627_u0644_u0639_u0627_u0645 u0020 u0648_u0645_u062d_u0627_u0631_u0628_u0629 u0020 u0627_u0644_u0631_u0634_u0648_u0629 u0020 u0648_u0627_u0644_u0648_u0642_u0627_u064a_u0629_u0020", 
        "u0645_u0646_u0647_u0627_u002e_u000d", 
        "u0648_u0636_u0639 u0020 u0625_u0637_u0627_u0631 u0020 u0642_u0627_u0646_u0648_u0646_u064a u0020 u0644_u062a_u0646_u0638_u064a_u0645 u0020 u0627_u0644_u062a_u0635_u0631_u064a_u062d u0020 u0627_u0644_u0625_u062c_u0628_u0627_u0631_u064a u0020 u0628_u0627_u0644_u0645_u0645_u062a_u0644_u0643_u0627_u062a_u060c u0020 u064a_u0634_u0645_u0644 u0020 u0623_u0639_u0636_u0627_u0621 u0020 u0627_u0644_u062d_u0643_u0648_u0645_u0629 u0020 u0648_u0623_u0639_u0636_u0627_u0621_u0020", 
        "u062f_u0648_u0627_u0648_u064a_u0646_u0647_u0645 u0020 u0648_u0623_u0639_u0636_u0627_u0621 u0020 u0627_u0644_u0645_u062c_u0644_u0633 u0020 u0627_u0644_u062f_u0633_u062a_u0648_u0631_u064a u0020 u0648_u0627_u0644_u0646_u0648_u0627_u0628 u0020 u0648_u0627_u0644_u0645_u0633_u062a_u0634_u0627_u0631_u064a_u0646 u0020 u0627_u0644_u0628_u0631_u0644_u0645_u0627_u0646_u064a_u064a_u0646 u0020 u0648_u0627_u0644_u0642_u0636_u0627_u0629 u0020 u0648_u0642_u0636_u0627_u0629 u0020 u0627_u0644_u0645_u062d_u0627_u0643_u0645_u0020", 
        "u0627_u0644_u0645_u0627_u0644_u064a_u0629 u0020 u0648_u0623_u0639_u0636_u0627_u0621 u0020 u0627_u0644_u0647_u064a_u0626_u0629 u0020 u0627_u0644_u0639_u0644_u064a_u0627 u0020 u0644_u0644_u0627_u062a_u0635_u0627_u0644_u0627_u062a u0020 u0627_u0644_u0633_u0645_u0639_u064a_u0629 u0020 u0627_u0644_u0628_u0635_u0631_u064a_u0629_u060c u0020 u0648_u0628_u0639_u0636 u0020 u0627_u0644_u0645_u0646_u062a_u062e_u0628_u064a_u0646 u0020 u0628_u0627_u0644_u0645_u062c_u0627_u0644_u0633 u0020 u0627_u0644_u0645_u062d_u0644_u064a_u0629_u0020", 
        "u0648_u0627_u0644_u063a_u0631_u0641 u0020 u0627_u0644_u0645_u0647_u0646_u064a_u0629_u060c u0020 u0648 u0020 u0641_u0626_u0627_u062a u0020 u0645_u0639_u064a_u0646_u0629 u0020 u0645_u0646 u0020 u0645_u0648_u0638_u0641_u064a u0020 u0648_u0623_u0639_u0648_u0627_u0646 u0020 u0627_u0644_u062f_u0648_u0644_u0629_u060c u0020 u0644_u0627_u0633_u064a_u0645_u0627 u0020 u062a_u0644_u0643 u0020 u0627_u0644_u0645_u062a_u062f_u062e_u0644_u0629 u0020 u0641_u064a u0020 u0627_u0644_u0635_u0641_u0642_u0627_u062a_u0020", 
        "u0627_u0644_u0639_u0645_u0648_u0645_u064a_u0629_u061b_u000d", 
        "u0627_u0644_u062d_u0643_u0648_u0645_u0629 u0020 u0627_u0644_u0645_u0646_u0641_u062a_u062d_u0629_u003a u0020 u0627_u0644_u0634_u0641_u0627_u0641_u064a_u0629"
    ]
}