{
    "bounding_box": [
        [
            275, 
            143, 
            158, 
            39
        ], 
        [
            98, 
            188, 
            512, 
            42
        ], 
        [
            310, 
            238, 
            99, 
            36
        ]
    ], 
    "image_height": 540, 
    "image_width": 720, 
    "transcription": [
        "u0627_u0644_u0628_u0627_u0628 u0020 u0627_u0644_u062b_u0627_u0646_u064a_u000b", 
        "u0646_u0638_u0645 u0020 u0627_u0644_u0627_u0646_u062a_u062e_u0627_u0628_u0627_u062a u0020 u0627_u0644_u062a_u0634_u0631_u064a_u0639_u064a_u0629 u0020 u0648_u0627_u0644_u0631_u0626_u0627_u0633_u064a_u0629 u0020 u0641_u064a_u0020", 
        "u0641_u0644_u0633_u0637_u064a_u0646"
    ]
}