{
    "bounding_box": [
        [
            192, 
            98, 
            334, 
            33
        ], 
        [
            157, 
            223, 
            435, 
            31
        ], 
        [
            131, 
            258, 
            473, 
            30
        ], 
        [
            157, 
            291, 
            447, 
            31
        ], 
        [
            142, 
            325, 
            461, 
            27
        ], 
        [
            376, 
            361, 
            227, 
            25
        ], 
        [
            109, 
            400, 
            485, 
            30
        ], 
        [
            167, 
            434, 
            437, 
            29
        ], 
        [
            426, 
            470, 
            178, 
            27
        ]
    ], 
    "image_height": 540, 
    "image_width": 720, 
    "transcription": [
        "u0645_u0627 u0020 u0647_u064a u0020 u0627_u0644_u0645_u0639_u0644_u0648_u0645_u0627_u062a u0020 u0627_u0644_u062a_u064a u0020 u062a_u0639_u0631_u0641_u0648_u0646_u0647_u0627_u061f", 
        "u0020_u064a_u0634_u0643_u0651_u0644 u0020 u0627_u0644_u0645_u062c_u062a_u0645_u0639 u0020 u0627_u0644_u0641_u0644_u0633_u0637_u064a_u0646_u064a u0020 u0641_u064a u0020 u0625_u0633_u0631_u0627_u0626_u064a_u0644 u0020 u062d_u0627_u0644_u0640_u064a_u0651_u064b_u0627 u0020 u0646_u062d_u0648_u0020", 
        "u0032_u0030_u002e_u0035_u0025 u0020 u0645_u0646 u0020 u0645_u062c_u0645_u0644 u0020 u0627_u0644_u0633_u0643_u0651_u0627_u0646 u0020 u0641_u064a u0020 u0625_u0633_u0631_u0627_u0626_u064a_u0644_u060c u0020 u0648_u0642_u062f u0020 u0628_u0644_u063a u0020 u0639_u062f_u062f_u0020", 
        "u0627_u0644_u0633_u0643_u0651_u0627_u0646 u0020 u0627_u0644_u0639_u0631_u0628 u0020 u0627_u0644_u0641_u0644_u0633_u0637_u064a_u0646_u064a_u0651_u064a_u0646 u0020 u0641_u064a u0020 u0627_u0644_u0628_u0644_u0627_u062f u0020 u0641_u064a u0020 u0646_u0647_u0627_u064a_u0629 u0020 u0627_u0644_u0639_u0627_u0645_u0020", 
        "u0032_u0030_u0031_u0031 u0020 u0623_u0643_u062b_u0631 u0020 u0031_u002e_u0035_u0037_u0034 u0020 u0645_u0644_u064a_u0648_u0646 u0020 u0646_u0633_u0645_u0629 u0020 u0648_u0630_u0644_u0643 u0020 u064a_u0634_u0645_u0644 u0020 u0633_u0643_u0627_u0646_u0020", 
        "u0627_u0644_u0642_u062f_u0633 u0020 u0627_u0644_u0634_u0631_u0642_u064a_u0629 u0020 u0648_u0627_u0644_u062c_u0648_u0644_u0627_u0646_u002e_u000d", 
        "u064a_u0639_u064a_u0634 u0020 u0627_u0644_u0633_u0643_u0651_u0627_u0646 u0020 u0627_u0644_u0639_u0631_u0628 u0020 u0641_u064a u0020 u062b_u0644_u0627_u062b u0020 u0645_u0646_u0627_u0637_u0642 u0020 u0631_u0626_u064a_u0633_u0629 u0020 u0641_u064a u0020 u0627_u0644_u0628_u0644_u0627_u062f_u003a_u0020", 
        "u0627_u0644_u0634_u0645_u0627_u0644 u0020 u0028_u0037_u0031_u002e_u0036_u0025_u0029 u0020 u0648_u0627_u0644_u0648_u0633_u0637 u0020 u0028_u0031_u0034_u002e_u0036_u0025_u0029 u0020 u0648_u0627_u0644_u062c_u0646_u0648_u0628_u0020", 
        "u0028_u0627_u0644_u0646_u0642_u0628_u0029 u0020 u0028_u0031_u0033_u002e_u0038_u0025_u0029_u002e"
    ]
}