{
    "bounding_box": [
        [
            234, 
            73, 
            442, 
            30
        ], 
        [
            36, 
            129, 
            640, 
            22
        ], 
        [
            36, 
            155, 
            618, 
            25
        ], 
        [
            157, 
            182, 
            497, 
            27
        ], 
        [
            36, 
            211, 
            640, 
            33
        ], 
        [
            36, 
            245, 
            618, 
            27
        ], 
        [
            36, 
            274, 
            618, 
            27
        ], 
        [
            86, 
            303, 
            568, 
            27
        ]
    ], 
    "image_height": 540, 
    "image_width": 720, 
    "transcription": [
        "u0032_u002e_u0639_u062f_u0645 u0020 u0641_u0647_u0645 u0020 u0639_u0645_u06cc_u0642 u0020 u0648 u0020 u0628_u06cc u0020 u0639_u0644_u0627_u0642_u06af_u06cc u0020 u0628_u0647 u0020 u0634_u0646_u06cc_u062f_u0646 u0020 u0645_u0639_u0627_u0631_u0641 u0020 u0642_u0631_u0622_u0646", 
        "u0020_u201d u0020 u0648 u0020 u0627_u0630_u0627 u0020 u0642_u0631_u0627_u062a u0020 u0627_u0644_u0642_u0631_u0627_u0646 u0020 u062c_u0639_u0644_u0646_u0627 u0020 u0628_u06cc_u0646_u06a9 u0020 u0648 u0020 u0628_u06cc_u0646 u0020 u0627_u0644_u0630_u06cc_u0646 u0020 u0644_u0627 u0020 u06cc_u0648_u0645_u0646_u0648_u0646 u0020 u0628_u0627_u0644_u0627_u062e_u0631_u062a u0020 u062d_u062c_u0627_u0628_u0627_u0020", 
        "u0645_u0633_u062a_u0648_u0631_u0627 u0020 u002a_u0648 u0020 u062c_u0639_u0644_u0646_u0627 u0020 u0639_u0644_u06cc u0020 u0642_u0644_u0648_u0628_u0647_u0645 u0020 u0627_u06a9_u0646_u062a_u0647 u0020 u0627_u0646 u0020 u06cc_u0641_u0642_u0647_u0648_u0647 u0020 u0648 u0020 u0641_u06cc u0020 u0622_u0630_u0627_u0626_u0647_u0645 u0020 u0648_u0642_u0631_u0627 u0020 u0648 u0020 u0627_u0630_u0627_u0020", 
        "u0630_u06a9_u0631_u062a u0020 u0631_u0628_u06a9 u0020 u0641_u06cc u0020 u0627_u0644_u0642_u0631_u0627_u0646 u0020 u0648_u062d_u062f_u0647 u0020 u0648 u0020 u0644_u0648_u0627 u0020 u0639_u0644_u06cc u0020 u0627_u062f_u0628_u0627_u0631_u0647_u0645 u0020 u0646_u0641_u0648_u0631_u0627 u0020 u201d_u000d", 
        "u201d u0020 u0648 u0020 u0686_u0648_u0646 u0020 u0642_u0631_u0622_u0646 u0020 u0628_u062e_u0648_u0627_u0646_u06cc u0020 u0645_u06cc_u0627_u0646 u0020 u062a_u0648 u0020 u0648 u0020 u06a9_u0633_u0627_u0646_u06cc u0020 u06a9_u0647 u0020 u0628_u0647 u0020 u0622_u062e_u0631_u062a u0020 u0627_u06cc_u0645_u0627_u0646 u0020 u0646_u062f_u0627_u0631_u0646_u062f u0020 u067e_u0631_u062f_u0647_u0020", 
        "u0627_u06cc u0020 u067e_u0648_u0634_u06cc_u062f_u0647 u0020 u0642_u0631_u0627_u0631 u0020 u0645_u06cc u0020 u062f_u0647_u06cc_u0645_u002e u0020 u0648 u0020 u0628_u0631 u0020 u062f_u0644 u0020 u0647_u0627_u06cc_u0634_u0627_u0646 u0020 u067e_u0648_u0634_u0634 u0020 u0647_u0627 u0020 u0645_u06cc u0020 u0646_u0647_u06cc_u0645 u0020 u062a_u0627_u0020", 
        "u0622_u0646 u0020 u0631_u0627 u0020 u0646_u0641_u0647_u0645_u0646_u062f u0020 u0648 u0020 u0628_u0631 u0020 u06af_u0648_u0634 u0020 u0647_u0627_u06cc_u0634_u0627_u0646 u0020 u0633_u0646_u06af_u06cc_u0646_u06cc_u007b_u0642_u0631_u0627_u0631 u0020 u0645_u06cc u0020 u062f_u0647_u06cc_u0645_u007d u0020 u0648 u0020 u0686_u0648_u0646 u0020 u062f_u0631_u0020", 
        "u0642_u0631_u0622_u0646 u0020 u067e_u0631_u0648_u0631_u062f_u06af_u0627_u0631 u0020 u062e_u0648_u062f u0020 u0631_u0627 u0020 u0628_u0647 u0020 u06cc_u06af_u0627_u0646_u06af_u06cc u0020 u06cc_u0627_u062f u0020 u06a9_u0646_u06cc u0020 u0628_u0627 u0020 u0646_u0641_u0631_u062a u0020 u067e_u0634_u062a u0020 u0645_u06cc u0020 u06a9_u0646_u0646_u062f_u002e"
    ]
}