{
    "bounding_box": [
        [
            456, 
            96, 
            220, 
            26
        ], 
        [
            422, 
            149, 
            253, 
            22
        ], 
        [
            380, 
            173, 
            275, 
            21
        ], 
        [
            82, 
            198, 
            572, 
            21
        ], 
        [
            335, 
            220, 
            319, 
            18
        ], 
        [
            230, 
            241, 
            425, 
            21
        ], 
        [
            52, 
            265, 
            602, 
            21
        ], 
        [
            58, 
            287, 
            596, 
            16
        ], 
        [
            442, 
            310, 
            212, 
            18
        ], 
        [
            75, 
            331, 
            579, 
            22
        ], 
        [
            35, 
            354, 
            619, 
            18
        ], 
        [
            65, 
            373, 
            590, 
            18
        ], 
        [
            434, 
            392, 
            221, 
            18
        ], 
        [
            339, 
            413, 
            315, 
            22
        ], 
        [
            75, 
            438, 
            580, 
            21
        ], 
        [
            38, 
            460, 
            616, 
            18
        ], 
        [
            73, 
            479, 
            581, 
            18
        ]
    ], 
    "image_height": 540, 
    "image_width": 720, 
    "transcription": [
        "u0623_u0648_u0644_u0627_u064b_u003a u0020 u0627_u0644_u0627_u0636_u0637_u0631_u0627_u0628_u0627_u062a u0020 u0627_u0644_u0627_u0643_u062a_u0626_u0627_u0628_u064a_u0629_u003a_u000d", 
        "u0623_u002e u0020 u0627_u0644_u0627_u0643_u062a_u0626_u0627_u0628 u0020 u0627_u0644_u0623_u0633_u0627_u0633_u0649_u0028 u0020 u0627_u0644_u0631_u0626_u064a_u0633_u0649_u0029 u0020 u0648_u064a_u0634_u0645_u0644_u003a_u000d", 
        "u0031_u002d_u0627_u0636_u0637_u0631_u0627_u0628 u0020 u0627_u0644_u0627_u0643_u062a_u0626_u0627_u0628 u0020 u0627_u0644_u0631_u0626_u064a_u0633_u0649 u0020 u0648_u062d_u064a_u062f u0020 u0627_u0644_u0646_u0648_u0628_u0629_u003a_u000d", 
        "u0648_u064a_u0634_u062e_u0635 u0020 u0639_u0646_u062f_u0645_u0627 u0020 u064a_u0645_u0631 u0020 u0627_u0644_u0645_u0631_u064a_u0636 u0020 u0628_u0646_u0648_u0628_u0629 u0020 u0627_u0643_u062a_u0626_u0627_u0628 u0020 u0631_u0626_u064a_u0633_u064a_u0629 u0020 u0648_u062d_u064a_u062f_u0629 u0020 u0644_u0627 u0020 u062a_u0635_u0627_u062d_u0628_u0647_u0627 u0020 u0623_u0649 u0020 u0645_u0646 u0020 u0627_u0644_u0646_u0648_u0628_u0627_u062a u0020 u0627_u0644_u062b_u0644_u0627_u062b_u0020", 
        "u0627_u0644_u0623_u062e_u0631_u0649 u0020 u003a u0020 u0627_u0644_u0647_u0648_u0633_u002c u0020 u0627_u0644_u0647_u0648_u0633 u0020 u0627_u0644_u062e_u0641_u064a_u0641 u0020 u002c_u0627_u0644_u0646_u0648_u0628_u0629 u0020 u0627_u0644_u0645_u062e_u062a_u0644_u0637_u0629_u002e_u000d", 
        "u0032_u002d u0020 u0627_u0636_u0637_u0631_u0627_u0628 u0020 u0627_u0644_u0627_u0643_u062a_u0626_u0627_u0628 u0020 u0627_u0644_u0627_u0633_u0627_u0633_u0649 u0020 u0627_u0644_u0645_u062a_u0643_u0631_u0631 u0020 u062f_u0648_u0631_u064a_u0627_u064b_u0028 u0020 u0627_u0644_u0645_u062a_u0648_u0627_u062a_u0631 u0020 u0623_u0648 u0020 u0627_u0644_u0646_u0648_u0627_u0628_u0649_u0029_u000d", 
        "u0648_u064a_u0634_u062e_u0635 u0020 u0639_u0646_u062f_u0645_u0627 u0020 u064a_u0645_u0631 u0020 u0627_u0644_u0641_u0631_u062f u0020 u0628_u0627_u062b_u0646_u064a_u0646 u0020 u0623_u0648 u0020 u0623_u0643_u062b_u0631 u0020 u0645_u0646 u0020 u0646_u0648_u0628_u0627_u062a u0020 u0627_u0644_u0627_u0643_u062a_u0626_u0627_u0628 u0020 u0627_u0644_u0627_u0633_u0627_u0633_u064a_u0629 u0020 u002c u0020 u0645_u0639 u0020 u0648_u062c_u0648_u062f u0020 u0641_u062a_u0631_u0629 u0020 u062a_u0641_u0635_u0644 u0020 u0628_u064a_u0646_u0020", 
        "u0627_u0644_u0646_u0648_u0628_u0627_u062a u0020 u0644_u0627_u062a_u0642_u0644 u0020 u0639_u0646 u0020 u0634_u0647_u0631_u064a_u0646 u0020 u0645_u062a_u062a_u0627_u0628_u0639_u064a_u0646 u0020 u0644_u0627 u0020 u062a_u0638_u0647_u0631 u0020 u0641_u064a_u0647_u0627 u0020 u0623_u0639_u0631_u0627_u0636 u0020 u0645_u0645_u0627_u062b_u0644_u0629 u0020 u0644_u0645_u0639_u0627_u064a_u064a_u0631 u0020 u0646_u0648_u0628_u0629 u0020 u0627_u0644_u0627_u0643_u062a_u0626_u0627_u0628 u0020 u0627_u0644_u0627_u0633_u0627_u0633_u064a_u0629_u002e_u000d", 
        "u0628_u002d u0020 u0627_u0636_u0637_u0631_u0627_u0628 u0020 u0627_u0644_u0627_u0643_u062a_u0626_u0627_u0628 u0020 u0627_u0644_u0627_u063a_u062a_u0646_u0627_u0645_u0649_u003a_u000d", 
        "u0648_u064a_u062a_u0645_u064a_u0632 u0020 u0628_u0643_u0648_u0646_u0647 u0020 u0645_u0632_u0645_u0646_u0627_u064b u0020 u0625_u0644_u0649 u0020 u062d_u062f u0020 u0645_u0627 u0020 u0648_u0644_u064a_u0633 u0020 u0645_u062c_u0631_u062f u0020 u0646_u0648_u0628_u0627_u062a u0020 u0642_u0635_u064a_u0631_u0629 u0020 u0627_u0644_u0623_u0645_u062f u0020 u002c u0020 u0645_u0639 u0020 u0648_u062c_u0648_u062f u0020 u0627_u0644_u0627_u0639_u0631_u0627_u0636 u0020 u0628_u0637_u0631_u064a_u0642_u0629_u0020", 
        "u0645_u062b_u0627_u0628_u0631_u0629 u0020 u062e_u0644_u0627_u0644 u0020 u0639_u0627_u0645_u064a_u0646 u0020 u0639_u0644_u0649 u0020 u0627_u0644_u0623_u0642_u0644 u0020 u0648_u0623_u0646 u0020 u062a_u0638_u0647_u0631 u0020 u0645_u0639_u0638_u0645 u0020 u0627_u0644_u0627_u064a_u0627_u0645 u0020 u062e_u0644_u0627_u0644 u0020 u0647_u0630_u0647 u0020 u0627_u0644_u0641_u062a_u0631_u0629_u002c u0020 u0648_u062a_u062a_u0636_u0645_u0646 u0020 u0623_u0639_u0631_u0627_u0636_u0647 u0020 u0627_u062e_u062a_u0644_u0627_u0644_u0627_u062a_u0020", 
        "u0645_u0632_u0627_u062c_u064a_u0629 u0020 u0648_u0646_u0642_u0635_u0627_u064b u0020 u0641_u064a u0020 u0627_u0644_u0637_u0627_u0642_u0629 u0020 u002c u0020 u0648_u0634_u0639_u0648_u0631 u0020 u0628_u0627_u0644_u064a_u0623_u0633 u0020 u0648_u0627_u0646_u062e_u0641_u0627_u0636 u0020 u062a_u0642_u062f_u064a_u0631 u0020 u0627_u0644_u0630_u0627_u062a u0020 u0648_u0644_u0643_u0646_u0647_u0627 u0020 u0644_u0627_u062a_u0634_u0645_u0644 u0020 u0639_u0644_u0649 u0020 u0627_u062e_u062a_u0644_u0627_u0644_u0627_u062a_u0020", 
        "u0646_u0641_u0633_u064a_u0629 u0020 u062d_u0631_u0643_u064a_u0629 u0020 u0623_u0648 u0020 u062a_u0641_u0643_u064a_u0631 u0020 u0641_u064a u0020 u0627_u0644_u0627_u0646_u062a_u062d_u0627_u0631_u002e_u000d", 
        "u062c_u002d u0020 u0623_u0636_u0637_u0631_u0627_u0628 u0020 u0627_u0644_u0627_u0643_u062a_u0626_u0627_u0628 u0020 u063a_u064a_u0631 u0020 u0645_u0635_u0646_u0641 u0020 u0639_u0644_u0649 u0020 u0646_u062d_u0648 u0020 u0622_u062e_u0631_u003a_u000d", 
        "u062a_u062a_u0636_u0645_u0646 u0020 u0623_u0636_u0637_u0631_u0627_u0628 u0020 u0627_u0643_u062a_u0626_u0627_u0628_u0649 u0020 u063a_u064a_u0631 u0020 u0627_u0644_u0645_u062d_u062f_u062f u0020 u0639_u0644_u0649 u0020 u0646_u062d_u0648 u0020 u0622_u062e_u0631_u0028_u0627_u0636_u0637_u0631_u0627_u0628_u0627_u062a u0020 u0645_u0635_u062d_u0648_u0628_u0629 u0020 u0628_u0645_u0644_u0627_u0645_u062d u0020 u0627_u0643_u062a_u0626_u0627_u0628_u064a_u0629 u0020 u0644_u0627_u0020", 
        "u062a_u0633_u062a_u0648_u0641_u0649 u0020 u0645_u0639_u0627_u064a_u064a_u0631 u0020 u0627_u0636_u0637_u0631_u0627_u0628 u0020 u0627_u0644_u0627_u0643_u062a_u0626_u0627_u0628 u0020 u0627_u0644_u0627_u0633_u0627_u0633_u0649 u0020 u0623_u0648 u0020 u0627_u0636_u0637_u0631_u0627_u0628 u0020 u0627_u0644_u0627_u0643_u062a_u0626_u0627_u0628 u0020 u0627_u0644_u0627_u063a_u062a_u0646_u0627_u0645_u0649_u002c u0020 u0623_u0648 u0020 u0627_u0636_u0637_u0631_u0627_u0628 u0020 u0627_u0644_u062a_u0648_u0627_u0641_u0642_u0020", 
        "u0627_u0644_u0645_u0635_u062d_u0648_u0628 u0020 u0628_u0645_u0632_u0627_u062c u0020 u0627_u0643_u062a_u0626_u0627_u0628_u0649 u0020 u0623_u0648_u0627_u0636_u0637_u0631_u0627_u0628 u0020 u0627_u0644_u062a_u0648_u0627_u0641_u0642 u0020 u0627_u0644_u0645_u0635_u062d_u0648_u0628 u0020 u0628_u0645_u0632_u0627_u062c u0020 u0645_u062e_u062a_u0644_u0637 u0020 u0645_u0646 u0020 u0627_u0644_u0642_u0644_u0642 u0020 u0648_u0627_u0644_u0627_u0643_u062a_u0626_u0627_u0628_u0029_u002e_u000d"
    ]
}