{
    "bounding_box": [
        [
            429, 
            23, 
            228, 
            27
        ], 
        [
            234, 
            100, 
            427, 
            19
        ], 
        [
            105, 
            254, 
            556, 
            24
        ], 
        [
            107, 
            279, 
            555, 
            21
        ], 
        [
            91, 
            301, 
            571, 
            21
        ], 
        [
            603, 
            324, 
            58, 
            18
        ]
    ], 
    "image_height": 540, 
    "image_width": 720, 
    "transcription": [
        "u0641_u062a_u062d u0020 u0645_u0631_u0628_u0639_u0627_u062a u0020 u062d_u0648_u0627_u0631 u0020 u0625_u0636_u0627_u0641_u064a_u0629", 
        "u064a_u0638_u0647_u0631 u0020 u0623_u062d_u064a_u0627_u0646_u0627 u0020 u0632_u0631 u0020 u062e_u064a_u0627_u0631 u0020 u0635_u063a_u064a_u0631 u0020 u0628_u062c_u0627_u0646_u0628 u0020 u0627_u0633_u0645 u0020 u0645_u062c_u0645_u0648_u0639_u0629 u0020 u0627_u0644_u0634_u0631_u064a_u0637_u003a_u000d", 
        "u0627_u0646_u0642_u0631 u0020 u0639_u0644_u0649 u0020 u0647_u0630_u0647 u0020 u0627_u0644_u0623_u064a_u0642_u0648_u0646_u0629 u0020 u0644_u0641_u062a_u062d u0020 u0645_u0631_u0628_u0639 u0020 u062d_u0648_u0627_u0631 u0020 u062c_u062f_u064a_u062f u0020 u0623_u0648 u0020 u062c_u0632_u0621 u0020 u0627_u0644_u0645_u0647_u0627_u0645 u0020 u0627_u0644_u062a_u064a u0020 u062a_u062d_u062a_u0648_u064a u0020 u0639_u0644_u0649_u0020", 
        "u0627_u0644_u0639_u062f_u064a_u062f u0020 u0645_u0646 u0020 u0627_u0644_u0648_u0638_u0627_u0626_u0641 u0020 u0627_u0644_u0645_u062a_u0642_u062f_u0645_u0629 u0020 u0628_u062f_u0644_u0627_u064b u0020 u0645_u0646 u0020 u062a_u0644_u0643 u0020 u0627_u0644_u0645_u064f_u0642_u062f_u0645_u0629 u0020 u0641_u064a u0020 u0627_u0644_u0634_u0631_u064a_u0637_u002e u0020 u0648_u0643_u0645_u0627 u0020 u0641_u064a u0020 u0627_u0644_u0645_u062b_u0627_u0644_u0020", 
        "u0627_u0644_u0645_u0628_u064a_u0646 u0020 u0623_u0639_u0644_u0627_u0647_u060c u0020 u064a_u0641_u062a_u062d u0020 u0632_u0631 u0020 u062e_u064a_u0627_u0631 u0020 u0022_u062d_u0627_u0641_u0638_u0629_u0022 u0020 u062c_u0632_u0621 u0020 u0627_u0644_u062d_u0627_u0641_u0638_u0629 u0020 u0641_u064a u0020 u0627_u0644_u062c_u0632_u0621 u0020 u0627_u0644_u0623_u064a_u0645_u0646 u0020 u0645_u0646 u0020 u0634_u0627_u0634_u0629_u0020", 
        "u0623_u0643_u0633_u0633_u002e_u000d"
    ]
}