{
    "bounding_box": [
        [
            34, 
            104, 
            613, 
            34
        ], 
        [
            237, 
            142, 
            412, 
            31
        ], 
        [
            34, 
            189, 
            613, 
            34
        ], 
        [
            34, 
            228, 
            615, 
            33
        ], 
        [
            34, 
            264, 
            615, 
            35
        ], 
        [
            239, 
            303, 
            409, 
            31
        ], 
        [
            34, 
            350, 
            613, 
            34
        ], 
        [
            34, 
            387, 
            615, 
            33
        ], 
        [
            446, 
            427, 
            203, 
            31
        ]
    ], 
    "image_height": 540, 
    "image_width": 720, 
    "transcription": [
        "u0648_u062a_u0642_u0648_u0645 u0020 u0628_u062a_u0644_u0628_u064a_u0629 u0020 u0627_u0644_u0627_u062d_u062a_u064a_u0627_u062c_u0627_u062a u0020 u0627_u0644_u0625_u062d_u0635_u0627_u0626_u064a_u0629 u0020 u0644_u0645_u062e_u062a_u0644_u0641 u0020 u0623_u0646_u0648_u0627_u0639_u0020", 
        "u0627_u0644_u0645_u0633_u062a_u062e_u062f_u0645_u064a_u0646 u0020 u0627_u0644_u0645_u0647_u062a_u0645_u064a_u0646 u0020 u0628_u0627_u0644_u0634_u0626_u0648_u0646 u0020 u0627_u0644_u0639_u0631_u0628_u064a_u0629_u002e_u000d", 
        "u0643_u0645_u0627 u0020 u062a_u0647_u062a_u0645 u0020 u0628_u062a_u0648_u0641_u064a_u0631 u0020 u0627_u0644_u0641_u0631_u0635 u0020 u0627_u0644_u062a_u062f_u0631_u064a_u0628_u064a_u0629 u0020 u0644_u0644_u0643_u0648_u0627_u062f_u0631 u0020 u0627_u0644_u0625_u062d_u0635_u0627_u0626_u064a_u0629_u0020", 
        "u0627_u0644_u0639_u0631_u0628_u064a_u0629 u0020 u0641_u064a u0020 u0627_u0644_u0645_u062c_u0627_u0644_u0627_u062a u0020 u0630_u0627_u062a u0020 u0627_u0644_u0623_u0648_u0644_u0648_u064a_u0629 u0020 u0648_u062f_u0639_u0645 u0020 u0627_u0644_u062a_u0646_u0633_u064a_u0642 u0020 u0641_u064a u0020 u0627_u0644_u0639_u0645_u0644_u0020", 
        "u0627_u0644_u0625_u062d_u0635_u0627_u0626_u064a u0020 u0627_u0644_u0645_u062a_u0639_u0644_u0642 u0020 u0628_u0627_u0644_u0623_u0646_u0634_u0637_u0629 u0020 u0627_u0644_u062a_u062f_u0631_u064a_u0628_u064a_u0629_u060c u0020 u0628_u0645_u0627 u0020 u064a_u0639_u0638_u0645 u0020 u0627_u0633_u062a_u0641_u0627_u062f_u0629_u0020", 
        "u0627_u0644_u0623_u062c_u0647_u0632_u0629 u0020 u0627_u0644_u0639_u0631_u0628_u064a_u0629 u0020 u0645_u0646 u0020 u062c_u0647_u0648_u062f u0020 u0647_u0630_u0647 u0020 u0627_u0644_u062c_u0647_u0627_u062a_u002e_u000d", 
        "u0632_u064a_u0627_u062f_u0629 u0020 u0627_u0644_u0645_u0634_u0627_u0631_u0643_u0629 u0020 u0627_u0644_u0641_u0627_u0639_u0644_u0629 u0020 u0644_u0644_u0623_u062c_u0647_u0632_u0629 u0020 u0627_u0644_u0625_u062d_u0635_u0627_u0626_u064a_u0629 u0020 u0627_u0644_u0639_u0631_u0628_u064a_u0629 u0020 u0641_u064a_u0020", 
        "u0627_u0644_u0623_u0646_u0634_u0637_u0629 u0020 u0627_u0644_u0625_u062d_u0635_u0627_u0626_u064a_u0629 u0020 u0644_u0644_u062c_u0627_u0645_u0639_u0629 u0020 u0627_u0644_u0639_u0631_u0628_u064a_u0629_u060c u0020 u0648_u0643_u0630_u0644_u0643 u0020 u0644_u0644_u0645_u0646_u0638_u0645_u0627_u062a_u0020", 
        "u0627_u0644_u0625_u0642_u0644_u064a_u0645_u064a_u0629 u0020 u0648_u0627_u0644_u062f_u0648_u0644_u064a_u0629_u002e u0020 u000d"
    ]
}