{
    "bounding_box": [
        [
            475, 
            17, 
            198, 
            16
        ], 
        [
            112, 
            52, 
            450, 
            35
        ], 
        [
            311, 
            101, 
            339, 
            27
        ], 
        [
            216, 
            141, 
            375, 
            25
        ], 
        [
            301, 
            174, 
            291, 
            26
        ], 
        [
            300, 
            211, 
            291, 
            22
        ], 
        [
            224, 
            244, 
            368, 
            25
        ], 
        [
            480, 
            281, 
            170, 
            26
        ], 
        [
            60, 
            319, 
            531, 
            25
        ], 
        [
            371, 
            348, 
            229, 
            23
        ], 
        [
            94, 
            383, 
            497, 
            25
        ], 
        [
            410, 
            418, 
            240, 
            27
        ]
    ], 
    "image_height": 540, 
    "image_width": 720, 
    "transcription": [
        "u0627_u0644_u0645_u0633_u062a_u0648_u0649 u0020 u0627_u0644_u062f_u0648_u0644_u064a u0020 u0644_u0633_u064a_u0627_u0633_u0627_u062a u0020 u0627_u0644_u062a_u062c_u0627_u0631_u0629_u0020", 
        "u0645_u0628_u0627_u062f_u0626 u0020 u0645_u0646_u0638_u0645_u0629 u0020 u0627_u0644_u062a_u062c_u0627_u0631_u0629 u0020 u0627_u0644_u0639_u0627_u0644_u0645_u064a_u0629 u0020 u0057_u0054_u004f_u000d", 
        "u0033_u002e u0020 u0627_u0644_u0645_u0639_u0627_u0645_u0644_u0629 u0020 u0627_u0644_u062a_u0641_u0636_u064a_u0644_u064a_u0629 u0020 u0644_u0644_u062f_u0648_u0644 u0020 u0627_u0644_u0646_u0627_u0645_u064a_u0629_u003a u0020 u000d", 
        "u0020_u062a_u0645_u062a_u0639 u0020 u0627_u0644_u062f_u0648_u0644 u0020 u0627_u0644_u0646_u0627_u0645_u064a_u0629 u0020 u0628_u0641_u062a_u0631_u0627_u062a u0020 u0632_u0645_u0646_u064a_u0629 u0020 u0623_u0637_u0648_u0644 u0020 u0644_u0644_u062a_u062d_u0631_u064a_u0631_u002e_u000d", 
        "u062a_u062d_u0631_u064a_u0631 u0020 u0627_u0644_u0645_u0646_u0633_u0648_u062c_u0627_u062a u0020 u0020_u0648_u0627_u0644_u0633_u0644_u0639 u0020 u0627_u0644_u0632_u0631_u0627_u0639_u064a_u0629_u002e_u000d", 
        "u0645_u0632_u0627_u064a_u0627 u0020 u0623_u0641_u0636_u0644 u0020 u0644_u0644_u062f_u0648_u0644 u0020 u0627_u0644_u0645_u0633_u062a_u0648_u0631_u062f_u0629 u0020 u0644_u0644_u063a_u0630_u0627_u0621_u002e u0020 u000d", 
        "u0625_u0639_u0641_u0627_u0621_u0647_u0627 u0020 u0645_u0646 u0020 u062a_u0637_u0628_u064a_u0642 u0020 u0634_u0631_u0637 u0020 u0627_u0644_u062f_u0648_u0644_u0629 u0020 u0627_u0644_u0623_u0648_u0644_u0649 u0020 u0644_u0644_u0631_u0639_u0627_u064a_u0629_u002e_u000d", 
        "u0034_u002e u0020 u0645_u0639_u0627_u064a_u064a_u0631 u0020 u0627_u0644_u0648_u0642_u0627_u064a_u0629_u003a_u000d", 
        "u0020_u0009_u0641_u064a u0020 u062d_u0627_u0644_u0629 u0020 u0627_u0644_u0639_u062c_u0632 u0020 u0627_u0644_u0637_u0627_u0631_u0626 u0020 u0627_u0644_u0643_u0628_u064a_u0631 u0020 u0641_u064a u0020 u0645_u064a_u0632_u0627_u0646 u0020 u0627_u0644_u0645_u062f_u0641_u0648_u0639_u0627_u062a u0020 u0020_u0625_u0645_u0643_u0627_u0646_u064a_u0629_u0020", 
        "u0641_u0631_u0636 u0020 u0625_u062c_u0631_u0627_u0621_u0627_u062a u0020 u062a_u0642_u064a_u064a_u062f_u064a_u0629 u0020 u0643_u0645_u064a_u0629_u002e_u000d", 
        "u0625_u062c_u0631_u0627_u0621_u0627_u062a u0020 u0645_u0643_u0627_u0641_u062d_u0629 u0020 u0627_u0644_u0625_u063a_u0631_u0627_u0642 u0020 u0648_u0627_u0644_u062f_u0639_u0645 u0020 u0627_u0644_u062d_u0643_u0648_u0645_u064a u0020 u002d_u002d_u002d_u002d_u0627_u0644_u062a_u0639_u0631_u064a_u0641_u0629 u0020 u0627_u0644_u0645_u0636_u0627_u062f_u0629_u000d", 
        "u0035_u002e u0020 u0625_u0645_u0643_u0627_u0646_u064a_u0629 u0020 u0625_u0639_u0627_u062f_u0629 u0020 u0627_u0644_u062a_u0641_u0627_u0648_u0636_u000d"
    ]
}