{
    "bounding_box": [
        [
            327, 
            513, 
            64, 
            6
        ], 
        [
            43, 
            512, 
            19, 
            8
        ], 
        [
            160, 
            7, 
            420, 
            45
        ], 
        [
            330, 
            63, 
            94, 
            41
        ], 
        [
            150, 
            131, 
            455, 
            43
        ], 
        [
            527, 
            183, 
            77, 
            39
        ], 
        [
            392, 
            201, 
            171, 
            26
        ], 
        [
            160, 
            199, 
            203, 
            28
        ], 
        [
            390, 
            248, 
            175, 
            33
        ], 
        [
            166, 
            248, 
            190, 
            29
        ], 
        [
            167, 
            302, 
            398, 
            29
        ], 
        [
            192, 
            356, 
            348, 
            30
        ], 
        [
            61, 
            412, 
            588, 
            25
        ], 
        [
            194, 
            441, 
            329, 
            24
        ]
    ], 
    "image_height": 540, 
    "image_width": 720, 
    "transcription": [
        "u0041_u006c_u0069_u006f_u0062_u0065_u0069_u0064_u002e_u0063_u006f_u006d", 
        "u0031_u0031_u0038", 
        "u0643_u064a_u0641_u064a_u0629 u0020 u0627_u0643_u062a_u0634_u0627_u0641 u0020 u0627_u0644_u0646_u0638_u0627_u0645 u0020 u0627_u0644_u062a_u0645_u062b_u064a_u0644_u064a_u0020", 
        "u0627_u0644_u0644_u063a_u0648_u064a", 
        "u0627_u0633_u0623_u0644 u0020 u0628_u0639_u0636 u0020 u0627_u0644_u0623_u0633_u0626_u0644_u0629 u0020 u0627_u0644_u062a_u0627_u0644_u064a_u0629 u0020 u0627_u0644_u062a_u064a u0020 u062a_u0628_u062f_u0623_u0020", 
        "u0628_u0643_u064a_u0641_u0020", 
        "u0643_u064a_u0641 u0020 u0628_u0627_u0644_u062a_u062d_u062f_u064a_u062f u0020 u061f u0020 u0020", 
        "u0643_u064a_u0641 u0020 u0639_u0644_u0645_u062a u0020 u0628_u0630_u0644_u0643 u0020 u061f u0020 u0020", 
        "u0643_u064a_u0641 u0020 u062a_u0639_u0644_u0645 u0020 u0630_u0644_u0643 u0020 u061f u0020 u0020", 
        "u0643_u064a_u0641 u0020 u062a_u062a_u0630_u0643_u0631 u0020 u0630_u0644_u0643 u0020 u061f u0020 u0020", 
        "u0641_u0625_u0630_u0627 u0020 u0623_u062c_u0627_u0628 u0020 u0627_u0644_u0634_u062e_u0635 u0020 u003a u0020 u0623_u0638_u0646 u0020 u0623_u0646 u0020 u0630_u0644_u0643 u0020 u062d_u0633_u0646_u0627", 
        "u0627_u0633_u0623_u0644 u0020 u003a u0020 u0643_u064a_u0641 u0020 u062a_u0639_u0631_u0641 u0020 u0623_u0646 u0020 u0630_u0644_u0643 u0020 u062d_u0633_u0646_u0627 u0020 u061f", 
        "u0641_u0625_u0630_u0627 u0020 u0623_u062c_u0627_u0628 u0020 u003a u0020 u0623_u062d_u0633_u0633_u062a u0020 u0628_u0630_u0644_u0643 u0020 u0641_u064a u0020 u062f_u0627_u062e_u0644_u064a u0020 u002e u0020 u0641_u064a_u0643_u0648_u0646 u0020 u0647_u0630_u0627 u0020 u0627_u0644_u0634_u062e_u0635 u0020 u064a_u0633_u062a_u062e_u062f_u0645 u0020 u0627_u0644_u062a_u0623_u0643_u064a_u062f_u0627_u062a_u0020", 
        "u0627_u0644_u0644_u063a_u0648_u064a_u0629 u0020 u0644_u0644_u0646_u0638_u0627_u0645 u0020 u0627_u0644_u062d_u0633_u064a u0020 u0648_u0628_u0625_u0645_u0643_u0627_u0646_u0643 u0020 u0623_u0646 u0020 u062a_u0637_u0627_u0628_u0642_u0647 u0020 u002e"
    ]
}