{
    "bounding_box": [
        [
            484, 
            18, 
            222, 
            29
        ], 
        [
            20, 
            58, 
            680, 
            29
        ], 
        [
            631, 
            90, 
            76, 
            29
        ], 
        [
            42, 
            128, 
            658, 
            30
        ], 
        [
            50, 
            161, 
            650, 
            30
        ], 
        [
            36, 
            195, 
            664, 
            29
        ], 
        [
            163, 
            226, 
            544, 
            30
        ], 
        [
            75, 
            263, 
            625, 
            32
        ], 
        [
            56, 
            299, 
            644, 
            29
        ], 
        [
            355, 
            330, 
            352, 
            30
        ], 
        [
            25, 
            369, 
            675, 
            31
        ], 
        [
            55, 
            403, 
            644, 
            29
        ], 
        [
            56, 
            435, 
            644, 
            30
        ], 
        [
            132, 
            468, 
            575, 
            29
        ]
    ], 
    "image_height": 540, 
    "image_width": 720, 
    "transcription": [
        "u0645_u0631_u0627_u062d_u0644 u0020 u0627_u0644_u0646_u0645_u0648 u0020 u0627_u0644_u0646_u0641_u0633_u064a u0020 u003a_u0009_u000d", 
        "u0642_u062f u0020 u0627_u0642_u062a_u0631_u062d u0020 u0641_u0631_u0648_u064a_u062f u0020 u0645_u0631_u0627_u062d_u0644 u0020 u0644_u062a_u0634_u0643_u064a_u0644 u0020 u0627_u0644_u0634_u062e_u0635_u064a_u0629 u0020 u0645_u0646 u0020 u0648_u062c_u0647_u0647 u0020 u0646_u0638_u0631 u0020 u0645_u062f_u0631_u0633_u0629 u0020 u0627_u0644_u062a_u062d_u0644_u064a_u0644_u0020", 
        "u0627_u0644_u0646_u0641_u0633_u064a_u003a_u000d", 
        "u0031_u002d u0020 u0627_u0644_u0645_u0631_u062d_u0644_u0629 u0020 u0627_u0644_u0641_u0645_u064a_u0629 u0020 u00ab u0020 u0627_u0644_u0645_u0631_u062d_u0644_u0629 u0020 u0627_u0644_u0641_u0645_u064a_u0629 u0020 u0627_u0644_u0645_u0635_u064a_u0629 u0020 u0648_u062a_u062a_u0636_u0645_u0646 u0020 u0627_u0644_u0639_u0627_u0645 u0020 u0627_u0644_u0627_u0648_u0644 u0020 u0645_u0646_u0020", 
        "u062d_u064a_u0627_u0629 u0020 u0627_u0644_u0637_u0641_u0644 u0020 u0020_u2013 u0020 u0648_u0627_u0644_u0645_u0631_u062d_u0644_u0629 u0020 u0627_u0644_u0641_u0645_u064a_u0629 u0020 u0627_u0644_u0639_u0636_u064a_u0629 u0020 u0648_u062a_u062a_u0636_u0645_u0646 u0020 u0627_u0644_u0639_u0627_u0645 u0020 u0627_u0644_u062b_u0627_u0646_u064a u0020 u0645_u0646 u0020 u062d_u064a_u0627_u0629_u0020", 
        "u0627_u0644_u0637_u0641_u0644 u0020 u0648_u064a_u0643_u0648_u0646 u0020 u0627_u0644_u0644_u0630_u0647 u0020 u0641_u064a u0020 u0627_u0644_u0639_u0636 u0020 u0646_u062a_u064a_u062c_u0629 u0020 u0627_u0644_u062a_u0648_u062a_u0631 u0020 u0627_u0644_u0630_u064a u0020 u064a_u0644_u0642_u0627_u0647 u0020 u0645_u0646 u0020 u0639_u0645_u0644_u064a_u0629 u0020 u0627_u0644_u062a_u0633_u0646_u064a_u0646_u0020", 
        "u0648_u064a_u0643_u0648_u0646 u0020 u0627_u0644_u0637_u0641_u0644 u0020 u062d_u0627_u0626_u0631_u0627 u0020 u0628_u064a_u0646 u0020 u0627_u0634_u0628_u0627_u0639 u0020 u0631_u063a_u0628_u062a_u0647 u0020 u0648_u062e_u0648_u0641_u0647 u0020 u0645_u0646 u0020 u0627_u0644_u0639_u0642_u0627_u0628_u00bb_u000d", 
        "u0020_u0032_u002d_u0627_u0644_u0645_u0631_u062d_u0644_u0629 u0020 u0627_u0644_u0634_u0631_u062c_u064a_u0629 u0020 u0648_u062a_u0646_u062a_u0642_u0644 u0020 u0627_u0644_u0644_u0630_u0629 u0020 u0645_u0646 u0020 u0627_u0644_u0641_u0645 u0020 u0627_u0644_u064a u0020 u0627_u0644_u0634_u0631_u062c u0020 u0648_u0631_u062f_u0648_u062f u0020 u0627_u0641_u0639_u0627_u0644_u0020", 
        "u0627_u0644_u0627_u0633_u0631_u0647 u0020 u062a_u062c_u0627_u0647 u0020 u0627_u0644_u0637_u0641_u0644 u0020 u0644_u0647_u0627 u0020 u0627_u0643_u0628_u0631 u0020 u0627_u062b_u0631 u0020 u0641_u064a u0020 u062a_u0643_u0648_u064a_u0646 u0020 u0633_u0645_u0627_u062a u0020 u0634_u062e_u0635_u064a_u062a_u0647 u0020 u0645_u0646 u0020 u062e_u0644_u0627_u0644_u0020", 
        "u0627_u0644_u0639_u0642_u0627_u0628 u0020 u0646_u062a_u064a_u062c_u0629 u0020 u0644_u0636_u0628_u0637 u0020 u0639_u0645_u0644_u064a_u0629 u0020 u0627_u0644_u0627_u062e_u0631_u0627_u062c u0020 u002e_u000d", 
        "u0033_u002d_u0627_u0644_u0645_u0631_u062d_u0644_u0629 u0020 u0627_u0644_u0642_u0636_u064a_u0628_u064a_u0629 u0020 u0648_u062a_u062a_u0636_u0645_u0646 u0020 u0627_u0644_u0639_u0627_u0645_u064a_u0646 u0020 u0627_u0644_u0631_u0627_u0628_u0639 u0020 u0648_u0627_u0644_u062e_u0627_u0645_u0633 u0020 u0648_u0641_u064a_u0647_u0627 u0020 u064a_u0646_u062a_u0642_u0644 u0020 u0627_u0644_u0644_u0630_u0647_u0020", 
        "u0645_u0646 u0020 u0627_u0644_u0634_u0631_u062c u0020 u0627_u0644_u064a u0020 u0627_u0644_u0627_u0639_u0636_u0627_u0621 u0020 u0627_u0644_u062a_u0646_u0627_u0633_u0644_u064a_u0629 u0020 u0641_u064a_u062d_u0635_u0644 u0020 u0627_u0644_u0637_u0641_u0644 u0020 u0639_u0644_u0649 u0020 u0644_u0630_u062a_u0647 u0020 u0641_u064a u0020 u0627_u0644_u0644_u0639_u0628_u0020", 
        "u0628_u0627_u0644_u0627_u0639_u0636_u0627_u0621 u0020 u0627_u0644_u062a_u0646_u0627_u0633_u0644_u064a_u0629 u0020 u0648_u064a_u0645_u0631 u0020 u0627_u0644_u0637_u0641_u0644 u0020 u0628_u0639_u0642_u062f_u0629 u0020 u0627_u0648_u062f_u064a_u0628 u0020 u0648_u0647_u0648 u0020 u0645_u064a_u0644 u0020 u0627_u0644_u0630_u0643_u0631 u0020 u0627_u0644_u064a u0020 u0627_u0645_u0647_u0020", 
        "u0648_u0645_u064a_u0644 u0020 u0627_u0644_u0627_u0646_u062b_u064a u0020 u0627_u0644_u0649 u0020 u0627_u0644_u0627_u0628 u0020 u0648_u0627_u0644_u063a_u064a_u0631_u0629 u0020 u0645_u0646 u0020 u0627_u0644_u0627_u0645 u0020 u0648_u062a_u0633_u0645_u064a u0020 u0628_u0639_u0642_u062f_u0629 u0020 u0627_u0644_u064a_u0643_u062a_u0631_u0627 u0020 u002e_u000d"
    ]
}