{
    "bounding_box": [
        [
            85, 
            103, 
            483, 
            39
        ], 
        [
            85, 
            143, 
            526, 
            42
        ], 
        [
            85, 
            188, 
            512, 
            41
        ], 
        [
            85, 
            230, 
            506, 
            42
        ], 
        [
            85, 
            273, 
            479, 
            41
        ], 
        [
            85, 
            318, 
            508, 
            40
        ], 
        [
            85, 
            360, 
            471, 
            40
        ], 
        [
            226, 
            34, 
            219, 
            62
        ]
    ], 
    "image_height": 540, 
    "image_width": 720, 
    "transcription": [
        "u062a_u0645_u0647_u0644 u0020 u064a_u0627 u0020 u062d_u0644_u0627_u0642 u0020 u062a_u064a_u064a_u062c_u0648_u0627 u0020 u062e_u0648_u0627_u0644_u0648 u0020 u062a_u0645_u0647_u0644 u0020 u064a_u0627 u0020 u062d_u0644_u0627_u0642_u000b", 
        "u0627_u062d_u0644_u0642 u0020 u064a_u0627 u0020 u062d_u0644_u0627_u0642 u0020 u0648_u0646_u0639_u0645_u0644_u0648 u0020 u0639_u0644_u0649 u0020 u062e_u062f_u0648 u0020 u0625_u062d_u0644_u0642 u0020 u064a_u0627 u0020 u062d_u0644_u0627_u0642_u000b", 
        "u062a_u0645_u0647_u0644 u0020 u064a_u0627 u0020 u062d_u0644_u0627_u0642 u0020 u0644_u064a_u064a_u062c_u0648 u0020 u0648_u0644_u0627_u062f u0020 u0639_u0645_u0648 u0020 u0625_u062d_u0644_u0642 u0020 u064a_u0627 u0020 u062d_u0644_u0627_u0642_u000b", 
        "u0625_u062d_u0644_u0642 u0020 u064a_u0627 u0020 u062d_u0644_u0627_u0642 u0020 u0648_u0646_u0639_u0645_u0644_u0648 u0020 u0634_u0639_u0631_u0627_u062a_u0648 u0020 u0625_u062d_u0644_u0642 u0020 u064a_u0627 u0020 u062d_u0644_u0627_u0642_u000b", 
        "u062a_u0645_u0647_u0644 u0020 u064a_u0627 u0020 u062d_u0644_u0627_u0642 u0020 u0644_u064a_u064a_u062c_u0648 u0020 u0631_u0641_u0642_u0627_u062a_u0648 u0020 u062a_u0645_u0647_u0644 u0020 u064a_u0627 u0020 u062d_u0644_u0627_u0642_u000b", 
        "u0623_u062d_u0644_u0642 u0020 u064a_u0627 u0020 u062d_u0644_u0627_u0642 u0020 u062a_u0646_u0634_u0648_u0641 u0020 u062d_u0627_u0644_u0627_u062a_u0648 u0020 u0627_u062d_u0644_u0642 u0020 u064a_u0627 u0020 u062d_u0644_u0627_u0642 u0020 u000b", 
        "u062a_u0645_u0647_u0644 u0020 u064a_u0627 u0020 u062d_u0644_u0627_u0642 u0020 u062a_u064a_u064a_u062c_u0648 u0020 u062e_u064a_u0627_u062a_u0648 u0020 u062a_u0645_u0647_u0644 u0020 u064a_u0627 u0020 u062d_u0644_u0627_u0642_u000b", 
        "u0020_u0632_u0641_u0629 u0020 u0627_u0644_u0639_u0631_u064a_u0633"
    ]
}