{
    "bounding_box": [
        [
            242, 
            43, 
            207, 
            40
        ], 
        [
            181, 
            104, 
            353, 
            42
        ], 
        [
            262, 
            159, 
            392, 
            28
        ], 
        [
            449, 
            199, 
            205, 
            24
        ], 
        [
            552, 
            236, 
            103, 
            24
        ], 
        [
            513, 
            275, 
            142, 
            23
        ], 
        [
            551, 
            308, 
            103, 
            27
        ], 
        [
            523, 
            349, 
            131, 
            24
        ], 
        [
            475, 
            386, 
            179, 
            24
        ], 
        [
            530, 
            424, 
            124, 
            24
        ], 
        [
            448, 
            458, 
            206, 
            27
        ], 
        [
            670, 
            518, 
            13, 
            9
        ]
    ], 
    "image_height": 540, 
    "image_width": 720, 
    "transcription": [
        "u0627_u0644_u0641_u0635_u0644 u0020 u0627_u0644_u062b_u0627_u0644_u062b u0020 u000b", 
        "u0633_u0645_u0627_u062a u0020 u0627_u0644_u0645_u062c_u062a_u0645_u0639 u0020 u0627_u0644_u0625_u0633_u0644_u0627_u0645_u064a", 
        "u0645_u0646 u0020 u0623_u0628_u0631_u0632 u0020 u0633_u0645_u0627_u062a u0020 u0627_u0644_u0645_u062c_u062a_u0645_u0639 u0020 u0627_u0644_u0625_u0633_u0644_u0627_u0645_u064a u0020 u0623_u0646_u0647 u0020 u0645_u062c_u062a_u0645_u0639 u0020 u003a u0020 u000d", 
        "u0028_u0031_u0029 u0020 u0020_u0645_u0644_u062a_u0632_u0645 u0020 u0628_u0627_u0644_u0634_u0631_u0639 u0020 u002e u0020 u0020 u0020 u0020_u000d", 
        "u0028_u0032_u0029 u0020 u062c_u0627_u062f u0020 u002e u0020 u0020_u000d", 
        "u0028_u0033_u0029 u0020 u0645_u062a_u0633_u0627_u0645_u062d u0020 u002e u0020 u0020 u0020 u000d", 
        "u0028_u0034_u0029 u0020 u0020_u0622_u0645_u0646 u0020 u002e u0020 u000d", 
        "u0028_u0035_u0029 u0020 u0645_u062a_u0646_u0627_u0635_u062d u0020 u002e u0020 u000d", 
        "u0028_u0036_u0029 u0020 u062a_u0633_u0648_u062f_u0647 u0020 u0627_u0644_u0645_u0633_u0627_u0648_u0627_u0629 u0020 u002e_u000d", 
        "u0028_u0037_u0029 u0020 u0645_u062a_u0631_u0627_u062d_u0645 u0020 u002e u0020 u000d", 
        "u0028_u0038_u0029 u0020 u0645_u0637_u064a_u0639 u0020 u0644_u0623_u0648_u0644_u064a u0020 u0627_u0644_u0623_u0645_u0631 u0020 u002e_u000d", 
        "u0031_u0032"
    ]
}