{
    "bounding_box": [
        [
            114, 
            189, 
            547, 
            23
        ], 
        [
            18, 
            223, 
            642, 
            23
        ], 
        [
            18, 
            258, 
            642, 
            22
        ], 
        [
            18, 
            292, 
            642, 
            23
        ], 
        [
            18, 
            326, 
            642, 
            20
        ], 
        [
            18, 
            361, 
            642, 
            19
        ], 
        [
            602, 
            398, 
            58, 
            18
        ], 
        [
            18, 
            429, 
            642, 
            23
        ], 
        [
            18, 
            463, 
            642, 
            20
        ], 
        [
            251, 
            499, 
            409, 
            22
        ], 
        [
            53, 
            65, 
            607, 
            40
        ]
    ], 
    "image_height": 540, 
    "image_width": 720, 
    "transcription": [
        "u0627_u062a_u0636_u062d u0020 u0645_u0646 u0020 u062e_u0644_u0627_u0644 u0020 u0627_u0644_u062a_u062d_u0644_u064a_u0644 u0020 u0644_u0628_u064a_u0627_u0646_u0627_u062a u0020 u0627_u0644_u0645_u0648_u0627_u0631_u062f u0020 u0627_u0644_u0636_u0631_u064a_u0628_u064a_u0629 u0020 u0639_u0644_u0649 u0020 u0645_u0633_u062a_u0648_u0649 u0020 u0627_u0644_u0645_u0643_u0627_u062a_u0628 u0020 u0645_u0627_u064a_u0644_u064a u0020 u003a u0020 u000d", 
        "u062d_u0642_u0642 u0020 u0645_u0643_u062a_u0628 u0020 u0636_u0631_u0627_u0626_u0628 u0020 u0633_u064a_u0626_u0648_u0646 u0020 u0646_u0633_u0628_u0629 u0020 u0632_u064a_u0627_u062f_u0629 u0020 u0641_u064a u0020 u062a_u062d_u0635_u064a_u0644 u0020 u0627_u0644_u0636_u0631_u064a_u0628_u0629 u0020 u0641_u064a u0020 u0627_u0644_u0639_u0627_u0645 u0020 u0032_u0030_u0031_u0035 u0020 u0628_u0646_u0633_u0628_u0629 u0020 u0034_u0030_u0025 u0020 u0639_u0646_u0020", 
        "u0627_u0644_u0639_u0627_u0645 u0020 u0032_u0030_u0031_u0034_u0645 u0020 u060c u0020 u0648_u062d_u0642_u0642 u0020 u0645_u0643_u062a_u0628 u0020 u0627_u0644_u0645_u0647_u0631_u0629 u0020 u0646_u0633_u0628_u0629 u0020 u0632_u064a_u0627_u062f_u0629 u0020 u0628_u0644_u063a_u062a u0020 u0038_u0033_u0025 u0020 u060c u0020 u0648_u0642_u062f u0020 u062a_u0631_u0643_u0632 u0020 u0627_u0644_u0627_u0646_u062e_u0641_u0627_u0636 u0020 u0641_u064a u0020 u062a_u062d_u0635_u064a_u0644_u0020", 
        "u0627_u0644_u0636_u0631_u0627_u0626_u0628 u0020 u0644_u0644_u0639_u0627_u0645 u0020 u0032_u0030_u0031_u0035 u0020 u0639_u0646 u0020 u0627_u0644_u0639_u0627_u0645 u0020 u0032_u0030_u0031_u0034_u0645 u0020 u0641_u064a u0020 u0627_u0644_u0645_u0643_u0627_u062a_u0628 u0020 u0627_u0644_u062a_u0627_u0644_u064a_u0629 u0020 u0028_u0636_u0631_u0627_u0626_u0628 u0020 u0643_u0628_u0627_u0631 u0020 u0627_u0644_u0645_u0643_u0644_u0641_u064a_u0646 u0020 u0648_u0628_u0646_u0633_u0628_u0629_u0020", 
        "u0646_u0642_u0635 u0020 u0628_u0644_u063a_u062a u0020 u0032_u0030_u0025 u0020 u002d u0020 u0645_u0643_u062a_u0628 u0020 u0636_u0631_u0627_u0626_u0628 u0020 u0639_u062f_u0646 u0020 u0628_u0646_u0633_u0628_u0629 u0020 u0646_u0642_u0635 u0020 u0034_u0030_u0025_u002d u0020 u0645_u0643_u062a_u0628 u0020 u0636_u0631_u0627_u0626_u0628 u0020 u062a_u0639_u0632 u0020 u0648_u0628_u0646_u0633_u0628_u0629 u0020 u0646_u0642_u0635_u0020", 
        "u0032_u0036_u0025 u0020 u002d u0020 u0645_u0643_u062a_u0628 u0020 u0636_u0631_u0627_u0626_u0628 u0020 u0627_u0644_u0645_u0643_u0644_u0627 u0020 u0648_u0628_u0646_u0633_u0628_u0629 u0020 u0646_u0642_u0635 u0020 u0032_u0035_u0025_u002d u0020 u0645_u0643_u062a_u0628 u0020 u0636_u0631_u0627_u0626_u0628 u0020 u0635_u0639_u062f_u0647 u0020 u0648_u0628_u0646_u0633_u0628_u0629 u0020 u0646_u0642_u0635_u0020", 
        "u0034_u0037_u0025_u0029 u0020 u000d", 
        "u0638_u0647_u0648_u0631 u0020 u0627_u0644_u0625_u064a_u0631_u0627_u062f_u0627_u062a u0020 u0627_u0644_u062e_u0627_u0635_u0629 u0020 u0628_u0643_u0628_u0627_u0631 u0020 u0627_u0644_u0645_u0643_u0644_u0641_u064a_u0646 u0020 u0628_u0634_u0643_u0644 u0020 u0625_u062c_u0645_u0627_u0644_u064a u0020 u062f_u0648_u0646 u0020 u0625_u0638_u0647_u0627_u0631 u0020 u0625_u064a_u0631_u0627_u062f_u0627_u062a u0020 u0645_u0643_u0627_u062a_u0628 u0020 u0643_u0628_u0627_u0631_u0020", 
        "u0627_u0644_u0645_u0643_u0644_u0641_u064a_u0646 u0020 u0628_u0627_u0644_u0645_u062d_u0627_u0641_u0638_u0627_u062a u0020 u060c u0020 u0645_u0645_u0627 u0020 u0623_u062f_u0649 u0020 u0644_u0627_u062e_u062a_u0644_u0627_u0641 u0020 u0627_u0644_u0628_u064a_u0627_u0646_u0627_u062a u0020 u0628_u064a_u0646 u0020 u062a_u0642_u0627_u0631_u064a_u0631 u0020 u0627_u0644_u0645_u0635_u0644_u062d_u0629 u0020 u0648_u0643_u0634_u0648_u0641_u0627_u062a u0020 u0627_u0644_u0628_u0646_u0643_u0020", 
        "u0627_u0644_u0645_u0631_u0643_u0632_u064a u0020 u060c u0020 u0648_u0639_u062f_u0645 u0020 u0625_u0638_u0647_u0627_u0631 u0020 u0625_u064a_u0631_u0627_u062f_u0627_u062a u0020 u0627_u0644_u0645_u062d_u0627_u0641_u0638_u0627_u062a u0020 u0639_u0644_u0649 u0020 u062d_u0642_u064a_u0642_u062a_u0647_u0627 u0020 u002e u0020 u000d", 
        "u062a_u062d_u0644_u064a_u0644 u0020 u0627_u0644_u0625_u064a_u0631_u0627_u062f_u0627_u062a u0020 u0627_u0644_u0636_u0631_u064a_u0628_u064a_u0629 u0020 u062e_u0644_u0627_u0644 u0020 u0627_u0644_u0639_u0627_u0645 u0020 u0032_u0030_u0031_u0035"
    ]
}