{
    "bounding_box": [
        [
            67, 
            117, 
            642, 
            30
        ], 
        [
            76, 
            154, 
            633, 
            31
        ], 
        [
            405, 
            197, 
            304, 
            22
        ], 
        [
            167, 
            32, 
            452, 
            40
        ]
    ], 
    "image_height": 540, 
    "image_width": 720, 
    "transcription": [
        "u0627_u0644_u062a_u062d_u0648_u064a_u0644 u0020 u0627_u0644_u0639_u0643_u0633_u064a u0020 u0645_u0646 u0020 u004e_u0054_u0046_u0053 u0020 u0627_u0644_u0649 u0020 u0046_u0041_u0054_u0033_u0032 u0020 u063a_u064a_u0631 u0020 u0645_u0645_u0643_u0646 u0020 u0648_u0633_u064a_u0633_u0628_u0628_u0020", 
        "u0636_u064a_u0627_u0639 u0020 u0644_u0644_u0628_u064a_u0627_u0646_u0627_u062a u0020 u0627_u0644_u0627 u0020 u0641_u064a u0020 u062d_u0627_u0644_u0629 u0020 u0627_u0633_u062a_u062e_u062f_u0627_u0645 u0020 u0628_u0631_u0646_u0627_u0645_u062c u0020 u0645_u062b_u0644_u0020", 
        "u0050_u0041_u0052_u0054_u0049_u0054_u0049_u004f_u004e u0020 u004d_u0041_u0047_u0049_u0043 u0020 u0020_u002e", 
        "u0627_u0644_u062a_u062d_u0648_u064a_u0644 u0020 u0645_u0646 u0020 u0646_u0638_u0627_u0645 u0020 u004e_u0054_u0046_u0053_u0627_u0644_u064a u0020 u0046_u0041_u0054"
    ]
}