{
    "bounding_box": [
        [
            226, 
            51, 
            278, 
            23
        ], 
        [
            192, 
            119, 
            475, 
            25
        ], 
        [
            131, 
            178, 
            499, 
            21
        ], 
        [
            92, 
            206, 
            539, 
            24
        ], 
        [
            583, 
            237, 
            47, 
            18
        ], 
        [
            125, 
            263, 
            506, 
            22
        ], 
        [
            171, 
            291, 
            460, 
            25
        ], 
        [
            116, 
            320, 
            514, 
            24
        ], 
        [
            312, 
            349, 
            319, 
            23
        ], 
        [
            105, 
            381, 
            526, 
            22
        ], 
        [
            97, 
            406, 
            534, 
            26
        ]
    ], 
    "image_height": 540, 
    "image_width": 720, 
    "transcription": [
        "u0639_u0644_u0627_u0642_u0629 u0020 u0628_u0639_u0636 u0020 u0628_u064a_u0627_u0646_u0627_u062a u0020 u0627_u0644_u0634_u062e_u0635_u064a_u0629 u0020 u0628_u0627_u0644_u0623_u062f_u0627_u0621", 
        "u0647_u0646_u0627_u0643 u0020 u0628_u0639_u0636 u0020 u0627_u0644_u0628_u064a_u0627_u0646_u0627_u062a u0020 u0627_u0644_u0639_u0627_u0645_u0629 u0020 u0627_u0644_u062a_u064a u0020 u062a_u062a_u0639_u0644_u0642 u0020 u0628_u0627_u0644_u0641_u0631_u062f u0020 u0648_u0644_u0647_u0627 u0020 u0639_u0644_u0627_u0642_u0629 u0020 u0628_u0623_u062f_u0627_u0626_u0647_u003a_u000d", 
        "u0627_u0644_u0639_u0645_u0631_u003a u0020 u0020_u0643_u0644_u0645_u0627 u0020 u0632_u0627_u062f u0020 u0639_u0645_u0631 u0020 u0627_u0644_u0641_u0631_u062f u0020 u0642_u0644 u0020 u0645_u0639_u062f_u0644 u0020 u0627_u0644_u062f_u0648_u0631_u0627_u0646 u0020 u0648_u0645_u0639_u062f_u0644 u0020 u0627_u0644_u063a_u064a_u0627_u0628 u0020 u0648_u0632_u0627_u062f_u0020", 
        "u062d_u0631_u0635_u0647 u0020 u0639_u0644_u064a u0020 u0627_u0644_u0639_u0645_u0644 u0020 u0648_u062a_u0632_u062f_u0627_u062f u0020 u0625_u0646_u062a_u0627_u062c_u064a_u062a_u0647 u0020 u0644_u0632_u064a_u0627_u062f_u0629 u0020 u0627_u0644_u062e_u0628_u0631_u0629 u0020 u0648_u0623_u064a_u0636_u0627 u0020 u0632_u0627_u062f u0020 u0627_u0644_u0631_u0636_u0627 u0020 u0639_u0646_u0020", 
        "u0627_u0644_u0639_u0645_u0644_u000d", 
        "u0627_u0644_u062c_u0646_u0633_u003a u0020 u0020_u064a_u0632_u062f_u0627_u062f u0020 u0645_u0639_u062f_u0644_u0627_u062a u0020 u063a_u064a_u0627_u0628 u0020 u0627_u0644_u0645_u0631_u0622_u0629 u0020 u0639_u0646 u0020 u0627_u0644_u0631_u062c_u0644 u0020 u0648_u0627_u0644_u0645_u0631_u0623_u0629 u0020 u0623_u0643_u062b_u0631 u0020 u0637_u0627_u0639_u0629_u0020", 
        "u0644_u0644_u0623_u0648_u0627_u0645_u0631 u0020 u0639_u0646 u0020 u0627_u0644_u0631_u062c_u0644 u0020 u0648_u0627_u0644_u0631_u062c_u0644 u0020 u0623_u0643_u062b_u0631 u0020 u0645_u0648_u0636_u0648_u0639_u064a_u0629 u0020 u0641_u064a u0020 u062a_u062d_u0642_u064a_u0642 u0020 u0627_u0644_u0630_u0627_u062a_u000d", 
        "u0627_u0644_u062d_u0627_u0644_u0629 u0020 u0627_u0644_u0627_u062c_u062a_u0645_u0627_u0639_u064a_u0629_u003a u0020 u0627_u0644_u0634_u062e_u0635 u0020 u0627_u0644_u0645_u062a_u0632_u0648_u062c u0020 u0623_u0643_u062b_u0631 u0020 u0627_u0633_u062a_u0642_u0631_u0627_u0631_u0627 u0020 u0641_u064a u0020 u0627_u0644_u0639_u0645_u0644 u0020 u0648_u0623_u0639_u0644_u064a_u0020", 
        "u0623_u062f_u0627_u0621 u0020 u0623_u0645_u0627 u0020 u0627_u0644_u0645_u0631_u0622_u0629 u0020 u0627_u0644_u0645_u062a_u0632_u0648_u062c_u0629 u0020 u062a_u0643_u0648_u0646 u0020 u0623_u0643_u062b_u0631 u0020 u063a_u064a_u0627_u0628_u0627 u0020 u000d", 
        "u0627_u0644_u0627_u0642_u062f_u0645_u064a_u0629 u0020 u003a u0020 u0642_u062f u0020 u062a_u0639_u0643_u0633 u0020 u0627_u0644_u0627_u0642_u062f_u0645_u064a_u0629 u0020 u0020_u0632_u064a_u0627_u062f_u0629 u0020 u0641_u064a u0020 u0627_u0644_u062e_u0628_u0631_u0627_u062a u0020 u0648_u0639_u0644_u064a_u0647 u0020 u062a_u0631_u062a_u0641_u0639 u0020 u0627_u0644_u0625_u0646_u062a_u0627_u062c_u064a_u0629_u0020", 
        "u0648_u0644_u0643_u0646 u0020 u0625_u0630_u0627 u0020 u0645_u0627 u0020 u0643_u0627_u0646_u062a u0020 u0647_u0646_u0627_u0643 u0020 u0639_u0644_u0627_u0642_u0629 u0020 u0628_u064a_u0646 u0020 u0627_u0644_u0627_u0642_u062f_u0645_u064a_u0629 u0020 u0648_u0627_u0644_u062e_u0628_u0631_u0629 u0020 u0641_u0644_u0627 u0020 u062a_u0623_u062b_u064a_u0631 u0020 u0639_u0644_u064a u0020 u0627_u0644_u0623_u062f_u0627_u0621"
    ]
}