{
    "bounding_box": [
        [
            137, 
            44, 
            445, 
            46
        ], 
        [
            145, 
            133, 
            531, 
            34
        ], 
        [
            219, 
            180, 
            457, 
            31
        ], 
        [
            86, 
            226, 
            590, 
            30
        ], 
        [
            41, 
            268, 
            634, 
            30
        ], 
        [
            255, 
            304, 
            421, 
            30
        ]
    ], 
    "image_height": 540, 
    "image_width": 720, 
    "transcription": [
        "u0623_u062d_u0643_u0627_u0645 u0020 u0627_u0646_u062a_u0642_u0627_u0644_u064a_u0629_u003a u0020 u0627_u0644_u0633_u0644_u0637_u0627_u062a u0020 u0648_u0627_u0644_u0645_u0648_u0627_u0631_u062f", 
        "u0627_u0644_u062a_u062d_u062f_u064a u0020 u0627_u0644_u0631_u0626_u064a_u0633_u064a_u003a u0020 u062a_u0642_u0627_u0628_u0644 u0020 u0623_u0648 u0020 u062a_u0645_u0627_u062b_u0644 u0020 u0627_u0644_u0633_u0644_u0637_u0627_u062a u0020 u0020_u0648_u0627_u0644_u0645_u0648_u0627_u0631_u062f u0020 u000d", 
        "u0625_u0633_u0628_u0627_u0646_u064a_u0627_u003a u0020 u0627_u0646_u062a_u0642_u0627_u0644 u0020 u0627_u0644_u0623_u0645_u0648_u0627_u0644 u0020 u0648_u0641_u0642 u0020 u0627_u0644_u062a_u0643_u0627_u0644_u064a_u0641 u0020 u0627_u0644_u062d_u0642_u064a_u0642_u064a_u0629 u0020 u000d", 
        "u062c_u0646_u0648_u0628 u0020 u0623_u0641_u0631_u064a_u0642_u064a_u0627_u003a u0020 u064a_u062c_u0628 u0020 u0623_u0646 u0020 u064a_u0634_u0645_u0644 u0020 u0646_u0642_u0644 u0020 u0627_u0644_u0635_u0644_u0627_u062d_u064a_u0627_u062a u0020 u0646_u0642_u0644 u0020 u0627_u0644_u0645_u0648_u0627_u0631_u062f_u0020", 
        "u0648_u062a_u0648_u0632_u064a_u0639 u0020 u0644_u0644_u0645_u0648_u0638_u0641_u064a_u0646_u060c u0020 u0648_u0627_u0644_u0628_u0646_u064a_u0629 u0020 u0627_u0644_u062a_u062d_u062a_u064a_u0629 u0020 u0648_u064a_u0633_u062a_u0645_u0631 u0020 u0627_u0644_u0645_u0633_u062a_u0648_u0649 u0020 u0627_u0644_u0648_u0637_u0646_u064a u0020 u0641_u064a_u0020", 
        "u062a_u0642_u062f_u064a_u0645 u0020 u0627_u0644_u062e_u062f_u0645_u0627_u062a u0020 u062d_u062a_u0649 u0020 u062a_u0633_u0644_u064a_u0645_u0647 u0020 u0625_u0644_u0649 u0020 u0627_u0644_u0645_u062d_u0627_u0641_u0638_u0627_u062a"
    ]
}