{
    "bounding_box": [
        [
            380, 
            88, 
            291, 
            30
        ], 
        [
            87, 
            152, 
            543, 
            37
        ], 
        [
            51, 
            206, 
            579, 
            31
        ], 
        [
            100, 
            250, 
            530, 
            35
        ], 
        [
            51, 
            299, 
            579, 
            37
        ], 
        [
            51, 
            342, 
            579, 
            38
        ], 
        [
            76, 
            384, 
            555, 
            38
        ]
    ], 
    "image_height": 540, 
    "image_width": 720, 
    "transcription": [
        "u0020_u0639_u062f_u0644 u0020 u0628_u0646_u062f_u064a u0020 u003a_u0009_u0050_u0061_u0063_u006b_u0069_u006e_u0067 u0020 u006c_u0069_u0073_u0074", 
        "u0633_u0646_u062f_u064a u0020 u0627_u0633_u062a u0020 u0643_u0647 u0020 u062a_u0648_u0633_u0637 u0020 u0641_u0631_u0648_u0634_u0646_u062f_u0647 u0020 u0635_u0627_u062f_u0631 u0020 u0645_u064a_u06af_u0631_u062f_u062f_u002e_u000d", 
        "u0020_u0627_u064a_u0646 u0020 u0633_u0646_u062f u0020 u0645_u062d_u062a_u0648_u064a_u0627_u062a u0020 u0647_u0631 u0020 u0628_u0633_u062a_u0647 u0020 u0627_u0632 u0020 u0643_u0627_u0644_u0627 u0020 u0631_u0627 u0020 u0627_u0632 u0020 u0646_u0638_u0631_u0020", 
        "u0646_u0648_u0639 u0020 u0643_u0627_u0644_u0627 u0020 u060c u0020 u062a_u0639_u062f_u0627_u062f u0020 u061b u0020 u0645_u0642_u062f_u0627_u0631 u0020 u064a_u0627 u0020 u0648_u0632_u0646 u0020 u0646_u0634_u0627_u0646 u0020 u0645_u064a_u062f_u0647_u062f_u002e_u000d", 
        "u0627_u064a_u0646 u0020 u0633_u0646_u062f u0020 u0628_u0647 u0020 u0645_u0646_u0638_u0648_u0631 u0020 u062a_u0633_u0631_u064a_u0639 u0020 u062a_u0631_u062e_u064a_u0635 u0020 u0643_u0627_u0644_u0627 u0020 u0627_u0632 u0020 u06af_u0645_u0631_u0643_u0020", 
        "u0648 u0020 u067e_u064a_u0634 u0020 u06af_u064a_u0631_u064a u0020 u0627_u0632 u0020 u0627_u062a_u0644_u0627_u0641 u0020 u0648_u0642_u062a u0020 u0648 u0020 u0647_u0645_u0686_u0646_u064a_u0646 u0020 u067e_u064a_u0634_u0020", 
        "u06af_u064a_u0631_u064a u0020 u0627_u0632 u0020 u062e_u0633_u0627_u0631_u0627_u062a u0020 u0648_u0627_u0631_u062f_u0647 u0020 u0628_u0647 u0020 u0643_u0627_u0644_u0627 u0020 u0645_u0648_u0631_u062f u0020 u0646_u064a_u0627_u0632 u0020 u0627_u0633_u062a_u002e"
    ]
}