{
    "bounding_box": [
        [
            276, 
            90, 
            302, 
            40
        ], 
        [
            65, 
            170, 
            571, 
            28
        ], 
        [
            289, 
            202, 
            347, 
            30
        ], 
        [
            106, 
            243, 
            531, 
            29
        ], 
        [
            442, 
            281, 
            194, 
            28
        ], 
        [
            231, 
            319, 
            405, 
            28
        ], 
        [
            265, 
            357, 
            371, 
            28
        ], 
        [
            178, 
            395, 
            458, 
            27
        ]
    ], 
    "image_height": 540, 
    "image_width": 720, 
    "transcription": [
        "u0633_u0627_u062e_u062a_u0627_u0631 u0020 u0627_u064a_u0646_u0643_u0648_u062a_u0631_u0645_u0632_u003a", 
        "u062f_u0631 u0020 u0633_u0627_u0644 u0020 u0031_u0039_u0039_u0030 u0020 u0628_u0631_u0627_u064a u0020 u0622_u0633_u0627_u0646 u0020 u0643_u0631_u062f_u0646 u0020 u0641_u0647_u0645 u0020 u0627_u0635_u0637_u0644_u0627_u062d_u0627_u062a u0020 u0622_u0646_u0647_u0627 u0020 u062f_u0631 u0020 u0686_u0647_u0627_u0631_u0020", 
        "u06af_u0631_u0648_u0647 u0020 u0627_u0633_u0627_u0633_u0627_u064b u0020 u0645_u062a_u0641_u0627_u0648_u062a u0020 u0637_u0628_u0642_u0647_u200c_u0628_u0646_u062f_u064a u0020 u0634_u062f_u0646_u062f_u002e u0020 u000d", 
        "u0627_u064a_u0646 u0020 u0637_u0628_u0642_u0647_u200c_u0628_u0646_u062f_u064a u0020 u0627_u0632 u0020 u0627_u0635_u0637_u0644_u0627_u062d_u0627_u062a u0020 u062a_u062c_u0627_u0631_u064a u0020 u0628_u0647 u0020 u0634_u0631_u062d u0020 u0630_u064a_u0644 u0020 u0645_u064a_u200c_u0628_u0627_u0634_u062f_u003a_u000d", 
        "u06af_u0631_u0648_u0647 u0020 u0045 u0020 u0634_u0627_u0645_u0644 u0020 u0020_u0045_u0058_u0057_u000d", 
        "u06af_u0631_u0648_u0647 u0020 u0046 u0020 u0634_u0627_u0645_u0644 u0020 u0627_u0635_u0637_u0644_u0627_u062d_u0627_u062a u0020 u0028_u0046_u004f_u0042_u002c_u0046_u0041_u0053_u002c_u0046_u0043_u0041_u0029_u000d", 
        "u06af_u0631_u0648_u0647 u0020 u0043 u0020 u0634_u0627_u0645_u0644_u0028 u0020 u0043_u0050_u0054_u002c_u0043_u0049_u0046_u002c_u0043_u0046_u0052 u0020 u0648 u0020 u0043_u0049_u0050_u0029_u000d", 
        "u06af_u0631_u0648_u0647 u0020 u0044 u0020 u0020_u0634_u0627_u0645_u0644 u0020 u0028_u0044_u0044_u0050_u002c_u0044_u0044_u0055_u002c_u0044_u0045_u0051_u002c_u0044_u0045_u0053_u002c_u0044_u0041_u0046_u0029_u0020"
    ]
}