{
    "bounding_box": [
        [
            160, 
            32, 
            464, 
            40
        ], 
        [
            67, 
            89, 
            615, 
            35
        ], 
        [
            379, 
            133, 
            303, 
            29
        ], 
        [
            67, 
            175, 
            615, 
            34
        ], 
        [
            67, 
            216, 
            615, 
            31
        ], 
        [
            605, 
            256, 
            77, 
            29
        ], 
        [
            71, 
            291, 
            629, 
            24
        ], 
        [
            455, 
            318, 
            253, 
            23
        ], 
        [
            551, 
            349, 
            157, 
            24
        ], 
        [
            69, 
            386, 
            312, 
            18
        ], 
        [
            77, 
            410, 
            604, 
            26
        ], 
        [
            539, 
            438, 
            143, 
            22
        ], 
        [
            111, 
            464, 
            571, 
            24
        ], 
        [
            552, 
            491, 
            130, 
            23
        ]
    ], 
    "image_height": 540, 
    "image_width": 720, 
    "transcription": [
        "u0627_u0644_u062a_u062d_u0648_u064a_u0644 u0020 u0645_u0646 u0020 u0646_u0638_u0627_u0645 u0020 u0046_u0041_u0054 u0020 u0627_u0644_u064a u0020 u004e_u0054_u0046_u0053", 
        "u0648_u0644_u0644_u062a_u062d_u0648_u064a_u0644 u0020 u0645_u0646 u0020 u0646_u0638_u0627_u0645 u0020 u0046_u0061_u0074 u0020 u0627_u0644_u0649 u0020 u0646_u0638_u0627_u0645 u0020 u004e_u0054_u0046_u0053 u0020 u064a_u0645_u0643_u0646_u0645 u0020 u0627_u0633_u062a_u062e_u062f_u0627_u0645_u0020", 
        "u0628_u0631_u0646_u0627_u0645_u062c u0020 u0050_u0061_u0072_u0074_u0069_u0074_u0069_u006f_u006e u0020 u004d_u0061_u0067_u0069_u0063 u0020 u002e_u000d", 
        "u0627_u064a_u0636_u0622 u0020 u064a_u0645_u0643_u0646 u0020 u0627_u0633_u062a_u062e_u062f_u0627_u0645 u0020 u0646_u0638_u0627_u0645 u0020 u0044_u004f_u0053 u0020 u0648_u0644_u0643_u0646_u0647 u0020 u064a_u0633_u0645_u062d u0020 u0628_u0627_u0644_u062a_u062d_u0648_u064a_u0644 u0020 u0645_u0646_u0020", 
        "u0046_u0041_u0054 u0020 u0627_u0644_u0649 u0020 u004e_u0054_u0046_u0053 u0020 u0641_u0642_u0637 u0020 u0648_u0644_u0627 u0020 u064a_u0633_u0645_u062d u0020 u0628_u0627_u0644_u0639_u0643_u0633 u0020 u0648_u0630_u0644_u0643 u0020 u0645_u0646 u0020 u062e_u0644_u0627_u0644_u0020", 
        "u0627_u0644_u0627_u062a_u064a u0020 u003a_u0020", 
        "u0627_u0630_u0647_u0628 u0020 u0627_u0644_u0649 u0020 u0642_u0627_u0626_u0645_u0629 u0020 u0627_u0628_u062f_u0623 u0020 u062b_u0645 u0020 u0627_u0644_u0628_u0631_u0627_u0645_u062c u0020 u0050_u0072_u006f_u0067_u0072_u0061_u006d_u0073 u0020 u062b_u0645 u0020 u0627_u0644_u0628_u0631_u0627_u0645_u062c u0020 u0627_u0644_u0645_u0644_u062d_u0642_u0647 u0020 u0041_u0063_u0063_u0065_u0073_u0073_u006f_u0072_u0069_u0065_u0053 u0020 u0020", 
        "u062b_u0645 u0020 u0627_u062e_u062a_u0631 u0020 u0063_u006f_u006d_u006d_u0061_u006e_u0064 u0020 u0070_u0072_u006f_u006d_u0070_u0074_u000d", 
        "u0648_u0627_u0643_u062a_u0628 u0020 u0627_u0644_u0633_u0637_u0631 u0020 u0627_u0644_u062a_u0627_u0644_u064a_u000d", 
        "u0020_u0063_u006f_u006e_u0076_u0065_u0072_u0074 u0020 u0064_u0072_u0069_u0076_u0065_u005f_u006c_u0065_u0074_u0074_u0065_u0072 u0020 u003a u0020 u002f_u0066_u0073_u003a_u006e_u0074_u0066_u0073 u0020 u000d", 
        "u0645_u0639 u0020 u0645_u0644_u0627_u062d_u0638_u0629 u0020 u0627_u0646_u0643 u0020 u0633_u0648_u0641 u0020 u062a_u0633_u062a_u0628_u062f_u0644 u0020 u062c_u0645_u0644_u0647 u0020 u0064_u0072_u0069_u0076_u0065_u005f_u006c_u0065_u0074_u0074_u0065_u0072 u0020 u0628_u0631_u0645_u0632 u0020 u0050_u0061_u0072_u0074_u0069_u0074_u0069_u006f_u006e_u0073 u0020 u0020_u0627_u0644_u0630_u064a_u0020", 
        "u062a_u0631_u064a_u062f u0020 u062a_u062d_u0648_u064a_u0644 u0020 u0646_u0638_u0627_u0645_u0647_u000b", 
        "u0645_u062b_u0627_u0644 u0020 u003a u0020 u062a_u0624_u062f_u064a u0020 u0643_u062a_u0627_u0628_u0629 u0020 u0063_u006f_u006e_u0076_u0065_u0072_u0074 u0020 u0044_u003a u0020 u002f_u0066_u0073_u003a_u006e_u0074_u0066_u0073 u0020 u0625_u0644_u0649 u0020 u062a_u0647_u064a_u0626_u0629 u0020 u0645_u062d_u0631_u0643 u0020 u0627_u0644_u0623_u0642_u0631_u0627_u0635 u0020 u200e_u0044_u003a_u200e_u0020", 
        "u0628_u0627_u0644_u062a_u0646_u0633_u064a_u0642 u0020 u006e_u0074_u0066_u0073_u002e_u002e_u000b"
    ]
}