{
    "bounding_box": [
        [
            334, 
            507, 
            99, 
            13
        ], 
        [
            330, 
            47, 
            350, 
            34
        ], 
        [
            422, 
            109, 
            252, 
            25
        ], 
        [
            102, 
            176, 
            553, 
            27
        ], 
        [
            189, 
            206, 
            357, 
            26
        ], 
        [
            89, 
            273, 
            579, 
            28
        ], 
        [
            223, 
            303, 
            288, 
            27
        ], 
        [
            107, 
            368, 
            542, 
            31
        ]
    ], 
    "image_height": 540, 
    "image_width": 720, 
    "transcription": [
        "u062f_u002f u0020 u0645_u0634_u0639_u0644 u0020 u0628_u0646 u0020 u0639_u0628_u062f_u0627_u0644_u0644_u0647 u0020 u0627_u0644_u0641_u062f_u0647_u064a", 
        "u0627_u0644_u0648_u0627_u0632_u0639 u0020 u0644_u0627 u0020 u064a_u0643_u0641_u064a_u002e_u002e_u002e_u002e u0020 u062d_u062a_u0649 u0020 u0645_u0639 u0020 u0627_u0644_u0623_u0646_u0628_u064a_u0627_u0621", 
        "u0642_u0635_u0629 u0020 u0646_u0628_u064a u0020 u0627_u0644_u0644_u0647 u0020 u064a_u0648_u0633_u0641 u0020 u0639_u0644_u064a_u0647 u0020 u0627_u0644_u0633_u0644_u0627_u0645_u003a_u000d", 
        "ufd3f_u0648_u064e_u0644_u064e_u0642_u064e_u062f_u0652 u0020 u0647_u064e_u0645_u0651_u064e_u062a_u0652 u0020 u0628_u0650_u0647_u0650 u0020 u0648_u064e_u0647_u064e_u0645_u0651_u064e u0020 u0628_u0650_u0647_u064e_u0627 u0020 u0644_u064e_u0648_u0652_u0644_u0627 u0020 u0623_u064e_u0646_u0652 u0020 u0631_u064e_u0623_u064e_u0649 u0020 u0628_u064f_u0631_u0652_u0647_u064e_u0627_u0646_u064e u0020 u0631_u064e_u0628_u0651_u0650_u0647_u0650 u0020 u0643_u064e_u0630_u064e_u0644_u0650_u0643_u064e u0020 u0644_u0650_u0646_u064e_u0635_u0652_u0631_u0650_u0641_u064e u0020 u0639_u064e_u0646_u0652_u0647_u064f u0020 u0627_u0644_u0633_u0651_u064f_u0648_u0621_u064e_u0020", 
        "u0648_u064e_u0627_u0644_u0652_u0641_u064e_u062d_u0652_u0634_u064e_u0627_u0621_u064e u0020 u0625_u0650_u0646_u0651_u064e_u0647_u064f u0020 u0645_u0650_u0646_u0652 u0020 u0639_u0650_u0628_u064e_u0627_u062f_u0650_u0646_u064e_u0627 u0020 u0627_u0644_u0652_u0645_u064f_u062e_u0652_u0644_u064e_u0635_u0650_u064a_u0646_u064e_ufd3e u0020 u064a_u0648_u0633_u0641_u003a_u0032_u0034_u000d", 
        "ufd3f u0020 u0642_u064e_u0627_u0644_u064e u0020 u0631_u064e_u0628_u0651_u0650 u0020 u0627_u0644_u0633_u0651_u0650_u062c_u0652_u0646_u064f u0020 u0623_u064e_u062d_u064e_u0628_u0651_u064f u0020 u0625_u0650_u0644_u064e_u064a_u0651_u064e u0020 u0645_u0650_u0645_u0651_u064e_u0627 u0020 u064a_u064e_u062f_u0652_u0639_u064f_u0648_u0646_u064e_u0646_u0650_u064a u0020 u0625_u0650_u0644_u064e_u064a_u0652_u0647_u0650 u0020 u0648_u064e_u0625_u0650_u0644_u0627_u0651_u064e u0020 u062a_u064e_u0635_u0652_u0631_u0650_u0641_u0652 u0020 u0639_u064e_u0646_u0651_u0650_u064a u0020 u0643_u064e_u064a_u0652_u062f_u064e_u0647_u064f_u0646_u0651_u064e u0020 u0623_u064e_u0635_u0652_u0628_u064f_u0020", 
        "u0625_u0650_u0644_u064e_u064a_u0652_u0647_u0650_u0646_u0651_u064e u0020 u0648_u064e_u0623_u064e_u0643_u064f_u0646_u0652 u0020 u0645_u0650_u0646_u064e u0020 u0627_u0644_u0652_u062c_u064e_u0627_u0647_u0650_u0644_u0650_u064a_u0646_u064e u0020 ufd3e u0020 u064a_u0648_u0633_u0641_u003a_u0033_u0033_u000d", 
        "ufd3f_u0641_u064e_u0627_u0633_u0652_u062a_u064e_u062c_u064e_u0627_u0628_u064e u0020 u0644_u064e_u0647_u064f u0020 u0631_u064e_u0628_u0651_u064f_u0647_u064f u0020 u0641_u064e_u0635_u064e_u0631_u064e_u0641_u064e u0020 u0639_u064e_u0646_u0652_u0647_u064f u0020 u0643_u064e_u064a_u0652_u062f_u064e_u0647_u064f_u0646_u0651_u064e u0020 u0625_u0650_u0646_u0651_u064e_u0647_u064f u0020 u0647_u064f_u0648_u064e u0020 u0627_u0644_u0633_u0651_u064e_u0645_u0650_u064a_u0639_u064f u0020 u0627_u0644_u0652_u0639_u064e_u0644_u0650_u064a_u0645_u064f u0020 ufd3e u0020 u064a_u0648_u0633_u0641_u003a_u0033_u0034_u000d"
    ]
}