{
    "bounding_box": [
        [
            246, 
            48, 
            227, 
            38
        ], 
        [
            157, 
            132, 
            397, 
            35
        ], 
        [
            44, 
            180, 
            634, 
            34
        ], 
        [
            289, 
            219, 
            415, 
            30
        ], 
        [
            38, 
            309, 
            640, 
            35
        ], 
        [
            63, 
            347, 
            640, 
            30
        ]
    ], 
    "image_height": 540, 
    "image_width": 720, 
    "transcription": [
        "u0627_u0644_u062a_u0635_u0648_u064a_u0631 u0020 u002e_u002e_u002e_u062a_u062a_u0645_u0629", 
        "u0020_u0627_u0644_u062a_u0635_u0648_u064a_u0631 u0020 u0627_u0644_u0637_u0628_u0642_u064a u0020 u0639_u0627_u0644_u064a u0020 u0627_u0644_u062f_u0642_u0629 u0020 u0028_u0048_u0052_u0043_u0054_u0029_u000d", 
        "u0623_u0643_u062b_u0631 u0020 u062d_u0633_u0627_u0633_u064a_u0629 u0020 u0645_u0646 u0020 u0635_u0648_u0631_u0629 u0020 u0627_u0644_u0635_u062f_u0631 u0020 u0627_u0644_u0628_u0633_u064a_u0637_u0629 u0020 u0644_u0643_u0634_u0641 u0020 u0627_u0644_u062a_u0628_u062f_u0644_u0627_u062a u0020 u0641_u064a u0020 u0020_u0020", 
        "u0627_u0644_u062c_u0646_u0628_u060c u0020 u0644_u0643_u0646 u0020 u0644_u064a_u0633 u0020 u0644_u0643_u0634_u0641 u0020 u0627_u0644_u062a_u0628_u062f_u0644_u0627_u062a u0020 u0627_u0644_u0645_u062a_u0646_u064a_u0629_u000d", 
        "u0625_u0646 u0020 u0627_u0644_u062a_u0641_u0631_u0633 u0020 u0628_u0627_u0644_u062a_u0635_u0648_u064a_u0631 u0020 u0627_u0644_u0637_u0628_u0642_u064a u0020 u0639_u0627_u0644_u064a u0020 u0627_u0644_u062f_u0642_u0629 u0020 u0028_u0048_u0052_u0043_u0054 u0020 u0073_u0063_u0061_u006e_u006e_u0069_u006e_u0067_u0029_u0020", 
        "u0647_u0648 u0020 u0637_u0631_u064a_u0642_u0629 u0020 u0627_u0644_u062a_u0635_u0648_u064a_u0631 u0020 u0627_u0644_u0623_u0643_u062b_u0631 u0020 u062d_u0633_u0627_u0633_u064a_u0629 u0020 u0644_u0643_u0634_u0641 u0020 u062f_u0627_u0621 u0020 u0627_u0644_u0623_u0633_u0628_u0633_u062a u0020 u0627_u0644_u0628_u0627_u0643_u0631_u000d"
    ]
}