{
    "bounding_box": [
        [
            219, 
            95, 
            281, 
            37
        ], 
        [
            442, 
            176, 
            132, 
            21
        ], 
        [
            415, 
            211, 
            158, 
            20
        ], 
        [
            408, 
            244, 
            165, 
            21
        ], 
        [
            429, 
            280, 
            144, 
            20
        ]
    ], 
    "image_height": 540, 
    "image_width": 720, 
    "transcription": [
        "u0627_u0644_u0646_u0638_u0631_u064a_u0627_u062a u0020 u0627_u0644_u0643_u0644_u0627_u0633_u064a_u0643_u064a_u0629", 
        "u0646_u0638_u0631_u064a_u0629 u0020 u0627_u0644_u0627_u0633_u062a_u062c_u0645_u0627_u0645_u000d", 
        "u0646_u0638_u0631_u064a_u0629 u0020 u0627_u0644_u0637_u0627_u0642_u0629 u0020 u0627_u0644_u0632_u0627_u0626_u062f_u0629_u000d", 
        "u0646_u0638_u0631_u064a_u0629 u0020 u0627_u0644_u0627_u0639_u062f_u0627_u062f u0020 u0644_u0644_u062d_u064a_u0627_u0629 u0020 u000d", 
        "u0627_u0644_u0646_u0638_u0631_u064a_u0629 u0020 u0627_u0644_u062a_u0644_u062e_u064a_u0635_u064a_u0629_u0020"
    ]
}