{
    "bounding_box": [
        [
            230, 
            82, 
            259, 
            31
        ], 
        [
            172, 
            144, 
            417, 
            23
        ], 
        [
            223, 
            192, 
            366, 
            22
        ], 
        [
            207, 
            237, 
            350, 
            22
        ], 
        [
            104, 
            284, 
            485, 
            25
        ], 
        [
            448, 
            316, 
            140, 
            23
        ], 
        [
            341, 
            361, 
            248, 
            21
        ], 
        [
            215, 
            407, 
            374, 
            25
        ], 
        [
            337, 
            454, 
            252, 
            25
        ]
    ], 
    "image_height": 540, 
    "image_width": 720, 
    "transcription": [
        "u0627_u0644_u0645_u0633_u062a_u0641_u064a_u062f_u0648_u0646 u0020 u0645_u0646 u0020 u0627_u0644_u0645_u0634_u0631_u0648_u0639", 
        "u0623_u0635_u062d_u0627_u0628 u0020 u0627_u0644_u0642_u0631_u0627_u0631 u0020 u0627_u0644_u0645_u0639_u0646_u064a_u0648_u0646 u0020 u0628_u062a_u0637_u0648_u064a_u0631 u0020 u0627_u0644_u062a_u0634_u0631_u064a_u0639_u0627_u062a u0020 u0627_u0644_u0633_u064a_u0628_u0631_u0627_u0646_u064a_u0629_u000d", 
        "u0627_u0644_u0648_u0632_u0631_u0627_u062a u0020 u0627_u0644_u0645_u0639_u0646_u064a_u0629 u0020 u0628_u062a_u0637_u0648_u064a_u0631 u0020 u0627_u0644_u062a_u0634_u0631_u064a_u0639_u0627_u062a u0020 u0627_u0644_u0633_u064a_u0628_u0631_u0627_u0646_u064a_u0629_u003a_u000d", 
        "u0648_u0632_u0627_u0631_u0627_u062a u0020 u0627_u0644_u0627_u062a_u0635_u0627_u0644_u0627_u062a u0020 u0648_u0627_u0644_u0639_u062f_u0644 u0020 u0648_u0627_u0644_u062f_u0627_u062e_u0644_u064a_u0629 u0020 u0648_u0627_u0644_u062a_u062c_u0627_u0631_u0629_u000d", 
        "u0627_u0644_u062a_u062c_u0645_u0639_u0627_u062a u0020 u0627_u0644_u0645_u0647_u0646_u064a_u0629 u0020 u0648_u0627_u0644_u0645_u0646_u0638_u0645_u0627_u062a u0020 u063a_u064a_u0631 u0020 u0627_u0644_u062d_u0643_u0648_u0645_u064a_u0629 u0020 u0627_u0644_u0645_u0647_u062a_u0645_u0629 u0020 u0641_u064a u0020 u062a_u0637_u0648_u064a_u0631_u0020", 
        "u0645_u062c_u062a_u0645_u0639 u0020 u0627_u0644_u0645_u0639_u0644_u0648_u0645_u0627_u062a_u000d", 
        "u0627_u0644_u0645_u0634_u0631_u0639_u0648_u0646 u0020 u0648_u0627_u0644_u0642_u0636_u0627_u0629 u0020 u0648_u0627_u0644_u0645_u062d_u0627_u0645_u0648_u0646_u000d", 
        "u0627_u0644_u0645_u0633_u062a_u062e_u062f_u0645_u0648_u0646 u0020 u0644_u062e_u062f_u0645_u0627_u062a u0020 u0627_u0644_u0642_u0637_u0627_u0639 u0020 u0627_u0644_u062e_u0627_u0635 u0020 u0627_u0644_u0625_u0644_u0643_u062a_u0631_u0648_u0646_u064a_u0629_u000d", 
        "u0623_u0641_u0631_u0627_u062f u0020 u0627_u0644_u0645_u062c_u062a_u0645_u0639 u0020 u0020_u0648_u0627_u0644_u0645_u062c_u062a_u0645_u0639 u0020 u0627_u0644_u0645_u062f_u0646_u064a_u000d"
    ]
}