{
    "bounding_box": [
        [
            5, 
            8, 
            707, 
            38
        ], 
        [
            5, 
            50, 
            707, 
            38
        ], 
        [
            5, 
            92, 
            707, 
            41
        ], 
        [
            5, 
            139, 
            707, 
            37
        ], 
        [
            5, 
            180, 
            707, 
            38
        ], 
        [
            5, 
            223, 
            707, 
            38
        ], 
        [
            5, 
            268, 
            707, 
            37
        ], 
        [
            5, 
            310, 
            707, 
            39
        ], 
        [
            5, 
            353, 
            707, 
            39
        ], 
        [
            5, 
            396, 
            707, 
            35
        ], 
        [
            5, 
            440, 
            707, 
            38
        ], 
        [
            73, 
            482, 
            639, 
            39
        ]
    ], 
    "image_height": 540, 
    "image_width": 720, 
    "transcription": [
        "u0648_u0641_u064a u0020 u0647_u0630_u0627 u0020 u0627_u0644_u0648_u0642_u062a u0020 u0637_u0644_u0628 u0020 u0647_u064a_u0631_u0648_u062f u0020 u0645_u0646 u0020 u062d_u0643_u0627_u0645 u0020 u0633_u0648_u0631_u064a_u0627 u0020 u0623_u0646 u0020 u064a_u0623_u0630_u0646_u0648_u0627 u0020 u0644_u0647_u0020", 
        "u0628_u0627_u0644_u0630_u0647_u0627_u0628 u0020 u0625_u0644_u0649 u0020 u0628_u0644_u0627_u062f u0020 u0627_u0644_u0623_u0646_u0628_u0627_u0637 u0020 u0644_u0627_u0633_u062a_u0631_u062f_u0627_u062f u0020 u0627_u0644_u0645_u0627_u0644 u0020 u0648_u0627_u0644_u0641_u0627_u0631_u064a_u0646_u060c u0020 u0641_u062c_u0647_u0632_u0020", 
        "u062d_u0645_u0644_u0629 u0020 u0648_u0627_u062a_u062c_u0647 u0020 u0642_u0627_u0635_u062f_u0627_u064b u0020 u0627_u0644_u062d_u0635_u0646 u0020 u0627_u0644_u0630_u064a u0020 u0627_u062e_u062a_u0628_u0623 u0020 u0641_u064a_u0647 u0020 u0627_u0644_u0641_u0627_u0631_u0648_u0646 u0020 u0645_u0646_u0647_u060c_u0020", 
        "u0648_u0639_u0646_u062f_u0645_u0627 u0020 u0639_u0644_u0645 u0020 u0627_u0644_u0623_u0646_u0628_u0627_u0637 u0020 u0628_u0647_u0630_u0647 u0020 u0627_u0644_u062d_u0645_u0644_u0629 u0020 u062c_u0647_u0632_u0648_u0627 u0020 u062d_u0645_u0644_u0629 u0020 u0628_u0642_u064a_u0627_u062f_u0629 u0020 u0634_u062e_u0635_u0020", 
        "u0627_u0633_u0645_u0647 u0020 u0028_u0646_u0642_u064a_u0628_u0029 u0020 u0623_u0648 u0020 u0628_u0631_u062a_u0628_u0629 u0020 u0028_u0646_u0642_u064a_u0628_u2013_u004e_u0065_u0063_u0065_u0062_u0029_u060c u0020 u0648_u0627_u0644_u062a_u0642_u0649 u0020 u0627_u0644_u062c_u064a_u0634_u0627_u0646 u0020 u0641_u064a_u0020", 
        "u0645_u0646_u0637_u0642_u0629 u0020 u062d_u0648_u0631_u0627_u0646 u0020 u0641_u064a u0020 u0028_u0052_u0061_u0076_u0065_u006e_u0061_u0029_u060c u0020 u0648_u0642_u062a_u0644 u0020 u0628_u0647_u0630_u0647 u0020 u0627_u0644_u0645_u0639_u0631_u0643_u0629 u0020 u0627_u0644_u0642_u0627_u0626_u062f_u0020", 
        "u0627_u0644_u0646_u0628_u0637_u064a u0020 u0648_u0639_u062f_u062f u0020 u0645_u0646 u0020 u062c_u064a_u0634_u0647_u060c u0020 u0639_u0644_u0645 u0020 u0633_u064a_u0644_u0627_u064a_u0648_u0633 u0020 u0628_u0645_u0627 u0020 u062d_u062f_u062b u0020 u0648_u0642_u0627_u0645 u0020 u0628_u062a_u0628_u0644_u064a_u063a_u0020", 
        "u0627_u0644_u0625_u0645_u0628_u0631_u0627_u0637_u0648_u0631 u0020 u0627_u0644_u0631_u0648_u0645_u0627_u0646_u064a u0020 u0028_u0623_u063a_u0633_u0637_u0633_u0029 u0020 u0648_u0644_u0643_u0646 u0020 u0628_u0637_u0631_u064a_u0642_u0629 u0020 u0645_u062b_u064a_u0631_u0629 u0020 u0645_u0645_u0627_u0020", 
        "u062c_u0639_u0644 u0020 u0623_u063a_u0633_u0637_u0633 u0020 u064a_u0633_u062a_u0634_u064a_u0637 u0020 u063a_u0636_u0628_u0627_u064b u0020 u0645_u0646 u0020 u0028_u0647_u064a_u0631_u0648_u062f_u0029_u060c u0020 u0643_u0645_u0627 u0020 u0631_u0641_u0636_u0020", 
        "u0627_u0633_u062a_u0642_u0628_u0627_u0644 u0020 u0633_u0641_u0631_u0627_u0626_u0647 u0020 u0648_u0623_u0631_u0633_u0644 u0020 u0631_u0633_u0627_u0644_u0629 u0020 u064a_u062a_u0648_u0639_u062f_u0647 u0020 u0628_u0647_u0627 u0020 u0648_u064a_u062a_u0647_u062f_u062f_u0647_u060c u0020 u0648_u0623_u062b_u0646_u0627_u0621_u0020", 
        "u0648_u062c_u0648_u062f u0020 u0633_u064a_u0644_u0627_u064a_u0648_u0633 u0020 u0641_u064a u0020 u0631_u0648_u0645_u0627 u0020 u0628_u0644_u063a_u0647 u0020 u062e_u0628_u0631 u0020 u0648_u0641_u0627_u0629 u0020 u0627_u0644_u0645_u0644_u0643 u0020 u0639_u0628_u0627_u062f_u0629_u0020", 
        "u0648_u0627_u0633_u062a_u0644_u0627_u0645 u0020 u0627_u0644_u0645_u0644_u0643 u0020 u0627_u0644_u062d_u0627_u0631_u062b u0020 u0627_u0644_u0631_u0627_u0628_u0639 u0020 u0627_u0644_u062d_u0643_u0645_u060c u0020 u0641_u0634_u0639_u0631 u0020 u0628_u0627_u0644_u062e_u064a_u0628_u0629 u0020 u0644_u0630_u0644_u0643_u002e"
    ]
}