{
    "bounding_box": [
        [
            5, 
            44, 
            643, 
            51
        ], 
        [
            5, 
            103, 
            688, 
            49
        ], 
        [
            5, 
            160, 
            688, 
            51
        ], 
        [
            5, 
            222, 
            688, 
            46
        ], 
        [
            5, 
            276, 
            688, 
            51
        ], 
        [
            5, 
            333, 
            688, 
            51
        ], 
        [
            63, 
            394, 
            631, 
            48
        ]
    ], 
    "image_height": 540, 
    "image_width": 720, 
    "transcription": [
        "u0648_u0642_u062f u0020 u0623_u0646_u0632_u0644 u0020 u0627_u0644_u0644_u0647 u0020 u002d_u0639_u0632 u0020 u0648_u062c_u0644_u002d u0020 u0627_u0644_u0625_u0646_u062c_u064a_u0644 u0020 u0639_u0644_u0649_u0020", 
        "u0639_u064a_u0633_u0649_u060c u0020 u0648_u0623_u0645_u0631_u0646_u0627 u0020 u0628_u0627_u0644_u0625_u064a_u0645_u0627_u0646 u0020 u0628_u0647_u060c u0020 u0642_u0627_u0644 u0020 u062a_u0639_u0627_u0644_u0649_u003a_u0020", 
        "u007b_u0642_u0648_u0644_u0648_u0627 u0020 u0622_u0645_u0646_u0627 u0020 u0628_u0627_u0644_u0644_u0647 u0020 u0648_u0645_u0627 u0020 u0623_u0646_u0632_u0644 u0020 u0625_u0644_u064a_u0646_u0627 u0020 u0648_u0645_u0627 u0020 u0623_u0646_u0632_u0644 u0020 u0625_u0644_u064a_u0020", 
        "u0625_u0628_u0631_u0627_u0647_u064a_u0645 u0020 u0648_u0625_u0633_u0645_u0627_u0639_u064a_u0644 u0020 u0648_u0625_u0633_u062d_u0627_u0642 u0020 u0648_u064a_u0639_u0642_u0648_u0628_u0020", 
        "u0648_u0627_u0644_u0623_u0633_u0628_u0627_u0637 u0020 u0648_u0645_u0627 u0020 u0623_u0648_u062a_u064a u0020 u0645_u0648_u0633_u0649 u0020 u0648_u0639_u064a_u0633_u0649 u0020 u0648_u0645_u0627_u0020", 
        "u0623_u0648_u062a_u064a u0020 u0627_u0644_u0646_u0628_u064a_u0648_u0646 u0020 u0645_u0646 u0020 u0631_u0628_u0647_u0645 u0020 u0644_u0627 u0020 u0646_u0641_u0631_u0642 u0020 u0628_u064a_u0646 u0020 u0623_u062d_u062f_u0020", 
        "u0645_u0646_u0647_u0645 u0020 u0648_u0646_u062d_u0646 u0020 u0644_u0647 u0020 u0645_u0633_u0644_u0645_u0648_u0646_u007d u0020 u005b_u0627_u0644_u0628_u0642_u0631_u0629_u003a_u0031_u0033_u0036_u005d_u002e_u0020"
    ]
}