{
    "bounding_box": [
        [
            75, 
            138, 
            578, 
            43
        ], 
        [
            52, 
            186, 
            598, 
            43
        ], 
        [
            438, 
            237, 
            215, 
            36
        ], 
        [
            60, 
            282, 
            590, 
            43
        ], 
        [
            241, 
            330, 
            412, 
            39
        ], 
        [
            108, 
            378, 
            543, 
            40
        ], 
        [
            335, 
            426, 
            318, 
            43
        ]
    ], 
    "image_height": 540, 
    "image_width": 720, 
    "transcription": [
        "u0020_u062f_u0648_u0631 u0020 u0627_u0644_u0645_u0639_u0644_u0645 u0020 u0646_u062d_u0648 u0020 u0627_u0644_u0625_u062c_u0627_u0628_u0627_u062a u0020 u0020_u0028 u0020 u0627_u0639_u062a_u0628_u0627_u0631_u0627_u062a u0020 u0639_u0627_u0645_u0629_u0029 u0020 u000d", 
        "u0020 u0020 u064a_u062c_u0628 u0020 u0639_u0644_u0649 u0020 u0645_u0631_u0627_u0639_u0627_u0629 u0020 u0627_u0644_u0627_u0639_u062a_u0628_u0627_u0631_u0627_u062a u0020 u0627_u0644_u062a_u0627_u0644_u064a_u0629 u0020 u0639_u0646_u062f u0020 u062a_u0644_u0642_u064a_u0020", 
        "u0625_u062c_u0627_u0628_u0627_u062a u0020 u0627_u0644_u0637_u0644_u0627_u0628 u0020 u003a_u000d", 
        "u0020_u0627_u0644_u064a_u0642_u0638_u0629 u0020 u0648_u0627_u0644_u0627_u0646_u062a_u0628_u0627_u0647 u0020 u0627_u0644_u062c_u064a_u062f u0020 u0644_u0644_u0625_u062c_u0627_u0628_u0627_u062a u0020 u0020_u0639_u0644_u0649 u0020 u0623_u0646 u0020 u062a_u0643_u0648_u0646_u0020", 
        "u0645_u0646 u0020 u0623_u0643_u0628_u0631 u0020 u0639_u062f_u062f u0020 u0645_u0645_u0643_u0646 u0020 u0645_u0646 u0020 u0627_u0644_u0637_u0644_u0627_u0628 u0020 u002e_u000d", 
        "u0639_u062f_u0645 u0020 u062a_u0643_u0631_u0627_u0631 u0020 u0020_u0627_u0644_u0623_u0633_u0626_u0644_u0629 u0020 u0648_u0627_u0644_u0625_u062c_u0627_u0628_u0629 u0020 u0644_u0645_u0631_u0627_u062a u0020 u0639_u062f_u064a_u062f_u0629 u0020 u0020", 
        "u062d_u0641_u0627_u0638_u0627 u0020 u0639_u0644_u0649 u0020 u0648_u0642_u062a u0020 u0627_u0644_u062f_u0631_u0633 u0020 u002e"
    ]
}