{
    "bounding_box": [
        [
            42, 
            184, 
            626, 
            31
        ], 
        [
            44, 
            224, 
            624, 
            19
        ], 
        [
            139, 
            288, 
            430, 
            43
        ], 
        [
            148, 
            335, 
            414, 
            28
        ], 
        [
            257, 
            411, 
            208, 
            15
        ], 
        [
            107, 
            433, 
            508, 
            14
        ], 
        [
            274, 
            454, 
            175, 
            14
        ], 
        [
            138, 
            497, 
            447, 
            15
        ], 
        [
            85, 
            518, 
            549, 
            16
        ]
    ], 
    "image_height": 540, 
    "image_width": 720, 
    "transcription": [
        "u004c_u006f_u0063_u0061_u006c u0020 u0047_u006f_u0076_u0065_u0072_u006e_u0061_u006e_u0063_u0065 u0020 u0041_u0073_u0073_u0065_u0073_u0073_u006d_u0065_u006e_u0074 u0020 u0069_u006e u0020 u0045_u0067_u0079_u0070_u0074_u003a_u000b", 
        "u0049_u006d_u0070_u006c_u0069_u0063_u0061_u0074_u0069_u006f_u006e_u0073 u0020 u0066_u006f_u0072 u0020 u0052_u0065_u0066_u006f_u0072_u006d_u0069_u006e_u0067 u0020 u0026 u0020 u0053_u0074_u0072_u0065_u006e_u0067_u0074_u0068_u0065_u006e_u0069_u006e_u0067 u0020 u004c_u006f_u0063_u0061_u006c u0020 u0047_u006f_u0076_u0065_u0072_u006e_u006d_u0065_u006e_u0074_u000b", 
        "u0020_u062a_u0642_u064a_u064a_u0645 u0020 u0627_u0644_u062d_u0648_u0643_u0645_u0629 u0020 u0627_u0644_u0645_u062d_u0644_u064a_u0629 u0020 u0641_u064a u0020 u0645_u0635_u0631_u003a_u000b", 
        "u062a_u0628_u0639_u0627_u062a_u0647_u0627 u0020 u0644_u0625_u0639_u0627_u062f_u0629 u0020 u0647_u064a_u0643_u0644_u0629 u0020 u0648_u062a_u0642_u0648_u064a_u0629 u0020 u0627_u0644_u0625_u062f_u0627_u0631_u0629 u0020 u0627_u0644_u0645_u062d_u0644_u064a_u0629_u0020", 
        "u0052_u0065_u0067_u0069_u006f_u006e_u0061_u006c u0020 u0047_u006f_u0076_u0065_u0072_u006e_u0061_u006e_u0063_u0065 u0020 u0057_u0065_u0065_u006b_u000d", 
        "u0053_u006f_u0063_u0069_u0061_u006c u0020 u0041_u0063_u0063_u006f_u0075_u006e_u0074_u0061_u0062_u0069_u006c_u0069_u0074_u0079 u0020 u0069_u006e u0020 u0061 u0020 u0043_u0068_u0061_u006e_u0067_u0069_u006e_u0067 u0020 u0052_u0065_u0067_u0069_u006f_u006e u0020 u002d u0020 u0041_u0063_u0074_u006f_u0072_u0073 u0020 u0061_u006e_u0064 u0020 u004d_u0065_u0063_u0068_u0061_u006e_u0069_u0073_u006d_u0073_u000d", 
        "u004e_u006f_u0076_u0065_u006d_u0062_u0065_u0072 u0020 u0032_u0036_u002d_u0032_u0039_u002c u0020 u0043_u0061_u0069_u0072_u006f_u000d", 
        "u004c_u006f_u0063_u0061_u006c u0020 u0044_u0065_u0076_u0065_u006c_u006f_u0070_u006d_u0065_u006e_u0074 u0020 u004f_u0062_u0073_u0065_u0072_u0076_u0061_u0074_u006f_u0072_u0079 u0020 u0028_u004c_u0044_u004f_u0029 u0020 u2013 u0020 u004b_u0068_u0061_u006c_u0065_u0064 u0020 u0041_u0062_u0064_u0065_u006c_u0068_u0061_u006c_u0069_u006d_u000d", 
        "u004c_u006f_u0063_u0061_u006c u0020 u0041_u0064_u006d_u0069_u006e_u0069_u0073_u0074_u0072_u0061_u0074_u0069_u006f_u006e u0020 u0052_u0065_u0066_u006f_u0072_u006d u0020 u0055_u006e_u0069_u0074 u0020 u0028_u004c_u0041_u0052_u0055_u0029 u0020 u2013 u0020 u004d_u0069_u006e_u0069_u0073_u0074_u0072_u0079 u0020 u006f_u0066 u0020 u004c_u006f_u0063_u0061_u006c u0020 u0044_u0065_u0076_u0065_u006c_u006f_u0070_u006d_u0065_u006e_u0074"
    ]
}