{
    "bounding_box": [
        [
            437, 
            21, 
            214, 
            28
        ], 
        [
            80, 
            99, 
            581, 
            24
        ], 
        [
            69, 
            133, 
            592, 
            25
        ], 
        [
            175, 
            162, 
            486, 
            23
        ]
    ], 
    "image_height": 540, 
    "image_width": 720, 
    "transcription": [
        "u0625_u0631_u0641_u0627_u0642 u0020 u0642_u0627_u0644_u0628 u0020 u0644_u0647_u0630_u0627 u0020 u0627_u0644_u0645_u0633_u062a_u0646_u062f", 
        "u0625_u0630_u0627 u0020 u0643_u0627_u0646 u0020 u0644_u062f_u064a_u0643 u0020 u0645_u0644_u0641_u0627_u062a u0020 u0642_u062f_u064a_u0645_u0629 u0020 u0648_u062a_u0631_u063a_u0628 u0020 u0628_u062a_u062d_u062f_u064a_u062b_u0647_u0627 u0020 u0628_u0627_u0633_u062a_u062e_u062f_u0627_u0645 u0020 u0642_u0627_u0644_u0628 u0020 u062c_u062f_u064a_u062f_u060c u0020 u0641_u0625_u0646_u0020", 
        "u0645_u0639_u0627_u0644_u062c u0020 u0627_u0644_u0646_u0635_u0648_u0635 u0020 u0022_u0648_u0648_u0631_u062f_u0022 u0020 u064a_u0645_u0643_u0646 u0020 u0627_u0646 u0020 u064a_u0637_u0628_u0642 u0020 u0641_u0639_u0644_u064a_u0627 u0020 u062a_u0646_u0633_u064a_u0642 u0020 u0627_u0644_u0642_u0627_u0644_u0628 u0020 u0639_u0644_u0649 u0020 u0645_u0644_u0641_u0020", 
        "u0645_u0648_u062c_u0648_u062f u0020 u0645_u0645_u0627 u0020 u064a_u0648_u0641_u0631 u0020 u0639_u0644_u064a_u0643 u0020 u0645_u0634_u0642_u0629 u0020 u0625_u0639_u0627_u062f_u0629 u0020 u0625_u0646_u0634_u0627_u0621 u0020 u0627_u0644_u0645_u0644_u0641_u0627_u062a u0020 u0627_u0644_u0642_u062f_u064a_u0645_u0629_u002e_u000d"
    ]
}