{
    "bounding_box": [
        [
            396, 
            32, 
            293, 
            42
        ], 
        [
            355, 
            120, 
            335, 
            27
        ], 
        [
            253, 
            152, 
            436, 
            27
        ], 
        [
            321, 
            74, 
            366, 
            37
        ], 
        [
            498, 
            183, 
            189, 
            37
        ], 
        [
            157, 
            230, 
            530, 
            26
        ], 
        [
            53, 
            259, 
            636, 
            27
        ], 
        [
            618, 
            290, 
            68, 
            37
        ], 
        [
            421, 
            336, 
            265, 
            27
        ], 
        [
            368, 
            368, 
            318, 
            30
        ], 
        [
            258, 
            431, 
            428, 
            29
        ]
    ], 
    "image_height": 540, 
    "image_width": 720, 
    "transcription": [
        "u062c_u0029_u0631_u0627_u0647_u06a9_u0627_u0631 u0020 u0647_u0627_u06cc u0020 u0639_u0627_u0637_u0641_u06cc", 
        "u0648_u064e_u0648_u064e_u0635_u0651_u064e_u064a_u0652_u0646_u064e_u0627 u0020 u0627_u0644_u0652_u0625_u0650_u0646_u0633_u064e_u0627_u0646_u064e u0020 u0628_u0650_u0648_u064e_u0627_u0644_u0650_u062f_u064e_u064a_u0652_u0647_u0650 u0020 u062d_u064f_u0633_u0652_u0646_u064b_u0627_u0028_u0639_u0646_u06a9_u0628_u0648_u062a u0020 u0038_u0029_u0020", 
        "u0628_u0647 u0020 u0627_u0646_u0633_u0627_u0646 u0020 u0633_u0641_u0627_u0631_u0634 u0020 u0643_u0631_u062f_u064a_u0645 u0020 u0643_u0647 u0020 u0628_u0647 u0020 u067e_u062f_u0631 u0020 u0648 u0020 u0645_u0627_u062f_u0631 u0020 u062e_u0648_u062f u0020 u0646_u064a_u0643_u0649 u0020 u0643_u0646_u062f_u002e_u0020", 
        "u0031_u002e_u0645_u062d_u0628_u062a u0020 u0628_u0647 u0020 u067e_u062f_u0631 u0020 u0648 u0020 u0645_u0627_u062f_u0631 u0020 u0648 u0020 u0635_u0644_u0647 u0020 u0631_u062d_u0645", 
        "u0032_u002e_u0633_u0641_u0627_u0631_u0634 u0020 u0628_u0647 u0020 u0635_u0628_u0631", 
        "u0648_u064e_u0627_u0633_u0652_u062a_u064e_u0639_u0650_u064a_u0646_u064f_u0648_u0627 u0020 u0628_u0650_u0627_u0644_u0635_u0651_u064e_u0628_u0652_u0631_u0650 u0020 u0648_u064e_u0627_u0644_u0635_u0651_u064e_u0644_u064e_u0627_u0629_u0650 u0020 u06da u0020 u0648_u064e_u0625_u0650_u0646_u0651_u064e_u0647_u064e_u0627 u0020 u0644_u064e_u0643_u064e_u0628_u0650_u064a_u0631_u064e_u0629_u064c u0020 u0625_u0650_u0644_u0651_u064e_u0627 u0020 u0639_u064e_u0644_u064e_u0649 u0020 u0627_u0644_u0652_u062e_u064e_u0627_u0634_u0650_u0639_u0650_u064a_u0646_u064e_u0028_u0628_u0642_u0631_u0647 u0020 u0034_u0035_u0029", 
        "u0627_u0632 u0020 u0634_u0643_u064a_u0628_u0627_u064a_u0649 u0020 u0648 u0020 u0646_u0645_u0627_u0632 u0020 u064a_u0627_u0631_u0649 u0020 u062c_u0648_u064a_u064a_u062f_u002e u0020 u0648 u0020 u0628_u0647 u0020 u0631_u0627_u0633_u062a_u0649 u0020 u0627_u064a_u0646 u0020 u005b_u0643_u0627_u0631_u005d u0020 u06af_u0631_u0627_u0646 u0020 u0627_u0633_u062a_u060c u0020 u0645_u06af_u0631 u0020 u0628_u0631 u0020 u0641_u0631_u0648_u062a_u0646_u0627_u0646", 
        "u0033_u002e_u062a_u0648_u0628_u0647", 
        "u0625_u0650_u0646_u0651_u064e u0020 u0627_u0644_u0644_u0651_u064e_u0640_u0647_u064e u0020 u064a_u064f_u062d_u0650_u0628_u0651_u064f u0020 u0627_u0644_u062a_u0651_u064e_u0648_u0651_u064e_u0627_u0628_u0650_u064a_u0646_u064e u0020 u0028_u0628_u0642_u0631_u0647 u0020 u0032_u0032_u0032_u0029", 
        "u062e_u062f_u0627_u0648_u0646_u062f u0020 u062a_u0648_u0628_u0647_u200c_u0643_u0627_u0631_u0627_u0646 u0020 u0631_u0627 u0020 u062f_u0648_u0633_u062a u0020 u0645_u06cc u0020 u062f_u0627_u0631_u062f_u002e_u000d", 
        "u062a_u0648_u0628_u0647 u0020 u06a9_u0646_u0646_u062f_u0647 u0020 u0647_u0645_u0686_u0648_u0646 u0020 u06a9_u0633_u06cc u0020 u0627_u0633_u062a u0020 u06a9_u0647 u0020 u062a_u0627_u06a9_u0646_u0648_u0646 u0020 u06af_u0646_u0627_u0647 u0020 u0646_u06a9_u0631_u062f_u0647_u002e"
    ]
}