{
    "bounding_box": [
        [
            20, 
            38, 
            666, 
            39
        ], 
        [
            20, 
            86, 
            680, 
            43
        ], 
        [
            20, 
            134, 
            680, 
            39
        ], 
        [
            20, 
            183, 
            680, 
            42
        ], 
        [
            20, 
            230, 
            680, 
            43
        ], 
        [
            20, 
            279, 
            680, 
            39
        ], 
        [
            20, 
            326, 
            680, 
            43
        ], 
        [
            20, 
            375, 
            680, 
            41
        ], 
        [
            20, 
            422, 
            680, 
            43
        ], 
        [
            425, 
            466, 
            275, 
            43
        ]
    ], 
    "image_height": 540, 
    "image_width": 720, 
    "transcription": [
        "u0644_u0642_u062f u0020 u0623_u0638_u0647_u0631_u062a u0020 u0643_u062b_u064a_u0631 u0020 u0645_u0646 u0020 u0627_u0644_u0625_u062d_u0635_u0627_u0626_u064a_u0627_u062a u0020 u0627_u0646 u0020 u0627_u0644_u0639_u0645_u0644_u064a_u0629_u0020", 
        "u0627_u0644_u0633_u064a_u0627_u062d_u064a_u0629 u0020 u062a_u0639_u062f u0020 u0627_u0644_u0639_u0646_u0635_u0631_u00a0 u0020 u0648_u0627_u0644_u0639_u0627_u0645_u0644 u0020 u0627_u0644_u0623_u0647_u0645 u0020 u0641_u064a u0020 u0632_u064a_u0627_u062f_u0629 u0020 u0642_u0648_u0629_u0020", 
        "u0648_u0645_u0646_u0639_u0629 u0020 u0627_u0644_u062f_u0648_u0644_u0629 u0020 u0627_u0644_u0627_u0642_u062a_u0635_u0627_u062f_u064a_u0629_u00a0 u0020 u0646_u0638_u0631_u0627 u0020 u0644_u0645_u0627 u0020 u0644_u0647_u0627 u0020 u0645_u0646 u0020 u062f_u0648_u0631 u0020 u0628_u0627_u0631_u0632_u0020", 
        "u0641_u064a u0020 u062a_u062d_u0642_u064a_u0642 u0020 u0627_u0644_u0646_u0645_u0648 u0020 u0627_u0644_u0627_u0642_u062a_u0635_u0627_u062f_u064a u0020 u0627_u0644_u0645_u062a_u0632_u0627_u064a_u062f u0020 u062d_u064a_u062b u0020 u062a_u0644_u0639_u0628_u0020", 
        "u0627_u0644_u0645_u0631_u062f_u0648_u062f_u0627_u062a u0020 u0627_u0644_u0633_u064a_u0627_u062d_u064a_u0629 u0020 u0645_u0627 u0020 u0642_u064a_u0645_u0629 u0020 u0033_u0030_u0025 u0020 u0645_u0646 u0020 u0627_u0644_u062d_u062c_u0645 u0020 u0627_u0644_u0643_u0644_u064a_u0020", 
        "u0644_u0648_u0627_u0631_u062f_u0627_u062a u0020 u0628_u0639_u0636 u0020 u0627_u0644_u062f_u0648_u0644 u0020 u0641_u0627_u0644_u0645_u0631_u062f_u0648_u062f u0020 u0627_u0644_u0645_u062a_u062d_u0642_u0642 u0020 u0645_u0646_u0020", 
        "u0627_u0644_u0633_u064a_u0627_u062d_u0629_u00a0 u0020 u062a_u0632_u064a_u062f u0020 u0645_u0646 u0020 u0627_u0644_u062f_u062e_u0644 u0020 u0627_u0644_u0642_u0648_u0645_u064a u0020 u0644_u0644_u062f_u0648_u0644_u0629_u00a0 u0020 u0627_u0644_u0623_u0645_u0631 u0020 u0627_u0644_u0630_u064a_u0020", 
        "u064a_u0646_u0639_u0643_u0633 u0020 u0639_u0644_u0649 u0020 u0639_u062c_u0632 u0020 u0627_u0644_u0645_u062f_u0641_u0648_u0639_u0627_u062a u0020 u060c u0020 u0648_u0627_u0646 u0020 u0643_u062b_u064a_u0631 u0020 u0645_u0646 u0020 u0627_u0644_u062f_u0648_u0644_u0020", 
        "u062a_u0639_u062a_u0645_u062f u0020 u0627_u0639_u062a_u0645_u0627_u062f_u0627 u0020 u0643_u0644_u064a_u0627 u0020 u0639_u0644_u0649 u0020 u0625_u064a_u0631_u0627_u062f_u0627_u062a u0020 u0627_u0644_u062e_u0632_u064a_u0646_u0629 u0020 u00a0_u0627_u0644_u0645_u062d_u0635_u0644_u0629_u0020", 
        "u0645_u0646 u0020 u0642_u0637_u0627_u0639 u0020 u0627_u0644_u0633_u064a_u0627_u062d_u0629_u00a0 u0020 u002e_u000d"
    ]
}