{
    "bounding_box": [
        [
            246, 
            82, 
            437, 
            47
        ], 
        [
            175, 
            162, 
            508, 
            27
        ], 
        [
            65, 
            199, 
            619, 
            28
        ], 
        [
            227, 
            238, 
            457, 
            29
        ], 
        [
            97, 
            280, 
            587, 
            29
        ], 
        [
            64, 
            323, 
            611, 
            27
        ], 
        [
            73, 
            352, 
            603, 
            31
        ], 
        [
            495, 
            390, 
            189, 
            25
        ]
    ], 
    "image_height": 540, 
    "image_width": 720, 
    "transcription": [
        "u0633_u0645_u0627_u062a u0020 u0648_u0645_u0647_u0627_u0645 u0020 u0627_u0644_u062a_u0631_u0628_u064a_u0629 u0020 u0627_u0644_u0645_u0633_u064a_u062d_u064a_u0629", 
        "u0031_u002e u0020 u0625_u0639_u062f_u0627_u062f u0020 u0627_u0644_u0641_u0631_u062f u0020 u0644_u064a_u0643_u0648_u0646 u0020 u0645_u0633_u064a_u062d_u064a_u0627 u0020 u0645_u0624_u0645_u0646_u0627 u0020 u0628_u062a_u0639_u0627_u0644_u064a_u0645 u0020 u0627_u0644_u062f_u064a_u0646 u0020 u0627_u0644_u0645_u0633_u064a_u062d_u064a_u000d", 
        "u0032_u002e u0020 u0627_u0644_u062a_u0631_u0643_u064a_u0632 u0020 u0639_u0644_u0649 u0020 u0627_u0644_u062a_u0631_u0628_u064a_u0629 u0020 u0645_u0646 u0020 u062e_u0644_u0627_u0644 u0020 u0627_u0644_u0643_u0646_u064a_u0633_u0629 u0020 u0623_u0648 u0020 u0627_u0644_u062f_u064a_u0631 u0020 u0028_u0627_u0644_u0632_u0647_u062f u0020 u0648_u0627_u0644_u0631_u0647_u0628_u0627_u0646_u064a_u0629_u0029_u002e_u000d", 
        "u0033_u002e u0020 u0625_u0639_u062f_u0627_u062f u0020 u0627_u0644_u0625_u0646_u0633_u0627_u0646 u0020 u0644_u0644_u062d_u064a_u0627_u0629 u0020 u0627_u0644_u0622_u062e_u0631_u0629 u0020 u062d_u064a_u062b u0020 u0627_u0644_u0633_u0639_u0627_u062f_u0629 u0020 u0627_u0644_u0623_u0628_u062f_u064a_u0629_u000d", 
        "u0034_u002e_u0627_u0644_u0627_u0647_u062a_u0645_u0627_u0645 u0020 u0628_u0627_u0644_u0645_u0639_u0627_u0631_u0641 u0020 u0627_u0644_u062f_u064a_u0646_u064a_u0629 u0020 u0648_u0627_u0644_u062e_u0644_u0642_u064a_u0629 u0020 u0645_u0646 u0020 u062e_u0644_u0627_u0644 u0020 u0625_u062d_u064a_u0627_u0621 u0020 u0627_u0644_u0639_u0644_u0648_u0645 u0020 u0627_u0644_u0623_u0648_u0644_u0649_u000d", 
        "u0035_u002e u0020 u0627_u0644_u062a_u0631_u0643_u064a_u0632 u0020 u0639_u0644_u0649 u0020 u0627_u0644_u0625_u0646_u0633_u0627_u0646 u0020 u0628_u0627_u0639_u062a_u0628_u0627_u0631_u0647 u0020 u0630_u0648 u0020 u0637_u0628_u064a_u0639_u0629 u0020 u0645_u0632_u062f_u0648_u062c_u0629 u0020 u002d u0020 u0627_u0644_u0631_u0648_u062d u0020 u0648_u0627_u0644_u062c_u0633_u062f_u0020", 
        "u002d u0020 u0648_u0623_u0646 u0020 u0627_u0644_u0631_u0648_u062d u0020 u0645_u0637_u0645_u0626_u0646_u0629 u0020 u0645_u062a_u0635_u0644_u0629 u0020 u0628_u0627_u0644_u0644_u0647 u0020 u0623_u0645_u0627 u0020 u0627_u0644_u062c_u0633_u062f u0020 u0641_u0630_u0648 u0020 u0637_u0628_u064a_u0639_u0629 u0020 u0634_u0631_u064a_u0631_u0629 u0020 u0648_u0645_u0644_u064a_u0626_u0629_u0020", 
        "u0628_u0627_u0644_u063a_u0631_u0627_u0626_u0632 u0020 u0648_u062d_u0628 u0020 u0627_u0644_u062f_u0646_u064a_u0627_u002e_u000d"
    ]
}