{
    "bounding_box": [
        [
            184, 
            33, 
            350, 
            22
        ], 
        [
            65, 
            79, 
            624, 
            16
        ], 
        [
            65, 
            100, 
            246, 
            22
        ], 
        [
            65, 
            131, 
            199, 
            21
        ], 
        [
            19, 
            157, 
            628, 
            24
        ], 
        [
            287, 
            182, 
            360, 
            22
        ], 
        [
            65, 
            213, 
            601, 
            16
        ], 
        [
            65, 
            234, 
            601, 
            15
        ], 
        [
            65, 
            253, 
            229, 
            14
        ], 
        [
            65, 
            280, 
            362, 
            16
        ], 
        [
            25, 
            304, 
            588, 
            17
        ], 
        [
            25, 
            329, 
            657, 
            17
        ], 
        [
            65, 
            350, 
            322, 
            16
        ], 
        [
            65, 
            374, 
            181, 
            17
        ], 
        [
            65, 
            399, 
            502, 
            17
        ], 
        [
            65, 
            425, 
            556, 
            17
        ], 
        [
            65, 
            450, 
            571, 
            17
        ], 
        [
            65, 
            471, 
            233, 
            16
        ], 
        [
            65, 
            495, 
            391, 
            17
        ]
    ], 
    "image_height": 540, 
    "image_width": 720, 
    "transcription": [
        "u0052_u0065_u0061_u0073_u006f_u006e u0020 u0066_u006f_u0072 u0020 u0063_u0072_u0069_u0073_u0069_u0073 u0020 u0061_u0072_u0065 u0020 u006f_u0074_u0068_u0065_u0072_u0073", 
        "u0052_u0065_u0061_u0073_u006f_u006e_u0073 u0020 u0077_u0068_u0065_u006e u0020 u0070_u0061_u0072_u0065_u006e_u0074_u0073 u0020 u0068_u0061_u0076_u0065 u0020 u0062_u0065_u0063_u006f_u006d_u0065 u0020 u0074_u0068_u0065 u0020 u0063_u0061_u0075_u0073_u0065 u0020 u006f_u0066 u0020 u0063_u0072_u0069_u0073_u0069_u0073 u0020 u0061_u006e_u0064 u0020 u0064_u0069_u0066_u0066_u0065_u0072_u0065_u006e_u0063_u0065_u0073_u0020", 
        "u0028_u0077_u0068_u0069_u006c_u0065 u0020 u0062_u0065_u0069_u006e_u0067 u0020 u0077_u0065_u006c_u006c_u002d_u0077_u0069_u0073_u0068_u0065_u0072_u0073_u0029 u0020 u000d", 
        "u004d_u0061_u0072_u0072_u0069_u0061_u0067_u0065 u0020 u0061_u0074 u0020 u0065_u0061_u0072_u006c_u0079 u0020 u0061_u0067_u0065_u003a_u000d", 
        "u06be_u0634_u0627_u0645 u0020 u0639_u0646 u0020 u0627_u0645_u0627_u0645 u0020 u0635_u0627_u062f_u0642_u0611_u003a u0020 u0642_u0650_u064a_u0644_u064e u0020 u0644_u064e_u0647_u064f u0020 u0625_u0650_u0646_u0651_u064e_u0627 u0020 u0646_u064f_u0632_u064e_u0648_u0651_u0650_u062c_u064f u0020 u0635_u0650_u0628_u0652_u064a_u064e_u0627_u0646_u064e_u0646_u064e_u0627 u0020 u0648_u064e u0020 u0647_u064f_u0645_u0652 u0020 u0635_u0650_u063a_u064e_u0627_u0631_u064c u0020 u0641_u064e_u0642_u064e_u0627_u0644_u064e u0020 u0625_u0650_u0630_u064e_u0627 u0020 u0632_u064f_u0648_u0651_u0650_u062c_u064f_u0648_u0627 u0020 u0648_u064e u0020 u0647_u064f_u0645_u0652 u0020 u0635_u0650_u063a_u064e_u0627_u0631_u064c u0020 u0644_u064e_u0645_u0652_u0020", 
        "u064a_u064e_u0643_u064e_u0627_u062f_u064f_u0648_u0627 u0020 u0623_u064e_u0646_u0652 u0020 u064a_u064e_u0623_u0652_u062a_u064e_u0644_u0650_u0641_u064f_u0648_u0627 u0020 u0028_u0648_u0633_u0627_u0626_u0644 u0020 u0627_u0644_u0634_u06cc_u0639_u06c3_u060c u0020 u062c u0020 u06f2_u06f0_u060c u0020 u0635 u0020 u06f1_u06f0_u06f4_u0029_u000d", 
        "u0069_u0066 u0020 u0077_u0065 u0020 u006d_u0061_u0072_u0072_u0079 u0020 u006f_u0075_u0072 u0020 u006b_u0069_u0064_u0073 u0020 u0061_u0074 u0020 u0079_u006f_u0075_u006e_u0067 u0020 u0061_u0067_u0065 u0020 u0069_u0073 u0020 u0074_u0068_u0061_u0074 u0020 u0061 u0020 u0067_u006f_u006f_u0064 u0020 u0074_u0068_u0069_u006e_u0067_u003f u0020 u0049_u006d_u0061_u006d u0020 u0072_u0065_u0070_u006c_u0069_u0065_u0064_u003a u0020 u0041_u006e_u0079_u0074_u0069_u006d_u0065_u0020", 
        "u0074_u0068_u0069_u0073 u0020 u0074_u0061_u006b_u0065_u0073 u0020 u0070_u006c_u0061_u0063_u0065 u0020 u0074_u0068_u0065_u0072_u0065 u0020 u0077_u0069_u006c_u006c u0020 u0062_u0065 u0020 u006c_u0065_u0073_u0073 u0020 u0061_u0074_u0074_u0072_u0061_u0063_u0074_u0069_u006f_u006e u0020 u0020_u0062_u0065_u0074_u0077_u0065_u0065_u006e u0020 u0074_u0068_u0065_u006d_u002c u0020 u0062_u0065_u0063_u0061_u0075_u0073_u0065 u0020 u0074_u0068_u0065_u0079 u0020 u0064_u0069_u0064_u006e_u2019_u0074_u0020", 
        "u0074_u0061_u006b_u0065 u0020 u0074_u0068_u0069_u0073 u0020 u0064_u0065_u0063_u0069_u0073_u0069_u006f_u006e u0020 u0074_u0068_u0065_u006d_u0073_u0065_u006c_u0076_u0065_u0073_u002e_u000d", 
        "u004d_u0061_u0072_u0072_u0069_u0061_u0067_u0065 u0020 u006f_u0066 u0020 u006b_u0069_u0064 u0020 u0070_u0072_u0069_u006f_u0072 u0020 u0074_u006f u0020 u0074_u0068_u0065_u0069_u0072 u0020 u0062_u0075_u006c_u0075_u0067_u0068 u0020 u0069_u0073 u0020 u006d_u0061_u006b_u0072_u0075_u0068_u000d", 
        "u0051_u003a u0020 u0020 u0020 u0020_u0044_u006f_u0065_u0073 u0020 u0049_u0073_u006c_u0061_u006d u0020 u0070_u0065_u0072_u006d_u0069_u0074 u0020 u0074_u0068_u0065 u0020 u006d_u0061_u0072_u0072_u0069_u0061_u0067_u0065 u0020 u006f_u0066 u0020 u0061 u0020 u0067_u0069_u0072_u006c u0020 u0061_u0074 u0020 u0061_u0067_u0065 u0020 u006e_u0069_u006e_u0065 u0020 u0061_u006e_u0064 u0020 u0062_u006f_u0079_u0073 u0020 u0061_u0074 u0020 u0061_u0067_u0065 u0020 u0031_u0035_u003f_u000d", 
        "u0041_u003a u0020 u0020 u0020 u0020_u004e_u0069_u006e_u0065 u0020 u0061_u006e_u0064 u0020 u0066_u0069_u0066_u0074_u0065_u0065_u006e u0020 u0069_u0073 u0020 u006d_u0065_u0072_u0065_u006c_u0079 u0020 u0074_u0068_u0065 u0020 u0079_u0065_u0061_u0072 u0020 u0077_u0068_u0065_u006e u0020 u0074_u0068_u0065_u0079 u0020 u0062_u0065_u0063_u006f_u006d_u0065 u0020 u0062_u0061_u006c_u0069_u0067_u0068_u002c u0020 u0061_u006e_u0064 u0020 u0069_u0074 u0020 u0064_u006f_u0065_u0073_u006e_u2019_u0074 u0020 u0068_u0061_u0076_u0065_u0020", 
        "u0074_u006f u0020 u0062_u0065 u0020 u0074_u0068_u0065 u0020 u0061_u0067_u0065 u0020 u0077_u0068_u0065_u006e u0020 u0074_u0068_u0065_u0079 u0020 u006d_u0075_u0073_u0074 u0020 u0067_u0065_u0074 u0020 u006d_u0061_u0072_u0072_u0069_u0065_u0064_u002e_u000d", 
        "u0042_u0075_u006c_u0075_u0067_u0068 u0020 u0068_u0061_u0073 u0020 u0066_u006f_u0075_u0072 u0020 u006c_u0065_u0076_u0065_u006c_u0073_u003a_u000d", 
        "u0049_u006e u0020 u0074_u0068_u0065 u0020 u006d_u0065_u0061_u006e_u0069_u006e_u0067 u0020 u006f_u0066 u0020 u0074_u0061_u006b_u006c_u0069_u0066_u002c u0020 u0077_u0068_u0065_u0072_u0065 u0020 u006f_u006e_u0065 u0020 u006d_u0075_u0073_u0074 u0020 u006f_u0062_u0073_u0065_u0076_u0065 u0020 u0077_u0061_u006a_u0069_u0062 u0020 u0061_u006e_u0064 u0020 u0068_u0061_u0072_u0061_u006d_u000d", 
        "u0049_u006e u0020 u0074_u0068_u0065 u0020 u006d_u0065_u0061_u006e_u0069_u006e_u0067 u0020 u006f_u0066 u0020 u0067_u0065_u0074_u0074_u0069_u006e_u0067 u0020 u0072_u0065_u0061_u0064_u0079 u0020 u0066_u006f_u0072 u0020 u0066_u0061_u0073_u0074_u0073_u002c u0020 u0061_u0073 u0020 u006c_u006f_u006e_u0067 u0020 u0061_u0073 u0020 u0069_u0074 u0020 u0064_u006f_u0065_u0073_u006e_u2019_u0074 u0020 u0068_u0061_u0072_u006d u0020 u0074_u0068_u0065_u006d_u000d", 
        "u0042_u0075_u006c_u0075_u0067_u0068 u0020 u0066_u006f_u0072 u0020 u006d_u0061_u0072_u0072_u0069_u0061_u0067_u0065_u002c u0020 u0077_u0068_u0065_u006e u0020 u0061 u0020 u0067_u0069_u0072_u006c u0020 u0068_u0061_u0073 u0020 u0065_u0078_u0063_u0065_u0065_u0064_u0065_u0064 u0020 u0069_u006e u0020 u0068_u0065_u0072 u0020 u0062_u006f_u0064_u0069_u006c_u0079 u0020 u0067_u0072_u006f_u0077_u0074_u0068 u0020 u0061_u006e_u0064 u0020 u0074_u006f_u0020", 
        "u0073_u0061_u0066_u0065_u0067_u0075_u0061_u0072_u0064 u0020 u0066_u0072_u006f_u006d u0020 u0061_u006e_u0079 u0020 u0069_u006e_u0064_u0065_u0063_u0065_u006e_u0063_u0079_u000d", 
        "u0046_u006f_u0072 u0020 u0066_u0069_u006e_u0061_u006e_u0063_u0069_u0061_u006c u0020 u0072_u0065_u0061_u0073_u006f_u006e_u0073_u002c u0020 u0073_u006f u0020 u0074_u0068_u0061_u0074 u0020 u0069_u0074 u0020 u0064_u006f_u0065_u0073_u006e_u2019_u0074 u0020 u0067_u0065_u0074 u0020 u0075_u0073_u0075_u0072_u0070_u0065_u0064_u002e"
    ]
}