{
    "bounding_box": [
        [
            475, 
            520, 
            47, 
            9
        ], 
        [
            691, 
            520, 
            11, 
            7
        ], 
        [
            284, 
            55, 
            79, 
            31
        ], 
        [
            6, 
            132, 
            605, 
            26
        ], 
        [
            502, 
            166, 
            109, 
            28
        ], 
        [
            227, 
            205, 
            384, 
            25
        ], 
        [
            10, 
            237, 
            601, 
            29
        ], 
        [
            512, 
            275, 
            99, 
            24
        ]
    ], 
    "image_height": 540, 
    "image_width": 720, 
    "transcription": [
        "u062f_u06a9_u062a_u0631 u0020 u0637_u0628_u0627_u0637_u0628_u0627_u06cc_u06cc", 
        "u0037_u0038", 
        "u062a_u0645_u0631_u064a_u0646", 
        "u0641_u0631_u0627_u06af_u064a_u0631 u0020 u0628_u062a_u0648_u0627_u0646_u062f u0020 u0642_u062f u0020 u0646_u0648_u0632_u0627_u062f u0020 u0631_u0627 u0020 u062f_u0631 u0020 u062d_u0627_u0644_u062a u0020 u062e_u0648_u0627_u0628_u064a_u062f_u0647 u0020 u0628_u0627 u0020 u062d_u062f u0020 u0627_u0643_u062b_u0631 u0020 u0031_u0025 u0020 u062e_u0637_u0627 u0020 u0627_u0646_u0627_u0632_u0647_u0020", 
        "u06af_u064a_u0631_u064a u0020 u0646_u0645_u0627_u064a_u062f_u002e_u000d", 
        "u0639_u0644_u0627_u0626_u0645 u0020 u0648 u0020 u0646_u0634_u0627_u0646_u0647 u0020 u0647_u0627_u064a u0020 u0628_u064a_u0645_u0627_u0631_u064a u0020 u0627_u064a_u062f_u0632 u0020 u0631_u0627 u0020 u0646_u0627_u0645 u0020 u0628_u0628_u0631_u062f_u002e_u000d", 
        "u0641_u0631_u0627_u06af_u064a_u0631 u0020 u062f_u0631 u0020 u0645_u0628_u0627_u062d_u062b u0020 u0639_u0644_u0645_u064a u0020 u0627_u0632 u0020 u0644_u0632_u0648_u0645 u0020 u0627_u0646_u062f_u0627_u0632_u0647 u0020 u06af_u064a_u0631_u064a u0020 u0642_u062f u0020 u0646_u0648_u0632_u0627_u062f u0020 u062f_u0631 u0020 u0647_u0631 u0020 u0648_u064a_u0632_u064a_u062a_u0020", 
        "u062f_u0641_u0627_u0639 u0020 u0646_u0645_u0627_u064a_u062f_u002e_u000d"
    ]
}