{
    "bounding_box": [
        [
            614, 
            59, 
            272, 
            44
        ], 
        [
            63, 
            149, 
            805, 
            34
        ], 
        [
            63, 
            190, 
            805, 
            34
        ], 
        [
            63, 
            227, 
            805, 
            36
        ], 
        [
            126, 
            265, 
            741, 
            35
        ]
    ], 
    "image_height": 540, 
    "image_width": 960, 
    "transcription": [
        "u0627_u0644_u0645_u0633_u062a_u0648_u0649 u0020 u0627_u0644_u0623_u0633_u0644_u0648_u0628_u064a u0020 u003a", 
        "u062a_u0639_u062a_u0628_u0631 u0020 u0627_u0644_u0644_u063a_u0629 u0020 u0639_u0646 u0020 u0627_u0644_u0645_u0639_u0646_u0649 u0020 u0627_u0644_u0648_u0627_u062d_u062f u0020 u0628_u0623_u0633_u0627_u0644_u064a_u0628 u0020 u0645_u062e_u062a_u0644_u0641_u0629 u0020 u0648_u0627_u0646 u0020 u0643_u0627_u0646_u062a u0020 u0639_u0644_u0649 u0020 u0627_u062e_u062a_u0644_u0627_u0641_u0647_u0627_u0020", 
        "u0645_u0633_u062a_u0645_u062f_u0629 u0020 u0645_u0646 u0020 u0645_u0627_u062f_u0629 u0020 u0627_u0644_u0639_u0631_u0628_u064a_u0629 u0020 u062c_u0627_u0631_u064a_u0629 u0020 u0639_u0644_u0649 u0020 u0646_u0638_u0627_u0645_u0647_u0627 u0020 u0627_u0644_u0635_u0648_u062a_u064a u0020 u0648 u0020 u0627_u0644_u0635_u0631_u0641_u064a u0020 u0648_u0020", 
        "u0627_u0644_u062f_u0644_u0627_u0644_u064a u0020 u0648 u0020 u0627_u0644_u0646_u062d_u0648_u064a u0020 u002e u0020 u064a_u062f_u0631_u0633 u0020 u0627_u0644_u0623_u0633_u0627_u0644_u064a_u0628 u0020 u0648_u0627_u062e_u062a_u0644_u0627_u0641_u0647_u0627 u0020 u0648_u0623_u0646_u0648_u0627_u0639_u0647_u0627 u0020 u0648_u0645_u0645_u064a_u0632_u0627_u062a_u0647_u0627_u0020", 
        "u0648_u0623_u062b_u0631_u0647_u0647_u0627 u0020 u0641_u064a u0020 u0642_u0648_u0629 u0020 u0648_u0636_u0639_u0641 u0020 u0627_u0644_u0645_u0639_u0646_u0649 u0020 u0648_u064a_u062a_u0636_u0645_u0646 u0020 u0643_u0644 u0020 u0627_u0644_u0645_u0633_u062a_u0648_u064a_u0627_u062a u0020 u0627_u0644_u0633_u0627_u0628_u0642_u0629 u0020 u002e_u000d"
    ]
}