{
    "bounding_box": [
        [
            256, 
            41, 
            198, 
            32
        ], 
        [
            21, 
            128, 
            642, 
            38
        ], 
        [
            21, 
            168, 
            642, 
            42
        ], 
        [
            21, 
            211, 
            642, 
            42
        ], 
        [
            21, 
            254, 
            642, 
            42
        ], 
        [
            345, 
            298, 
            318, 
            41
        ]
    ], 
    "image_height": 540, 
    "image_width": 720, 
    "transcription": [
        "u062a_u0627_u0631_u064a_u062e u0020 u0645_u0634_u0631_u0648_u0639_u064a_u062a_u0647_u0627_u0020", 
        "u0647_u064a u0020 u0642_u062f_u064a_u0645_u0629 u0020 u0641_u064a u0020 u0645_u0634_u0631_u0648_u0639_u064a_u062a_u0647_u0627 u0020 u0641_u0642_u062f u0020 u0642_u0627_u0644 u0020 u062a_u0639_u0627_u0644_u0649 u0020 u0639_u0646 u0020 u0633_u064a_u062f_u0646_u0627_u0020", 
        "u0627_u0633_u0645_u0627_u0639_u064a_u0644 u0020 u0639_u0644_u064a_u0647 u0020 u0627_u0644_u0633_u0644_u0627_u0645_u0028_u0648_u064e_u0643_u064e_u0627_u0646_u064e u0020 u064a_u064e_u0623_u0652_u0645_u064f_u0631_u064f u0020 u0623_u064e_u0647_u0652_u0644_u064e_u0647_u064f u0020 u0628_u0650_u0627_u0644_u0635_u0651_u064e_u0644_u064e_u0627_u0629_u0650 u0020 u0648_u064e_u0627_u0644_u0632_u0651_u064e_u0643_u064e_u0627_u0629_u0650_u0020", 
        "u0648_u064e_u0643_u064e_u0627_u0646_u064e u0020 u0639_u0650_u0646_u0652_u062f_u064e u0020 u0631_u064e_u0628_u0651_u0650_u0647_u0650 u0020 u0645_u064e_u0631_u0652_u0636_u0650_u064a_u0651_u064b_u0627_u0029 u0020 u0645_u0631_u064a_u0645 u0020 u003a u0020 u0627_u0644_u0622_u064a_u0629 u0020 u0035_u0035_u0648_u0642_u062f u0020 u0648_u0631_u062f_u062a u0020 u0639_u0644_u0649_u0020", 
        "u0644_u0633_u0627_u0646 u0020 u0639_u064a_u0633_u0649 u0020 u0639_u0644_u064a_u0647 u0020 u0627_u0644_u0633_u0644_u0627_u0645 u0020 u0028 u0020 u0648_u064e_u0623_u064e_u0648_u0652_u0635_u064e_u0627_u0646_u0650_u064a u0020 u0628_u0650_u0627_u0644_u0635_u0651_u064e_u0644_u064e_u0627_u0629_u0650 u0020 u0648_u064e_u0627_u0644_u0632_u0651_u064e_u0643_u064e_u0627_u0629_u0650_u0020", 
        "u0645_u064e_u0627 u0020 u062f_u064f_u0645_u0652_u062a_u064f u0020 u062d_u064e_u064a_u0651_u064b_u0627 u0020 u0029_u0645_u0631_u064a_u0645 u0020 u0627_u0644_u0622_u064a_u0629 u0020 u0033_u0031_u002e"
    ]
}