{
    "bounding_box": [
        [
            501, 
            25, 
            163, 
            29
        ], 
        [
            61, 
            81, 
            600, 
            23
        ], 
        [
            102, 
            116, 
            559, 
            24
        ], 
        [
            112, 
            146, 
            549, 
            26
        ], 
        [
            246, 
            176, 
            415, 
            26
        ], 
        [
            92, 
            216, 
            570, 
            25
        ], 
        [
            64, 
            244, 
            598, 
            26
        ], 
        [
            89, 
            281, 
            573, 
            25
        ], 
        [
            382, 
            310, 
            279, 
            26
        ]
    ], 
    "image_height": 540, 
    "image_width": 720, 
    "transcription": [
        "u0627_u0644_u0637_u0627_u0628_u0639_u0627_u062a u0020 u0627_u0644_u0631_u0627_u0633_u0645_u0629_u0020", 
        "u0627_u0644_u0637_u0627_u0628_u0639_u0629 u0020 u0627_u0644_u0631_u0627_u0633_u0645_u0629 u0020 u0639_u0628_u0627_u0631_u0629 u0020 u0639_u0646 u0020 u062c_u0647_u0627_u0632 u0020 u0645_u062e_u0631_u062c_u0627_u062a u0020 u0634_u0628_u064a_u0647 u0020 u062c_u062f_u0627 u0020 u0628_u0627_u0644_u0637_u0627_u0628_u0639_u0629_u002e u0020 u0648_u0627_u0644_u0641_u0631_u0642_u0020", 
        "u0627_u0644_u0631_u0626_u064a_u0633_u064a u0020 u0628_u064a_u0646_u0647_u0627 u0020 u0647_u0648 u0020 u0627_u0646 u0020 u0627_u0644_u0637_u0627_u0628_u0639_u0627_u062a u0020 u0627_u0644_u0631_u0627_u0633_u0645_u0629 u0020 u062a_u0633_u062a_u062e_u062f_u0645 u0020 u062c_u0647_u0627_u0632_u0627 u0020 u0634_u0628_u064a_u0647_u0627 u0020 u0628_u0627_u0644_u0642_u0644_u0645_u0020", 
        "u0644_u0631_u0633_u0645 u0020 u062e_u0637_u0648_u0637 u0020 u0645_u062a_u0648_u0627_u0635_u0644_u0629 u0020 u0639_u0644_u0649 u0020 u0648_u0631_u0642 u0020 u0627_u0644_u0637_u0627_u0628_u0639_u0629 u0020 u0627_u0644_u0631_u0627_u0633_u0645_u0629 u0020 u0628_u0645_u0627 u0020 u064a_u062a_u0648_u0627_u0641_u0642 u0020 u0645_u0639_u0020", 
        "u0627_u0644_u0645_u0639_u0644_u0648_u0645_u0627_u062a u0020 u0627_u0644_u0645_u0648_u0636_u0639_u064a_u0629 u0020 u0627_u0644_u062a_u064a u0020 u062a_u062e_u0631_u062c u0020 u0645_u0646 u0020 u0627_u0644_u0643_u0645_u0628_u064a_u0648_u062a_u0631_u002e u0020 u000d", 
        "u0628_u0627_u0644_u0645_u0642_u0627_u0628_u0644_u060c u0020 u062a_u0646_u062a_u062c u0020 u0627_u0644_u0637_u0627_u0628_u0639_u0627_u062a u0020 u0645_u0637_u0628_u0648_u0639_u0627_u062a u0020 u0635_u0648_u0631_u064a_u0629 u0020 u0639_u0644_u0649 u0020 u0634_u0628_u0643_u0629 u0020 u0645_u0633_u062a_u0637_u064a_u0644_u0629 u0020 u0645_u0646_u0020", 
        "u0627_u0644_u0628_u0643_u0633_u0644_u0627_u062a u0020 u0645_u0623_u062e_u0648_u0630_u0629 u0020 u0645_u0639_u0627 u0020 u0645_u0646 u0020 u0635_u0648_u0631_u0629 u0020 u0627_u0643_u0628_u0631_u002e u0020 u0627_u0636_u0627_u0641_u0629 u0020 u0644_u0630_u0644_u0643_u060c u0020 u0641_u0625_u0646 u0020 u0627_u062d_u062c_u0627_u0645 u0020 u0627_u0644_u0648_u0631_u0642_u0020", 
        "u0627_u0644_u062a_u064a u0020 u064a_u0645_u0643_u0646 u0020 u0627_u0646 u0020 u062a_u0633_u062a_u0648_u0639_u0628_u0647_u0627 u0020 u0627_u0644_u0637_u0627_u0628_u0639_u0627_u062a u0020 u0627_u0642_u0644 u0020 u062a_u0646_u0648_u0639_u0627 u0020 u0646_u0633_u0628_u064a_u0627 u0020 u062d_u064a_u062b u0020 u0627_u0646_u0647_u0627 u0020 u062a_u0633_u062a_u062e_u062f_u0645_u0020", 
        "u0628_u0634_u0643_u0644 u0020 u0627_u0633_u0627_u0633_u064a u0020 u0644_u0637_u0628_u0627_u0639_u0629 u0020 u0627_u0644_u0646_u0635_u0648_u0635_u002e_u0020"
    ]
}