{
    "bounding_box": [
        [
            658, 
            8, 
            54, 
            20
        ], 
        [
            81, 
            38, 
            631, 
            22
        ], 
        [
            588, 
            64, 
            123, 
            24
        ], 
        [
            476, 
            93, 
            236, 
            25
        ], 
        [
            528, 
            124, 
            183, 
            21
        ], 
        [
            85, 
            154, 
            499, 
            21
        ], 
        [
            85, 
            177, 
            569, 
            27
        ], 
        [
            78, 
            206, 
            271, 
            26
        ], 
        [
            78, 
            236, 
            326, 
            26
        ], 
        [
            78, 
            268, 
            279, 
            22
        ], 
        [
            78, 
            297, 
            137, 
            22
        ], 
        [
            71, 
            321, 
            445, 
            27
        ], 
        [
            78, 
            385, 
            29, 
            19
        ], 
        [
            78, 
            412, 
            81, 
            17
        ], 
        [
            78, 
            442, 
            378, 
            17
        ]
    ], 
    "image_height": 540, 
    "image_width": 720, 
    "transcription": [
        "u0645_u062b_u0627_u0644 u0020 u003a_u000d", 
        "u0623_u0648_u062f_u0639 u0020 u0645_u0628_u0644_u063a u0020 u0038_u0030_u0030_u0030_u0030 u0020 u062f_u0631_u0647_u0645 u0020 u0020_u0641_u064a u0020 u0628_u0646_u0643 u0020 u0628_u062d_u0633_u0627_u0628 u0020 u0627_u0644_u0631_u0628_u062d u0020 u0627_u0644_u0645_u0631_u0643_u0628 u0020 u060c u0020 u0648_u0643_u0627_u0646_u062a u0020 u0627_u0644_u0641_u0627_u0626_u062f_u0629 u0020 u002e_u0033_u0034 u0020 u0025_u0020", 
        "u0641_u064a u0020 u0627_u0644_u0633_u0646_u0629 u0020 u0641_u0625_u0646 u0020 u003a_u000d", 
        "u0623_u0029 u0020 u062c_u0645_u0644_u0629 u0020 u0627_u0644_u0645_u0628_u0644_u063a u0020 u0628_u0639_u062f u0020 u0036_u002e_u0035 u0020 u0020_u0633_u0646_u0647_u002e_u000d", 
        "u0628_u0029 u0020 u0631_u0628_u062d_u0647 u0020 u0628_u0639_u062f u0020 u0036_u002e_u0035_u0633_u0646_u0647_u002e_u000d", 
        "u00a0_u0009_u0044_u0065_u0070_u006f_u0073_u0069_u0074_u0065_u0064_u00a0 u0020 u0061_u006d_u006f_u0075_u006e_u0074 u0020 u006f_u0066_u00a0_u0038_u0030_u0030_u0030_u0030 u0020 u0041_u0045_u0044_u00a0_u0069_u006e u0020 u0061_u0020", 
        "u0062_u0061_u006e_u006b_u00a0_u0061_u0063_u0063_u006f_u0075_u006e_u0074_u00a0_u0061_u0073 u0020 u0063_u006f_u006d_u0070_u006f_u0075_u006e_u0064_u00a0_u0070_u0072_u006f_u0066_u0069_u0074_u002c u0020 u0061_u006e_u0064 u0020 u0074_u0068_u0065 u0020 u0069_u006e_u0074_u0065_u0072_u0065_u0073_u0074_u0020", 
        "u0072_u0061_u0074_u0065_u00a0_u006f_u0066 u0020 u0034_u002e_u0033_u0025_u00a0_u0069_u006e_u00a0_u0074_u0068_u0065_u00a0_u0079_u0065_u0061_u0072_u003a_u000b", 
        "u0041_u0029_u00a0_u0074_u006f_u0074_u0061_u006c u0020 u0061_u006d_u006f_u0075_u006e_u0074_u00a0_u0069_u006e_u00a0_u0036_u002e_u0035 u0020 u0079_u0065_u0061_u0072_u0073_u002e_u000b", 
        "u0042_u0029_u00a0_u0070_u0072_u006f_u0066_u0069_u0074_u00a0_u0061_u0066_u0074_u0065_u0072_u00a0 u0020 u0036_u002e_u0035 u0020 u0079_u0065_u0061_u0072_u0073_u002e_u000d", 
        "u006e u0020 u0020 u0020 u0020 u0020 u0041_u003d_u0050_u0028_u0031_u002b_u0072_u0029_u000d", 
        "u0032 u0020 u0020_u0041_u0045_u0044 u0020 u002e_u0031_u0030_u0035_u0031_u0038_u0031_u003d_u0038_u0030_u0030_u0030_u0030 u0020 u0078_u0028_u0031_u002b u0020 u0030_u002e_u0030_u0034_u0033_u0029_u0036_u002e_u0035 u0020 u003d u0020 u0020_u000d", 
        "u0062_u0029_u000d", 
        "u00a0_u0049_u003d u0020 u0041_u002d_u0050_u000d", 
        "u003d_u0032_u0035_u0031_u0038_u0031_u002e_u0032 u0020 u0020 u0020 u0041_u0045_u0044 u0020 u0038_u0030_u0030_u0030_u0030_u003d_u0031_u0030_u0035_u0031_u0038_u0031_u002e_u0032_u002d u0020 u000d"
    ]
}