{
    "bounding_box": [
        [
            177, 
            61, 
            439, 
            34
        ], 
        [
            399, 
            110, 
            217, 
            29
        ], 
        [
            399, 
            155, 
            216, 
            28
        ], 
        [
            401, 
            194, 
            215, 
            33
        ], 
        [
            55, 
            240, 
            561, 
            33
        ], 
        [
            391, 
            283, 
            225, 
            33
        ], 
        [
            391, 
            329, 
            225, 
            32
        ], 
        [
            391, 
            373, 
            225, 
            32
        ]
    ], 
    "image_height": 540, 
    "image_width": 720, 
    "transcription": [
        "u062c_u003a u0020 u062a_u0648_u0641_u064a u0020 u0623_u0646_u0633 u0020 u0628_u0646 u0020 u0645_u0627_u0644_u0643 u0020 u0631_u0636_u064a u0020 u0627_u0644_u0644_u0647 u0020 u0639_u0646_u0647 u0020 u0641_u064a u0020 u003a_u000d", 
        "u0031_u002d u0020 u0628_u063a_u062f_u0627_u062f u0020 u0028 u0020 u0020 u0020 u0020 u0020 u0020 u0020 u0029_u002e u0020 u0020 u0020 u0020_u000d", 
        "u0032_u002d u0020 u0627_u0644_u0628_u0635_u0631_u0629 u0020 u0028 u0020 u0020 u0020 u0020 u0020 u0020 u0020 u0020_u0029_u002e_u000d", 
        "u0033_u002d u0020 u0627_u0644_u0643_u0648_u0641_u0629 u0020 u0028 u0020 u0020 u0020 u0020 u0020 u0020 u0020 u0020 u0020 u0029_u002e_u000d", 
        "u062f_u002d u0020 u062a_u0648_u0641_u064a u0020 u0623_u0646_u0633 u0020 u0628_u0646 u0020 u0645_u0627_u0644_u0643 u0020 u0631_u0636_u064a u0020 u0627_u0644_u0644_u0647 u0020 u0639_u0646_u0647 u0020 u0648_u0639_u0645_u0631_u0647 u0020 u0623_u0643_u062b_u0631 u0020 u0645_u0646 u0020 u003a_u000d", 
        "u0031_u002d u0020 u0037_u0030 u0020 u0633_u0646_u0629 u0020 u0028 u0020 u0020 u0020 u0020 u0020 u0020 u0020 u0020_u0029_u002e_u000d", 
        "u0032_u002d u0020 u0039_u0030 u0020 u0633_u0646_u0629 u0020 u0028 u0020 u0020 u0020 u0020 u0020 u0020 u0020 u0020_u0029_u002e_u000d", 
        "u0033_u002d u0020 u0031_u0030_u0030 u0020 u0633_u0646_u0629 u0020 u0028 u0020 u0020 u0020 u0020 u0020 u0020 u0020 u0029_u002e"
    ]
}