{
    "bounding_box": [
        [
            192, 
            21, 
            302, 
            29
        ], 
        [
            202, 
            76, 
            290, 
            36
        ], 
        [
            21, 
            504, 
            16, 
            10
        ]
    ], 
    "image_height": 540, 
    "image_width": 720, 
    "transcription": [
        "u062c_u0627_u0645_u0639_u0629 u0020 u0645_u062d_u0645_u062f u0020 u0627_u0644_u062e_u0627_u0645_u0633_u000b", 
        "u0020_u062a_u0623_u0633_u0633_u062a u0020 u0639_u0627_u0645 u0020 u0031_u0039_u0039_u0033", 
        "u0034_u0034"
    ]
}