{
    "bounding_box": [
        [
            66, 
            20, 
            618, 
            37
        ], 
        [
            290, 
            147, 
            119, 
            27
        ], 
        [
            207, 
            176, 
            285, 
            23
        ], 
        [
            292, 
            234, 
            115, 
            27
        ], 
        [
            91, 
            263, 
            575, 
            27
        ], 
        [
            37, 
            291, 
            604, 
            27
        ], 
        [
            36, 
            320, 
            605, 
            27
        ], 
        [
            44, 
            349, 
            597, 
            27
        ], 
        [
            41, 
            378, 
            601, 
            27
        ], 
        [
            77, 
            407, 
            564, 
            27
        ], 
        [
            273, 
            435, 
            369, 
            24
        ], 
        [
            95, 
            76, 
            478, 
            24
        ], 
        [
            134, 
            107, 
            395, 
            27
        ]
    ], 
    "image_height": 540, 
    "image_width": 720, 
    "transcription": [
        "u0627_u0644_u0645_u064a_u062b_u0627_u0642 u0020 u0627_u0644_u0625_u0633_u0644_u0627_u0645_u064a u0020 u0627_u0644_u0639_u0627_u0644_u0645_u064a u0020 u0644_u0644_u0623_u062e_u0644_u0627_u0642_u064a_u0627_u062a u0020 u0627_u0644_u0637_u0628_u064a_u0629 u0020 u0648_u0627_u0644_u0635_u062d_u064a_u0629_u000b", 
        "u0627_u0644_u0628_u0627_u0628 u0020 u0627_u0644_u062b_u0627_u0646_u064a_u000d", 
        "u0648_u0627_u062c_u0628_u0627_u062a u0020 u0627_u0644_u0637_u0628_u064a_u0628 u0020 u0646_u062d_u0648 u0020 u0627_u0644_u0645_u0631_u064a_u0636_u000d", 
        "u0627_u0644_u0645_u0627_u062f_u0629 u0020 u0028 u0020 u0035_u0029_u000d", 
        "u0639_u0644_u0649 u0020 u0627_u0644_u0637_u0628_u064a_u0628 u0020 u0623_u0646 u0020 u064a_u062d_u0631_u0635 u0020 u0639_u0644_u0649 u0020 u0625_u062c_u0631_u0627_u0621 u0020 u0627_u0644_u0641_u062d_u0648_u0635 u0020 u0627_u0644_u0637_u0628_u064a_u0629 u0020 u0627_u0644_u0644_u0627_u0632_u0645_u0629_u0020", 
        "u0644_u0644_u0645_u0631_u064a_u0636_u060c u0020 u062f_u0648_u0646 u0020 u0625_u0636_u0627_u0641_u0629 u0020 u0641_u062d_u0648_u0635 u0020 u0644_u0627 u0020 u062a_u062a_u0637_u0644_u0651_u064e_u0628_u0647_u0627 u0020 u062d_u0627_u0644_u062a_u0647 u0020 u0627_u0644_u0645_u0631_u0636_u064a_u0629_u002e u0020 u0648_u0639_u0644_u064a_u0647_u0020", 
        "u0623_u0646 u0020 u064a_u0628_u0646_u064a u0020 u0643_u0644 u0020 u0625_u062c_u0631_u0627_u0621_u0627_u062a_u0647 u0020 u0627_u0644_u062a_u0634_u062e_u064a_u0635_u064a_u0629 u0020 u0648_u0627_u0644_u0639_u0644_u0627_u062c_u064a_u0629 u0020 u0639_u0644_u0649 u0020 u0623_u0641_u0636_u0644 u0020 u0645_u0627 u0020 u064a_u0645_u0643_u0646_u0020", 
        "u0645_u0646 u0020 u0627_u0644_u0628_u064a_u0651_u0650_u0646_u0627_u062a_u060c u0020 u0648_u0623_u0646 u0020 u064a_u0645_u062a_u0646_u0639 u0020 u0639_u0646 u0020 u0627_u0633_u062a_u062e_u062f_u0627_u0645 u0020 u0637_u0631_u0642 u0020 u062a_u0634_u062e_u064a_u0635_u064a_u0629 u0020 u0623_u0648 u0020 u0639_u0644_u0627_u062c_u064a_u0629_u0020", 
        "u063a_u064a_u0631 u0020 u0645_u0639_u062a_u0645_u062f_u0629_u060c u0020 u0623_u0648 u0020 u063a_u064a_u0631 u0020 u0645_u062a_u0639_u0627_u0631_u064e_u0641 u0020 u0639_u0644_u064a_u0647_u0627_u060c u0020 u0623_u0648 u0020 u063a_u064a_u0631 u0020 u0645_u064f_u0639_u0652_u062a_u064e_u0631_u064e_u0641 u0020 u0628_u0647_u0627 u0020 u0639_u0644_u0645_u064a_u0627_u064b_u002e_u0020", 
        "u0643_u0645_u0627 u0020 u0623_u0646 u0020 u0639_u0644_u064a_u0647 u0020 u0623_u0646 u0020 u064a_u0642_u062a_u0635_u0631 u0020 u0641_u064a u0020 u0648_u0635_u0641 u0020 u0627_u0644_u062f_u0648_u0627_u0621 u0020 u0623_u0648 u0020 u0625_u062c_u0631_u0627_u0621 u0020 u0627_u0644_u0639_u0645_u0644_u064a_u0627_u062a_u0020", 
        "u0627_u0644_u062c_u0631_u0627_u062d_u064a_u0629 u0020 u0639_u0644_u0649 u0020 u0645_u0627 u0020 u062a_u062a_u0637_u0644_u0651_u064e_u0628_u0647 u0020 u062d_u0627_u0644_u0629 u0020 u0627_u0644_u0645_u0631_u064a_u0636_u002e", 
        "u0627_u0644_u062d_u0631_u0635 u0020 u0639_u0644_u0649 u0020 u0625_u062c_u0631_u0627_u0621 u0020 u0627_u0644_u0641_u062d_u0648_u0635 u0020 u0627_u0644_u0637_u0628_u064a_u0629 u0020 u0648 u0020 u0648_u0635_u0641 u0020 u0627_u0644_u062f_u0648_u0627_u0621 u0020 u000d", 
        "u0623_u0648 u0020 u0625_u062c_u0631_u0627_u0621 u0020 u0627_u0644_u0639_u0645_u0644_u064a_u0627_u062a u0020 u0627_u0644_u062c_u0631_u0627_u062d_u064a_u0629 u0020 u0627_u0644_u0644_u0627_u0632_u0645_u0629 u0020 u0644_u0644_u0645_u0631_u064a_u0636"
    ]
}