{
    "bounding_box": [
        [
            90, 
            31, 
            538, 
            25
        ], 
        [
            485, 
            82, 
            218, 
            18
        ], 
        [
            544, 
            102, 
            148, 
            19
        ], 
        [
            408, 
            128, 
            284, 
            19
        ], 
        [
            577, 
            148, 
            114, 
            21
        ], 
        [
            387, 
            172, 
            305, 
            21
        ], 
        [
            386, 
            196, 
            306, 
            20
        ], 
        [
            553, 
            220, 
            138, 
            17
        ], 
        [
            477, 
            245, 
            215, 
            17
        ], 
        [
            388, 
            267, 
            303, 
            18
        ], 
        [
            568, 
            290, 
            123, 
            19
        ], 
        [
            396, 
            313, 
            295, 
            19
        ], 
        [
            659, 
            334, 
            44, 
            15
        ], 
        [
            373, 
            357, 
            318, 
            18
        ], 
        [
            407, 
            379, 
            284, 
            18
        ], 
        [
            546, 
            403, 
            145, 
            16
        ], 
        [
            568, 
            425, 
            124, 
            17
        ], 
        [
            74, 
            104, 
            276, 
            17
        ], 
        [
            109, 
            126, 
            241, 
            20
        ], 
        [
            25, 
            152, 
            325, 
            17
        ], 
        [
            127, 
            175, 
            223, 
            16
        ], 
        [
            183, 
            197, 
            167, 
            17
        ], 
        [
            95, 
            217, 
            255, 
            20
        ], 
        [
            184, 
            246, 
            166, 
            16
        ]
    ], 
    "image_height": 540, 
    "image_width": 720, 
    "transcription": [
        "u0627_u0644_u0642_u0633_u0645 u0020 u0038_u003a u0020 u0625_u0636_u0627_u0641_u0629 u0020 u0623_u0634_u0643_u0627_u0644 u0020 u0648_u0635_u0648_u0631 u0020 u0648_u0631_u0633_u0648_u0645_u0627_u062a u0020 u0628_u064a_u0627_u0646_u064a_u0629 u0020 u0648_u0645_u062e_u0637_u0637_u0627_u062a u0020 u0648_u062c_u062f_u0627_u0648_u0644", 
        "u0641_u064a u0020 u0647_u0630_u0627 u0020 u0627_u0644_u0642_u0633_u0645_u060c u0020 u0633_u0648_u0641 u0020 u062a_u062a_u0639_u0644_u0645 u0020 u0643_u064a_u0641_u064a_u0629_u003a u0020 u000d", 
        "u062a_u062d_u062f_u064a_u062f u0020 u0623_u062c_u0632_u0627_u0621 u0020 u0645_u0646 u0020 u062c_u062f_u0648_u0644_u000d", 
        "u0625_u062f_u0631_u0627_u062c u0020 u062c_u062f_u0627_u0648_u0644 u0020 u0628_u0627_u0633_u062a_u062e_u062f_u0627_u0645 u0020 u0627_u0644_u0634_u0628_u0643_u0629 u0020 u0648_u0645_u0631_u0628_u0639 u0020 u0627_u0644_u062d_u0648_u0627_u0631_u000d", 
        "u0631_u0633_u0645 u0020 u062c_u062f_u0627_u0648_u0644 u0020 u064a_u062f_u0648_u064a_u0627_u064b_u000d", 
        "u0627_u0633_u062a_u062e_u062f_u0627_u0645 u0020 u062a_u0628_u0648_u064a_u0628_u062a_u064a u0020 u0623_u062f_u0648_u0627_u062a u0020 u0627_u0644_u062c_u062f_u0648_u0644 u0020 u0648_u0623_u062f_u0648_u0627_u062a u0020 u0627_u0644_u0645_u062e_u0637_u0637_u000d", 
        "u0625_u0636_u0627_u0641_u0629 u0020 u062c_u062f_u0648_u0644 u0020 u0628_u064a_u0627_u0646_u0627_u062a u0020 u0045_u0078_u0063_u0065_u006c u0020 u0625_u0644_u0649 u0020 u0639_u0631_u0636 u0020 u062a_u0642_u062f_u064a_u0645_u064a_u000d", 
        "u0627_u062e_u062a_u064a_u0627_u0631 u0020 u0628_u064a_u0627_u0646_u0627_u062a u0020 u0627_u0644_u062c_u062f_u0648_u0644_u000d", 
        "u0625_u0639_u0627_u062f_u0629 u0020 u0627_u0644_u062a_u062d_u0643_u0645 u0020 u0628_u062d_u062c_u0645 u0020 u0627_u0644_u062c_u062f_u0627_u0648_u0644 u0020 u0648_u0646_u0642_u0644_u0647_u0627_u000d", 
        "u0625_u0636_u0627_u0641_u0629 u0020 u0648_u0625_u0632_u0627_u0644_u0629 u0020 u0648_u0625_u0639_u0627_u062f_u0629 u0020 u0627_u0644_u062a_u062d_u0643_u0645 u0020 u0628_u0627_u0644_u0635_u0641_u0648_u0641 u0020 u0648_u0627_u0644_u0623_u0639_u0645_u062f_u0629_u000d", 
        "u062f_u0645_u062c u0020 u0648_u062a_u0642_u0633_u064a_u0645 u0020 u0627_u0644_u062e_u0644_u0627_u064a_u0627_u000d", 
        "u062a_u0646_u0633_u064a_u0642 u0020 u0627_u0644_u062c_u062f_u0627_u0648_u0644 u0020 u0648_u0646_u0635 u0020 u0627_u0644_u062c_u062f_u0648_u0644 u0020 u0628_u0627_u0633_u062a_u062e_u062f_u0627_u0645 u0020 u0627_u0644_u0623_u0646_u0645_u0627_u0637_u0020", 
        "u0648_u064a_u062f_u0648_u064a_u0627_u064b_u000d", 
        "u0625_u0636_u0627_u0641_u0629 u0020 u0645_u062e_u0637_u0637_u0627_u062a u0020 u0625_u0644_u0649 u0020 u0627_u0644_u0639_u0631_u0636 u0020 u0627_u0644_u062a_u0642_u062f_u064a_u0645_u064a u0020 u0627_u0644_u062e_u0627_u0635 u0020 u0628_u0643_u000d", 
        "u0625_u0639_u0627_u062f_u0629 u0020 u0627_u0644_u062a_u062d_u0643_u0645 u0020 u0628_u062d_u062c_u0645 u0020 u0627_u0644_u0645_u062e_u0637_u0637_u0627_u062a u0020 u0648_u0646_u0642_u0644_u0647_u0627 u0020 u0648_u062d_u0630_u0641_u0647_u0627_u000d", 
        "u062a_u062d_u0631_u064a_u0631 u0020 u0628_u064a_u0627_u0646_u0627_u062a u0020 u0627_u0644_u0645_u062e_u0637_u0637_u000d", 
        "u062a_u063a_u064a_u064a_u0631 u0020 u0646_u0645_u0637 u0020 u0627_u0644_u0645_u062e_u0637_u0637_u000d", 
        "u0625_u0636_u0627_u0641_u0629 u0020 u0053_u006d_u0061_u0072_u0074_u0041_u0072_u0074 u0020 u0648_u062a_u0636_u0645_u064a_u0646 u0020 u0646_u0635 u0020 u0648_u0635_u0648_u0631_u000d", 
        "u0627_u0633_u062a_u062e_u062f_u0627_u0645 u0020 u062a_u0628_u0648_u064a_u0628_u0627_u062a u0020 u0623_u062f_u0648_u0627_u062a u0020 u0053_u006d_u0061_u0072_u0074_u0041_u0072_u0074_u000d", 
        "u0625_u0639_u0627_u062f_u0629 u0020 u0627_u0644_u062a_u062d_u0643_u0645 u0020 u0628_u062d_u062c_u0645 u0020 u0627_u0644_u0631_u0633_u0648_u0645_u0627_u062a u0020 u0627_u0644_u0628_u064a_u0627_u0646_u064a_u0629 u0020 u0648_u0646_u0642_u0644_u0647_u0627 u0020 u0648_u062d_u0630_u0641_u0647_u0627_u000d", 
        "u062a_u063a_u064a_u064a_u0631 u0020 u062a_u062e_u0637_u064a_u0637 u0020 u0648_u0646_u0645_u0637 u0020 u0053_u006d_u0061_u0072_u0074_u0041_u0072_u0074 u0020 u000d", 
        "u0625_u0639_u0627_u062f_u0629 u0020 u062a_u0644_u0648_u064a_u0646 u0020 u0053_u006d_u0061_u0072_u0074_u0041_u0072_u0074_u000d", 
        "u062a_u062d_u0648_u064a_u0644 u0020 u0053_u006d_u0061_u0072_u0074_u0041_u0072_u0074 u0020 u0625_u0644_u0649 u0020 u0646_u0635 u0020 u0623_u0648 u0020 u0623_u0634_u0643_u0627_u0644_u000d", 
        "u0625_u0639_u0627_u062f_u0629 u0020 u062a_u0639_u064a_u064a_u0646 u0020 u0053_u006d_u0061_u0072_u0074_u0041_u0072_u0074_u000d"
    ]
}