{
    "bounding_box": [
        [
            199, 
            46, 
            320, 
            38
        ], 
        [
            110, 
            482, 
            453, 
            32
        ]
    ], 
    "image_height": 540, 
    "image_width": 720, 
    "transcription": [
        "u0020 u0020 u0645_u062b_u0627_u0644 u0020 u0644_u0639_u0644_u0627_u0642_u0627_u062a u0020 u0627_u0641_u062a_u0631_u0627_u0633_u0020", 
        "u0628_u0627_u0632 u0020 u0623_u062d_u0645_u0631 u0020 u0627_u0644_u0630_u064a_u0644 u0020 u064a_u0627_u0641_u0639 u0020 u064a_u0642_u062a_u0627_u062a u0020 u0639_u0644_u0649 u0020 u0641_u0623_u0631 u0020 u0632_u0631_u0639 u0020 u0643_u0627_u0644_u064a_u0641_u0648_u0631_u0646_u064a"
    ]
}