{
    "bounding_box": [
        [
            97, 
            511, 
            539, 
            11
        ], 
        [
            255, 
            525, 
            222, 
            10
        ], 
        [
            457, 
            130, 
            190, 
            25
        ], 
        [
            133, 
            159, 
            514, 
            25
        ], 
        [
            107, 
            215, 
            540, 
            36
        ], 
        [
            115, 
            253, 
            532, 
            36
        ], 
        [
            458, 
            293, 
            189, 
            34
        ], 
        [
            106, 
            332, 
            469, 
            24
        ], 
        [
            101, 
            359, 
            474, 
            36
        ], 
        [
            86, 
            397, 
            489, 
            37
        ], 
        [
            108, 
            442, 
            467, 
            23
        ], 
        [
            391, 
            473, 
            185, 
            19
        ], 
        [
            89, 
            496, 
            486, 
            24
        ], 
        [
            77, 
            521, 
            498, 
            23
        ], 
        [
            107, 
            44, 
            508, 
            38
        ]
    ], 
    "image_height": 540, 
    "image_width": 720, 
    "transcription": [
        "u0627_u0644_u0645_u0635_u062f_u0631_u003a u0020 u0645_u0646_u0638_u0645_u0629 u0020 u0627_u0644_u0635_u062d_u0629 u0020 u0627_u0644_u0639_u0627_u0644_u0645_u064a_u0629 u0020 u0020_u0627_u0644_u0644_u062c_u0646_u0629 u0020 u0627_u0644_u0625_u0642_u0644_u064a_u0645_u064a_u0629 u0020 u0644_u0634_u0631_u0642 u0020 u0627_u0644_u0645_u062a_u0648_u0633_u0637 u0020 u0627_u0644_u062f_u0648_u0631_u0629 u0020 u0035_u0032 u0020 u0020_u0627_u0644_u0628_u0646_u062f u0020 u0038 u0020 u0645_u0646 u0020 u062c_u062f_u0648_u0644 u0020 u0627_u0644_u0623_u0639_u0645_u0627_u0644 u0020 u003a u0020 u0627_u0644_u062f_u0633_u062a_u0648_u0631 u0020 u0627_u0644_u0625_u0633_u0644_u0627_u0645_u064a u0020 u0627_u0644_u0639_u0627_u0644_u0645_u064a u0020 u0020_u0644_u0644_u0623_u062e_u0644_u0627_u0642_u064a_u0627_u062a u0020 u0627_u0644_u0637_u0628_u064a_u0629 u0020 u0648 u0020 u0627_u0644_u0635_u062d_u064a u0020 u002d_u0020", 
        "u0627_u0644_u0645_u0631_u062c_u0639_u003a u0020 u0020 u0020 u0020 u0020 u0020 u0020 u0633_u0628_u062a_u0645_u0628_u0631 u0020 u0032_u0030_u0030_u0035_u0045_u004d_u002f u0020 u0052_u0043_u0035_u0032_u002f_u0037 u0020 u002c u0020 u0634 u0020 u0645 u0020 u0644 u0020 u0625 u0020 u0020_u0035_u0032 u0020 u002f_u0037_u0020", 
        "u0627_u0644_u0645_u0628_u062f_u0623 u0020 u0627_u0644_u0631_u0627_u0628_u0639 u0020 u003a u0020 u0627_u0644_u0625_u062d_u0633_u0627_u0646_u003a_u000d", 
        "u0627_u0644_u0625_u062d_u0633_u0627_u0646 u0020 u0642_u064a_u0645_u0629 u0020 u062c_u0648_u0647_u0631_u064a_u0629 u0020 u0645_u0646 u0020 u0627_u0644_u0642_u064a_u0645 u0020 u0627_u0644_u062a_u064a u0020 u0623_u0645_u0631 u0020 u0627_u0644_u0644_u0647 u0020 u0639_u0632 u0020 u0648_u062c_u0644 u0020 u0628_u0647_u0627 u0020 u0628_u0642_u0648_u0644_u0647 u0020 u003a u0020 u000d", 
        "u0020_u06de u0020 u0625_u0650_u0646_u0651_u064e u0020 u0671_u0644_u0644_u0651_u064e_u0647_u064e u0020 u064a_u064e_u0623_u06e1_u0645_u064f_u0631_u064f u0020 u0628_u0650_u0671_u0644_u06e1_u0639_u064e_u062f_u06e1_u0644_u0650 u0020 u0648_u064e_u0671_u0644_u06e1_u0625_u0650_u062d_u06e1_u0633_u064e_u0640_u0670_u0646_u0650 u0020 u0648_u064e_u0625_u0650_u064a_u062a_u064e_u0627_u0653_u0649_u0655_u0650 u0020 u0630_u0650_u0649 u0020 u0671_u0644_u06e1_u0642_u064f_u0631_u06e1_u0628_u064e_u0649_u0670_u0020", 
        "u0648_u064e_u064a_u064e_u0646_u06e1_u0647_u064e_u0649_u0670 u0020 u0639_u064e_u0646_u0650 u0020 u0671_u0644_u06e1_u0641_u064e_u062d_u06e1_u0634_u064e_u0627_u0653_u0621_u0650 u0020 u0648_u064e_u0671_u0644_u06e1_u0645_u064f_u0646_u06aa_u064e_u0631_u0650 u0020 u0648_u064e_u0671_u0644_u06e1_u0628_u064e_u063a_u06e1_u0649_u0650_u200c_u06da u0020 u064a_u064e_u0639_u0650_u0638_u064f_u0643_u064f_u0645_u06e1 u0020 u0644_u064e_u0639_u064e_u0644_u0651_u064e_u06aa_u064f_u0645_u06e1_u0020", 
        "u062a_u064e_u0630_u064e_u0643_u0651_u064e_u0631_u064f_u0648_u0646_u064e u0020 u0028_u0669_u0660_u0627_u0644_u0646_u062d_u0644_u0029 u0020 u000d", 
        "u0031_u003a u0020 u0627_u0644_u0625_u062d_u0633_u0627_u0646 u0020 u0628_u0645_u0639_u0646_u0649 u0020 u0627_u0644_u062c_u0648_u062f_u0629 u0020 u0020_u007b_u0071_u0075_u0061_u006c_u0069_u0074_u0079_u007d u0020 u0641_u0627_u0644_u062d_u0633_u0646 u0020 u0647_u0648 u0020 u0627_u0644_u062c_u064a_u062f u0020 u003a_u000d", 
        "u0671_u0644_u0651_u064e_u0630_u0650_u064a_u0646_u064e u0020 u064a_u064e_u0633_u06e1_u062a_u064e_u0645_u0650_u0639_u064f_u0648_u0646_u064e u0020 u0671_u0644_u06e1_u0642_u064e_u0648_u06e1_u0644_u064e u0020 u0641_u064e_u064a_u064e_u062a_u0651_u064e_u0628_u0650_u0639_u064f_u0648_u0646_u064e u0020 u0623_u064e_u062d_u06e1_u0633_u064e_u0646_u064e_u0647_u064f u0020 u06e5_u06e4_u200c_u06da u0020 u0623_u064f_u0648_u0652_u0644_u064e_u0640_u0670_u0653_u066e_u0655_u0650_u0643_u064e_u0020", 
        "u0671_u0644_u0651_u064e_u0630_u0650_u064a_u0646_u064e u0020 u0647_u064e_u062f_u064e_u066e_u0670_u0647_u064f_u0645_u064f u0020 u0671_u0644_u0644_u0651_u064e_u0647_u064f_u200c_u06d6 u0020 u0648_u064e_u0623_u064f_u0648_u0652_u0644_u064e_u0640_u0670_u0653_u066e_u0655_u0650_u0643_u064e u0020 u0647_u064f_u0645_u06e1 u0020 u0623_u064f_u0648_u0652_u0644_u064f_u0648_u0627_u0652 u0020 u0671_u0644_u06e1_u0623_u064e_u0644_u06e1_u0628_u064e_u0640_u0670_u0628_u0650 u0020 u0028_u0627_u0644_u0632_u0645_u0631_u0020", 
        "u0661_u0668_ufeff_u0029 u0020 u0642_u0627_u0644 u0020 u0627_u0644_u0646_u0628_u064a u0020 u0020 u0020 u0020_u00ab_u0625_u0646 u0020 u0627_u0644_u0644_u0647 u0020 u0643_u062a_u0628 u0020 u0627_u0644_u0625_u062d_u0633_u0627_u0646 u0020 u0639_u0644_u0649 u0020 u0643_u0644 u0020 u0634_u064a_u0621_u00bb u0020 u0648_u0647_u0646_u0627 u0020 u064a_u0646_u0628_u0639 u0020 u0645_u0641_u0647_u0648_u0645_u0020", 
        "u0627_u0644_u062c_u0648_u062f_u0629 u0020 u0641_u064a u0020 u0627_u0644_u062e_u062f_u0645_u0627_u062a u0020 u0627_u0644_u0635_u062d_u064a_u0629_u002e_u000d", 
        "u0032_u003a u0020 u003a u0020 u0627_u0644_u0625_u062d_u0633_u0627_u0646 u0020 u0628_u0645_u0639_u0646_u0649 u0020 u0627_u0644_u0639_u0637_u0627_u0621 u0020 u0648 u0020 u0627_u0644_u0631_u0641_u0642 u0020 u0020_u0648 u0020 u0643_u0630_u0644_u0643 u0020 u0635_u062d_u0648_u0629 u0020 u0627_u0644_u0636_u0645_u064a_u0631 u0020 u0648_u0020", 
        "u0645_u0631_u0627_u0642_u0628_u0629 u0020 u0627_u0644_u0644_u0647 u0020 u0020_u0639_u0632 u0020 u0648_u062c_u0644 u0020 u0641_u064a u0020 u0643_u0644 u0020 u062a_u0635_u0631_u0641 u0020 u0648 u0020 u0633_u0644_u0648_u0643 u0020 u0020_u064a_u0642_u0648_u0644 u0020 u0627_u0644_u0646_u0628_u064a u0020 u0639_u0644_u064a u0020 u0627_u0644_u0633_u0644_u0627_u0645_u003a u0020 u0627_u0644_u0625_u062d_u0633_u0627_u0646_u0020", 
        "u0627_u0644_u0645_u0628_u0627_u062f_u0626 u0020 u0627_u0644_u0625_u0633_u0644_u0627_u0645_u064a_u0629 u0020 u0641_u064a u0020 u0623_u062e_u0644_u0627_u0642_u064a_u0627_u062a u0020 u0627_u0644_u0645_u0647_u0646 u0020 u0627_u0644_u0637_u0628_u064a_u0629"
    ]
}