{
    "bounding_box": [
        [
            100, 
            7, 
            834, 
            33
        ], 
        [
            85, 
            42, 
            849, 
            32
        ], 
        [
            82, 
            76, 
            851, 
            32
        ], 
        [
            613, 
            110, 
            329, 
            30
        ], 
        [
            155, 
            145, 
            779, 
            33
        ], 
        [
            76, 
            182, 
            857, 
            30
        ], 
        [
            66, 
            216, 
            867, 
            31
        ], 
        [
            747, 
            248, 
            195, 
            30
        ], 
        [
            60, 
            283, 
            873, 
            33
        ], 
        [
            82, 
            319, 
            851, 
            32
        ], 
        [
            309, 
            353, 
            633, 
            32
        ], 
        [
            68, 
            390, 
            866, 
            30
        ], 
        [
            123, 
            424, 
            811, 
            30
        ], 
        [
            81, 
            456, 
            853, 
            33
        ], 
        [
            878, 
            492, 
            55, 
            28
        ]
    ], 
    "image_height": 540, 
    "image_width": 959, 
    "transcription": [
        "u0627_u062d_u0645_u062f u0020 u0628_u0646 u0020 u064a_u0648_u0646_u0633 u0020 u0648 u0020 u0628_u0631_u0627_u062f_u0631_u0634 u0020 u062f_u0631 u0020 u0633_u0627_u0644 u0020 u0033_u0033_u0030 u0020 u0642 u0020 u0648 u0020 u062f_u0631 u0020 u0631_u0648_u0632_u06af_u0627_u0631 u0020 u0641_u0631_u0645_u0627_u0646_u0631_u0648_u0627_u064a_u064a u0020 u0639_u0628_u062f_u0627_u0644_u0631_u062d_u0645_u0646_u0020", 
        "u0627_u0644_u0646_u0627_u0635_u0631 u0020 u0627_u0632 u0020 u0627_u0646_u062f_u0644_u0633 u0020 u0628_u0647 u0020 u0628_u063a_u062f_u0627_u062f u0020 u0622_u0645_u062f_u0646_u062f_u002e u0020 u0622_u0646_u0627_u0646 u0020 u0634_u064a_u0648_u0647 u0020 u0639_u0645_u0644 u0020 u0628_u064a_u0645_u0627_u0631_u064a_u0647_u0627_u064a u0020 u0686_u0634_u0645 u0020 u0631_u0627 u0020 u0646_u0632_u062f u0020 u0627_u0628_u0646 u0020 u0648_u0635_u064a_u0641_u0020", 
        "u0622_u0645_u0648_u062e_u062a_u0646_u062f u0020 u0648 u0020 u0633_u067e_u0633 u0020 u0628_u0647 u0020 u0627_u0646_u062f_u0644_u0633 u0020 u0628_u0627_u0632_u06af_u0634_u062a_u0646_u062f_u002e u0020 u067e_u0633 u0020 u0627_u0632 u0020 u0622_u0646 u0020 u0627_u062d_u0645_u062f u0020 u0628_u0646 u0020 u064a_u0648_u0646_u0633 u0020 u0628_u0647 u0020 u0639_u0646_u0648_u0627_u0646 u0020 u0686_u0634_u0645 u0020 u067e_u0632_u0634_u0643_u0020", 
        "u0648_u064a_u0698_u0647 u0020 u062e_u0644_u064a_u0641_u0647 u0020 u0627_u0644_u0646_u0627_u0635_u0631 u0020 u0628_u0631_u06af_u0632_u064a_u062f_u0647 u0020 u0634_u062f_u002e_u000b", 
        "u0627_u0628_u0648_u0628_u0643_u0631 u0020 u0633_u0644_u064a_u0645_u0627_u0646 u0020 u0628_u0646 u0020 u0628_u0627_u062c u0020 u0028_u062d_u062f_u0648_u062f u0020 u0033_u0033_u0030 u0020 u0642_u0029 u0020 u0627_u0632 u0020 u0686_u0634_u0645 u0020 u067e_u0632_u0634_u0643_u0627_u0646 u0020 u0645_u0639_u0631_u0648_u0641 u0020 u062f_u064a_u06af_u0631 u0020 u0632_u0645_u0627_u0646_u0020", 
        "u0639_u0628_u062f_u0627_u0644_u0631_u062d_u0645_u0646 u0020 u0627_u0644_u0646_u0627_u0635_u0631 u0020 u062f_u0631 u0020 u0627_u0646_u062f_u0644_u0633 u0020 u0627_u0633_u062a_u002e u0020 u0648_u064a u0020 u0628_u0647 u0020 u0639_u0646_u0648_u0627_u0646 u0020 u0686_u0634_u0645 u0020 u067e_u0632_u0634_u0643 u0020 u0648_u064a_u0698_u0647 u0020 u062e_u0644_u064a_u0641_u0647_u060c u0020 u0686_u0634_u0645 u0020 u062f_u0631_u062f_u0020", 
        "u0648_u064a u0020 u0631_u0627 u0020 u0628_u0627 u0020 u064a_u0643 u0020 u0634_u064a_u0627_u0641 u0020 u062f_u0631_u0645_u0627_u0646 u0020 u0643_u0631_u062f_u002e u0020 u0627_u0644_u0646_u0627_u0635_u0631 u0020 u0628_u0647 u0020 u0647_u0645_u064a_u0646 u0020 u0633_u0628_u0628 u0020 u0642_u0636_u0627_u0648_u062a u0020 u0648 u0020 u062f_u0627_u0648_u0631_u064a u0020 u0634_u0647_u0631 u0020 u0634_u0630_u0648_u0646_u0647_u0020", 
        "u0631_u0627 u0020 u0628_u0647 u0020 u0639_u0647_u062f_u0647 u0020 u06af_u0631_u0641_u062a u0020 u000b", 
        "u062f_u0631 u0020 u062f_u0648_u0631_u0647 u0020 u0639_u0636_u062f_u0627_u0644_u062f_u0648_u0644_u0647 u0020 u0028_u0033_u0037_u0033_u002d_u0033_u0033_u0038 u0020 u0642_u0029 u0020 u0646_u064a_u0632 u0020 u0686_u0634_u0645 u0020 u067e_u0632_u0634_u0643_u0627_u0646 u0020 u0645_u0639_u0631_u0648_u0641_u064a u0020 u0632_u0646_u062f_u06af_u064a u0020 u0645_u064a u0020 u0643_u0631_u062f_u0646_u062f_u061b_u0627_u0632_u0020", 
        "u0622_u0646 u0020 u062c_u0645_u0644_u0647 u0020 u062c_u0628_u0631_u0626_u064a_u0644 u0020 u0628_u0646 u0020 u0639_u0628_u062f_u0627_u0644_u0644_u0647 u0020 u0627_u0632 u0020 u062e_u0627_u0646_u062f_u0627_u0646 u0020 u0628_u0632_u0631_u06af u0020 u064a_u062e_u062a_u064a_u0634_u0648_u0639_u061b_u0686_u0634_u0645 u0020 u067e_u0632_u0634_u0643 u0020 u0648_u064a_u0698_u0647 u0020 u0639_u0636_u062f_u0627_u0644_u062f_u0648_u0644_u0647_u0020", 
        "u0628_u0648_u062f_u002e u0020 u0648_u064a u0020 u0643_u062a_u0627_u0628_u064a u0020 u0628_u0627 u0020 u0639_u0646_u0648_u0627_u0646 u0020 u0637_u0628 u0020 u0627_u0644_u0639_u064a_u0646 u0020 u0628_u0647 u0020 u0631_u0634_u062a_u0647 u0020 u062a_u062d_u0631_u064a_u0631 u0020 u062f_u0631 u0020 u0622_u0648_u0631_u062f_u002e_u00a0_u000b", 
        "u0627_u0628_u0648_u0627_u0644_u0642_u0627_u0633_u0645 u0020 u0632_u0647_u0631_u0627_u0648_u064a u0020 u0627_u0646_u062f_u0644_u0633_u064a u0020 u0028_u0034_u0030_u0034 u0020 u0642_u0029 u0020 u0646_u064a_u0632 u0020 u062c_u0631_u0627_u062d u0020 u0628_u0631_u062c_u0633_u062a_u0647 u0020 u0627_u064a u0020 u0628_u0648_u062f_u002e u0020 u0643_u062a_u0627_u0628 u0020 u0627_u0644_u062a_u0635_u0631_u064a_u0641 u0020 u0644_u0645_u0646_u0020", 
        "u0639_u062c_u0632 u0020 u0639_u0646 u0020 u0627_u0644_u062a_u0627_u0644_u064a_u0641 u0020 u0648_u064a u0020 u062f_u0627_u0631_u0627_u064a u0020 u0633_u0647 u0020 u0628_u062e_u0634 u0020 u0628_u0648_u062f_u0647 u0020 u0627_u0633_u062a_u002e u0020 u0637_u0628_u064a_u060c u0020 u0635_u064a_u062f_u0644_u064a u0020 u0028_u0630_u0627_u0631_u0648 u0020 u0634_u0646_u0627_u0633_u064a_u0029_u060c_u0020", 
        "u062c_u0631_u0627_u062d_u064a_u002e u0020 u0632_u0647_u0631_u0627_u0648_u064a u0020 u0020 u0020 u062f_u0631 u0020 u0627_u064a_u0646 u0020 u0643_u062a_u0627_u0628 u0020 u0628_u062d_u062b u0020 u0645_u0641_u0635_u0644_u064a u0020 u062f_u0631_u0628_u0627_u0631_u0647 u0020 u062c_u0631_u0627_u062d_u062a u0020 u0686_u0634_u0645_u060c u0020 u06af_u0648_u0634 u0020 u0648 u0020 u062f_u0646_u062f_u0627_u0646_u0020", 
        "u0622_u0648_u0631_u062f_u0647"
    ]
}