{
    "bounding_box": [
        [
            84, 
            14, 
            615, 
            35
        ], 
        [
            70, 
            112, 
            544, 
            30
        ], 
        [
            128, 
            168, 
            486, 
            32
        ], 
        [
            117, 
            224, 
            465, 
            25
        ], 
        [
            269, 
            274, 
            314, 
            24
        ], 
        [
            202, 
            324, 
            381, 
            23
        ], 
        [
            301, 
            371, 
            282, 
            25
        ], 
        [
            410, 
            422, 
            172, 
            23
        ]
    ], 
    "image_height": 540, 
    "image_width": 720, 
    "transcription": [
        "u0020 u0020 u062a_u062d_u0641_u064a_u0632 u0020 u0635_u0646_u0627_u0639_u0629 u0020 u0627_u0644_u0645_u062d_u062a_u0648_u0649 u0020 u0627_u0644_u0631_u0642_u0645_u064a u0020 u0641_u064a u0020 u0627_u0644_u062d_u0627_u0636_u0646_u0627_u062a u0020 u0627_u0644_u062a_u0643_u0646_u0648_u0644_u0648_u062c_u064a_u0629_u000b", 
        "u0020 u0020 u0625_u0639_u062f_u0627_u062f u0020 u062f_u0631_u0627_u0633_u0627_u062a u0020 u062d_u062f_u064a_u062b_u0629 u0020 u062d_u0648_u0644 u0020 u0635_u0646_u0627_u0639_u0629 u0020 u0627_u0644_u0645_u062d_u062a_u0648_u0649 u0020 u0627_u0644_u0631_u0642_u0645_u064a u0020 u0627_u0644_u0639_u0631_u0628_u064a_u000d", 
        "u0627_u0644_u0634_u0631_u0627_u0643_u0629 u0020 u0645_u0639 u0020 u0639_u062f_u062f u0020 u0645_u0646 u0020 u0627_u0644_u062d_u0627_u0636_u0646_u0627_u062a u0020 u0627_u0644_u062a_u0643_u0646_u0648_u0644_u0648_u062c_u064a_u0629 u0020 u0645_u0646 u0020 u0623_u062c_u0644 u0020 u003a_u000d", 
        "u0020_u062a_u0646_u0638_u064a_u0645 u0020 u062d_u0645_u0644_u0627_u062a u0020 u062a_u0648_u0639_u064a_u0629 u0020 u0644_u0644_u0634_u0628_u0627_u0628 u0020 u062d_u0648_u0644 u0020 u0635_u0646_u0627_u0639_u0629 u0020 u0627_u0644_u0645_u062d_u062a_u0648_u0649 u0020 u0627_u0644_u0631_u0642_u0645_u064a u0020 u000d", 
        "u0625_u0637_u0644_u0627_u0642 u0020 u0645_u0633_u0627_u0628_u0642_u0627_u062a u0020 u0644_u0644_u0645_u062d_u062a_u0648_u0649 u0020 u0627_u0644_u0631_u0642_u0645_u064a u0020 u0627_u0644_u0639_u0631_u0628_u064a_u000d", 
        "u0020 u0020 u0627_u062d_u062a_u0636_u0627_u0646 u0020 u0627_u0644_u0645_u0634_u0627_u0631_u064a_u0639 u0020 u0627_u0644_u0641_u0627_u0626_u0632_u0629 u0020 u0628_u0627_u0644_u0645_u0633_u0627_u0628_u0642_u0627_u062a u0020 u0648_u0645_u062a_u0627_u0628_u0639_u062a_u0647_u0627_u000d", 
        "u0020 u0020 u062a_u0633_u0648_u064a_u0642 u0020 u0646_u062a_u0627_u0626_u062c u0020 u0627_u0644_u0645_u0634_u0627_u0631_u064a_u0639 u0020 u0627_u0644_u0645_u062d_u062a_u0636_u0646_u0629 u0020 u000d", 
        "u0020 u0020 u0020_u0646_u0634_u0631 u0020 u0646_u062a_u0627_u0626_u062c u0020 u0627_u0644_u0645_u0634_u0631_u0648_u0639"
    ]
}