{
    "bounding_box": [
        [
            327, 
            513, 
            64, 
            6
        ], 
        [
            43, 
            511, 
            19, 
            9
        ], 
        [
            232, 
            55, 
            256, 
            34
        ], 
        [
            251, 
            210, 
            224, 
            24
        ], 
        [
            244, 
            141, 
            237, 
            23
        ], 
        [
            181, 
            271, 
            368, 
            29
        ], 
        [
            329, 
            307, 
            80, 
            24
        ], 
        [
            258, 
            361, 
            220, 
            29
        ], 
        [
            228, 
            428, 
            287, 
            29
        ]
    ], 
    "image_height": 540, 
    "image_width": 720, 
    "transcription": [
        "u0041_u006c_u0069_u006f_u0062_u0065_u0069_u0064_u002e_u0063_u006f_u006d", 
        "u0031_u0036_u0035", 
        "u0648_u0638_u0627_u0626_u0641 u0020 u0627_u0644_u0639_u0642_u0644 u0020 u0627_u0644_u0628_u0627_u0637_u0646", 
        "u0645_u0639_u0642_u0644 u0020 u0627_u0644_u0639_u0648_u0627_u0637_u0641 u0020 u0648_u0627_u0644_u0645_u0634_u0627_u0639_u0631", 
        "u062e_u0632_u0646 u0020 u0627_u0644_u0645_u0639_u0644_u0648_u0645_u0627_u062a u0020 u0648_u0627_u0644_u0630_u0643_u0631_u064a_u0627_u062a", 
        "u0645_u062e_u0632_u0646 u0020 u0627_u0644_u0639_u0627_u062f_u0627_u062a u0020 u0028_u0633_u064a_u0626_u0629 u0020 u0648_u062d_u0633_u0646_u0629_u0029 u0020 u0648_u0645_u0633_u062a_u0648_u062f_u0639_u000d", 
        "u0644_u0644_u0645_u0647_u0627_u0631_u0627_u062a", 
        "u064a_u0646_u0638_u0645 u0020 u0627_u0644_u0646_u0634_u0627_u0637_u0627_u062a u0020 u0627_u0644_u0644_u0627_u0625_u0631_u0627_u062f_u064a_u0629", 
        "u064a_u062a_u062d_u0643_u0645 u0020 u0628_u0627_u0644_u0637_u0627_u0642_u0629 u0020 u0627_u0644_u062c_u0633_u062f_u064a_u0629 u0020 u0648_u0627_u0644_u0646_u0641_u0633_u064a_u0629"
    ]
}