{
    "bounding_box": [
        [
            214, 
            29, 
            260, 
            42
        ], 
        [
            412, 
            104, 
            267, 
            20
        ], 
        [
            412, 
            128, 
            286, 
            21
        ], 
        [
            412, 
            152, 
            286, 
            23
        ], 
        [
            549, 
            178, 
            149, 
            20
        ], 
        [
            412, 
            214, 
            267, 
            23
        ], 
        [
            412, 
            239, 
            286, 
            23
        ], 
        [
            432, 
            266, 
            266, 
            20
        ], 
        [
            412, 
            308, 
            267, 
            20
        ], 
        [
            604, 
            337, 
            94, 
            17
        ], 
        [
            412, 
            373, 
            267, 
            21
        ], 
        [
            412, 
            397, 
            286, 
            22
        ], 
        [
            412, 
            422, 
            286, 
            23
        ], 
        [
            570, 
            448, 
            128, 
            22
        ], 
        [
            571, 
            15, 
            127, 
            24
        ]
    ], 
    "image_height": 540, 
    "image_width": 720, 
    "transcription": [
        "u0641_u0646_u062f_u0642 u0020 u0627_u0644_u0633_u0631_u0627_u064a_u0627 u0020 u0627_u0644_u0635_u0641_u0631_u0627_u0621", 
        "u064a_u0642_u0639 u0020 u0627_u0644_u0645_u0634_u0631_u0648_u0639 u0020 u062c_u0646_u0648_u0628 u0020 u0634_u0627_u0631_u0639 u0020 u0627_u0644_u0646_u064a_u0644_u0020", 
        "u0648_u0634_u0631_u0642 u0020 u0643_u0628_u0631_u064a u0020 u0627_u0644_u0642_u0648_u0627_u062a u0020 u0627_u0644_u0645_u0633_u0644_u062d_u0629 u0020 u0648_u064a_u0633_u062a_u062e_u062f_u0645_u0020", 
        "u062d_u0627_u0644_u064a_u0627 u0020 u0643_u0633_u0643_u0646 u0020 u0644_u0644_u0623_u0633_u0627_u062a_u0630_u0629 u0020 u0641_u064a u0020 u0645_u0633_u0627_u062d_u0647 u0020 u062a_u0642_u062f_u0631_u0020", 
        "u0628_u0646_u062d_u0648 u0020 u0031_u0036 u0020 u0623_u0644_u0641 u0020 u0645_u062a_u0631_u00b2_u002e_u000d", 
        "u064a_u0642_u062a_u0631_u062d u0020 u0627_u0633_u062a_u062e_u062f_u0627_u0645_u0647 u0020 u0643_u0641_u0646_u062f_u0642 u0020 u0034 u0020 u0646_u062c_u0648_u0645 u0020 u0623_u0648_u0020", 
        "u0623_u0628_u0631_u0627_u062c u0020 u0633_u0643_u0646_u064a_u0629 u0020 u0648_u062a_u0648_u062c_u062f u0020 u0644_u0647 u0020 u062a_u0635_u0645_u064a_u0645_u0627_u062a u0020 u0647_u0646_u062f_u0633_u064a_u0629_u0020", 
        "u0648_u062f_u0631_u0627_u0633_u0629 u0020 u062c_u062f_u0648_u0649 u0020 u0641_u0646_u064a_u0629 u0020 u0648_u0627_u0642_u062a_u0635_u0627_u062f_u064a_u0629 u0020 u0645_u0628_u062f_u0626_u064a_u0629_u002e_u000d", 
        "u062a_u0642_u062f_u0631 u0020 u0627_u0644_u062a_u0643_u0644_u0641_u0629 u0020 u0627_u0644_u0643_u0644_u064a_u0629 u0020 u0644_u0644_u0627_u0633_u062a_u062b_u0645_u0627_u0631 u0020 u0033_u0036_u002e_u0035_u0020", 
        "u0645_u0644_u064a_u0648_u0646 u0020 u062f_u0648_u0644_u0627_u0631_u002e_u000d", 
        "u064a_u0645_u0643_u0646 u0020 u062a_u0646_u0641_u064a_u0630 u0020 u0627_u0644_u0645_u0634_u0631_u0648_u0639 u0020 u0639_u0644_u064a u0020 u0645_u0631_u0627_u062d_u0644_u0020", 
        "u0628_u0627_u0644_u062a_u0645_u0648_u064a_u0644 u0020 u0627_u0644_u0645_u0628_u0627_u0634_u0631 u0020 u0623_u0648 u0020 u0639_u0644_u064a u0020 u0646_u0638_u0627_u0645 u0020 u0627_u0644_u0628_u0648_u062a u0020 u0623_u0648_u0020", 
        "u0627_u0644_u0634_u0631_u0627_u0643_u0629 u0020 u0623_u0648 u0020 u0623_u064a u0020 u0635_u064a_u063a_u0629 u0020 u062a_u0645_u0648_u064a_u0644_u064a_u0629 u0020 u0623_u062e_u0631_u064a u0020 u064a_u062a_u0641_u0642_u0020", 
        "u0639_u0644_u064a_u0647_u0627 u0020 u0645_u0639 u0020 u0627_u0644_u062c_u0627_u0645_u0639_u0629_u002e_u0020", 
        "u0645_u0634_u0631_u0648_u0639 u0020 u0631_u0642_u0645 u0020 u0028_u0033_u0029"
    ]
}