{
    "bounding_box": [
        [
            373, 
            40, 
            313, 
            38
        ], 
        [
            56, 
            89, 
            631, 
            42
        ], 
        [
            40, 
            136, 
            647, 
            43
        ], 
        [
            56, 
            185, 
            630, 
            42
        ], 
        [
            84, 
            232, 
            602, 
            43
        ], 
        [
            60, 
            280, 
            626, 
            39
        ], 
        [
            75, 
            328, 
            611, 
            40
        ]
    ], 
    "image_height": 540, 
    "image_width": 720, 
    "transcription": [
        "u002d u0020 u062a_u0637_u0648_u0631 u0020 u0635_u0646_u0627_u0639_u0629 u0020 u0627_u0644_u0633_u0641_u0646 u0020 u003a_u000d", 
        "u0625_u0630 u0020 u0628_u0627_u062a u0020 u0645_u0646 u0020 u0627_u0644_u0645_u064a_u0633_u0648_u0631 u0020 u0628_u0646_u0627_u0621 u0020 u0633_u0641_u0646 u0020 u0623_u0643_u0628_u0631 u0020 u0648_u0623_u0633_u0631_u0639 u0020 u0648_u0623_u0643_u062b_u0631_u0020", 
        "u0642_u062f_u0631_u0629 u0020 u0639_u0644_u0649 u0020 u0645_u0648_u0627_u062c_u0647_u0629 u0020 u0627_u0644_u0623_u0646_u0648_u0627_u0621 u0020 u0648_u0627_u0644_u0639_u0648_u0627_u0635_u0641 u0020 u0648_u0639_u0644_u0649 u0020 u062a_u062d_u0645_u0644_u0020", 
        "u0627_u0644_u0633_u0641_u0631 u0020 u0627_u0644_u0637_u0648_u064a_u0644 u0020 u002e u0020 u0645_u0645_u0627 u0020 u0641_u062a_u062d u0020 u0623_u0645_u0627_u0645 u0020 u0627_u0644_u0639_u0627_u0645_u0644_u064a_u0646 u0020 u0641_u0649 u0020 u0635_u0646_u0627_u0639_u0629_u0020", 
        "u0627_u0644_u0646_u0642_u0644 u0020 u0623_u0641_u0627_u0642_u0627 u0020 u0020_u062c_u062f_u064a_u062f_u0629 u0020 u0648_u0633_u0645_u062d u0020 u0644_u0647_u0645 u0020 u0628_u0627_u0644_u062a_u0648_u063a_u0644 u0020 u0643_u062b_u064a_u0631_u0627 u0020 u0641_u0649_u0020", 
        "u0627_u0644_u0628_u062d_u0627_u0631 u0020 u0648_u0627_u0644_u0627_u0628_u062a_u0639_u0627_u062f u0020 u0648_u0644_u0645_u062f_u062f u0020 u0637_u0648_u064a_u0644_u0629 u0020 u0648_u0644_u0645_u0633_u0627_u0641_u0627_u062a u0020 u0627_u0643_u0628_u0631 u0020 u0639_u0646_u0020", 
        "u0627_u0644_u0634_u0648_u0627_u0637_u0626 u0020 u0648_u0639_u0646 u0020 u0627_u0644_u0645_u0646_u0627_u0637_u0642 u0020 u0627_u0644_u0645_u0633_u0643_u0648_u0646_u0629 u0020 u0648_u0627_u0644_u0645_u0639_u0631_u0648_u0641_u0629 u0020 u002e u0020 u000d"
    ]
}