{
    "bounding_box": [
        [
            69, 
            142, 
            607, 
            29
        ], 
        [
            103, 
            220, 
            527, 
            26
        ], 
        [
            55, 
            253, 
            574, 
            27
        ], 
        [
            101, 
            285, 
            529, 
            30
        ], 
        [
            423, 
            323, 
            206, 
            24
        ], 
        [
            106, 
            22, 
            523, 
            50
        ], 
        [
            247, 
            76, 
            225, 
            39
        ]
    ], 
    "image_height": 540, 
    "image_width": 720, 
    "transcription": [
        "u0627_u0644_u062f_u0639_u0627_u0645_u0629 u0020 u0020_u0627_u0644_u0639_u0627_u0634_u0631_u0629 u0020 u003a u0020 u0020_u0627_u0633_u062a_u0639_u0645_u0627_u0644 u0020 u0627_u0644_u062a_u0643_u0646_u0648_u0644_u0648_u062c_u064a_u0627 u0020 u0627_u0644_u062c_u062f_u064a_u062f_u0629 u0020 u0644_u0644_u0625_u0639_u0644_u0627_u0645 u0020 u0648_u0627_u0644_u062a_u0648_u0627_u0635_u0644_u000d", 
        "u0020_u002d_u0031_u0032_u0030_u062a_u0639_u0645_u0644 u0020 u0643_u0644 u0020 u0645_u0624_u0633_u0633_u0629 u0020 u0644_u0644_u062a_u0631_u0628_u064a_u0629 u0020 u0648_u0627_u0644_u062a_u0643_u0648_u064a_u0646 u0020 u0639_u0644_u0649 u0020 u062a_u064a_u0633_u064a_u0631 u0020 u0627_u0642_u062a_u0646_u0627_u0621_u0020", 
        "u0627_u0644_u0623_u062c_u0647_u0632_u0629 u0020 u0627_u0644_u0645_u0639_u0644_u0648_u0645_u0627_u062a_u064a_u0629 u0020 u0648_u0645_u062e_u062a_u0644_u0641 u0020 u0627_u0644_u0645_u0639_u062f_u0627_u062a u0020 u0648_u0627_u0644_u0623_u062f_u0648_u0627_u062a u0020 u0627_u0644_u062a_u0631_u0628_u0648_u064a_u0629 u0020 u0648_u0627_u0644_u0639_u0644_u0645_u064a_u0629_u0020", 
        "u0639_u0646 u0020 u0637_u0631_u064a_u0642 u0020 u0627_u0644_u0627_u0642_u062a_u0646_u0627_u0621 u0020 u0627_u0644_u062c_u0645_u0627_u0639_u064a u0020 u0628_u0634_u0631_u0648_u0637 u0020 u0627_u0645_u062a_u064a_u0627_u0632_u064a_u0629_u002c u0020 u0644_u0641_u0627_u0626_u062f_u0629 u0020 u0627_u0644_u0623_u0633_u0627_u062a_u0630_u0629_u0020", 
        "u0648_u0627_u0644_u0645_u062a_u0639_u0644_u0645_u064a_u0646 u0020 u0648_u0627_u0644_u0625_u062f_u0627_u0631_u064a_u064a_u0646_u002e_u000d", 
        "u0627_u0644_u0645_u064a_u062b_u0627_u0642 u0020 u0627_u0644_u0648_u0637_u0646_u064a u0020 u0644_u0644_u062a_u0631_u0628_u064a_u0629 u0020 u0648_u0627_u0644_u062a_u0643_u0648_u064a_u0646 u0020 u000b", 
        "u0028_u0627_u0644_u062f_u0639_u0627_u0645_u0629 u0020 u0020_u0627_u0644_u0639_u0627_u0634_u0631_u0629_u0029"
    ]
}