{
    "bounding_box": [
        [
            93, 
            79, 
            554, 
            23
        ], 
        [
            49, 
            106, 
            598, 
            24
        ], 
        [
            531, 
            138, 
            116, 
            21
        ], 
        [
            119, 
            169, 
            528, 
            24
        ], 
        [
            57, 
            203, 
            590, 
            23
        ], 
        [
            424, 
            231, 
            223, 
            23
        ], 
        [
            138, 
            263, 
            530, 
            23
        ], 
        [
            302, 
            296, 
            370, 
            23
        ], 
        [
            292, 
            328, 
            380, 
            25
        ], 
        [
            224, 
            364, 
            448, 
            20
        ], 
        [
            59, 
            395, 
            586, 
            23
        ], 
        [
            553, 
            425, 
            92, 
            19
        ], 
        [
            120, 
            33, 
            556, 
            37
        ]
    ], 
    "image_height": 540, 
    "image_width": 720, 
    "transcription": [
        "u062e_u0637 u0020 u0645_u0634_u06cc u0020 u0639_u0645_u0648_u0645_u06cc u0020 u062a_u0648_u0633_u0637 u0020 u0646_u0647_u0627_u062f_u0647_u0627_u06cc u0020 u062f_u0648_u0644_u062a_u06cc u0020 u0645_u062b_u0644 u0020 u0645_u062c_u0644_u0633_u060c u0020 u0631_u06cc_u0627_u0633_u062a u0020 u062c_u0645_u0647_u0648_u0631_u06cc_u060c_u0020", 
        "u062f_u0627_u062f_u06af_u0627_u0647_u0647_u0627_u060c u0020 u0628_u0648_u0631_u0648_u06a9_u0631_u0627_u0633_u06cc u0020 u0647_u0627_u060c u0020 u0627_u0633_u062a_u0627_u0646_u062f_u0627_u0631_u06cc u0020 u0647_u0627_u060c u0020 u0634_u0647_u0631_u062f_u0627_u0631_u06cc u0020 u0647_u0627 u0020 u062a_u0639_u06cc_u06cc_u0646_u060c_u0627_u062c_u0631_u0627 u0020 u0648 u0020 u0628_u0647 u0020 u067e_u06cc_u0634_u0020", 
        "u0628_u0631_u062f_u0647 u0020 u0645_u06cc u0020 u0634_u0648_u062f_u002e_u000d", 
        "u0631_u0627_u0628_u0637_u0647 u0020 u0628_u06cc_u0646 u0020 u0020_u062e_u0637 u0020 u0645_u0634_u06cc u0020 u0639_u0645_u0648_u0645_u06cc u0020 u0648 u0020 u0646_u0647_u0627_u062f_u0647_u0627_u06cc u0020 u062f_u0648_u0644_u062a_u06cc u0020 u0628_u0633_u06cc_u0627_u0631 u0020 u0646_u0632_u062f_u06cc_u06a9 u0020 u0627_u0633_u062a_u002e_u000d", 
        "u062e_u0637 u0020 u0645_u0634_u06cc u0020 u062a_u0627 u0020 u062a_u0648_u0633_u0637 u0020 u0628_u0639_u0636_u06cc u0020 u0646_u0647_u0627_u062f_u0647_u0627_u06cc u0020 u062f_u0648_u0644_u062a_u06cc u0020 u0627_u062a_u062e_u0627_u0630_u060c u0020 u0627_u062c_u0631_u0627 u0020 u0648 u0020 u0628_u0647 u0020 u067e_u06cc_u0634 u0020 u0628_u0631_u062f_u0647 u0020 u0646_u0634_u0648_u062f_u060c_u0020", 
        "u062e_u0637 u0020 u0645_u0634_u06cc u0020 u0639_u0645_u0648_u0645_u06cc u0020 u0646_u0645_u06cc u0020 u0634_u0648_u062f_u002e_u000d", 
        "u0646_u0647_u0627_u062f_u0647_u0627_u06cc u0020 u062f_u0648_u0644_u062a_u06cc u0020 u0628_u0647 u0020 u062e_u0637 u0020 u0645_u0634_u06cc u0020 u0639_u0645_u0648_u0645_u06cc u0020 u0633_u0647 u0020 u0645_u0634_u062e_u0635_u0647 u0020 u0645_u062a_u0641_u0627_u0648_u062a u0020 u0645_u06cc u0020 u062f_u0647_u0646_u062f_u003a_u000d", 
        "u0031_u002d u0020 u062f_u0648_u0644_u062a u0020 u0628_u0647 u0020 u062e_u0637 u0020 u0645_u0634_u06cc u0020 u0647_u0627 u0020 u0645_u0634_u0631_u0648_u0639_u06cc_u062a u0020 u0645_u06cc u0020 u0628_u062e_u0634_u062f_u002e_u000d", 
        "u0032_u002d u0020 u062e_u0637 u0020 u0645_u0634_u06cc u0020 u0647_u0627_u06cc u0020 u062f_u0648_u0644_u062a u0020 u060c_u06a9_u0644_u06cc_u062a u0020 u062f_u0627_u0631_u0646_u062f u0020 u0648 u0020 u0641_u0631_u0627_u06af_u06cc_u0631_u0646_u062f_u002e_u000d", 
        "u0033_u002d u0020 u062f_u0648_u0644_u062a u0020 u0627_u0639_u0645_u0627_u0644 u0020 u0627_u062c_u0628_u0627_u0631 u0020 u062f_u0631 u0020 u062c_u0627_u0645_u0639_u0647 u0020 u0631_u0627 u0020 u062f_u0631 u0020 u0627_u0646_u062d_u0635_u0627_u0631 u0020 u062e_u0648_u062f u0020 u062f_u0627_u0631_u062f_u002e_u000d", 
        "u0633_u0627_u062e_u062a_u0627_u0631 u0020 u0646_u0647_u0627_u062f_u0647_u0627_u06cc u0020 u062f_u0648_u0644_u062a_u06cc u0020 u0645_u06cc u0020 u062a_u0648_u0627_u0646_u0646_u062f u0020 u067e_u06cc_u0627_u0645_u062f_u0647_u0627_u06cc u0020 u0645_u0647_u0645 u0020 u062e_u0637 u0020 u0645_u0634_u06cc u0020 u0639_u0645_u0648_u0645_u06cc u0020 u0631_u0627 u0020 u062f_u0631 u0020 u0628_u0631_u0020", 
        "u062f_u0627_u0634_u062a_u0647 u0020 u0628_u0627_u0634_u062f_u002e", 
        "u0645_u062f_u0644 u0020 u0646_u0647_u0627_u062f_u06af_u0631_u0627_u06cc_u06cc_u003a u0020 u062e_u0637 u0020 u0645_u0634_u06cc u0020 u0628_u0647 u0020 u0639_u0646_u0648_u0627_u0646 u0020 u067e_u06cc_u0627_u0645_u062f u0020 u0646_u0647_u0627_u062f_u06cc"
    ]
}