{
    "bounding_box": [
        [
            200, 
            48, 
            300, 
            61
        ], 
        [
            31, 
            154, 
            603, 
            41
        ], 
        [
            47, 
            211, 
            586, 
            41
        ], 
        [
            78, 
            269, 
            556, 
            46
        ], 
        [
            324, 
            326, 
            309, 
            45
        ]
    ], 
    "image_height": 540, 
    "image_width": 720, 
    "transcription": [
        "u0647_u064a_u0627_u0643_u0644 u0020 u0645 u0020 u062a u0020 u0641_u0020", 
        "u062a_u062a_u0643_u0648_u0646 u0020 u0647_u064a_u0627_u0643_u0644 u0020 u0645_u0646_u0638_u0645_u0629 u0020 u0627_u0644_u062a_u062d_u0631_u064a_u0631 u0020 u0627_u0644_u0641_u0644_u0633_u0637_u064a_u0646_u064a_u0629_u0020", 
        "u0645_u0646 u0020 u0627_u0644_u0645_u0624_u0633_u0633_u0627_u062a u0020 u0627_u0644_u0631_u0626_u064a_u0633_u0629 u0020 u0627_u0644_u062a_u0627_u0644_u064a_u0629_u003a u0020 u0627_u0644_u0645_u062c_u0644_u0633_u0020", 
        "u0627_u0644_u0648_u0637_u0646_u064a u0020 u0627_u0644_u0641_u0644_u0633_u0637_u064a_u0646_u064a_u002c u0020 u0648_u0627_u0644_u0644_u062c_u0646_u0629 u0020 u0627_u0644_u062a_u0646_u0641_u064a_u0630_u064a_u0629_u002c_u0020", 
        "u0648_u0627_u0644_u0645_u062c_u0644_u0633 u0020 u0627_u0644_u0645_u0631_u0643_u0632_u064a_u002e_u000d"
    ]
}