{
    "bounding_box": [
        [
            301, 
            115, 
            397, 
            21
        ], 
        [
            14, 
            140, 
            662, 
            23
        ], 
        [
            343, 
            165, 
            333, 
            21
        ], 
        [
            501, 
            188, 
            197, 
            25
        ], 
        [
            86, 
            218, 
            590, 
            23
        ], 
        [
            160, 
            245, 
            516, 
            21
        ], 
        [
            182, 
            274, 
            494, 
            21
        ], 
        [
            185, 
            302, 
            491, 
            22
        ], 
        [
            208, 
            328, 
            468, 
            23
        ], 
        [
            14, 
            355, 
            662, 
            24
        ], 
        [
            553, 
            381, 
            123, 
            18
        ], 
        [
            310, 
            404, 
            366, 
            24
        ], 
        [
            222, 
            434, 
            454, 
            21
        ], 
        [
            140, 
            462, 
            536, 
            22
        ], 
        [
            213, 
            486, 
            463, 
            25
        ], 
        [
            279, 
            507, 
            151, 
            15
        ]
    ], 
    "image_height": 540, 
    "image_width": 720, 
    "transcription": [
        "u0627_u0644_u062d_u0636_u0648_u0631 u0020 u0648_u0627_u0644_u0645_u0634_u0627_u0631_u0643_u0629 u0020 u0641_u064a u0020 u0627_u0644_u0645_u0624_u062a_u0645_u0631_u0627_u062a u0020 u0648_u0627_u0644_u0645_u0644_u062a_u0642_u064a_u0627_u062a u0020 u0627_u0644_u0639_u0644_u0645_u064a_u0629_u000d", 
        "u0642_u0645_u062a u0020 u0628_u062d_u0636_u0648_u0631 u0020 u0639_u062f_u062f u0020 u0036 u0020 u0645_u0624_u062a_u0645_u0631_u0627_u062a u0020 u0648_u0645_u0644_u062a_u0642_u064a_u0627_u062a u0020 u0639_u0644_u0645_u064a_u0629_u060c u0020 u0648_u0634_u0627_u0631_u0643_u062a u0020 u0641_u064a u0020 u0627_u0644_u0645_u0624_u062a_u0645_u0631 u0020 u0627_u0644_u062f_u0648_u0644_u064a u0020 u0627_u0644_u0631_u0627_u0628_u0639 u0020 u0644_u0644_u062a_u0639_u0644_u0645_u0020", 
        "u0627_u0644_u0625_u0644_u0643_u062a_u0631_u0648_u0646_u064a u0020 u0648_u0627_u0644_u062a_u0639_u0644_u064a_u0645 u0020 u0639_u0646 u0020 u0628_u0639_u062f u0020 u0628_u0645_u0644_u0635_u0642_u064a_u0646 u0020 u0639_u0644_u0645_u064a_u064a_u0646_u002e_u000d", 
        "u0627_u0644_u062f_u0648_u0631_u0627_u062a u0020 u0627_u0644_u062a_u062f_u0631_u064a_u0628_u064a_u0629 u0020 u0643_u0645_u062f_u0631_u0628 u0020 u000d", 
        "u062a_u0635_u0645_u064a_u0645 u0020 u0648_u0625_u0646_u062a_u0627_u062c u0020 u0627_u0644_u0645_u0642_u0631_u0631_u0627_u062a u0020 u0627_u0644_u0625_u0644_u0643_u062a_u0631_u0648_u0646_u064a_u0629 u0020 u0028_u0635_u0641_u0631_u060c u0020 u0631_u0628_u064a_u0639 u0020 u0627_u0644_u0623_u0648_u0644 u0020 u0031_u0034_u0033_u0036_u0647_u0640_u0029_u060c u0020 u062c_u0627_u0645_u0639_u0629 u0020 u0637_u064a_u0628_u0629_u002e_u000d", 
        "u0646_u0638_u0627_u0645 u0020 u0625_u062f_u0627_u0631_u0629 u0020 u0627_u0644_u062a_u0639_u0644_u0645 u0020 u0627_u0644_u0625_u0644_u0643_u062a_u0631_u0648_u0646_u064a u0020 u0042_u006c_u0061_u0063_u006b_u0062_u006f_u0061_u0072_u0064 u0020 u0028_u0630_u0648 u0020 u0627_u0644_u0642_u0639_u062f_u0629_u0029_u060c u0020 u062c_u0627_u0645_u0639_u0629 u0020 u0637_u064a_u0628_u0629_u002e_u000d", 
        "u0627_u0644_u0633_u0628_u0648_u0631_u0629 u0020 u0627_u0644_u062a_u0641_u0627_u0639_u0644_u064a_u0629 u0020 u0050_u0072_u006f_u006d_u0065_u0074_u0068_u0065_u0061_u006e u0020 u0028_u0631_u062c_u0628 u0020 u0031_u0034_u0033_u0035_u0647_u0640_u0029_u060c u0020 u062c_u0627_u0645_u0639_u0629 u0020 u0637_u064a_u0628_u0629_u002e_u000d", 
        "u062a_u0635_u0645_u064a_u0645 u0020 u0627_u0644_u0645_u0642_u0631_u0631_u0627_u062a u0020 u0627_u0644_u0625_u0644_u0643_u062a_u0631_u0648_u0646_u064a_u0629 u0020 u0028_u062c_u0645_u0627_u062f u0020 u0627_u0644_u062b_u0627_u0646_u064a u0020 u0031_u0034_u0033_u0035_u0647_u0640_u0029_u060c u0020 u062c_u0627_u0645_u0639_u0629 u0020 u0637_u064a_u0628_u0629_u002e_u000d", 
        "u0646_u0638_u0627_u0645 u0020 u0625_u062f_u0627_u0631_u0629 u0020 u0627_u0644_u062a_u0639_u0644_u0645 u0020 u0022_u062c_u0633_u0648_u0631_u0022 u0020 u0028_u0631_u0628_u064a_u0639 u0020 u0627_u0644_u062b_u0627_u0646_u064a u0020 u0031_u0034_u0033_u0035_u0647_u0640_u0029_u060c u0020 u062c_u0627_u0645_u0639_u0629 u0020 u0637_u064a_u0628_u0629_u002e_u000d", 
        "u0627_u0644_u062a_u0639_u0644_u0645 u0020 u0627_u0644_u0625_u0644_u0643_u062a_u0631_u0648_u0646_u064a u0020 u0648_u0623_u0645_u0646 u0020 u0627_u0644_u0645_u0639_u0644_u0648_u0645_u0627_u062a u0020 u0028_u0631_u0628_u064a_u0639 u0020 u0627_u0644_u0623_u0648_u0644 u0020 u0031_u0034_u0033_u0035_u0647_u0640_u0029_u060c u0020 u0628_u0627_u0644_u0625_u062f_u0627_u0631_u0629 u0020 u0627_u0644_u0639_u0627_u0645_u0629 u0020 u0644_u0644_u062a_u0631_u0628_u064a_u0629 u0020 u0648_u0627_u0644_u062a_u0639_u0644_u064a_u0645_u0020", 
        "u0628_u0627_u0644_u0645_u062f_u064a_u0646_u0629 u0020 u0627_u0644_u0645_u0646_u0648_u0631_u0629_u002e_u000d", 
        "u0641_u0646 u0020 u0627_u0644_u0627_u062a_u0635_u0627_u0644 u0020 u0028_u0631_u0628_u064a_u0639 u0020 u0627_u0644_u0623_u0648_u0644 u0020 u0031_u0034_u0033_u0035_u0647_u0640_u0029_u060c u0020 u062c_u0627_u0645_u0639_u0629 u0020 u0637_u064a_u0628_u0629_u002e_u000d", 
        "u0645_u0647_u0627_u0631_u0627_u062a u0020 u0627_u0644_u0628_u062d_u062b u0020 u0627_u0644_u0639_u0644_u0645_u064a u0020 u0028_u0635_u0641_u0631 u0020 u0031_u0034_u0033_u0035_u0647_u0640_u0029_u060c u0020 u0645_u062f_u0627_u0631_u0633 u0020 u0627_u0644_u062a_u0639_u0644_u064a_u0645 u0020 u0627_u0644_u0639_u0627_u0645_u002e_u000d", 
        "u0627_u0644_u0645_u0624_u062a_u0645_u0631 u0020 u0627_u0644_u0639_u0644_u0645_u064a u0020 u0627_u0644_u062e_u0627_u0645_u0633 u0020 u0028_u0645_u062d_u0631_u0645 u0020 u0031_u0034_u0033_u0035_u0647_u0640_u0029_u060c u0020 u0627_u0644_u062c_u0627_u0645_u0639_u0629 u0020 u0627_u0644_u0633_u0639_u0648_u062f_u064a_u0629 u0020 u0627_u0644_u0625_u0644_u0643_u062a_u0631_u0648_u0646_u064a_u0629_u002e_u000d", 
        "u0643_u064a_u0641 u0020 u062a_u062a_u0623_u0642_u0644_u0645_u064a u0020 u0645_u0639 u0020 u0627_u0644_u062d_u064a_u0627_u0629 u0020 u0627_u0644_u062c_u0627_u0645_u0639_u064a_u0629 u0020 u0028_u0634_u0648_u0627_u0644 u0020 u0031_u0034_u0033_u0034_u0647_u0640_u0029_u060c u0020 u062c_u0627_u0645_u0639_u0629 u0020 u0637_u064a_u0628_u0629_u002e", 
        "u062f_u002e u0020 u062a_u063a_u0631_u064a_u062f u0020 u0639_u0628_u062f u0020 u0627_u0644_u0641_u062a_u0627_u062d u0020 u0627_u0644_u0631_u062d_u064a_u0644_u064a"
    ]
}