{
    "bounding_box": [
        [
            100, 
            90, 
            516, 
            25
        ], 
        [
            212, 
            30, 
            267, 
            29
        ], 
        [
            395, 
            149, 
            216, 
            19
        ], 
        [
            195, 
            197, 
            305, 
            25
        ], 
        [
            124, 
            257, 
            443, 
            22
        ], 
        [
            29, 
            304, 
            588, 
            24
        ], 
        [
            68, 
            349, 
            537, 
            24
        ]
    ], 
    "image_height": 540, 
    "image_width": 720, 
    "transcription": [
        "u0623_u0648_u0644_u0627_u064b u0020 u003a u0020 u0627_u0644_u0645_u0646_u0627_u062f_u0649 u0020 u0627_u0644_u0645_u0639_u0631_u0628 u0020 u003a u0020 u0020_u062d_u0643_u0645_u0647 u0020 u003a u0020 u0028 u0020 u0627_u0644_u0646_u0635_u0628 u0020 u0029 u0020 u0648_u064a_u0634_u0645_u0644 u0020 u0643_u0644_u0627_u064b u0020 u0645_u0646 u0020 u0627_u0644_u0622_u062a_u064a u0020 u003a", 
        "u0623_u0646_u0648_u0627_u0639 u0020 u0627_u0644_u0645_u0646_u0627_u062f_u0649 u0020 u0648_u062d_u0643_u0645 u0020 u0643_u0644 u0020 u0646_u0648_u0639 u0020 u003a", 
        "u002d_u0623 u0020 u0020_u0627_u0644_u0645_u0646_u0627_u062f_u0649 u0020 u0627_u0644_u0645_u0636_u0627_u0641 u0020 u003a u0020 u0645_u062b_u0644 u0020 u003a", 
        "ufd3f u0020 u064a_u0627 u0020 u0623_u0647_u0644 u0020 u0627_u0644_u0643_u062a_u0627_u0628_u0650 u0020 u0644_u0645 u0020 u062a_u062d_u0627_u062c_u0648_u0646 u0020 u0641_u0650_u064a u0020 u0625_u0628_u0631_u0627_u0647_u064a_u0645 u0020 ufd3e", 
        "u0020_u064a_u0627 u0020 u003a u0020 u062d_u0631_u0641 u0020 u0646_u062f_u0627_u0621 u0020 u0645_u0628_u0646_u064a u0020 u0639_u0644_u0649 u0020 u0627_u0644_u0633_u0643_u0648_u0646 u0020 u0644_u0627 u0020 u0645_u062d_u0644 u0020 u0644_u0647 u0020 u0645_u0646 u0020 u0627_u0644_u0625_u0639_u0631_u0627_u0628", 
        "u0623_u0647_u0644 u0020 u003a u0020 u0645_u0646_u0627_u062f_u0649 u0020 u0645_u0646_u0635_u0648_u0628 u0020 u0648_u0639_u0644_u0627_u0645_u0629 u0020 u0646_u0635_u0628_u0647 u0020 u0627_u0644_u0641_u062a_u062d_u0629 u0020 u0627_u0644_u0638_u0627_u0647_u0631_u0629 u0020 u0639_u0644_u0649 u0020 u0622_u062e_u0631_u0647 u0020 u0648_u0647_u0648 u0020 u0645_u0636_u0627_u0641 u0020 u002e", 
        "u0627_u0644_u0643_u062a_u0627_u0628 u0020 u003a u0020 u0645_u0636_u0627_u0641 u0020 u0625_u0644_u064a_u0647 u0020 u0645_u062c_u0631_u0648_u0631 u0020 u0648_u0639_u0644_u0627_u0645_u0629 u0020 u062c_u0631_u0647 u0020 u0627_u0644_u0643_u0633_u0631_u0629 u0020 u0627_u0644_u0638_u0627_u0647_u0631_u0629 u0020 u0639_u0644_u0649 u0020 u0622_u062e_u0631_u0647 u0020 u002e"
    ]
}