{
    "bounding_box": [
        [
            36, 
            109, 
            141, 
            31
        ], 
        [
            50, 
            159, 
            625, 
            26
        ], 
        [
            61, 
            193, 
            593, 
            23
        ], 
        [
            41, 
            222, 
            613, 
            27
        ], 
        [
            119, 
            255, 
            536, 
            25
        ]
    ], 
    "image_height": 540, 
    "image_width": 720, 
    "transcription": [
        "u0645_u0631_u0633_u064a_u062f_u0633", 
        "u0647_u0630_u0627 u0020 u0627_u0644_u0637_u0631_u0627_u0632 u0020 u0645_u0646 u0020 u0627_u0644_u0633_u0627_u064a_u0627_u0631_u062a u0020 u0647_u0648 u0020 u0623_u0639_u0644_u0649 u0020 u0637_u0631_u0627_u0632_u0627_u062a u0020 u0645_u0631_u0633_u064a_u062f_u0633 u0020 u0641_u062e_u0627_u0645_u0629_u060c u0020 u062d_u064a_u062b u0020 u064a_u062a_u0648_u0641_u0631 u0020 u0644_u0647_u0020", 
        "u0645_u062d_u0631_u0643 u0020 u0628_u0633_u0639_u0629 u0020 u062a_u0635_u0644 u0020 u0625_u0644_u0649_u00a0_u0035_u0964_u0038_u00a0_u0644_u064a_u062a_u0631 u0020 u0648_u064a_u0648_u0644_u062f u0020 u0647_u0630_u0627 u0020 u0627_u0644_u0645_u062d_u0631_u0643 u0020 u0642_u0648_u0629 u0020 u0643_u0628_u064a_u0631_u0629 u0020 u062a_u0635_u0644 u0020 u0625_u0644_u0649_u0020", 
        "u062d_u0648_u0627_u0644_u064a u0020 u0033_u0036_u0037 u0020 u062d_u0635_u0627_u0646_u0627 u0020 u0647_u0646_u0627_u0643 u0020 u0645_u064a_u0632_u0629 u0020 u0627_u0644_u0639_u0645_u0644 u0020 u0628_u0646_u0635_u0641 u0020 u0627_u0644_u0623_u0633_u0637_u0648_u0627_u0646_u0627_u062a u0020 u0623_u062b_u0646_u0627_u0621 u0020 u0627_u0644_u0633_u064a_u0631 u0020 u0639_u0644_u0649_u0020", 
        "u0627_u0644_u062e_u0637_u0648_u0637 u0020 u0627_u0644_u0633_u0631_u064a_u0639_u0629 u0020 u0648_u0647_u0648_u0645_u0627 u0020 u064a_u0633_u0627_u0639_u062f u0020 u0639_u0644_u0649 u0020 u0627_u0644_u0625_u0642_u062a_u0635_u0627_u062f u0020 u0641_u064a u0020 u0627_u0633_u062a_u0647_u0644_u0627_u0643 u0020 u0627_u0644_u0648_u0642_u0648_u062f_u002e"
    ]
}