{
    "bounding_box": [
        [
            52, 
            24, 
            604, 
            41
        ], 
        [
            240, 
            72, 
            229, 
            36
        ], 
        [
            89, 
            135, 
            560, 
            27
        ], 
        [
            76, 
            167, 
            573, 
            29
        ], 
        [
            118, 
            200, 
            531, 
            29
        ], 
        [
            45, 
            233, 
            603, 
            30
        ], 
        [
            266, 
            268, 
            383, 
            28
        ], 
        [
            52, 
            347, 
            597, 
            29
        ], 
        [
            206, 
            382, 
            443, 
            27
        ]
    ], 
    "image_height": 540, 
    "image_width": 720, 
    "transcription": [
        "u062a_u0627_u0628_u0639 u0020 u062a_u0635_u0646_u06cc_u0641 u0020 u0645_u062c_u0627_u0644 u0020 u0627_u0644_u062a_u062c_u0627_u0631_u0629 u0020 u0627_u0644_u0627_u0644_u0643_u062a_u0631_u0648_u0646_u06cc_u0629 u0020 u0645_u0646 u0020 u062e_u0644_u0627_u0644_u0020", 
        "u0637_u0628_u06cc_u0639_u0629 u0020 u0627_u0644_u0645_u0639_u0627_u0645_u0644_u0627_u062a_u003a_u0020", 
        "u0020_u0627_u0644_u0645_u0633_u062a_u0647_u0644_u0643 u0020 u0644_u0644_u0645_u0633_u062a_u0647_u0644_u0643 u0020 u003a u0020 u0043_u006f_u006e_u0073_u0075_u006d_u0065_u0072_u002d_u0074_u006f_u002d_u0043_u006f_u006e_u0073_u0075_u006d_u0065_u0072 u0020 u0641_u064a u0020 u0647_u0630_u0627_u0020", 
        "u0627_u0644_u062e_u0627_u0646_u0629_u002c u0020 u0641_u0625_u0646 u0020 u0627_u0644_u0645_u0633_u062a_u0647_u0644_u0643 u0020 u064a_u0628_u064a_u0639 u0020 u0644_u0645_u0633_u062a_u06be_u0644_u0643 u0020 u0622_u062e_u0631 u0020 u0628_u0635_u0648_u0631_u0629 u0020 u0645_u0628_u0627_u0634_u0631_u0629_u002e u0020 u0648_u0627_u0644_u0623_u0645_u062b_u0644_u0629_u0020", 
        "u062a_u0634_u0645_u0644 u0020 u0639_u0646_u062f_u0645_u0627 u0020 u064a_u0642_u0648_u0645 u0020 u0645_u0633_u062a_u06be_u0644_u0643 u0020 u0645_u0627 u0020 u0628_u0648_u0636_u0639 u0020 u0627_u0639_u0644_u0627_u0646_u0627_u062a u0020 u0641_u064a u0020 u0645_u0648_u0642_u0639_u0647 u0020 u0639_u0644_u0649_u0020", 
        "u0627_u0644_u0627_u0646_u062a_u0631_u0646_u062a u0020 u0645_u0646 u0020 u0623_u062c_u0644 u0020 u0628_u06cc_u0639 u0020 u0627_u0644_u0623_u063a_u0631_u0627_u0636 u0020 u0627_u0644_u0634_u062e_u0635_u06cc_u0629 u0020 u0623_u0648 u0020 u0627_u0644_u062e_u0628_u0631_u0627_u062a_u002e u0020 u0648_u0623_u064a_u0636_u0627 u0020 u06be_u0646_u0627_u0643_u0020", 
        "u0645_u062c_u0627_u0644 u0020 u0627_u0644_u0645_u0632_u0627_u062f_u0627_u062a u0020 u0639_u0644_u0649 u0020 u0627_u0644_u0625_u0646_u062a_u0631_u0646_u062a u0020 u0645_u062b_u0644 u0020 u003a u0020 u0045_u0062_u0061_u0079_u000d", 
        "u0020_u0627_u0644_u0645_u0633_u062a_u0647_u0644_u0643 u0020 u0644_u0644_u0634_u0631_u0643_u0629 u0020 u003a u0020 u0043_u006f_u006e_u0073_u0075_u006d_u0065_u0072_u002d_u0074_u006f_u002d_u0042_u0075_u0073_u0069_u006e_u0065_u0073_u0073 u0020 u0647_u0630_u0647 u0020 u0627_u0644_u062e_u0627_u0646_u0629 u0020 u062a_u0636_u0645_u0020", 
        "u0627_u0644_u0623_u0641_u0631_u0627_u062f u0020 u0627_u0644_u0630_u064a_u0646 u0020 u064a_u0628_u064a_u0639_u0648_u0646 u0020 u0645_u0646_u062a_u062c_u0627_u062a u0020 u0623_u0648 u0020 u062e_u062f_u0645_u0627_u062a u0020 u0644_u0644_u0634_u0631_u0643_u0627_u062a_u002e_u000d"
    ]
}