{
    "bounding_box": [
        [
            393, 
            46, 
            302, 
            42
        ], 
        [
            128, 
            121, 
            538, 
            34
        ], 
        [
            479, 
            163, 
            187, 
            31
        ], 
        [
            116, 
            205, 
            551, 
            33
        ], 
        [
            316, 
            245, 
            350, 
            31
        ]
    ], 
    "image_height": 540, 
    "image_width": 720, 
    "transcription": [
        "u0633_u0627_u062f_u0633_u0627_u002f u0020 u062f_u0631_u062c_u0629 u0020 u0627_u0644_u0627_u0647_u062a_u0645_u0627_u0645", 
        "u064a_u062a_u0623_u062b_u0631 u0020 u0627_u0644_u0641_u0647_u0645 u0020 u0628_u062f_u0631_u062c_u0629 u0020 u0627_u0644_u0627_u0647_u062a_u0645_u0627_u0645 u0020 u0628_u0627_u0644_u0645_u0648_u0636_u0648_u0639 u0020 u0648_u0628_u0645_u062f_u064a u0020 u0627_u0633_u062a_u0639_u062f_u0627_u062f_u0020", 
        "u0627_u0644_u0645_u062a_u0644_u0642_u064a u0020 u0644_u0627_u0633_u062a_u0639_u0645_u0627_u0644_u0647_u002e_u000d", 
        "u064a_u0639_u062a_u0628_u0631 u0020 u0627_u0644_u062d_u0648_u0627_u0631 u0020 u0648_u0627_u0644_u0646_u0642_u0627_u0634 u0020 u0645_u0646 u0020 u0623_u0641_u0636_u0644 u0020 u0627_u0644_u0633_u0628_u0644 u0020 u0641_u064a u0020 u0627_u062b_u0627_u0631_u0629 u0020 u0627_u0647_u062a_u0645_u0627_u0645_u0020", 
        "u0627_u0644_u0645_u062a_u0644_u0642_u064a u0020 u0648_u0643_u0634_u0641 u0020 u062d_u0627_u0644_u0627_u062a u0020 u0646_u0642_u0635 u0020 u0627_u0644_u0641_u0647_u0645_u002e_u000d"
    ]
}