{
    "bounding_box": [
        [
            545, 
            44, 
            113, 
            28
        ], 
        [
            73, 
            96, 
            589, 
            29
        ], 
        [
            106, 
            130, 
            556, 
            26
        ]
    ], 
    "image_height": 540, 
    "image_width": 720, 
    "transcription": [
        "u0641_u0647_u0645 u0020 u0627_u0644_u0645_u0643_u062a_u0628_u0627_u062a", 
        "u062a_u0639_u062a_u0628_u0631 u0020 u0627_u0644_u0645_u0643_u062a_u0628_u0627_u062a u0020 u0639_u0646_u0635_u0631_u0627_u064b u0020 u062a_u0646_u0638_u064a_u0645_u064a_u0627 u0020 u062c_u062f_u064a_u062f_u0627 u0020 u0641_u064a u0020 u0648_u064a_u0646_u062f_u0648_u0632 u0020 u0037_u002e u0020 u0648_u062a_u062a_u0623_u0644_u0641 u0020 u0645_u0646 u0020 u0627_u0631_u0628_u0639_u0020", 
        "u0645_u0643_u062a_u0628_u0627_u062a u0020 u0627_u0641_u062a_u0631_u0627_u0636_u064a_u0629 u0020 u064a_u0645_u0643_u0646 u0020 u0639_u0631_u0636_u0647_u0627 u0020 u0645_u0646 u0020 u062e_u0644_u0627_u0644 u0020 u0641_u062a_u062d u0020 u0645_u0633_u062a_u0643_u0634_u0641 u0020 u0648_u064a_u0646_u062f_u0648_u0632_u002e_u0020"
    ]
}