{
    "bounding_box": [
        [
            41, 
            30, 
            333, 
            48
        ], 
        [
            40, 
            100, 
            621, 
            30
        ], 
        [
            441, 
            137, 
            220, 
            25
        ], 
        [
            34, 
            171, 
            626, 
            28
        ], 
        [
            27, 
            202, 
            634, 
            29
        ], 
        [
            362, 
            239, 
            299, 
            22
        ], 
        [
            544, 
            298, 
            152, 
            29
        ], 
        [
            248, 
            342, 
            413, 
            26
        ], 
        [
            475, 
            377, 
            185, 
            26
        ], 
        [
            387, 
            411, 
            273, 
            28
        ]
    ], 
    "image_height": 540, 
    "image_width": 720, 
    "transcription": [
        "u0627_u0644_u0639_u0644_u0627_u0642_u0629 u0020 u0628_u064a_u0646 u0020 u0627_u0644_u0633_u0644_u0637_u0627_u062a", 
        "u0643_u0645_u0627 u0020 u0630_u0643_u0631_u0646_u0627 u0020 u0633_u0627_u0628_u0642_u0627_u064b_u060c u0020 u0641_u0642_u062f u0020 u0639_u0627_u0644_u062c u0020 u0645_u0648_u0646_u062a_u064a_u0633_u0643_u064a_u0648 u0020 u0645_u0628_u062f_u0623 u0020 u0641_u0635_u0644 u0020 u0627_u0644_u0633_u0644_u0637_u0627_u062a u0020 u0648_u0631_u0623_u0649 u0020 u0623_u0646 u0020 u062a_u0633_u062a_u0646_u062f_u0020", 
        "u0643_u0644 u0020 u0645_u0646_u0647_u0627 u0020 u0625_u0644_u0649 u0020 u0647_u064a_u0626_u0629 u0020 u0645_u0633_u062a_u0642_u0644_u0629_u002e_u000d", 
        "u0644_u0627 u0020 u064a_u0639_u0646_u064a u0020 u0630_u0644_u0643 u0020 u0623_u0646 u0020 u062a_u0643_u0648_u0646 u0020 u0643_u0644 u0020 u0648_u0627_u062d_u062f_u0629 u0020 u0645_u0646_u0647_u0627 u0020 u0641_u064a u0020 u0639_u0632_u0644_u0629 u0020 u062a_u0627_u0645_u0629 u0020 u0639_u0646 u0020 u0628_u0642_u064a_u0629 u0020 u0627_u0644_u0633_u0644_u0637_u0627_u062a_u002e u0020 u0628_u0644_u0020", 
        "u0647_u0646_u0627_u0643 u0020 u0646_u0648_u0639 u0020 u0645_u0646 u0020 u0627_u0644_u0631_u0642_u0627_u0628_u0629 u0020 u0627_u0644_u0645_u062a_u0628_u0627_u062f_u0644_u0629_u060c u0020 u0648_u0630_u0644_u0643 u0020 u0628_u0647_u062f_u0641 u0020 u0645_u0646_u0639 u0020 u0627_u0633_u062a_u0628_u062f_u0627_u062f u0020 u0623_u062d_u062f_u0627_u0647_u0627 u0020 u0639_u0644_u0649 u0020 u0627_u0644_u0628_u0642_u064a_u0629_u060c_u0020", 
        "u0648_u062d_u0645_u0627_u064a_u0629 u0020 u062d_u0631_u064a_u0627_u062a u0020 u0648_u062d_u0642_u0648_u0642 u0020 u0627_u0644_u0645_u0648_u0627_u0637_u0646_u064a_u0646_u002e_u000d", 
        "u0020_u0645_u0632_u0627_u064a_u0627 u0020 u0627_u0644_u0641_u0635_u0644_u000d", 
        "u0645_u0646_u0639 u0020 u0627_u0644_u0627_u0633_u062a_u0628_u062f_u0627_u062f u0020 u0648_u062d_u0645_u0627_u064a_u0629 u0020 u0627_u0644_u062d_u0631_u064a_u0627_u062a u0020 u0648_u0627_u0644_u062d_u0642_u0648_u0642 u0020 u0627_u0644_u0641_u0631_u062f_u064a_u0629_u002e_u000d", 
        "u0636_u0645_u0627_u0646 u0020 u0645_u0628_u062f_u0623 u0020 u0627_u0644_u0634_u0631_u0639_u064a_u0629_u002e_u000d", 
        "u062a_u062d_u0642_u064a_u0642 u0020 u0645_u0628_u062f_u0623 u0020 u0627_u0644_u062a_u062e_u0635_u0635 u0020 u0641_u064a u0020 u0627_u0644_u0639_u0645_u0644_u002e"
    ]
}