{
    "bounding_box": [
        [
            149, 
            44, 
            420, 
            29
        ], 
        [
            92, 
            125, 
            572, 
            30
        ], 
        [
            60, 
            169, 
            603, 
            25
        ], 
        [
            163, 
            198, 
            501, 
            25
        ], 
        [
            66, 
            232, 
            598, 
            25
        ], 
        [
            241, 
            262, 
            423, 
            22
        ], 
        [
            27, 
            296, 
            637, 
            25
        ], 
        [
            66, 
            324, 
            597, 
            25
        ], 
        [
            52, 
            359, 
            612, 
            23
        ], 
        [
            57, 
            389, 
            606, 
            24
        ]
    ], 
    "image_height": 540, 
    "image_width": 720, 
    "transcription": [
        "u062a_u0627_u0628_u0639 u0020 u003a_u0627_u0644_u0645_u0628_u062d_u062b u0020 u0627_u0644_u062b_u0627_u0646_u064a u0020 u003a_u0627_u0644_u062d_u0631_u064a_u0629 u0020 u0627_u0644_u0627_u0642_u062a_u0635_u0627_u062f_u064a_u0629 u0020 u0627_u0644_u0645_u0642_u064a_u062f_u0629", 
        "u0623_u0645_u062b_u0644_u0629 u0020 u0644_u0644_u0648_u0638_u0627_u0626_u0641 u0020 u0627_u0644_u0627_u0642_u062a_u0635_u0627_u062f_u064a_u0629 u0020 u0644_u0644_u062f_u0648_u0644_u0629 u0020 u0627_u0644_u0645_u0628_u0646_u064a_u0629 u0020 u0639_u0644_u0649 u0020 u0627_u0644_u0633_u064a_u0627_u0633_u0629 u0020 u0627_u0644_u0634_u0631_u0639_u064a_u0629 u0020 u003a_u002d_u000d", 
        "u0031_u002d u0020 u0625_u062f_u0627_u0631_u0629 u0020 u0627_u0644_u0645_u0648_u0627_u0631_u062f u0020 u0627_u0644_u0637_u0628_u064a_u0639_u064a_u0629 u0020 u0645_u062b_u0644 u0020 u0627_u062a_u062e_u0627_u0630 u0020 u0627_u0644_u0625_u062c_u0631_u0627_u0621_u0627_u062a u0020 u0627_u0644_u062a_u064a u0020 u062a_u0624_u062f_u064a u0020 u0625_u0644_u0649 u0020 u0627_u0644_u0627_u0646_u062a_u0641_u0627_u0639 u0020 u0628_u0627_u0644_u0645_u0648_u0627_u0631_u062f_u0020", 
        "u0627_u0644_u0637_u0628_u064a_u0639_u064a_u0629 u0020 u0627_u0644_u0645_u062a_u0648_u0641_u0631_u0629 u0020 u0643_u0627_u0644_u0623_u0631_u0627_u0636_u064a u0020 u0627_u0644_u0632_u0631_u0627_u0639_u064a_u0629 u0020 u060c u0020 u0020_u0648_u0627_u0644_u0645_u0639_u0627_u062f_u0646 u0020 u060c u0020 u0648_u0645_u064a_u0627_u0647 u0020 u0627_u0644_u0623_u0646_u0647_u0627_u0631_u002e_u000d", 
        "u0625_u062f_u0627_u0631_u0629 u0020 u0645_u064a_u0632_u0627_u0646_u064a_u0629 u0020 u0627_u0644_u062f_u0648_u0644_u0629_u003a u0020 u062a_u0639_u0631_u0641 u0020 u0645_u064a_u0632_u0627_u0646_u064a_u0629 u0020 u0627_u0644_u062f_u0648_u0644_u0629 u0020 u0628_u0623_u0646_u0647_u0627 u0020 u0028_u062a_u0642_u062f_u064a_u0631 u0020 u0020_u0645_u0641_u0635_u0644 u0020 u060c u0020 u0648_u0645_u0639_u062a_u0645_u062f u0020 u0644_u0646_u0641_u0642_u0627_u062a_u0020", 
        "u0627_u0644_u062f_u0648_u0644_u0629_u060c u0020 u0648_u0625_u064a_u0631_u0627_u062f_u0627_u062a_u0647_u0627 u0020 u0644_u0641_u062a_u0631_u0629 u0020 u0632_u0645_u0646_u064a_u0629 u0020 u0645_u0642_u0628_u0644_u0629 u0020 u060c u0020 u0639_u0627_u062f_u0629 u0020 u0645_u0627 u0020 u062a_u0643_u0648_u0646 u0020 u0633_u0646_u0629_u002e_u000d", 
        "u0033_u002d u0020 u062a_u0646_u0638_u064a_u0645 u0020 u0627_u0644_u0646_u0634_u0627_u0637 u0020 u0627_u0644_u0627_u0642_u062a_u0635_u0627_u062f_u064a_u003a_u0648_u0645_u0646 u0020 u0623_u0645_u062b_u0644_u0629 u0020 u0647_u0630_u0627 u0020 u0627_u0644_u062a_u0646_u0638_u064a_u0645_u003a_u0627_u0644_u0623_u0646_u0638_u0645_u0629 u0020 u0627_u0644_u0645_u062a_u0639_u0644_u0642_u0629 u0020 u0628_u0625_u0646_u0634_u0627_u0621 u0020 u0627_u0644_u0645_u0635_u0627_u0631_u0641_u0020", 
        "u060c_u0648_u0627_u0644_u0623_u0646_u0638_u0645_u0629 u0020 u0627_u0644_u0645_u062a_u0639_u0644_u0642_u0629 u0020 u0628_u0625_u0646_u0634_u0627_u0621 u0020 u0627_u0644_u0634_u0631_u0643_u0627_u062a_u060c_u0648_u0627_u0644_u0645_u0635_u0627_u0646_u0639_u060c_u0648_u0623_u0646_u0638_u0645_u0629 u0020 u0645_u0624_u0633_u0633_u0627_u062a u0020 u0627_u0644_u062a_u0639_u0644_u064a_u0645 u0020 u0627_u0644_u062e_u0627_u0635_u002e_u000d", 
        "u0034_u002d u0020 u0627_u0644_u062a_u062f_u062e_u0644 u0020 u0644_u0645_u0639_u0627_u0644_u062c_u0629 u0020 u0628_u0639_u0636 u0020 u0627_u0644_u0638_u0648_u0627_u0647_u0631 u0020 u0627_u0644_u0627_u0642_u062a_u0635_u0627_u062f_u064a_u0629 u0020 u0645_u062b_u0644 u0020 u0627_u0644_u0628_u0637_u0627_u0644_u0629 u0020 u060c u0020 u0623_u0648 u0020 u0627_u0644_u0627_u0646_u0643_u0645_u0627_u0634 u0020 u0623_u0648 u0020 u0647_u062c_u0631_u0629_u0020", 
        "u0627_u0644_u0623_u0645_u0648_u0627_u0644 u0020 u0625_u0644_u0649 u0020 u0627_u0644_u062e_u0627_u0631_u062c u0020 u060c u0020 u0623_u0648 u0020 u0627_u0644_u0641_u0642_u0631 u0020 u060c u0020 u0623_u0648 u0020 u0633_u0648_u0621 u0020 u062a_u0648_u0632_u064a_u0639 u0020 u0627_u0644_u062f_u062e_u0644 u0020 u060c u0020 u0648_u0627_u0644_u062b_u0631_u0648_u0629 u0020 u062f_u0627_u062e_u0644 u0020 u0627_u0644_u0645_u062c_u062a_u0645_u0639_u002e u0020 u0020 u0020 u0020"
    ]
}