{
    "bounding_box": [
        [
            341, 
            85, 
            214, 
            41
        ], 
        [
            387, 
            219, 
            434, 
            40
        ], 
        [
            282, 
            309, 
            539, 
            28
        ], 
        [
            114, 
            387, 
            707, 
            27
        ]
    ], 
    "image_height": 540, 
    "image_width": 960, 
    "transcription": [
        "u0645_u0633_u062a_u0648_u064a_u0627_u062a u0020 u0627_u0644_u062a_u0641_u0627_u0648_u0636_u0020", 
        "u0627_u0644_u0645_u0633_u062a_u0648_u0649 u0020 u0627_u0644_u0623_u0648_u0644_u002d_u0627_u0644_u0645_u0628_u062f_u0626_u0649 u0020 u0644_u0644_u062a_u0641_u0627_u0648_u0636 u0020 u0628_u064a_u0646 u0020 u0627_u0644_u0623_u0634_u062e_u0627_u0635_u000d", 
        "u0627_u0644_u0645_u0633_u062a_u0648_u0649 u0020 u0627_u0644_u062b_u0627_u0646_u0649_u002d_u0627_u0644_u0645_u062a_u0648_u0633_u0637_u002d u0020 u0627_u0644_u062a_u0641_u0627_u0648_u0636 u0020 u0627_u0644_u0631_u0633_u0645_u0649 u0020 u0628_u064a_u0646 u0020 u0627_u0644_u0645_u0646_u0638_u0645_u0627_u062a u0020 u000d", 
        "u0020_u0627_u0644_u0645_u0633_u062a_u0648_u0649 u0020 u0627_u0644_u062b_u0627_u0644_u062b_u002d u0020 u0627_u0644_u0645_u062a_u0642_u062f_u0645_u002d u0020 u0627_u0644_u062a_u0641_u0627_u0648_u0636 u0020 u0627_u0644_u0631_u0633_u0645_u0649 u0020 u0628_u064a_u0646 u0020 u0627_u0644_u062d_u0643_u0648_u0645_u0627_u062a_u060c u0020 u0627_u0644_u062a_u0641_u0627_u0648_u0636 u0020 u0627_u0644_u0633_u064a_u0627_u0633_u0649"
    ]
}