{
    "bounding_box": [
        [
            34, 
            95, 
            615, 
            35
        ], 
        [
            34, 
            136, 
            615, 
            31
        ], 
        [
            34, 
            171, 
            615, 
            34
        ], 
        [
            34, 
            210, 
            615, 
            35
        ], 
        [
            34, 
            253, 
            615, 
            30
        ], 
        [
            34, 
            287, 
            615, 
            35
        ], 
        [
            34, 
            325, 
            615, 
            35
        ], 
        [
            106, 
            362, 
            542, 
            36
        ], 
        [
            664, 
            518, 
            12, 
            1
        ]
    ], 
    "image_height": 540, 
    "image_width": 720, 
    "transcription": [
        "u0627_u0644_u0632_u0648_u0627_u062c u0020 u0647_u0648 u0020 u062f_u0639_u0648_u0629 u0020 u0645_u0642_u062f_u064e_u0651_u0633_u0629 u0020 u0628_u0647_u0627 u0020 u064a_u062a_u0642_u062f_u0651_u0633 u0020 u0627_u0644_u0632_u0648_u062c_u0627_u0646 u0020 u0648_u064a_u062d_u0642_u0642_u0627_u0646 u0020 u0643_u0645_u0627_u0644_u0020", 
        "u062f_u0639_u0648_u062a_u0647_u0645_u0627 u0020 u0627_u0644_u0625_u0646_u0633_u0627_u0646_u064a_u0651_u0629 u0020 u0641_u064a u0020 u0627_u0644_u062d_u0628 u0020 u0648_u0627_u0644_u0639_u0637_u0627_u0621_u002e u0020 u0648_u064a_u0624_u0643_u0651_u062f u0020 u0627_u0644_u0642_u062f_u064a_u0633 u0020 u0628_u0648_u0644_u0633_u0020", 
        "u0641_u064a u0020 u0631_u0633_u0627_u0644_u062a_u0647 u0020 u0625_u0644_u0649 u0020 u0623_u0647_u0644 u0020 u0623_u0641_u0633_u0633 u0020 u0639_u0644_u0649 u0020 u0643_u0631_u0627_u0645_u0629 u0020 u0647_u0630_u0647 u0020 u0627_u0644_u062f_u0639_u0648_u0629 u0020 u0627_u0644_u0628_u0634_u0631_u064a_u0651_u0629_u0020", 
        "u0648_u0642_u062f_u0633_u064a_u0651_u062a_u0647_u0627 u0020 u0628_u062a_u0634_u0628_u064a_u0647_u0647 u0020 u0639_u0644_u0627_u0642_u0629 u0020 u0627_u0644_u0631_u062c_u0644 u0020 u0648_u0627_u0644_u0645_u0631_u0623_u0629 u0020 u0628_u0627_u0644_u0639_u0644_u0627_u0642_u0629 u0020 u0627_u0644_u062a_u064a u0020 u062a_u062c_u0645_u0639_u0020", 
        "u0627_u0644_u0645_u0633_u064a_u062d u0020 u0648_u0627_u0644_u0643_u0646_u064a_u0633_u0629_u002e u0020 u0641_u0627_u0644_u0643_u0646_u064a_u0633_u0629 u0020 u0647_u064a u0020 u062c_u0633_u062f u0020 u0627_u0644_u0645_u0633_u064a_u062d u0020 u0627_u0644_u0633_u0631_u0651_u064a u0020 u0628_u0645_u0627 u0020 u064a_u0639_u0646_u064a_u0020", 
        "u0630_u0644_u0643 u0020 u0645_u0646 u0020 u0625_u062a_u062d_u0627_u062f u0020 u0648_u0648_u062d_u062f_u0629 u0020 u0628_u064a_u0646_u0647_u0645_u0627_u060c u0020 u0643_u0645_u0627 u0020 u064a_u0635_u0628_u062d u0020 u0627_u0644_u0631_u062c_u0644 u0020 u0648_u0627_u0644_u0645_u0631_u0623_u0629_u0020", 
        "u0628_u0627_u0644_u0632_u0648_u0627_u062c u0020 u062c_u0633_u062f_u0627_u064b u0020 u0648_u0627_u062d_u062f_u0627_u064b_u002e u0020 u0648_u0647_u0630_u0647 u0020 u0627_u0644_u0639_u0644_u0627_u0642_u0629 u0020 u062a_u062a_u0645_u064a_u0651_u0632 u0020 u0628_u0627_u0644_u0625_u062d_u062a_u0631_u0627_u0645 u0020 u0648_u0627_u0644_u062d_u0631_u064a_u0629_u0020", 
        "u0648_u0627_u0644_u062a_u0636_u062d_u064a_u0629 u0020 u0648_u0627_u0644_u062d_u0628 u0020 u0648_u0627_u0644_u0642_u062f_u0627_u0633_u0629 u0020 u0028_u0631_u0627_u062c_u0639 u0020 u0623_u0641_u0633_u0633 u0020 u0035_u002f u0020 u0032_u0035_u002d_u0033_u0032_u0029", 
        "u0031_u0031"
    ]
}