{
    "bounding_box": [
        [
            161, 
            99, 
            417, 
            48
        ], 
        [
            261, 
            211, 
            217, 
            38
        ], 
        [
            59, 
            313, 
            600, 
            31
        ], 
        [
            32, 
            353, 
            653, 
            33
        ], 
        [
            82, 
            389, 
            571, 
            32
        ]
    ], 
    "image_height": 540, 
    "image_width": 720, 
    "transcription": [
        "u0645_u0647_u0627_u0631_u0629 u0020 u0637_u0631_u062d u0020 u0627_u0644_u0623_u0633_u0626_u0644_u0629 u0020 u0627_u0644_u0634_u0641_u0647_u064a_u0629_u000b", 
        "u062a_u0639_u0631_u064a_u0641 u0020 u0627_u0644_u0633_u0624_u0627_u0644_u000b", 
        "u0627_u0644_u0633_u0624_u0627_u0644 u0020 u0647_u0648 u0020 u062c_u0645_u0644_u0629 u0020 u0627_u0633_u062a_u0641_u0647_u0627_u0645_u064a_u0629 u0020 u0623_u0648 u0020 u0637_u0644_u0628_u064a_u0629 u0020 u062a_u0648_u062c_u0647 u0020 u0625_u0644_u0649 u0020 u0634_u062e_u0635 u0020 u0645_u0639_u064a_u0646_u0020", 
        "u0028_u0637_u0627_u0644_u0628_u0029 u0020 u0623_u0648 u0020 u0639_u062f_u0629 u0020 u0623_u0634_u062e_u0627_u0635 u0020 u0028 u0020 u0637_u0644_u0627_u0628 u0020 u0029 u0020 u0628_u063a_u0631_u0636 u0020 u0627_u0633_u062a_u062c_u0644_u0627_u0621 u0020 u0625_u062c_u0627_u0628_u0629 u0020 u0644_u0641_u0638_u064a_u0629_u0020", 
        "u0645_u0646_u0647 u0020 u0623_u0648 u0020 u062d_u062b_u0647 u0020 u0639_u0644_u0649 u0020 u062a_u0648_u0644_u064a_u062f u0020 u0627_u0644_u0623_u0633_u0626_u0644_u0629 u0020 u0623_u0648 u0020 u0644_u0641_u062a u0020 u0627_u0646_u062a_u0628_u0627_u0647_u0647 u0020 u0644_u0623_u0645_u0631 u0020 u0645_u0639_u064a_u0646_u002e_u000b"
    ]
}