{
    "bounding_box": [
        [
            75, 
            88, 
            603, 
            33
        ], 
        [
            61, 
            127, 
            617, 
            33
        ], 
        [
            603, 
            169, 
            75, 
            24
        ], 
        [
            72, 
            242, 
            606, 
            33
        ], 
        [
            32, 
            280, 
            646, 
            33
        ], 
        [
            64, 
            318, 
            614, 
            34
        ], 
        [
            64, 
            356, 
            614, 
            34
        ], 
        [
            328, 
            395, 
            350, 
            30
        ]
    ], 
    "image_height": 540, 
    "image_width": 720, 
    "transcription": [
        "u064a_u064f_u0642_u0635_u062f u0020 u0628_u0627_u0644_u0623_u0647_u062f_u0627_u0641 u0020 u0627_u0644_u062a_u0631_u0628_u0648_u064a_u0629 u0020 u003a u0020 u0627_u0644_u0623_u063a_u0631_u0627_u0636 u0020 u0623_u0648 u0020 u0627_u0644_u063a_u0627_u064a_u0627_u062a u0020 u0627_u0644_u062a_u064a u0020 u062a_u0633_u0639_u0649_u0020", 
        "u0627_u0644_u0639_u0645_u0644_u064a_u0629 u0020 u0627_u0644_u062a_u0631_u0628_u0648_u064a_u0629 u0020 u0625_u0644_u0649 u0020 u062a_u062d_u0642_u064a_u0642_u0647_u0627 u0020 u0648_u0627_u0644_u0648_u0635_u0648_u0644 u0020 u0625_u0644_u064a_u0647_u0627_u060c u0020 u0642_u0631_u064a_u0628_u0629 u0020 u0643_u0627_u0646_u062a u0020 u0623_u0648_u0020", 
        "u0628_u0639_u064a_u062f_u0629_u002e_u00a0_u000b", 
        "u0648_u062a_u062d_u062f_u064a_u062f u0020 u0627_u0644_u0623_u0647_u062f_u0627_u0641 u0020 u0644_u0623_u064a u0020 u0639_u0645_u0644 u0020 u0645_u0646 u0020 u0627_u0644_u0623_u0639_u0645_u0627_u0644 u0020 u0627_u0644_u062a_u0631_u0628_u0648_u064a_u0629 u0020 u0623_u0645_u0631_u064c u0020 u0623_u0633_u0627_u0633_u064a_u0020", 
        "u0642_u0628_u0644 u0020 u0627_u0644_u0634_u0631_u0648_u0639 u0020 u0641_u064a u0020 u0647_u0630_u0627 u0020 u0627_u0644_u0639_u0645_u0644 u0020 u0648_u062a_u0646_u0641_u064a_u0630_u0647_u061b u0020 u0644_u0623_u0646 u0020 u0647_u0630_u0627 u0020 u0627_u0644_u062a_u062d_u062f_u064a_u062f u0020 u064a_u0624_u062b_u0631 u0020 u062a_u0623_u062b_u064a_u0631_u064b_u0627_u0020", 
        "u0643_u0628_u064a_u0631_u064b_u0627 u0020 u0641_u064a u0020 u062a_u0643_u064a_u064a_u0641 u0020 u0648_u062a_u062d_u062f_u064a_u062f u0020 u0645_u062c_u0627_u0644 u0020 u0627_u0644_u062f_u0631_u0627_u0633_u0629_u060c u0020 u0648_u0637_u0631_u0642_u0647_u0627_u060c u0020 u0648_u0648_u0633_u0627_u0626_u0644_u0647_u0627_u060c_u0020", 
        "u0648_u0623_u0633_u0627_u0644_u064a_u0628_u0647_u0627 u0020 u0627_u0644_u062a_u064a u0020 u062a_u062d_u0642_u0642 u0020 u0647_u0630_u0647 u0020 u0627_u0644_u0623_u0647_u062f_u0627_u0641_u060c u0020 u0643_u0645_u0627 u0020 u0623_u0646 u0020 u0627_u0644_u0623_u0647_u062f_u0627_u0641 u0020 u063a_u0627_u0644_u0628_u064b_u0627 u0020 u0645_u0627_u0020", 
        "u062a_u0643_u0648_u0646 u0020 u0645_u062d_u0631_u0643_u064b_u0627 u0020 u0644_u0644_u0633_u0644_u0648_u0643 u0020 u0648_u0645_u0648_u062c_u0647_u064b_u0627 u0020 u0644_u0647_u002e_u00a0_u000b"
    ]
}