{
    "bounding_box": [
        [
            436, 
            70, 
            240, 
            25
        ], 
        [
            605, 
            128, 
            71, 
            22
        ], 
        [
            55, 
            179, 
            621, 
            23
        ], 
        [
            367, 
            231, 
            309, 
            23
        ], 
        [
            427, 
            282, 
            249, 
            21
        ], 
        [
            43, 
            511, 
            6, 
            9
        ]
    ], 
    "image_height": 540, 
    "image_width": 720, 
    "transcription": [
        "u0631_u0648_u0634_u0647_u0627_u06cc u0020 u0622_u0645_u0648_u0632_u0634 u0020 u0633_u0644_u0627_u0645_u062a_u003a_u000d", 
        "u0020_u0634_u0627_u0645_u0644 u0020 u000d", 
        "u0631_u0648_u0634 u0020 u0647_u0627_u06cc u0020 u06af_u0641_u062a_u0627_u0631_u06cc_u003a u0020 u0633_u062e_u0646_u0631_u0627_u0646_u06cc_u060c u0020 u0628_u062d_u062b u0020 u06af_u0631_u0648_u0647_u06cc_u060c u0020 u0627_u06cc_u0641_u0627_u06cc u0020 u0646_u0642_u0634_u060c u0020 u062f_u0645_u0648_u0646_u0633_u062a_u0631_u06cc_u0634_u0646_u060c u0020 u06af_u0641_u062a_u0646 u0020 u062f_u0627_u0633_u062a_u0627_u0646 u0020 u0648 u0020 u002e_u002e_u002e u0020 u0627_u0633_u062a_u002e u0020 u000d", 
        "u0631_u0633_u0627_u0646_u0647_u00ad_u0647_u0627_u06cc u0020 u0686_u0627_u067e_u06cc u0020 u0645_u062b_u0644 u0020 u0628_u0631_u0648_u0634_u0648_u0631_u060c u0020 u067e_u0645_u0641_u0644_u062a u0020 u000d", 
        "u0631_u0633_u0627_u0646_u0647_u00ad_u0647_u0627_u06cc u0020 u062a_u0635_u0648_u06cc_u0631_u06cc u0020 u0634_u0627_u0645_u0644 u0020 u0043_u0044_u000d", 
        "u0032"
    ]
}