{
    "bounding_box": [
        [
            58, 
            121, 
            589, 
            20
        ], 
        [
            60, 
            143, 
            587, 
            25
        ], 
        [
            47, 
            169, 
            600, 
            21
        ], 
        [
            466, 
            191, 
            181, 
            17
        ], 
        [
            69, 
            213, 
            578, 
            25
        ], 
        [
            569, 
            240, 
            78, 
            17
        ], 
        [
            52, 
            263, 
            595, 
            23
        ], 
        [
            42, 
            287, 
            605, 
            20
        ], 
        [
            627, 
            323, 
            20, 
            2
        ], 
        [
            46, 
            331, 
            601, 
            25
        ], 
        [
            66, 
            358, 
            581, 
            18
        ], 
        [
            600, 
            380, 
            47, 
            18
        ], 
        [
            50, 
            403, 
            597, 
            24
        ], 
        [
            526, 
            429, 
            121, 
            17
        ], 
        [
            232, 
            49, 
            444, 
            39
        ]
    ], 
    "image_height": 540, 
    "image_width": 720, 
    "transcription": [
        "u062a_u0647_u06cc_u0647 u0020 u0648 u0020 u0627_u0631_u0633_u0627_u0644 u0020 u0645_u062c_u0644_u0647 u0020 u067e_u06cc_u06a9 u0020 u0633_u0644_u0627_u0645_u062a u0020 u0628_u0631_u0627_u06cc u0020 u06a9_u0644_u06cc_u0647 u0020 u0647_u0645_u06a9_u0627_u0631_u0627_u0646 u0020 u0628_u0647 u0020 u0648_u0633_u06cc_u0644_u0647 u0020 u0627_u062a_u0648_u0645_u0627_u0633_u06cc_u0648_u0646 u0020 u0627_u062f_u0627_u0631_u06cc_u000d", 
        "u0031_u0032_u002d u0020 u0628_u0631_u06af_u0632_u0627_u0631_u06cc u0020 u0647_u0645_u0627_u06cc_u0634_u00ad_u0647_u0627_u06cc u0020 u0627_u0631_u062a_u0642_u0627_u0621 u0020 u0633_u0644_u0627_u0645_u062a u0020 u0648 u0020 u062a_u0646_u062f_u0631_u0633_u062a_u06cc u0020 u062f_u0631 u0020 u0645_u0631_u06a9_u0632 u0020 u0641_u0627_u0631_u0633 u0020 u0628_u0627 u0020 u062d_u0636_u0648_u0631_u0020", 
        "u0627_u0633_u0627_u062a_u06cc_u062f u0020 u062f_u0627_u0646_u0634_u06af_u0627_u0647 u0020 u0639_u0644_u0648_u0645 u0020 u067e_u0632_u0634_u06a9_u06cc u0020 u0648 u0020 u0645_u062a_u062e_u0635_u0635_u0627_u0646 u0020 u0628_u0647 u0020 u0646_u0627_u0645 u0020 u0627_u0633_u062a_u0627_u0646_u06cc u0020 u0648 u0020 u06a9_u0634_u0648_u0631_u06cc u0020 u062f_u0631 u0020 u0633_u0627_u0644_u0646 u0020 u0622_u0645_u0641_u06cc_u0020", 
        "u062a_u0626_u0627_u062a_u0631 u0020 u0628_u0647 u0020 u0635_u0648_u0631_u062a u0020 u0645_u0627_u0647_u0627_u0646_u0647 u0020 u000d", 
        "u0031_u0033_u002d u0020 u0627_u062c_u0631_u0627_u06cc u0020 u067e_u06cc_u0627_u062f_u0647 u0020 u0631_u0648_u06cc u0020 u0647_u0645_u06af_u0627_u0646_u06cc u0020 u06cc_u06a9 u0020 u0631_u0648_u0632 u0020 u062f_u0631 u0020 u0647_u0641_u062a_u0647 u0020 u062f_u0631 u0020 u0645_u062d_u0648_u0637_u0647 u0020 u0645_u0631_u06a9_u0632 u0020 u0628_u0627 u0020 u062d_u0636_u0648_u0631_u0020", 
        "u0647_u0645_u06a9_u0627_u0631_u0627_u0646 u0020 u000d", 
        "u0031_u0034_u002d u0020 u0628_u0631_u0627_u06cc u0020 u062a_u0634_u0648_u06cc_u0642 u0020 u0647_u0645_u06a9_u0627_u0631_u0627_u0646 u0020 u0628_u0647 u0020 u0648_u0631_u0632_u0634 u0020 u0648 u0020 u062a_u0646_u062f_u0631_u0633_u062a_u06cc u0020 u0632_u0645_u06cc_u0646 u0020 u0648_u0631_u0632_u0634_u06cc u0020 u0648_u0627_u0644_u06cc_u0628_u0627_u0644 u0020 u2013 u0020 u0632_u0645_u06cc_u0646_u0020", 
        "u0686_u0645_u0646 u0020 u0641_u0648_u062a_u0628_u0627_u0644 u0020 u0648 u0020 u0633_u0627_u0644_u0646 u0020 u0628_u062f_u0646_u0633_u0627_u0632_u06cc u0020 u2013 u0020 u0645_u06cc_u0632 u0020 u067e_u06cc_u0646_u06af u0020 u067e_u0646_u06af u0020 u062f_u0631 u0020 u0645_u0631_u06a9_u0632 u0020 u062f_u0631 u0020 u0646_u0638_u0631 u0020 u06af_u0631_u0641_u062a_u0647 u0020 u0634_u062f_u0647 u0020 u0627_u0633_u062a_u0020", 
        "u002e u0020 u000d", 
        "u0031_u0036_u002d u0020 u0628_u0631_u06af_u0632_u0627_u0631_u06cc u0020 u0645_u0633_u0627_u0628_u0642_u0627_u062a u0020 u0645_u062e_u062a_u0644_u0641 u0020 u0622_u0645_u0627_u062f_u06af_u06cc u0020 u062c_u0633_u0645_u0627_u0646_u06cc u0020 u2013 u0020 u067e_u06cc_u0646_u06af u0020 u067e_u0646_u06af u0020 u2013 u0020 u0641_u0648_u062a_u0628_u0627_u0644 u0020 u2013 u0020 u0648_u0627_u0644_u06cc_u0628_u0627_u0644_u0020", 
        "u2013 u0020 u062f_u0627_u0631_u062a u0020 u0628_u0647 u0020 u0645_u0646_u0627_u0633_u0628_u062a u0020 u0647_u0627_u06cc u0020 u0645_u062e_u062a_u0644_u0641 u0020 u0628_u06cc_u0646 u0020 u0647_u0645_u06a9_u0627_u0631_u0627_u0646 u0020 u062f_u0631 u0020 u0645_u0631_u06a9_u0632 u0020 u0648 u0020 u0627_u0647_u062f_u0627 u0020 u062c_u0627_u06cc_u0632_u0647 u0020 u0628_u0647 u0020 u0646_u0641_u0631_u0627_u062a_u0020", 
        "u0628_u0631_u062a_u0631 u0020 u000d", 
        "u0031_u0037_u002d u0020 u06af_u0631_u0641_u062a_u0646 u0020 u06a9_u0627_u0631_u062a u0020 u0647_u0627_u06cc u0020 u0627_u0633_u062a_u062e_u0631 u0020 u0645_u062c_u0645_u0648_u0639_u0647 u0020 u0647_u0627_u06cc u0020 u0645_u062e_u062a_u0644_u0641 u0020 u062f_u0631 u0020 u0634_u06cc_u0631_u0627_u0632 u0020 u0628_u0627 u0020 u062a_u062e_u0641_u06cc_u0641 u0020 u0646_u06cc_u0645 u0020 u0628_u0647_u0627_u0621_u0020", 
        "u0628_u0631_u0627_u06cc u0020 u0647_u0645_u06a9_u0627_u0631_u0627_u0646 u0020 u000d", 
        "u0641_u0639_u0627_u0644_u06cc_u062a u0020 u0647_u0627_u06cc u0020 u0645_u0631_u06a9_u0632 u0020 u0628_u0647_u062f_u0627_u0634_u062a u0020 u0641_u0627_u0631_u0633_u0020"
    ]
}