{
    "bounding_box": [
        [
            60, 
            38, 
            589, 
            56
        ], 
        [
            439, 
            95, 
            210, 
            48
        ]
    ], 
    "image_height": 540, 
    "image_width": 720, 
    "transcription": [
        "u0035_u002d u0020 u0627_u0644_u0625_u0635_u063a_u0627_u0621 u0020 u0648_u0627_u0644_u0625_u0633_u062a_u0645_u0627_u0639 u0020 u0648_u0627_u0644_u0625_u0646_u0635_u0627_u062a u0020 u0639_u0646_u062f_u0020", 
        "u062a_u0644_u0627_u0648_u0629 u0020 u0627_u0644_u0642_u0631_u0622_u0646_u002e_u000d"
    ]
}