{
    "bounding_box": [
        [
            417, 
            17, 
            248, 
            36
        ], 
        [
            289, 
            57, 
            376, 
            46
        ], 
        [
            236, 
            104, 
            429, 
            43
        ], 
        [
            111, 
            153, 
            554, 
            42
        ], 
        [
            33, 
            197, 
            632, 
            48
        ], 
        [
            33, 
            247, 
            632, 
            42
        ], 
        [
            33, 
            291, 
            632, 
            41
        ], 
        [
            312, 
            333, 
            353, 
            42
        ]
    ], 
    "image_height": 540, 
    "image_width": 720, 
    "transcription": [
        "u0033_u002d u0020 u067e_u06cc_u062f_u0627_u06cc_u0634 u0020 u062d_u06cc_u0627_u062a u0020 u0627_u0632 u0020 u0622_u0628_u000d", 
        "u0648_u064e u0020 u062c_u064e_u0639_u064e_u0644_u0646_u064e_u0627 u0020 u0645_u0650_u0646_u064e u0020 u0627_u0644_u0645_u064e_u0627_u0621_u0650 u0020 u06a9_u064f_u0644_u0651_u064e u0020 u0634_u064e_u06cc u0020 u0621_u064d u0020 u062d_u064e_u06cc_u0651_u064d_u002e_u000d", 
        "u0648 u0020 u0647_u0631 u0020 u0686_u06cc_u0632 u0020 u0632_u0646_u062f_u0647 u0020 u0627_u06cc u0020 u0631_u0627 u0020 u0627_u0632 u0020 u0622_u0628 u0020 u067e_u062f_u06cc_u062f u0020 u0622_u0648_u0631_u062f_u06cc_u0645_u002e_u000d", 
        "u0645_u0641_u0633_u0631_u0627_u0646 u0020 u0627_u0632 u0020 u0627_u06cc_u0646 u0020 u0622_u06cc_u0647 u0020 u0645_u0639_u0627_u0646_u06cc u0020 u0645_u062a_u0639_u062f_u062f_u06cc u0020 u0628_u06cc_u0627_u0646 u0020 u06a9_u0631_u062f_u0647 u0020 u0627_u0646_u062f_u003a_u000d", 
        "u0645_u0645_u06a9_u0646 u0020 u0627_u0633_u062a u0020 u0645_u0642_u0635_u062f u0020 u0627_u0632 u0020 u0622_u0628 u0020 u062f_u0631 u0020 u0627_u06cc_u0646_u062c_u0627 u0020 u0645_u0646_u06cc u0020 u0648 u0020 u0646_u0637_u0641_u0647 u0020 u06cc_u0627 u0020 u0645_u0627_u062f_u0647_u0020", 
        "u0627_u0635_u0644_u06cc u0020 u0628_u062f_u0646 u0020 u0645_u0648_u062c_u0648_u062f_u0627_u062a u0020 u0632_u0646_u062f_u0647_u060c u0020 u06cc_u0627 u0020 u0645_u0627_u06cc_u0639 u0020 u0622_u0628 u0020 u06af_u0648_u0646_u0647 u0020 u0627_u06cc u0020 u0628_u0627_u0634_u062f_u0020", 
        "u06a9_u0647 u0020 u062e_u0644_u0642_u062a u0020 u062c_u0647_u0627_u0646 u0020 u0627_u0632 u0020 u0622_u0646 u0020 u067e_u062f_u06cc_u062f u0020 u0622_u0645_u062f_u0647_u060c u0020 u06cc_u0627 u0020 u0627_u06cc_u0646_u06a9_u0647 u0020 u0645_u0646_u0634_u0627 u0020 u067e_u06cc_u062f_u0627_u06cc_u0634_u0020", 
        "u0646_u062e_u0633_u062a_u06cc_u0646 u0020 u0645_u0648_u062c_u0648_u062f_u0627_u062a u0020 u0627_u0632 u0020 u0622_u0628 u0020 u0627_u0633_u062a_u002e"
    ]
}