{
    "bounding_box": [
        [
            306, 
            102, 
            96, 
            37
        ], 
        [
            294, 
            152, 
            120, 
            31
        ]
    ], 
    "image_height": 540, 
    "image_width": 720, 
    "transcription": [
        "u0627_u0644_u062a_u0642_u0648_u064a_u0645_u000d", 
        "u0020_u0635 u0020 u0031_u0039_u0020"
    ]
}