{
    "bounding_box": [
        [
            223, 
            20, 
            629, 
            46
        ], 
        [
            619, 
            76, 
            232, 
            42
        ], 
        [
            266, 
            162, 
            566, 
            62
        ], 
        [
            550, 
            250, 
            281, 
            63
        ], 
        [
            288, 
            339, 
            543, 
            63
        ], 
        [
            395, 
            429, 
            436, 
            60
        ]
    ], 
    "image_height": 540, 
    "image_width": 960, 
    "transcription": [
        "u062f_u0639_u0648_u0629 u0020 u0627_u0644_u0642_u0631_u0622_u0646 u0020 u0648_u0627_u0644_u0633_u0646_u0629 u0020 u0625_u0644_u0649 u0020 u0627_u0644_u062a_u0645_u064a_u0632_u0020", 
        "u0648_u0639_u0644_u0648 u0020 u0627_u0644_u0647_u0645_u0629_u000b", 
        "u0639_u0646_u0648_u0627_u0646 u0020 u0645_u062d_u0627_u0636_u0631_u0629 u0020 u0627_u0644_u064a_u0648_u0645 u0020 u000d", 
        "u0645_u0639 u0020 u0637_u0644_u0627_u0628_u003a_u000d", 
        "u0643_u0644_u064a_u0629 u0020 u0627_u0644_u062a_u0631_u0628_u064a_u0629 u0020 u0628_u0627_u0644_u0632_u0644_u0641_u064a_u000d", 
        "u0020_u062c_u0627_u0645_u0639_u0629 u0020 u0627_u0644_u0645_u062c_u0645_u0639_u0629"
    ]
}