{
    "bounding_box": [
        [
            255, 
            212, 
            141, 
            50
        ]
    ], 
    "image_height": 540, 
    "image_width": 720, 
    "transcription": [
        "u0627_u0644_u0645_u0646_u0627_u062f_u0649"
    ]
}