{
    "bounding_box": [
        [
            174, 
            133, 
            502, 
            22
        ], 
        [
            97, 
            174, 
            552, 
            22
        ], 
        [
            97, 
            211, 
            552, 
            22
        ], 
        [
            549, 
            247, 
            100, 
            20
        ], 
        [
            97, 
            288, 
            552, 
            21
        ], 
        [
            97, 
            324, 
            552, 
            22
        ], 
        [
            496, 
            360, 
            153, 
            20
        ], 
        [
            177, 
            400, 
            472, 
            21
        ], 
        [
            543, 
            84, 
            133, 
            27
        ]
    ], 
    "image_height": 540, 
    "image_width": 720, 
    "transcription": [
        "u0628_u0627_u0644_u0625_u0636_u0627_u0641_u0629 u0020 u0644_u062e_u0635_u0627_u0626_u0635 u0020 u0627_u0644_u0623_u0645_u0648_u0627_u0644_u060c u0020 u062a_u062a_u0645_u064a_u0632 u0020 u0628_u0648_u0638_u0627_u0626_u0641 u0020 u0645_u062a_u0646_u0648_u0639_u0629 u0020 u062a_u0624_u0647_u0644_u0647_u0627 u0020 u0644_u062f_u0648_u0631_u0647_u0627 u0020 u0627_u0644_u062a_u0628_u0627_u062f_u0644_u064a u0020 u0645_u062b_u0644_u000d", 
        "u0648_u0633_u064a_u0637_u0629 u0020 u0641_u064a u0020 u0639_u0645_u0644_u064a_u0629 u0020 u0627_u0644_u062a_u0628_u0627_u062f_u0644 u0020 u0628_u062d_u064a_u062b u0020 u064a_u062a_u0645_u0643_u0646 u0020 u062d_u0627_u0645_u0644_u0648 u0020 u0627_u0644_u0623_u0645_u0648_u0627_u0644 u0020 u0645_u0646 u0020 u062a_u0628_u0627_u062f_u0644 u0020 u0627_u0644_u0628_u0636_u0627_u0626_u0639 u0020 u0628_u0647_u0627_u060c u0020 u0623_u0648 u0020 u062d_u0635_u0648_u0644_u0020", 
        "u0627_u0644_u0628_u0627_u0626_u0639 u0020 u0639_u0644_u0649 u0020 u0642_u064a_u0645_u0629 u0020 u0627_u0644_u0628_u0636_u0627_u0626_u0639 u0020 u0627_u0644_u062a_u064a u0020 u064a_u0631_u063a_u0628_u0648_u0646 u0020 u0628_u0647_u0627 u0020 u0639_u0644_u0649 u0020 u0634_u0643_u0644 u0020 u0623_u0645_u0648_u0627_u0644 u0020 u0644_u0625_u0639_u0627_u062f_u0629 u0020 u062a_u0628_u062f_u064a_u0644_u0647_u0627 u0020 u0645_u0633_u062a_u0642_u0628_u0644_u0627_u064b_u0020", 
        "u0628_u0645_u0646_u062a_u062c_u0627_u062a u0020 u0623_u062e_u0631_u0649_u000d", 
        "u062d_u0627_u0641_u0638_u0629 u0020 u0644_u0644_u0642_u064a_u0645_u0629 u0020 u0623_u064a u0020 u0623_u0646 u0020 u064a_u0643_u0648_u0646 u0020 u0644_u0644_u0623_u0645_u0648_u0627_u0644 u0020 u0642_u064a_u0645_u0629 u0020 u0645_u0639_u064a_u0646_u0629 u0020 u0648_u0623_u0646 u0020 u062a_u062d_u0627_u0641_u0638 u0020 u0639_u0644_u0649 u0020 u0647_u0630_u0647 u0020 u0627_u0644_u0642_u064a_u0645_u0629_u060c u0020 u0627_u0644_u0623_u0645_u0631 u0020 u0627_u0644_u0630_u064a_u0020", 
        "u064a_u062f_u0641_u0639 u0020 u0627_u0644_u062a_u062c_u0627_u0631 u0020 u0644_u0644_u0642_u0628_u0648_u0644 u0020 u0628_u0627_u0644_u0623_u0645_u0648_u0627_u0644 u0020 u0628_u062f_u0644 u0020 u0628_u0636_u0627_u0626_u0639_u0647_u0645_u002e u0020 u0648_u062a_u062c_u0639_u0644 u0020 u0627_u0644_u0623_u0634_u062e_u0627_u0635 u0020 u062a_u062d_u062a_u0641_u0638 u0020 u0628_u0627_u0644_u0623_u0645_u0648_u0627_u0644 u0020 u0643_u062b_u0631_u0648_u0629_u0020", 
        "u0646_u0638_u0631_u0627_u064b u0020 u0644_u0627_u062d_u062a_u0641_u0627_u0638_u0647_u0627 u0020 u0628_u0642_u064a_u0645_u062a_u0647_u0627_u002e_u000d", 
        "u0648_u062d_u062f_u0627_u062a u0020 u0642_u0627_u0628_u0644_u0629 u0020 u0644_u0644_u0639_u062f u0020 u0645_u0645_u0627 u0020 u064a_u062a_u064a_u062d u0020 u062a_u0642_u062f_u064a_u0645 u0020 u0648_u062a_u062d_u062f_u064a_u062f u0020 u0627_u0644_u0642_u064a_u0645 u0020 u0627_u0644_u062d_u0642_u064a_u0642_u064a_u0629 u0020 u0644_u0644_u0645_u0646_u062a_u062c u0020 u0623_u0648 u0020 u0644_u0644_u062b_u0631_u0648_u0629 u0020 u0643_u0643_u0644_u060c_u0020", 
        "u0648_u0638_u0627_u0626_u0641 u0020 u0627_u0644_u0623_u0645_u0648_u0627_u0644"
    ]
}