{
    "bounding_box": [
        [
            119, 
            108, 
            513, 
            46
        ], 
        [
            88, 
            160, 
            544, 
            49
        ], 
        [
            103, 
            223, 
            529, 
            44
        ], 
        [
            28, 
            273, 
            604, 
            54
        ], 
        [
            118, 
            339, 
            514, 
            40
        ], 
        [
            88, 
            391, 
            544, 
            49
        ], 
        [
            173, 
            454, 
            460, 
            42
        ]
    ], 
    "image_height": 540, 
    "image_width": 720, 
    "transcription": [
        "u0648_u0641_u064a u0020 u0627_u0644_u0628_u062f_u0627_u064a_u0629 u0020 u0636_u0645_u062a u0020 u0628_u0639_u0636 u0020 u0627_u0644_u0641_u0635_u0627_u0626_u0644_u0020", 
        "u0627_u0644_u0635_u063a_u064a_u0631_u0629_u002c u0020 u0645_u062b_u0644_u003a u0020 u0634_u0628_u0627_u0628 u0020 u0627_u0644_u062b_u0623_u0631_u002c u0020 u0648_u0623_u0628_u0637_u0627_u0644_u0020", 
        "u0627_u0644_u0639_u0648_u062f_u0629_u002c u0020 u0648_u062c_u0628_u0647_u0629 u0020 u0627_u0644_u062a_u062d_u0631_u064a_u0631 u0020 u0627_u0644_u0641_u0644_u0633_u0637_u064a_u0646_u064a_u0629_u002e_u000d", 
        "u0643_u0627_u0646_u062a u0020 u0641_u064a u0020 u0627_u0644_u0628_u062f_u0627_u064a_u0629 u0020 u0645_u0646_u0627_u0641_u0633_u0627_u064b u0020 u0642_u0648_u064a_u0627_u064b u0020 u0644_u062d_u0631_u0643_u0629 u0020 u0641_u062a_u062d_u002c_u0020", 
        "u0644_u0643_u0646 u0020 u0639_u0635_u0641_u062a u0020 u0628_u0647_u0627 u0020 u0645_u062c_u0645_u0648_u0639_u0629 u0020 u062e_u0644_u0627_u0641_u0627_u062a_u0020", 
        "u0648_u0627_u0646_u0634_u0642_u0627_u0642_u0627_u062a_u002c u0020 u0645_u0646 u0020 u0623_u0628_u0631_u0632_u0647_u0627 u0020 u0627_u0646_u0634_u0642_u0627_u0642 u0020 u0623_u062d_u0645_u062f_u0020", 
        "u062c_u0628_u0631_u064a_u0644_u002c u0020 u0648_u0627_u0646_u0634_u0642_u0627_u0642 u0020 u0646_u0627_u064a_u0641 u0020 u062d_u0648_u0627_u062a_u0645_u0629_u002e"
    ]
}