{
    "bounding_box": [
        [
            276, 
            37, 
            195, 
            39
        ], 
        [
            4, 
            164, 
            638, 
            38
        ], 
        [
            381, 
            206, 
            261, 
            39
        ], 
        [
            307, 
            250, 
            335, 
            33
        ], 
        [
            392, 
            292, 
            250, 
            39
        ], 
        [
            121, 
            339, 
            521, 
            35
        ]
    ], 
    "image_height": 540, 
    "image_width": 720, 
    "transcription": [
        "u0628_u062f_u064a_u0647_u064a_u0627_u062a u0020 u0648_u062d_u0643_u0645", 
        "u0627_u0644_u0638_u0648_u0627_u0647_u0631 u0020 u0627_u0644_u0637_u0628_u064a_u0639_u064a_u0629 u0020 u062a_u0635_u0628_u062d u0020 u201d_u0643_u0648_u0627_u0631_u062b u0020 u0637_u0628_u064a_u0639_u064a_u0629_u201c u0020 u0628_u0641_u0639_u0644 u0020 u0627_u0644_u0625_u0646_u0633_u0627_u0646_u000d", 
        "u0627_u0644_u0648_u0642_u0627_u064a_u0629 u0020 u062e_u064a_u0631 u0020 u0645_u0646 u0020 u0627_u0644_u0639_u0644_u0627_u062c_u000d", 
        "u0645_u0627 u0020 u0644_u0627 u0020 u064a_u0624_u062e_u0630 u0020 u0643_u0644_u0647 u0020 u0644_u0627 u0020 u064a_u062a_u0631_u0643 u0020 u0628_u0639_u0636_u0647_u000d", 
        "u0627_u0644_u0644_u064a u0020 u062a_u0644_u0641 u0020 u064a_u0634_u062f u0020 u0627_u0644_u0623_u0631_u0636_u000d", 
        "u0627_u0644_u062a_u0641_u0643_u064a_u0631 u0020 u0628_u0644_u0627 u0020 u0639_u0645_u0644 u0020 u0639_u0642_u0645 u0020 u0648 u0020 u0627_u0644_u0639_u0645_u0644 u0020 u0628_u0644_u0627 u0020 u062a_u0641_u0643_u064a_u0631_u062c_u0631_u0645 u0020 u002e_u002e_u002e_u000d"
    ]
}