{
    "bounding_box": [
        [
            101, 
            28, 
            506, 
            43
        ], 
        [
            94, 
            77, 
            531, 
            42
        ], 
        [
            175, 
            211, 
            352, 
            58
        ], 
        [
            27, 
            295, 
            656, 
            38
        ], 
        [
            53, 
            338, 
            594, 
            38
        ], 
        [
            473, 
            390, 
            173, 
            35
        ]
    ], 
    "image_height": 540, 
    "image_width": 720, 
    "transcription": [
        "u0643_u064a_u0641 u0020 u0646_u062f_u0645_u062c u0020 u0627_u0644_u062a_u0643_u0646_u0648_u0644_u0648_u062c_u064a_u0627 u0020 u0627_u0644_u062d_u062f_u064a_u062b_u0629 u0020 u0644_u0644_u0627_u062a_u0635_u0627_u0644_u0020", 
        "u0648_u0627_u0644_u062a_u0648_u0627_u0635_u0644 u0020 u0020_u0641_u064a u0020 u062a_u062f_u0631_u064a_u0633 u0020 u0627_u0644_u0641_u064a_u0632_u064a_u0627_u0621 u0020 u0648_u0627_u0644_u0643_u064a_u0645_u064a_u0627_u0621_u061f", 
        "u0627_u0644_u0643_u0641_u0627_u064a_u0629 u0020 u0627_u0644_u0645_u0633_u062a_u0647_u062f_u0641_u0629_u000d", 
        "u0627_u0645_u062a_u0644_u0627_u0643 u0020 u062a_u0642_u0646_u064a_u0627_u062a u0020 u0627_u0644_u062a_u0635_u0631_u064a_u0641 u0020 u0627_u0644_u062f_u064a_u062f_u0627_u0643_u062a_u064a_u0643_u064a u0020 u0644_u0628_u0631_u0627_u0645_u062c u0020 u0627_u0644_u0641_u064a_u0632_u064a_u0627_u0621_u0020", 
        "u0648_u0627_u0644_u0643_u064a_u0645_u064a_u0627_u0621 u0020 u0628_u0627_u0633_u062a_u0639_u0645_u0627_u0644 u0020 u0627_u0644_u0623_u062f_u0648_u0627_u062a u0020 u0627_u0644_u0645_u0639_u0644_u0648_u0645_u0627_u062a_u064a_u0629 u0020 u0627_u0644_u0645_u062a_u0627_u062d_u0629_u0020", 
        "u0644_u062a_u062d_u0642_u064a_u0642 u0020 u0627_u0644_u062c_u0648_u062f_u0629"
    ]
}