{
    "bounding_box": [
        [
            592, 
            11, 
            120, 
            25
        ], 
        [
            252, 
            44, 
            220, 
            26
        ], 
        [
            591, 
            91, 
            120, 
            19
        ], 
        [
            14, 
            113, 
            697, 
            21
        ], 
        [
            356, 
            138, 
            356, 
            20
        ], 
        [
            31, 
            161, 
            681, 
            21
        ], 
        [
            1, 
            186, 
            711, 
            20
        ], 
        [
            333, 
            210, 
            379, 
            18
        ], 
        [
            94, 
            234, 
            618, 
            20
        ]
    ], 
    "image_height": 540, 
    "image_width": 720, 
    "transcription": [
        "u062c_u0632_u064a_u0631_u0629 u0020 u0647_u064a_u062f_u0631_u0627_u0020", 
        "u0054_u0068_u0065 u0020 u0048_u006f_u0074_u0065_u006c u0020 u0048_u0079_u0064_u0072_u0061", 
        "u064a_u062a_u0648_u0641_u0631 u0020 u0641_u064a u0020 u0627_u0644_u0641_u0646_u062f_u0642 u0020 u003a_u000b", 
        "u062e_u062f_u0645_u0629 u0020 u0627_u0644_u063a_u0631_u0641_u002c u0020 u063a_u0631_u0641 u0020 u0645_u0643_u064a_u0641_u0629_u002c u0020 u063a_u0631_u0641 u0020 u0644_u063a_u064a_u0631 u0020 u0627_u0644_u0645_u062f_u062e_u0646_u064a_u0646_u002c u0020 u0628_u0627_u0631 u0020 u0635_u063a_u064a_u0631_u002c u0020 u062a_u0644_u0641_u0632_u064a_u0648_u0646_u002f_u0633_u062a_u0644_u0627_u064a_u062a_u002c u0020 u0645_u0637_u0628_u062e u0020 u0635_u063a_u064a_u0631_u002c u0020 u0627_u064c_u0644_u0629 u0020 u0644_u0635_u0646_u0639 u0020 u0627_u0644_u0634_u0627_u064a_u000d", 
        "u0020_u0648_u0627_u0644_u0642_u0647_u0648_u0629_u002c u0020 u0645_u062c_u0641_u0641 u0020 u0634_u0639_u0631_u002c u0020 u062a_u0644_u0641_u0632_u064a_u0648_u0646_u002c u0020 u062f_u0634_u002c u0020 u0625_u0641_u0637_u0627_u0631 u0020 u0641_u064a u0020 u0627_u0644_u063a_u0631_u0641_u0629_u000d", 
        "u0645_u0643_u062a_u0628 u0020 u0644_u0644_u062c_u0648_u0644_u0627_u062a_u002c u0020 u0645_u0633_u0627_u062c_u060c u0020 u0645_u0631_u0643_u0632 u0020 u062a_u062c_u0645_u064a_u0644_u002c u0020 u062d_u0648_u0636 u0020 u0627_u0644_u0625_u0633_u062a_u062d_u0645_u0627_u0645_u002c u0020 u0646_u0632_u0647_u0627_u062a_u002c u0020 u062d_u062f_u064a_u0642_u0629_u002c u0020 u0646_u0634_u0627_u0637_u0627_u062a u0020 u0645_u0627_u0626_u064a_u0629_u002c u0020 u0635_u064a_u062f_u002c u0020 u0627_u0644_u062a_u0646_u0632_u0647_u002c u0020 u062a_u062f_u0644_u064a_u0643_u000d", 
        "u0645_u0631_u0643_u0632 u0020 u0623_u0639_u0645_u0627_u0644_u002c u0020 u0645_u0635_u0628_u063a_u0629_u002c u0020 u0635_u0646_u062f_u0648_u0642 u0020 u0627_u0645_u0627_u0646_u0627_u062a u0020 u0628_u0627_u0644_u063a_u0631_u0641_u002c u0020 u062e_u062f_u0645_u0629 u0020 u0627_u0644_u063a_u0633_u064a_u0644_u002c u0020 u0622_u0644_u0629 u0020 u0646_u0633_u062e_u002c u0020 u062e_u062f_u0645_u0629 u0020 u0627_u0644_u062a_u0630_u0627_u0643_u0631_u002c u0020 u0641_u0627_u0643_u0633_u0645_u064a_u0644_u064a_u002c u0020 u062d_u0641_u0638 u0020 u0627_u0644_u0623_u0645_u062a_u0639_u0629_u002c u0020 u000d", 
        "u0645_u0646_u0637_u0642_u0629 u0020 u0645_u062e_u0635_u0635_u0629 u0020 u0644_u0644_u062a_u062f_u062e_u064a_u0646_u002c u0020 u0645_u0639_u0627_u0645_u0644_u0627_u062a u0020 u0641_u0648_u0631_u064a_u0629 u0020 u0644_u0644_u062d_u062c_u0632 u0020 u0648_u0644_u0644_u0645_u063a_u0627_u062f_u0631_u0629_u000d", 
        "u064a_u0648_u0641_u0631 u0020 u0647_u0630_u0627 u0020 u0627_u0644_u0641_u0646_u062f_u0642 u0020 u062e_u062f_u0645_u0629 u0020 u0627_u062a_u0635_u0627_u0644 u0020 u0628_u0634_u0628_u0643_u0629 u0020 u0627_u0644_u0625_u0646_u062a_u0631_u0646_u062a u0020 u0641_u0627_u0626_u0642_u0629 u0020 u0627_u0644_u0633_u0631_u0639_u0629_u002e u0020 u064a_u0648_u0641_u0631 u0020 u0627_u0644_u0645_u0648_u0642_u0639 u0020 u0627_u062a_u0635_u0627_u0644 u0020 u0625_u0646_u062a_u0631_u0646_u062a u0020 u0644_u0627_u0633_u0644_u0643_u064a_u002e_u000d"
    ]
}