{
    "bounding_box": [
        [
            22, 
            23, 
            654, 
            38
        ], 
        [
            39, 
            87, 
            611, 
            16
        ], 
        [
            39, 
            104, 
            611, 
            16
        ], 
        [
            39, 
            122, 
            611, 
            16
        ], 
        [
            39, 
            139, 
            611, 
            16
        ], 
        [
            286, 
            156, 
            364, 
            16
        ], 
        [
            419, 
            175, 
            230, 
            18
        ], 
        [
            39, 
            197, 
            611, 
            18
        ], 
        [
            39, 
            217, 
            611, 
            16
        ], 
        [
            39, 
            235, 
            611, 
            15
        ], 
        [
            39, 
            251, 
            611, 
            15
        ], 
        [
            39, 
            268, 
            611, 
            15
        ], 
        [
            472, 
            287, 
            177, 
            15
        ], 
        [
            39, 
            303, 
            611, 
            20
        ], 
        [
            39, 
            325, 
            611, 
            16
        ], 
        [
            39, 
            342, 
            611, 
            16
        ], 
        [
            39, 
            360, 
            611, 
            15
        ], 
        [
            39, 
            376, 
            611, 
            16
        ], 
        [
            39, 
            394, 
            611, 
            16
        ], 
        [
            39, 
            411, 
            611, 
            16
        ], 
        [
            39, 
            428, 
            611, 
            15
        ], 
        [
            384, 
            446, 
            266, 
            16
        ]
    ], 
    "image_height": 540, 
    "image_width": 720, 
    "transcription": [
        "u062a_u0639_u0631_u064a_u0641 u0020 u0627_u0644_u062a_u0631_u0628_u0629 u0020 u000b", 
        "u0647_u064a u0020 u0627_u0644_u0637_u0628_u0642_u0629 u0020 u0627_u0644_u0633_u0637_u062d_u064a_u0629 u0020 u0627_u0644_u0647_u0634_u0629 u0020 u0623_u0648 u0020 u0627_u0644_u0645_u0641_u062a_u062a_u0629 u0020 u0627_u0644_u062a_u064a u0020 u062a_u063a_u0637_u064a u0020 u0633_u0637_u062d u0020 u0627_u0644_u0623_u0631_u0636_u060c u0020 u0648_u062a_u062a_u0643_u0648_u0646 u0020 u0645_u0646 u0020 u0645_u0648_u0627_u062f u0020 u0635_u062e_u0631_u064a_u0629 u0020 u0645_u0641_u062a_u062a_u0629 u0020 u062e_u0636_u0639_u062a_u0020", 
        "u0645_u0646 u0020 u0642_u0628_u0644 u0020 u0644_u0644_u062a_u063a_u064a_u064a_u0631 u0020 u0628_u0633_u0628_u0628 u0020 u062a_u0639_u0631_u0636_u0647_u0627 u0020 u0644_u0644_u0639_u0648_u0627_u0645_u0644 u0020 u0627_u0644_u0628_u064a_u0626_u064a_u0629 u0020 u0028_u0645_u0646_u0647_u0627 u0020 u0627_u0644_u062a_u062c_u0648_u064a_u0629 u0020 u0648_u0627_u0644_u062a_u0639_u0631_u064a_u0629_u0029 u0020 u0648_u0627_u0644_u0628_u064a_u0648_u0644_u0648_u062c_u064a_u0629 u0020 u0648_u0627_u0644_u0643_u064a_u0645_u0627_u0626_u064a_u0629_u060c u0020 u0627_u0644_u062a_u0631_u0628_u0629_u0020", 
        "u0645_u0632_u064a_u062c_u064b_u0627 u0020 u0645_u0646 u0020 u0627_u0644_u0645_u0643_u0648_u0646_u0627_u062a u0020 u0627_u0644_u0639_u0636_u0648_u064a_u0629 u0020 u0648_u0627_u0644_u0645_u0639_u062f_u0646_u064a_u0629 u0020 u0627_u0644_u062a_u064a u0020 u062a_u062a_u0623_u0644_u0641 u0020 u0645_u0646_u0647_u0627_u060c u0020 u0643_u0645_u0627 u0020 u062a_u064f_u0639_u0631_u0641 u0020 u0627_u0644_u062a_u0631_u0628_u0629 u0020 u0623_u064a_u0636_u0627 u0020 u0628_u0627_u0633_u0645 u0020 u0627_u0644_u0623_u0631_u0636_u061b u0020 u0648_u0647_u064a_u0020", 
        "u0627_u0644_u0645_u0627_u062f_u0629 u0020 u0627_u0644_u062a_u064a u0020 u0627_u0634_u062a_u0642 u0020 u0645_u0646_u0647_u0627 u0020 u0643_u0648_u0643_u0628 u0020 u0627_u0644_u0623_u0631_u0636 u0020 u0627_u0644_u0630_u064a u0020 u0646_u062d_u064a_u0627 u0020 u0639_u0644_u064a_u0647 u0020 u0627_u0633_u0645_u0647 u0020 u0648_u064a_u0631_u062c_u0639 u0020 u062a_u0627_u0631_u064a_u062e u0020 u0628_u0639_u0636 u0020 u0627_u0644_u0645_u0648_u0627_u062f u0020 u0627_u0644_u062a_u064a u0020 u062a_u062a_u0643_u0648_u0646 u0020 u0645_u0646_u0647_u0627_u0020", 
        "u0627_u0644_u062a_u0631_u0628_u0629 u0020 u0641_u064a u0020 u0643_u0648_u0643_u0628 u0020 u0627_u0644_u0623_u0631_u0636 u0020 u0625_u0644_u0649 u0020 u0645_u0627 u0020 u0642_u0628_u0644 u0020 u0627_u0644_u062d_u0642_u0628_u0629 u0020 u0627_u0644_u062c_u064a_u0648_u0644_u0648_u062c_u064a_u0629 u0020 u0627_u0644_u062b_u0627_u0644_u062b_u0629_u002e u0020 u000d", 
        "u0639_u0644_u0648_u0645 u0020 u0627_u0644_u062a_u0631_u0628_u0629 u0020 u062a_u0642_u0633_u0645 u0020 u0625_u0644_u0649 u0020 u0645_u062c_u0645_u0648_u0639_u062a_u064a_u0646 u0020 u0647_u0645_u0627 u0020 u003a_u000d", 
        "u0639_u0644_u0648_u0645 u0020 u0623_u0633_u0627_u0633_u064a_u0629 u0020 u062a_u0628_u062d_u062b u0020 u0641_u064a u0020 u0627_u0644_u062a_u0631_u0628_u0629 u0020 u0643_u062c_u0633_u0645 u0020 u0637_u0628_u064a_u0639_u064a u0020 u062f_u064a_u0646_u0627_u0645_u064a_u0643_u064a u0020 u0644_u0647 u0020 u0643_u064a_u0627_u0646 u0020 u062e_u0627_u0635 u0020 u0628_u0647 u0020 u0645_u0643_u0648_u0646 u0020 u0645_u0646 u0020 u0645_u0648_u0627_u062f u0020 u0645_u0639_u062f_u0646_u064a_u0629 u0020 u0648_u0639_u0636_u0648_u064a_u0629_u0020", 
        "u0646_u0634_u0623_u062a u0020 u0623_u0633_u0627_u0633_u0627 u0020 u0645_u0646 u0020 u062a_u0641_u062a_u062a u0020 u0648_u062a_u062d_u0644_u0644 u0020 u0627_u0644_u0635_u062e_u0648_u0631 u0020 u0648_u0627_u0644_u0645_u0639_u0627_u062f_u0646 u0020 u0627_u0644_u062f_u0627_u062e_u0644_u0629 u0020 u0641_u064a u0020 u062a_u0643_u0648_u064a_u0646_u0647_u0627 u0020 u0625_u0644_u0649 u0020 u062d_u0628_u064a_u0628_u0627_u062a u0020 u0635_u063a_u064a_u0631_u0629 u0020 u0628_u0623_u062d_u062c_u0627_u0645 u0020 u0627_u0644_u0633_u0644_u062a_u0020", 
        "u0648_u0627_u0644_u0631_u0645_u0644 u0020 u0648_u0627_u0644_u0637_u064a_u0646_u002e u0020 u0647_u0630_u0627 u0020 u0627_u0644_u0645_u062c_u0627_u0644 u0020 u0645_u0646 u0020 u0627_u0644_u062f_u0631_u0627_u0633_u0627_u062a u0020 u064a_u0633_u0645_u0649 u0020 u0628_u0639_u0644_u0648_u0645 u0020 u0627_u0644_u0628_u064a_u062f_u0648_u0644_u0648_u062c_u064a u0020 u0028_u0050_u0065_u0064_u006f_u006c_u006f_u0067_u0079_u0029 u0020 u064a_u0647_u062f_u0641 u0020 u0625_u0644_u0649 u0020 u0627_u0644_u062a_u0639_u0631_u0641 u0020 u0639_u0644_u0649_u0020", 
        "u062a_u0643_u0648_u064a_u0646 u0020 u0627_u0644_u062a_u0631_u0628 u0020 u0648_u0627_u0644_u0639_u0648_u0627_u0645_u0644 u0020 u0627_u0644_u0645_u0624_u062b_u0631_u0629 u0020 u0020_u0639_u0644_u064a_u0647_u0627 u0020 u0648_u062a_u0635_u0646_u064a_u0641_u0647_u0627 u0020 u0648_u064a_u0639_u062a_u0645_u062f u0020 u0639_u0644_u0649 u0020 u0643_u062b_u064a_u0631 u0020 u0645_u0646 u0020 u0627_u0644_u0639_u0644_u0648_u0645 u0020 u0627_u0644_u0623_u0633_u0627_u0633_u064a_u0629 u0020 u0643_u0627_u0644_u062c_u064a_u0648_u0644_u0648_u062c_u064a_u0627_u0020", 
        "u0648_u0627_u0644_u062c_u063a_u0631_u0627_u0641_u064a_u0629 u0020 u0648_u0627_u0644_u0643_u064a_u0645_u064a_u0627_u0621 u0020 u0648_u0639_u0644_u0645 u0020 u0627_u0644_u0645_u0646_u0627_u062e u0020 u0648_u0627_u0644_u0646_u0628_u0627_u062a u0020 u0648_u0627_u0644_u062d_u064a_u0648_u0627_u0646 u0020 u0648_u0645_u0646 u0020 u0641_u0631_u0648_u0639_u0647 u0020 u0646_u0634_u0648_u0621 u0020 u0648_u062a_u0643_u0648_u064a_u0646 u0020 u0627_u0644_u062a_u0631_u0628_u0629 u0020 u060c u0020 u0645_u0648_u0631_u0641_u0648_u0644_u0648_u062c_u064a_u0020", 
        "u0627_u0644_u062a_u0631_u0628_u0629 u0020 u0648_u0645_u0633_u062d u0020 u0648_u062a_u0635_u0646_u064a_u0641 u0020 u0627_u0644_u062a_u0631_u0628_u0629_u002e_u000d", 
        "u062f_u0631_u0627_u0633_u0627_u062a u0020 u062a_u0637_u0628_u064a_u0642_u064a_u0629 u0020 u062a_u0633_u0645_u0649 u0020 u0628_u0639_u0644_u0648_u0645 u0020 u0627_u0644_u0627_u064a_u062f_u0627_u0641_u0648_u0644_u0648_u062c_u064a u0020 u0028_u0045_u0064_u0061_u0070_u0068_u006f_u006c_u006f_u0067_u0079_u0029 u0020 u0648_u062a_u0628_u062d_u062b u0020 u0641_u064a u0020 u0627_u0644_u062a_u0631_u0628_u0629 u0020 u0643_u0628_u064a_u0626_u0629 u0020 u0644_u0646_u0645_u0648 u0020 u0627_u0644_u0646_u0628_u0627_u062a u0020 u0648_u062a_u0643_u0648_u064a_u0646_u0020", 
        "u0645_u0627 u0020 u064a_u0633_u0645_u0649 u0020 u0628_u0627_u0644_u062a_u0631_u0628_u0629 u0020 u0627_u0644_u0632_u0631_u0627_u0639_u064a_u0629 u0020 u0628_u0647_u062f_u0641 u0020 u062a_u0632_u0648_u064a_u062f u0020 u0627_u0644_u0646_u0628_u0627_u062a u0020 u0628_u0645_u0627 u0020 u062a_u062d_u062a_u0627_u062c_u0647 u0020 u0645_u0646 u0020 u0645_u0627_u0621 u0020 u0648_u0647_u0648_u0627_u0621 u0020 u0648_u0639_u0646_u0627_u0635_u0631 u0020 u063a_u0630_u0627_u0626_u064a_u0629 u0020 u0648_u0643_u0644 u0020 u0627_u0644_u0634_u0631_u0648_u0637_u0020", 
        "u0627_u0644_u0644_u0627_u0632_u0645_u0629 u0020 u0644_u0643_u064a u0020 u064a_u0639_u0637_u064a u0020 u0627_u0643_u0628_u0631 u0020 u062d_u0627_u0635_u0644 u0020 u0645_u0645_u0643_u0646 u0020 u0644_u0630_u0644_u0643 u0020 u062a_u0639_u0631_u0651_u0641 u0020 u0627_u0644_u062a_u0631_u0628_u0629 u0020 u062d_u0633_u0628 u0020 u0627_u0644_u0645_u0641_u0647_u0648_u0645 u0020 u0627_u0644_u0627_u064a_u062f_u0627_u0641_u0648_u0644_u0648_u062c_u064a u0020 u0639_u0644_u0649 u0020 u0625_u0646_u0647_u0627 u0020 u062c_u0633_u0645 u0020 u0637_u0628_u064a_u0639_u064a_u0020", 
        "u0645_u0643_u0648_u0646 u0020 u0645_u0646 u0020 u062e_u0644_u064a_u0637 u0020 u0645_u0646 u0020 u0645_u0648_u0627_u062f u0020 u0645_u0639_u062f_u0646_u064a_u0629 u0020 u0648_u0645_u0641_u062a_u062a_u0629 u0020 u0648_u0645_u0648_u0627_u062f u0020 u0639_u0636_u0648_u064a_u0629 u0020 u0645_u062a_u062d_u0644_u0644_u0629 u0020 u062a_u063a_u0637_u064a u0020 u0627_u0644_u0623_u0631_u0636 u0020 u0628_u0637_u0628_u0642_u0629 u0020 u062e_u0641_u064a_u0641_u0629 u0020 u0648_u062a_u062c_u0647_u0632 u0020 u0627_u0644_u0646_u0628_u0627_u062a_u0020", 
        "u0628_u0627_u0644_u0645_u0627_u0621 u0020 u0648_u0627_u0644_u0639_u0646_u0627_u0635_u0631 u0020 u0627_u0644_u063a_u0630_u0627_u0626_u064a_u0629 u0020 u0648_u062a_u0648_u0641_u0631 u0020 u0633_u0646_u062f u0020 u0645_u064a_u0643_u0627_u0646_u064a_u0643_u064a u0020 u0644_u0644_u0646_u0628_u0627_u062a_u002e u0020 u064a_u0639_u062a_u0645_u062f u0020 u0647_u0630_u0627 u0020 u0627_u0644_u0646_u0648_u0639 u0020 u0645_u0646 u0020 u0627_u0644_u062f_u0631_u0627_u0633_u0627_u062a u0020 u0639_u0644_u0649 u0020 u062a_u0637_u0628_u064a_u0642 u0020 u0627_u0644_u062d_u0642_u0627_u0626_u0642_u0020", 
        "u0648_u0627_u0644_u0646_u0638_u0631_u064a_u0627_u062a u0020 u0627_u0644_u0645_u0648_u062c_u0648_u062f_u0629 u0020 u0641_u064a u0020 u0643_u062b_u064a_u0631 u0020 u0645_u0646 u0020 u0627_u0644_u0639_u0644_u0648_u0645 u0020 u0627_u0644_u0623_u0633_u0627_u0633_u064a_u0629 u0020 u0648_u0645_u0646 u0020 u0623_u0647_u0645 u0020 u0641_u0631_u0648_u0639_u0647 u0020 u0641_u064a_u0632_u064a_u0627_u0621 u0020 u0627_u0644_u062a_u0631_u0628_u0629 u0020 u060c u0020 u0643_u064a_u0645_u064a_u0627_u0621 u0020 u0627_u0644_u062a_u0631_u0628_u0629_u060c u0020 u0623_u062d_u064a_u0627_u0621_u0020", 
        "u0627_u0644_u062a_u0631_u0628_u0629 u0020 u0627_u0644_u0645_u062c_u0647_u0631_u064a_u0629_u060c u0020 u062e_u0635_u0648_u0628_u0629 u0020 u0648_u062a_u0633_u0645_u064a_u062f u0020 u0627_u0644_u062a_u0631_u0628_u0629_u060c u0020 u0627_u0644_u0631_u064a u0020 u0648_u0627_u0644_u0628_u0632_u0644_u060c u0020 u0627_u0633_u062a_u0635_u0644_u0627_u062d u0020 u0627_u0644_u0623_u0631_u0627_u0636_u064a_u060c u0020 u0635_u064a_u0627_u0646_u0629 u0020 u0627_u0644_u062a_u0631_u0628_u0629_u002e u0020 u0644_u064a_u0633 u0020 u0647_u0646_u0627_u0643_u0020", 
        "u062d_u062f_u0648_u062f u0020 u0641_u0627_u0635_u0644_u0629 u0020 u0628_u064a_u0646 u0020 u0643_u0644 u0020 u0641_u0631_u0648_u0639 u0020 u0639_u0644_u0648_u0645 u0020 u0627_u0644_u062a_u0631_u0628_u0629 u0020 u0648_u0644_u0627 u0020 u064a_u0645_u0643_u0646 u0020 u0627_u0644_u0642_u0648_u0644 u0020 u0627_u0646 u0020 u0627_u062d_u062f_u0647_u0645_u0627 u0020 u0623_u0643_u062b_u0631 u0020 u0623_u0647_u0645_u064a_u0629 u0020 u0645_u0646 u0020 u0627_u0644_u0623_u062e_u0631 u0020 u0648_u0644_u064a_u0633 u0020 u0647_u0646_u0627_u0643 u0020 u0623_u064a_u0020", 
        "u0642_u064a_u0645_u0629 u0020 u0644_u0623_u062d_u062f_u0647_u0645_u0627 u0020 u0645_u0627 u0020 u0644_u0645 u0020 u064a_u0631_u062a_u0628_u0637 u0020 u0645_u0639 u0020 u0627_u0644_u0641_u0631_u0648_u0639 u0020 u0627_u0644_u0623_u062e_u0631_u0649_u002e_u0020"
    ]
}