{
    "bounding_box": [
        [
            224, 
            42, 
            420, 
            34
        ], 
        [
            360, 
            118, 
            316, 
            21
        ], 
        [
            38, 
            144, 
            638, 
            24
        ], 
        [
            40, 
            170, 
            614, 
            21
        ], 
        [
            76, 
            193, 
            579, 
            21
        ], 
        [
            42, 
            216, 
            612, 
            22
        ], 
        [
            139, 
            239, 
            515, 
            22
        ], 
        [
            495, 
            267, 
            181, 
            20
        ], 
        [
            54, 
            296, 
            622, 
            21
        ], 
        [
            203, 
            320, 
            451, 
            21
        ], 
        [
            290, 
            349, 
            386, 
            19
        ], 
        [
            50, 
            372, 
            626, 
            27
        ], 
        [
            61, 
            400, 
            593, 
            22
        ], 
        [
            60, 
            423, 
            594, 
            22
        ], 
        [
            130, 
            446, 
            525, 
            22
        ]
    ], 
    "image_height": 540, 
    "image_width": 720, 
    "transcription": [
        "u062f_u0633_u062a_u0627_u0648_u0631_u062f u0020 u062c_u062f_u06cc_u062f u0020 u067e_u0632_u0634_u06a9_u06cc u0020 u062f_u0627_u0646_u0634_u0645_u0646_u062f_u0627_u0646 u0020 u0627_u06cc_u0631_u0627_u0646_u06cc_u000b", 
        "u062a_u0648_u0644_u06cc_u062f u0020 u0645_u0648_u0627_u062f u0020 u0627_u0648_u0644_u06cc_u0647 u0020 u062f_u0627_u0631_u0648_u06cc u0020 u0627_u06cc_u0631_u0627_u0646_u06cc u0020 u0022_u0627_u0645 u0020 u0627_u0633_u0022_u003a u0020 u000d", 
        "u0020 u0020 u0020 u0020 u0020_u0633_u0627_u062e_u062a u0020 u0627_u06cc_u0646 u0020 u062f_u0627_u0631_u0648 u0020 u0627_u0646_u062d_u0635_u0627_u0631 u0020 u062c_u0647_u0627_u0646_u06cc u0020 u0622_u0645_u0631_u06cc_u06a9_u0627_u06cc_u06cc_u0647_u0627 u0020 u0631_u0627 u0020 u0634_u06a9_u0633_u062a_u002e u0020 u067e_u0633 u0020 u0627_u0632 u0020 u0627_u0639_u0644_u0627_u0645 u0020 u062e_u0628_u0631 u0020 u062a_u0648_u0644_u06cc_u062f_u0020", 
        "u062f_u0627_u0631_u0648_u06cc u0020 u0627_u06cc_u0631_u0627_u0646_u06cc u0020 u0022_u0627_u0645 u0020 u0627_u0633_u0022_u060c u0020 u0633_u0647_u0627_u0645 u0020 u0634_u0631_u06a9_u062a u0020 u0022_u0628_u06cc_u0648_u0698_u0646_u0022 u0020 u0622_u0645_u0631_u06cc_u06a9_u0627 u0020 u06a9_u0647 u0020 u062a_u0646_u0647_u0627 u0020 u062a_u0648_u0644_u06cc_u062f u0020 u06a9_u0646_u0646_u062f_u0647 u0020 u062f_u0627_u0631_u0648_u06cc_u0020", 
        "u0628_u06cc_u0645_u0627_u0631_u0627_u0646 u0020 u0022 u0020 u0627_u0645 u0020 u0627_u0633_u0022 u0020 u062f_u0631 u0020 u062c_u0647_u0627_u0646 u0020 u0628_u0648_u062f u0020 u0035 u0020 u062f_u0631_u0635_u062f u0020 u06a9_u0627_u0647_u0634 u0020 u06cc_u0627_u0641_u062a u0020 u062a_u06a9_u0646_u0648_u0644_u0648_u0698_u06cc u0020 u0633_u0627_u062e_u062a u0020 u0627_u06cc_u0646_u0020", 
        "u062f_u0627_u0631_u0648 u0020 u067e_u06cc_u0634 u0020 u0627_u0632 u0020 u0627_u06cc_u0646 u0020 u062f_u0631 u0020 u0627_u0646_u062d_u0635_u0627_u0631 u0020 u06cc_u06a9_u06cc u0020 u0627_u0632 u0020 u0634_u0631_u06a9_u062a_u0647_u0627_u06cc u0020 u0631_u0698_u06cc_u0645 u0020 u0635_u0647_u06cc_u0648_u0646_u06cc_u0633_u062a_u06cc u0020 u0628_u0648_u062f_u0647 u0020 u0627_u0633_u062a u0020 u06a9_u0647_u0020", 
        "u0628_u0627 u0020 u062a_u0648_u0644_u06cc_u062f u0020 u0622_u0646 u0020 u0627_u06cc_u0631_u0627_u0646 u0020 u0628_u0647 u0020 u062c_u0645_u0639 u0020 u062a_u0648_u0644_u06cc_u062f u0020 u06a9_u0646_u0646_u062f_u06af_u0627_u0646 u0020 u0645_u0648_u0627_u062f u0020 u0627_u0648_u0644_u06cc_u0647 u0020 u0627_u06cc_u0646 u0020 u062f_u0627_u0631_u0648 u0020 u067e_u06cc_u0648_u0633_u062a_u002e_u000d", 
        "u062f_u0627_u0631_u0648_u06cc_u0022_u062a_u0631_u0627_u0633_u062a_u0648_u0632_u0648_u0645_u0628_u201d_u003a_u000d", 
        "u0020 u0020 u0020 u0020 u0020_u0627_u06cc_u0646 u0020 u062f_u0627_u0631_u0648 u0020 u062f_u0631_u062f_u0631_u0645_u0627_u0646 u0020 u0633_u0631_u0637_u0627_u0646 u0020 u0633_u06cc_u0646_u0647 u0020 u06a9_u0627_u0631_u0628_u0631_u062f u0020 u062f_u0627_u0631_u062f_u002e u0020 u0628_u0627 u0020 u062a_u0648_u0644_u06cc_u062f u0020 u0627_u06cc_u0646 u0020 u062f_u0627_u0631_u0648 u0020 u0627_u06cc_u0631_u0627_u0646 u0020 u067e_u0633 u0020 u0627_u0632_u0020", 
        "u0633_u0648_u0626_u06cc_u0633 u0020 u062f_u0648_u0645_u06cc_u0646 u0020 u06a9_u0634_u0648_u0631_u062a_u0648_u0644_u06cc_u062f_u06a9_u0646_u0646_u062f_u0647 u0020 u0627_u06cc_u0646 u0020 u062f_u0627_u0631_u0648 u0020 u0645_u062d_u0633_u0648_u0628 u0020 u0645_u06cc u0020 u0634_u0648_u062f_u002e_u000d", 
        "u0641_u0627_u06a9_u062a_u0648_u0631_u0038 u0020 u00ab u0020 u0041_u006e_u0074_u0069_u0068_u0065_u006d_u006f_u0070_u0068_u0069_u006c_u0069_u0063 u0020 u0046_u0061_u0063_u0074_u006f_u0072 u0020 u0056_u0049_u0049_u00bb_u003a_u000d", 
        "u0020 u0020 u0020 u0020 u0020_u0627_u06cc_u0646 u0020 u062f_u0627_u0631_u0648 u0020 u0034_u0037 u0020 u0645_u06cc_u0644_u06cc_u0648_u0646 u0020 u062f_u0644_u0627_u0631 u0020 u0635_u0631_u0641_u0647 u0020 u062c_u0648_u06cc_u06cc_u00a0_u0627_u0631_u0632_u00a0_u062f_u0627_u0634_u062a_u0647 u0020 u06a9_u0647 u0020 u0627_u06a9_u0646_u0648_u0646 u0020 u0627_u06cc_u0631_u0627_u0646 u0020 u0628_u0627 u0020 u062a_u0648_u0644_u06cc_u062f_u00a0_u0622_u0646_u0020", 
        "u062f_u0648_u0645_u06cc_u0646 u0020 u06a9_u0634_u0648_u0631 u0020 u062a_u0648_u0644_u06cc_u062f u0020 u06a9_u0646_u0646_u062f_u0647 u0020 u0627_u06cc_u0646 u0020 u062f_u0627_u0631_u0648 u0020 u062f_u0631 u0020 u062f_u0646_u06cc_u0627 u0020 u0645_u062d_u0633_u0648_u0628 u0020 u0645_u06cc u0020 u0634_u0648_u062f_u002e u0020 u0641_u0627_u06a9_u062a_u0648_u0631 u0020 u0647_u0641_u062a u0020 u064a_u06a9_u0020", 
        "u0641_u0627_u06a9_u062a_u0648_u0631 u0020 u0645_u0631_u0628_u0648_u0637 u0020 u0628_u0647 u0020 u0627_u0646_u0639_u0642_u0627_u062f u0020 u062e_u0648_u0646 u0020 u0648 u0020 u0636_u062f u0020 u062e_u0648_u0646_u0631_u064a_u0632_u064a u0020 u0627_u0633_u062a u0020 u06a9_u0647 u0020 u0628_u0647 u0020 u0634_u06a9_u0644 u0020 u062a_u0632_u0631_u064a_u0642_u064a u0020 u0627_u0631_u0627_u0626_u0647_u0020", 
        "u0645_u064a u0020 u0634_u0648_u062f_u002e u0020 u0627_u064a_u0646 u0020 u062f_u0627_u0631_u0648 u0020 u062f_u0631 u0020 u062f_u0631_u0645_u0627_u0646 u0020 u062e_u0648_u0646_u0631_u064a_u0632_u064a u0020 u0647_u0645_u0648_u0641_u064a_u0644_u064a u0020 u0041 u0020 u0648 u0020 u0042 u0020 u0645_u0648_u062b_u0631 u0020 u0627_u0633_u062a_u002e_u000d"
    ]
}