{
    "bounding_box": [
        [
            242, 
            45, 
            319, 
            45
        ], 
        [
            191, 
            124, 
            504, 
            31
        ], 
        [
            150, 
            165, 
            546, 
            29
        ], 
        [
            136, 
            201, 
            559, 
            31
        ], 
        [
            154, 
            239, 
            541, 
            31
        ], 
        [
            143, 
            280, 
            552, 
            25
        ], 
        [
            136, 
            316, 
            560, 
            28
        ], 
        [
            153, 
            357, 
            542, 
            29
        ]
    ], 
    "image_height": 540, 
    "image_width": 720, 
    "transcription": [
        "u0627_u0644_u0645_u062d_u064a_u0637 u0020 u0627_u0644_u0645_u062a_u062c_u0645_u062f u0020 u0627_u0644_u062c_u0646_u0648_u0628_u064a_u0020", 
        "u0648_u064a_u0639_u0631_u0641 u0020 u0627_u064a_u0636_u0627 u0020 u0628_u0627_u0633_u0645 u0020 u0627_u0644_u0645_u062d_u064a_u0637 u0020 u0627_u0644_u062c_u0646_u0648_u0628_u064a u0020 u0627_u0644_u0643_u0628_u064a_u0631 u0020 u0627_u0644_u0645_u062d_u064a_u0637_u0020", 
        "u0627_u0644_u0645_u062a_u062c_u0645_u062f u0020 u0648_u064a_u0636_u0645 u0020 u0645_u064a_u0627_u0647 u0020 u0627_u0644_u0645_u062d_u064a_u0637 u0020 u0627_u0644_u0639_u0627_u0644_u0645_u064a u0020 u0641_u064a u0020 u0627_u0642_u0635_u0649 u0020 u0627_u0644_u062c_u0646_u0648_u0628_u0020", 
        "u064a_u063a_u0637_u064a u0020 u064a_u063a_u0637_u064a u0020 u062c_u0646_u0648_u0628 u0020 u062e_u0637 u0020 u0639_u0631_u0636 u0020 u0036_u0030 u0020 u062f_u0631_u062c_u0629 u0020 u062c_u0646_u0648_u0628_u0627 u0020 u0648_u064a_u0644_u0641_u0020", 
        "u0627_u0644_u0642_u0627_u0631_u0629 u0020 u0627_u0644_u0642_u0637_u0628_u064a_u0629 u0020 u0627_u0644_u062c_u0646_u0648_u0628_u064a_u0629 u0020 u0627_u0646_u062a_u0627_u0631_u0643_u062a_u064a_u0643_u0627 u0020 u064a_u0639_u062a_u0628_u0631 u0020 u0639_u0627_u062f_u0647 u0020 u0628_u0627_u0646_u0629 u0020 u0631_u0627_u0628_u0639_u0020", 
        "u0627_u0643_u0628_u0631 u0020 u0645_u062d_u064a_u0637 u0020 u0645_u0646 u0020 u0627_u0644_u0645_u062d_u064a_u0637_u0627_u062a u0020 u0627_u0644_u062e_u0645_u0633_u0629 u0020 u0627_u0644_u0631_u0626_u064a_u0633_u064a_u0629 u0020 u0648_u062a_u0639_u062a_u0628_u0631 u0020 u0647_u0630_u0647_u0020", 
        "u0627_u0644_u0645_u0646_u0637_u0642_u0629 u0020 u0645_u0646 u0020 u0627_u0644_u0645_u062d_u064a_u0637 u0020 u0628_u0627_u0631_u062f_u0629 u0020 u062d_u064a_u062b u0020 u062a_u0646_u062f_u0641_u0642 u0020 u0627_u0644_u0645_u064a_u0627_u0647 u0020 u0627_u0644_u0634_u0645_u0627_u0644_u064a_u0647 u0020 u0645_u0646_u0020", 
        "u0627_u0646_u062a_u0627_u0631_u0643_u062a_u064a_u0643_u0627 u0020 u0648_u062a_u062e_u0644_u0637 u0020 u0645_u0639 u0020 u0645_u064a_u0627_u0647 u0020 u0627_u0644_u0645_u0646_u0637_u0642_u0629 u0020 u0627_u0644_u0634_u0628_u0647 u0020 u0627_u0644_u0642_u0637_u0628_u064a_u0629 u0020 u0627_u0644_u062f_u0627_u0641_u0626_u0647_u0020"
    ]
}