{
    "bounding_box": [
        [
            370, 
            44, 
            218, 
            55
        ], 
        [
            78, 
            402, 
            793, 
            38
        ], 
        [
            55, 
            445, 
            838, 
            38
        ], 
        [
            113, 
            488, 
            722, 
            38
        ]
    ], 
    "image_height": 540, 
    "image_width": 960, 
    "transcription": [
        "u0627_u0644_u0641_u064a_u0631_u0648_u0633_u0627_u062a", 
        "u0628_u0631_u0627_u0645_u062c u0020 u0642_u0627_u0645 u0020 u0628_u062a_u0637_u0648_u064a_u0631_u0647_u0627 u0020 u0648_u0643_u062a_u0627_u0628_u062a_u0647_u0627 u0020 u0645_u0628_u0631_u0645_u062c_u064a_u0646 u0020 u0645_u062d_u062a_u0631_u0641_u064a_u0646 u0020 u060c u0020 u0628_u0647_u062f_u0641 u0020 u062a_u0646_u0641_u064a_u0630 u0020 u0623_u0648_u0627_u0645_u0631_u0020", 
        "u0645_u0639_u064a_u0646_u0629 u0020 u0641_u064a u0020 u062c_u0647_u0627_u0632 u0020 u0627_u0644_u0636_u062d_u064a_u0629 u0020 u0643_u0625_u0644_u062d_u0627_u0642 u0020 u0627_u0644_u0636_u0631_u0631 u0020 u0628_u0627_u0644_u062d_u0627_u0633_u0628 u0020 u0648 u0020 u0645_u0627 u0020 u064a_u062d_u062a_u0648_u064a_u0647 u0020 u0645_u0646 u0020 u0628_u064a_u0627_u0646_u0627_u062a_u0020", 
        "u0623_u0648 u0020 u0641_u062a_u062d u0020 u0645_u0646_u0627_u0641_u0630 u0020 u0641_u064a u0020 u0627_u0644_u062d_u0627_u0633_u0628 u0020 u064a_u0645_u0643_u0646 u0020 u0639_u0646 u0020 u0637_u0631_u064a_u0642_u0647_u0627 u0020 u0627_u062e_u062a_u0631_u0627_u0642_u0647 u0020 u0623_u0648 u0020 u0645_u0631_u0627_u0642_u0628_u062a_u0647_u0020"
    ]
}