{
    "bounding_box": [
        [
            120, 
            198, 
            479, 
            93
        ]
    ], 
    "image_height": 540, 
    "image_width": 720, 
    "transcription": [
        "u0627_u0644_u0627_u0633_u0644_u0627_u0645 u0020 u0648_u0627_u0644_u0633_u064a_u0627_u062d_u0629"
    ]
}