{
    "bounding_box": [
        [
            304, 
            84, 
            288, 
            24
        ], 
        [
            447, 
            141, 
            143, 
            15
        ], 
        [
            397, 
            173, 
            189, 
            18
        ]
    ], 
    "image_height": 540, 
    "image_width": 720, 
    "transcription": [
        "u0627_u0644_u0645_u0624_u062a_u0645_u0631 u0020 u0627_u0644_u0639_u0627_u0644_u0645_u064a u0020 u0644_u0644_u0627_u062a_u0635_u0627_u0644_u0627_u062a u0020 u0627_u0644_u062f_u0648_u0644_u064a_u0629_u000d", 
        "u0032_u0030_u0031_u0032 u0020 u062f_u064a_u0633_u0645_u0628_u0631 u0020 u0031_u0034_u002d_u0033_u000d", 
        "u062f_u0628_u064a_u060c u0020 u0627_u0644_u0625_u0645_u0627_u0631_u0627_u062a u0020 u0627_u0644_u0639_u0631_u0628_u064a_u0629 u0020 u0627_u0644_u0645_u062a_u062d_u062f_u0629"
    ]
}