{
    "bounding_box": [
        [
            96, 
            46, 
            517, 
            45
        ], 
        [
            496, 
            133, 
            153, 
            31
        ], 
        [
            254, 
            180, 
            395, 
            34
        ], 
        [
            392, 
            229, 
            257, 
            28
        ], 
        [
            547, 
            272, 
            128, 
            21
        ], 
        [
            566, 
            304, 
            110, 
            23
        ], 
        [
            387, 
            344, 
            262, 
            30
        ], 
        [
            262, 
            388, 
            387, 
            32
        ], 
        [
            435, 
            432, 
            214, 
            29
        ]
    ], 
    "image_height": 540, 
    "image_width": 720, 
    "transcription": [
        "u0637_u0631_u064a_u0642_u0629 u0020 u0627_u0644_u0628_u062d_u062b u0020 u0641_u064a u0020 u0627_u0644_u0645_u0648_u0633_u0648_u0639_u0629 u0020 u0627_u0644_u0639_u0645_u0627_u0646_u064a_u0629_u0020", 
        "u0627_u0644_u062a_u0631_u062a_u064a_u0628 u0020 u0623_u0644_u0641_u0628_u0627_u0626_u064a_u0627_u000d", 
        "u062a_u062c_u0627_u0647_u0644 u0020 u0623_u0644 u0020 u0627_u0644_u062a_u0639_u0631_u064a_u0641 u0020 u0028_u0028_u0627_u0644_u062b_u0639_u0644_u0628 u0020 u002e_u002e_u002e_u062b_u0639_u0644_u0628_u0029_u0029_u000d", 
        "u0646_u0641_u0633 u0020 u0627_u0644_u0645_u062f_u062e_u0644 u0020 u064a_u0645_u064a_u0632 u0020 u0628_u0642_u0648_u0633 u0020 u000d", 
        "u0645_u0633_u0642_u0637 u0020 u0028_u0645_u062d_u0627_u0641_u0638_u0629_u0029_u000d", 
        "u0645_u0633_u0642_u0637 u0020 u0028_u0648_u0644_u0627_u064a_u0629_u0029_u000d", 
        "u0627_u0644_u0627_u0639_u0644_u0627_u0645 u0020 u0627_u0644_u0639_u0645_u0627_u0646_u064a_u064a_u0646 u0020 u0648_u0627_u0644_u0639_u0631_u0628_u000d", 
        "u0627_u0644_u0627_u0633_u0645 u0020 u0627_u0644_u0627_u0648_u0644 u0020 u0648 u0020 u0627_u0644_u062b_u0627_u0646_u064a u0020 u0648_u0627_u0644_u0642_u0628_u064a_u0644_u0629 u0020 u0623_u0648 u0020 u0627_u0644_u0639_u0627_u0626_u0644_u0629_u000d", 
        "u0639_u0628_u062f_u0627_u0644_u0644_u0647 u0020 u0628_u0646 u0020 u062d_u0645_u064a_u062f u0020 u0627_u0644_u0633_u0627_u0644_u0645_u064a_u000d"
    ]
}