{
    "bounding_box": [
        [
            180, 
            32, 
            358, 
            53
        ], 
        [
            156, 
            137, 
            536, 
            50
        ], 
        [
            203, 
            213, 
            489, 
            54
        ], 
        [
            183, 
            294, 
            509, 
            59
        ], 
        [
            10, 
            368, 
            682, 
            65
        ], 
        [
            380, 
            440, 
            285, 
            50
        ]
    ], 
    "image_height": 540, 
    "image_width": 720, 
    "transcription": [
        "u0645_u062d_u062a_u0648_u0627_u06cc u0020 u0645_u0635_u0627_u062d_u0628_u0647", 
        "u0627_u0631_u0627_u0626_u0647 u0020 u0628_u0631_u0648_u0634_u0648_u0631_u060c u0020 u062c_u0632_u0648_u0647 u0020 u0648 u0020 u002e_u002e_u002e_u000d", 
        "u0634_u0646_u0627_u062e_u062a u0020 u0645_u062e_u0627_u0637_u0628 u0020 u0648 u0020 u0631_u0633_u0627_u0646_u0647_u000d", 
        "u06a9_u0646_u062a_u0631_u0644 u0020 u067e_u06cc_u0627_u0645 u0020 u0647_u0627_u06cc u0020 u063a_u06cc_u0631_u06a9_u0644_u0627_u0645_u06cc_u000d", 
        "u067e_u0627_u0633_u062e_u06af_u0648_u06cc_u06cc u0020 u0628_u0627 u0020 u0635_u0631_u0627_u062d_u062a_u060c u0020 u0645_u0646_u0637_u0642 u0020 u0648_u0020", 
        "u0627_u0639_u062a_u0645_u0627_u062f u0020 u0628_u0647 u0020 u0646_u0641_u0633"
    ]
}