{
    "bounding_box": [
        [
            145, 
            49, 
            483, 
            44
        ], 
        [
            341, 
            170, 
            293, 
            19
        ], 
        [
            248, 
            201, 
            386, 
            20
        ], 
        [
            399, 
            234, 
            234, 
            19
        ], 
        [
            560, 
            266, 
            74, 
            18
        ], 
        [
            505, 
            298, 
            129, 
            20
        ], 
        [
            325, 
            326, 
            302, 
            23
        ]
    ], 
    "image_height": 540, 
    "image_width": 720, 
    "transcription": [
        "u0627_u0644_u062d_u064a_u0627_u0629 u0020 u0627_u0644_u0633_u064a_u0627_u0633_u064a_u0629 u0020 u0641_u064a u0020 u0627_u0644_u0645_u062f_u064a_u0646_u0629 u0020 u0627_u0644_u0625_u0633_u0644_u0627_u0645_u064a_u0629_u0020", 
        "u0625_u0642_u0627_u0645_u0629 u0020 u0646_u0636_u0627_u0645 u0020 u062d_u0643_u0645 u0020 u0628_u0631_u0649_u0627_u0633_u0629 u0020 u0627_u0644_u0627_u0645_u064a_u0631 u0020 u0648 u0020 u0648_u0632_u0631_u0627_u0621_u0647 u0020 u000d", 
        "u0625_u0646_u0634_u0627_u0621 u0020 u0642_u0648_u0627_u0646_u064a_u0646 u0020 u0645_u0642_u062a_u0628_u0633_u0629 u0020 u0645_u0646 u0020 u0627_u0644_u0642_u0631_u0623_u0646 u0020 u0648 u0020 u0627_u0644_u0633_u0646_u0629 u0020 u0648 u0020 u0627_u062c_u062a_u0647_u0627_u062f u0020 u0627_u0644_u0639_u0644_u0645_u0627_u0621_u000d", 
        "u0627_u0644_u062d_u0641_u0627_u0636 u0020 u0648_u0627_u0644_u0632_u064a_u0627_u062f_u0629 u0020 u0645_u0646 u0020 u0642_u0648_u0629 u0020 u0627_u0644_u062c_u064a_u0648_u0634_u000d", 
        "u0633_u0643 u0020 u0627_u0644_u0646_u0642_u0648_u062f_u000d", 
        "u0627_u0644_u062a_u0643_u064a_u0641 u0020 u0627_u0644_u0625_u062c_u062a_u0645_u0627_u0639_u064a_u000d", 
        "u0625_u0642_u0627_u0645_u0629 u0020 u0645_u0628_u0627_u0646_u064a u0020 u0648 u0020 u0645_u0646_u0634_u0623_u0629 u0020 u0636_u062e_u0645_u0629 u0020 u0644_u0644_u062f_u0639_u0627_u064a_u0629 u0020 u0627_u0644_u0633_u064a_u0627_u0633_u064a_u0629"
    ]
}