{
    "bounding_box": [
        [
            210, 
            50, 
            260, 
            22
        ], 
        [
            10, 
            74, 
            460, 
            22
        ], 
        [
            16, 
            99, 
            454, 
            21
        ], 
        [
            55, 
            122, 
            415, 
            22
        ], 
        [
            25, 
            147, 
            445, 
            21
        ], 
        [
            74, 
            170, 
            396, 
            22
        ], 
        [
            47, 
            194, 
            423, 
            22
        ], 
        [
            351, 
            218, 
            119, 
            20
        ], 
        [
            76, 
            243, 
            394, 
            21
        ], 
        [
            89, 
            266, 
            381, 
            21
        ], 
        [
            267, 
            316, 
            203, 
            20
        ], 
        [
            60, 
            362, 
            410, 
            22
        ], 
        [
            42, 
            388, 
            428, 
            20
        ], 
        [
            22, 
            461, 
            448, 
            19
        ], 
        [
            227, 
            484, 
            243, 
            18
        ], 
        [
            73, 
            554, 
            397, 
            22
        ], 
        [
            3, 
            626, 
            467, 
            20
        ], 
        [
            459, 
            666, 
            11, 
            2
        ]
    ], 
    "image_height": 720, 
    "image_width": 540, 
    "transcription": [
        "u0645_u0627 u0020 u0623_u0647_u0645_u064a_u0629 u0020 u0627_u0644_u0643_u064a_u0645_u064a_u0627_u0621 u0020 u0627_u0644_u0639_u0636_u0648_u064a_u0629_u00a0_u0641_u064a u0020 u0627_u0644_u0635_u064a_u062f_u0644_u0629_u061f_u000b", 
        "u0627_u0644_u0643_u064a_u0645_u064a_u0627_u0621 u0020 u0627_u0644_u0639_u0636_u0648_u064a_u0629 u0020 u0647_u064a u0020 u0627_u0633_u0627_u0633 u0020 u0627_u0644_u0635_u064a_u062f_u0644_u0629 u0020 u0644_u0627_u0646 u0020 u062a_u0635_u0645_u064a_u0645 u0020 u0627_u0644_u062f_u0648_u0627_u0621 u0020 u0627_u0648 u0020 u0645_u062d_u0627_u0643_u0627_u0629 u0020 u062f_u0648_u0627_u0621_u0020", 
        "u0637_u0628_u064a_u0639_u064a u0020 u0627_u0648_u00a0_u062a_u062d_u0633_u064a_u0646 u0020 u062f_u0648_u0627_u0621 u0020 u062a_u0639_u062a_u0645_u062f u0020 u0639_u0644_u0649 u0020 u0627_u0644_u0643_u064a_u0645_u0627_u0626_u064a u0020 u0627_u0644_u0639_u0636_u0648_u064a u0020 u0648 u0020 u0645_u062f_u0649 u0020 u0641_u0647_u0645_u0647 u0020 u0644_u0647_u0630_u0647_u0020", 
        "u0627_u0644_u0645_u0627_u062f_u0629 u0020 u002e_u0648 u0020 u0634_u0631_u0643_u0627_u062a u0020 u0627_u0644_u0627_u062f_u0648_u064a_u0629_u00a0_u062a_u062a_u0646_u0627_u0641_u0633 u0020 u0639_u0644_u0649 u0020 u0627_u0633_u062a_u0642_u0637_u0627_u0628 u0020 u0627_u0644_u0627_u0641_u0630_u0627_u0630 u0020 u0645_u0646_u0647_u0645_u002d u0020 u0627_u064a_u0020", 
        "u0627_u0644_u0643_u064a_u0645_u0627_u0626_u064a_u064a_u0646 u0020 u0627_u0644_u0639_u0636_u0648_u064a_u064a_u0646_u002d u0020 u002e_u0628_u0644 u0020 u0627_u0646 u0020 u0639_u0645_u0644 u0020 u0628_u0639_u0636_u0647_u0645 u0020 u064a_u0633_u0627_u0648_u0633_u00a0_u0627_u0644_u0645_u0644_u0627_u064a_u064a_u0646 u0020 u002e_u002e_u002e_u002e_u0641_u0635_u0646_u0639_u0020", 
        "u062f_u0648_u0627_u0621 u0020 u062c_u062f_u064a_u062f_u002d u0020 u0627_u062e_u062a_u0631_u0627_u0639_u002d u0020 u0648 u0020 u0644_u0627_u0633_u064a_u0645_u0627 u0020 u0627_u0644_u0641_u0639_u0627_u0644 u0020 u002e_u002e_u0642_u0644_u064a_u0644 u0020 u0627_u0644_u0627_u0639_u0631_u0627_u0636 u0020 u0627_u0644_u062c_u0627_u0646_u0628_u064a_u0629_u0020", 
        "u0648_u00a0_u0627_u0644_u0645_u0636_u0627_u0639_u0641_u0627_u062a u0020 u064a_u062f_u0631 u0020 u0627_u0644_u0645_u0644_u0627_u064a_u064a_u0646 u0020 u0648 u0020 u064a_u0635_u0646_u0639 u0020 u062b_u0631_u0648_u0627_u062a u0020 u0642_u062f u0020 u062a_u0639_u0627_u062f_u0644 u0020 u0645_u064a_u0632_u0627_u0646_u064a_u0629 u0020 u0627_u0644_u062f_u0648_u0644_u0020", 
        "u0627_u0644_u0646_u0627_u0645_u064a_u0629_u00a0_u062c_u0645_u0639_u0627_u0621_u002e_u002e_u002e_u002e_u002e_u000b", 
        "u0648 u0020 u0647_u0630_u0647 u0020 u0627_u0644_u0639_u0644_u0645 u0020 u0647_u0627_u0645 u0020 u062c_u062f_u0627 u0020 u0648 u0020 u064a_u0639_u0631_u0641 u0020 u002e_u002e_u002e_u0628_u0627_u0633_u0645_u00a0_u0044_u0072_u0075_u0067 u0020 u0064_u0065_u0073_u0069_u0067_u006e u0020 u002e_u002e_u002e_u002e_u002e_u000b", 
        "u0648 u0020 u064a_u0639_u062a_u0645_u062f_u00a0_u0639_u0644_u0649 u0020 u0641_u0647_u0645 u0020 u0627_u0644_u0643_u064a_u0645_u064a_u0627_u0621 u0020 u0627_u0644_u0635_u064a_u062f_u0644_u064a_u0629 u0020 u0648 u0020 u062e_u0627_u0635_u0629_u00a0_u0053_u0041_u0052_u2026_u2026_u002e_u000d", 
        "u0627_u0644_u0645_u0648_u0627_u062f u0020 u0627_u0644_u0628_u062f_u064a_u0644_u0629 u0020 u0644_u0644_u0643_u064a_u0645_u064a_u0627_u0621 u0020 u0641_u064a u0020 u062d_u064a_u0627_u062a_u0646_u0627_u00a0_u000b", 
        "u0031_u002d u0020 u0642_u0634_u0631 u0020 u0627_u0644_u0628_u064a_u0636 u0020 u0627_u0644_u0645_u0643_u0633_u0648_u0631 u0020 u0647_u0648 u0020 u0634_u0643_u0644 u0020 u0645_u0646 u0020 u0623_u0634_u0643_u0627_u0644 u0020 u0643_u0631_u0628_u0648_u0646_u0627_u062a u0020 u0627_u0644_u0643_u0627_u0644_u0633_u064a_u0648_u0645_u0028_u0020", 
        "u0043_u0061_u0043_u004f_u0033_u0029 u0020 u0648_u064a_u0645_u0643_u0646 u0020 u0627_u0633_u062a_u062e_u062f_u0627_u0645_u0647 u0020 u0641_u064a u0020 u0625_u062c_u0631_u0627_u0621 u0020 u0628_u0639_u0636 u0020 u0627_u0644_u062a_u0641_u0627_u0639_u0644_u0627_u062a u0020 u0627_u0644_u0643_u064a_u0645_u064a_u0627_u0626_u064a_u0629 u0020 u002e_u200b_u000d", 
        "u0032_u002d u0020 u0645_u0644_u062d u0020 u0627_u0644_u0637_u0639_u0627_u0645 u0020 u0028 u0020 u004e_u0061_u0043_u006c u0020 u0029 u0020 u0645_u0631_u0643_u0628 u0020 u0643_u064a_u0645_u064a_u0627_u0626_u064a u0020 u064a_u0645_u0643_u0646 u0020 u0627_u0646 u0020 u0646_u0633_u062a_u062e_u062f_u0645_u0647 u0020 u0641_u064a u0020 u0627_u062c_u0631_u0627_u0621_u0020", 
        "u0628_u0639_u0636 u0020 u0627_u0644_u062a_u0641_u0627_u0639_u0644_u0627_u062a u0020 u0648_u0627_u0644_u0638_u0648_u0627_u0647_u0631 u0020 u0627_u0644_u0643_u064a_u0645_u064a_u0627_u0626_u064a_u0629 u0020 u002e_u000b", 
        "u0033_u002d u0020 u0627_u0633_u062a_u062e_u062f_u0627_u0645 u0020 u0641_u0631_u0646 u0020 u0627_u0644_u0645_u0637_u0628_u062e u0020 u0627_u0648 u0020 u0634_u0645_u0639_u0629 u0020 u0644_u0644_u062a_u0633_u062e_u064a_u0646 u0020 u0628_u062f_u0644_u0627_u064b u0020 u0645_u0646 u0020 u0645_u0648_u0642_u062f u0020 u0628_u0646_u0633_u0646_u002e_u000b", 
        "u0034_u002d u0020 u064a_u0645_u0643_u0646 u0020 u0627_u0633_u062a_u0639_u0645_u0627_u0644 u0020 u0639_u0644_u0628 u0020 u0627_u0644_u0645_u0631_u0628_u0649 u0020 u0627_u0648 u0020 u0627_u0644_u0639_u0633_u0644 u0020 u0627_u0644_u0635_u063a_u064a_u0631_u0629 u0020 u0628_u062f_u0644_u0627_u064b u0020 u0645_u0646 u0020 u0623_u0646_u0627_u0628_u064a_u0628 u0020 u0627_u0644_u0627_u062e_u062a_u0628_u0627_u0631_u0020", 
        "u002e_u000b"
    ]
}