{
    "bounding_box": [
        [
            174, 
            152, 
            368, 
            66
        ], 
        [
            49, 
            244, 
            619, 
            63
        ], 
        [
            315, 
            318, 
            107, 
            48
        ]
    ], 
    "image_height": 540, 
    "image_width": 720, 
    "transcription": [
        "u0647_u062c_u0645_u0627_u062a u0020 u0627_u0644_u0623_u0639_u062f_u0627_u0621_u000d", 
        "u0627_u0644_u0647_u062c_u0648_u0645 u0020 u0639_u0644_u0649 u0020 u0627_u0644_u0634_u0628_u0643_u0627_u062a u0020 u0628_u063a_u0631_u0636_u0020", 
        "u0627_u0644_u0646_u0641_u0627_u0630"
    ]
}