{
    "bounding_box": [
        [
            32, 
            107, 
            640, 
            32
        ], 
        [
            32, 
            147, 
            640, 
            28
        ], 
        [
            32, 
            179, 
            640, 
            31
        ], 
        [
            391, 
            219, 
            281, 
            25
        ], 
        [
            32, 
            261, 
            640, 
            28
        ], 
        [
            476, 
            293, 
            196, 
            32
        ], 
        [
            32, 
            339, 
            662, 
            28
        ], 
        [
            410, 
            373, 
            262, 
            27
        ], 
        [
            21, 
            503, 
            15, 
            10
        ], 
        [
            198, 
            500, 
            58, 
            9
        ]
    ], 
    "image_height": 540, 
    "image_width": 720, 
    "transcription": [
        "u0031_u0032 u0020 u005f u0020 u062f_u0631 u0020 u0641_u0631_u0647_u0646_u06af u0020 u0643_u0646_u0648_u0646_u064a u0020 u0633_u0631_u0648_u064a_u0633 u0020 u062f_u0647_u064a u0020 u060c u0020 u062a_u0646_u0647_u0627 u0020 u062a_u0627_u0645_u064a_u0646 u0020 u0627_u0646_u062a_u0638_u0627_u0631_u0627_u062a_u0020", 
        "u0645_u0634_u062a_u0631_u064a u0020 u0643_u0627_u0641_u064a u0020 u0646_u064a_u0633_u062a u0020 u060c u0020 u0628_u0644_u0643_u0647 u0020 u0628_u0631_u0627_u064a u0020 u067e_u064a_u0634_u0631_u0648 u0020 u0628_u0648_u062f_u0646 u0020 u062f_u0631 u0020 u0635_u0646_u0639_u062a u0020 u0636_u0631_u0648_u0631_u064a_u0020", 
        "u0627_u0633_u062a u0020 u0643_u0647 u0020 u0634_u0645_u0627 u0020 u0627_u0632 u0020 u0627_u0646_u062a_u0638_u0627_u0631_u0627_u062a u0020 u0622_u0646_u0627_u0646 u0020 u0642_u062f_u0645 u0020 u0641_u0631_u0627_u062a_u0631 u0020 u06af_u0630_u0627_u0634_u062a_u0647 u0020 u0648 u0020 u0645_u0634_u062a_u0631_u064a_u0627_u0646 u0020 u062e_u0648_u062f_u0020", 
        "u0631_u0627 u0020 u0645_u062a_u062d_u064a_u0631 u0020 u0648 u0020 u0645_u062c_u0630_u0648_u0628 u0020 u0646_u0645_u0627_u064a_u064a_u062f u0020 u002e_u00a0_u000d", 
        "u0031_u0033 u0020 u005f u0020 u0627_u0632 u0020 u0627_u0631_u0643_u0627_u0646 u0020 u0645_u0647_u0645 u0020 u0641_u0639_u0627_u0644_u064a_u062a_u0647_u0627_u064a u0020 u062a_u062c_u0627_u0631_u064a u0020 u062a_u0627_u0645_u064a_u0646 u0020 u0631_u0636_u0627_u064a_u062a u0020 u0645_u0634_u062a_u0631_u064a_u0020", 
        "u0645_u062d_u0633_u0648_u0628 u0020 u0645_u064a u0020 u06af_u0631_u062f_u062f u0020 u002e_u000d", 
        "u00a0_u0031_u0034 u0020 u005f u0020 u0631_u0636_u0627_u064a_u062a u0020 u0645_u0634_u062a_u0631_u064a u0020 u064a_u0639_u0646_u064a u0020 u062a_u0627_u0645_u064a_u0646 u0020 u0646_u064a_u0627_u0632_u0647_u0627_u064a u0020 u0648_u064a u0020 u062f_u0631 u0020 u0632_u0645_u0627_u0646 u0020 u0645_u0646_u0627_u0633_u0628 u0020 u0648_u0020", 
        "u0628_u0627 u0020 u0642_u064a_u0645_u062a u0020 u062a_u0645_u0627_u0645 u0020 u0634_u062f_u0647 u0020 u0645_u0646_u0627_u0633_u0628 u0020 u002e u0020 u000d", 
        "u0037_u0030", 
        "u0041_u002e_u0045_u0062_u0072_u0061_u0068_u0069_u006d_u0069"
    ]
}