{
    "bounding_box": [
        [
            174, 
            84, 
            458, 
            43
        ], 
        [
            72, 
            138, 
            560, 
            47
        ], 
        [
            57, 
            197, 
            575, 
            45
        ], 
        [
            25, 
            253, 
            607, 
            43
        ], 
        [
            491, 
            312, 
            142, 
            36
        ], 
        [
            104, 
            365, 
            529, 
            51
        ], 
        [
            132, 
            426, 
            500, 
            47
        ], 
        [
            292, 
            480, 
            340, 
            48
        ]
    ], 
    "image_height": 540, 
    "image_width": 720, 
    "transcription": [
        "u0648_u0628_u062e_u0635_u0648_u0635 u0020 u0645 u0020 u062a u0020 u0641 u0020 u0641_u0642_u062f u0020 u0643_u0627_u0646_u062a_u0020", 
        "u0645_u0624_u0633_u0633_u0627_u062a_u0647_u0627 u0020 u0627_u0644_u0642_u064a_u0627_u062f_u064a_u0629 u0020 u062a_u062a_u0634_u0643_u0644 u0020 u0628_u0627_u0644_u062a_u0648_u0627_u0641_u0642 u0020 u0641_u064a_u0020", 
        "u0627_u0644_u0628_u062f_u0627_u064a_u0629_u002c u0020 u0644_u0643_u0646 u0020 u0628_u0639_u062f u0020 u0630_u0644_u0643 u0020 u062a_u0645_u0643_u0646 u0020 u0631_u0626_u064a_u0633 u0020 u0645 u0020 u062a_u0020", 
        "u0641 u0020 u0645_u0646 u0020 u0641_u0631_u0636 u0020 u0625_u0631_u0627_u062f_u062a_u0647 u0020 u0639_u0644_u0649 u0020 u0628_u0642_u064a_u0629 u0020 u0645_u0624_u0633_u0633_u0627_u062a_u0020", 
        "u0627_u0644_u0645_u0646_u0638_u0645_u0629_u002e_u000d", 
        "u0648_u0641_u064a u0020 u0627_u0644_u0633_u0646_u0648_u0627_u062a u0020 u0627_u0644_u0623_u062e_u064a_u0631_u0629 u0020 u062a_u0643_u062b_u0631 u0020 u0645_u0637_u0627_u0644_u0628_u0020", 
        "u0625_u0639_u0627_u062f_u0629 u0020 u0628_u0646_u0627_u0621 u0020 u0648_u0625_u0635_u0644_u0627_u062d u0020 u0627_u0644_u0645_u0646_u0638_u0645_u0629 u0020 u0639_u0628_u0631_u0020", 
        "u0627_u0644_u0627_u0646_u062a_u062e_u0627_u0628_u0627_u062a_u002c u0020 u0623_u0648 u0020 u0627_u0644_u062a_u0648_u0627_u0641_u0642_u002e"
    ]
}