{
    "bounding_box": [
        [
            247, 
            495, 
            213, 
            27
        ], 
        [
            31, 
            55, 
            655, 
            29
        ], 
        [
            152, 
            90, 
            534, 
            29
        ], 
        [
            31, 
            156, 
            655, 
            30
        ], 
        [
            31, 
            187, 
            655, 
            31
        ], 
        [
            31, 
            224, 
            655, 
            29
        ], 
        [
            31, 
            257, 
            655, 
            30
        ], 
        [
            31, 
            289, 
            655, 
            31
        ], 
        [
            194, 
            325, 
            492, 
            27
        ], 
        [
            31, 
            391, 
            655, 
            28
        ], 
        [
            31, 
            427, 
            655, 
            28
        ], 
        [
            333, 
            459, 
            354, 
            29
        ], 
        [
            358, 
            492, 
            328, 
            16
        ]
    ], 
    "image_height": 540, 
    "image_width": 720, 
    "transcription": [
        "u062f_u002e u0020 u062a_u063a_u0631_u064a_u062f u0020 u0639_u0628_u062f u0020 u0627_u0644_u0641_u062a_u0627_u062d u0020 u0627_u0644_u0631_u062d_u064a_u0644_u064a", 
        "u062c_u0627_u0621_u062a u0020 u00a0_u0627_u0644_u0633_u0639_u0648_u062f_u064a_u0629 u0020 u0645_u0646 u0020 u0623_u0643_u062b_u0631 u0020 u062f_u0648_u0644 u0020 u0645_u0646_u0637_u0642_u0629 u0020 u0627_u0644_u0634_u0631_u0642 u0020 u0627_u0644_u0623_u0648_u0633_u0637 u0020 u0648_u062a_u0631_u0643_u064a_u0627 u0020 u0648_u0623_u0641_u0631_u064a_u0642_u064a_u0627_u0020", 
        "u0627_u0633_u062a_u0647_u062f_u0627_u0641_u0627_u064b u0020 u0628_u0627_u0644_u062a_u0647_u062f_u064a_u062f_u0627_u062a u0020 u0627_u0644_u0625_u0644_u0643_u062a_u0631_u0648_u0646_u064a_u0629 u0020 u0644_u0623_u0645_u0646 u0020 u0627_u0644_u0634_u0631_u0643_u0627_u062a u0020 u0641_u064a u0020 u0627_u0644_u0645_u0646_u0637_u0642_u0629_u002e u0020 u000d", 
        "u0648_u0623_u0648_u0636_u062d u0020 u062a_u0642_u0631_u064a_u0631 u0020 u0623_u0635_u062f_u0631_u062a_u0647 u0020 u0625_u062d_u062f_u0649 u0020 u0627_u0644_u0634_u0631_u0643_u0627_u062a u0020 u0627_u0644_u0645_u062a_u062e_u0635_u0635_u0629 u0020 u0641_u064a u0020 u0645_u062c_u0627_u0644 u0020 u0645_u0643_u0627_u0641_u062d_u0629_u0020", 
        "u0627_u0644_u0642_u0631_u0635_u0646_u0629 u0020 u0627_u0644_u0625_u0644_u0643_u062a_u0631_u0648_u0646_u064a_u0629 u0020 u0623_u0646 u0020 u0627_u0644_u0633_u0639_u0648_u062f_u064a_u0629 u0020 u062a_u0635_u062f_u0631_u062a u0020 u0627_u0644_u0642_u0627_u0626_u0645_u0629 u0020 u0645_u0646 u0020 u0636_u0645_u0646 u0020 u062e_u0645_u0633 u0020 u062f_u0648_u0644_u0020", 
        "u0641_u064a u0020 u0639_u062f_u062f u0020 u0647_u062c_u0645_u0627_u062a u0020 u0627_u0644_u0642_u0631_u0635_u0646_u0629 u0020 u0627_u0644_u0625_u0644_u0643_u062a_u0631_u0648_u0646_u064a_u0629 u0020 u0627_u0644_u0645_u062a_u0642_u062f_u0645_u0629 u0020 u0628_u0646_u0633_u0628_u0629_u00a0_u0033_u0030_u0025_u060c_u00a0_u0645_u0646 u0020 u0625_u062c_u0645_u0627_u0644_u064a_u0020", 
        "u0639_u062f_u062f u0020 u0627_u0644_u0647_u062c_u0645_u0627_u062a u0020 u0627_u0644_u0645_u0633_u062c_u0644_u0629 u0020 u0641_u064a u0020 u0627_u0644_u0646_u0635_u0641 u0020 u0627_u0644_u0623_u0648_u0644 u0020 u0645_u0646 u0020 u0627_u0644_u0639_u0627_u0645_u00a0_u0032_u0030_u0031_u0034_u060c_u00a0_u062a_u0644_u062a_u0647_u0627 u0020 u0645_u0628_u0627_u0634_u0631_u0629_u0020", 
        "u062a_u0631_u0643_u064a_u0627 u0020 u0628_u0646_u0633_u0628_u0629_u00a0_u0032_u0039_u002e_u0035_u0025_u060c_u00a0_u0641_u0642_u0637_u0631 u0020 u0628_u0646_u0633_u0628_u0629_u00a0_u0031_u0036_u0025_u060c_u00a0_u062b_u0645 u0020 u0627_u0644_u0625_u0645_u0627_u0631_u0627_u062a_u0020", 
        "u0628_u0646_u0633_u0628_u0629_u00a0_u0037_u002e_u0031_u0025_u060c_u00a0_u0641_u064a_u0645_u0627 u0020 u062d_u0644_u062a u0020 u0627_u0644_u0643_u0648_u064a_u062a u0020 u062e_u0627_u0645_u0633_u0627_u064b u0020 u0628_u0646_u0633_u0628_u0629_u00a0_u0036_u002e_u0034_u0025_u002e_u000d", 
        "u0648_u0623_u0643_u062f u0020 u0627_u0644_u062a_u0642_u0631_u064a_u0631 u0020 u0623_u0646 u0020 u0627_u0644_u062e_u062f_u0645_u0627_u062a u0020 u0627_u0644_u062d_u0643_u0648_u0645_u064a_u0629 u0020 u0648_u0627_u0644_u0645_u0627_u0644_u064a_u0629 u0020 u0643_u0627_u0646_u062a u0020 u0645_u0646 u0020 u0623_u0643_u062b_u0631 u0020 u0627_u0644_u0623_u0647_u062f_u0627_u0641_u0020", 
        "u0627_u0644_u0631_u0626_u064a_u0633_u064a_u0629 u0020 u0644_u062a_u0644_u0643 u0020 u0627_u0644_u0647_u062c_u0645_u0627_u062a_u060c u0020 u0625_u0630 u0020 u062a_u0639_u0631_u0636_u062a u0020 u0644_u0623_u0643_u062b_u0631 u0020 u0645_u0646_u00a0_u0035_u0030_u0025_u00a0_u0645_u0646 u0020 u0625_u062c_u0645_u0627_u0644_u064a u0020 u062d_u0627_u0644_u0627_u062a_u0020", 
        "u0627_u0644_u062a_u0647_u062f_u064a_u062f u0020 u0627_u0644_u0645_u062a_u0642_u062f_u0645_u0629 u0020 u0627_u0644_u062b_u0627_u0628_u062a_u0629 u0020 u0627_u0644_u062a_u064a u0020 u062a_u0645 u0020 u0631_u0635_u062f_u0647_u0627_u002e_u000d", 
        "u0627_u0644_u0645_u0631_u062c_u0639_u003a u0020 u0068_u0074_u0074_u0070_u003a_u002f_u002f_u0077_u0077_u0077_u002e_u006d_u0062_u0063_u002e_u006e_u0065_u0074_u002f_u0061_u0072_u002f_u0070_u0072_u006f_u0067_u0072_u0061_u006d_u0073_u002f_u0061_u006c_u0074_u0068_u0061_u006d_u0065_u006e_u0061_u0020"
    ]
}