{
    "bounding_box": [
        [
            374, 
            43, 
            308, 
            34
        ], 
        [
            52, 
            82, 
            630, 
            34
        ], 
        [
            89, 
            122, 
            593, 
            32
        ], 
        [
            277, 
            157, 
            405, 
            34
        ], 
        [
            96, 
            198, 
            586, 
            30
        ], 
        [
            97, 
            236, 
            585, 
            32
        ], 
        [
            53, 
            274, 
            629, 
            34
        ], 
        [
            88, 
            313, 
            594, 
            33
        ], 
        [
            535, 
            353, 
            147, 
            31
        ], 
        [
            76, 
            390, 
            606, 
            33
        ], 
        [
            77, 
            427, 
            604, 
            33
        ]
    ], 
    "image_height": 540, 
    "image_width": 720, 
    "transcription": [
        "u062b_u0627_u0646_u064a_u0627 u0020 u003a u0020 u0627_u0644_u0625_u0636_u0627_u0641_u0629 u0020 u063a_u064a_u0631 u0020 u0627_u0644_u0645_u062d_u0636_u0629_u002e u0020 u000d", 
        "u0020 u0020 u0020 u0020 u0020_u0648_u062a_u0633_u0645_u0649 u0020 u0628_u0627_u0644_u0625_u0636_u0627_u0641_u0629 u0020 u0627_u0644_u0644_u0641_u0638_u064a_u0629 u0020 u060c u0020 u0648_u0647_u064a u0020 u0645_u0627 u0020 u0644_u0627 u0020 u062a_u0641_u064a_u062f u0020 u0627_u0644_u0645_u0636_u0627_u0641 u0020 u062a_u0639_u0631_u064a_u0641_u0627_u0020", 
        "u0648_u0644_u0627 u0020 u062a_u062e_u0635_u064a_u0635_u0627 u0020 u060c u0020 u0648_u0625_u0646_u0645_u0627 u0020 u064a_u0643_u0648_u0646 u0020 u0627_u0644_u063a_u0631_u0636 u0020 u0645_u0646_u0647_u0627 u0020 u0627_u0644_u062a_u062e_u0641_u064a_u0641 u0020 u0641_u064a u0020 u0627_u0644_u0644_u0641_u0638_u0020", 
        "u0628_u062d_u0630_u0641 u0020 u0627_u0644_u062a_u0646_u0648_u064a_u0646 u0020 u0623_u0648 u0020 u0646_u0648_u0646_u064a u0020 u0627_u0644_u062a_u062b_u0646_u064a_u0629 u0020 u0648_u0627_u0644_u062c_u0645_u0639 u0020 u002e_u000d", 
        "u0020 u0020 u0020_u0648_u0636_u0627_u0628_u0637 u0020 u0627_u0644_u0625_u0636_u0627_u0641_u0629 u0020 u0627_u0644_u0644_u0641_u0638_u064a_u0629 u0020 u003a u0020 u0623_u0646 u0020 u064a_u0643_u0648_u0646 u0020 u0627_u0644_u0645_u0636_u0627_u0641 u0020 u0641_u064a_u0647_u0627 u0020 u0648_u0635_u0641_u0627_u0020", 
        "u0639_u0627_u0645_u0644_u0627 u0020 u0645_u0636_u0627_u0641_u0627 u0020 u0644_u0645_u0639_u0645_u0648_u0644_u0647 u0020 u060c u0020 u0648_u0645_u0639_u0646_u0649 u0020 u0627_u0644_u0648_u0635_u0641 u0020 u0627_u0644_u0639_u0627_u0645_u0644 u0020 u0647_u0648 u0020 u0627_u0644_u0645_u0634_u0628_u0647_u0020", 
        "u0644_u0644_u0641_u0639_u0644 u0020 u0627_u0644_u0645_u0636_u0627_u0631_u0639 u0020 u0641_u064a u0020 u0627_u0644_u0639_u0645_u0644 u0020 u060c u0020 u0648_u0641_u064a u0020 u0627_u0644_u062f_u0644_u0627_u0644_u0629 u0020 u0639_u0644_u0649 u0020 u0627_u0644_u062d_u0627_u0644 u0020 u0648_u0627_u0644_u0627_u0633_u062a_u0642_u0628_u0627_u0644_u002e_u000d", 
        "u0645_u062b_u0627_u0644_u0647 u0020 u003a u0020 u0028_u0647_u0630_u0627 u0020 u0636_u0627_u0631_u0628_u064f u0020 u0632_u064a_u062f_u064d u0020 u0627_u0644_u0622_u0646_u0029 u0020 u060c u0020 u0028_u0647_u0630_u0627 u0020 u0645_u0636_u0631_u0648_u0628 u0020 u0627_u0644_u0623_u0628_u0650_u0029 u0020 u060c_u0028_u0647_u0630_u0627_u0020", 
        "u062d_u0633_u0646 u0020 u0627_u0644_u0648_u062c_u0647_u0029_u002e_u000d", 
        "u0020 u0020 u0020 u0020 u0648_u0647_u064a u0020 u0644_u0627 u0020 u062a_u0641_u064a_u062f u0020 u062a_u062e_u0635_u064a_u0635_u0627 u0020 u0623_u0648 u0020 u062a_u0639_u0631_u064a_u0641_u0627 u0020 u0628_u0644 u0020 u062a_u0628_u0642_u0649 u0020 u0639_u0644_u0649 u0020 u062d_u0627_u0644_u0647_u0627 u0020 u0646_u0643_u0631_u0629_u0020", 
        "u062d_u062a_u0649 u0020 u0648_u0625_u0646 u0020 u0643_u0627_u0646 u0020 u0627_u0644_u0645_u0636_u0627_u0641 u0020 u0645_u0639_u0631_u0641_u0629 u0020 u0648_u0627_u0644_u062f_u0644_u064a_u0644 u0020 u0639_u0644_u0649 u0020 u0630_u0644_u0643 u0020 u0623_u0645_u0648_u0631 u0020 u0645_u0646_u0647_u0627 u0020 u003a_u000d"
    ]
}