{
    "bounding_box": [
        [
            13, 
            39, 
            685, 
            28
        ], 
        [
            13, 
            88, 
            658, 
            30
        ], 
        [
            13, 
            137, 
            658, 
            32
        ], 
        [
            474, 
            192, 
            197, 
            27
        ], 
        [
            13, 
            247, 
            658, 
            28
        ], 
        [
            91, 
            298, 
            580, 
            29
        ], 
        [
            13, 
            356, 
            658, 
            28
        ], 
        [
            398, 
            406, 
            272, 
            28
        ], 
        [
            131, 
            463, 
            457, 
            28
        ]
    ], 
    "image_height": 540, 
    "image_width": 720, 
    "transcription": [
        "u0627_u0646_u0637_u0644_u0627_u0642_u0627 u0020 u0645_u0646 u0020 u0647_u0630_u0647 u0020 u0627_u0644_u0645_u0639_u0637_u064a_u0627_u062a u0020 u062e_u0644_u0635_u062a u0020 u0627_u0644_u062f_u0631_u0627_u0633_u0629 u0020 u0627_u0644_u0633_u0627_u0628_u0642_u0629 u0020 u0625_u0644_u0649 u0020 u0641_u0631_u0636_u064a_u0629 u0020 u0631_u0628_u0637 u0020 u0639_u0644_u0627_u0642_u0629_u0020", 
        "u0648_u0637_u064a_u062f_u0629 u0020 u0628_u064a_u0646 u0020 u0627_u0644_u062a_u0648_u062d_u062f u0020 u0648_u0646_u0638_u0631_u064a_u0629 u0020 u0627_u0644_u0630_u0647_u0646 u0020 u0028_u0627_u0644_u0625_u0639_u062a_u0642_u0627_u062f u0020 u0627_u0644_u062e_u0627_u0637_u0626_u0029_u060c u0020 u0648_u0627_u0639_u062a_u0628_u0627_u0631_u0647_u0627 u0020 u0639_u062c_u0632_u0020", 
        "u062e_u0627_u0635 u0020 u0648_u0623_u0648_u0644_u064a u0020 u0644_u062f_u064a_u0647_u0645_u060c u0020 u0648_u0647_u0630_u0627 u0020 u0645_u0627 u0020 u064a_u0641_u0633_u0631 u0020 u0627_u0644_u062b_u0644_u0627_u062a_u064a u0020 u0627_u0644_u0627_u0648_u062a_u064a_u0632_u0645_u064a u0020 u0028_u0627_u0644_u0644_u063a_u0629_u060c u0020 u0627_u0644_u062a_u0641_u0627_u0639_u0644_u0020", 
        "u0627_u0644_u0625_u062c_u062a_u0645_u0627_u0639_u064a_u060c u0020 u0627_u0644_u0633_u0644_u0648_u0643_u0029_u002e_u000d", 
        "u0627_u0644_u0633_u0644_u0648_u0643_u003a u0020 u062a_u0646_u0639_u0643_u0633 u0020 u0646_u0638_u0631_u064a_u0629 u0020 u0627_u0644_u0630_u0647_u0646 u0020 u0639_u0644_u0649 u0020 u0627_u0644_u0633_u0644_u0648_u0643 u0020 u0641_u064a u0020 u0643_u0648_u0646 u0020 u0627_u0644_u0637_u0641_u0644 u0020 u0627_u0644_u062a_u0648_u062d_u062f_u064a u0020 u0644_u0627_u0020", 
        "u064a_u0645_u0646_u062d u0020 u0645_u0639_u0646_u0649 u0020 u0644_u0646_u062a_u0627_u0626_u062c u0020 u0633_u0644_u0648_u0643_u0647 u0020 u0639_u0644_u0649 u0020 u0627_u0644_u063a_u064a_u0631 u0020 u060c u0020 u0648_u0644_u0627_u064a_u0639_u064a u0020 u0646_u062a_u0627_u0626_u062c_u0647 u0020 u0639_u0644_u0649 u0020 u0627_u0644_u0622_u062e_u0631_u002e_u000d", 
        "u0627_u0644_u0644_u063a_u0629_u003a u0020 u0644_u0627 u0020 u064a_u0641_u0647_u0645 u0020 u0627_u0644_u0637_u0641_u0644 u0020 u0627_u0644_u062a_u0648_u062d_u062f_u064a u0020 u0645_u0639_u0646_u0649 u0020 u0631_u0633_u0627_u0644_u062a_u0647 u0020 u0623_u0648 u0020 u0631_u0633_u0627_u0644_u0629 u0020 u0627_u0644_u063a_u064a_u0631 u0020 u0648_u0627_u0644_u062e_u0644_u0641_u064a_u0629_u0020", 
        "u0627_u0644_u0641_u0643_u0631_u064a_u0629 u0020 u0648_u0631_u0627_u0621 u0020 u0627_u0644_u0631_u0633_u0627_u0644_u0629_u0028_u0627_u0644_u063a_u0627_u064a_u0629_u0029_u002e_u000d", 
        "u0643_u0644 u0020 u0630_u0644_u0643 u0020 u0633_u064a_u0624_u062b_u0631 u0020 u0645_u0628_u0627_u0634_u0631_u0629 u0020 u0639_u0644_u0649 u0020 u0627_u0644_u062a_u0641_u0627_u0639_u0644 u0020 u0627_u0644_u0627_u062c_u062a_u0645_u0627_u0639_u064a_u002e_u0028_u0034_u0029"
    ]
}