{
    "bounding_box": [
        [
            433, 
            41, 
            251, 
            39
        ], 
        [
            108, 
            88, 
            576, 
            41
        ], 
        [
            50, 
            135, 
            634, 
            37
        ], 
        [
            59, 
            182, 
            624, 
            43
        ], 
        [
            60, 
            231, 
            624, 
            42
        ], 
        [
            54, 
            281, 
            630, 
            40
        ], 
        [
            138, 
            326, 
            546, 
            43
        ], 
        [
            73, 
            376, 
            611, 
            39
        ], 
        [
            131, 
            423, 
            553, 
            41
        ]
    ], 
    "image_height": 540, 
    "image_width": 720, 
    "transcription": [
        "u0627_u0644_u0633_u064a_u0631_u0629 u0020 u0648 u0020 u0627_u0644_u0642_u0635_u0635_u003a_u000d", 
        "u0625_u064a_u062c_u0627_u062f u0020 u0646_u0645_u0648_u0630_u062c u0020 u062a_u0637_u0628_u064a_u0642_u064a u0020 u0648 u0020 u0645_u062b_u0627_u0644 u0020 u0648_u0627_u0636_u062d u0020 u0645_u0646 u0020 u062e_u0644_u0627_u0644_u0020", 
        "u0627_u0644_u0645_u0648_u0627_u0642_u0641 u0020 u0627_u0644_u0633_u0644_u0648_u0643_u064a_u0629 u0020 u0648 u0020 u0627_u0644_u0639_u0645_u0644_u064a_u0629 u0020 u0645_u0646 u0020 u0627_u0644_u0633_u064a_u0631_u0629 u0020 u0627_u0644_u0646_u0628_u0648_u064a_u0629 u0020 u0648_u0020", 
        "u0627_u0644_u0642_u0635_u0635 u0020 u0627_u0644_u0642_u0631_u0621_u0627_u0646_u064a u0020 u002c u0020 u0648 u0020 u0646_u0645_u0648_u0630_u062c_u0627 u0020 u062a_u0637_u0628_u064a_u0642_u064a_u0627 u0020 u0644_u0644_u0623_u062e_u0644_u0627_u0642 u0020 u0648_u0020", 
        "u0627_u0644_u0633_u0644_u0648_u0643 u0020 u0641_u064a u0020 u0627_u0644_u062d_u064a_u0627_u0629 u0020 u0627_u0644_u064a_u0648_u0645_u064a_u0629 u0020 u0644_u0644_u0645_u062a_u0639_u0644_u0645 u0020 u002c_u0648 u0020 u0644_u062a_u062d_u0642_u064a_u0642 u0020 u0647_u0630_u0627_u0020", 
        "u0644_u0647 u0020 u064a_u062a_u0645 u0020 u0627_u0644_u062a_u0639_u0631_u0641 u0020 u0639_u0644_u0649 u0020 u0645_u062d_u0637_u0627_u062a u0020 u0645_u0646 u0020 u0633_u064a_u0631_u0629 u0020 u0627_u0644_u0646_u0628_u064a u0020 u0635_u0644_u0649_u0020", 
        "u0627_u0644_u0644_u0647 u0020 u0639_u0644_u064a_u0647 u0020 u0648 u0020 u0633_u0644_u0645 u0020 u062d_u0641_u0638_u0647 u0020 u0644_u0644_u062d_u0642_u0648_u0642 u0020 u002c_u0645_u0648_u0627_u0642_u0641_u0647 u0020 u0641_u064a_u0020", 
        "u0627_u0644_u0634_u0648_u0631_u0649_u002c_u0648 u0020 u0627_u0644_u0633_u0644_u0645 u0020 u002c_u0627_u0644_u0627_u0642_u062a_u062f_u0627_u0621 u0020 u0628_u0647 u0020 u002c_u0648 u0020 u0645_u0648_u0627_u0642_u0641 u0020 u0645_u062e_u062a_u0627_u0631_u0629_u0020", 
        "u0645_u0646 u0020 u0642_u0635_u062a_u064a u0020 u0645_u0648_u0633_u0649 u0020 u0648 u0020 u0639_u064a_u0633_u0649 u0020 u0639_u0644_u064a_u0647_u0645_u0627 u0020 u0627_u0644_u0633_u0644_u0627_u0645 u0020 u002e_u0020"
    ]
}