{
    "bounding_box": [
        [
            64, 
            25, 
            647, 
            32
        ], 
        [
            40, 
            59, 
            643, 
            33
        ], 
        [
            5, 
            94, 
            678, 
            33
        ], 
        [
            91, 
            128, 
            592, 
            32
        ], 
        [
            562, 
            163, 
            121, 
            33
        ], 
        [
            19, 
            201, 
            692, 
            38
        ], 
        [
            50, 
            241, 
            633, 
            33
        ], 
        [
            433, 
            275, 
            250, 
            29
        ], 
        [
            93, 
            318, 
            618, 
            34
        ], 
        [
            46, 
            360, 
            665, 
            35
        ], 
        [
            15, 
            396, 
            648, 
            33
        ], 
        [
            351, 
            431, 
            313, 
            29
        ]
    ], 
    "image_height": 540, 
    "image_width": 720, 
    "transcription": [
        "u0031_u002e_u0627_u062e_u062a_u0644_u0627_u0641 u0020 u062a_u0641_u0636_u064a_u0644_u0627_u062a u0020 u0627_u0644_u0642_u0637_u0627_u0639 u0020 u0627_u0644_u0639_u0627_u0626_u0644_u064a u0020 u0628_u064a_u0646 u0020 u0627_u0644_u0627_u0633_u062a_u0647_u0644_u0627_u0643 u0020 u0627_u0644_u062d_u0627_u0644_u064a_u0020", 
        "u0648_u0627_u0644_u0627_u0633_u062a_u0647_u0644_u0627_u0643 u0020 u0627_u0644_u0645_u0633_u062a_u0642_u0628_u0644_u064a_u060c u0020 u0645_u062b_u0627_u0644 u0020 u0639_u0644_u0649 u0020 u0645_u0639_u062f_u0644 u0020 u0641_u0627_u0626_u062f_u0629 u0020 u0037_u0025 u0020 u060c u0020 u064a_u0648_u062c_u062f_u0020", 
        "u0646_u0648_u0639_u064a_u0646 u0020 u0645_u0646 u0020 u0627_u0644_u0642_u0637_u0627_u0639 u0020 u0028_u0627_u0644_u0627_u062f_u062e_u0627_u0631_u060c u0020 u0627_u0644_u0627_u0642_u062a_u0631_u0627_u0636_u0029 u0020 u0641_u0642_u0637_u0627_u0639 u0020 u0627_u0644_u0627_u062f_u062e_u0627_u0631 u0020 u064a_u0632_u064a_u062f_u0020", 
        "u0627_u0633_u062a_u0647_u0644_u0627_u0643_u0647 u0020 u0627_u0627_u0644_u0645_u0633_u062a_u0642_u0628_u0644_u064a u0020 u0628_u064a_u0646_u0645_u0627 u0020 u0627_u0644_u0645_u0642_u062a_u0631_u0636 u0020 u064a_u062e_u0641_u0636 u0020 u0627_u0633_u062a_u0647_u0644_u0627_u0643_u0647_u0020", 
        "u0627_u0644_u0645_u0633_u062a_u0642_u0628_u0644_u064a_u002e_u000d", 
        "u0032_u002e u0020 u0020_u0648_u062c_u0648_u062f u0020 u0627_u0631_u0628_u0627_u062d u0020 u063a_u064a_u0631 u0020 u0639_u0627_u062f_u064a_u0629_u003a u0020 u0628_u0645_u0639_u0646_u064a u0020 u0623_u0646 u0020 u0639_u0627_u0626_u062f u0020 u0627_u0644_u0627_u0633_u062a_u062b_u0645_u0627_u0631_u0627_u062a u0020 u062a_u0632_u064a_u062f_u0020", 
        "u0639_u0644_u0649 u0020 u062a_u0643_u0627_u0644_u064a_u0641 u0020 u0639_u0646_u0627_u0635_u0631 u0020 u0627_u0644_u0627_u0646_u062a_u0627_u062c u0020 u0648_u0643_u0630_u0644_u0643 u0020 u0627_u0644_u0641_u0627_u0626_u062f_u0629 u0020 u0627_u0644_u0645_u062f_u0641_u0648_u0639_u0629 u0020 u0639_u0644_u0649_u0020", 
        "u0631_u0627_u0633 u0020 u0627_u0644_u0645_u0627_u0644 u0020 u0627_u0644_u0645_u0642_u062a_u0631_u0636_u002e_u000d", 
        "u0020_u0627_u0644_u0645_u0641_u0627_u0636_u0644_u0629 u0020 u0628_u064a_u0646 u0020 u0627_u0644_u0627_u0633_u062a_u0647_u0644_u0627_u0643 u0020 u0627_u0644_u062d_u0627_u0644_u064a u0020 u0648_u0627_u0644_u0627_u0633_u062a_u0647_u0644_u0627_u0643 u0020 u0627_u0644_u0645_u0633_u062a_u0642_u0628_u0644_u064a_u003a_u000d", 
        "u064a_u0639_u062a_u0628_u0631 u0020 u0645_u0639_u062f_u0644 u0020 u0627_u0644_u0641_u0627_u0626_u062f_u0629 u0020 u0627_u0644_u0633_u0627_u0626_u062f u0020 u0641_u0649 u0020 u0627_u0644_u0633_u0648_u0642 u0020 u0647_u0648 u0020 u0627_u0633_u0627_u0633 u0020 u0627_u0644_u0645_u0641_u0627_u0636_u0644_u0629 u0020 u0628_u064a_u0646_u0020", 
        "u0627_u0644_u0642_u0648_u0629 u0020 u0627_u0644_u0634_u0631_u0627_u0626_u064a_u0629 u0020 u0627_u0644_u062d_u0627_u0644_u064a_u0629 u0020 u0648_u0627_u0644_u0642_u0648_u0629 u0020 u0627_u0644_u0634_u0631_u0627_u0626_u064a_u0629 u0020 u0627_u0644_u0645_u0633_u062a_u0642_u0628_u0644_u064a_u0629 u0020 u062d_u064a_u062b u0020 u064a_u0645_u062b_u0644_u0020", 
        "u0645_u0639_u062f_u0644 u0020 u0627_u0644_u0641_u0627_u0626_u062f_u0629 u0020 u0633_u0639_u0631 u0020 u0627_u0644_u0627_u0626_u062a_u0645_u0627_u0646 u0020 u002e_u000d"
    ]
}