{
    "bounding_box": [
        [
            446, 
            85, 
            357, 
            33
        ], 
        [
            59, 
            210, 
            844, 
            31
        ], 
        [
            409, 
            245, 
            494, 
            30
        ], 
        [
            72, 
            279, 
            831, 
            29
        ], 
        [
            404, 
            314, 
            499, 
            26
        ], 
        [
            291, 
            348, 
            613, 
            28
        ], 
        [
            83, 
            377, 
            821, 
            32
        ], 
        [
            378, 
            416, 
            525, 
            27
        ], 
        [
            82, 
            447, 
            848, 
            29
        ], 
        [
            763, 
            484, 
            168, 
            26
        ]
    ], 
    "image_height": 540, 
    "image_width": 960, 
    "transcription": [
        "u0642_u0636_u0627_u064a_u0627 u0020 u0642_u0637_u0627_u0639_u064a_u0629_u003a u0020 u0644_u062c_u0646_u0629 u0020 u0648_u0637_u0646_u064a_u0629 u0020 u0020_u0641_u0646_u064a_u0629", 
        "u063a_u064a_u0627_u0628 u0020 u0627_u0644_u0648_u0638_u0627_u0626_u0641 u0020 u0627_u0644_u0625_u062d_u0635_u0627_u0626_u064a_u0629 u0020 u0627_u0644_u0645_u0646_u0638_u0645_u0629 u0020 u0641_u064a u0020 u0628_u0639_u0636 u0020 u0627_u0644_u0642_u0637_u0627_u0639_u0627_u062a u0020 u0627_u0644_u0648_u0632_u0627_u0631_u064a_u0629_u002e u0020 u0628_u0639_u0636 u0020 u0627_u0644_u0648_u0632_u0627_u0631_u0627_u062a u0020 u062a_u0642_u0648_u0645 u0020 u0628_u0627_u0644_u0623_u0646_u0634_u0637_u0629_u0020", 
        "u0627_u0644_u0625_u062d_u0635_u0627_u0626_u064a_u0629 u0020 u0627_u0644_u0647_u0632_u064a_u0644_u0629 u0020 u0623_u0648 u0020 u0641_u064a u0020 u0623_u062d_u0633_u0646 u0020 u0627_u0644_u062d_u0627_u0644_u0627_u062a u0020 u0623_u0646_u0634_u0637_u0629 u0020 u0645_u0634_u062a_u0631_u0643_u0629_u002e_u000d", 
        "u063a_u064a_u0627_u0628 u0020 u062a_u0634_u0631_u064a_u0639 u0020 u0625_u062d_u0635_u0627_u0626_u064a u0020 u064a_u0633_u064a_u0651_u0631 u0020 u0639_u0645_u0644_u064a_u0627_u062a u0020 u0627_u0644_u0625_u062d_u0635_u0627_u0621 u0020 u0641_u064a u0020 u0645_u062e_u062a_u0644_u0641 u0020 u0627_u0644_u0642_u0637_u0627_u0639_u0627_u062a_u060c u0020 u0641_u0641_u064a u0020 u0645_u062c_u0627_u0644 u0020 u0627_u0644_u0625_u062d_u0635_u0627_u0621_u060c u0020 u062a_u062a_u062c_u0647_u0020", 
        "u0627_u0644_u062a_u0634_u0631_u064a_u0639_u0627_u062a u0020 u0646_u062d_u0648 u0020 u0627_u0644_u062a_u0645_u0631_u0643_u0632 u0020 u062d_u0648_u0644 u0020 u0627_u0644_u0645_u0643_u0627_u062a_u0628 u0020 u0627_u0644_u0648_u0637_u0646_u064a_u0629 u0020 u0644_u0644_u0625_u062d_u0635_u0627_u0621_u002e_u000d", 
        "u063a_u064a_u0627_u0628 u0020 u0627_u0644_u062a_u0646_u0633_u064a_u0642 u0020 u0648_u0627_u0644_u0627_u0646_u0633_u062c_u0627_u0645 u0020 u0641_u064a u0020 u0627_u0644_u0625_u0646_u062a_u0627_u062c u0020 u0627_u0644_u0625_u062d_u0635_u0627_u0626_u064a u0020 u0644_u062f_u0649 u0020 u0645_u062e_u062a_u0644_u0641 u0020 u0627_u0644_u0648_u0632_u0627_u0631_u0627_u062a_u002e_u000d", 
        "u0627_u0644_u0645_u0633_u062a_u0648_u0649 u0020 u0627_u0644_u0645_u062a_u062f_u0646_u064a u0020 u0644_u0644_u0625_u062d_u0635_u0627_u0621 u0020 u0641_u064a u0020 u0627_u0647_u062a_u0645_u0627_u0645 u0020 u0627_u0644_u0642_u0637_u0627_u0639_u0627_u062a u0020 u0627_u0644_u0648_u0632_u0627_u0631_u064a_u0629_u060c u0020 u062d_u064a_u062b u0020 u064a_u062a_u0645 u0020 u0627_u0644_u0642_u064a_u0627_u0645 u0020 u0628_u0645_u0647_u0645_u0629 u0020 u0627_u0644_u0625_u062d_u0635_u0627_u0621 u0020 u0639_u0627_u062f_u0629_u0020", 
        "u0639_u0644_u0649 u0020 u0645_u0633_u062a_u0648_u0649 u0020 u0642_u0637_u0627_u0639_u0627_u062a u0020 u0627_u0644_u062a_u062e_u0637_u064a_u0637 u0020 u0645_u0646 u0020 u062f_u0648_u0646 u0020 u0645_u0646_u062d u0020 u0645_u064a_u0632_u0627_u0646_u064a_u0629 u0020 u062e_u0627_u0635_u0629_u002e_u000d", 
        "u0645_u062d_u062f_u0648_u062f_u064a_u0629 u0020 u0627_u0644_u0642_u062f_u0631_u0627_u062a u0020 u0648_u0627_u0644_u0628_u0646_u0649 u0020 u0627_u0644_u062a_u062d_u062a_u064a_u0629 u0020 u0627_u0644_u0625_u062d_u0635_u0627_u0626_u064a_u0629 u0020 u0648_u0627_u0644_u0646_u0642_u0635 u0020 u0641_u064a u0020 u062a_u063a_u0637_u064a_u0629 u0020 u0627_u0644_u0645_u0639_u0637_u064a_u0627_u062a_u060c u0020 u0648_u063a_u064a_u0627_u0628 u0020 u0627_u0644_u062f_u0642_u0629 u0020 u0648_u0627_u0644_u0627_u0646_u0633_u062c_u0627_u0645_u0020", 
        "u0648_u0627_u0644_u0627_u0646_u062a_u0638_u0627_u0645 u0020 u0641_u064a u0020 u0627_u0644_u0648_u0642_u062a"
    ]
}