{
    "bounding_box": [
        [
            264, 
            48, 
            190, 
            38
        ], 
        [
            404, 
            133, 
            244, 
            30
        ], 
        [
            296, 
            184, 
            353, 
            30
        ], 
        [
            403, 
            229, 
            246, 
            31
        ], 
        [
            455, 
            274, 
            194, 
            28
        ]
    ], 
    "image_height": 540, 
    "image_width": 720, 
    "transcription": [
        "u062d_u0645_u0644_u0627_u062a u0020 u062a_u0648_u0639_u064a_u0629", 
        "u0645_u0646_u0637_u0642_u0629 u0020 u0627_u0644_u0628_u0646_u062c_u0631_u002d_u0627_u0644_u0646_u0627_u0635_u0631_u064a_u0629_u000d", 
        "u0628_u0627_u0644_u062a_u0639_u0627_u0648_u0646 u0020 u0645_u0639 u0020 u062c_u0645_u0639_u064a_u0629 u0020 u0645_u0631_u0648_u0629 u0020 u0627_u0644_u0634_u0631_u0628_u064a_u0646_u064a_u000d", 
        "u0627_u0644_u0645_u0648_u0636_u0648_u0639_u003a_u0645_u0631_u0636 u0020 u0627_u0644_u0633_u0643_u0631_u000d", 
        "u0639_u062f_u062f u0020 u0627_u0644_u0645_u0633_u062a_u0641_u064a_u062f_u064a_u0646_u003a_u0032_u0030"
    ]
}