{
    "bounding_box": [
        [
            18, 
            42, 
            680, 
            44
        ], 
        [
            18, 
            111, 
            680, 
            33
        ], 
        [
            18, 
            167, 
            680, 
            34
        ], 
        [
            18, 
            226, 
            680, 
            33
        ], 
        [
            18, 
            283, 
            680, 
            33
        ], 
        [
            18, 
            340, 
            680, 
            30
        ], 
        [
            18, 
            399, 
            680, 
            33
        ], 
        [
            378, 
            455, 
            320, 
            34
        ], 
        [
            209, 
            517, 
            36, 
            10
        ], 
        [
            672, 
            521, 
            11, 
            7
        ]
    ], 
    "image_height": 540, 
    "image_width": 720, 
    "transcription": [
        "u0627_u0644_u0634_u062e_u0635 u0020 u0627_u0644_u0639_u062f_u0648_u0627_u0646_u064a u0020 u064a_u0635_u0627_u0641_u062d u0020 u0648_u064a_u062f_u0647 u0020 u0648_u0630_u0631_u0627_u0639_u0647 u0020 u0645_u062a_u062e_u0634_u0628_u0629 u0020 u0648_u0627_u0644_u0647_u062f_u0641 u0020 u0647_u0648 u0020 u0623_u0628_u0642_u0627_u0621_u0020", 
        "u0645_u0633_u0627_u0641_u0629 u0020 u0643_u0627_u0641_u064a_u0629 u0020 u062a_u062c_u0639_u0644_u0647 u0020 u062e_u0627_u0631_u062c u0020 u0646_u0637_u0627_u0642 u0020 u0627_u0644_u0634_u062e_u0635 u0020 u0627_u0644_u0622_u062e_u0631_u002e u0020 u0648_u0644_u0643_u0646 u0020 u0645_u0635_u0627_u0641_u062d_u0629_u0020", 
        "u0634_u062e_u0635 u0020 u0648_u0627_u0644_u0623_u0645_u0633_u0627_u0643 u0020 u0628_u0623_u0635_u0627_u0628_u0639_u0647 u0020 u064a_u0645_u0627_u062b_u0644 u0020 u0627_u0644_u0645_u0635_u0627_u0641_u062d_u0629 u0020 u0648_u0627_u0644_u0630_u0631_u0627_u0639 u0020 u0645_u062e_u0634_u0628_u0629 u0020 u0639_u0644_u0649_u0020", 
        "u0627_u0644_u0631_u063a_u0645 u0020 u0623_u0646 u0020 u0648_u062c_u0647_u0647 u0020 u064a_u0639_u0637_u0649 u0020 u0623_u0646_u0637_u0628_u0627_u0639 u0020 u0627_u0644_u062d_u0628 u0020 u0648_u0627_u0644_u0648_u062f u0020 u0644_u0643_u0646 u0020 u0644_u0647_u0627 u0020 u0645_u0639_u0646_u0649 u0020 u0622_u062e_u0631 u0020 u0641_u0641_u0649_u0020", 
        "u0627_u0644_u062d_u0642_u064a_u0642_u0629 u0020 u0647_u0648 u0020 u064a_u0639_u0627_u0646_u064a u0020 u0645_u0646 u0020 u0635_u063a_u0631 u0020 u0627_u0644_u0646_u0641_u0633 u0020 u0648 u0020 u0627_u0644_u0647_u062f_u0641 u0020 u0645_u0646 u0020 u0627_u0644_u0633_u0644_u0627_u0645 u0020 u0628_u0647_u0630_u0647_u0020", 
        "u0627_u0644_u0637_u0631_u064a_u0642_u0629 u0020 u0647_u0648 u0020 u062a_u0631_u0643 u0020 u0645_u0633_u0627_u0641_u0629 u0020 u0643_u0627_u0641_u064a_u0629 u0020 u0644_u0644_u0623_u0637_u0645_u0626_u0646_u0627_u0646 u0020 u0648 u0020 u0639_u0646_u062f_u0645_u0627 u0020 u064a_u062c_u0630_u0628 u0020 u0627_u0644_u0634_u062e_u0635_u0020", 
        "u0627_u0644_u0645_u0635_u0627_u0641_u062d u0020 u0627_u0644_u0630_u0649 u0020 u064a_u0635_u0627_u0641_u062d_u0647 u0020 u0627_u0644_u0649 u0020 u0646_u0637_u0627_u0642_u0647 u0020 u0641_u0647_u0630_u0627 u0020 u064a_u062f_u0644 u0020 u0639_u0644_u0649 u0020 u0623_u0646_u0647 u0020 u064a_u0637_u0645_u0626_u0646 u0020 u0639_u0646_u062f_u0645_u0627_u0020", 
        "u064a_u0623_u062a_u064a u0020 u0628_u0627_u0644_u0634_u062e_u0635 u0020 u0627_u0644_u0622_u062e_u0631 u0020 u0641_u0649 u0020 u0646_u0637_u0627_u0642_u0647_u002e", 
        "u0644_u063a_u0629 u0020 u0627_u0644_u062c_u0633_u062f", 
        "u0032_u0037"
    ]
}