{
    "bounding_box": [
        [
            346, 
            56, 
            330, 
            27
        ], 
        [
            518, 
            127, 
            137, 
            21
        ], 
        [
            520, 
            196, 
            135, 
            22
        ], 
        [
            377, 
            265, 
            277, 
            20
        ], 
        [
            395, 
            332, 
            260, 
            25
        ], 
        [
            401, 
            401, 
            253, 
            20
        ]
    ], 
    "image_height": 540, 
    "image_width": 720, 
    "transcription": [
        "u0637_u0631_u0642 u0020 u062d_u0633_u0627_u0628 u0020 u0627_u0644_u0642_u064a_u0645_u0629 u0020 u0627_u0644_u0632_u0645_u0646_u064a_u0629 u0020 u0644_u0644_u0646_u0642_u0648_u062f", 
        "u0627_u0644_u0641_u0627_u0626_u062f_u0629 u0020 u0627_u0644_u0628_u0633_u064a_u0637_u0629 u0020 u002e_u000d", 
        "u0627_u0644_u0641_u0627_u0626_u062f_u0629 u0020 u0627_u0644_u0645_u0631_u0643_u0628_u0629 u0020 u002e_u000d", 
        "u0627_u0644_u0642_u064a_u0645_u0629 u0020 u0627_u0644_u0645_u0633_u062a_u0642_u0628_u0644_u064a_u0629 u0020 u0644_u062f_u0641_u0639_u0627_u062a u0020 u0645_u0646_u062a_u0638_u0645_u0629 u0020 u002e_u000d", 
        "u0627_u0644_u0642_u064a_u0645_u0629 u0020 u0627_u0644_u062d_u0627_u0644_u064a_u0629 u0020 u0644_u0645_u0628_u0644_u063a u0020 u0028_u0645_u0633_u062a_u0642_u0628_u0644_u064a_u0029 u0020 u002e_u000d", 
        "u0627_u0644_u0642_u064a_u0645_u0629 u0020 u0627_u0644_u062d_u0627_u0644_u064a_u0629 u0020 u0644_u062f_u0641_u0639_u0627_u062a u0020 u0645_u0646_u062a_u0638_u0645_u0629 u0020 u002e_u000d"
    ]
}