{
    "bounding_box": [
        [
            236, 
            354, 
            182, 
            32
        ], 
        [
            6, 
            393, 
            642, 
            40
        ], 
        [
            30, 
            440, 
            594, 
            32
        ], 
        [
            72, 
            481, 
            510, 
            33
        ]
    ], 
    "image_height": 540, 
    "image_width": 720, 
    "transcription": [
        "u0648_u0627_u0644_u0645_u0642_u0635_u0648_u062f u0020 u0628_u0647 u0020 u003a_u000d", 
        "u0020_u0623_u0646_u0642_u0637_u0627_u0639 u0020 u0627_u0644_u0627_u0646_u0633_u0627_u0646 u0020 u0639_u0646 u0020 u0627_u0644_u0646_u0627_u0633 u0020 u0644_u064a_u062a_u0641_u0631_u063a u0020 u0644_u0637_u0627_u0639_u0629 u0020 u0627_u0644_u0644_u0647 u0020 u0641_u064a u0020 u0645_u0633_u062c_u062f_u0020", 
        "u0645_u0646 u0020 u0645_u0633_u0627_u062c_u062f_u0647 u0020 u0628_u0627_u0644_u0635_u0644_u0627_u0629 u0020 u0648_u0627_u0644_u0630_u0643_u0631 u0020 u0648_u0627_u0644_u062f_u0639_u0627_u0621 u0020 u0648_u0642_u0631_u0627_u0621_u0629 u0020 u0627_u0644_u0642_u0631_u0622_u0646_u0020", 
        "u0648_u0627_u0644_u062a_u0641_u0643_u0631 u0020 u0648_u063a_u064a_u0631 u0020 u0630_u0644_u0643 u0020 u060c u0020 u0637_u0644_u0628_u0627 u0020 u0644_u0641_u0636_u0644 u0020 u0627_u0644_u0644_u0647 u0020 u0648_u062b_u0648_u0627_u0628_u0647 u0020 u002e_u0020"
    ]
}