{
    "bounding_box": [
        [
            72, 
            47, 
            578, 
            41
        ], 
        [
            94, 
            97, 
            561, 
            31
        ], 
        [
            56, 
            132, 
            598, 
            34
        ], 
        [
            83, 
            169, 
            571, 
            35
        ], 
        [
            106, 
            211, 
            549, 
            30
        ], 
        [
            91, 
            250, 
            563, 
            31
        ], 
        [
            69, 
            283, 
            585, 
            37
        ], 
        [
            98, 
            322, 
            556, 
            36
        ], 
        [
            113, 
            365, 
            541, 
            31
        ], 
        [
            73, 
            404, 
            581, 
            31
        ], 
        [
            144, 
            442, 
            510, 
            28
        ]
    ], 
    "image_height": 540, 
    "image_width": 720, 
    "transcription": [
        "u0020 u0020 u0648_u0647_u0646_u0627_u0643 u0020 u0641_u064a u0020 u0627_u0644_u0648_u0642_u062a u0020 u0627_u0644_u062d_u0627_u0636_u0631 u0020 u062e_u0645_u0633_u0629 u0020 u0648_u0627_u0631_u0628_u0639_u0648_u0646 u0020 u062f_u0648_u0644_u0629 u0020 u0645_u0646 u0020 u062f_u0648_u0644_u0020", 
        "u0627_u0644_u0639_u0627_u0644_u0645 u0020 u0628_u0643_u0644 u0020 u0645_u0646_u0647_u0627 u0020 u0635_u0646_u0627_u0639_u0629 u0020 u0627_u0644_u062d_u062f_u064a_u062f u0020 u062a_u0639_u062a_u0645_u062f u0020 u0639_u0644_u0649 u0020 u0648_u062c_u0648_u062f u0020 u0627_u0644_u062e_u0627_u0645_u0627_u062a_u0020", 
        "u0648_u0645_u0642_u0648_u0645_u0627_u062a u0020 u0627_u0644_u0635_u0646_u0627_u0639_u0629 u0020 u0627_u0644_u0623_u062e_u0631_u0649 u0020 u0628_u0647_u0627 u0020 u002c u0020 u0648_u0644_u0643_u0646 u0020 u062d_u0648_u0627_u0644_u064a u0020 u0623_u0631_u0628_u0639_u0629 u0020 u0623_u062e_u0645_u0627_u0633_u0020", 
        "u0627_u0646_u062a_u0627_u062c u0020 u0627_u0644_u0635_u0644_u0628 u0020 u0627_u0644_u0639_u0627_u0644_u0645_u064a u0020 u064a_u0623_u062a_u064a u0020 u0645_u0646 u0020 u0633_u0628_u0639 u0020 u062f_u0648_u0644 u0020 u0631_u0626_u064a_u0633_u064a_u0629 u0020 u0641_u0642_u0637 u0020 u0648_u0647_u064a_u0020", 
        "u0627_u0644_u0635_u064a_u0646 u0020 u002c u0020 u0627_u0644_u064a_u0627_u0628_u0627_u0646 u0020 u060c u0020 u0627_u0644_u0648_u0644_u0627_u064a_u0627_u062a u0020 u0627_u0644_u0645_u062a_u062d_u062f_u0647 u0020 u002c u0020 u0631_u0648_u0633_u064a_u0627 u0020 u002c u0020 u0627_u0644_u0645_u0627_u0646_u064a_u0627 u0020 u002c u0020 u0648_u0020", 
        "u062c_u0645_u0647_u0648_u0631_u064a_u0629 u0020 u0643_u0648_u0631_u064a_u0627 u0020 u002c u0020 u0627_u0644_u0628_u0631_u0627_u0632_u064a_u0644_u002e u0020 u0648_u0641_u064a u0020 u0627_u0644_u0648_u0642_u062a u0020 u0627_u0644_u0630_u064a u0020 u062a_u0633_u062a_u0647_u0644_u0643 u0020 u0641_u064a_u0020", 
        "u0631_u0648_u0633_u064a_u0627 u0020 u0627_u0646_u062a_u0627_u062c_u0647_u0627 u0020 u0645_u0646 u0020 u0627_u0644_u0635_u0644_u0628 u0020 u0648_u062a_u0635_u062f_u0631 u0020 u0641_u0627_u0626_u0636_u0627_u064b u0020 u0645_u0646_u0647 u0020 u0625_u0644_u0649 u0020 u0627_u0644_u062e_u0627_u0631_u062c u0020 u002c_u0020", 
        "u0648_u062a_u062a_u0645_u062a_u0639 u0020 u0641_u0631_u0646_u0633_u0627 u0020 u0627_u064a_u0636_u0627_u064b u0020 u0628_u0625_u0643_u062a_u0641_u0627_u0621 u0020 u0630_u0627_u062a_u064a u0020 u0641_u064a u0020 u0647_u0630_u0647 u0020 u0627_u0644_u0635_u0646_u0627_u0639_u0629 u0020 u0648_u062a_u0648_u0641_u0631_u0020", 
        "u0627_u0644_u0645_u0648_u0627_u062f u0020 u0627_u0644_u062e_u0627_u0645 u0020 u0627_u0644_u0644_u0627_u0632_u0645_u0629 u0020 u0628_u0647_u0627 u0020 u0641_u0627_u0646 u0020 u0628_u0642_u064a_u0629 u0020 u0627_u0644_u062f_u0648_u0644 u0020 u0627_u0644_u0645_u0646_u062a_u062c_u0629 u0020 u0644_u0644_u0635_u0644_u0628_u0020", 
        "u062a_u0633_u062a_u0648_u0631_u062f u0020 u0627_u0646_u0648_u0627_u0639_u0627 u0020 u062c_u064a_u062f_u0629 u0020 u0645_u0646 u0020 u0627_u062d_u062f_u064a_u062f u0020 u0627_u0644_u062e_u0627_u0645 u0020 u0645_u0646 u0020 u0627_u0644_u062e_u0627_u0631_u062c u0020 u062e_u0627_u0635_u0629 u0020 u0645_u0646_u0020", 
        "u0643_u0646_u062f_u0627 u0020 u0648_u0627_u0644_u0633_u0648_u064a_u062f u0020 u0648_u0627_u0633_u062a_u0631_u0627_u0644_u064a_u0627 u0020 u0648_u0627_u0644_u0628_u0631_u0627_u0632_u064a_u0644 u0020 u0648_u0641_u0646_u0632_u0648_u064a_u0644_u0627 u0020 u0648_u0627_u0644_u0647_u0646_u062f_u002e u0020 u0020"
    ]
}