{
    "bounding_box": [
        [
            306, 
            22, 
            346, 
            46
        ], 
        [
            371, 
            523, 
            211, 
            15
        ], 
        [
            412, 
            97, 
            134, 
            22
        ], 
        [
            140, 
            235, 
            366, 
            22
        ], 
        [
            121, 
            357, 
            401, 
            22
        ], 
        [
            121, 
            419, 
            401, 
            19
        ], 
        [
            133, 
            296, 
            377, 
            22
        ], 
        [
            201, 
            177, 
            244, 
            18
        ], 
        [
            610, 
            344, 
            217, 
            24
        ], 
        [
            664, 
            379, 
            109, 
            16
        ]
    ], 
    "image_height": 540, 
    "image_width": 960, 
    "transcription": [
        "u0623_u0628_u0639_u0627_u062f u0020 u0627_u0644_u062a_u0646_u0648_u0639 u0020 u0641_u064a u0020 u0627_u0644_u0645_u0646_u0638_u0645_u0627_u062a", 
        "u0645_u0639_u0647_u062f u0020 u0627_u0644_u0625_u062f_u0627_u0631_u0629 u0020 u0627_u0644_u0639_u0627_u0645_u0629 u0020 u2013 u0020 u0645_u0631_u0643_u0632 u0020 u0627_u0644_u062a_u062f_u0631_u064a_u0628 u0020 u0639_u0646 u0020 u0628_u0639_u062f", 
        "u0031_u0029 u0020 u0627_u0644_u062a_u0646_u0648_u0639 u0020 u0627_u0644_u062b_u0642_u0627_u0641_u064a", 
        "u0049_u006e_u0064_u0069_u0076_u0069_u0064_u0075_u0061_u006c_u0069_u0074_u0079 u0020 u002f u0020 u0043_u006f_u006c_u006c_u0065_u0063_u0074_u0069_u0076_u0069_u0074_u0079 u0020 u0627_u0644_u0641_u0631_u062f_u064a_u0629 u0020 u0648_u0627_u0644_u062c_u0645_u0627_u0639_u064a_u0629_u0020", 
        "u062a_u062c_u0646_u0628 u0020 u0627_u0644_u0645_u062c_u0647_u0648_u0644 u0020 u0627_u0648 u0020 u0639_u062f_u0645 u0020 u0627_u0644_u062a_u0623_u0643_u062f u0020 u0055_u006e_u0063_u0065_u0072_u0074_u0061_u0069_u006e_u0074_u0079 u0020 u0061_u0076_u006f_u0069_u0064_u0061_u006e_u0063_u0065", 
        "u0627_u0644_u0645_u062f_u0649 u0020 u0627_u0644_u0628_u0639_u064a_u062f u0020 u0648_u0627_u0644_u0642_u0631_u064a_u0628 u0020 u004c_u006f_u006e_u0067_u002f_u0073_u0068_u006f_u0072_u0074 u0020 u0074_u0065_u0072_u006d u0020 u006f_u0072_u0069_u0065_u006e_u0074_u0061_u0074_u0069_u006f_u006e", 
        "u0020_u0627_u0644_u0630_u0643_u0648_u0631_u064a_u0629 u0020 u0645_u0642_u0627_u0628_u0644 u0020 u0627_u0644_u0623_u0646_u0648_u062b_u0629 u0020 u004d_u0061_u0073_u0063_u0075_u006c_u0069_u006e_u0069_u0074_u0079 u0020 u002f u0020 u0046_u0065_u006d_u0069_u006e_u0069_u006e_u0069_u0074_u0079", 
        "u0645_u0633_u0627_u0641_u0629 u0020 u0627_u0644_u0633_u0644_u0637_u0629 u0020 u0050_u006f_u0077_u0065_u0072 u0020 u0044_u0069_u0073_u0074_u0061_u006e_u0063_u0065", 
        "u0627_u0644_u0623_u0628_u0639_u0627_u062f u0020 u0627_u0644_u062b_u0642_u0627_u0641_u0629 u0020 u0639_u0646_u062f u0020 u0647_u0648_u0641_u0633_u062a_u062f_u000d", 
        "u0048_u006f_u0066_u0073_u0074_u0065_u0064_u0065_u000d"
    ]
}