{
    "bounding_box": [
        [
            179, 
            117, 
            361, 
            35
        ], 
        [
            85, 
            190, 
            582, 
            22
        ], 
        [
            85, 
            228, 
            562, 
            20
        ], 
        [
            388, 
            265, 
            259, 
            19
        ]
    ], 
    "image_height": 540, 
    "image_width": 720, 
    "transcription": [
        "u0645_u062d_u0631_u0627_u0628 u0020 u062f_u0631_u0639_u0635_u0631 u0020 u062a_u064a_u0645_u0648_u0631_u064a_u0627_u0646", 
        "u0020 u0020 u0020 u0020 u0020_u062f_u0631 u0020 u0639_u0647_u062f u0020 u062a_u064a_u0645_u0648_u0631_u064a_u0627_u0646 u0020 u062f_u0631 u0020 u0645_u0639_u0645_u0627_u0631_u064a u0020 u0645_u0633_u0627_u062c_u062f u0020 u062a_u062d_u0648_u0644_u0627_u062a u0020 u0634_u0627_u064a_u0627_u0646_u064a u0020 u0635_u0648_u0631_u062a u0020 u06af_u0631_u0641_u062a u0020 u0627_u0632 u0020 u062c_u0645_u0644_u0647 u0020 u0633_u0627_u062e_u062a_u0020", 
        "u0645_u0633_u0627_u062c_u062f u0020 u0628_u062f_u0648_u0646 u0020 u0635_u062d_u0646 u0020 u0648_u2026_u002e u0020 u0643_u0647 u0020 u0627_u0632 u0020 u0628_u062d_u062b u0020 u0645_u0627 u0020 u062e_u0627_u0631_u062c u0020 u0627_u0633_u062a u0020 u0627_u0645_u0627 u0020 u0628_u0627 u0020 u0648_u062c_u0648_u062f u0020 u0647_u0645_u0629 u0020 u0627_u064a_u0646_u0647_u0627 u0020 u062a_u063a_u064a_u064a_u0631_u0627_u062a u0020 u0642_u0627_u0628_u0644_u0020", 
        "u0630_u0643_u0631_u064a u0020 u062f_u0631 u0020 u0645_u0639_u0645_u0627_u0631_u064a u0020 u0645_u062d_u0631_u0627_u0628 u0020 u0627_u064a_u062c_u0627_u062f u0020 u0646_u0634_u062f u0020 u002e u0020 u0020_u000d"
    ]
}