{
    "bounding_box": [
        [
            386, 
            67, 
            280, 
            22
        ], 
        [
            36, 
            148, 
            631, 
            26
        ], 
        [
            80, 
            191, 
            586, 
            25
        ], 
        [
            236, 
            235, 
            437, 
            24
        ], 
        [
            68, 
            277, 
            598, 
            26
        ], 
        [
            80, 
            321, 
            592, 
            26
        ], 
        [
            362, 
            386, 
            310, 
            22
        ]
    ], 
    "image_height": 540, 
    "image_width": 720, 
    "transcription": [
        "u0627_u0644_u0641_u062a_u0648_u062d_u0627_u062a u0020 u0627_u0644_u0639_u062b_u0645_u0627_u0646_u064a_u0629 u0020 u0648_u063a_u0632_u0648 u0020 u0627_u0644_u0633_u0648_u062f_u0627_u0646_u003a u0020 u000d", 
        "u064a_u0644_u0627_u062d_u0638 u0020 u0623_u0646 u0020 u0627_u0644_u0645_u0634_u0631_u0648_u0639 u0020 u0627_u0644_u0630_u064a u0020 u0642_u0627_u0645 u0020 u0628_u0647 u0020 u0645_u062d_u0645_u062f u0020 u0639_u0644_u064a u0020 u0644_u063a_u0632_u0648 u0020 u0627_u0644_u0633_u0648_u062f_u0627_u0646 u0020 u0644_u0627 u0020 u064a_u062a_u0641_u0642 u0020 u0645_u0639 u0020 u0641_u0643_u0631_u0629 u0020 u0627_u0644_u062a_u0648_u0633_u0639 u0020 u0627_u0644_u062a_u064a u0020 u0020", 
        "u062a_u0628_u0646_u0627_u0647_u0627 u0020 u0627_u0644_u0633_u0644_u0627_u0637_u064a_u0646 u0020 u0627_u0644_u0639_u062b_u0645_u0627_u0646_u064a_u0648_u0646 u0020 u0645_u0646 u0020 u062d_u064a_u062b u0020 u062f_u0648_u0627_u0639_u064a u0020 u0627_u0644_u0639_u0645_u0644_u064a_u0629 u0020 u0648_u0623_u0647_u062f_u0627_u0641_u0647_u0627 u0020 u0648_u0628_u0627_u0644_u062a_u0627_u0644_u064a u0020 u0646_u0633_u0628 u0020 u0647_u0630_u0647_u0020", 
        "u0627_u0644_u0645_u063a_u0627_u0645_u0631_u0629 u0020 u0644_u0644_u062f_u0648_u0644_u0629 u0020 u0627_u0644_u0639_u062b_u0645_u0627_u0646_u064a_u0629_u060c u0020 u0641_u064a_u0647 u0020 u0643_u062b_u064a_u0631 u0020 u0645_u0646 u0020 u0627_u0644_u0625_u062c_u062d_u0627_u0641 u0020 u0648_u0627_u0644_u062a_u062c_u0646_u064a_u002e u0020 u000d", 
        "u0625_u0630 u0020 u0623_u0646 u0020 u0627_u0644_u0633_u0644_u0627_u0637_u064a_u0646 u0020 u0627_u0628_u062a_u062f_u0639_u0648_u0627 u0020 u0641_u0643_u0631_u0629 u0020 u0627_u0644_u062a_u0648_u0633_u0639 u0020 u2013 u0020 u0645_u0627 u0020 u0633_u0645_u0648_u0647 u0020 u0628_u0627_u0644_u063a_u0632_u0648 u0020 u0628_u062f_u0627_u0641_u0639 u0020 u062f_u064a_u0646_u064a u0020 u0645_u062d_u0636 u0020 u0641_u0645_u0647_u0645_u0629_u0020", 
        "u0627_u0644_u0633_u0644_u0637_u0627_u0646 u0020 u0627_u0644_u0623_u0633_u0627_u0633_u064a_u0629 u0020 u0647_u064a u0020 u0625_u0636_u0627_u0641_u0629_u0623_u0631_u0627_u0636_u064a u0020 u062c_u062f_u064a_u062f_u0629 u0020 u064a_u0646_u062a_u0634_u0631 u0020 u0641_u064a_u0647_u0627 u0020 u0627_u0644_u0625_u0633_u0644_u0627_u0645 u0020 u0648_u0642_u062f u0020 u0633_u0645_u0648_u0627 u0020 u0627_u0644_u0639_u0645_u0644_u064a_u0629_u000d", 
        "u0020_u0022_u0628_u0627_u0644_u063a_u0632_u0648_u0022 u0020 u062d_u062a_u0649 u0020 u0627_u0644_u0633_u0644_u0637_u0627_u0646 u0020 u064a_u0633_u0645_u0649 u0020 u0022_u0627_u0644_u063a_u0627_u0632_u064a_u201c_u0020"
    ]
}