{
    "bounding_box": [
        [
            644, 
            500, 
            14, 
            10
        ], 
        [
            301, 
            26, 
            117, 
            34
        ], 
        [
            485, 
            76, 
            179, 
            27
        ], 
        [
            43, 
            110, 
            621, 
            26
        ], 
        [
            524, 
            138, 
            139, 
            22
        ], 
        [
            12, 
            170, 
            651, 
            24
        ], 
        [
            617, 
            196, 
            47, 
            22
        ], 
        [
            321, 
            227, 
            343, 
            24
        ], 
        [
            237, 
            258, 
            427, 
            25
        ], 
        [
            12, 
            289, 
            526, 
            16
        ], 
        [
            24, 
            306, 
            514, 
            16
        ], 
        [
            494, 
            323, 
            44, 
            15
        ], 
        [
            22, 
            345, 
            516, 
            16
        ], 
        [
            413, 
            364, 
            125, 
            14
        ], 
        [
            121, 
            382, 
            416, 
            17
        ], 
        [
            76, 
            403, 
            462, 
            17
        ], 
        [
            201, 
            423, 
            337, 
            18
        ], 
        [
            408, 
            446, 
            129, 
            16
        ], 
        [
            174, 
            466, 
            363, 
            17
        ]
    ], 
    "image_height": 540, 
    "image_width": 720, 
    "transcription": [
        "u0035_u0033", 
        "u0020_u0627_u0644_u0631_u0623_u064a u0020 u0627_u0644_u0639_u0627_u0645", 
        "u062a_u0643_u0648_u064a_u0646 u0020 u0627_u0644_u0631_u0623_u064a u0020 u0627_u0644_u0639_u0627_u0645 u0020 u003a_u000d", 
        "u0627_u0644_u0627_u0646_u0633_u0627_u0646 u0020 u0639_u0646_u062f_u0645_u0627 u0020 u064a_u0648_u0644_u062f u0020 u064a_u0643_u0648_u0646 u0020 u0635_u0641_u062d_u0629 u0020 u0628_u064a_u0636_u0627_u0621 u0020 u0648_u0644_u0643_u0646 u0020 u0633_u0631_u0639_u0627_u0646 u0020 u0645_u0627 u0020 u064a_u0628_u062f_u0623 u0020 u0020_u0628_u0627_u0644_u062a_u0639_u0631_u0636 u0020 u0644_u0644_u0645_u0624_u062b_u0631_u0627_u062a_u0020", 
        "u0627_u0644_u062d_u0633_u064a_u0629 u0020 u0648_u0627_u0644_u0646_u0641_u0633_u064a_u0629 u0020 u000d", 
        "u0643_u0644_u0645_u0627 u0020 u062a_u0642_u062f_u0645 u0020 u0628_u0627_u0644_u0633_u0646 u0020 u0643_u0644_u0645_u0627 u0020 u0632_u0627_u062f u0020 u062a_u0623_u062b_u064a_u0631 u0020 u0647_u0630_u0647 u0020 u0627_u0644_u0645_u0624_u062b_u0631_u0627_u062a u0020 u0639_u0644_u064a_u0647 u0020 u062d_u062a_u0649 u0020 u064a_u0635_u0644 u0020 u0627_u0644_u0649 u0020 u062a_u0643_u0648_u064a_u0646 u0020 u0627_u062a_u062c_u0627_u0647_u0627_u062a u0020 u0648_u0642_u064a_u0645_u0020", 
        "u0645_u0639_u064a_u0646_u0629_u000d", 
        "u0647_u0630_u0647 u0020 u0627_u0644_u0642_u064a_u0645 u0020 u0648_u0627_u0644_u0627_u062a_u062c_u0627_u0647_u0627_u062a u0020 u062a_u062d_u062f_u062f u0020 u0633_u0644_u0648_u0643_u0647 u0020 u0648_u062a_u0635_u0631_u0641_u0627_u062a_u0629_u000d", 
        "u0628_u0634_u0643_u0644 u0020 u0639_u0627_u0645 u0020 u0627_u0644_u0627_u0631_u0627_u0621 u0020 u0648_u0627_u0644_u0623_u0641_u0643_u0627_u0631 u0020 u0644_u0644_u0627_u0641_u0631_u0627_u062f u0020 u062a_u062a_u0623_u062b_u0631 u0020 u0628_u0627_u0644_u0639_u0648_u0627_u0645_u0644 u0020 u0627_u0644_u062a_u0627_u0644_u064a_u0629 u0020 u003a_u000d", 
        "u0627_u0644_u062d_u0636_u0627_u0631_u0629 u0020 u003a u0020 u0643_u0648_u0646 u0020 u0627_u0644_u0627_u0646_u0633_u0627_u0646 u0020 u0643_u0627_u0626_u0646 u0020 u0627_u062c_u062a_u0645_u0627_u0639_u064a u0020 u0641_u0647_u0648 u0020 u0644_u0627 u0020 u064a_u0633_u062a_u0637_u064a_u0639 u0020 u0627_u0646 u0020 u064a_u0639_u064a_u0634 u0020 u0648_u062d_u064a_u062f_u0627 u0020 u0648_u0645_u0646 u0020 u062e_u0644_u0627_u0644 u0020 u062a_u0639_u0627_u064a_u0634_u0629 u0020 u0645_u0639 u0020 u0627_u0644_u0645_u062c_u0645_u0648_u0639_u0629_u0020", 
        "u0641_u0647_u0648 u0020 u064a_u062a_u0627_u062b_u0631 u0020 u0641_u0627_u0644_u0639_u0627_u062f_u0627_u062a u0020 u0648_u0627_u0644_u0642_u064a_u0645 u0020 u0648_u0627_u0644_u062a_u0642_u0627_u0644_u064a_u062f u0020 u0648_u0627_u0644_u062b_u0642_u0627_u0641_u0629 u0020 u0644_u0647_u0627 u0020 u062a_u0623_u062b_u064a_u0631 u0020 u0639_u0644_u0649 u0020 u0627_u0644_u0631_u0623_u064a u0020 u0627_u0644_u0639_u0627_u0645 u0020 u0645_u0646 u0020 u062e_u0644_u0627_u0644 u0020 u062a_u0623_u062b_u064a_u0631_u0627_u062a_u0647_u0627 u0020 u0639_u0644_u0649 u0020 u0627_u062a_u062c_u0627_u0647_u0627_u062a_u0020", 
        "u0627_u0644_u0627_u0641_u0631_u0627_u062f u0020 u002e_u000d", 
        "u0627_u0644_u062a_u0646_u0634_u0626_u0629 u0020 u0627_u0644_u0627_u062c_u062a_u0645_u0627_u0639_u064a_u0629 u0020 u003a u0020 u0643_u0627_u0644_u0628_u064a_u062a u0020 u0648_u0627_u0644_u0645_u062f_u0631_u0633_u0629 u0020 u0648_u0627_u0644_u062c_u0627_u0645_u0639_u0629 u0020 u0648_u0627_u0644_u062f_u064a_u0627_u0646_u0629 u0020 u062a_u0633_u0627_u0647_u0645 u0020 u0627_u0644_u0649 u0020 u062d_u062f u0020 u0643_u0628_u064a_u0631 u0020 u0641_u064a u0020 u062a_u0643_u0648_u064a_u0646 u0020 u0627_u062a_u062c_u0627_u0647_u0627_u062a u0020 u0627_u0644_u0641_u0631_u062f_u0020", 
        "u0648_u0628_u0627_u0644_u0637_u0628_u0639 u0020 u0627_u0644_u0628_u064a_u062a u0020 u0648_u0627_u0644_u0648_u0627_u0644_u062f_u064a_u0646_u000d", 
        "u0627_u0644_u062e_u0628_u0631_u0629 u0020 u0627_u0644_u0639_u0645_u0644_u064a_u0629 u0020 u0645_u0646 u0020 u062e_u0644_u0627_u0644 u0020 u0645_u0627 u0020 u064a_u0643_u062a_u0633_u0628_u0647 u0020 u0627_u0644_u0641_u0631_u062f u0020 u0628_u0648_u0627_u0633_u0637_u0629 u0020 u0645_u0634_u0627_u0647_u062f_u0627_u062a_u0647 u0020 u0648_u0627_u062a_u0635_u0627_u0644_u0627_u062a_u0647 u0020 u0645_u0639 u0020 u0627_u0644_u0622_u062e_u0631_u064a_u0646_u000d", 
        "u0627_u0644_u0648_u0636_u0639 u0020 u0627_u0644_u0627_u062c_u062a_u0645_u0627_u0639_u064a u0020 u0648_u0645_u0633_u062a_u0648_u0649 u0020 u0627_u0644_u062f_u062e_u0644 u0020 u0644_u0647_u0645_u0627 u0020 u062f_u0648_u0631 u0020 u0627_u0633_u0627_u0633_u064a u0020 u0639_u0644_u0649 u0020 u0646_u0641_u0633_u064a_u0629 u0020 u0627_u0644_u0641_u0631_u062f u0020 u0648_u0627_u0644_u0625_u0637_u0627_u0631 u0020 u0627_u0644_u0639_u0627_u0645 u0020 u0644_u062a_u0641_u0643_u064a_u0631_u0647_u000d", 
        "u0627_u0644_u0645_u0635_u0644_u062d_u0629 u0020 u0627_u0644_u0634_u062e_u0635_u064a_u0629 u0020 u064a_u062a_u062d_u062f_u062f u0020 u0627_u0644_u0631_u0623_u064a u0020 u0627_u0644_u0639_u0627_u0645 u0020 u0627_u0633_u0627_u0633_u0627 u0020 u0628_u0627_u0644_u0645_u0635_u0644_u062d_u0629 u0020 u0627_u0644_u0634_u062e_u0635_u064a_u0629 u0020 u000d", 
        "u0627_u0644_u062d_u0627_u0644_u0629 u0020 u0627_u0644_u0635_u062d_u064a_u0629 u0020 u0648_u0627_u0644_u062c_u0633_u062f_u064a_u0629_u000d", 
        "u0648_u0633_u0627_u0626_u0644 u0020 u0627_u0644_u0627_u062a_u0635_u0627_u0644 u0020 u0645_u0646 u0020 u062e_u0644_u0627_u0644 u0020 u0645_u0627 u0020 u064a_u062a_u0639_u0631_u0636 u0020 u0644_u0647 u0020 u0627_u0644_u0641_u0631_u062f u0020 u0645_u0646 u0020 u0627_u062e_u0628_u0627_u0631 u0020 u0648_u062a_u0639_u0644_u064a_u0642_u0627_u062a u0020 u0648_u0623_u0641_u0644_u0627_u0645 u0020 u002e"
    ]
}