{
    "bounding_box": [
        [
            41, 
            37, 
            399, 
            58
        ], 
        [
            99, 
            137, 
            586, 
            29
        ], 
        [
            582, 
            174, 
            103, 
            23
        ], 
        [
            48, 
            210, 
            637, 
            24
        ], 
        [
            543, 
            241, 
            142, 
            23
        ], 
        [
            32, 
            279, 
            653, 
            25
        ], 
        [
            627, 
            310, 
            58, 
            22
        ], 
        [
            121, 
            342, 
            564, 
            27
        ]
    ], 
    "image_height": 540, 
    "image_width": 720, 
    "transcription": [
        "u0639_u064a_u0648_u0628 u0020 u0627_u0644_u0646_u0638_u0627_u0645 u0020 u0627_u0644_u0631_u0626_u0627_u0633_u064a", 
        "u062e_u0644_u0642 u0020 u062e_u0644_u0627_u0641_u0627_u062a u0020 u0633_u064a_u0627_u0633_u064a_u0629 u0020 u0641_u064a u0020 u0627_u0648_u0642_u0627_u062a u0020 u0627_u0644_u0627_u0646_u062a_u062e_u0627_u0628_u0627_u062a u0020 u0646_u062a_u064a_u062c_u0629 u0020 u0644_u0623_u0647_u0645_u064a_u0629 u0020 u0645_u0631_u0643_u0632 u0020 u0631_u0626_u064a_u0633_u0020", 
        "u0627_u0644_u062c_u0645_u0647_u0648_u0631_u064a_u0629_u002e_u000d", 
        "u0647_u0646_u0627_u0643 u0020 u062e_u0637_u0631 u0020 u0627_u0644_u0627_u062d_u062a_u0643_u0627_u0643 u0020 u0648_u0627_u0644_u062a_u0635_u0627_u062f_u0645 u0020 u0639_u0646_u062f_u0645_u0627 u0020 u062a_u0643_u0648_u0646 u0020 u0627_u0644_u0633_u0644_u0637_u0629 u0020 u0627_u0644_u062a_u0646_u0641_u064a_u0630_u064a_u0629 u0020 u0648_u0627_u0644_u062a_u0634_u0631_u064a_u0639_u064a_u0629 u0020 u0645_u0646_u0020", 
        "u062d_u0632_u0628_u064a_u0646 u0020 u0645_u062e_u062a_u0644_u0641_u064a_u0646_u002e_u000d", 
        "u0639_u062f_u0645 u0020 u0625_u0639_u0637_u0627_u0621 u0020 u0627_u0644_u0631_u0626_u064a_u0633 u0020 u0648_u0648_u0632_u0631_u0627_u0626_u0647 u0020 u062d_u0642 u0020 u0627_u0642_u062a_u0631_u0627_u062d u0020 u0627_u0644_u0642_u0648_u0627_u0646_u064a_u0646 u0020 u0648_u062a_u0642_u062f_u064a_u0645_u0647_u0627 u0020 u0644_u0644_u0628_u0631_u0644_u0645_u0627_u0646 u0020 u0644_u0644_u0645_u0635_u0627_u062f_u0642_u0629_u0020", 
        "u0639_u0644_u064a_u0647_u0627_u002e_u000d", 
        "u062a_u062d_u0648_u0644 u0020 u0627_u0644_u0633_u0644_u0637_u0627_u062a u0020 u0627_u0644_u0648_u0627_u0633_u0639_u0629 u0020 u0644_u0644_u0631_u0626_u064a_u0633 u0020 u0625_u0644_u0649 u0020 u0623_u0648_u062a_u0648_u0642_u0631_u0627_u0637_u064a_u0629 u0020 u063a_u064a_u0631 u0020 u0645_u0631_u063a_u0648_u0628 u0020 u0641_u064a_u0647_u0627_u002e"
    ]
}