{
    "bounding_box": [
        [
            141, 
            33, 
            437, 
            28
        ], 
        [
            450, 
            83, 
            211, 
            29
        ], 
        [
            143, 
            126, 
            502, 
            25
        ], 
        [
            154, 
            158, 
            508, 
            29
        ], 
        [
            189, 
            200, 
            473, 
            24
        ], 
        [
            449, 
            235, 
            213, 
            22
        ], 
        [
            167, 
            265, 
            478, 
            27
        ], 
        [
            447, 
            306, 
            214, 
            22
        ], 
        [
            394, 
            379, 
            267, 
            26
        ], 
        [
            127, 
            413, 
            535, 
            30
        ], 
        [
            529, 
            449, 
            133, 
            22
        ]
    ], 
    "image_height": 540, 
    "image_width": 720, 
    "transcription": [
        "u0627_u0644_u062f_u0631_u0633 u0020 u0036_u002d_u0034_u003a u0020 u0637_u0628_u0627_u0639_u0629 u0020 u0627_u0644_u0639_u0631_u0636 u0020 u0627_u0644_u062a_u0642_u062f_u064a_u0645_u064a u0020 u0627_u0644_u062e_u0627_u0635 u0020 u0628_u0643", 
        "u0623_u0648_u0627_u0645_u0631 u0020 u0627_u0644_u0637_u0628_u0627_u0639_u0629 u0020 u0627_u0644_u0633_u0631_u064a_u0639_u0629_u000d", 
        "u0625_u062d_u062f_u0649 u0020 u0627_u0644_u0637_u0631_u0642 u0020 u0647_u064a u0020 u0625_u0636_u0627_u0641_u0629 u0020 u0631_u0645_u0632 u0020 u0627_u0644_u0637_u0628_u0627_u0639_u0629 u0020 u0627_u0644_u0633_u0631_u064a_u0639_u0629 u0020 u0625_u0644_u0649 u0020 u0634_u0631_u064a_u0637 u0020 u000d", 
        "u0020 u0020 u0623_u062f_u0648_u0627_u062a u0020 u0627_u0644_u0648_u0635_u0648_u0644 u0020 u0627_u0644_u0633_u0631_u064a_u0639_u002e u0020 u0648_u0645_u0646 u0020 u0634_u0623_u0646 u0020 u0647_u0630_u0627 u0020 u0623_u0646 u0020 u064a_u0631_u0633_u0644 u0020 u0627_u0644_u0639_u0631_u0636 u0020 u000d", 
        "u0020 u0020 u0627_u0644_u062a_u0642_u062f_u064a_u0645_u064a u0020 u0627_u0644_u062e_u0627_u0635 u0020 u0628_u0643 u0020 u0645_u0628_u0627_u0634_u0631_u0629 u0020 u0625_u0644_u0649 u0020 u0627_u0644_u0637_u0627_u0628_u0639_u0629 u0020 u0627_u0644_u0627_u0641_u062a_u0631_u0627_u0636_u064a_u0629 u0020 u0020_u000d", 
        "u0020 u0020 u0628_u0627_u0644_u0625_u0639_u062f_u0627_u062f_u0627_u062a u0020 u0627_u0644_u0627_u0641_u062a_u0631_u0627_u0636_u064a_u0629_u000d", 
        "u0627_u0644_u062e_u064a_u0627_u0631 u0020 u0627_u0644_u0622_u062e_u0631 u0020 u0647_u0648 u0020 u0627_u0644_u0646_u0642_u0631 u0020 u0639_u0644_u0649 u0020 u0645_u0644_u0641 u0020 u2190 u0020 u0637_u0628_u0627_u0639_u0629 u0020 u0623_u0648 u0020 u0627_u0633_u062a_u062e_u062f_u0627_u0645 u0020 u000d", 
        "u0020 u0020 u0627_u0644_u0627_u062e_u062a_u0635_u0627_u0631 u0020 u0043_u0074_u0072_u006c u0020 u002b u0020 u0050_u000d", 
        "u0627_u0633_u062a_u062e_u062f_u0627_u0645 u0020 u0627_u0644_u0645_u0639_u0627_u064a_u0646_u0629 u0020 u0642_u0628_u0644 u0020 u0627_u0644_u0637_u0628_u0627_u0639_u0629_u000d", 
        "u064a_u062d_u062a_u0648_u064a u0020 u0627_u0644_u062c_u0627_u0646_u0628 u0020 u0627_u0644_u0623_u064a_u0633_u0631 u0020 u0645_u0646 u0020 u0627_u0644_u0625_u0637_u0627_u0631 u0020 u0639_u0644_u0649 u0020 u0645_u0639_u0627_u064a_u0646_u0629 u0020 u0644_u0644_u0639_u0631_u0636 u0020 u0627_u0644_u062a_u0642_u062f_u064a_u0645_u064a_u0020", 
        "u0627_u0644_u0645_u0631_u0627_u062f u0020 u0637_u0628_u0627_u0639_u062a_u0647_u002e_u000d"
    ]
}