{
    "bounding_box": [
        [
            150, 
            23, 
            426, 
            31
        ], 
        [
            19, 
            57, 
            686, 
            38
        ], 
        [
            19, 
            97, 
            686, 
            31
        ], 
        [
            19, 
            133, 
            686, 
            29
        ], 
        [
            502, 
            167, 
            204, 
            28
        ], 
        [
            162, 
            205, 
            402, 
            31
        ], 
        [
            19, 
            247, 
            686, 
            29
        ], 
        [
            19, 
            277, 
            686, 
            32
        ], 
        [
            19, 
            311, 
            686, 
            32
        ], 
        [
            19, 
            345, 
            686, 
            32
        ], 
        [
            19, 
            378, 
            686, 
            32
        ], 
        [
            19, 
            412, 
            686, 
            32
        ], 
        [
            19, 
            445, 
            686, 
            32
        ], 
        [
            360, 
            480, 
            346, 
            31
        ]
    ], 
    "image_height": 540, 
    "image_width": 720, 
    "transcription": [
        "u0627_u0644_u0645_u0627_u062f_u0629 u0020 u0033_u0037_u003a u0020 u0627_u0644_u062a_u0639_u0627_u0648_u0646 u0020 u0628_u064a_u0646 u0020 u0627_u0644_u062f_u0648_u0644 u0020 u0627_u0644_u0623_u0637_u0631_u0627_u0641 u0020 u0648_u0627_u0644_u0644_u062c_u0646_u0629_u000d", 
        "u0009_u062a_u062a_u0639_u0627_u0648_u0646 u0020 u0643_u0644 u0020 u062f_u0648_u0644_u0629 u0020 u0637_u0631_u0641 u0020 u0645_u0639 u0020 u0627_u0644_u0644_u062c_u0646_u0629 u0020 u0648_u062a_u0633_u0627_u0639_u062f u0020 u0623_u0639_u0636_u0627_u0621_u0647_u0627 u0020 u0641_u064a u0020 u0627_u0644_u0627_u0636_u0637_u0644_u0627_u0639_u0020", 
        "u0628_u0648_u0644_u0627_u064a_u062a_u0647_u0645_u002e u0020 u0648_u062a_u0648_u0644_u064a u0020 u0627_u0644_u0644_u062c_u0646_u0629_u060c u0020 u0641_u064a u0020 u0639_u0644_u0627_u0642_u062a_u0647_u0627 u0020 u0645_u0639 u0020 u0627_u0644_u062f_u0648_u0644 u0020 u0627_u0644_u0623_u0637_u0631_u0627_u0641_u060c u0020 u0627_u0644_u0627_u0639_u062a_u0628_u0627_u0631 u0020 u0627_u0644_u0644_u0627_u0632_u0645_u0020", 
        "u0644_u0633_u0628_u0644 u0020 u0648_u0648_u0633_u0627_u0626_u0644 u0020 u062a_u0639_u0632_u064a_u0632 u0020 u0627_u0644_u0642_u062f_u0631_u0627_u062a u0020 u0627_u0644_u0648_u0637_u0646_u064a_u0629 u0020 u0644_u062a_u0637_u0628_u064a_u0642 u0020 u0647_u0630_u0647 u0020 u0627_u0644_u0627_u062a_u0641_u0627_u0642_u064a_u0629_u060c u0020 u0628_u0645_u0627 u0020 u0641_u064a u0020 u0630_u0644_u0643 u0020 u0639_u0646_u0020", 
        "u0637_u0631_u064a_u0642 u0020 u0627_u0644_u062a_u0639_u0627_u0648_u0646 u0020 u0627_u0644_u062f_u0648_u0644_u064a_u002e_u000d", 
        "u0627_u0644_u0645_u0627_u062f_u0629 u0020 u0033_u0038_u003a u0020 u0639_u0644_u0627_u0642_u0629 u0020 u0627_u0644_u0644_u062c_u0646_u0629 u0020 u0645_u0639 u0020 u0627_u0644_u0647_u064a_u0626_u0627_u062a u0020 u0627_u0644_u0623_u062e_u0631_u0649_u000d", 
        "u0644_u062f_u0639_u0645 u0020 u062a_u0637_u0628_u064a_u0642 u0020 u0647_u0630_u0647 u0020 u0627_u0644_u0627_u062a_u0641_u0627_u0642_u064a_u0629 u0020 u0639_u0644_u0649 u0020 u0646_u062d_u0648 u0020 u0641_u0639_u0627_u0644 u0020 u0648_u062a_u0634_u062c_u064a_u0639 u0020 u0627_u0644_u062a_u0639_u0627_u0648_u0646 u0020 u0627_u0644_u062f_u0648_u0644_u064a u0020 u0641_u064a u0020 u0627_u0644_u0645_u064a_u062f_u0627_u0646_u0020", 
        "u0627_u0644_u0630_u064a u0020 u062a_u063a_u0637_u064a_u0647 u0020 u0647_u0630_u0647 u0020 u0627_u0644_u0627_u062a_u0641_u0627_u0642_u064a_u0629_u003a u0020 u064a_u0643_u0648_u0646 u0020 u0645_u0646 u0020 u062d_u0642 u0020 u0627_u0644_u0648_u0643_u0627_u0644_u0627_u062a u0020 u0627_u0644_u0645_u062a_u062e_u0635_u0635_u0629 u0020 u0648_u063a_u064a_u0631_u0647_u0627 u0020 u0645_u0646_u0020", 
        "u0623_u062c_u0647_u0632_u0629 u0020 u0627_u0644_u0623_u0645_u0645 u0020 u0627_u0644_u0645_u062a_u062d_u062f_u0629 u0020 u0623_u0646 u0020 u062a_u0643_u0648_u0646 u0020 u0645_u0645_u062b_u0644_u0629 u0020 u0644_u062f_u0649 u0020 u0627_u0644_u0646_u0638_u0631 u0020 u0641_u064a u0020 u062a_u0637_u0628_u064a_u0642 u0020 u0645_u0627_u00a0_u064a_u062f_u062e_u0644 u0020 u0641_u064a u0020 u0646_u0637_u0627_u0642_u0020", 
        "u0648_u0644_u0627_u064a_u062a_u0647_u0627 u0020 u0645_u0646 u0020 u0623_u062d_u0643_u0627_u0645 u0020 u0647_u0630_u0647 u0020 u0627_u0644_u0627_u062a_u0641_u0627_u0642_u064a_u0629_u002e u0020 u0648_u062a_u0642_u0648_u0645 u0020 u0627_u0644_u0644_u062c_u0646_u0629_u060c u0020 u0644_u062f_u0649 u0020 u0627_u0636_u0637_u0644_u0627_u0639_u0647_u0627 u0020 u0628_u0648_u0644_u0627_u064a_u062a_u0647_u0627_u060c_u0020", 
        "u0628_u0627_u0644_u062a_u0634_u0627_u0648_u0631_u060c u0020 u062d_u0633_u0628 u0020 u0627_u0644_u0627_u0642_u062a_u0636_u0627_u0621_u060c u0020 u0645_u0639 u0020 u0627_u0644_u0647_u064a_u0626_u0627_u062a u0020 u0627_u0644_u0623_u062e_u0631_u0649 u0020 u0630_u0627_u062a u0020 u0627_u0644_u0635_u0644_u0629 u0020 u0627_u0644_u0645_u0646_u0634_u0623_u0629 u0020 u0628_u0645_u0648_u062c_u0628_u0020", 
        "u0645_u0639_u0627_u0647_u062f_u0627_u062a u0020 u062f_u0648_u0644_u064a_u0629 u0020 u0644_u062d_u0642_u0648_u0642 u0020 u0627_u0644_u0625_u0646_u0633_u0627_u0646_u060c u0020 u0648_u0630_u0644_u0643 u0020 u0628_u063a_u0631_u0636 u0020 u0636_u0645_u0627_u0646 u0020 u0627_u062a_u0633_u0627_u0642 u0020 u0645_u0627_u00a0_u064a_u0636_u0639_u0647 u0020 u0643_u0644_u0020", 
        "u0645_u0646_u0647_u0627 u0020 u0645_u0646 u0020 u0645_u0628_u0627_u062f_u0626 u0020 u062a_u0648_u062c_u064a_u0647_u064a_u0629 u0020 u0644_u0644_u0625_u0628_u0644_u0627_u063a u0020 u0648_u0627_u0642_u062a_u0631_u0627_u062d_u0627_u062a u0020 u0648_u062a_u0648_u0635_u064a_u0627_u062a u0020 u0639_u0627_u0645_u0629_u060c u0020 u0648_u062a_u0641_u0627_u062f_u064a_u0020", 
        "u0627_u0644_u0627_u0632_u062f_u0648_u0627_u062c_u064a_u0629 u0020 u0648_u0627_u0644_u062a_u062f_u0627_u062e_u0644 u0020 u0641_u064a u0020 u0623_u062f_u0627_u0621 u0020 u0648_u0638_u0627_u0626_u0641_u0647_u0627_u002e_u0020"
    ]
}