{
    "bounding_box": [
        [
            72, 
            63, 
            574, 
            37
        ], 
        [
            57, 
            143, 
            212, 
            19
        ], 
        [
            57, 
            176, 
            278, 
            25
        ], 
        [
            57, 
            209, 
            243, 
            26
        ], 
        [
            57, 
            244, 
            246, 
            25
        ], 
        [
            57, 
            277, 
            243, 
            25
        ], 
        [
            57, 
            310, 
            259, 
            26
        ], 
        [
            57, 
            344, 
            265, 
            25
        ], 
        [
            387, 
            138, 
            274, 
            27
        ], 
        [
            387, 
            174, 
            274, 
            24
        ], 
        [
            410, 
            207, 
            251, 
            28
        ], 
        [
            448, 
            239, 
            214, 
            30
        ], 
        [
            512, 
            283, 
            149, 
            20
        ], 
        [
            608, 
            323, 
            54, 
            27
        ]
    ], 
    "image_height": 540, 
    "image_width": 720, 
    "transcription": [
        "u0645_u0646_u0638_u0645_u0629 u0020 u0627_u0644_u0639_u0641_u0648 u0020 u0627_u0644_u062f_u0648_u0644_u064a_u0629 u0020 u062a_u0637_u0627_u0644_u0628 u0020 u0645_u062c_u0644_u0633 u0020 u0627_u0644_u0623_u0645_u0646 u0020 u0628_u0627_u0644_u062a_u062f_u062e_u0644", 
        "u0022_u004d_u0065_u006d_u0062_u0065_u0072_u0073 u0020 u006f_u0066 u0020 u0074_u0068_u0065_u0020", 
        "u0053_u0065_u0063_u0075_u0072_u0069_u0074_u0079 u0020 u0043_u006f_u0075_u006e_u0063_u0069_u006c u0020 u006d_u0075_u0073_u0074_u0020", 
        "u0061_u0063_u0074 u0020 u006e_u006f_u0077 u0020 u0074_u006f u0020 u0073_u0074_u006f_u0070 u0020 u0074_u0068_u0065_u0020", 
        "u006f_u0075_u0074_u0072_u0061_u0067_u0065_u006f_u0075_u0073 u0020 u0061_u0062_u0075_u0073_u0065_u0073_u0020", 
        "u0074_u0061_u006b_u0069_u006e_u0067 u0020 u0070_u006c_u0061_u0063_u0065 u0020 u006f_u006e u0020 u0074_u0068_u0065_u0020", 
        "u0073_u0074_u0072_u0065_u0065_u0074_u0073 u0020 u006f_u0066 u0020 u0054_u0072_u0069_u0070_u006f_u006c_u0069 u0020 u0061_u006e_u0064_u0020", 
        "u0065_u006c_u0073_u0065_u0077_u0068_u0065_u0072_u0065 u0020 u0069_u006e u0020 u004c_u0069_u0062_u0079_u0061_u002e_u0022_u00a0_u000b", 
        "u0631_u0633_u0627_u0644_u0629 u0020 u0625_u0644_u0649 u0020 u0645_u062c_u0644_u0633 u0020 u0627_u0644_u0623_u0645_u0646 u0020 u062a_u0637_u0627_u0644_u0628_u0020", 
        "u0641_u064a_u0647_u0627 u0020 u0628_u0627_u0644_u062a_u062f_u062e_u0644 u0020 u0644_u0625_u064a_u0642_u0627_u0641 u0020 u0627_u0644_u0627_u0646_u062a_u0647_u0627_u0643_u0627_u062a_u0020", 
        "u0627_u0644_u0641_u0638_u064a_u0639_u0629 u0020 u0641_u064a u0020 u0634_u0648_u0627_u0631_u0639 u0020 u0637_u0631_u0627_u0628_u0644_u0633_u0020", 
        "u0648_u0627_u0644_u0645_u062f_u0646 u0020 u0627_u0644_u0623_u062e_u0631_u0649 u0020 u0641_u064a u0020 u0644_u064a_u0628_u064a_u0627_u000d", 
        "u0032_u0035_u002d_u0030_u0032_u002d_u0032_u0030_u0031_u0031_u000d", 
        "u0627_u0644_u0631_u0627_u0628_u0637"
    ]
}