{
    "bounding_box": [
        [
            8, 
            26, 
            686, 
            43
        ], 
        [
            8, 
            74, 
            686, 
            43
        ], 
        [
            8, 
            123, 
            686, 
            42
        ], 
        [
            8, 
            170, 
            686, 
            43
        ], 
        [
            8, 
            219, 
            686, 
            42
        ], 
        [
            8, 
            264, 
            686, 
            41
        ], 
        [
            8, 
            314, 
            686, 
            43
        ], 
        [
            8, 
            361, 
            686, 
            43
        ], 
        [
            518, 
            412, 
            176, 
            36
        ]
    ], 
    "image_height": 540, 
    "image_width": 720, 
    "transcription": [
        "u0648_u0631_u062f u0020 u0623_u062e_u0631 u0020 u0630_u0643_u0631 u0020 u0644_u0644_u0645_u0644_u0643 u0020 u0645_u0627_u0644_u0643 u0020 u0627_u0644_u0623_u0648_u0644 u0020 u0641_u064a u0020 u0643_u062a_u0627_u0628_u0627_u062a u0020 u064a_u0648_u0633_u064a_u0641_u0648_u0633_u0020", 
        "u062d_u064a_u062b u0020 u0637_u0644_u0628_u062a u0020 u0627_u0628_u0646_u0629 u0020 u0028_u0647_u064a_u0631_u0643_u0627_u0646_u0648_u0633_u0029 u0020 u0028_u0623_u0644_u0643_u0633_u0627_u0646_u062f_u0631_u0627_u0029 u0020 u0645_u0646 u0020 u0645_u0627_u0644_u0643_u0020", 
        "u0645_u0633_u0627_u0639_u062f_u062a_u0647_u0627 u0020 u0644_u0625_u0639_u0627_u062f_u0629 u0020 u0627_u0644_u062d_u0643_u0645 u0020 u0625_u0644_u0649 u0020 u0648_u0627_u0644_u062f_u0647_u0627_u060c u0020 u0644_u0643_u0646 u0020 u0028_u0647_u064a_u0631_u0648_u062f_u0029 u0020 u0642_u0627_u0645_u0020", 
        "u0628_u0642_u062a_u0644 u0020 u0028_u0647_u064a_u0631_u0643_u0627_u0646_u0648_u0633_u0029 u0020 u0627_u0644_u0630_u064a u0020 u0645_u0627_u062a u0020 u0636_u062d_u064a_u0629 u0020 u0644_u062a_u062e_u0637_u064a_u0637 u0020 u0627_u0628_u0646_u062a_u0647_u060c_u0020", 
        "u0644_u0643_u0646 u0020 u0028_u0627_u0643_u062a_u0627_u0641_u064a_u0648_u0633_u0029 u0020 u0648_u0642_u0641 u0020 u0625_u0644_u0649 u0020 u062c_u0627_u0646_u0628 u0020 u0028_u0647_u064a_u0631_u0648_u062f_u0029 u0020 u0648_u0627_u0642_u062a_u0637_u0639_u0020", 
        "u0628_u0639_u0636_u0627_u064b u0020 u0645_u0646 u0020 u0645_u062f_u0646 u0020 u0627_u0644_u0623_u0646_u0628_u0627_u0637 u0020 u0648_u0648_u0636_u0639_u0647_u0627 u0020 u062a_u062d_u062a u0020 u062d_u0643_u0645_u0647_u060c u0020 u0645_u062b_u0644_u0020", 
        "u0645_u062f_u064a_u0646_u0629 u0020 u063a_u0632_u0629 u0020 u0627_u0644_u0645_u064a_u0646_u0627_u0621 u0020 u0627_u0644_u0646_u0628_u0637_u064a u0020 u0627_u0644_u062a_u062c_u0627_u0631_u064a_u060c u0020 u0648_u0623_u0645 u0020 u0642_u064a_u0633_u060c_u0020", 
        "u0648_u0645_u062f_u064a_u0646_u0629 u0020 u0627_u0644_u062d_u0635_u0646 u0020 u0028_u0044_u0069_u006f_u006e_u0029 u0020 u0648_u0627_u0644_u062a_u064a u0020 u062a_u0642_u0639 u0020 u0625_u0644_u0649 u0020 u0627_u0644_u0634_u0631_u0642 u0020 u0645_u0646_u0020", 
        "u0628_u062d_u064a_u0631_u0629 u0020 u0637_u0628_u0631_u064a_u0627_u002e_u0020"
    ]
}