{
    "bounding_box": [
        [
            103, 
            21, 
            570, 
            37
        ], 
        [
            89, 
            98, 
            593, 
            22
        ], 
        [
            561, 
            167, 
            60, 
            20
        ], 
        [
            459, 
            231, 
            80, 
            17
        ], 
        [
            384, 
            285, 
            48, 
            15
        ], 
        [
            321, 
            341, 
            41, 
            14
        ], 
        [
            232, 
            398, 
            74, 
            13
        ], 
        [
            163, 
            450, 
            76, 
            20
        ]
    ], 
    "image_height": 540, 
    "image_width": 720, 
    "transcription": [
        "u0625_u0637_u0627_u0631 u0020 u0639_u0645_u0644 u0020 u0627_u0644_u062a_u062c_u0627_u0631_u0629 u0020 u0627_u0644_u0625_u0644_u0643_u062a_u0631_u0648_u0646_u064a_u0629_u00a0 u0020 u0054_u0068_u0065 u0020 u0045_u0043 u0020 u0046_u0072_u0061_u006d_u0065_u0077_u006f_u0072_u006b_u000d", 
        "u00a0_u064a_u062c_u0631_u064a u0020 u062f_u0639_u0645 u0020 u0627_u0644_u062a_u062c_u0627_u0631_u0629 u0020 u0627_u0644_u0625_u0644_u0643_u062a_u0631_u0648_u0646_u064a_u0629 u0020 u0628_u0627_u0644_u0627_u0633_u062a_u0641_u0627_u062f_u0629 u0020 u0645_u0646 u0020 u0648_u062c_u0648_u062f u0020 u0628_u0646_u064a_u0629 u0020 u062a_u062d_u062a_u064a_u0629 u0020 u0648_u0648_u062c_u0648_u062f u0020 u0639_u062f_u0629 u0020 u0639_u0648_u0627_u0645_u0644 u0020 u0623_u0633_u0627_u0633_u064a_u0629 u0020 u003a_u0020", 
        "u0627_u0644_u0623_u0634_u062e_u0627_u0635_u000d", 
        "u0627_u0644_u0633_u064a_u0627_u0633_u0629_u0627_u0644_u0639_u0627_u0645_u0629", 
        "u0627_u0644_u062a_u0633_u0648_u064a_u0642", 
        "u0627_u0644_u0625_u0639_u0644_u0627_u0646", 
        "u062f_u0639_u0645 u0020 u0627_u0644_u062e_u062f_u0645_u0627_u062a", 
        "u0631_u062c_u0627_u0644 u0020 u0627_u0644_u0623_u0639_u0645_u0627_u0644"
    ]
}