{
    "bounding_box": [
        [
            370, 
            20, 
            291, 
            35
        ], 
        [
            71, 
            74, 
            590, 
            35
        ], 
        [
            253, 
            121, 
            408, 
            30
        ], 
        [
            141, 
            169, 
            488, 
            32
        ], 
        [
            107, 
            217, 
            522, 
            31
        ], 
        [
            359, 
            255, 
            270, 
            28
        ], 
        [
            40, 
            303, 
            589, 
            28
        ], 
        [
            359, 
            340, 
            270, 
            27
        ], 
        [
            96, 
            384, 
            533, 
            33
        ], 
        [
            105, 
            421, 
            525, 
            34
        ], 
        [
            494, 
            463, 
            135, 
            26
        ], 
        [
            30, 
            508, 
            600, 
            29
        ]
    ], 
    "image_height": 540, 
    "image_width": 720, 
    "transcription": [
        "u062b_u0627_u0646_u064a_u0627_u064b_u003a u0020 u0627_u0644_u0645_u0648_u0636_u0648_u0639_u0627_u062a u0020 u0627_u0644_u0641_u0646_u064a_u0629_u000d", 
        "u0627_u0644_u0623_u0646_u0638_u0645_u0629 u0020 u0627_u0644_u0642_u0627_u0646_u0648_u0646_u064a_u0629 u0020 u0644_u0625_u062f_u0627_u0631_u0629 u0020 u0627_u0644_u0645_u0646_u0627_u0637_u0642 u0020 u0627_u0644_u062d_u0631_u0629 u0020 u0648_u0627_u0644_u0627_u0633_u062a_u062b_u0645_u0627_u0631_u064a_u0629_u0020", 
        "u0648_u0627_u0644_u0627_u0642_u062a_u0635_u0627_u062f_u064a_u0629 u0020 u0627_u0644_u0639_u0631_u0628_u064a_u0629 u0020 u0628_u0627_u0644_u062f_u0648_u0644 u0020 u0627_u0644_u0639_u0631_u0628_u064a_u0629_u002e_u000d", 
        "u0645_u0641_u0647_u0648_u0645 u0020 u0627_u0644_u0645_u0646_u0627_u0637_u0642 u0020 u0627_u0644_u062d_u0631_u0629 u0020 u0648_u0627_u0644_u0627_u0633_u062a_u062b_u0645_u0627_u0631_u064a_u0629 u0020 u0648_u0627_u0644_u0627_u0642_u062a_u0635_u0627_u062f_u064a_u0629_u002e_u000d", 
        "u0627_u0644_u0645_u0647_u0627_u0645 u0020 u0648_u0627_u0644_u0648_u0627_u062c_u0628_u0627_u062a u0020 u0627_u0644_u0645_u0646_u0648_u0637_u0629 u0020 u0628_u0645_u0624_u0633_u0633_u0627_u062a u0020 u0627_u0644_u0645_u0646_u0627_u0637_u0642 u0020 u0627_u0644_u062d_u0631_u0629_u0020", 
        "u0648_u0627_u0644_u0627_u0633_u062a_u062b_u0645_u0627_u0631_u064a_u0629 u0020 u0648_u0627_u0644_u0627_u0642_u062a_u0635_u0627_u062f_u064a_u0629_u002e_u000d", 
        "u0627_u0644_u0647_u064a_u0627_u0643_u0644 u0020 u0627_u0644_u062a_u0646_u0638_u064a_u0645_u064a_u0629 u0020 u0644_u0645_u062c_u0627_u0644_u0633 u0020 u0625_u062f_u0627_u0631_u0627_u062a u0020 u0645_u0624_u0633_u0633_u0627_u062a u0020 u0627_u0644_u0645_u0646_u0627_u0637_u0642 u0020 u0627_u0644_u062d_u0631_u0629_u0020", 
        "u0648_u0627_u0644_u0627_u0633_u062a_u062b_u0645_u0627_u0631_u064a_u0629 u0020 u0648_u0627_u0644_u0627_u0642_u062a_u0635_u0627_u062f_u064a_u0629_u002e_u000d", 
        "u0622_u0644_u064a_u0627_u062a u0020 u0625_u0635_u062f_u0627_u0631 u0020 u0627_u0644_u062a_u0635_u0627_u0631_u064a_u062d u0020 u0648_u0627_u0644_u0645_u0648_u0627_u0641_u0642_u0627_u062a u0020 u0627_u0644_u0645_u062a_u0639_u0644_u0642_u0629 u0020 u0628_u0645_u0645_u0627_u0631_u0633_u0629_u0020", 
        "u0627_u0644_u0623_u0646_u0634_u0637_u0629 u0020 u0627_u0644_u0627_u0642_u062a_u0635_u0627_u062f_u064a_u0629 u0020 u0641_u064a u0020 u0627_u0644_u0645_u0646_u0627_u0637_u0642 u0020 u0627_u0644_u062d_u0631_u0629 u0020 u0648_u0627_u0644_u0627_u0633_u062a_u062b_u0645_u0627_u0631_u064a_u0629_u0020", 
        "u0648_u0627_u0644_u0627_u0642_u062a_u0635_u0627_u062f_u064a_u0629_u002e_u000d", 
        "u0627_u0644_u0645_u0646_u0627_u0637_u0642 u0020 u0627_u0644_u062d_u0631_u0629 u0020 u0648_u0627_u0644_u0627_u0633_u062a_u062b_u0645_u0627_u0631_u064a_u0629 u0020 u0648_u0627_u0644_u0627_u0642_u062a_u0635_u0627_u062f_u064a_u0629 u0020 u0648_u0625_u062f_u0627_u0631_u0627_u062a u0020 u0627_u0644_u062c_u0645_u0627_u0631_u0643_u002e"
    ]
}