{
    "bounding_box": [
        [
            158, 
            37, 
            375, 
            77
        ], 
        [
            159, 
            210, 
            394, 
            54
        ], 
        [
            114, 
            285, 
            485, 
            81
        ]
    ], 
    "image_height": 540, 
    "image_width": 720, 
    "transcription": [
        "u0642_u0628_u064a_u0644_u0629 u0020 u0627_u0644_u062d_u0628_u0644_u064a_u0627_u062a_u000b", 
        "u0020_u0050_u0068_u0079_u006c_u0075_u006d_u0020", 
        "u0043_u0068_u006f_u0072_u0064_u0061_u0074_u0061_u0020"
    ]
}