{
    "bounding_box": [
        [
            105, 
            80, 
            570, 
            24
        ], 
        [
            315, 
            122, 
            321, 
            28
        ], 
        [
            265, 
            165, 
            370, 
            34
        ], 
        [
            34, 
            212, 
            618, 
            34
        ], 
        [
            487, 
            254, 
            188, 
            29
        ], 
        [
            34, 
            299, 
            618, 
            31
        ], 
        [
            525, 
            337, 
            150, 
            30
        ], 
        [
            34, 
            381, 
            618, 
            33
        ], 
        [
            223, 
            423, 
            453, 
            30
        ]
    ], 
    "image_height": 540, 
    "image_width": 720, 
    "transcription": [
        "u0646_u06a9_u0627_u062a_u06cc u0020 u06a9_u0647 u0020 u062c_u0647_u062a u0020 u062a_u0647_u06cc_u0647 u0020 u0627_u06cc_u0646 u0020 u0631_u0633_u0627_u0646_u0647 u0020 u0645_u06cc u0020 u0628_u0627_u06cc_u0633_u062a u0020 u062f_u0631 u0020 u0646_u0638_u0631 u0020 u0628_u0627_u0634_u062f u0020 u0639_u0628_u0627_u0631_u062a u0020 u0627_u0633_u062a u0020 u0627_u0632_u003a u0020 u000d", 
        "u0645_u0646_u0637_u0628_u0642 u0020 u0628_u0648_u062f_u0646 u0020 u0645_u0637_u0627_u0644_u0628 u0020 u0648 u0020 u062a_u0635_u0627_u0648_u06cc_u0631_u000d", 
        "u0627_u0633_u062a_u0641_u0627_u062f_u0647 u0020 u0627_u0632 u0020 u062a_u0635_u0627_u0648_u06cc_u0631 u0020 u0648 u0020 u0631_u0646_u06af_u0647_u0627_u064a u0020 u062c_u0627_u0644_u0628_u000d", 
        "u0628_u0631 u0020 u062e_u0648_u0631_u062f_u0627_u0631_u064a u0020 u0627_u0632 u0020 u0632_u0628_u0627_u0646 u0020 u0633_u0627_u062f_u0647 u0020 u0648 u0020 u0642_u0627_u0628_u0644 u0020 u0641_u0647_u0645 u0020 u0628_u0631_u0627_u064a u0020 u06af_u0631_u0648_u0647 u0020 u0647_u062f_u0641_u0020", 
        "u0645_u0648_u0631_u062f u0020 u0646_u0638_u0631 u0020 u067e_u0645_u0641_u0644_u062a u0020 u000d", 
        "u0020_u062f_u0627_u0634_u062a_u0646 u0020 u067e_u06cc_u0627_u0645_u0647_u0627_u06cc_u06cc u0020 u06a9_u0647 u0020 u0645_u06cc u0020 u0628_u0627_u06cc_u0633_u062a u0020 u06a9_u0648_u062a_u0627_u0647 u0020 u0648 u0020 u0645_u0631_u062a_u0628_u0637 u0020 u0628_u0627 u0020 u0645_u0648_u0636_u0648_u0639_u0020", 
        "u067e_u0645_u0641_u0644_u062a u0020 u0628_u0627_u0634_u062f u0020 u0648 u0020 u000d", 
        "u0020_u0630_u06a9_u0631_u0622_u062f_u0631_u0633_u06cc u0020 u062c_u0647_u062a u0020 u067e_u0627_u0633_u062e_u06af_u0648_u0626_u06cc u0020 u0628_u0647 u0020 u0633_u0648_u0627_u0644_u0627_u062a_u06cc u0020 u06a9_u0647 u0020 u0645_u0645_u06a9_u0646 u0020 u0627_u0633_u062a u0020 u0628_u0647_u0020", 
        "u062f_u0646_u0628_u0627_u0644 u0020 u0645_u0637_u0627_u0644_u0639_u0647 u0020 u067e_u0645_u0641_u0644_u062a u0020 u0628_u0631_u0627_u064a u0020 u0645_u062e_u0627_u0637_u0628 u0020 u067e_u06cc_u0634 u0020 u0628_u06cc_u0627_u06cc_u062f_u002e"
    ]
}