{
    "bounding_box": [
        [
            110, 
            219, 
            513, 
            23
        ], 
        [
            222, 
            50, 
            276, 
            35
        ]
    ], 
    "image_height": 540, 
    "image_width": 720, 
    "transcription": [
        "u0641_u064a_u0647 u0020 u0627_u0644_u062a_u062d_u062f_u064a_u062b u0020 u0628_u0635_u064a_u063a_u062a_u064a u0020 u0627_u0644_u062c_u0645_u0639 u0020 u0648_u0627_u0644_u0625_u0641_u0631_u0627_u062f_u060c u0020 u0648_u0627_u0644_u0639_u0646_u0639_u0646_u0629_u060c u0020 u0648_u0627_u0644_u0642_u0631_u0627_u0621_u0629 u0020 u0639_u0644_u0649 u0020 u0627_u0644_u0634_u064a_u062e_u002e", 
        "u0623_u0644_u0641_u0627_u0638 u0020 u0627_u0644_u062a_u062d_u0645_u0644 u0020 u0648_u0627_u0644_u0623_u062f_u0627_u0621"
    ]
}