{
    "bounding_box": [
        [
            396, 
            103, 
            255, 
            33
        ], 
        [
            254, 
            231, 
            397, 
            38
        ], 
        [
            264, 
            405, 
            377, 
            36
        ], 
        [
            363, 
            51, 
            252, 
            35
        ], 
        [
            56, 
            164, 
            598, 
            29
        ], 
        [
            396, 
            199, 
            258, 
            27
        ], 
        [
            285, 
            280, 
            380, 
            26
        ], 
        [
            76, 
            339, 
            583, 
            25
        ], 
        [
            296, 
            368, 
            363, 
            25
        ], 
        [
            438, 
            449, 
            154, 
            32
        ]
    ], 
    "image_height": 540, 
    "image_width": 720, 
    "transcription": [
        "u0645_u0627 u0020 u0623_u0647_u0645_u064a_u0629 u0020 u0627_u0644_u0645_u0633_u0624_u0648_u0644_u064a_u0629 u0020 u061f_u000d", 
        "u0639_u0631_u0641_u064a u0020 u0627_u0644_u0645_u0633_u0624_u0648_u0644_u064a_u0629 u0020 u0644_u063a_u0629 u0020 u0648_u0627_u0635_u0637_u0644_u0627_u062d_u0627 u0020 u061f_u000d", 
        "u0645_u062a_u0649 u0020 u062a_u0628_u062f_u0623 u0020 u0627_u0644_u0645_u0633_u0624_u0648_u0644_u064a_u0629 u0020 u0639_u0646_u062f u0020 u0627_u0644_u0634_u0627_u0628 u0020 u061f", 
        "u0020_u0031_u002e_u0623_u062c_u064a_u0628_u064a u0020 u0639_u0645_u0627 u0020 u064a_u0623_u062a_u064a u0020 u003a_u002d", 
        "u0627_u0644_u0645_u0633_u0624_u0648_u0644_u064a_u0629 u0020 u0641_u0647_u064a u0020 u0645_u0647_u0645_u0629 u0020 u0020_u0628_u0647_u0627 u0020 u0020_u064a_u0642_u062f_u0631 u0020 u0627_u0644_u0622_u062e_u0631_u064a_u0646 u0020 u002c u0020 u0648_u064a_u0639_u0637_u064a u0020 u0643_u0644 u0020 u0635_u0627_u062d_u0628 u0020 u062d_u0642_u0020", 
        "u062d_u0642_u0647 u0020 u002c_u0648 u0020 u064a_u0633_u0648_u062f u0020 u0627_u0644_u0646_u0638_u0627_u0645 u0020 u0648_u0627_u0644_u0639_u062f_u0644 u0020 u002e", 
        "u0644_u063a_u0629_u064b u0020 u0020_u003a u0020 u0627_u0644_u062a_u0632_u0627_u0645 u0020 u0627_u0644_u0634_u062e_u0635 u0020 u0628_u0645_u0627 u0020 u064a_u0635_u062f_u0631 u0020 u0639_u0646_u0647 u0020 u0642_u0648_u0644_u0627_u064b u0020 u0623_u0648 u0020 u0639_u0645_u0644_u0627_u064b_u000d", 
        "u0627_u0635_u0637_u0644_u0627_u062d_u0627 u0020 u003a u0020 u0635_u0641_u0629 u0020 u0627_u0644_u0634_u062e_u0635 u0020 u0020_u0627_u0644_u0630_u064a u0020 u064a_u0624_u062f_u064a u0020 u0639_u0645_u0644_u0647 u0020 u0628_u0627_u0646_u062a_u0638_u0627_u0645 u0020 u002c u0020 u0648_u0645_u0627 u0020 u0639_u0644_u064a_u0647 u0020 u0645_u0646 u0020 u0627_u0644_u062a_u0632_u0627_u0645_u0627_u062a_u0020", 
        "u0628_u063a_u064a_u0631 u0020 u062d_u0627_u062c_u0629 u0020 u0625_u0644_u0649 u0020 u0631_u0642_u0627_u0628_u0629 u0020 u0623_u0648 u0020 u062a_u0648_u062c_u064a_u0647 u0020 u0645_u0646 u0020 u0634_u062e_u0635 u0020 u0622_u062e_u0631_u002e", 
        "u0639_u0646_u062f u0020 u0633_u0646 u0020 u0627_u0644_u0628_u0644_u0648_u063a"
    ]
}