{
    "bounding_box": [
        [
            407, 
            53, 
            294, 
            42
        ], 
        [
            227, 
            172, 
            644, 
            19
        ], 
        [
            210, 
            193, 
            660, 
            19
        ], 
        [
            233, 
            213, 
            638, 
            19
        ], 
        [
            758, 
            233, 
            112, 
            19
        ], 
        [
            216, 
            264, 
            655, 
            19
        ], 
        [
            237, 
            284, 
            633, 
            19
        ], 
        [
            341, 
            305, 
            529, 
            19
        ], 
        [
            443, 
            325, 
            428, 
            29
        ], 
        [
            230, 
            364, 
            641, 
            20
        ], 
        [
            247, 
            386, 
            624, 
            19
        ], 
        [
            578, 
            406, 
            293, 
            19
        ], 
        [
            221, 
            427, 
            649, 
            29
        ]
    ], 
    "image_height": 540, 
    "image_width": 960, 
    "transcription": [
        "u062e_u0627_u0645_u0633_u0627_u064b_u003a u0020 u0627_u0644_u0635_u0628_u0631 u0020 u0648_u0627_u0644_u0623_u0646_u0627_u0629", 
        "u0648_u0623_u062e_u064a_u0631_u0627_u064b u0020 u0639_u0644_u064a_u0643 u0020 u064a_u0627 u0020 u0623_u062e_u064a u0020 u0628_u0627_u0644_u0635_u0628_u0631 u0020 u0648_u0637_u0648_u0644 u0020 u0627_u0644_u0646_u0641_u0633 u0020 u0641_u064a u0020 u0633_u064a_u0631_u0643 u0020 u0625_u0644_u0649 u0020 u0645_u0631_u0627_u062f_u0643 u0020 u060c u0020 u0648_u0627_u0645_u062a_u062b_u0644 u0020 u0642_u0648_u0644 u0020 u0631_u0628_u0643 u0020 u0028_u0020", 
        "u0648_u064e_u0627_u0635_u0652_u0628_u0650_u0631_u0652 u0020 u0646_u064e_u0641_u0652_u0633_u064e_u0643_u064e u0020 u0645_u064e_u0639_u064e u0020 u0627_u0644_u0651_u064e_u0630_u0650_u064a_u0646_u064e u0020 u064a_u064e_u062f_u0652_u0639_u064f_u0648_u0646_u064e u0020 u0631_u064e_u0628_u0651_u064e_u0647_u064f_u0645_u0652 u0020 u0628_u0650_u0627_u0644_u0652_u063a_u064e_u062f_u064e_u0627_u0629_u0650 u0020 u0648_u064e_u0627_u0644_u0652_u0639_u064e_u0634_u0650_u064a_u0651_u0650 u0020 u064a_u064f_u0631_u0650_u064a_u062f_u064f_u0648_u0646_u064e u0020 u0648_u064e_u062c_u0652_u0647_u064e_u0647_u064f u0020 u0648_u064e_u0644_u0627 u0020 u062a_u064e_u0639_u0652_u062f_u064f u0020 u0639_u064e_u064a_u0652_u0646_u064e_u0627_u0643_u064e u0020 u0639_u064e_u0646_u0652_u0647_u064f_u0645_u0652_u0020", 
        "u062a_u064f_u0631_u0650_u064a_u062f_u064f u0020 u0632_u0650_u064a_u0646_u064e_u0629_u064e u0020 u0627_u0644_u0652_u062d_u064e_u064a_u064e_u0627_u0629_u0650 u0020 u0627_u0644_u062f_u0651_u064f_u0646_u0652_u064a_u064e_u0627 u0020 u0648_u064e_u0644_u0627 u0020 u062a_u064f_u0637_u0650_u0639_u0652 u0020 u0645_u064e_u0646_u0652 u0020 u0623_u064e_u063a_u0652_u0641_u064e_u0644_u0652_u0646_u064e_u0627 u0020 u0642_u064e_u0644_u0652_u0628_u064e_u0647_u064f u0020 u0639_u064e_u0646_u0652 u0020 u0630_u0650_u0643_u0652_u0631_u0650_u0646_u064e_u0627 u0020 u0648_u064e_u0627_u062a_u0651_u064e_u0628_u064e_u0639_u064e u0020 u0647_u064e_u0648_u064e_u0627_u0647_u064f u0020 u0648_u064e_u0643_u064e_u0627_u0646_u064e u0020 u0623_u064e_u0645_u0652_u0631_u064f_u0647_u064f u0020 u0641_u064f_u0631_u064f_u0637_u0627_u064b_u0029_u0020", 
        "u0028_u0627_u0644_u0643_u0647_u0641_u003a_u0032_u0038_u0029 u0020 u0030_u000d", 
        "u0641_u0644_u0627 u0020 u062a_u0645_u0644 u0020 u0627_u0644_u0637_u0631_u064a_u0642 u0020 u060c u0020 u0648_u0644_u0627 u0020 u062a_u062a_u0633_u062a_u0628_u0637_u0623 u0020 u0627_u0644_u0645_u0631_u0627_u062f u0020 u060c u0020 u0641_u0623_u0648_u0644 u0020 u0627_u0644_u063a_u064a_u062b u0020 u0642_u0637_u0631_u0629 u0020 u060c u0020 u0020_u0648_u0627_u062c_u062a_u064a_u0627_u0632 u0020 u0627_u0644_u0623_u0645_u064a_u0627_u0644 u0020 u064a_u0628_u062f_u0623 u0020 u0628_u062e_u0637_u0648_u0629_u0020", 
        "u060c u0020 u0648_u0627_u062d_u0630_u0631 u0020 u0627_u0644_u0639_u062c_u0644_u0629 u0020 u060c u0020 u0641_u0625_u0646_u0647_u0627 u0020 u0645_u0646 u0020 u0627_u0644_u0634_u064a_u0637_u0627_u0646 u0020 u060c u0020 u0648_u0627_u0644_u0632_u0645 u0020 u0627_u0644_u062a_u0623_u0646_u064a u0020 u0644_u0623_u0646_u0647 u0020 u0645_u0646 u0020 u0627_u0644_u0625_u064a_u0645_u0627_u0646 u0020 u060c u0020 u0020_u0642_u0627_u0644 u0020 u0633_u0628_u062d_u0627_u0646_u0647 u0020 u0028_u0020", 
        "u062e_u064f_u0644_u0650_u0642_u064e u0020 u0627_u0644_u0652_u0623_u0650_u0646_u0652_u0633_u064e_u0627_u0646_u064f u0020 u0645_u0650_u0646_u0652 u0020 u0639_u064e_u062c_u064e_u0644_u064d u0020 u0633_u064e_u0623_u064f_u0631_u0650_u064a_u0643_u064f_u0645_u0652 u0020 u0622_u064a_u064e_u0627_u062a_u0650_u064a u0020 u0641_u064e_u0644_u0627 u0020 u062a_u064e_u0633_u0652_u062a_u064e_u0639_u0652_u062c_u0650_u0644_u064f_u0648_u0646_u0650_u0029 u0020 u0028_u0627_u0644_u0627_u0646_u0628_u064a_u0627_u0621_u003a_u0033_u0037_u0029 u0020 u0030_u000d", 
        "u0641_u0623_u0648_u063a_u0644 u0020 u0628_u0631_u0641_u0642 u0020 u0641_u0625_u0646 u0020 u0627_u0644_u0645_u0646_u0628_u062a u0020 u0644_u0627 u0020 u0623_u0631_u0636_u0627_u064b u0020 u0642_u0637_u0639 u0020 u060c u0020 u0648_u0644_u0627 u0020 u0638_u0647_u0631_u0627_u064b u0020 u0623_u0628_u0642_u0649 u0020 u0030_u000d", 
        "u0648_u0623_u062e_u064a_u0631_u0627_u064b u0020 u003a u0020 u0631_u0632_u0642_u0646_u064a u0020 u0627_u0644_u0644_u0647 u0020 u0648_u0625_u064a_u0627_u0643 u0020 u062d_u0633_u0646 u0020 u0627_u0644_u0642_u0635_u062f u0020 u0648_u0635_u0627_u0644_u062d u0020 u0627_u0644_u0639_u0645_u0644 u0020 u060c u0020 u0648_u062c_u0646_u0628_u0646_u0627 u0020 u0627_u0644_u0632_u064a_u063a u0020 u0648_u0627_u0644_u0632_u0644_u0644 u0020 u060c u0020 u0648_u0623_u0631_u0634_u062f_u0646_u0627_u0020", 
        "u0625_u0644_u0649 u0020 u0645_u0627 u0020 u0641_u064a_u0647 u0020 u062e_u064a_u0631 u0020 u0627_u0644_u0628_u0644_u0627_u062f u0020 u0648_u0627_u0644_u0639_u0628_u0627_u062f u0020 u060c u0020 u0625_u0646_u0647 u0020 u0623_u0643_u0631_u0645 u0020 u0645_u0633_u0626_u0648_u0644 u0020 u0648_u0623_u0641_u0636_u0644 u0020 u0645_u0623_u0645_u0648_u0644 u0020 u060c u0020 u0648_u0635_u0644 u0020 u0627_u0644_u0644_u0647_u0645 u0020 u0648_u0628_u0627_u0631_u0643_u0020", 
        "u0639_u0644_u0649 u0020 u0633_u064a_u062f_u0646_u0627 u0020 u0645_u062d_u0645_u062f u0020 u0648_u0622_u0644_u0647 u0020 u0648_u0635_u062d_u0628_u0647 u0020 u0648_u0633_u0644_u0645 u0020 u0030_u000d", 
        "u0009_u0633_u0628_u062d_u0627_u0646 u0020 u0631_u0628_u0643 u0020 u0631_u0628 u0020 u0627_u0644_u0639_u0632_u0629 u0020 u0639_u0645_u0627 u0020 u064a_u0635_u0641_u0648_u0646 u0020 u0648_u0633_u0644_u0627_u0645 u0020 u0639_u0644_u0649 u0020 u0627_u0644_u0645_u0631_u0633_u0644_u064a_u0646 u0020 u0648_u0627_u0644_u062d_u0645_u062f u0020 u0644_u0644_u0647 u0020 u0631_u0628 u0020 u0627_u0644_u0639_u0627_u0644_u0645_u064a_u0646 u0020 u0030_u000d"
    ]
}