{
    "bounding_box": [
        [
            26, 
            216, 
            672, 
            28
        ], 
        [
            83, 
            249, 
            615, 
            28
        ], 
        [
            91, 
            281, 
            607, 
            28
        ], 
        [
            433, 
            318, 
            265, 
            26
        ], 
        [
            251, 
            355, 
            446, 
            26
        ], 
        [
            88, 
            397, 
            582, 
            28
        ], 
        [
            175, 
            437, 
            496, 
            29
        ], 
        [
            11, 
            476, 
            660, 
            30
        ], 
        [
            226, 
            510, 
            444, 
            29
        ], 
        [
            130, 
            80, 
            465, 
            49
        ]
    ], 
    "image_height": 540, 
    "image_width": 720, 
    "transcription": [
        "u0627_u0644_u062a_u0634_u0631_u064a_u0639_u0627_u062a u0020 u0627_u0644_u062e_u0627_u0635_u0629 u0020 u0628_u062f_u0639_u0645 u0020 u0648_u062a_u0646_u0645_u064a_u0629 u0020 u0627_u0644_u0642_u0637_u0627_u0639 u0020 u0627_u0644_u0635_u0646_u0627_u0639_u064a u0020 u0645_u0631_u062a u0020 u0628_u0639_u062f_u0629_u0020", 
        "u0645_u0631_u0627_u062d_u0644 u0020 u0628_u062d_u064a_u062b u0020 u062a_u0648_u0627_u0643_u0628 u0020 u062a_u0637_u0648_u0631_u0627_u062a u0020 u0627_u0644_u0642_u0637_u0627_u0639 u0020 u0648_u062a_u0634_u062c_u0639 u0020 u0639_u0644_u0649 u0020 u0627_u0642_u0627_u0645_u0629_u0020", 
        "u0645_u0646_u0634_u0627_u062a u0020 u0635_u0646_u0627_u0639_u064a_u0629 u0020 u0630_u0627_u062a u0020 u0642_u064a_u0645_u0629 u0020 u0645_u0636_u0627_u0641_u0629 u0020 u0639_u0627_u0644_u064a_u0629 u0020 u062a_u062e_u062f_u0645 u0020 u0627_u0644_u0627_u0642_u062a_u0635_u0627_u062f_u0020", 
        "u0627_u0644_u0648_u0637_u0646_u064a u0020 u0648_u0647_u064a u0020 u0643_u0645_u0627 u0020 u064a_u0644_u064a u0020 u003a_u000d", 
        "u0627_u0648_u0644_u0627_u064b u0020 u003a u0020 u0642_u0627_u0646_u0648_u0646 u0020 u062d_u0645_u0627_u064a_u0629 u0020 u0627_u0644_u0635_u0646_u0627_u0639_u0627_u062a u0020 u0627_u0644_u0646_u0627_u0645_u064a_u0629 u0020 u003a_u000d", 
        "u0635_u062f_u0631 u0020 u0627_u0644_u0645_u0631_u0633_u0648_u0645 u0020 u0627_u0644_u0633_u0644_u0637_u0627_u0646_u064a u0020 u0631_u0642_u0645 u0020 u0036_u002f_u0037_u0034 u0020 u0641_u064a u0020 u0639_u0627_u0645 u0020 u0031_u0039_u0037_u0034_u002e_u000d", 
        "u064a_u0639_u062a_u0628_u0631 u0020 u0627_u0648_u0644 u0020 u0642_u0627_u0646_u0648_u0646 u0020 u0645_u062e_u062a_u0635 u0020 u0628_u0627_u0644_u0642_u0637_u0627_u0639 u0020 u0627_u0644_u0635_u0646_u0627_u0639_u064a_u002e u0020 u000d", 
        "u0020_u0627_u0644_u0642_u0627_u0646_u0648_u0646 u0020 u064a_u0639_u0646_u064a u0020 u0628_u062a_u0642_u062f_u064a_u0645 u0020 u0627_u0644_u062a_u0633_u0647_u064a_u0644_u0627_u062a u0020 u0627_u0644_u0645_u0628_u0633_u0637_u0629 u0020 u0644_u0625_u0642_u0627_u0645_u0629 u0020 u0627_u0644_u0645_u0646_u0634_u0622_u062a_u0020", 
        "u0627_u0644_u0635_u0646_u0627_u0639_u064a_u0629 u0020 u0648_u062a_u0630_u0644_u064a_u0644 u0020 u0627_u0644_u0639_u0642_u0628_u0627_u062a u0020 u0627_u0644_u062a_u064a u0020 u062a_u0648_u0627_u062c_u0647_u0647_u002e_u000d", 
        "u0627_u0644_u062a_u0634_u0631_u064a_u0639_u0627_u062a u0020 u0627_u0644_u062e_u0627_u0635_u0629 u0020 u0628_u062f_u0639_u0645 u0020 u0627_u0644_u0635_u0646_u0627_u0639_u0629"
    ]
}