{
    "bounding_box": [
        [
            117, 
            68, 
            498, 
            43
        ], 
        [
            117, 
            117, 
            501, 
            40
        ], 
        [
            87, 
            164, 
            531, 
            41
        ], 
        [
            434, 
            212, 
            184, 
            37
        ], 
        [
            92, 
            264, 
            548, 
            45
        ], 
        [
            154, 
            312, 
            464, 
            44
        ], 
        [
            518, 
            369, 
            100, 
            30
        ]
    ], 
    "image_height": 540, 
    "image_width": 720, 
    "transcription": [
        "u0643_u0627_u0646 u0020 u0627_u0644_u0646_u0628_u064a u0020 u0635_u0644_u0649 u0020 u0627_u0644_u0644_u0647 u0020 u0639_u0644_u064a_u0647 u0020 u0648_u0633_u0644_u0645 u0020 u064a_u0642_u0648_u0645 u0020 u0628_u0645_u0647_u0645_u0629 u0020 u062a_u0628_u0644_u064a_u063a u0020 u0627_u0644_u0631_u0633_u0627_u0644_u0629_u0020", 
        "u0648_u062a_u0639_u0644_u064a_u0645 u0020 u0627_u0644_u0646_u0627_u0633_u060c u0020 u0641_u0647_u0644 u0020 u0634_u063a_u0644_u0647 u0020 u0630_u0644_u0643 u0020 u0639_u0646 u0020 u0627_u0644_u0642_u064a_u0627_u0645_u0020", 
        "u0628_u0634_u0624_u0648_u0646 u0020 u0645_u0646_u0632_u0644_u0647_u061f u0020 u0648_u0647_u0644 u0020 u0623_u062b_u0631 u0020 u0630_u0644_u0643 u0020 u0639_u0644_u0649 u0020 u0645_u0639_u0627_u0645_u0644_u062a_u0647_u0020", 
        "u0644_u0623_u0647_u0644_u0647 u0020 u0648_u062e_u062f_u0645_u0647_u061f_u000d", 
        "u0625_u0646 u0020 u0627_u0644_u0646_u0628_u064a u0020 u0635_u0644_u0649 u0020 u0627_u0644_u0644_u0647 u0020 u0639_u0644_u064a_u0647 u0020 u0648_u0633_u0644_u0645 u0020 u0643_u0627_u0646 u0020 u0623_u0643_u0645_u0644 u0020 u0627_u0644_u0646_u0627_u0633 u0020 u062e_u0644_u0642_u0627_u064b u0020 u0648_u0623_u062d_u0633_u0646_u0647_u0645_u0020", 
        "u062a_u0639_u0627_u0645_u0644_u0627_u064b_u060c u0020 u0641_u0643_u064a_u0641 u0020 u0643_u0627_u0646 u0020 u062a_u0639_u0627_u0645_u0644_u0647 u0020 u0635_u0644_u0649 u0020 u0627_u0644_u0644_u0647 u0020 u0639_u0644_u064a_u0647 u0020 u0648_u0633_u0644_u0645 u0020 u0645_u0639 u0020 u0623_u0647_u0644_u0647_u0020", 
        "u0648_u062e_u062f_u0645_u0647_u061f"
    ]
}