{
    "bounding_box": [
        [
            141, 
            38, 
            437, 
            23
        ], 
        [
            58, 
            81, 
            460, 
            28
        ], 
        [
            58, 
            123, 
            634, 
            29
        ], 
        [
            58, 
            158, 
            84, 
            22
        ], 
        [
            58, 
            200, 
            533, 
            22
        ], 
        [
            71, 
            240, 
            616, 
            20
        ], 
        [
            71, 
            264, 
            609, 
            21
        ], 
        [
            71, 
            289, 
            618, 
            22
        ], 
        [
            71, 
            316, 
            596, 
            21
        ], 
        [
            71, 
            342, 
            191, 
            16
        ], 
        [
            71, 
            374, 
            271, 
            21
        ], 
        [
            71, 
            406, 
            181, 
            21
        ], 
        [
            71, 
            436, 
            169, 
            22
        ], 
        [
            71, 
            469, 
            362, 
            21
        ]
    ], 
    "image_height": 540, 
    "image_width": 720, 
    "transcription": [
        "u0050_u0073_u0079_u0063_u0068_u006f_u006c_u006f_u0067_u0069_u0063_u0061_u006c u0020 u0065_u006c_u0065_u006d_u0065_u006e_u0074_u0073_u003a u0020 u0043_u0061_u0072_u006e_u0061_u006c u0020 u0044_u0065_u0073_u0069_u0072_u0065_u0073", 
        "u0049_u006c_u006c_u0069_u0063_u0069_u0074 u0020 u0072_u0065_u006c_u0061_u0074_u0069_u006f_u006e_u0073_u0068_u0069_u0070_u0073 u0020 u0062_u0065_u0066_u006f_u0072_u0065 u0020 u006d_u0061_u0072_u0072_u0069_u0061_u0067_u0065_u000d", 
        "u004c_u0061_u0063_u006b u0020 u006f_u0066 u0020 u0070_u0069_u0065_u0074_u0079 u0020 u0061_u0066_u0074_u0065_u0072 u0020 u006d_u0061_u0072_u0072_u0069_u0061_u0067_u0065 u0020 u0069_u006e u0020 u0063_u006f_u006e_u0074_u0072_u006f_u006c_u006c_u0069_u006e_u0067 u0020 u0063_u0061_u0072_u006e_u0061_u006c_u0020", 
        "u0064_u0065_u0073_u0069_u0072_u0065_u000d", 
        "u0053_u006f_u006d_u0065 u0020 u0063_u0061_u0075_u0073_u0065_u0073 u0020 u006f_u0066 u0020 u0064_u0065_u0063_u0072_u0065_u0061_u0073_u0065_u0064 u0020 u0063_u0061_u0072_u006e_u0061_u006c u0020 u0064_u0065_u0073_u0069_u0072_u0065_u0073_u003a_u000d", 
        "u0045_u0063_u006f_u006e_u006f_u006d_u0069_u0063 u0020 u0069_u0073_u0073_u0075_u0065_u0073_u003a u0020 u0046_u0069_u006e_u0061_u006e_u0063_u0069_u0061_u006c u0020 u0070_u0072_u006f_u0062_u006c_u0065_u006d_u0073_u002c u0020 u0075_u006e_u0065_u006d_u0070_u006c_u006f_u0079_u006d_u0065_u006e_u0074_u002c u0020 u006f_u0076_u0065_u0072_u0074_u0069_u006d_u0065_u0020", 
        "u0061_u006c_u006c u0020 u0072_u0065_u0073_u0075_u006c_u0074 u0020 u0069_u006e u0020 u0064_u0065_u0073_u0074_u0061_u0062_u0069_u006c_u0069_u007a_u0069_u006e_u0067 u0020 u0068_u0065_u0061_u006c_u0074_u0068_u0079 u0020 u0072_u0065_u006c_u0061_u0074_u0069_u006f_u006e_u0073_u0068_u0069_u0070 u0020 u0062_u0065_u0074_u0077_u0065_u0065_u006e u0020 u0068_u0075_u0073_u0062_u0061_u006e_u0064_u0020", 
        "u0061_u006e_u0064 u0020 u0077_u0069_u0066_u0065_u002e u0020 u0046_u0065_u0061_u0072 u0020 u0061_u006e_u0064 u0020 u0061_u006e_u0078_u0069_u0065_u0074_u0079 u0020 u006d_u0061_u006b_u0065 u0020 u0074_u0068_u0065_u0069_u0072 u0020 u0077_u0061_u0079 u0020 u0069_u006e u0020 u0074_u0068_u0065 u0020 u0068_u006f_u0075_u0073_u0065 u0020 u0062_u0065_u0063_u0061_u0075_u0073_u0065_u0020", 
        "u006f_u0066 u0020 u0066_u0069_u006e_u0061_u006e_u0063_u0069_u0061_u006c u0020 u0069_u006e_u0073_u0065_u0063_u0075_u0072_u0069_u0074_u0079_u002e u0020 u0041_u0073 u0020 u0061 u0020 u0072_u0065_u0073_u0075_u006c_u0074 u0020 u0073_u0070_u006f_u0075_u0073_u0065_u0073 u0020 u0062_u0065_u0063_u006f_u006d_u0065 u0020 u0061_u0067_u0067_u0072_u0065_u0073_u0073_u0069_u0076_u0065_u0020", 
        "u0074_u006f_u0077_u0061_u0072_u0064_u0073 u0020 u0065_u0061_u0063_u0068 u0020 u006f_u0074_u0068_u0065_u0072_u002e_u000d", 
        "u0050_u0068_u0079_u0073_u0069_u0063_u0061_u006c u0020 u0061_u006e_u0064 u0020 u006d_u0065_u006e_u0074_u0061_u006c u0020 u0066_u0061_u0074_u0069_u0067_u0075_u0065_u000d", 
        "u004e_u0065_u0067_u0061_u0074_u0069_u0076_u0065 u0020 u0074_u0068_u006f_u0075_u0067_u0068_u0074_u0073_u000d", 
        "u0042_u0065_u0069_u006e_u0067 u0020 u0055_u006e_u0066_u0061_u0069_u0074_u0068_u0066_u0075_u006c_u000d", 
        "u0046_u0065_u0061_u0072 u0020 u0061_u006e_u0064 u0020 u0064_u0065_u0062_u0061_u0074_u0065 u0020 u006f_u0076_u0065_u0072 u0020 u0068_u0061_u0076_u0069_u006e_u0067 u0020 u0063_u0068_u0069_u006c_u0064_u0072_u0065_u006e_u000d"
    ]
}