{
    "bounding_box": [
        [
            15, 
            30, 
            691, 
            42
        ], 
        [
            15, 
            79, 
            691, 
            47
        ], 
        [
            15, 
            131, 
            691, 
            48
        ], 
        [
            15, 
            185, 
            691, 
            42
        ], 
        [
            15, 
            237, 
            691, 
            42
        ], 
        [
            15, 
            290, 
            691, 
            46
        ], 
        [
            15, 
            345, 
            691, 
            45
        ], 
        [
            15, 
            392, 
            691, 
            51
        ], 
        [
            314, 
            446, 
            391, 
            50
        ]
    ], 
    "image_height": 540, 
    "image_width": 720, 
    "transcription": [
        "u0648_u0628_u0627_u0644_u0625_u0636_u0627_u0641_u0629 u0020 u0625_u0644_u0649 u0020 u0627_u0644_u062a_u0642_u0631_u064a_u0631 u0020 u0627_u0644_u0645_u0642_u062f_u0645 u0020 u0645_u0646 u0020 u0627_u0644_u062f_u0648_u0644_u0629 u0020 u0627_u0644_u0637_u0631_u0641_u060c_u0020", 
        "u062a_u062a_u0644_u0642_u0649 u0020 u0627_u0644_u0644_u062c_u0646_u0629 u0020 u0645_u0639_u0644_u0648_u0645_u0627_u062a u0020 u0639_u0646 u0020 u062a_u0646_u0641_u064a_u0630 u0020 u0623_u062d_u0643_u0627_u0645 u0020 u0627_u0644_u0627_u062a_u0641_u0627_u0642_u064a_u0629 u0020 u0645_u0646_u0020", 
        "u0645_u0635_u0627_u062f_u0631 u0020 u0623_u062e_u0631_u0649_u060c u0020 u0628_u0645_u0627 u0020 u0641_u064a_u0647_u0627 u0020 u0648_u0643_u0627_u0644_u0627_u062a u0020 u0627_u0644_u0623_u0645_u0645 u0020 u0627_u0644_u0645_u062a_u062d_u062f_u0629_u0020", 
        "u0648_u0627_u0644_u0645_u0646_u0638_u0645_u0627_u062a u0020 u0627_u0644_u062d_u0643_u0648_u0645_u064a_u0629 u0020 u0627_u0644_u0623_u062e_u0631_u0649_u060c u0020 u0648_u0627_u0644_u0645_u0646_u0638_u0645_u0627_u062a u0020 u063a_u064a_u0631_u0020", 
        "u0627_u0644_u062d_u0643_u0648_u0645_u064a_u0629 u0020 u0648_u0627_u0644_u0647_u064a_u0626_u0627_u062a u0020 u0627_u0644_u0645_u0639_u0646_u064a_u0629 u0020 u0627_u0644_u0623_u062e_u0631_u0649_u002e u0020 u0648_u062a_u0639_u062a_u0645_u062f_u0020", 
        "u0627_u0644_u0644_u062c_u0627_u0646 u0020 u0645_u0627 u0020 u064a_u0639_u0631_u0641 u0020 u0628_u0640 u0020 u0022_u0627_u0644_u0645_u0644_u0627_u062d_u0638_u0627_u062a u0020 u0627_u0644_u062e_u062a_u0627_u0645_u064a_u0629_u0022_u0020", 
        "u0648_u062a_u062a_u0636_u0645_u0646 u0020 u0647_u0630_u0647 u0020 u0627_u0644_u0645_u0644_u0627_u062d_u0638_u0627_u062a u0020 u0627_u0633_u062a_u0639_u0631_u0627_u0636 u0020 u0627_u0644_u0644_u062c_u0646_u0629_u0020", 
        "u0644_u0644_u062a_u062f_u0627_u0628_u064a_u0631 u0020 u0627_u0644_u0625_u064a_u062c_u0627_u0628_u064a_u0629 u0020 u0627_u0644_u062a_u064a u0020 u0627_u062a_u062e_u0630_u062a u0020 u0644_u062a_u0646_u0641_u064a_u0630 u0020 u0627_u0644_u0627_u062a_u0641_u0627_u0642_u064a_u0629_u0020", 
        "u0648_u0645_u0648_u0627_u0636_u0639 u0020 u0627_u0644_u0642_u0644_u0642 u0020 u0648_u0627_u0644_u062a_u0648_u0635_u064a_u0627_u062a_u002e_u0020"
    ]
}