{
    "bounding_box": [
        [
            147, 
            45, 
            425, 
            33
        ], 
        [
            92, 
            102, 
            570, 
            29
        ], 
        [
            69, 
            138, 
            593, 
            26
        ], 
        [
            406, 
            168, 
            255, 
            26
        ], 
        [
            57, 
            206, 
            604, 
            26
        ], 
        [
            101, 
            240, 
            560, 
            25
        ], 
        [
            175, 
            266, 
            486, 
            29
        ]
    ], 
    "image_height": 540, 
    "image_width": 720, 
    "transcription": [
        "u00a0_u0627_u0644_u062f_u0631_u0633 u0020 u0035_u002d_u0035_u003a u0020 u0627_u0644_u0648_u0642_u0627_u064a_u0629 u0020 u0645_u0646 u0020 u0627_u0644_u0628_u0631_u0627_u0645_u062c u0020 u0627_u0644_u0636_u0627_u0631_u0629", 
        "u0627_u0644_u0622_u0646 u0020 u0639_u0644_u064a_u0643 u0020 u0627_u0644_u062a_u0639_u0631_u0641 u0020 u0639_u0644_u0649 u0020 u0628_u0639_u0636 u0020 u0627_u0644_u0623_u0646_u0648_u0627_u0639 u0020 u0627_u0644_u0645_u062e_u062a_u0644_u0641_u0629 u0020 u0645_u0646 u0020 u0627_u0644_u0628_u0631_u0627_u0645_u062c u0020 u0627_u0644_u0636_u0627_u0631_u0629_u0020", 
        "u0627_u0644_u062a_u064a u0020 u064a_u0645_u0643_u0646 u0020 u0623_u0646 u0020 u062a_u0635_u064a_u0628 u0020 u062c_u0647_u0627_u0632 u0020 u0627_u0644_u0643_u0645_u0628_u064a_u0648_u062a_u0631 u0020 u0627_u0644_u062e_u0627_u0635 u0020 u0628_u0643_u060c u0020 u062d_u0627_u0646 u0020 u0627_u0644_u0648_u0642_u062a u0020 u0644_u0645_u0646_u0627_u0642_u0634_u0629_u0020", 
        "u0643_u064a_u0641_u064a_u0629 u0020 u0627_u0644_u0648_u0642_u0627_u064a_u0629 u0020 u0645_u0646 u0020 u0647_u0630_u0647 u0020 u0627_u0644_u0628_u0631_u0627_u0645_u062c_u002e_u000d", 
        "u0641_u064a u0020 u0647_u0630_u0627 u0020 u0627_u0644_u062f_u0631_u0633_u060c u0020 u0633_u0646_u0646_u0627_u0642_u0634 u0020 u0645_u0627 u0020 u064a_u0645_u0643_u0646_u0643 u0020 u0627_u0644_u0642_u064a_u0627_u0645 u0020 u0628_u0647 u0020 u0625_u0630_u0627 u0020 u062a_u0639_u0631_u0636 u0020 u0646_u0638_u0627_u0645_u0643 u0020 u0644_u0644_u0625_u0635_u0627_u0628_u0629_u060c_u0020", 
        "u0648_u0645_u0627 u0020 u0647_u064a u0020 u0627_u0644_u0627_u062d_u062a_u064a_u0627_u0637_u064a_u0627_u062a u0020 u0627_u0644_u062a_u064a u0020 u064a_u0645_u0643_u0646_u0643 u0020 u0627_u062a_u062e_u0627_u0630_u0647_u0627 u0020 u0644_u0645_u0646_u0639 u0020 u0627_u0644_u0628_u0631_u0627_u0645_u062c u0020 u0627_u0644_u0636_u0627_u0631_u0629 u0020 u0645_u0646_u0020", 
        "u0627_u0643_u062a_u0633_u0627_u0628 u0020 u0645_u0648_u0637_u0626 u0020 u0642_u062f_u0645 u0020 u0641_u064a u0020 u0627_u0644_u0646_u0638_u0627_u0645 u0020 u0627_u0644_u062e_u0627_u0635 u0020 u0628_u0643 u0020 u0641_u064a u0020 u0627_u0644_u0645_u0642_u0627_u0645 u0020 u0627_u0644_u0623_u0648_u0644_u002e"
    ]
}