{
    "bounding_box": [
        [
            188, 
            125, 
            311, 
            55
        ]
    ], 
    "image_height": 540, 
    "image_width": 720, 
    "transcription": [
        "u0627_u0644_u062f_u0645_u0648_u0639 u0020 u0641_u0649 u0020 u0627_u0644_u062e_u062f_u0645_u0629"
    ]
}