{
    "bounding_box": [
        [
            109, 
            24, 
            301, 
            37
        ], 
        [
            152, 
            121, 
            515, 
            34
        ], 
        [
            169, 
            211, 
            497, 
            30
        ], 
        [
            544, 
            253, 
            122, 
            25
        ], 
        [
            279, 
            293, 
            388, 
            30
        ], 
        [
            344, 
            339, 
            322, 
            32
        ]
    ], 
    "image_height": 540, 
    "image_width": 720, 
    "transcription": [
        "u0627_u0644_u0625_u062f_u0627_u0631_u0629 u0020 u0628_u0627_u0639_u062a_u0628_u0627_u0631_u0647_u0627 u0020 u0645_u0647_u0646_u0629_u003a_u000b", 
        "u0627_u0644_u0625_u062f_u0627_u0631_u0629 u0020 u0645_u0647_u0646_u0629 u0020 u0644_u0623_u0646_u0647_u0627 u0020 u062a_u062a_u0633_u0645 u0020 u0628_u0627_u0644_u0633_u0645_u0627_u062a u0020 u0627_u0644_u0631_u0626_u064a_u0633_u064a_u0629 u0020 u0627_u0644_u062a_u0627_u0644_u064a_u0629_u003a_u000d", 
        "u062a_u0645_u062a_u0644_u0643 u0020 u0627_u0644_u0625_u062f_u0627_u0631_u0629 u0020 u0645_u062c_u0645_u0648_u0639_u0629 u0020 u0645_u0646 u0020 u0627_u0644_u0645_u0639_u0627_u0631_u0641 u0020 u0627_u0644_u0642_u0627_u0628_u0644_u0629 u0020 u0644_u0644_u0646_u0642_u0644_u0020", 
        "u0648_u0627_u0644_u0627_u0643_u062a_u0633_u0627_u0628_u002e_u000d", 
        "u062a_u062a_u0637_u0644_u0628 u0020 u0627_u0644_u0625_u062f_u0627_u0631_u0629 u0020 u0645_u0647_u0627_u0631_u0627_u062a u0020 u0648_u0623_u062f_u0648_u0627_u062a u0020 u0645_u0639_u064a_u0646_u0629_u002e_u000d", 
        "u062a_u0634_u062a_u0645_u0644 u0020 u0627_u0644_u0625_u062f_u0627_u0631_u0629 u0020 u0639_u0644_u0649 u0020 u0646_u0638_u0627_u0645 u0020 u0645_u062d_u062f_u062f_u002e_u000d"
    ]
}