{
    "bounding_box": [
        [
            62, 
            23, 
            585, 
            43
        ], 
        [
            259, 
            73, 
            200, 
            41
        ], 
        [
            62, 
            133, 
            614, 
            34
        ], 
        [
            98, 
            173, 
            551, 
            33
        ], 
        [
            530, 
            216, 
            119, 
            28
        ], 
        [
            121, 
            256, 
            554, 
            34
        ], 
        [
            205, 
            302, 
            470, 
            34
        ], 
        [
            306, 
            348, 
            370, 
            34
        ]
    ], 
    "image_height": 540, 
    "image_width": 720, 
    "transcription": [
        "u062d_u0636_u0631_u0629 u0020 u0635_u0627_u062d_u0628 u0020 u0627_u0644_u0633_u0645_u0648 u0020 u0627_u0644_u0634_u064a_u062e u0020 u062d_u0645_u062f u0020 u0628_u0646 u0020 u062e_u0644_u064a_u0641_u0629 u0020 u0622_u0644_u0020", 
        "u062b_u0627_u0646_u064a u0020 u0031_u0039_u0039_u0035_u0640_u0640 u0020 u002e_u002e_u002e", 
        "u0623 u0020 u0029 u0020 u0648_u0644_u062f u0020 u0641_u064a u0020 u0627_u0644_u062f_u0648_u062d_u0629 u0020 u060c u0020 u062f_u0631_u0633 u0020 u062c_u0645_u064a_u0639 u0020 u0627_u0644_u0645_u0631_u0627_u062d_u0644 u0020 u0641_u064a u0020 u0645_u062f_u0627_u0631_u0633 u0020 u0642_u0637_u0631 u0020 u060c_u0020", 
        "u0627_u0644_u062a_u062d_u0642 u0020 u0628_u0643_u0644_u064a_u0629 u0020 u0633_u0627_u0646_u062a u0020 u0647_u064a_u0631_u0633_u062a u0020 u0627_u0644_u0639_u0633_u0643_u0631_u064a_u0629 u0020 u0648_u062a_u062e_u0631_u062c u0020 u0645_u0646_u0647 u0020 u0639_u0627_u0645_u0020", 
        "u0031_u0039_u0037_u0031_u0645 u0020 u060c u0020 u000d", 
        "u0628 u0020 u0029 u0020 u0627_u0646_u062a_u0633_u0628 u0020 u0625_u0644_u0649 u0020 u0627_u0644_u0642_u0648_u0627_u062a u0020 u0627_u0644_u0645_u0633_u0644_u062d_u0629 u0020 u0627_u0644_u0642_u0637_u0631_u064a_u0629 u0020 u0628_u0631_u062a_u064a_u0629 u0020 u0645_u0642_u062f_u0645 u0020 u002e_u000d", 
        "u062c u0020 u0029 u0020 u0628_u0648_u064a_u0639 u0020 u0648_u0644_u064a_u0627_u064b u0020 u0644_u0644_u0639_u0647_u062f u0020 u0031_u0039_u0037_u0037_u0645 u0020 u0648_u0648_u0632_u064a_u0631_u0627_u064b u0020 u0644_u0644_u062f_u0641_u0627_u0639 u0020 u002e_u000d", 
        "u062f u0020 u0029 u0020 u062a_u0648_u0644_u0649 u0020 u0627_u0644_u062d_u0643_u0645 u0020 u0641_u064a u0020 u064a_u0648_u0646_u064a_u0648 u0020 u0031_u0039_u0039_u0035_u0645 u0020 u002e_u000d"
    ]
}