{
    "bounding_box": [
        [
            10, 
            40, 
            665, 
            57
        ], 
        [
            10, 
            105, 
            684, 
            51
        ], 
        [
            380, 
            176, 
            314, 
            44
        ], 
        [
            10, 
            248, 
            665, 
            57
        ], 
        [
            10, 
            311, 
            684, 
            52
        ], 
        [
            10, 
            375, 
            684, 
            58
        ], 
        [
            58, 
            441, 
            636, 
            58
        ]
    ], 
    "image_height": 540, 
    "image_width": 720, 
    "transcription": [
        "u0648_u0644_u0645 u0020 u064a_u0628_u0642 u0020 u0639_u0644_u0649 u0020 u0648_u062c_u0647 u0020 u0627_u0644_u0623_u0631_u0636_u060c u0020 u0645_u0645_u0646 u0020 u0643_u0627_u0646_u0020", 
        "u0628_u0647_u0627 u0020 u0645_u0646 u0020 u0627_u0644_u0623_u062d_u064a_u0627_u0621_u060c u0020 u0644_u0627_u0639_u064a_u0646 u0020 u062a_u0637_u0631_u0641_u060c u0020 u0648_u0644_u0627_u0020", 
        "u0635_u063a_u064a_u0631_u060c u0020 u0648_u0644_u0627 u0020 u0643_u0628_u064a_u0631_u002e_u00a0_u000d", 
        "u0644_u0645_u0627 u0020 u0641_u0631_u063a u0020 u0645_u0646 u0020 u0623_u0647_u0644 u0020 u0627_u0644_u0623_u0631_u0636_u060c u0020 u0648_u0644_u0645 u0020 u064a_u0628_u0642_u0020", 
        "u0645_u0646_u0647_u0627 u0020 u0623_u062d_u062f u0020 u0645_u0645_u0646 u0020 u0639_u0628_u062f u0020 u063a_u064a_u0631 u0020 u0627_u0644_u0644_u0647 u0020 u0639_u0632 u0020 u0648_u062c_u0644_u060c_u0020", 
        "u0623_u0645_u0631 u0020 u0627_u0644_u0644_u0647 u0020 u0627_u0644_u0623_u0631_u0636 u0020 u0623_u0646 u0020 u062a_u0628_u0644_u0639 u0020 u0645_u0627_u0621_u0647_u0627_u060c u0020 u0648_u0623_u0645_u0631_u0020", 
        "u0627_u0644_u0633_u0645_u0627_u0621 u0020 u0623_u0646 u0020 u062a_u0642_u0644_u0639 u0020 u0623_u064a u0020 u062a_u0645_u0633_u0643 u0020 u0639_u0646 u0020 u0627_u0644_u0645_u0637_u0631_u002e"
    ]
}