{
    "bounding_box": [
        [
            259, 
            17, 
            271, 
            29
        ], 
        [
            177, 
            84, 
            534, 
            31
        ], 
        [
            77, 
            126, 
            273, 
            23
        ], 
        [
            85, 
            158, 
            490, 
            25
        ], 
        [
            77, 
            192, 
            315, 
            23
        ], 
        [
            321, 
            221, 
            381, 
            29
        ], 
        [
            200, 
            294, 
            502, 
            23
        ], 
        [
            139, 
            354, 
            572, 
            30
        ], 
        [
            537, 
            394, 
            175, 
            21
        ], 
        [
            85, 
            427, 
            516, 
            24
        ], 
        [
            77, 
            461, 
            535, 
            24
        ]
    ], 
    "image_height": 540, 
    "image_width": 720, 
    "transcription": [
        "u0645_u0641_u0627_u0647_u064a_u0645 u0020 u0648_u0645_u0635_u0637_u0644_u062d_u0627_u062a u0020 u0623_u0633_u0627_u0633_u064a_u0629 u0020 u003a_u000d", 
        "u002a u0020 u0631_u0623_u0633 u0020 u0627_u0644_u0645_u0627_u0644 u0020 u003a_u00a0_u0627_u0644_u0645_u0628_u0644_u063a u0020 u0627_u0644_u0623_u0635_u0644_u064a u0020 u0627_u0644_u0645_u0648_u062f_u0639 u0020 u0623_u0648 u0020 u0627_u0644_u0645_u062f_u0651_u062e_u0631 u0020 u0644_u062f_u0649 u0020 u0627_u0644_u0628_u0646_u0643 u0020 u000d", 
        "u0028_u0070_u0072_u0069_u006e_u0063_u0069_u0070_u0061_u006c u0020 u0020_u0069_u006e_u0076_u0065_u0073_u0074_u0065_u0064_u0029_u00a0_u000d", 
        "u003a_u00a0_u0074_u0068_u0065 u0020 u006f_u0072_u0069_u0067_u0069_u006e_u0061_u006c u0020 u0061_u006d_u006f_u0075_u006e_u0074_u00a0_u006f_u0066 u0020 u0074_u0068_u0065 u0020 u0061_u0070_u0070_u006c_u0069_u0063_u0061_u006e_u0074_u0020", 
        "u006f_u0072_u00a0_u0073_u0061_u0076_u0065_u0072_u00a0_u0061_u0074 u0020 u0074_u0068_u0065 u0020 u0062_u0061_u006e_u006b u0020 u0028_u0050_u0029_u000d", 
        "u0633_u0639_u0631 u0020 u0627_u0644_u0641_u0627_u0626_u062f_u0629 u0020 u003a_u00a0_u062a_u064f_u0633_u0645_u0649 u0020 u0646_u0633_u0628_u0629 u0020 u0627_u0644_u0641_u0627_u0626_u062f_u0629 u0020 u0623_u062d_u064a_u0627_u0646_u0627_u064b u0020 u002e u0020 u000d", 
        "u0050_u0072_u0069_u0063_u0065 u0020 u006f_u0066_u00a0_u0069_u006e_u0074_u0065_u0072_u0065_u0073_u0074_u003a_u00a0_u0074_u0068_u0065 u0020 u0069_u006e_u0074_u0065_u0072_u0065_u0073_u0074 u0020 u0072_u0061_u0074_u0065 u0020 u0028_u0072_u0029_u002e u0020 u000d", 
        "u002a u0020 u0627_u0644_u0632_u0645_u0646 u0020 u003a_u00a0_u0647_u0648 u0020 u0627_u0644_u0645_u062f_u0629 u0020 u0627_u0644_u062a_u064a u0020 u064a_u064f_u0648_u062f_u0639 u0020 u0641_u064a_u0647_u0627 u0020 u0631_u0623_u0633 u0020 u0627_u0644_u0645_u0627_u0644 u0020 u0028_u0627_u0644_u0645_u0628_u0644_u063a u0020 u0627_u0644_u0623_u0635_u0644_u064a_u0029_u0020", 
        "u0648_u064a_u064f_u062d_u0633_u0628 u0020 u0628_u0627_u0644_u0633_u0646_u0648_u0627_u062a u0020 u000d", 
        "u0054_u0069_u006d_u0065_u003a_u00a0_u0068_u006f_u0077 u0020 u006c_u006f_u006e_u0067_u00a0_u0069_u0073_u00a0_u0074_u0068_u0065_u00a0_u0064_u0065_u0070_u006f_u0073_u0069_u0074_u00a0_u006f_u0066 u0020 u0063_u0061_u0070_u0069_u0074_u0061_u006c_u0020", 
        "u0028_u0070_u0072_u0069_u006e_u0063_u0069_u0070_u0061_u006c u0020 u0061_u006d_u006f_u0075_u006e_u0074_u0029_u00a0_u0069_u0073 u0020 u0063_u0061_u006c_u0063_u0075_u006c_u0061_u0074_u0065_u0064_u00a0_u0069_u006e u0020 u0079_u0065_u0061_u0072_u0073_u002e_u000d"
    ]
}