{
    "bounding_box": [
        [
            255, 
            35, 
            236, 
            34
        ], 
        [
            197, 
            72, 
            361, 
            31
        ], 
        [
            119, 
            164, 
            511, 
            34
        ], 
        [
            57, 
            209, 
            572, 
            39
        ], 
        [
            153, 
            262, 
            477, 
            33
        ], 
        [
            229, 
            358, 
            338, 
            27
        ], 
        [
            90, 
            390, 
            477, 
            28
        ]
    ], 
    "image_height": 540, 
    "image_width": 720, 
    "transcription": [
        "u0031_u0033_u002d u0020 u0641_u0647_u0645 u0020 u062f_u0644_u0627_u0644_u0629 u0020 u0627_u0644_u0645_u0641_u0647_u0648_u0645_u000b", 
        "u0623_u0646 u0020 u064a_u0630_u0643_u0631 u0020 u0627_u0644_u0637_u0641_u0644 u0020 u0627_u0644_u062d_u062f_u062b u0020 u0627_u0644_u0648_u0627_u0631_u062f u0020 u0628_u0627_u0644_u0642_u0635_u0629", 
        "u062a_u0633_u0631_u062f u0020 u0627_u0644_u0645_u0639_u0644_u0645_u0629 u0020 u0644_u0644_u0637_u0641_u0644 u0020 u0642_u0635_u0629 u0020 u062a_u062a_u0643_u0644_u0645 u0020 u0639_u0646 u0020 u0645_u0641_u0647_u0648_u0645 u0020 u0645_u0627 u0020 u000d", 
        "u0648_u062a_u0633_u0623_u0644 u0020 u0627_u0644_u0637_u0641_u0644 u0020 u0645_u0627 u0020 u0647_u0648 u0020 u0627_u0644_u0645_u0641_u0647_u0648_u0645 u0020 u0627_u0644_u0630_u064a u0020 u062a_u062a_u0643_u0644_u0645 u0020 u0639_u0646_u0647 u0020 u0627_u0644_u0642_u0635_u0629_u061f_u000d", 
        "u0648_u062a_u0637_u0644_u0628 u0020 u0645_u0646_u0647 u0020 u0627_u0644_u062a_u0639_u0628_u064a_u0631 u0020 u0628_u0641_u0647_u0645_u0647 u0020 u0639_u0646 u0020 u0647_u0630_u0627 u0020 u0627_u0644_u0645_u0641_u0647_u0648_u0645_u061f_u000d", 
        "u064a_u062c_u064a_u0628 u0020 u0627_u0644_u0637_u0641_u0644 u0020 u003a_u002d u0020 u0627_u0644_u0645_u0641_u0647_u0648_u0645 u0020 u0647_u0648 u0020 u0028 u0020 u0627_u0644_u063a_u064a_u0648_u0645 u0020 u0029_u000d", 
        "u0641_u064a_u0642_u0648_u0644 u0020 u0627_u0644_u0637_u0641_u0644 u0020 u062a_u0643_u0648_u0646 u0020 u0644_u062f_u064a_u0646_u0627 u0020 u0627_u0644_u063a_u064a_u0648_u0645 u0020 u0628_u0633_u0628_u0628 u0020 u062a_u0628_u062e_u0631 u0020 u0645_u0627_u0621 u0020 u0627_u0644_u0628_u062d_u0631 u0020 u000d"
    ]
}