{
    "bounding_box": [
        [
            236, 
            48, 
            215, 
            42
        ], 
        [
            59, 
            113, 
            595, 
            31
        ], 
        [
            440, 
            151, 
            214, 
            34
        ], 
        [
            294, 
            149, 
            109, 
            35
        ], 
        [
            516, 
            239, 
            165, 
            24
        ], 
        [
            169, 
            270, 
            467, 
            30
        ], 
        [
            215, 
            303, 
            421, 
            31
        ], 
        [
            159, 
            337, 
            476, 
            30
        ], 
        [
            59, 
            320, 
            53, 
            28
        ]
    ], 
    "image_height": 540, 
    "image_width": 720, 
    "transcription": [
        "u0627_u0644_u0633_u0645_u0627_u062d u0020 u0648_u0627_u0644_u062c_u0648_u0627_u0632", 
        "u0644_u0627 u0020 u0628_u0623_u0633 u0020 u0639_u0644_u0649 u0020 u0627_u0644_u0645_u0648_u0638_u0641 u0020 u0648_u0644_u0627 u0020 u0645_u0634_u0643_u0644_u0629 u0020 u0625_u0630_u0627 u0020 u062a_u0623_u062e_u0631 u0020 u0639_u0646 u0020 u0627_u0644_u0639_u0645_u0644 u0020 u0645_u0631_u062a_u064a_u0646_u0020", 
        "u0641_u064a u0020 u0627_u0644_u0633_u0646_u0629 u0020 u0643_u062d_u062f u0020 u0623_u0642_u0635_u0649_u002e", 
        "u0058 u0020 u0020_u062e_u0637_u0623_u0021", 
        "u0627_u0644_u0635_u064a_u0627_u063a_u0629 u0020 u0627_u0644_u0642_u0627_u0646_u0648_u0646_u064a_u0629_u003a_u000d", 
        "u064a_u062d_u0642 u0020 u0644_u0644_u0645_u0648_u0638_u0641 u0020 u0623_u0646 u0020 u064a_u062a_u0623_u062e_u0631 u0020 u0645_u0631_u062a_u064a_u0646 u0020 u0641_u064a u0020 u0627_u0644_u0633_u0646_u0629 u0020 u0643_u062d_u062f u0020 u0623_u0642_u0635_u0649_u002e_u000d", 
        "u0644_u0644_u0645_u0648_u0638_u0641 u0020 u0623_u0646 u0020 u064a_u062a_u0623_u062e_u0631 u0020 u0645_u0631_u062a_u064a_u0646 u0020 u0641_u064a u0020 u0627_u0644_u0633_u0646_u0629 u0020 u0643_u062d_u062f u0020 u0623_u0642_u0635_u0649_u002e_u000d", 
        "u064a_u062c_u0648_u0632 u0020 u0644_u0644_u0645_u0648_u0638_u0641 u0020 u0623_u0646 u0020 u064a_u062a_u0623_u062e_u0631 u0020 u0645_u0631_u062a_u064a_u0646 u0020 u0641_u064a u0020 u0627_u0644_u0633_u0646_u0629 u0020 u0643_u062d_u062f u0020 u0623_u0642_u0635_u0649_u002e_u000d", 
        "u0635_u062d"
    ]
}