{
    "bounding_box": [
        [
            138, 
            24, 
            452, 
            50
        ], 
        [
            107, 
            75, 
            528, 
            45
        ], 
        [
            88, 
            181, 
            569, 
            25
        ], 
        [
            101, 
            210, 
            542, 
            24
        ], 
        [
            98, 
            238, 
            549, 
            25
        ], 
        [
            104, 
            269, 
            536, 
            23
        ], 
        [
            94, 
            297, 
            557, 
            24
        ], 
        [
            108, 
            326, 
            529, 
            24
        ], 
        [
            108, 
            354, 
            528, 
            25
        ], 
        [
            98, 
            382, 
            548, 
            24
        ], 
        [
            101, 
            413, 
            542, 
            23
        ], 
        [
            113, 
            439, 
            518, 
            26
        ], 
        [
            335, 
            471, 
            80, 
            21
        ]
    ], 
    "image_height": 540, 
    "image_width": 720, 
    "transcription": [
        "u0628_u0639_u062f u0020 u0639_u0648_u062f_u062a_u0643 u0020 u0625_u0644_u0649 u0020 u0645_u0635_u0631 u0020 u0641_u064a u0020 u0639_u0627_u0645_u0020", 
        "u0661_u0669_u0661_u0669_u060c u0020 u0643_u064a_u0641 u0020 u0628_u062f_u0623_u062a u0020 u062d_u064a_u0627_u062a_u0643 u0020 u0627_u0644_u0645_u0647_u0646_u064a_u0629_u061f", 
        "u0639_u0646_u062f_u0645_u0627 u0020 u0639_u062f_u062a u0020 u0639_u064a_u0646_u062a_u0646_u064a u0020 u0627_u0644_u062c_u0627_u0645_u0639_u0629 u0020 u0627_u0644_u0645_u0635_u0631_u064a_u0629 u0020 u0643_u0623_u0633_u062a_u0627_u0630 u0020 u0644_u0644_u062a_u0627_u0631_u064a_u062e u0020 u0627_u0644_u064a_u0648_u0646_u0627_u0646_u064a u0020 u0648 u0020 u0627_u0644_u0631_u0648_u0645_u0627_u0646_u064a u0020 u0648_u0020", 
        "u0643_u0627_u0646_u062a u0020 u062d_u064a_u0646_u0647_u0627 u0020 u062c_u0627_u0645_u0639_u0629 u0020 u0623_u0647_u0644_u064a_u0629_u060c u0020 u0641_u0639_u0646_u062f_u0645_u0627 u0020 u0623_u0635_u0628_u062d_u062a u0020 u062a_u0627_u0628_u0639_u0629 u0020 u0644_u0644_u062f_u0648_u0644_u0629 u0020 u0639_u0627_u0645 u0020 u0661_u0669_u0662_u0665 u0020 u0639_u064a_u0646_u062a_u0020", 
        "u0641_u064a_u0647_u0627 u0020 u0623_u0633_u062a_u0627_u0630_u0627 u0020 u0644_u0644_u0623_u062f_u0628 u0020 u0627_u0644_u0639_u0631_u0628_u064a_u002e u0020 u0648 u0020 u0641_u064a u0020 u0639_u0627_u0645 u0020 u0661_u0669_u0662_u0668 u0020 u0639_u064a_u0646_u062a u0020 u0639_u0645_u064a_u062f_u0627 u0020 u0644_u0643_u0644_u064a_u0629 u0020 u0627_u0644_u0622_u062f_u0627_u0628_u060c u0020 u0648_u0020", 
        "u0644_u0643_u0646_u064a u0020 u0642_u062f_u0645_u062a u0020 u0627_u0633_u062a_u0642_u0627_u0644_u062a_u064a u0020 u0641_u064a u0020 u0627_u0644_u064a_u0648_u0645 u0020 u0627_u0644_u062a_u0627_u0644_u064a u0020 u0645_u0646 u0020 u0634_u062f_u0629 u0020 u0627_u0644_u0636_u063a_u062a u0020 u0627_u0644_u0630_u064a u0020 u0645_u0627_u0631_u0633_u0647 u0020 u0639_u0644_u0633_u0020", 
        "u0627_u0644_u0648_u0641_u062f_u064a_u0648_u0646 u0020 u0028_u0637_u0627_u0626_u0641_u0629 u0020 u0633_u064a_u0627_u0633_u064a_u0629_u0029_u002e u0020 u0628_u0639_u062f_u0647_u0627 u0020 u0627_u062a_u062c_u0647_u062a u0020 u0625_u0644_u0649 u0020 u0627_u0644_u0639_u0645_u0644 u0020 u0627_u0644_u0635_u062d_u0641_u064a u0020 u062d_u062a_u0649 u0020 u0627_u0635_u0628_u062d_u062a_u0020", 
        "u0644_u062f_u064a u0020 u062c_u0631_u064a_u062f_u062a_u064a u0020 u0627_u0644_u062e_u0627_u0635_u0629 u0020 u0627_u0644_u062a_u064a u0020 u0627_u0634_u0631_u0641_u062a u0020 u0639_u0644_u0649 u0020 u062a_u062d_u0631_u064a_u0631_u0647_u0627 u0020 u0628_u0646_u0641_u0633_u064a_u002e u0020 u0648 u0020 u0644_u0643_u0646_u064a u0020 u0645_u0644_u0644_u062a_u0020", 
        "u0628_u0633_u0631_u0639_u0629 u0020 u0645_u0646 u0020 u0647_u0630_u0627 u0020 u0627_u0644_u0639_u0645_u0644 u0020 u0648 u0020 u0639_u062f_u062a u0020 u0648_u0641_u064a u0020 u0625_u0644_u0649 u0020 u0627_u0644_u062c_u0627_u0645_u0639_u0629 u0020 u0627_u0644_u0645_u0635_u0631_u064a_u0629 u0020 u0628_u0635_u0641_u0629 u0020 u0623_u0633_u062a_u0627_u0630_u0627_u0020", 
        "u0644_u0644_u0623_u062f_u0628 u0020 u0639_u0627_u0645 u0020 u0661_u0669_u0663_u0664_u060c u0020 u062b_u0645 u0020 u0623_u0635_u0628_u062d_u062a u0020 u0639_u0645_u064a_u062f u0020 u0644_u0643_u0644_u064a_u0629 u0020 u0627_u0644_u0622_u062f_u0627_u0628 u0020 u0627_u0628_u062a_u062f_u0627_u0621 u0020 u0645_u0646 u0020 u0633_u0646_u0629 u0020 u0661_u0669_u0663_u0666_u002e_u0020", 
        "u0648_u0628_u0633_u0628_u0628 u0020 u062e_u0644_u0627_u0641_u0627_u062a_u064a u0020 u0645_u0639 u0020 u062d_u0643_u0648_u0645_u0629 u0020 u0645_u062d_u0645_u062f u0020 u0645_u062d_u0645_u0648_u062f_u002c u0020 u0627_u0633_u062a_u0642_u0627_u0644_u062a u0020 u0645_u0646 u0020 u0627_u0644_u0639_u0645_u0627_u062f_u0629 u0020 u0648 u0020 u0639_u062f_u062a u0020 u0625_u0644_u0649_u0020", 
        "u0627_u0644_u062a_u062f_u0631_u064a_u0633 u0020 u0641_u064a u0020 u0627_u0644_u0643_u0644_u064a_u0629 u0020 u0646_u0641_u0633_u0647_u0627 u0020 u062d_u062a_u0649 u0020 u0633_u0646_u0629 u0020 u0661_u0669_u0664_u0662_u060c u0020 u0633_u0646_u0629 u0020 u062a_u0639_u064a_u064a_u0646_u064a u0020 u0645_u062f_u064a_u0631_u0627_u064b u0020 u0644_u062c_u0627_u0645_u0639_u0629_u0020", 
        "u0627_u0644_u0625_u0633_u0643_u0646_u062f_u0631_u064a_u0629"
    ]
}