{
    "bounding_box": [
        [
            13, 
            32, 
            692, 
            49
        ], 
        [
            13, 
            87, 
            692, 
            54
        ], 
        [
            13, 
            147, 
            692, 
            54
        ], 
        [
            13, 
            206, 
            692, 
            52
        ], 
        [
            13, 
            265, 
            692, 
            56
        ], 
        [
            13, 
            322, 
            692, 
            57
        ], 
        [
            13, 
            384, 
            692, 
            57
        ], 
        [
            104, 
            443, 
            601, 
            56
        ]
    ], 
    "image_height": 540, 
    "image_width": 720, 
    "transcription": [
        "u064a_u0631_u062a_u0643_u0632 u0020 u0627_u0644_u0642_u0627_u0646_u0648_u0646 u0020 u0627_u0644_u062f_u0648_u0644_u064a u0020 u0644_u062d_u0642_u0648_u0642 u0020 u0627_u0644_u0625_u0646_u0633_u0627_u0646 u0020 u0639_u0644_u0649_u0020", 
        "u0645_u0627 u0020 u0648_u0631_u062f u0020 u0641_u064a u0020 u0627_u0644_u0635_u0643_u0648_u0643 u0020 u0627_u0644_u062f_u0648_u0644_u064a_u0629 u0020 u0644_u062d_u0642_u0648_u0642_u0020", 
        "u0627_u0644_u0625_u0646_u0633_u0627_u0646_u060c u0020 u0648_u062a_u063a_u0637_u064a u0020 u0647_u0630_u0647 u0020 u0627_u0644_u0635_u0643_u0648_u0643 u0020 u0645_u062c_u0645_u0648_u0639_u0629_u0020", 
        "u0648_u0627_u0633_u0639_u0629 u0020 u0645_u0646 u0020 u0627_u0644_u062d_u0642_u0648_u0642 u0020 u0627_u0644_u0627_u0642_u062a_u0635_u0627_u062f_u064a_u0629_u0020", 
        "u0648_u0627_u0644_u0627_u062c_u062a_u0645_u0627_u0639_u064a_u0629 u0020 u0648_u0627_u0644_u062b_u0642_u0627_u0641_u064a_u0629 u0020 u0648_u0627_u0644_u0645_u062f_u0646_u064a_u0629_u0020", 
        "u0648_u0627_u0644_u0633_u064a_u0627_u0633_u064a_u0629_u002e u0020 u0648_u0647_u0646_u0627_u0643 u0020 u0623_u064a_u0636_u0627 u0020 u0635_u0643_u0648_u0643 u0020 u062e_u0635_u0635_u062a_u0020", 
        "u0644_u0645_u0639_u0627_u0644_u062c_u0629 u0020 u0641_u0626_u0627_u062a u0020 u0623_u062e_u0631_u0649 u0020 u0645_u0646 u0020 u0627_u0644_u062d_u0642_u0648_u0642 u0020 u0643_u0627_u0644_u062d_u0642 u0020 u0641_u064a_u0020", 
        "u0627_u0644_u062a_u0646_u0645_u064a_u0629 u0020 u0648_u0627_u0644_u062d_u0642 u0020 u0641_u064a u0020 u0628_u064a_u0626_u0629 u0020 u0622_u0645_u0646_u0629 u0020 u0648_u0646_u0638_u064a_u0641_u0629_u002e u0020 u000d"
    ]
}