{
    "bounding_box": [
        [
            94, 
            189, 
            564, 
            42
        ], 
        [
            593, 
            240, 
            65, 
            31
        ], 
        [
            37, 
            285, 
            621, 
            40
        ], 
        [
            579, 
            333, 
            79, 
            35
        ], 
        [
            57, 
            371, 
            601, 
            49
        ], 
        [
            104, 
            422, 
            554, 
            42
        ], 
        [
            91, 
            473, 
            567, 
            43
        ], 
        [
            88, 
            517, 
            570, 
            42
        ], 
        [
            263, 
            69, 
            199, 
            39
        ], 
        [
            280, 
            120, 
            175, 
            34
        ]
    ], 
    "image_height": 540, 
    "image_width": 720, 
    "transcription": [
        "u064a_u062a_u0639_u0631_u0636 u0020 u0627_u0644_u062a_u0635_u062d_u064a_u062d u0020 u0644_u0628_u0639_u0636 u0020 u0627_u0644_u0645_u062e_u0627_u0637_u0631 u0020 u0648_u0630_u0644_u0643 u0020 u0644_u0623_u0633_u0628_u0627_u0628_u060c_u0020", 
        "u0645_u0646_u0647_u0627_u003a_u000d", 
        "u0623_u002e u0020 u0642_u062f u0020 u0646_u0644_u062c_u0623 u0020 u0625_u0644_u0649 u0020 u0623_u0643_u062b_u0631 u0020 u0645_u0646 u0020 u0645_u0635_u062d_u062d u0020 u0648_u0627_u062d_u062f u0020 u0641_u064a u0020 u0627_u0644_u062a_u0642_u064a_u064a_u0645 u0020 u0644_u0623_u0633_u0628_u0627_u0628_u0020", 
        "u0645_u0639_u064a_u0646_u0629_u002e_u000d", 
        "u0628_u002e u0020 u0642_u062f u0020 u064a_u062a_u0623_u062b_u0631 u0020 u0627_u0644_u0645_u0635_u062d_u062d u0020 u0628_u062e_u0637 u0020 u0627_u0644_u0645_u0645_u062a_u062d_u0646 u0020 u0648_u0623_u0633_u0644_u0648_u0628_u0647 u0020 u0641_u064a u0020 u0631_u0628_u0637_u0020", 
        "u0627_u0644_u0623_u0641_u0643_u0627_u0631 u0020 u0648_u0625_u0646 u0020 u0643_u0627_u0646_u062a u0020 u0625_u062c_u0627_u0628_u062a_u0647 u0020 u0644_u064a_u0633_u062a u0020 u0627_u0644_u0625_u062c_u0627_u0628_u0629 u0020 u0627_u0644_u0645_u0637_u0644_u0648_u0628_u0629_u002e_u000d", 
        "u062c_u002e u0020 u0642_u062f u0020 u064a_u0644_u062c_u0623 u0020 u0627_u0644_u0645_u0635_u062d_u062d u0020 u0625_u0644_u0649 u0020 u062a_u0635_u062d_u064a_u062d u0020 u0627_u0644_u0627_u062e_u062a_u0628_u0627_u0631 u0020 u0628_u0635_u0648_u0631_u0629_u0020", 
        "u062a_u062e_u0644_u0648 u0020 u0645_u0646 u0020 u0627_u0644_u062f_u0642_u0629 u0020 u0644_u0636_u064a_u0642 u0020 u0627_u0644_u0648_u0642_u062a u0020 u0627_u0644_u0645_u062d_u062f_u062f u0020 u0641_u064a u0020 u062a_u0633_u0644_u064a_u0645 u0020 u0646_u062a_u0627_u0626_u062c_u0020", 
        "u062f_u0631_u062c_u0629 u0020 u0645_u0648_u0636_u0648_u0639_u064a_u0629_u0020", 
        "u0627_u0644_u0627_u062e_u062a_u0628_u0627_u0631 u0020 u0627_u0644_u0645_u0642_u0627_u0644_u064a"
    ]
}