{
    "bounding_box": [
        [
            55, 
            32, 
            578, 
            30
        ], 
        [
            91, 
            64, 
            520, 
            30
        ], 
        [
            102, 
            96, 
            509, 
            30
        ], 
        [
            176, 
            131, 
            435, 
            26
        ], 
        [
            59, 
            165, 
            553, 
            30
        ], 
        [
            59, 
            197, 
            553, 
            30
        ], 
        [
            63, 
            229, 
            549, 
            29
        ], 
        [
            81, 
            260, 
            531, 
            30
        ], 
        [
            25, 
            292, 
            586, 
            30
        ], 
        [
            20, 
            323, 
            592, 
            30
        ], 
        [
            57, 
            355, 
            554, 
            30
        ], 
        [
            6, 
            387, 
            605, 
            30
        ], 
        [
            61, 
            418, 
            551, 
            30
        ], 
        [
            12, 
            452, 
            599, 
            28
        ], 
        [
            297, 
            482, 
            314, 
            30
        ]
    ], 
    "image_height": 540, 
    "image_width": 720, 
    "transcription": [
        "u0038_u002d_u064a_u0647_u0627_u062c_u0645_u0648_u0646 u0020 u0639_u0642_u064a_u062f_u0629 u0020 u0634_u0641_u0627_u0639_u0629 u0020 u0627_u0644_u0642_u062f_u064a_u0633_u064a_u0646 u0020 u003a_u0020", 
        "u064a_u0639_u062a_u0628_u0631_u0648_u0646 u0020 u0634_u0641_u0627_u0639_u0629 u0020 u0627_u0644_u0642_u062f_u064a_u0633_u064a_u0646 u0020 u0645_u062b_u0644 u0020 u0627_u0644_u0633_u062d_u0631_u0020", 
        "u0648_u062a_u062d_u0636_u064a_u0631 u0020 u0627_u0644_u0627_u0631_u0648_u0627_u062d u0020 u0644_u0627_u0646_u0647_u0645 u0020 u064a_u0639_u062a_u0642_u062f_u0648_u0646 u0020 u0627_u0646 u0020 u0627_u0631_u0648_u0627_u062d_u0020", 
        "u0627_u0644_u0642_u062f_u064a_u0633_u064a_u0646 u0020 u062a_u0645_u0648_u062a u0020 u0645_u0639 u0020 u0627_u062c_u0633_u0627_u062f_u0647_u0645 u0020 u002e_u000d", 
        "u0627_u0644_u0631_u062f u0020 u003a u0020 u0627_u0646 u0020 u0634_u0641_u0627_u0639_u0629 u0020 u0627_u0644_u0642_u062f_u064a_u0633_u064a_u0646 u0020 u062d_u0642_u064a_u0642_u0629 u0020 u0643_u062a_u0627_u0628_u064a_u0629_u0020", 
        "u0639_u0627_u0634_u062a u0020 u0628_u0647_u0627 u0020 u0627_u0644_u0643_u0646_u064a_u0633_u0629 u0020 u0645_u0646_u0630 u0020 u0627_u064a_u0627_u0645 u0020 u0627_u0628_u064a_u0646_u0627 u0020 u0627_u0628_u0631_u0627_u0647_u064a_u0645_u0020", 
        "u0648_u0633_u062c_u0644_u0647_u0627 u0020 u0631_u0628_u0646_u0627 u0020 u064a_u0633_u0648_u0639 u0020 u0641_u0649 u0020 u0627_u0644_u0639_u0647_u062f u0020 u0627_u0644_u062c_u062f_u064a_u062f u0020 u0641_u0649_u0020", 
        "u0635_u0644_u0648_u0627_u062a_u0647_u0627 u0020 u0648_u0639_u0628_u0627_u062f_u062a_u0647_u0627 u0020 u0648_u0627_u062e_u062a_u0628_u0631_u0647_u0627 u0020 u0627_u0644_u0645_u0624_u0645_u0646_u064a_u0646 u0020 u0641_u0649_u0020", 
        "u062d_u064a_u0627_u062a_u0647_u0645 u0020 u0641_u0634_u0641_u0627_u0639_u0629 u0020 u0627_u0644_u0642_u062f_u064a_u0633_u064a_u0646 u0020 u0634_u0641_u0627_u0639_u0629 u0020 u062a_u0648_u0633_u0644_u064a_u0629_u0020", 
        "u0627_u0630 u0020 u064a_u0637_u0644_u0628_u0648_u0646 u0020 u0645_u0646 u0020 u0627_u0644_u0644_u0647 u0020 u0644_u0627_u062c_u0644_u0646_u0627 u0020 u0648_u0644_u0642_u062f u0020 u0627_u0648_u0636_u062d_u0647_u0627 u0020 u0627_u0644_u0643_u062a_u0627_u0628_u0020", 
        "u0627_u0644_u0645_u0642_u062f_u0633 u0020 u0642_u0627_u0626_u0644_u0627 u0020 u003a u0020 u0022 u0020 u0635_u0644_u0648_u0627 u0020 u0628_u0639_u0636_u0643_u0645 u0020 u0644_u0627_u062c_u0644 u0020 u0628_u0639_u0636_u0020", 
        "u0644_u0643_u0649 u0020 u062a_u0634_u0641_u0648_u0627 u0020 u002e u0020 u0637_u0644_u0628_u0629 u0020 u0627_u0644_u0628_u0627_u0631 u0020 u062a_u0642_u062a_u062f_u0631 u0020 u0643_u062b_u064a_u0631_u0627 u0020 u0641_u0649 u0020 u0641_u0639_u0644_u0647_u0627_u0020", 
        "u0022 u0020 u0028 u0020 u064a_u0639 u0020 u0035 u0020 u003a u0020 u0031_u0036 u0020 u0029 u0020 u0641_u0627_u0644_u0645_u0624_u0645_u0646_u064a_u0646 u0020 u064a_u0635_u0644_u0648_u0646 u0020 u0627_u0644_u0649 u0020 u0627_u0644_u0644_u0647_u0020", 
        "u0648_u062d_u062f_u0647 u0020 u062b_u0645 u0020 u064a_u0637_u0644_u0628_u0648_u0646 u0020 u0627_u0644_u0649 u0020 u0627_u0644_u0642_u062f_u064a_u0633_u064a_u0646 u0020 u0627_u0646 u0020 u064a_u0635_u0644_u0648_u0627 u0020 u0645_u0646_u0020", 
        "u0627_u062c_u0644_u0647_u0645 u0020 u0644_u0642_u0631_u0628_u0647_u0645 u0020 u0645_u0646 u0020 u0627_u0644_u0644_u0647 u0020 u002e_u000d"
    ]
}