{
    "bounding_box": [
        [
            147, 
            33, 
            415, 
            51
        ], 
        [
            298, 
            95, 
            126, 
            19
        ], 
        [
            36, 
            307, 
            641, 
            41
        ], 
        [
            44, 
            376, 
            625, 
            43
        ], 
        [
            28, 
            451, 
            657, 
            41
        ], 
        [
            138, 
            520, 
            449, 
            52
        ]
    ], 
    "image_height": 540, 
    "image_width": 720, 
    "transcription": [
        "u062e_u0637_u0629_u0028_u0627_u0633_u062a_u0631_u0627_u062a_u064a_u062c_u064a_u0629_u0029 u0020 u0627_u0644_u062a_u062e_u0645_u064a_u0646_u0020", 
        "u0648_u0627_u0644_u062a_u062d_u0642_u0642", 
        "u0648_u0644_u062d_u0644 u0020 u0628_u0639_u0636 u0020 u0627_u0644_u0645_u0633_u0627_u0626_u0644 u0020 u064a_u0645_u0643_u0646_u0643 u0020 u0639_u0645_u0644 u0020 u062a_u062e_u0645_u064a_u0646 u0020 u0645_u0646_u0637_u0642_u064a u0020 u062b_u0645_u0020", 
        "u0627_u0644_u062a_u062d_u0642_u0642 u0020 u0645_u0646_u0647 u0020 u0641_u064a u0020 u0627_u0644_u0645_u0633_u0623_u0644_u0629 u0020 u0646_u0641_u0633_u0647_u0627 u0020 u060c u0020 u0648_u0628_u0639_u062f u0020 u0630_u0644_u0643 u0020 u064a_u0645_u0643_u0646_u0643_u0020", 
        "u0627_u0633_u062a_u062e_u062f_u0627_u0645 u0020 u0627_u0644_u0646_u062a_u0627_u0626_u062c u0020 u0627_u0644_u062a_u064a u0020 u062a_u0648_u0635_u0644_u062a u0020 u0625_u0644_u064a_u0647_u0627 u0020 u0644_u062a_u0637_u0648_u064a_u0631_u0028_u062a_u062d_u0633_u064a_u0646_u0029_u0020", 
        "u062a_u062e_u0645_u064a_u0646_u0643 u0020 u0625_u0644_u0649 u0020 u0623_u0646 u0020 u062a_u062a_u0648_u0635_u0644 u0020 u0644_u062d_u0644 u0020 u0627_u0644_u0645_u0633_u0623_u0644_u0629"
    ]
}