{
    "bounding_box": [
        [
            49, 
            67, 
            216, 
            37
        ], 
        [
            475, 
            33, 
            173, 
            26
        ], 
        [
            560, 
            78, 
            89, 
            22
        ], 
        [
            548, 
            124, 
            101, 
            27
        ], 
        [
            556, 
            170, 
            93, 
            26
        ], 
        [
            403, 
            215, 
            245, 
            28
        ], 
        [
            77, 
            121, 
            188, 
            21
        ], 
        [
            89, 
            151, 
            175, 
            20
        ], 
        [
            191, 
            178, 
            74, 
            22
        ]
    ], 
    "image_height": 540, 
    "image_width": 720, 
    "transcription": [
        "u0627_u0644_u0645_u0645_u0644_u0643_u0629 u0020 u0627_u0644_u062d_u064a_u0648_u0627_u0646_u064a_u0629", 
        "u0627_u0644_u0645_u0645_u0644_u0643_u0629 u0020 u0627_u0644_u062d_u064a_u0648_u0627_u0646_u064a_u0629_u000d", 
        "u0627_u0644_u0627_u0633_u0645_u0627_u0643_u000d", 
        "u0627_u0644_u062d_u0634_u0631_u0627_u062a_u000d", 
        "u0627_u0644_u0628_u062f_u0627_u0626_u064a_u0627_u062a_u000d", 
        "u062d_u0641_u0638 u0020 u0627_u0644_u0645_u0646_u062a_u062c_u0627_u062a u0020 u0627_u0644_u062d_u064a_u0648_u0627_u0646_u064a_u0629_u0020", 
        "u0627_u0644_u062d_u064a_u0648_u0627_u0646_u0627_u062a u0020 u0020_u0648_u0627_u0644_u0643_u0627_u0626_u0646_u0627_u062a u0020 u0020_u0648_u0020", 
        "u0627_u0644_u0645_u062d_u0645_u064a_u0627_u062a u0020 u0648 u0020 u0627_u0644_u062d_u064a_u0648_u0627_u0646_u0627_u062a_u0020", 
        "u0627_u0644_u0645_u0646_u0642_u0631_u0636_u0629"
    ]
}