{
    "bounding_box": [
        [
            333, 
            23, 
            308, 
            36
        ], 
        [
            340, 
            78, 
            67, 
            38
        ], 
        [
            302, 
            139, 
            144, 
            33
        ], 
        [
            286, 
            204, 
            174, 
            41
        ], 
        [
            287, 
            269, 
            172, 
            35
        ], 
        [
            293, 
            330, 
            153, 
            35
        ], 
        [
            270, 
            391, 
            207, 
            36
        ], 
        [
            258, 
            460, 
            230, 
            28
        ]
    ], 
    "image_height": 540, 
    "image_width": 720, 
    "transcription": [
        "u062a_u062f_u0642_u064a_u0642 u0020 u0645_u0646_u062d u0020 u0627_u0644_u0634_u0647_u0627_u062f_u0629 u0020 u0627_u0644_u0645_u0628_u062f_u0626_u064a", 
        "u0627_u0644_u0637_u0644_u0628", 
        "u0645_u0631_u0627_u062c_u0639_u0629 u0020 u0627_u0644_u0637_u0644_u0628", 
        "u0645_u0631_u062d_u0644_u0629 u0020 u0627_u0644_u062a_u062f_u0642_u064a_u0642 u0020 u0031", 
        "u0645_u0631_u062d_u0644_u0629 u0020 u0627_u0644_u062a_u062f_u0642_u064a_u0642 u0020 u0032", 
        "u062a_u0642_u0627_u0631_u064a_u0631 u0020 u0627_u0644_u062a_u062f_u0642_u064a_u0642_u0020", 
        "u0627_u0646_u0634_u0637_u0629 u0020 u0645_u0627_u0628_u0639_u062f u0020 u0627_u0644_u062a_u062f_u0642_u064a_u0642", 
        "u0642_u0631_u0627_u0631 u0020 u0645_u0646_u062d u0020 u0627_u0644_u0634_u0647_u0627_u062f_u0629 u0020 u0627_u0644_u0645_u0628_u062f_u0626_u064a"
    ]
}