{
    "bounding_box": [
        [
            742, 
            26, 
            191, 
            31
        ], 
        [
            392, 
            81, 
            541, 
            47
        ], 
        [
            757, 
            153, 
            176, 
            39
        ], 
        [
            600, 
            211, 
            334, 
            47
        ], 
        [
            482, 
            281, 
            451, 
            46
        ], 
        [
            621, 
            347, 
            312, 
            36
        ], 
        [
            385, 
            402, 
            548, 
            54
        ], 
        [
            528, 
            481, 
            405, 
            38
        ]
    ], 
    "image_height": 540, 
    "image_width": 960, 
    "transcription": [
        "u0625_u0642_u0631_u0623 u0020 u0627_u0644_u0646_u0628_u0623 u0020 u0648_u0623_u062c_u0628_u003a_u000b", 
        "u2022 u0020 u0645_u0627_u0630_u0627 u0020 u064a_u064e_u062d_u0652_u062f_u064f_u062b_u064f u0020 u0641_u064a u0020 u0628_u062f_u0627_u064a_u0629 u0020 u0634_u0647_u0631 u0020 u0643_u0627_u0646_u0648_u0646 u0020 u0627_u0644_u0623_u0648_u0651_u0644 u0020 u0627_u0644_u0642_u0627_u062f_u0650_u0645_u061f_u000b", 
        "u2022 u0020 u0628_u064a_u0646 u0020 u0623_u064a_u0651 u0020 u062f_u064f_u0648_u0644_u061f_u000b", 
        "u2022 u0020 u0645_u064e_u0646_u0652 u0020 u064a_u064e_u062a_u064e_u0631_u064e_u0623_u0651_u064e_u0633_u064f u0020 u0627_u0644_u0648_u0641_u062f u0020 u0627_u0644_u0645_u0650_u0635_u0631_u064a_u0651_u061f_u000b", 
        "u2022 u0020 u0645_u0627_u0630_u0627 u0020 u0639_u064f_u0642_u0650_u062f_u064e u0020 u0627_u0644_u064a_u0648_u0645 u0020 u0641_u064a u0020 u0627_u0644_u0642_u0627_u0647_u0631_u0629_u002c u0020 u0648_u0628_u064a_u0646 u0020 u0645_u064e_u0646_u0652_u061f_u000b", 
        "u2022 u0020 u0645_u0627 u0020 u0647_u0648 u0020 u0647_u064e_u062f_u064e_u0641 u0020 u0627_u0644_u0627_u062c_u062a_u0650_u0645_u0627_u0639_u0627_u062a_u061f_u000b", 
        "u2022 u0020 u0625_u0644_u0649 u0020 u0623_u064a_u0646 u0020 u064a_u064f_u0633_u0627_u0641_u0631 u0020 u0627_u0644_u0648_u0641_u062f u0020 u0627_u0644_u0645_u0635_u0631_u064a_u0651_u061f u0020 u0028_u0623_u064f_u0630_u0652_u0643_u064f_u0631 u0020 u0645_u0643_u0627_u0646_u064e_u064a_u0652_u0646_u0650_u0029_u002e_u000b", 
        "u2022 u0020 u0645_u0627 u0020 u0647_u064a u0020 u0648_u0627_u0631_u0633_u0648_u002c u0020 u0648_u0645_u0627 u0020 u0647_u064a u0020 u0628_u0648_u062f_u0627_u0628_u0633_u062a_u061f"
    ]
}