{
    "bounding_box": [
        [
            123, 
            49, 
            473, 
            42
        ], 
        [
            195, 
            131, 
            437, 
            30
        ], 
        [
            91, 
            164, 
            542, 
            39
        ], 
        [
            72, 
            204, 
            561, 
            32
        ], 
        [
            441, 
            245, 
            191, 
            23
        ], 
        [
            97, 
            272, 
            535, 
            38
        ], 
        [
            188, 
            312, 
            444, 
            32
        ], 
        [
            46, 
            352, 
            586, 
            32
        ], 
        [
            258, 
            389, 
            374, 
            28
        ], 
        [
            84, 
            419, 
            549, 
            39
        ], 
        [
            203, 
            459, 
            430, 
            29
        ]
    ], 
    "image_height": 540, 
    "image_width": 720, 
    "transcription": [
        "u062b_u0627_u0646_u064a_u0627 u0020 u003a u0020 u0627_u0644_u062c_u0627_u0646_u0628 u0020 u0627_u0644_u0628_u064a_u062f_u0627_u063a_u0648_u062c_u064a", 
        "u0627_u062d_u062a_u0631_u0627_u0645 u0020 u0627_u0644_u062d_u062c_u0645 u0020 u0627_u0644_u0633_u0627_u0639_u064a u0020 u0627_u0644_u0648_u0627_u0631_u062f u0020 u0641_u064a u0020 u0627_u0644_u062a_u0648_u0632_u064a_u0639 u0020 u0627_u0644_u0633_u0646_u0648_u064a u0020 u002e_u000d", 
        "u0627_u062d_u062a_u0631_u0627_u0645 u0020 u0627_u0644_u062a_u0648_u0632_u064a_u0639 u0020 u0627_u0644_u0633_u0646_u0648_u064a u0020 u0627_u0644_u0645_u0642_u0631_u0631 u0020 u0028 u0020 u0628_u0639_u0636 u0020 u0627_u0644_u0623_u0633_u0627_u062a_u0630_u0629 u0020 u064a_u0631_u0649 u0020 u0623_u0646 u0020 u0628_u0639_u0636_u0020", 
        "u0627_u0644_u062d_u0635_u0635 u0020 u0644_u0627 u0020 u0641_u0627_u0626_u062f_u0629 u0020 u0645_u0646_u0647_u0627_u060c_u0641_u064a_u0644_u063a_u064a_u0647_u0627 u0020 u0648 u0020 u064a_u0639_u0648_u0636_u0647_u0627 u0020 u0628_u062d_u0635_u0635 u0020 u0623_u0648 u0020 u0641_u0642_u0631_u0627_u062a u0020 u0645_u0646_u0020", 
        "u0639_u0646_u062f_u0647 u0020 u0628_u0645_u0627 u0020 u064a_u0631_u0627_u0647 u0020 u0645_u0646_u0627_u0633_u0628_u0627 u0020 u002e_u000d", 
        "u0636_u0631_u0648_u0631_u0629 u0020 u0627_u0644_u0639_u0645_u0644 u0020 u0628_u0627_u0644_u0645_u0630_u0643_u0631_u0629 u0020 u0627_u0644_u062a_u0631_u0628_u0648_u064a_u0629 u0020 u0627_u0644_u0645_u0642_u062a_u0631_u062d_u0629 u0020 u0634_u0643_u0644_u0627 u0020 u0648 u0020 u0645_u0636_u0645_u0648_u0646_u0627 u0020 u0648_u0020", 
        "u0627_u0644_u062d_u0631_u0635 u0020 u0639_u0644_u0649 u0020 u062a_u0641_u0639_u064a_u0644 u0020 u0637_u0631_u064a_u0642_u0629 u0020 u201d u0020 u0627_u0644_u0645_u0642_u0627_u0631_u0628_u0629 u0020 u0628_u0627_u0644_u0643_u0641_u0627_u0621_u0627_u062a u0020 u201d_u002e_u000d", 
        "u062a_u0633_u062c_u064a_u0644 u0020 u0643_u0644 u0020 u0645_u0627 u0020 u064a_u0646_u062c_u0632_u0647 u0020 u0645_u0646 u0020 u0648_u0636_u0639_u064a_u0627_u062a u0020 u0648 u0020 u062a_u0639_u0644_u064a_u0645_u0627_u062a u0020 u0648_u0648_u0627_u062c_u0628_u0627_u062a u0020 u0648 u0020 u0641_u0631_u0648_u0636 u0020 u0648_u0020", 
        "u0627_u062e_u062a_u0628_u0627_u0631_u0627_u062a u0020 u0648 u0020 u062a_u0635_u062d_u064a_u062d u0020 u0639_u0644_u0649 u0020 u062f_u0641_u062a_u0631 u0020 u0627_u0644_u0646_u0635_u0648_u0635 u0020 u002e_u000d", 
        "u0627_u0644_u0639_u0646_u0627_u064a_u0629 u0020 u0628_u062f_u0641_u062a_u0631 u0020 u0627_u0644_u0645_u0631_u0627_u0633_u0644_u0629 u0020 u0648 u0020 u062a_u062f_u0648_u064a_u0646 u0020 u0627_u0644_u0645_u0644_u0627_u062d_u0638_u0627_u062a u0020 u0648 u0020 u062a_u0633_u062c_u064a_u0644 u0020 u0627_u0644_u0646_u0642_u0637 u0020 u0639_u0644_u064a_u0647_u0020", 
        "u0644_u0643_u0648_u0646_u0647 u0020 u0647_u0645_u0632_u0629 u0020 u0648_u0635_u0644 u0020 u0628_u064a_u0646 u0020 u0627_u0644_u0623_u0633_u062a_u0627_u0630 u0020 u0648 u0020 u0627_u0644_u0625_u062f_u0627_u0631_u0629 u0020 u0648 u0020 u0627_u0644_u0623_u0648_u0644_u064a_u0627_u0621"
    ]
}