{
    "bounding_box": [
        [
            55, 
            42, 
            250, 
            40
        ], 
        [
            76, 
            171, 
            581, 
            27
        ], 
        [
            377, 
            202, 
            280, 
            28
        ], 
        [
            136, 
            241, 
            521, 
            27
        ], 
        [
            459, 
            274, 
            198, 
            25
        ], 
        [
            55, 
            306, 
            602, 
            31
        ], 
        [
            383, 
            341, 
            274, 
            29
        ]
    ], 
    "image_height": 540, 
    "image_width": 720, 
    "transcription": [
        "u0645_u0648_u0627_u0646_u0639 u0020 u0627_u0644_u0627_u0633_u062a_u062e_u062f_u0627_u0645_u00a0_u003a", 
        "u2013 u0020 u064a_u0645_u0646_u0639 u0020 u0627_u0633_u062a_u062e_u062f_u0627_u0645 u0020 u0627_u0644_u062f_u0648_u0627_u0621 u0020 u0644_u0644_u0645_u0631_u0636_u0649 u0020 u0627_u0644_u0645_u0635_u0627_u0628_u064a_u0646 u0020 u0628_u0641_u0631_u0637 u0020 u0627_u0644_u062d_u0633_u0627_u0633_u064a_u0629 u0020 u0627_u062a_u062c_u0627_u0647_u0020", 
        "u0627_u0644_u062a_u0631_u0627_u0645_u0627_u062f_u0648_u0644 u0020 u0623_u0648 u0020 u0623_u064a_u0627 u0020 u0645_u0646 u0020 u0645_u0643_u0648_u0646_u0627_u062a_u0647 u0020 u002e_u000b", 
        "u2013 u0020 u064a_u0645_u0646_u0639 u0020 u0627_u0633_u062a_u062e_u062f_u0627_u0645 u0020 u0627_u0644_u062f_u0648_u0627_u0621 u0020 u0644_u0644_u0645_u0631_u0636_u0649 u0020 u0627_u0644_u0630_u064a_u0646 u0020 u064a_u0639_u0627_u0646_u0648_u0646 u0020 u0627_u0644_u0625_u062f_u0645_u0627_u0646 u0020 u0645_u0646_u0020", 
        "u0627_u0644_u0645_u062e_u062f_u0631_u0627_u062a u0020 u0648_u0627_u0644_u0643_u062d_u0648_u0644 u0020 u002e_u000b", 
        "u2013 u0020 u064a_u0645_u0646_u0639 u0020 u0627_u0633_u062a_u062e_u062f_u0627_u0645 u0020 u0627_u0644_u062f_u0648_u0627_u0621 u0020 u0625_u0630_u0627 u0020 u0643_u0627_u0646 u0020 u0627_u0644_u0645_u0631_u064a_u0636 u0020 u064a_u062a_u0646_u0627_u0648_u0644 u0020 u0623_u064a_u0629 u0020 u0623_u062f_u0648_u064a_u0629 u0020 u0645_u0633_u0643_u0646_u0629 u0020 u0623_u0648_u0020", 
        "u0645_u0646_u0648_u0645_u0629 u0020 u0623_u0648 u0020 u0623_u062f_u0648_u064a_u0629 u0020 u0646_u0641_u0633_u064a_u0629 u0020 u0648_u0630_u0647_u0646_u064a_u0629 u0020 u002e"
    ]
}