{
    "bounding_box": [
        [
            31, 
            132, 
            133, 
            20
        ], 
        [
            31, 
            175, 
            311, 
            25
        ], 
        [
            31, 
            210, 
            295, 
            26
        ], 
        [
            31, 
            247, 
            259, 
            25
        ], 
        [
            31, 
            282, 
            311, 
            21
        ], 
        [
            31, 
            319, 
            213, 
            25
        ], 
        [
            31, 
            354, 
            309, 
            25
        ], 
        [
            31, 
            391, 
            235, 
            25
        ], 
        [
            31, 
            426, 
            273, 
            26
        ], 
        [
            31, 
            463, 
            289, 
            25
        ], 
        [
            31, 
            498, 
            280, 
            26
        ], 
        [
            573, 
            137, 
            127, 
            26
        ], 
        [
            399, 
            179, 
            301, 
            31
        ], 
        [
            399, 
            215, 
            301, 
            36
        ], 
        [
            399, 
            259, 
            301, 
            29
        ], 
        [
            399, 
            296, 
            301, 
            35
        ], 
        [
            399, 
            337, 
            301, 
            36
        ], 
        [
            399, 
            379, 
            301, 
            31
        ], 
        [
            399, 
            425, 
            301, 
            26
        ], 
        [
            592, 
            464, 
            108, 
            28
        ], 
        [
            19, 
            35, 
            297, 
            19
        ], 
        [
            19, 
            70, 
            195, 
            23
        ], 
        [
            451, 
            28, 
            242, 
            31
        ], 
        [
            618, 
            70, 
            75, 
            26
        ]
    ], 
    "image_height": 540, 
    "image_width": 720, 
    "transcription": [
        "u0041_u0072_u0074_u0069_u0063_u006c_u0065 u0020 u0031_u0039_u002e_u000d", 
        "u0045_u0076_u0065_u0072_u0079_u006f_u006e_u0065 u0020 u0068_u0061_u0073 u0020 u0074_u0068_u0065 u0020 u0072_u0069_u0067_u0068_u0074 u0020 u0074_u006f_u0020", 
        "u0066_u0072_u0065_u0065_u0064_u006f_u006d u0020 u006f_u0066 u0020 u006f_u0070_u0069_u006e_u0069_u006f_u006e u0020 u0061_u006e_u0064_u0020", 
        "u0065_u0078_u0070_u0072_u0065_u0073_u0073_u0069_u006f_u006e_u003b u0020 u0074_u0068_u0069_u0073 u0020 u0072_u0069_u0067_u0068_u0074_u0020", 
        "u0069_u006e_u0063_u006c_u0075_u0064_u0065_u0073 u0020 u0066_u0072_u0065_u0065_u0064_u006f_u006d u0020 u0074_u006f u0020 u0068_u006f_u006c_u0064_u0020", 
        "u006f_u0070_u0069_u006e_u0069_u006f_u006e_u0073 u0020 u0077_u0069_u0074_u0068_u006f_u0075_u0074_u0020", 
        "u0069_u006e_u0074_u0065_u0072_u0066_u0065_u0072_u0065_u006e_u0063_u0065 u0020 u0061_u006e_u0064 u0020 u0074_u006f u0020 u0073_u0065_u0065_u006b_u002c_u0020", 
        "u0072_u0065_u0063_u0065_u0069_u0076_u0065 u0020 u0061_u006e_u0064 u0020 u0069_u006d_u0070_u0061_u0072_u0074_u0020", 
        "u0069_u006e_u0066_u006f_u0072_u006d_u0061_u0074_u0069_u006f_u006e u0020 u0061_u006e_u0064 u0020 u0069_u0064_u0065_u0061_u0073_u0020", 
        "u0074_u0068_u0072_u006f_u0075_u0067_u0068 u0020 u0061_u006e_u0079 u0020 u006d_u0065_u0064_u0069_u0061 u0020 u0061_u006e_u0064_u0020", 
        "u0072_u0065_u0067_u0061_u0072_u0064_u006c_u0065_u0073_u0073 u0020 u006f_u0066 u0020 u0066_u0072_u006f_u006e_u0074_u0069_u0065_u0072_u0073_u002e_u000d", 
        "u0627_u0644_u0645_u0627_u062f_u0629 u0020 u0031_u0039_u002e_u000d", 
        "u0644_u0643_u0644 u0020 u0634_u062e_u0635 u0020 u0627_u0644_u062d_u0642 u0020 u0641_u064a u0020 u062d_u0631_u064a_u0629_u0020", 
        "u0627_u0644_u0631_u0623_u064a u0020 u0648_u0627_u0644_u062a_u0639_u0628_u064a_u0631_u060c u0020 u0648_u064a_u0634_u0645_u0644 u0020 u0647_u0630_u0627_u0020", 
        "u0627_u0644_u062d_u0642 u0020 u062d_u0631_u064a_u0629 u0020 u0627_u0639_u062a_u0646_u0627_u0642 u0020 u0627_u0644_u0622_u0631_u0627_u0621_u0020", 
        "u062f_u0648_u0646 u0020 u0623_u064a u0020 u062a_u062f_u062e_u0644_u060c u0020 u0648_u0627_u0633_u062a_u0642_u0627_u0621_u0020", 
        "u0627_u0644_u0623_u0646_u0628_u0627_u0621 u0020 u0648_u0627_u0644_u0623_u0641_u0643_u0627_u0631 u0020 u0648_u062a_u0644_u0642_u064a_u0647_u0627_u0020", 
        "u0648_u0625_u0630_u0627_u0639_u062a_u0647_u0627 u0020 u0628_u0623_u064a_u0629 u0020 u0648_u0633_u064a_u0644_u0629 u0020 u0643_u0627_u0646_u062a_u0020", 
        "u062f_u0648_u0646 u0020 u062a_u0642_u064a_u062f u0020 u0628_u0627_u0644_u062d_u062f_u0648_u062f_u0020", 
        "u0627_u0644_u062c_u063a_u0631_u0627_u0641_u064a_u0629_u002e", 
        "u0054_u0068_u0065 u0020 u0055_u006e_u0069_u0076_u0065_u0072_u0073_u0061_u006c u0020 u0044_u0065_u0063_u006c_u0061_u0072_u0061_u0074_u0069_u006f_u006e_u0020", 
        "u006f_u0066 u0020 u0048_u0075_u006d_u0061_u006e u0020 u0052_u0069_u0067_u0068_u0074_u0073_u002e", 
        "u0627_u0644_u0625_u0639_u0644_u0627_u0646 u0020 u0627_u0644_u0639_u0627_u0644_u0645_u064a u0020 u0644_u062d_u0642_u0648_u0642_u0020", 
        "u0627_u0644_u0625_u0646_u0633_u0627_u0646"
    ]
}