{
    "bounding_box": [
        [
            88, 
            51, 
            542, 
            36
        ], 
        [
            363, 
            131, 
            286, 
            38
        ], 
        [
            34, 
            184, 
            615, 
            36
        ], 
        [
            60, 
            221, 
            589, 
            34
        ], 
        [
            39, 
            257, 
            610, 
            34
        ], 
        [
            492, 
            293, 
            157, 
            28
        ], 
        [
            221, 
            335, 
            428, 
            35
        ], 
        [
            36, 
            377, 
            613, 
            37
        ], 
        [
            443, 
            415, 
            206, 
            34
        ]
    ], 
    "image_height": 540, 
    "image_width": 720, 
    "transcription": [
        "u0627_u0644_u0641_u062d_u0648_u0635 u0020 u0627_u0644_u0645_u062e_u0628_u0631_u064a_u0629 u0020 u0648_u063a_u0627_u0632_u0627_u062a u0020 u0627_u0644_u062f_u0645 u0020 u002e_u002e_u002e_u062a_u062a_u0645_u0629", 
        "u0627_u0644_u062e_u0627_u0646_u0642_u0627_u062a u0020 u0627_u0644_u0643_u064a_u0645_u064a_u0627_u0626_u064a_u0629_u003a_u000d", 
        "u0020_u0628_u0627_u0644_u0646_u0633_u0628_u0629 u0020 u0644_u0623_u062d_u0627_u062f_u064a u0020 u0623_u0643_u0633_u064a_u062f u0020 u0627_u0644_u0643_u0631_u0628_u0648_u0646_u060c u0020 u062a_u064f_u0638_u0647_u0631 u0020 u0627_u0644_u0641_u062d_u0648_u0635 u0020 u0627_u0644_u0645_u062e_u0628_u0631_u064a_u0629_u0020", 
        "u0627_u0631_u062a_u0641_u0627_u0639 u0020 u0646_u0633_u0628_u0629 u0020 u0643_u0627_u0631_u0628_u0648_u0643_u0633_u064a u0020 u0647_u064a_u0645_u0648_u063a_u0644_u0648_u0628_u064a_u0646 u0020 u0627_u0644_u062f_u0645 u0020 u0028_u062a_u0639_u062a_u0628_u0631 u0020 u0627_u0644_u0646_u0633_u0628_u0629_u0020", 
        "u0035_u0030_u066a u0020 u0642_u0627_u062a_u0644_u0629_u0029 u0020 u0643_u0645_u0627 u0020 u064a_u0628_u062f_u064a u0020 u062a_u062e_u0637_u064a_u0637 u0020 u0627_u0644_u0642_u0644_u0628 u0020 u0627_u0644_u0643_u0647_u0631_u0628_u0627_u0626_u064a u0020 u0627_u062d_u062a_u0634_u0627_u0621_u064b u0020 u0641_u064a_u0020", 
        "u0639_u0636_u0644_u0629 u0020 u0627_u0644_u0642_u0644_u0628_u061b u0020 u000d", 
        "u0623_u0645_u0627 u0020 u0628_u0627_u0644_u0646_u0633_u0628_u0629 u0020 u0644_u0644_u0633_u064a_u0627_u0646_u064a_u062f u0020 u0641_u064a_u0632_u062f_u0627_u062f u0020 u0633_u064a_u0627_u0646_u064a_u062f u0020 u0627_u0644_u062f_u0645_u061b u0020 u000d", 
        "u0648_u0628_u0627_u0644_u0646_u0633_u0628_u0629 u0020 u0644_u0633_u0644_u0641_u064a_u062f u0020 u0627_u0644_u0647_u064a_u062f_u0631_u0648_u062c_u064a_u0646 u0020 u0641_u0644_u0627 u0020 u062a_u064f_u0638_u0647_u0631 u0020 u0627_u0644_u0641_u062d_u0648_u0635 u0020 u0627_u0644_u0645_u062e_u0628_u0631_u064a_u0629_u0020", 
        "u0623_u064a u0020 u0634_u0630_u0648_u0630_u0627_u062a u0020 u0646_u0648_u0639_u064a_u0629_u0020"
    ]
}