{
    "bounding_box": [
        [
            506, 
            39, 
            180, 
            26
        ], 
        [
            45, 
            72, 
            642, 
            29
        ], 
        [
            531, 
            107, 
            129, 
            25
        ], 
        [
            453, 
            141, 
            233, 
            27
        ], 
        [
            161, 
            170, 
            525, 
            35
        ], 
        [
            48, 
            207, 
            638, 
            33
        ], 
        [
            428, 
            253, 
            258, 
            26
        ], 
        [
            83, 
            289, 
            603, 
            27
        ], 
        [
            428, 
            319, 
            231, 
            28
        ], 
        [
            176, 
            354, 
            510, 
            29
        ], 
        [
            384, 
            392, 
            303, 
            28
        ], 
        [
            406, 
            430, 
            280, 
            27
        ], 
        [
            360, 
            464, 
            326, 
            30
        ]
    ], 
    "image_height": 540, 
    "image_width": 720, 
    "transcription": [
        "u0627_u0644_u0639_u0645_u0648_u062f u0020 u0031_u002e_u0036_u003a u0020 u0028_u0627_u0644_u0642_u0633_u0645_u0029_u000d", 
        "u0645_u062e_u0635_u0635 u0020 u0644_u0644_u0623_u0642_u0633_u0627_u0645 u0020 u0627_u0644_u0645_u0633_u0646_u062f_u0629 u0020 u0644_u0644_u0623_u0633_u062a_u0627_u0630 u0020 u060c u0020 u0648 u0020 u064a_u0641_u0636_u0644 u0020 u062a_u0631_u062a_u064a_u0628_u0647_u0627 u0020 u062d_u0633_u0628 u0020 u0627_u0644_u0645_u0633_u062a_u0648_u0649 u0020 u0028_u0633_u0033_u0020", 
        "u060c u0020 u0032_u0633 u0020 u060c u0020 u0031_u0633_u0029_u000d", 
        "u0627_u0644_u0639_u0645_u0648_u062f u0020 u0032_u002e_u0036_u002d u0020 u0639_u062f_u062f u0020 u0627_u0644_u062a_u0644_u0627_u0645_u064a_u0630_u0029_u000d", 
        "u0645_u062e_u0635_u0635 u0020 u0644_u0639_u062f_u062f u0020 u0627_u0644_u062a_u0644_u0627_u0645_u064a_u0630 u0020 u0641_u064a u0020 u0643_u0644 u0020 u0642_u0633_u0645 u0020 u060c_u0648 u0020 u064a_u0646_u0628_u063a_u064a u0020 u0623_u0646 u0020 u064a_u0643_u0648_u0646 u0020 u0645_u0637_u0627_u0628_u0642_u0627_u000d", 
        "u0644_u0639_u062f_u062f_u0647 u0020 u0628_u0627_u0644_u0643_u0634_u0641 u0020 u0627_u0644_u0645_u0641_u0635_u0644 u0020 u0644_u0644_u062a_u0644_u0627_u0645_u064a_u0630 u0020 u0627_u0644_u062d_u0627_u0636_u0631_u064a_u0646 u0020 u0628_u0640 u0020 u0031_u0035 u0020 u0646_u0648_u0641_u0645_u0628_u0631 u0020 u0645_u0646 u0020 u0646_u0641_u0633 u0020 u0627_u0644_u062a_u0642_u0631_u064a_u0631_u002e_u000d", 
        "u0627_u0644_u0639_u0645_u0648_u062f u0020 u0033_u002e_u0036_u002d u0020 u0639_u062f_u062f u0020 u0627_u0644_u062d_u0635_u0635 u0020 u0029_u000d", 
        "u0645_u062e_u0635_u0635 u0020 u0644_u0639_u062f_u062f u0020 u062d_u0635_u0635 u0020 u0644_u0643_u0644 u0020 u0642_u0633_u0645 u0020 u060c u0020 u0645_u0639 u0020 u0645_u0631_u0627_u0639_u0627_u0629 u0020 u062a_u0648_u0636_u064a_u062d u0020 u0633_u0627_u0639_u0627_u062a u0020 u0627_u0644_u062a_u0641_u0648_u064a_u062c_u0020", 
        "u0648_u0633_u0627_u0639_u0627_u062a u0020 u0627_u0644_u062f_u0639_u0645 u0020 u0623_u0646 u0020 u0648_u062c_u062f_u062a_u002e_u000d", 
        "u0648_u0641_u064a_u0645_u0627 u0020 u064a_u062e_u0635 u0020 u0627_u0644_u062d_u0635_u0635 u0020 u0630_u0627_u062a u0020 u0627_u0644_u062a_u0641_u0648_u064a_u062c u0020 u0646_u0642_u062a_u0631_u062d u0020 u0627_u0644_u0646_u0645_u0637 u0020 u0627_u0644_u062a_u0627_u0644_u064a u0020 u0644_u0623_u0646_u0647_u000d", 
        "u064a_u0633_u0627_u0639_u062f_u0646_u0627 u0020 u0641_u064a u0020 u0627_u0646_u062c_u0627_u0632 u0020 u0627_u0644_u0645_u0631_u0627_u062d_u0644 u0020 u0627_u0644_u0645_u0642_u0628_u0644_u0629 u0020 u000d", 
        "u0627_u0644_u0639_u0645_u0648_u062f u0020 u0034_u002e_u0036_u003a u0020 u0028 u0020 u0645_u062c_u0645_u0648_u0639 u0020 u0627_u0644_u062a_u0648_u0642_u064a_u062a_u0029_u000d", 
        "u0645_u062e_u0635_u0635 u0020 u0644_u0644_u062d_u062c_u0645 u0020 u0627_u0644_u0623_u0633_u0628_u0648_u0639_u064a u0020 u0644_u0643_u0644 u0020 u0623_u0633_u062a_u0627_u0630_u000d"
    ]
}