{
    "bounding_box": [
        [
            105, 
            20, 
            517, 
            37
        ], 
        [
            55, 
            67, 
            637, 
            26
        ], 
        [
            55, 
            95, 
            637, 
            27
        ], 
        [
            55, 
            124, 
            637, 
            27
        ], 
        [
            55, 
            157, 
            637, 
            22
        ], 
        [
            55, 
            186, 
            637, 
            22
        ], 
        [
            55, 
            210, 
            637, 
            27
        ], 
        [
            55, 
            239, 
            637, 
            27
        ], 
        [
            356, 
            268, 
            337, 
            27
        ], 
        [
            55, 
            301, 
            637, 
            22
        ], 
        [
            55, 
            325, 
            637, 
            27
        ], 
        [
            55, 
            354, 
            637, 
            27
        ], 
        [
            496, 
            383, 
            197, 
            27
        ], 
        [
            55, 
            412, 
            637, 
            27
        ], 
        [
            55, 
            440, 
            637, 
            27
        ], 
        [
            55, 
            474, 
            637, 
            22
        ], 
        [
            363, 
            498, 
            329, 
            27
        ]
    ], 
    "image_height": 540, 
    "image_width": 720, 
    "transcription": [
        "u0645_u0641_u0647_u0648_u0645 u0020 u0646_u0642_u0644 u0020 u0648_u062a_u0648_u0637_u064a_u0646 u0020 u0627_u0644_u0639_u0644_u0648_u0645 u0020 u0648_u0627_u0644_u062a_u0642_u0646_u064a_u0629", 
        "u0647_u0648 u0020 u0623_u0646 u0020 u0627_u0644_u0639_u0644_u0648_u0645 u0020 u0648_u0627_u0644_u062a_u0642_u0646_u064a_u0629 u0020 u0647_u064a u0020 u0627_u0644_u062a_u0637_u0628_u064a_u0642 u0020 u0627_u0644_u0645_u0646_u0638_u0645 u0020 u0644_u0644_u0645_u0639_u0631_u0641_u0629 u0020 u0648_u0627_u0644_u062e_u0628_u0631_u0627_u062a_u0020", 
        "u0627_u0644_u0645_u0643_u062a_u0633_u0628_u0629 u0020 u0641_u064a u0020 u0627_u0644_u0645_u0647_u0627_u0645 u0020 u0627_u0644_u0639_u0645_u0644_u064a_u0629 u0020 u0644_u062d_u064a_u0627_u0629 u0020 u0627_u0644_u0625_u0646_u0633_u0627_u0646_u060c u0020 u0648_u0647_u064a u0020 u062a_u0645_u062b_u0644 u0020 u0645_u062c_u0645_u0648_u0639_u0020", 
        "u0627_u0644_u0639_u0644_u0648_u0645 u0020 u0648_u0627_u0644_u0648_u0633_u0627_u0626_u0644 u0020 u0648_u0627_u0644_u0623_u0633_u0627_u0644_u064a_u0628 u0020 u0627_u0644_u0641_u0646_u064a_u0629 u0020 u0648_u0627_u0644_u062a_u0643_u0646_u0648_u0644_u0648_u062c_u064a_u0629 u0020 u0648_u0627_u0644_u062a_u0642_u0646_u064a_u0629 u0020 u0648_u0627_u0644_u0628_u0634_u0631_u064a_u0629_u0020", 
        "u060c u0020 u0627_u0644_u062a_u064a u0020 u064a_u0633_u062a_u062e_u062f_u0645_u0647_u0627 u0020 u0627_u0644_u0627_u0646_u0633_u0627_u0646 u0020 u0641_u064a u0020 u0645_u062e_u062a_u0644_u0641 u0020 u0646_u0648_u0627_u062d_u064a u0020 u062d_u064a_u0627_u062a_u0647 u0020 u0627_u0644_u0639_u0645_u0644_u064a_u0629_u0020", 
        "u0648_u0627_u0644_u0639_u0644_u0645_u064a_u0629 u0020 u0648_u0627_u0644_u0635_u0646_u0627_u0639_u064a_u0629 u0020 u0648_u0627_u0644_u0627_u0642_u062a_u0635_u0627_u062f_u064a_u0629 u0020 u0648_u0627_u0644_u0645_u0639_u0631_u0641_u064a_u0629 u0020 u0627_u0644_u0645_u062e_u062a_u0644_u0641_u0629 u0020 u060c u0020 u0648_u0628_u0627_u0644_u062a_u0627_u0644_u064a_u0020", 
        "u0641_u0647_u064a u0020 u0645_u0631_u0643_u0628 u0020 u0642_u0648_u0627_u0645_u0647 u0020 u0627_u0644_u0645_u0639_u062f_u0627_u062a u0020 u0648_u0627_u0644_u0645_u0639_u0631_u0641_u0629 u0020 u0648_u0627_u0644_u0623_u0628_u062d_u0627_u062b u0020 u0648_u0627_u0644_u062f_u0631_u0627_u0633_u0627_u062a_u0020", 
        "u0648_u0627_u0644_u062a_u0642_u0646_u064a_u0627_u062a u0020 u0648_u0627_u0644_u062a_u0643_u0646_u0648_u0644_u0648_u062c_u064a_u0627 u0020 u0648_u0627_u0644_u0639_u0644_u0648_u0645 u0020 u0627_u0644_u0645_u062e_u062a_u0644_u0641_u0629 u0020 u0648_u0627_u0644_u0639_u0646_u0635_u0631 u0020 u0627_u0644_u0628_u0634_u0631_u064a u0020 u002e u0020 u0648_u0644_u0630_u0627_u0020", 
        "u064a_u062a_u0645 u0020 u062a_u0639_u0631_u064a_u0641_u0647_u0627 u0020 u0648_u0641_u0642 u0020 u0627_u0644_u0645_u0641_u0647_u0648_u0645 u0020 u0627_u0644_u062a_u0627_u0644_u064a u0020 u003a u0020 u000d", 
        "u0640 u0020 u0641_u0625_u0646 u0020 u0639_u0645_u0644_u064a_u0629 u0020 u0646_u0642_u0644 u0020 u0627_u0644_u0639_u0644_u0648_u0645 u0020 u0648_u0627_u0644_u062a_u0642_u0646_u064a_u0629 u0020 u0644_u0627 u0020 u064a_u0642_u0635_u062f u0020 u0628_u0647_u0627 u0020 u0627_u0644_u0627_u0633_u062a_u062d_u0648_u0627_u0630 u0020 u0641_u0642_u0637 u0020 u0639_u0644_u0649_u0020", 
        "u0028 u0020 u0627_u0644_u0623_u062c_u0647_u0632_u0629 u0020 u0648_u0627_u0644_u0645_u0639_u062f_u0627_u062a u0020 u0628_u0635_u0648_u0631_u062a_u0647_u0627 u0020 u0627_u0644_u0645_u062c_u0633_u062f_u0629 u0020 u0029 u0020 u060c u0020 u0628_u0644 u0020 u0646_u0642_u0644 u0020 u0627_u0644_u0639_u0644_u0648_u0645 u0020 u0648_u0627_u0644_u0645_u0639_u0627_u0631_u0641_u0020", 
        "u0627_u0644_u062a_u0642_u0646_u064a_u0629 u0020 u0645_u0645_u062b_u0644_u0629 u0020 u0641_u064a u0020 u0627_u0644_u0645_u0647_u0627_u0631_u0627_u062a u0020 u0627_u0644_u0645_u0647_u0646_u064a_u0629 u0020 u0648_u0627_u0644_u0645_u0639_u0631_u0641_u0629 u0020 u0627_u0644_u0641_u0646_u064a_u0629 u0020 u0648_u0627_u0644_u062e_u0628_u0631_u0627_u062a_u0020", 
        "u0627_u0644_u0625_u062f_u0627_u0631_u064a_u0629 u0020 u0648_u0627_u0644_u062a_u0646_u0638_u064a_u0645_u064a_u0629 u0020 u002e_u000d", 
        "u0640 u0020 u0623_u0645_u0627 u0020 u062a_u0648_u0637_u064a_u0646 u0020 u0627_u0644_u0639_u0644_u0648_u0645 u0020 u0648_u0627_u0644_u062a_u0642_u0646_u064a_u0629 u0020 u0648_u062a_u0637_u0648_u064a_u0639_u0647_u0627 u0020 u0641_u0647_u064a u0020 u0627_u0644_u0639_u0645_u0644_u064a_u0629 u0020 u0627_u0644_u062a_u064a u0020 u064a_u062a_u0645 u0020 u0645_u0646_u0020", 
        "u062e_u0644_u0627_u0644_u0647_u0627 u0020 u062a_u0646_u0645_u064a_u0629 u0020 u0627_u0644_u0642_u062f_u0631_u0627_u062a u0020 u0627_u0644_u0630_u0627_u062a_u064a_u0629 u0020 u0644_u0644_u062a_u0639_u0627_u0645_u0644 u0020 u0627_u0644_u0641_u0646_u064a u0020 u0645_u0639 u0020 u0627_u0644_u0623_u062c_u0647_u0632_u0629 u0020 u0648_u0627_u0644_u0645_u0639_u062f_u0627_u062a_u0020", 
        "u0627_u0644_u062d_u062f_u064a_u062b_u0629 u0020 u0648_u0627_u0644_u062a_u0643_u0646_u0648_u0644_u0648_u062c_u064a_u0627 u0020 u0648_u0639_u0645_u0644 u0020 u0627_u0644_u062a_u0639_u062f_u064a_u0644_u0627_u062a u0020 u0627_u0644_u0644_u0627_u0632_u0645_u0629 u0020 u0639_u0644_u064a_u0647_u0627 u0020 u0644_u062a_u0644_u0627_u0626_u0645 u0020 u0637_u0628_u064a_u0639_u0629_u0020", 
        "u0627_u0644_u0628_u064a_u0626_u0629 u0020 u0627_u0644_u0645_u062d_u0644_u064a_u0629 u0020 u0648_u0627_u0644_u0645_u062c_u062a_u0645_u0639 u0020 u0648_u0638_u0631_u0648_u0641_u0647_u0627_u002e_u0020"
    ]
}