{
    "bounding_box": [
        [
            341, 
            158, 
            335, 
            37
        ], 
        [
            98, 
            208, 
            559, 
            38
        ], 
        [
            99, 
            248, 
            520, 
            42
        ], 
        [
            255, 
            291, 
            219, 
            42
        ]
    ], 
    "image_height": 540, 
    "image_width": 720, 
    "transcription": [
        "u0642_u0627_u0646_u0648_u0646 u0020 u0627_u0644_u0645_u0633_u0627_u0641_u0629 u0020 u0628_u064a_u0646 u0020 u0646_u0642_u0637_u062a_u064a_u0646_u003a_u000d", 
        "u0020 u0020 u064a_u0633_u062a_u0639_u0645_u0644 u0020 u0646_u0638_u0627_u0645 u0020 u062a_u062d_u062f_u064a_u062f u0020 u0627_u0644_u0645_u0648_u0627_u0642_u0639 u0020 u0627_u0644_u0639_u0627_u0644_u0645_u064a_u0028 u0020 u0047_u0050_u0053 u0020 u0029_u0020", 
        "u0642_u0627_u0646_u0648_u0646 u0020 u0627_u0644_u0645_u0633_u0627_u0641_u0629 u0020 u0628_u064a_u0646 u0020 u0646_u0642_u0637_u062a_u064a_u0646 u0020 u0627_u0644_u0630_u064a u0020 u064a_u0639_u062a_u0645_u062f u0020 u0639_u0644_u0649_u0020", 
        "u0646_u0638_u0631_u064a_u0629 u0020 u0641_u064a_u062b_u0627_u063a_u0648_u0631_u0633_u002e"
    ]
}