{
    "bounding_box": [
        [
            151, 
            55, 
            417, 
            51
        ], 
        [
            523, 
            186, 
            178, 
            30
        ], 
        [
            9, 
            229, 
            681, 
            32
        ], 
        [
            46, 
            263, 
            655, 
            37
        ], 
        [
            21, 
            301, 
            680, 
            37
        ], 
        [
            675, 
            367, 
            26, 
            9
        ]
    ], 
    "image_height": 540, 
    "image_width": 720, 
    "transcription": [
        "u0645_u0646_u0627_u0647_u062c u0020 u0627_u0644_u062f_u0631_u0627_u0633_u0627_u062a u0020 u0627_u0644_u0627_u0633_u062a_u0634_u0631_u0627_u0642_u064a_u0629_u0020", 
        "u0031_u002e u0020 u0627_u0644_u0645_u0646_u0647_u062c u0020 u002e_u002e_u002e_u002e_u002e_u002e_u002e_u000d", 
        "u0020 u0020 u064a_u0631_u0641_u0636 u0020 u0627_u0644_u0645_u0633_u062a_u0634_u0631_u0642 u0020 u0028 u0020 u0648_u0627_u062a u0020 u0029 u0020 u0642_u0635_u0629 u0020 u0628_u062d_u064a_u0631_u0649_u002c u0020 u0648_u0645_u0646_u0637_u0644_u0642_u0647 u0020 u0641_u064a u0020 u0647_u0630_u0627 u0020 u0020 u0020 u0020_u0642_u0648_u0644_u0647_u0020", 
        "u003a u0020 u201d u0020 u0625_u0646 u0020 u0647_u0646_u0627_u0643 u0020 u0627_u0644_u0639_u062f_u064a_u062f u0020 u0645_u0646 u0020 u0627_u0644_u0642_u0635_u0635 u0020 u0630_u0627_u062a u0020 u0627_u0644_u0637_u0627_u0628_u0639 u0020 u0627_u0644_u062f_u064a_u0646_u064a u0020 u064a_u0643_u0627_u062f u0020 u064a_u0643_u0648_u0646 u0020 u0645_u0646_u0020", 
        "u0627_u0644_u0645_u062a_u064a_u0642_u0646 u0020 u0628_u0623_u0646_u0647_u0627 u0020 u0644_u064a_u0633_u062a u0020 u062d_u0642_u064a_u0642_u064a_u0629 u0020 u0645_u0646 u0020 u0648_u062c_u0647_u0629 u0020 u0646_u0638_u0631 u0020 u0627_u0644_u0645_u0624_u0631_u062e u0020 u002e_u002e_u002e_u002e_u002e_u002e_u002e_u002e u0020 u0627_u0644_u0648_u0627_u0642_u0639_u064a_u0629 u0020 u201d_u0020", 
        "u002e u0020 u0020"
    ]
}