{
    "bounding_box": [
        [
            169, 
            20, 
            381, 
            32
        ], 
        [
            411, 
            100, 
            272, 
            24
        ], 
        [
            417, 
            135, 
            236, 
            29
        ], 
        [
            563, 
            169, 
            90, 
            24
        ], 
        [
            403, 
            205, 
            250, 
            24
        ], 
        [
            572, 
            235, 
            81, 
            25
        ], 
        [
            408, 
            271, 
            246, 
            27
        ], 
        [
            372, 
            305, 
            281, 
            30
        ], 
        [
            579, 
            339, 
            75, 
            22
        ], 
        [
            383, 
            373, 
            270, 
            29
        ], 
        [
            564, 
            406, 
            89, 
            24
        ], 
        [
            24, 
            102, 
            316, 
            31
        ], 
        [
            246, 
            139, 
            94, 
            26
        ], 
        [
            49, 
            177, 
            250, 
            25
        ], 
        [
            62, 
            213, 
            238, 
            25
        ], 
        [
            53, 
            249, 
            247, 
            25
        ], 
        [
            61, 
            284, 
            238, 
            26
        ], 
        [
            29, 
            320, 
            270, 
            29
        ]
    ], 
    "image_height": 540, 
    "image_width": 720, 
    "transcription": [
        "u0641_u0648_u0627_u0626_u062f u0020 u062a_u0637_u0628_u064a_u0642_u0627_u062a u0020 u0633_u0648_u0642 u0020 u0627_u0644_u0639_u0645_u0644 u0020 u0627_u0644_u0625_u0644_u0643_u062a_u0631_u0648_u0646_u064a_u0629", 
        "u0628_u0627_u0644_u0646_u0633_u0628_u0629 u0020 u0644_u0644_u0628_u0627_u062d_u062b_u064a_u0646 u0020 u0639_u0646 u0020 u0627_u0644_u0639_u0645_u0644_u003a_u000d", 
        "u0633_u0631_u0639_u0629 u0020 u0623_u0643_u0628_u0631 u0020 u0641_u064a u0020 u0627_u0644_u0628_u062d_u062b u0020 u0639_u0646_u0020", 
        "u0627_u0644_u0648_u0638_u0627_u0626_u0641_u002e_u000d", 
        "u0645_u0639_u0644_u0648_u0645_u0627_u062a u0020 u0627_u0643_u062b_u0631 u0020 u0639_u0646 u0020 u0627_u0644_u0648_u0638_u0627_u0626_u0641_u0020", 
        "u0627_u0644_u0645_u0637_u0644_u0648_u0628_u0629_u000d", 
        "u0627_u062a_u0635_u0627_u0644 u0020 u0627_u0633_u0631_u0639 u0020 u0645_u0639 u0020 u0627_u0644_u0634_u0631_u0643_u0627_u062a_u002e_u000d", 
        "u062a_u0648_u0641_u064a_u0631 u0020 u0623_u062f_u0648_u0627_u062a u0020 u0627_u062a_u0635_u0627_u0644 u0020 u0645_u062a_u0646_u0648_u0639_u0629 u0020 u0645_u0639_u0020", 
        "u0627_u0644_u0628_u0627_u062d_u062b_u002e_u000d", 
        "u062a_u0648_u0632_u064a_u0639 u0020 u0627_u0644_u0633_u064a_u0631_u0629 u0020 u0627_u0644_u0630_u0627_u062a_u064a_u0629 u0020 u0639_u0644_u0649 u0020 u0623_u0643_u0628_u0631_u0020", 
        "u0639_u062f_u062f u0020 u0645_u0645_u0643_u0646", 
        "u0628_u0627_u0644_u0646_u0633_u0628_u0629 u0020 u0644_u0644_u0634_u0631_u0643_u0627_u062a u0020 u0627_u0644_u062a_u064a u0020 u062a_u0628_u062d_u062b u0020 u0639_u0646_u0020", 
        "u0645_u0648_u0638_u0641_u064a_u0646_u003a_u000d", 
        "u062a_u0648_u0635_u064a_u0644 u0020 u0627_u0644_u0627_u0639_u0644_u0627_u0646_u0627_u062a u0020 u0628_u0633_u0631_u0639_u0629_u0020", 
        "u0627_u0643_u0628_u0631 u0020 u0644_u0644_u0628_u0627_u062d_u062b_u064a_u0646 u0020 u0639_u0646 u0020 u0627_u0644_u0639_u0645_u0644_u002e_u000d", 
        "u062a_u0642_u0644_u064a_u0644 u0020 u0632_u0645_u0646 u0020 u0648_u062a_u0643_u0644_u0641_u0629 u0020 u0639_u0645_u0644_u064a_u0627_u062a_u0020", 
        "u0645_u0639_u0627_u0644_u062c_u0629 u0020 u0637_u0644_u0628_u0627_u062a u0020 u0627_u0644_u062a_u0648_u0638_u064a_u0641_u002e_u000d", 
        "u0632_u064a_u0627_u062f_u0629 u0020 u0646_u062c_u0627_u062d u0020 u0639_u0645_u0644_u064a_u0629 u0020 u0627_u0644_u062a_u0648_u0638_u064a_u0641_u002e_u000d"
    ]
}