{
    "bounding_box": [
        [
            96, 
            46, 
            553, 
            38
        ], 
        [
            95, 
            90, 
            555, 
            37
        ], 
        [
            44, 
            131, 
            606, 
            36
        ], 
        [
            60, 
            175, 
            590, 
            38
        ], 
        [
            45, 
            216, 
            605, 
            39
        ], 
        [
            110, 
            271, 
            539, 
            37
        ], 
        [
            109, 
            314, 
            541, 
            37
        ], 
        [
            44, 
            356, 
            606, 
            37
        ], 
        [
            105, 
            400, 
            544, 
            33
        ], 
        [
            106, 
            441, 
            544, 
            38
        ]
    ], 
    "image_height": 540, 
    "image_width": 720, 
    "transcription": [
        "u0627_u0644_u0645_u062d_u0648_u0631 u0020 u0627_u0644_u0631_u0627_u0628_u0639_u003a u0020 u0648_u0636_u0639 u0020 u0646_u0638_u0627_u0645 u0020 u062e_u0627_u0635 u0020 u0644_u0645_u0639_u0627_u0645_u0644_u0629 u0020 u0627_u0644_u0633_u0644_u0639_u0020", 
        "u0648_u0627_u0644_u0645_u0646_u062a_u062c_u0627_u062a u0020 u0627_u0644_u062a_u064a u0020 u064a_u062a_u0645 u0020 u0625_u0646_u062a_u0627_u062c_u0647_u0627 u0020 u062f_u0627_u062e_u0644 u0020 u0627_u0644_u0645_u0646_u0627_u0637_u0642 u0020 u0627_u0644_u062d_u0631_u0629_u0020", 
        "u0648_u0627_u0644_u0627_u0642_u062a_u0635_u0627_u062f_u064a_u0629 u0020 u0630_u0627_u062a u0020 u0627_u0644_u0637_u0628_u064a_u0639_u0629 u0020 u0627_u0644_u062e_u0627_u0635_u0629 u0020 u0648_u0627_u0644_u0645_u0646_u0627_u0637_u0642 u0020 u0627_u0644_u062a_u0646_u0645_u0648_u064a_u0629_u0020", 
        "u0648_u0627_u0644_u0627_u0633_u062a_u062b_u0645_u0627_u0631_u064a_u0629 u0020 u0627_u0644_u0639_u0631_u0628_u064a_u0629_u060c u0020 u064a_u0643_u0641_u0644 u0020 u062a_u0633_u0647_u064a_u0644 u0020 u062a_u0628_u0627_u062f_u0644 u0020 u062a_u0644_u0643 u0020 u0627_u0644_u0633_u0644_u0639_u0020", 
        "u0648_u0627_u0644_u0645_u0646_u062a_u062c_u0627_u062a u0020 u0628_u064a_u0646_u0647_u0627 u0020 u0648_u064a_u0639_u0638_u0645 u0020 u0627_u0633_u062a_u0641_u0627_u062f_u0629 u0020 u0627_u0644_u062f_u0648_u0644 u0020 u0627_u0644_u0639_u0631_u0628_u064a_u0629 u0020 u0645_u0646_u0647_u0627_u002e u0020 u000d", 
        "u0639_u0644_u0649 u0020 u0623_u0646 u0020 u064a_u062a_u0645 u0020 u0627_u0644_u062a_u0641_u0631_u0642_u0629 u0020 u0628_u064a_u0646 u0020 u0645_u0627 u0020 u0625_u0630_u0627 u0020 u0643_u0627_u0646_u062a u0020 u0645_u0633_u062a_u0644_u0632_u0645_u0627_u062a_u0020", 
        "u0627_u0644_u0625_u0646_u062a_u0627_u062c u0020 u0644_u0644_u0635_u0646_u0627_u0639_u0627_u062a u0020 u0627_u0644_u0645_u0648_u062c_u0648_u062f_u0629 u0020 u0641_u064a u0020 u0627_u0644_u0645_u0646_u0627_u0637_u0642 u0020 u0627_u0644_u062d_u0631_u0629_u0020", 
        "u0648_u0627_u0644_u0627_u0642_u062a_u0635_u0627_u062f_u064a_u0629 u0020 u0630_u0627_u062a u0020 u0627_u0644_u0637_u0628_u064a_u0639_u0629 u0020 u0627_u0644_u062e_u0627_u0635_u0629 u0020 u0648_u0627_u0644_u0645_u0646_u0627_u0637_u0642 u0020 u0627_u0644_u062a_u0646_u0645_u0648_u064a_u0629_u0020", 
        "u0648_u0627_u0644_u0627_u0633_u062a_u062b_u0645_u0627_u0631_u064a_u0629 u0020 u0645_u062d_u0644_u064a_u0629 u0020 u0623_u0648 u0020 u0645_u0633_u062a_u0648_u0631_u062f_u0629_u060c u0020 u0648_u0645_u0627 u0020 u0625_u0630_u0627 u0020 u0643_u0627_u0646_u062a_u0020", 
        "u062a_u062d_u0642_u0642 u0020 u0627_u0644_u062a_u0643_u0627_u0645_u0644 u0020 u0645_u0639 u0020 u0627_u0644_u0635_u0646_u0627_u0639_u0627_u062a u0020 u0627_u0644_u0645_u062d_u0644_u064a_u0629 u0020 u0645_u0646 u0020 u0639_u062f_u0645_u0647_u002e_u000d"
    ]
}