{
    "bounding_box": [
        [
            540, 
            87, 
            315, 
            32
        ], 
        [
            96, 
            157, 
            740, 
            26
        ], 
        [
            96, 
            201, 
            740, 
            26
        ], 
        [
            97, 
            247, 
            739, 
            24
        ], 
        [
            728, 
            289, 
            108, 
            19
        ], 
        [
            96, 
            344, 
            740, 
            24
        ], 
        [
            128, 
            387, 
            708, 
            22
        ]
    ], 
    "image_height": 540, 
    "image_width": 959, 
    "transcription": [
        "u0633_u0627_u0628_u0639_u0627_u064b_u003a u0020 u0645_u0628_u062f_u0623 u0020 u0627_u0644_u062a_u0631_u0628_u064a_u0629 u0020 u0644_u0644_u0642_u0648_u0629 u0020 u0648_u0627_u0644_u0628_u0646_u0627_u0621_u003a", 
        "u0644_u0630_u0627 u0020 u0641_u0642_u062f u0020 u062d_u0631_u0635_u062a u0020 u0627_u0644_u0633_u064a_u0627_u0633_u0629 u0020 u0627_u0644_u062a_u0639_u0644_u064a_u0645_u064a_u0629 u0020 u0641_u064a u0020 u0627_u0644_u0645_u0645_u0644_u0643_u0629 u0020 u0639_u0644_u0649 u0020 u0628_u064a_u0627_u0646 u0020 u0623_u0647_u0645_u064a_u0629 u0020 u0627_u0644_u0642_u0648_u0629 u0020 u0628_u0623_u0646_u0648_u0627_u0639_u0647_u0627_u002e u0020 u0643_u0645_u0627 u0020 u062c_u0627_u0621 u0020 u0641_u064a u0020 u0627_u0644_u0645_u0627_u062f_u0629_u0020", 
        "u0032_u0037 u0020 u0648_u0627_u0644_u062a_u064a u0020 u062a_u0648_u0636_u062d u0020 u0623_u0646 u0020 u201c u0020 u0627_u0644_u0642_u0648_u0629 u0020 u0641_u064a u0020 u0623_u0633_u0645_u0649 u0020 u0635_u0648_u0631_u0647_u0627 u0020 u0648_u0623_u0634_u0645_u0644 u0020 u0645_u0639_u0627_u0646_u064a_u0647_u0627_u003a u0020 u0642_u0648_u0629 u0020 u0627_u0644_u0639_u0642_u064a_u062f_u0629_u060c u0020 u0648_u0642_u0648_u0629 u0020 u0627_u0644_u062e_u0644_u0642_u060c u0020 u0648_u0642_u0648_u0629_u0020", 
        "u0627_u0644_u062c_u0633_u0645 u0020 u201c u0020 u002e u0020 u0028_u0641_u0627_u0644_u0645_u0624_u0645_u0646 u0020 u0627_u0644_u0642_u0648_u064a u0020 u062e_u064a_u0631_u064c u0020 u0648_u0623_u062d_u0628 u0020 u0625_u0644_u0649 u0020 u0627_u0644_u0644_u0647 u0020 u0645_u0646 u0020 u0627_u0644_u0645_u0624_u0645_u0646 u0020 u0627_u0644_u0636_u0639_u064a_u0641_u060c u0020 u0648_u0641_u064a u0020 u0643_u0644 u0020 u062e_u064a_u0631_u0029_u002e_u0028_u0648_u0632_u0627_u0631_u0629 u0020 u0627_u0644_u0645_u0639_u0627_u0631_u0641_u060c_u0020", 
        "u0031_u0039_u0037_u0030_u0645_u060c u0020 u0635_u0036_u0029_u000d", 
        "u0648_u062a_u062a_u0636_u062d u0020 u0627_u0644_u062d_u0627_u062c_u0629 u0020 u0644_u0644_u0642_u0648_u0629 u0020 u0641_u064a u0020 u0645_u0646 u0020 u062e_u0644_u0627_u0644 u0020 u0627_u0644_u0645_u0627_u062f_u0629 u0020 u0032_u0036 u0020 u0648_u0627_u0644_u062a_u064a u0020 u062a_u0646_u0635 u0020 u0639_u0644_u0649 u0020 u201c u0020 u0627_u0644_u062c_u0647_u0627_u062f u0020 u0641_u064a u0020 u0633_u0628_u064a_u0644 u0020 u0627_u0644_u0644_u0647 u0020 u0641_u0631_u064a_u0636_u0629_u0020", 
        "u0645_u062d_u0643_u0645_u0629 u0020 u0648_u0633_u0646_u0629 u0020 u0645_u062a_u0628_u0639_u0629 u0020 u0648_u0636_u0631_u0648_u0631_u0629 u0020 u0642_u0627_u0626_u0645_u0629 u0020 u0648_u0647_u0648 u0020 u0645_u0627_u0636 u0020 u0625_u0644_u0649 u0020 u064a_u0648_u0645 u0020 u0627_u0644_u0642_u064a_u0627_u0645_u0629 u0020 u201c u0020 u0028_u0648_u0632_u0627_u0631_u0629 u0020 u0627_u0644_u0645_u0639_u0627_u0631_u0641_u060c u0020 u0031_u0039_u0037_u0030_u0645_u060c u0020 u0635_u0036_u0029_u000d"
    ]
}