{
    "bounding_box": [
        [
            227, 
            21, 
            253, 
            27
        ], 
        [
            547, 
            70, 
            114, 
            27
        ], 
        [
            55, 
            106, 
            607, 
            29
        ], 
        [
            538, 
            144, 
            124, 
            24
        ], 
        [
            568, 
            211, 
            93, 
            25
        ], 
        [
            64, 
            247, 
            597, 
            24
        ], 
        [
            617, 
            282, 
            45, 
            16
        ], 
        [
            535, 
            353, 
            127, 
            23
        ], 
        [
            68, 
            385, 
            593, 
            27
        ], 
        [
            631, 
            423, 
            30, 
            19
        ]
    ], 
    "image_height": 540, 
    "image_width": 720, 
    "transcription": [
        "u0627_u0644_u062f_u0631_u0633 u0020 u0034_u002d_u0033_u003a u0020 u062a_u0628_u0648_u064a_u0628_u0629 u0020 u0645_u0631_u0627_u062c_u0639_u0629", 
        "u0623_u0648_u0627_u0645_u0631 u0020 u0627_u0644_u062a_u062f_u0642_u064a_u0642_u000d", 
        "u0633_u062a_u062c_u062f u0020 u0647_u0646_u0627 u0020 u0623_u0648_u0627_u0645_u0631 u0020 u0644_u0644_u062a_u062f_u0642_u064a_u0642 u0020 u0627_u0644_u0625_u0645_u0644_u0627_u0626_u064a_u060c u0020 u0648_u0627_u0633_u062a_u062e_u062f_u0627_u0645 u0020 u0642_u0627_u0645_u0648_u0633 u0020 u0627_u0644_u0645_u0631_u0627_u062f_u0641_u0627_u062a_u060c u0020 u0648_u0627_u0644_u0628_u062d_u062b_u0020", 
        "u0639_u0646 u0020 u0627_u0644_u0645_u0648_u0627_u0636_u064a_u0639_u000d", 
        "u0623_u0648_u0627_u0645_u0631 u0020 u0627_u0644_u0644_u063a_u0629_u000d", 
        "u064a_u0645_u0643_u0646_u0643 u0020 u0647_u0646_u0627 u0020 u062a_u0631_u062c_u0645_u0629 u0020 u0627_u0644_u0643_u0644_u0645_u0627_u062a_u060c u0020 u0648_u0627_u062e_u062a_u064a_u0627_u0631 u0020 u0627_u0644_u0644_u063a_u0629 u0020 u0627_u0644_u062e_u0627_u0635_u0629 u0020 u0628_u0643_u060c u0020 u0648_u062a_u0639_u064a_u064a_u0646 u0020 u062e_u064a_u0627_u0631_u0627_u062a_u0020", 
        "u0627_u0644_u0644_u063a_u0629_u000d", 
        "u0623_u0648_u0627_u0645_u0631 u0020 u0627_u0644_u062a_u0639_u0644_u064a_u0642_u0627_u062a_u000d", 
        "u062a_u0645_u0646_u062d_u0643 u0020 u0647_u0630_u0647 u0020 u0627_u0644_u0645_u062c_u0645_u0648_u0639_u0629 u0020 u0623_u0648_u0627_u0645_u0631 u0020 u0644_u0625_u0636_u0627_u0641_u0629 u0020 u0648_u062a_u062d_u0631_u064a_u0631 u0020 u0648_u062d_u0630_u0641 u0020 u0627_u0644_u062a_u0639_u0644_u064a_u0642_u0627_u062a u0020 u0648_u0627_u0644_u062a_u0646_u0642_u0644_u0020", 
        "u0641_u064a_u0647_u0627"
    ]
}