{
    "bounding_box": [
        [
            52, 
            52, 
            166, 
            22
        ], 
        [
            43, 
            218, 
            635, 
            40
        ], 
        [
            292, 
            270, 
            139, 
            40
        ]
    ], 
    "image_height": 540, 
    "image_width": 720, 
    "transcription": [
        "u0042_u0049_u004f_u0050_u0048_u0059_u0053_u0049_u0043_u0053", 
        "u0627_u0647_u0645 u0020 u0627_u0644_u062a_u062e_u0635_u0635_u0627_u062a u0020 u0627_u0644_u062a_u0649 u0020 u062a_u062a_u0646_u0627_u0648_u0644_u0647_u0627 u0020 u0627_u0644_u0641_u0632_u064a_u0627_u0621_u0020", 
        "u0627_u0644_u062d_u064a_u0648_u064a_u0629_u0020"
    ]
}