{
    "bounding_box": [
        [
            39, 
            146, 
            630, 
            43
        ], 
        [
            312, 
            194, 
            94, 
            30
        ], 
        [
            90, 
            259, 
            527, 
            37
        ], 
        [
            206, 
            312, 
            306, 
            32
        ]
    ], 
    "image_height": 540, 
    "image_width": 720, 
    "transcription": [
        "u064a_u0645_u0643_u0646 u0020 u0623_u0646 u0020 u062a_u0633_u062a_u062e_u062f_u0645 u0020 u0627_u0633_u062a_u0631_u0627_u062a_u064a_u062c_u064a_u0629 u0020 u0625_u0646_u0634_u0627_u0621 u0020 u0642_u0627_u0626_u0645_u0629 u0020 u0641_u064a u0020 u062d_u0644_u0020", 
        "u0627_u0644_u0645_u0633_u0623_u0644_u0629", 
        "u0639_u0646_u062f_u0645_u0627 u0020 u064a_u0643_u0648_u0646 u0020 u0627_u0644_u0645_u0637_u0644_u0648_u0628 u0020 u062d_u0644 u0020 u0627_u0644_u0645_u0633_u0623_u0644_u0629 u0020 u0628_u062a_u062d_u062f_u064a_u062f_u0020", 
        "u0639_u062f_u0629 u0020 u0627_u062e_u062a_u064a_u0627_u0631_u0627_u062a u0020 u0028_u062a_u0631_u062a_u064a_u0628_u0627_u062a_u0029"
    ]
}