{
    "bounding_box": [
        [
            200, 
            117, 
            319, 
            31
        ], 
        [
            310, 
            166, 
            299, 
            26
        ], 
        [
            275, 
            214, 
            328, 
            16
        ]
    ], 
    "image_height": 540, 
    "image_width": 720, 
    "transcription": [
        "u0627_u0644_u0644_u063a_u0629 u0020 u0627_u0644_u0631_u0633_u0645_u064a_u0629 u0020 u0648 u0020 u0627_u0644_u062f_u064a_u0627_u0646_u0629", 
        "u0627_u0644_u0644_u063a_u0629 u0020 u0627_u0644_u0631_u0633_u0645_u064a_u0629 u0020 u003a u0020 u0627_u0644_u0627_u0646_u062c_u0644_u064a_u0632_u064a_u0629 u0020 u0020_u0627_u0644_u0644_u063a_u0629 u0020 u0627_u0644_u0645_u062a_u062f_u0627_u0648_u0644_u0629 u0020 u003a u0020 u0627_u0644_u0627_u0645_u0647_u0631_u064a_u0629_u000d", 
        "u0627_u0644_u062f_u064a_u0627_u0646_u0629 u0020 u003a u0020 u0036_u0030_u0025 u0020 u0627_u0644_u0627_u0633_u0644_u0627_u0645 u0020 u0648 u0020 u0034_u0030_u0025 u0020 u0627_u0644_u0645_u0633_u064a_u062d_u064a_u0629 u0020 u0648_u062f_u064a_u0627_u0646_u0627_u062a u0020 u0627_u062e_u0631_u0649_u0020"
    ]
}