{
    "bounding_box": [
        [
            52, 
            49, 
            614, 
            37
        ], 
        [
            15, 
            98, 
            656, 
            20
        ], 
        [
            15, 
            119, 
            656, 
            20
        ], 
        [
            381, 
            141, 
            290, 
            20
        ], 
        [
            15, 
            164, 
            642, 
            23
        ], 
        [
            15, 
            189, 
            642, 
            19
        ], 
        [
            63, 
            209, 
            594, 
            20
        ], 
        [
            15, 
            233, 
            642, 
            22
        ], 
        [
            15, 
            257, 
            642, 
            20
        ], 
        [
            298, 
            278, 
            359, 
            20
        ], 
        [
            15, 
            299, 
            642, 
            25
        ], 
        [
            15, 
            325, 
            642, 
            20
        ], 
        [
            475, 
            346, 
            182, 
            18
        ], 
        [
            15, 
            370, 
            642, 
            22
        ], 
        [
            573, 
            394, 
            84, 
            18
        ], 
        [
            15, 
            417, 
            642, 
            23
        ], 
        [
            213, 
            442, 
            445, 
            20
        ]
    ], 
    "image_height": 540, 
    "image_width": 720, 
    "transcription": [
        "u0645_u062f_u0649 u0020 u0627_u0645_u0643_u0627_u0646_u064a_u0629 u0020 u0627_u0644_u0645_u0635_u0627_u0631_u0641 u0020 u0644_u0642_u064a_u0627_u0633 u0020 u0645_u062a_u0637_u0644_u0628_u0627_u062a u0020 u0627_u0644_u0627_u062f_u0627_u0621", 
        "u064a_u062a_u0640_u0637_u0644_u0628 u0020 u062a_u062d_u0640_u0648_u0644 u0020 u0627_u0644_u0640_u0645_u0635_u0627_u0631_u0641 u0020 u0644_u0640_u0645_u0645_u0627_u0631_u0633_u0629 u0020 u0627_u0644_u0635_u0640_u064a_u0631_u0641_u0640_u0629 u0020 u0627_u0644_u0634_u0640_u0627_u0645_u0644_u0640_u0629 u0020 u0628_u064a_u0640_u0627_u0646 u0020 u0645_u0640_u062f_u0649 u0020 u0627_u0645_u0643_u0627_u0646_u064a_u0640_u0629 u0020 u0642_u064a_u0640_u0627_u0633 u0020 u0627_u062f_u0627_u0621_u0647_u0640_u0627_u0020", 
        "u0645_u0640_u0646 u0020 u062e_u0640_u0644_u0627_u0644 u0020 u0627_u0644_u0627_u062c_u0647_u0640_u0632_u0629 u0020 u0648_u0627_u0644_u0640_u062e_u0640_u0628_u0631_u0627_u062a u0020 u0627_u0644_u0640_u0645_u062a_u0640_u0648_u0641_u0631_u0629 u0020 u0644_u062f_u064a_u0647_u0640_u0627 u0020 u0644_u062d_u0645_u0640_u0627_u064a_u062a_u0647_u0640_u0627 u0020 u0645_u0640_u0646 u0020 u0627_u0644_u0627_u062e_u0640_u0641_u0640_u0627_u0642 u0020 u0641_u0640_u064a u0020 u0627_u0646_u062c_u0640_u0627_u0632 u0020 u0647_u0640_u0630_u0627_u0020", 
        "u0627_u0644_u062a_u062d_u0640_u0648_u0644 u0020 u002e_u0648_u0647_u0646_u0640_u0627 u0020 u0644_u0627_u0628_u0640_u062f u0020 u0645_u0640_u0646 u0020 u062a_u0648_u0627_u0641_u0640_u0631 u0020 u0645_u0640_u0627_u064a_u0640_u0623_u062a_u0640_u064a_u003a_u000d", 
        "u062e_u0640_u0628_u0631_u0627_u062a u0020 u0645_u062a_u062e_u0635_u0640_u0635_u0629 u0020 u0644_u0644_u0642_u064a_u0640_u0627_u0645 u0020 u0628_u0639_u0645_u0640_u0644_u064a_u0640_u0627_u062a u0020 u0627_u0644_u0627_u0634_u0640_u0631_u0627_u0641 u0020 u0648_u0627_u0644_u0640_u0631_u0642_u0640_u0627_u0628_u0629 u0020 u0633_u0640_u0648_u0627_u0621 u0020 u0645_u0627_u064a_u062a_u0639_u0640_u0644_u0642 u0020 u0628_u0627_u0644_u0633_u0644_u0637_u0640_u0629 u0020 u0627_u0644_u0646_u0642_u0640_u062f_u064a_u0629_u0020", 
        "u0627_u0648 u0020 u0627_u0644_u0640_u0645_u0635_u0640_u0631_u0641 u0020 u0630_u0627_u062a_u0640_u0647_u060c u0020 u0627_u0630 u0020 u0645_u0640_u0646 u0020 u0634_u0640_u0623_u0646 u0020 u0630_u0644_u0643 u0020 u0627_u0646 u0020 u064a_u0636_u0645_u0646 u0020 u0646_u0648_u0639_u0640_u0627_u064b u0020 u0645_u0640_u0646 u0020 u0627_u0644_u0627_u062f_u0627_u0621 u0020 u0627_u0644_u0633_u0640_u0644_u064a_u0640_u0645 u0020 u0648_u0627_u0644_u0640_u0631_u0642_u0627_u0628_u0640_u0629_u0020", 
        "u0627_u0644_u0648_u0642_u0640_u0627_u0626_u064a_u0629 u0020 u0627_u0644_u062a_u0640_u064a u0020 u062a_u062c_u0640_u0646_u0628 u0020 u0627_u0644_u0640_u0645_u0635_u0627_u0631_u0641 u0020 u0645_u0640_u0646 u0020 u0627_u0644_u0640_u0648_u0642_u0640_u0648_u0639 u0020 u0641_u0640_u064a u0020 u0627_u062e_u0640_u0637_u0627_u0621 u0020 u062a_u0640_u0624_u062f_u064a u0020 u0627_u0644_u0640_u0649 u0020 u0641_u0634_u0640_u0644 u0020 u0627_u0644_u062a_u062c_u0640_u0631_u0628_u0640_u0629_u000d", 
        "u0646_u0638_u0640_u0627_u0645 u0020 u0645_u062a_u0637_u0640_u0648_u0631 u0020 u0644_u062a_u062d_u0640_u0644_u064a_u0640_u0644 u0020 u0648_u062a_u0635_u0640_u0645_u064a_u0640_u0645 u0020 u0627_u0644_u0640_u0639_u0640_u0645_u0640_u0644 u0020 u062d_u062a_u0640_u0649 u0020 u064a_u062a_u0640_u0645 u0020 u062a_u0640_u062d_u062f_u064a_u0640_u062f u0020 u0627_u0644_u0640_u0645_u0624_u0647_u0640_u0644_u0627_u062a u0020 u0648_u0627_u0644_u0645_u0640_u0647_u0627_u0631_u0627_u062a_u0020", 
        "u0627_u0644_u0640_u0645_u0637_u0644_u0640_u0648_u0628_u0629_u060c_u0641_u0640_u0636_u0644_u0627_u064b u0020 u0639_u0640_u0646 u0020 u062a_u062d_u0640_u062f_u064a_u0640_u062f u0020 u0627_u0644_u0640_u0645_u0633_u0640_u0624_u0648_u0644_u064a_u0640_u0627_u062a u0020 u0648_u0627_u0644_u0635_u0640_u0644_u0627_u062d_u064a_u0627_u062a u0020 u0644_u0643_u0640_u0644 u0020 u0646_u0648_u0639 u0020 u0645_u0640_u0646 u0020 u0627_u0644_u0627_u0639_u0645_u0640_u0627_u0644_u060c_u0648_u0647_u0640_u0630_u0627_u0020", 
        "u0645_u0640_u0646 u0020 u0634_u0640_u0623_u0646_u0640_u0647 u0020 u0627_u0632_u0627_u0644_u0629 u0020 u0627_u0644_u062a_u0639_u0640_u0627_u0631_u0636 u0020 u0648_u0627_u0644_u0627_u0632_u062f_u0648_u0627_u062c u0020 u0641_u0640_u064a u0020 u0627_u0644_u0627_u0639_u0645_u0640_u0627_u0644_u000d", 
        "u0645_u0640_u0631_u0627_u0639_u0640_u0627_u0629 u0020 u0627_u0644_u0640_u0645_u0639_u0640_u0627_u064a_u064a_u0631 u0020 u0627_u0644_u0640_u0645_u062d_u0640_u0627_u0633_u0628_u064a_u0640_u0629 u0020 u0627_u0644_u0640_u062f_u0648_u0644_u064a_u0640_u0629 u0020 u0627_u0644_u062a_u0640_u064a u0020 u064a_u062a_u0640_u0645 u0020 u0639_u0644_u0640_u0649 u0020 u0636_u0640_u0648_u0626_u0647_u0640_u0627 u0020 u0627_u0646_u0634_u0640_u0627_u0621 u0020 u0627_u0646_u0638_u0645_u0629 u0020 u0641_u0640_u0639_u0640_u0627_u0644_u0629_u0020", 
        "u062a_u0648_u0641_u0640_u0631 u0020 u0642_u0640_u062f_u0631 u0020 u0645_u0640_u0646 u0020 u0627_u0644_u0627_u0641_u0640_u0635_u0640_u0627_u062d u0020 u0627_u0644_u0645_u0640_u0627_u0644_u0640_u064a u0020 u0648_u0627_u0644_u0634_u0641_u0640_u0627_u0641_u064a_u0640_u0629 u0020 u0627_u0644_u062a_u0640_u064a u0020 u062a_u0645_u0643_u0640_u0646 u0020 u0645_u0640_u0646 u0020 u0627_u0644_u062d_u0643_u0640_u0645 u0020 u0639_u0644_u0649 u0020 u0645_u062f_u0649 u0020 u0643_u0641_u0640_u0627_u0621_u0629_u0020", 
        "u0648_u0641_u0627_u0639_u0644_u064a_u0640_u0629 u0020 u0627_u062f_u0627_u0631_u0629 u0020 u0627_u0644_u0640_u0645_u0635_u0627_u0631_u0641_u000d", 
        "u062d_u062c_u0640_u0645 u0020 u0645_u0646_u0627_u0633_u0640_u0628 u0020 u0645_u0640_u0646 u0020 u0631_u0627_u0633 u0020 u0627_u0644_u0640_u0645_u0627_u0644 u0020 u0648_u0627_u0644_u0627_u062d_u062a_u064a_u0640_u0627_u0637_u064a_u0640_u0627_u062a u0020 u0648_u0641_u0642_u0640_u0627_u064b u0020 u0644_u0640_u0645_u0642_u0640_u0631_u0631_u0627_u062a u0020 u0644_u062c_u0640_u0646_u0629 u0020 u0628_u0640_u0627_u0632_u0644 u0020 u0627_u0644_u0645_u062d_u062f_u062f_u0629 u0020 u0644_u0643_u0641_u0640_u0627_u064a_u0640_u0629_u0020", 
        "u0631_u0627_u0633 u0020 u0627_u0644_u0640_u0645_u0627_u0644_u000d", 
        "u0632_u064a_u0640_u0627_u062f_u0629 u0020 u062b_u0640_u0642_u0640_u0629 u0020 u0627_u0644_u0640_u0645_u0640_u0648_u062f_u0639_u0640_u064a_u0646 u0020 u0648_u062e_u0640_u0627_u0635_u0640_u0629 u0020 u0635_u063a_u0640_u0627_u0631 u0020 u0627_u0644_u0640_u0645_u0640_u0648_u062f_u0639_u0640_u064a_u0646_u060c_u0627_u0630 u0020 u064a_u0642_u0640_u0644_u0644 u0020 u0630_u0644_u0643 u0020 u0645_u0640_u0646 u0020 u0639_u0645_u0640_u0644_u064a_u0627_u062a u0020 u0627_u0644_u0633_u062d_u0640_u0628_u0020", 
        "u063a_u0640_u064a_u0631 u0020 u0627_u0644_u0640_u0645_u0640_u0628_u0631_u0645_u0640_u062c u0020 u0639_u0644_u0640_u0649 u0020 u0648_u062f_u0627_u0626_u0640_u0639_u0640_u0647_u0640_u0645 u0020 u0641_u0640_u064a u0020 u062d_u0640_u0627_u0644_u0640_u0629 u0020 u0627_u0644_u0627_u0632_u0645_u0640_u0627_u062a u0020 u0648_u0627_u0644_u0627_u0634_u0640_u0627_u0639_u0627_u062a"
    ]
}