{
    "bounding_box": [
        [
            240, 
            45, 
            200, 
            76
        ], 
        [
            100, 
            158, 
            541, 
            36
        ], 
        [
            457, 
            203, 
            183, 
            32
        ], 
        [
            104, 
            255, 
            536, 
            34
        ], 
        [
            47, 
            295, 
            594, 
            38
        ], 
        [
            36, 
            343, 
            605, 
            41
        ], 
        [
            42, 
            386, 
            599, 
            42
        ], 
        [
            488, 
            431, 
            152, 
            40
        ]
    ], 
    "image_height": 540, 
    "image_width": 720, 
    "transcription": [
        "u0627_u0644_u0645_u0631_u0627_u062c_u0639", 
        "u0627_u0644_u062e_u0637_u064a_u0628 u0020 u060c u0020 u062c_u0645_u0627_u0644 u0020 u0028 u0020 u0031_u0034_u0032_u0034_u0647_u0640_u0029 u0020 u003a u0020 u0627_u0644_u0625_u0643_u062a_u0626_u0627_u0628 u0020 u060c u0020 u0637_u0031 u0020 u2013_u0020", 
        "u0627_u0644_u0625_u0635_u062f_u0627_u0631 u0020 u0627_u0644_u062b_u0627_u0646_u0649_u002e_u000d", 
        "u0632_u0647_u0631_u0627_u0646 u0020 u060c u0020 u062d_u0627_u0645_u062f u0020 u0639_u0628_u062f u0020 u0627_u0644_u0633_u0644_u0627_u0645 u0020 u0028 u0020 u0031_u0039_u0037_u0038_u0645 u0020 u0029 u0020 u003a u0020 u0627_u0644_u0635_u062d_u0647_u0020", 
        "u0627_u0644_u0646_u0641_u0633_u064a_u0647 u0020 u0648_u0627_u0644_u0639_u0644_u0627_u062c u0020 u0627_u0644_u0646_u0641_u0633_u0649 u0020 u060c u0020 u0637_u0032 u0020 u060c u0020 u0627_u0644_u0642_u0627_u0647_u0631_u0647 u0020 u060c u0020 u0639_u0627_u0644_u0645 u0020 u0627_u0644_u0643_u062a_u0628_u002e_u000d", 
        "u0633_u0648_u064a_u0646 u0020 u060c u0020 u0631_u064a_u062a_u0634_u0627_u0631_u062f u0020 u0645 u0020 u0028_u0031_u0039_u0038_u0038_u0645 u0020 u0029 u0020 u003a u0020 u0639_u0644_u0645 u0020 u0627_u0644_u0627_u0645_u0631_u0627_u0636 u0020 u0627_u0644_u0646_u0641_u0633_u064a_u0647_u0020", 
        "u0648_u0627_u0644_u0639_u0642_u0644_u064a_u0647 u0020 u060c u0020 u062a_u0631_u062c_u0645_u0647 u0020 u0627_u062d_u0645_u062f u0020 u0639_u0628 u0020 u0627_u0644_u0639_u0632_u064a_u0632 u0020 u0633_u0644_u0627_u0645_u0647 u0020 u060c u0020 u0627_u0644_u0643_u0648_u064a_u062a u0020 u060c_u0020", 
        "u0645_u0643_u062a_u0628_u0647 u0020 u0627_u0644_u0641_u0644_u0627_u062d_u002e_u000d"
    ]
}