{
    "bounding_box": [
        [
            147, 
            44, 
            352, 
            41
        ], 
        [
            494, 
            247, 
            183, 
            16
        ], 
        [
            255, 
            265, 
            422, 
            20
        ], 
        [
            424, 
            324, 
            252, 
            19
        ], 
        [
            229, 
            345, 
            446, 
            20
        ], 
        [
            640, 
            372, 
            36, 
            14
        ], 
        [
            224, 
            388, 
            452, 
            19
        ], 
        [
            428, 
            426, 
            246, 
            19
        ], 
        [
            228, 
            447, 
            447, 
            20
        ], 
        [
            644, 
            471, 
            31, 
            17
        ], 
        [
            404, 
            490, 
            270, 
            19
        ], 
        [
            438, 
            145, 
            239, 
            16
        ], 
        [
            305, 
            163, 
            373, 
            20
        ]
    ], 
    "image_height": 540, 
    "image_width": 720, 
    "transcription": [
        "u0627_u0644_u062a_u0648_u062b_u064a_u0642 u0020 u0644_u0644_u0645_u0635_u0627_u062f_u0631 u0020 u0627_u0644_u0623_u062c_u0646_u0628_u064a_u0629_u0020", 
        "u0645_u062b_u0627_u0644 u0020 u0644_u062a_u0648_u062b_u064a_u0642 u0020 u0645_u0631_u062c_u0639 u0020 u0644_u0647 u0020 u0645_u0624_u0644_u0641_u0627_u0646 u0020 u003a_u000d", 
        "u0627_u0644_u0645_u0639_u0627_u0646_u064a u0020 u062a_u0642_u0648_u064a u0020 u0627_u0644_u0631_u0648_u0627_u0628_u0637 u0020 u0628_u064a_u0646 u0020 u0645_u0641_u0631_u062f_u0627_u062a u0020 u0627_u0644_u0630_u0627_u0643_u0631_u0629 u0020 u0028_u0044_u0061_u006e_u0065_u0069_u006c u0020 u0026 u0020 u0054_u006f_u0067_u006c_u0069_u0061_u002c u0020 u0031_u0039_u0037_u0036_u0029 u0020 u002e_u0020", 
        "u0645_u062b_u0627_u0644 u0020 u0639_u0644_u0649 u0020 u062a_u0648_u062b_u064a_u0642 u0020 u0645_u0631_u062c_u0639 u0020 u0628_u0647 u0020 u0028_u0033_u002d_u0035_u0029 u0020 u0645_u0624_u0644_u0641_u064a_u0646 u0020 u003a_u000d", 
        "u0627_u0644_u062e_u064a_u0627_u0644 u0020 u0627_u0644_u0628_u0635_u0631_u064a u0020 u064a_u0645_u0627_u062b_u0644 u0020 u0627_u0644_u0645_u0639_u0627_u064a_u0646_u0629 u0020 u0028_u0042_u0072_u0061_u006e_u0064_u0069_u006d_u006f_u006e_u0074_u0065_u002c u0020 u0048_u0069_u0074_u0063_u0068 u0020 u0026 u0020 u0042_u0069_u0073_u0068_u006f_u0070_u002c u0020 u0031_u0039_u0039_u0032_u0029_u000d", 
        "u0644_u0643_u0646 u0020 u003a_u000d", 
        "u0639_u0646_u062f u0020 u0630_u0643_u0631 u0020 u0627_u0644_u0645_u0631_u062c_u0639 u0020 u0645_u0631_u0629 u0020 u0623_u062e_u0631_u0649 u0020 u0641_u064a u0020 u0627_u0644_u0646_u0635 u0020 u064a_u0643_u062a_u0628 u0020 u0028_u0042_u0072_u0061_u006e_u0064_u0069_u006d_u006f_u006e_u0074_u0065 u0020 u0065_u0074 u0020 u0061_u006c_u002e_u002c u0020 u0031_u0039_u0039_u0032_u0029_u0020", 
        "u0645_u062b_u0627_u0644 u0020 u0639_u0644_u0649 u0020 u062a_u0648_u062b_u064a_u0642 u0020 u0645_u0631_u062c_u0639 u0020 u0628_u0647 u0020 u0028_u0036_u002b_u0029 u0020 u0645_u0624_u0644_u0641_u064a_u0646 u0020 u003a_u000d", 
        "u0627_u0644_u0623_u0633_u0626_u0644_u0629 u0020 u0627_u0644_u0645_u062a_u0636_u0645_u0646_u0629 u0020 u0644_u0645_u0639_u0644_u0648_u0645_u0627_u062a u0020 u0645_u0648_u062c_u0647_u0629 u0020 u062a_u0634_u0648_u0634 u0020 u0627_u0644_u0630_u0627_u0643_u0631_u0629 u0020 u0028_u0042_u0072_u006f_u0077_u006e u0020 u0065_u0074 u0020 u0061_u006c_u002e_u002c u0020 u0032_u0030_u0031_u0030_u0029 u0020 u002e_u000d", 
        "u0623_u064a u0020 u003a_u000d", 
        "u064a_u0643_u062a_u0628 u0020 u0627_u0633_u0645 u0020 u0627_u0644_u0645_u0624_u0644_u0641 u0020 u0627_u0644_u0623_u0648_u0644 u0020 u0641_u0642_u0637 u0020 u0645_u062a_u0628_u0648_u0639_u0627 u0020 u0628_u0640 u0020 u0065_u0074 u0020 u0061_u006c_u002e u0020 u002e", 
        "u0645_u062b_u0627_u0644 u0020 u0639_u0644_u0649 u0020 u062a_u0648_u062b_u064a_u0642 u0020 u0645_u0631_u062c_u0639 u0020 u0644_u0647 u0020 u0645_u0624_u0644_u0641 u0020 u0648_u0627_u062d_u062f u0020 u003a u0020 u000d", 
        "u0627_u0644_u0630_u0643_u0631_u064a_u0627_u062a u0020 u0627_u0644_u0645_u0628_u0647_u0645_u0629 u0020 u0623_u0634_u062f u0020 u062a_u0623_u062b_u0631_u0627 u0020 u0628_u0627_u0644_u0645_u062f_u062e_u0644_u0627_u062a u0020 u0627_u0644_u0644_u0641_u0638_u064a_u0629 u0020 u0028_u004c_u0075_u0070_u0079_u006e_u002c u0020 u0032_u0030_u0030_u0038_u0029 u0020 u002e"
    ]
}