{
    "bounding_box": [
        [
            113, 
            84, 
            573, 
            40
        ], 
        [
            172, 
            132, 
            456, 
            40
        ], 
        [
            272, 
            182, 
            266, 
            33
        ], 
        [
            365, 
            266, 
            60, 
            24
        ], 
        [
            264, 
            296, 
            264, 
            38
        ], 
        [
            138, 
            338, 
            511, 
            22
        ], 
        [
            121, 
            366, 
            543, 
            22
        ]
    ], 
    "image_height": 540, 
    "image_width": 720, 
    "transcription": [
        "u0645_u062d_u0631_u0643_u0627_u062a u0020 u0627_u0644_u0628_u062d_u062b u0020 u0627_u0644_u062f_u0644_u0627_u0644_u064a_u0629 u0020 u0639_u0644_u0649 u0020 u0627_u0644_u0627_u0646_u062a_u0631_u0646_u062a u0020 u0648_u062f_u0648_u0631_u0647_u0627_u0020", 
        "u0641_u064a u0020 u0627_u0644_u0627_u0633_u062a_u0631_u062c_u0627_u0639 u0020 u0627_u0644_u0645_u0641_u0627_u0647_u064a_u0645_u064a u0020 u0644_u0644_u0645_u0639_u0644_u0648_u0645_u0627_u062a_u000b", 
        "u0020_u062f_u0631_u0627_u0633_u0629 u0020 u062a_u062d_u0644_u064a_u0644_u064a_u0629 u0020 u0645_u0642_u0627_u0631_u0646_u0629", 
        "u0625_u0639_u062f_u0627_u062f_u000d", 
        "u062f_u002e u0020 u0628_u062f_u0648_u064a_u0629 u0020 u0645_u062d_u0645_u062f u0020 u0627_u0644_u0628_u0633_u064a_u0648_u0646_u064a_u000d", 
        "u0623_u0633_u062a_u0627_u0630 u0020 u062a_u0642_u0646_u064a_u0629 u0020 u0627_u0644_u0645_u0639_u0644_u0648_u0645_u0627_u062a u0020 u0627_u0644_u0645_u0634_u0627_u0631_u0643 u0020 u0628_u0642_u0633_u0645 u0020 u0627_u0644_u0645_u0639_u0644_u0648_u0645_u0627_u062a u0020 u0648_u0645_u0635_u0627_u062f_u0631 u0020 u0627_u0644_u062a_u0639_u0644_u0645 u0020 u0020_u0628_u062c_u0627_u0645_u0639_u0629 u0020 u0637_u064a_u0628_u0629_u000d", 
        "u0020_u0623_u0633_u062a_u0627_u0630 u0020 u062a_u0642_u0646_u064a_u0629 u0020 u0627_u0644_u0645_u0639_u0644_u0648_u0645_u0627_u062a u0020 u0627_u0644_u0645_u0633_u0627_u0639_u062f u0020 u0628_u0642_u0633_u0645 u0020 u0627_u0644_u0645_u0643_u062a_u0628_u0627_u062a u0020 u0648_u0627_u0644_u0645_u0639_u0644_u0648_u0645_u0627_u062a u0020 u062c_u0627_u0645_u0639_u0629 u0020 u0637_u0646_u0637_u0627_u0028_u0645_u0635_u0631_u0029 u0020 u000d"
    ]
}