{
    "bounding_box": [
        [
            42, 
            32, 
            656, 
            31
        ], 
        [
            65, 
            81, 
            633, 
            32
        ], 
        [
            64, 
            133, 
            633, 
            31
        ], 
        [
            363, 
            183, 
            335, 
            31
        ], 
        [
            50, 
            234, 
            637, 
            36
        ], 
        [
            103, 
            288, 
            595, 
            31
        ], 
        [
            54, 
            340, 
            633, 
            34
        ], 
        [
            69, 
            390, 
            628, 
            34
        ], 
        [
            20, 
            439, 
            678, 
            40
        ], 
        [
            60, 
            481, 
            637, 
            49
        ], 
        [
            511, 
            540, 
            186, 
            31
        ]
    ], 
    "image_height": 540, 
    "image_width": 720, 
    "transcription": [
        "u0031_u002d u0020 u0646_u0642_u0635 u0020 u0641_u064a u0020 u0627_u0644_u0646_u0645_u0644 u0020 u0630_u0643_u0631 u0020 u0631_u0624_u064a_u062a_u0647 u0020 u0627_u0644_u0646_u0627_u0631 u0020 u0648_u0623_u0645_u0631 u0020 u0623_u0647_u0644_u0647 u0020 u0628_u0627_u0644_u0645_u0643_u062b u0020 u0627_u0643_u062a_u0641_u0627_u0621 u0020 u0628_u0645_u0627 u0020 u062a_u0642_u062f_u0645 u0020 u0648_u0632_u0627_u062f_u0020", 
        "u0641_u064a u0020 u0627_u0644_u0642_u0635_u0635 u0020 u0642_u0636_u0627_u0621 u0020 u0645_u0648_u0633_u0649 u0020 u0627_u0644_u0623_u062c_u0644 u0020 u0627_u0644_u0645_u0636_u0631_u0648_u0628 u0020 u0648_u0633_u064a_u0631_u0647 u0020 u0628_u0623_u0647_u0644_u0647 u0020 u0625_u0644_u0649 u0020 u0645_u0635_u0631_u061b u0020 u0644_u0623_u0646_u0020", 
        "u0627_u0644_u0634_u064a_u0621 u0020 u0642_u062f u0020 u064a_u064f_u062c_u0645_u0644 u0020 u062b_u0645 u0020 u064a_u064f_u0641_u0635_u0644 u0020 u0648_u0642_u062f u0020 u064a_u064f_u0641_u0635_u0644 u0020 u062b_u0645 u0020 u064a_u064f_u062c_u0645_u0644_u060c u0020 u0648_u0641_u064a u0020 u0637_u0647 u0020 u0641_u0635_u0651_u0644 u0020 u0648_u0623_u062c_u0645_u0644 u0020 u0641_u064a_u0020", 
        "u0627_u0644_u0646_u0645_u0644_u060c u0020 u062b_u0645 u0020 u0641_u0635_u0651_u0644 u0020 u0641_u064a u0020 u0627_u0644_u0642_u0635_u0635 u0020 u0648_u0628_u0627_u0644_u063a u0020 u0641_u064a_u0647_u000d", 
        "u0648_u0642_u0648_u0644_u0647 u0020 u0641_u064a u0020 u0637_u0647 u0020 u0028_u0623_u064e_u0648_u0652 u0020 u0623_u064e_u062c_u0650_u062f_u064f u0020 u0639_u064e_u0644_u064e_u0649 u0020 u0627_u0644_u0646_u0651_u064e_u0627_u0631_u0650 u0020 u0647_u064f_u062f_u064b_u0649_u0029 u0020 u0623_u064a u0020 u0645_u0646 u0020 u064a_u062e_u0628_u0631_u0646_u064a u0020 u0628_u0627_u0644_u0637_u0631_u064a_u0642 u0020 u0641_u064a_u0647_u062f_u064a_u0646_u064a_u0020", 
        "u0625_u0644_u064a_u0647 u0020 u0648_u0625_u0646_u0645_u0627 u0020 u0623_u062e_u0631 u0020 u0630_u0643_u0631 u0020 u0627_u0644_u0645_u062e_u0628_u0631 u0020 u0641_u064a_u0647_u0645_u0627 u0020 u0648_u0642_u062f_u0645_u0647 u0020 u0641_u064a_u0647_u0645_u0627 u0020 u0645_u0631_u0627_u062a u0020 u0644_u0641_u0648_u0627_u0635_u0644 u0020 u0627_u0644_u0622_u064a u0020 u002e_u000d", 
        "u0020_u0648_u0643_u0631_u0631 u0020 u0028 u0020 u0020_u0644_u0639_u064e_u0644_u0651_u0650_u064a u0020 u0029 u0020 u0641_u064a u0020 u0627_u0644_u0642_u0635_u0635 u0020 u0644_u0641_u0638_u0627_u064b u0020 u0648_u0641_u064a_u0647_u0645_u0627 u0020 u0645_u0639_u0646_u0649 u0020 u0644_u0623_u0646 u0020 u0623_u0648 u0020 u0641_u064a u0020 u0642_u0648_u0644_u0647 u0020 u0028_u0623_u064e_u0648_u0652 u0020 u0623_u064e_u062c_u0650_u062f_u064f_u0020", 
        "u0639_u064e_u0644_u064e_u0649 u0020 u0627_u0644_u0646_u0651_u064e_u0627_u0631_u0650 u0020 u0647_u064f_u062f_u064b_u0649_u0029 u0020 u0646_u0627_u0626_u0628 u0020 u0639_u0646 u0020 u0028 u0020 u0020_u0644_u0639_u064e_u0644_u0651_u0650_u064a u0020 u0029 u0020 u0648 u0020 u0028_u0633_u064e_u0622_u062a_u0650_u064a_u0643_u064f_u0645_u0029 u0020 u062a_u0636_u0645_u0646 u0020 u0645_u0639_u0646_u0649 u0020 u0644_u0639_u0644_u064a u0020 u0648_u0641_u064a_u0020", 
        "u0627_u0644_u0642_u0635_u0635 u0020 u0028_u0623_u064e_u0648_u0652 u0020 u062c_u064e_u0630_u0652_u0648_u064e_u0629_u064d u0020 u0645_u0650_u0646_u064e u0020 u0627_u0644_u0646_u0651_u064e_u0627_u0631_u0650_u0029 u0020 u0648_u0641_u064a u0020 u0627_u0644_u0646_u0645_u0644 u0020 u0028_u0628_u0650_u0634_u0650_u0647_u064e_u0627_u0628_u064d u0020 u0642_u064e_u0628_u064e_u0633_u064d_u0029 u0020 u0648_u0641_u064a u0020 u0637_u0647 u0020 u0028_u0628_u0650_u0642_u064e_u0628_u064e_u0633_u064d_u0029 u0020 u0644_u0623_u0646_u0020", 
        "u0627_u0644_u062c_u0630_u0648_u0629 u0020 u0645_u0646 u0020 u0627_u0644_u0646_u0627_u0631 u0020 u062e_u0634_u0628_u0629 u0020 u0641_u064a u0020 u0631_u0623_u0633_u0647_u0627 u0020 u0642_u0628_u0633 u0020 u0644_u0647_u0627 u0020 u0634_u0647_u0627_u0628 u0020 u0641_u0647_u064a u0020 u0641_u064a u0020 u0627_u0644_u0633_u0648_u0631 u0020 u0627_u0644_u062b_u0644_u0627_u062b_u0020", 
        "u0639_u0628_u0627_u0631_u0629 u0020 u0639_u0646 u0020 u0645_u0639_u0628_u0631 u0020 u0648_u0627_u062d_u062f"
    ]
}