{
    "bounding_box": [
        [
            65, 
            130, 
            635, 
            32
        ], 
        [
            78, 
            170, 
            621, 
            31
        ], 
        [
            68, 
            210, 
            632, 
            29
        ], 
        [
            102, 
            249, 
            597, 
            28
        ], 
        [
            123, 
            287, 
            585, 
            27
        ]
    ], 
    "image_height": 540, 
    "image_width": 720, 
    "transcription": [
        "u0627_u06cc_u0646 u0020 u062f_u0627_u0646_u0634_u06a9_u062f_u0647 u0020 u0647_u0645_u0686_u0646_u06cc_u0646 u0020 u0645_u062c_u0647_u0632 u0020 u0628_u0647 u0020 u06cc_u06a9 u0020 u0622_u0632_u0645_u0627_u06cc_u0634_u06af_u0627_u0647 u0020 u0632_u0628_u0627_u0646 u0020 u0627_u0646_u06af_u0644_u06cc_u0633_u06cc u0020 u0628_u0627_u0020", 
        "u0638_u0631_u0641_u06cc_u062a u0020 u0033_u0036 u0020 u062f_u0633_u062a_u06af_u0627_u0647 u0020 u06a9_u0627_u0645_u067e_u06cc_u0648_u062a_u0631_u060c u0020 u0633_u0647 u0020 u06a9_u0627_u0631_u06af_u0627_u0647 u0020 u06a9_u0627_u0645_u067e_u06cc_u0648_u062a_u0631 u0020 u0628_u0627 u0020 u0638_u0631_u0641_u06cc_u062a_u0020", 
        "u0035_u0033 u0020 u06a9_u0627_u0645_u067e_u06cc_u0648_u062a_u0631_u060c u0020 u0633_u0627_u0644_u0646 u0020 u0647_u0627_u06cc u0020 u0645_u0637_u0627_u0644_u0639_u0647 u0020 u0648 u0020 u062a_u062d_u0642_u06cc_u0642 u0020 u0648 u0020 u0645_u062c_u0645_u0648_u0639_u0647 u0020 u06a9_u062a_u0627_u0628_u062e_u0627_u0646_u0647_u0020", 
        "u0627_u06cc u0020 u06a9_u0647 u0020 u0628_u0647 u0020 u0637_u0648_u0631 u0020 u062a_u0642_u0631_u06cc_u0628_u06cc u0020 u0634_u0627_u0645_u0644 u0020 u0031_u0032_u0038_u0036_u0038 u0020 u0646_u0633_u062e_u0647 u0020 u0686_u0627_u067e_u06cc u0020 u0648 u0020 u0031_u0035_u0030_u0020", 
        "u0639_u0646_u0648_u0627_u0646 u0020 u0020_u0633_u06cc u0020 u062f_u06cc u0020 u0648 u0020 u06a9_u062a_u0627_u0628 u0020 u0647_u0627_u06cc u0020 u0627_u0644_u06a9_u062a_u0631_u0648_u0646_u06cc_u06a9 u0020 u0627_u0633_u062a_u060c u0020 u0645_u06cc u0020 u0628_u0627_u0634_u062f_u002e_u000d"
    ]
}