{
    "bounding_box": [
        [
            13, 
            20, 
            673, 
            94
        ], 
        [
            324, 
            129, 
            102, 
            91
        ], 
        [
            261, 
            223, 
            202, 
            83
        ]
    ], 
    "image_height": 540, 
    "image_width": 720, 
    "transcription": [
        "u0645_u0641_u0647_u0648_u0645 u0020 u0627_u0644_u0633_u064a_u0627_u062d_u0629 u0020 u0627_u0644_u0645_u062d_u0644_u064a_u0629_u0020", 
        "u0641_u064a_u000b", 
        "u0020_u0627_u0644_u0623_u0631_u062f_u0646"
    ]
}