{
    "bounding_box": [
        [
            327, 
            513, 
            64, 
            6
        ], 
        [
            43, 
            511, 
            19, 
            7
        ], 
        [
            59, 
            116, 
            594, 
            35
        ], 
        [
            317, 
            160, 
            87, 
            26
        ], 
        [
            59, 
            243, 
            589, 
            38
        ], 
        [
            126, 
            286, 
            466, 
            34
        ], 
        [
            71, 
            386, 
            550, 
            38
        ], 
        [
            268, 
            430, 
            166, 
            33
        ]
    ], 
    "image_height": 540, 
    "image_width": 720, 
    "transcription": [
        "u0041_u006c_u0069_u006f_u0062_u0065_u0069_u0064_u002e_u0063_u006f_u006d", 
        "u0031_u0038_u0037", 
        "u0627_u062c_u0645_u0639 u0020 u062c_u0645_u064a_u0639 u0020 u062d_u0627_u0644_u0627_u062a u0020 u062a_u0645_u0643_u064a_u0646_u0643 u0020 u0645_u0646 u0020 u062e_u0637 u0020 u0627_u0644_u0632_u0645_u0646 u0020 u0648_u0627_u062d_u0636_u0631_u0647_u0627_u000d", 
        "u0644_u0644_u062d_u0627_u0636_u0631", 
        "u0639_u0646_u062f_u0645_u0627 u0020 u062a_u0635_u0644 u0020 u0644_u0644_u062d_u0627_u0636_u0631 u0020 u0627_u0646_u0638_u0631 u0020 u0627_u0644_u0649 u0020 u0627_u0644_u0645_u0633_u062a_u0642_u0628_u0644 u0020 u0648_u0639_u0646 u0020 u0643_u064a_u0641_u064a_u0629_u000d", 
        "u062a_u062d_u0642_u064a_u0642_u0643 u0020 u0644_u0647_u062f_u0641_u0643 u0020 u0645_u0633_u062a_u062e_u062f_u0645_u0627 u0020 u064b u0020 u0648_u0633_u0627_u0626_u0644 u0020 u0627_u0644_u062a_u0645_u0643_u064a_u0646_u0020", 
        "u0627_u0631_u062c_u0639 u0020 u0627_u0644_u0649 u0020 u0627_u0644_u062d_u0627_u0636_u0631 u0020 u0628_u0639_u062f u0020 u0627_u0646 u0020 u0627_u0633_u062a_u0645_u062a_u0639_u062a u0020 u0628_u0647_u0630_u0647 u0020 u0627_u0644_u0631_u062d_u0644_u0629_u000d", 
        "u0641_u0648_u0642 u0020 u062e_u0637 u0020 u0632_u0645_u0646_u0643"
    ]
}