{
    "bounding_box": [
        [
            37, 
            94, 
            610, 
            22
        ], 
        [
            37, 
            117, 
            610, 
            22
        ], 
        [
            37, 
            140, 
            610, 
            22
        ], 
        [
            245, 
            163, 
            402, 
            22
        ], 
        [
            37, 
            216, 
            610, 
            23
        ], 
        [
            37, 
            240, 
            610, 
            22
        ], 
        [
            37, 
            263, 
            610, 
            22
        ], 
        [
            37, 
            286, 
            610, 
            22
        ], 
        [
            37, 
            309, 
            610, 
            22
        ], 
        [
            487, 
            333, 
            160, 
            22
        ], 
        [
            37, 
            384, 
            610, 
            25
        ], 
        [
            358, 
            410, 
            289, 
            22
        ], 
        [
            263, 
            16, 
            413, 
            24
        ], 
        [
            689, 
            520, 
            12, 
            7
        ]
    ], 
    "image_height": 540, 
    "image_width": 720, 
    "transcription": [
        "u0627_u0644_u0625_u0647_u062a_u0645_u0627_u0645 u0020 u0628_u062a_u0646_u0645_u064a_u0629 u0020 u0627_u0644_u0639_u0646_u0635_u0631 u0020 u0627_u0644_u0628_u0634_u0631_u064a u0020 u0627_u0644_u0639_u0627_u0645_u0644 u0020 u0641_u064a u0020 u0625_u062f_u0627_u0631_u0627_u062a u0020 u0627_u0644_u0623_u062c_u0647_u0632_u0629 u0020 u0627_u0644_u0633_u064a_u0627_u062d_u064a_u0629 u0020 u0627_u0644_u0631_u0633_u0645_u064a_u0629 u0020 u0645_u0646_u0020", 
        "u062e_u0644_u0627_u0644 u0020 u0648_u0636_u0639 u0020 u0628_u0631_u0627_u0645_u062c u0020 u062a_u062f_u0631_u064a_u0628_u064a_u0629 u0020 u0639_u0644_u064a u0020 u0623_u062d_u062f_u062b u0020 u0627_u0633_u062a_u062e_u062f_u0627_u0645_u0627_u062a u0020 u0627_u0644_u0645_u0639_u0644_u0648_u0645_u0627_u062a_u064a_u0629 u0020 u0641_u064a u0020 u0645_u062c_u0627_u0644 u0020 u0627_u0644_u0633_u064a_u0627_u062d_u0629_u0020", 
        "u0628_u0634_u0643_u0644 u0020 u0639_u0627_u0645 u0020 u0648 u0020 u0645_u062c_u0627_u0644 u0020 u0627_u0644_u0627_u062f_u0627_u0631_u0629 u0020 u0627_u0644_u0633_u064a_u0627_u062d_u064a_u0629 u0020 u0628_u0634_u0643_u0644 u0020 u062e_u0627_u0635 u0020 u002c u0020 u0645_u0639 u0020 u062a_u0648_u0641_u064a_u0631 u0020 u0627_u0644_u062d_u0648_u0627_u0641_u0632 u0020 u0627_u0644_u0644_u0627_u0632_u0645_u0629_u0020", 
        "u0644_u062a_u0634_u062c_u064a_u0639 u0020 u0627_u0644_u0639_u0627_u0645_u0644_u064a_u0646 u0020 u0639_u0644_u064a u0020 u0627_u0644_u062a_u0639_u0627_u0645_u0644 u0020 u0645_u0639 u0020 u0627_u0644_u062a_u0643_u0646_u0648_u0644_u0648_u062c_u064a_u0627 u0020 u0627_u0644_u062d_u062f_u064a_u062b_u0629 u0020 u002e_u000d", 
        "u0627_u0644_u0625_u0633_u062a_u0641_u0627_u062f_u0629 u0020 u0645_u0646 u0020 u0627_u0644_u062a_u0637_u0628_u064a_u0642_u0627_u062a u0020 u0627_u0644_u062d_u062f_u064a_u062b_u0629 u0020 u0627_u0644_u062a_u064a u0020 u0627_u0641_u0631_u0632_u062a_u0647_u0627 u0020 u0627_u0644_u0645_u0639_u0644_u0648_u0645_u0627_u062a_u064a_u0629 u0020 u0641_u064a u0020 u0645_u062c_u0627_u0644 u0020 u0627_u0644_u0627_u062f_u0627_u0631_u0629 u0020 u0639_u0646_u0020", 
        "u0637_u0631_u064a_u0642 u0020 u0627_u0644_u0625_u0647_u062a_u0645_u0627_u0645 u0020 u0628_u0631_u0628_u0637 u0020 u0643_u0627_u0641_u0629 u0020 u0627_u0644_u0623_u062c_u0647_u0632_u0629 u0020 u0627_u0644_u0633_u064a_u0627_u062d_u064a_u0629 u0020 u0627_u0644_u0631_u0633_u0645_u064a_u0629 u0020 u062f_u0627_u062e_u0644_u064a_u0627 u0020 u0648 u0020 u062e_u0627_u0631_u062c_u064a_u0627 u0020 u0639_u0646 u0020 u0637_u0631_u064a_u0642_u0020", 
        "u0627_u0644_u0634_u0628_u0643_u0627_u062a u0020 u0627_u0644_u0627_u062a_u0635_u0627_u0644_u064a_u0629 u0020 u0627_u0644_u0645_u062e_u062a_u0644_u0641_u0629 u0020 u002c u0020 u0648 u0020 u0627_u0644_u0627_u062a_u062c_u0627_u0647 u0020 u0627_u0644_u064a u0020 u0627_u0633_u062a_u062e_u062f_u0627_u0645 u0020 u062a_u0642_u0646_u064a_u0629 u0020 u0627_u0644_u062d_u0648_u0633_u0628_u0629 u0020 u0627_u0644_u0633_u062d_u0627_u0628_u064a_u0629 u0020 u0641_u064a_u0020", 
        "u062a_u0644_u0643 u0020 u0627_u0644_u0623_u062c_u0647_u0632_u0629 u0020 u0646_u0638_u0631_u0627 u0020 u0644_u062d_u0627_u062c_u0629 u0020 u0642_u0637_u0627_u0639 u0020 u0627_u0644_u0633_u064a_u0627_u062d_u0629 u0020 u0628_u0634_u0643_u0644 u0020 u062e_u0627_u0635 u0020 u0627_u0644_u064a u0020 u0643_u0645_u064a_u0629 u0020 u0643_u0628_u064a_u0631_u0629 u0020 u0648_u062f_u0642_u064a_u0642_u0629 u0020 u0648_u0020", 
        "u062a_u0628_u0627_u062f_u0644 u0020 u0633_u0631_u064a_u0639 u0020 u0644_u0644_u0645_u0639_u0644_u0648_u0645_u0627_u062a u0020 u0627_u0644_u0645_u062e_u062a_u0644_u0641_u0629 u0020 u0648_u0630_u0644_u0643 u0020 u0644_u0625_u0631_u062a_u0628_u0627_u0637_u0647 u0020 u0648 u0020 u062a_u0643_u0627_u0645_u0644_u0647 u0020 u0645_u0639 u0020 u0627_u0644_u0639_u062f_u064a_u062f u0020 u0645_u0646 u0020 u0627_u0644_u0642_u0637_u0627_u0639_u0627_u062a_u0020", 
        "u0627_u0644_u0627_u0642_u062a_u0635_u0627_u062f_u064a_u0629 u0020 u0627_u0644_u0627_u062e_u0631_u064a u0020 u002e_u000d", 
        "u0627_u0644_u0625_u0633_u062a_u0641_u0627_u062f_u0629 u0020 u0645_u0646 u0020 u0627_u0644_u062a_u062c_u0627_u0631_u0628 u0020 u0627_u0644_u0646_u0627_u062c_u062d_u0629 u0020 u0641_u064a u0020 u062a_u0637_u0628_u064a_u0642 u0020 u0627_u0644_u0645_u0639_u0644_u0648_u0645_u0627_u062a_u064a_u0629 u0020 u0641_u064a u0020 u0627_u0644_u0623_u062c_u0647_u0632_u0629 u0020 u0627_u0644_u062d_u0643_u0648_u0645_u064a_u0629_u0020", 
        "u0627_u0644_u0631_u0633_u0645_u064a_u0629 u0020 u0628_u0645_u0627 u0020 u064a_u062a_u0641_u0642 u0020 u0645_u0639 u0020 u0627_u0644_u0648_u0627_u0642_u0639 u0020 u0627_u0644_u0645_u0635_u0631_u064a u0020 u002e_u000d", 
        "u0623_u0647_u0645 u0020 u0627_u0644_u062a_u0648_u0635_u064a_u0627_u062a u0020 u0627_u0644_u0645_u0633_u062a_u062e_u0644_u0635_u0629 u0020 u0645_u0646 u0020 u062a_u062c_u0631_u0628_u0629 u0020 u0627_u0644_u0625_u0645_u0627_u0631_u0627_u062a", 
        "u0032_u0036"
    ]
}