{
    "bounding_box": [
        [
            256, 
            48, 
            217, 
            35
        ], 
        [
            35, 
            152, 
            632, 
            33
        ], 
        [
            43, 
            188, 
            624, 
            29
        ], 
        [
            35, 
            219, 
            632, 
            29
        ], 
        [
            35, 
            250, 
            632, 
            29
        ], 
        [
            35, 
            282, 
            632, 
            29
        ], 
        [
            491, 
            314, 
            176, 
            30
        ]
    ], 
    "image_height": 540, 
    "image_width": 720, 
    "transcription": [
        "u0645_u0627 u0020 u0647_u0649 u0020 u0623_u0644_u0627 u0020 u0648_u0631_u0627_u0643_u0644 u0020 u061f_u000b", 
        "u0627_u0644_u0627_u0648_u0631_u0627_u0643_u0644 u0020 u003a u0020 u0623_u0648_u0631_u0627_u0643_u0644 u0020 u0644_u064a_u0633_u062a u0020 u0644_u063a_u0629 u0020 u0628_u0631_u0645_u062c_u064a_u0629 u0020 u0648_u0625_u0646_u0645_u0627 u0020 u0647_u064a u0020 u0646_u0638_u0627_u0645 u0020 u0644_u0625_u062f_u0627_u0631_u0629 u0020 u0642_u0648_u0627_u0639_u062f_u0020", 
        "u0627_u0644_u0628_u064a_u0627_u0646_u0627_u062a u0020 u0627_u0644_u0639_u0644_u0627_u0626_u0642_u064a_u0629_u0009_u0009 u0020 u0028_u0052_u0044_u0042_u004d_u0053_u0029 u0020 u0052_u0065_u006c_u0061_u0074_u0069_u006f_u006e u0020 u0044_u0061_u0074_u0061 u0020 u0042_u0061_u0073_u0065_u0020", 
        "u004d_u0061_u006e_u0061_u0067_u0065_u006d_u0065_u006e_u0074 u0020 u0073_u0079_u0073_u0074_u0065_u006d u0020 u0648 u0020 u0625_u062f_u0627_u0631_u0629 u0020 u0645_u0639_u0644_u0648_u0645_u0627_u062a u0020 u0627_u0644_u0639_u0645_u0644 u0020 u0627_u0644_u0645_u0637_u0644_u0648_u0628_u0629 u0020 u0645_u0646_u0020", 
        "u062e_u0644_u0627_u0644 u0020 u062a_u062d_u0648_u064a_u0644_u0647_u0627 u0020 u0020_u0625_u0644_u0649 u0020 u0642_u0627_u0639_u062f_u0629 u0020 u0628_u064a_u0627_u0646_u0627_u062a u0020 u0639_u0645_u0644_u064a_u0629 u0020 u062a_u0641_u064a_u062f u0020 u0641_u064a u0020 u0627_u062a_u062e_u0627_u0630 u0020 u0627_u0644_u0642_u0631_u0627_u0631_u0627_u062a_u0020", 
        "u0648_u0645_u0631_u0627_u0642_u0628_u0629 u0020 u0623_u062f_u0627_u0621 u0020 u0627_u0644_u0639_u0645_u0644 u0020 u0648_u062a_u062d_u0633_u064a_u0646 u0020 u0627_u0644_u0625_u0646_u062a_u0627_u062c_u064a_u0629 u0020 u0648_u0627_u0644_u0648_u0635_u0648_u0644 u0020 u0625_u0644_u0649 u0020 u0633_u0631_u0639_u0629 u0020 u0642_u0635_u0648_u0649_u0020", 
        "u0641_u064a u0020 u0625_u0646_u062c_u0627_u0632 u0020 u0627_u0644_u0623_u0639_u0645_u0627_u0644 u0020 u002e_u000d"
    ]
}