{
    "bounding_box": [
        [
            125, 
            97, 
            454, 
            52
        ], 
        [
            125, 
            169, 
            437, 
            58
        ], 
        [
            149, 
            241, 
            406, 
            52
        ], 
        [
            164, 
            314, 
            374, 
            51
        ]
    ], 
    "image_height": 540, 
    "image_width": 720, 
    "transcription": [
        "u062c_u0645_u0647_u0648_u0631_u064a_u0629 u0020 u0645_u0635_u0631 u0020 u0627_u0644_u0639_u0631_u0628_u064a_u0629_u000b", 
        "u0648_u0632_u0627_u0631_u0629 u0020 u0627_u0644_u062a_u0631_u0628_u064a_u0629 u0020 u0648_u0627_u0644_u062a_u0639_u0644_u064a_u0645 u0020 u000b", 
        "u0627_u062f_u0627_u0631_u0629 u0020 u062c_u0646_u0648_u0628 u0020 u0627_u0644_u062a_u0639_u0644_u064a_u0645_u064a_u0629_u000b", 
        "u062a_u0648_u062c_u064a_u0647 u0020 u0627_u0644_u0644_u063a_u0629 u0020 u0627_u0644_u0639_u0631_u0628_u064a_u0629_u000b"
    ]
}