{
    "bounding_box": [
        [
            94, 
            41, 
            170, 
            50
        ], 
        [
            452, 
            29, 
            196, 
            30
        ], 
        [
            566, 
            71, 
            83, 
            27
        ], 
        [
            392, 
            113, 
            257, 
            30
        ], 
        [
            313, 
            147, 
            336, 
            27
        ], 
        [
            520, 
            182, 
            129, 
            30
        ], 
        [
            477, 
            224, 
            172, 
            28
        ], 
        [
            409, 
            266, 
            240, 
            27
        ], 
        [
            517, 
            308, 
            131, 
            31
        ], 
        [
            358, 
            349, 
            290, 
            29
        ], 
        [
            344, 
            385, 
            304, 
            31
        ], 
        [
            399, 
            420, 
            250, 
            30
        ], 
        [
            82, 
            120, 
            182, 
            30
        ], 
        [
            179, 
            160, 
            86, 
            30
        ]
    ], 
    "image_height": 540, 
    "image_width": 720, 
    "transcription": [
        "u0627_u0644_u0627_u0642_u062a_u0635_u0627_u062f", 
        "u0627_u0644_u0627_u0646_u062a_u0627_u062c u0020 u0648_u0627_u0644_u0627_u0633_u062a_u0647_u0644_u0627_u0643_u000d", 
        "u0627_u0644_u0642_u0648_u0627_u0646_u064a_u0646_u000d", 
        "u0627_u0644_u062a_u0627_u0631_u064a_u062e u0020 u0627_u0644_u0627_u0642_u062a_u0635_u0627_u062f_u064a_u0028_u0627_u0644_u0646_u0642_u0648_u062f_u0020", 
        "u0627_u0644_u0645_u0633_u062a_u062e_u062f_u0645_u0629_u060c u0020 u062a_u062c_u0627_u0631_u0629 u0020 u0627_u0644_u062a_u0645_u0648_u0631_u060c u0020 u062a_u062c_u0627_u0631_u0629_u0020", 
        "u0627_u0644_u0644_u0628_u0627_u0646 u0020 u060c u0020 u0627_u0644_u062e_u0029_u000d", 
        "u0627_u0644_u0627_u0633_u0648_u0627_u0642 u0020 u0627_u0644_u062a_u0642_u0644_u064a_u062f_u064a_u0629_u000d", 
        "u0627_u0642_u062a_u0635_u0627_u062f u0020 u0627_u0644_u0639_u0645_u0627_u0644_u0629 u0020 u0648_u0627_u0644_u0633_u0643_u0627_u0646_u000d", 
        "u0642_u0637_u0627_u0639 u0020 u0627_u0644_u0628_u0646_u0648_u0643_u000d", 
        "u0627_u0644_u062a_u062e_u0637_u064a_u0637 u0020 u0648_u0627_u0644_u062a_u0646_u0645_u064a_u0629 u0020 u0627_u0644_u0627_u0642_u062a_u0635_u0627_u062f_u064a_u0629_u0020", 
        "u0028_u0627_u0644_u062d_u0643_u0648_u0645_u0629 u0020 u0627_u0644_u0627_u0644_u0643_u062a_u0631_u0648_u0646_u064a_u0629_u060c u0020 u0627_u0644_u062e_u0637_u0637_u0020", 
        "u0627_u0644_u062a_u0646_u0645_u0648_u064a_u0629 u0020 u0627_u0644_u062e_u0645_u0633_u064a_u0629 u0020 u060c u0020 u0627_u0644_u062e u0020 u0029_u000d", 
        "u0627_u0644_u062d_u064a_u0627_u0629 u0020 u0627_u0644_u0627_u0642_u062a_u0635_u0627_u062f_u064a_u0629_u0020", 
        "u0627_u0644_u0639_u0645_u0627_u0646_u064a_u0629_u000d"
    ]
}