{
    "bounding_box": [
        [
            108, 
            102, 
            484, 
            42
        ], 
        [
            114, 
            194, 
            540, 
            38
        ], 
        [
            71, 
            236, 
            585, 
            39
        ], 
        [
            415, 
            279, 
            240, 
            39
        ], 
        [
            76, 
            331, 
            539, 
            33
        ], 
        [
            62, 
            384, 
            553, 
            33
        ], 
        [
            440, 
            426, 
            175, 
            33
        ]
    ], 
    "image_height": 540, 
    "image_width": 720, 
    "transcription": [
        "u0627_u0644_u0645_u0633_u062a_u0648_u0649 u0020 u0627_u0644_u062f_u0648_u0644_u064a u0020 u0644_u0633_u064a_u0627_u0633_u0627_u062a u0020 u0627_u0644_u062a_u062c_u0627_u0631_u0629_u0020", 
        "u0627_u0644_u062d_u0631_u064a_u0629_u003a u0020 u0647_u064a u0020 u062a_u0637_u0628_u064a_u0642 u0020 u0645_u0628_u0627_u0634_u0631 u0020 u0644_u0645_u0628_u062f_u0623 u0020 u0627_u0644_u0645_u064a_u0632_u0629 u0020 u0627_u0644_u0646_u0633_u0628_u064a_u0629_u0020", 
        "u0627_u0644_u0643_u0644_u0627_u0633_u064a_u0643_u064a u0020 u0028_u062d_u0631_u064a_u0629 u0020 u0627_u0644_u0645_u0628_u0627_u062f_u0644_u0627_u062a u0020 u0627_u0644_u062f_u0648_u0644_u064a_u0629 u0020 u0648_u0627_u0644_u062a_u062e_u0635_u0635 u0020 u0641_u064a_u0020", 
        "u0633_u0644_u0639 u0020 u0627_u0644_u0645_u064a_u0632_u0629 u0020 u0627_u0644_u0646_u0633_u0628_u064a_u0629_u0029_u000d", 
        "u0627_u0644_u0627_u062a_u0641_u0627_u0642_u064a_u0629 u0020 u0627_u0644_u0639_u0627_u0645_u0629 u0020 u0644_u0644_u062a_u0639_u0631_u064a_u0641_u0627_u062a u0020 u0648_u0627_u0644_u062a_u062c_u0627_u0631_u0629 u0020 u0020 u0020 u0047_u0041_u0054_u0054 u0020 u000d", 
        "u0625_u062a_u0641_u0627_u0642_u064a_u0629 u0020 u0627_u0644_u0645_u063a_u0631_u0628 u0020 u0031_u0039_u0039_u0034 u0020 u0648_u0625_u0646_u0634_u0627_u0621 u0020 u0645_u0646_u0638_u0645_u0629 u0020 u0627_u0644_u062a_u062c_u0627_u0631_u0629_u0020", 
        "u0627_u0644_u0639_u0627_u0644_u0645_u064a_u0629 u0020 u0057_u0054_u004f"
    ]
}