{
    "bounding_box": [
        [
            327, 
            513, 
            64, 
            6
        ], 
        [
            43, 
            511, 
            19, 
            9
        ], 
        [
            285, 
            249, 
            145, 
            33
        ]
    ], 
    "image_height": 540, 
    "image_width": 720, 
    "transcription": [
        "u0041_u006c_u0069_u006f_u0062_u0065_u0069_u0064_u002e_u0063_u006f_u006d", 
        "u0031_u0034_u0033", 
        "u0627_u0644_u0645_u0648_u0627_u0642_u0639 u0020 u0627_u0644_u062b_u0644_u0627_u062b_u0629"
    ]
}