{
    "bounding_box": [
        [
            139, 
            45, 
            441, 
            28
        ], 
        [
            394, 
            103, 
            267, 
            25
        ], 
        [
            69, 
            136, 
            576, 
            25
        ], 
        [
            480, 
            168, 
            181, 
            22
        ], 
        [
            59, 
            202, 
            586, 
            26
        ], 
        [
            371, 
            235, 
            291, 
            22
        ], 
        [
            89, 
            269, 
            556, 
            25
        ], 
        [
            62, 
            301, 
            600, 
            26
        ], 
        [
            370, 
            333, 
            291, 
            25
        ], 
        [
            144, 
            367, 
            501, 
            25
        ], 
        [
            106, 
            401, 
            539, 
            26
        ], 
        [
            587, 
            435, 
            74, 
            21
        ]
    ], 
    "image_height": 540, 
    "image_width": 720, 
    "transcription": [
        "u0627_u0644_u0642_u0633_u0645 u0020 u0033_u003a u0020 u0646_u0638_u0631_u0629 u0020 u0639_u0627_u0645_u0629 u0020 u0639_u0644_u0649 u0020 u0627_u0644_u062a_u0628_u0648_u064a_u0628_u0627_u062a_u060c u0020 u0627_u0644_u062c_u0632_u0621 u0020 u0627_u0644_u0623_u0648_u0644", 
        "u0641_u064a u0020 u0647_u0630_u0627 u0020 u0627_u0644_u0642_u0633_u0645_u060c u0020 u0633_u0648_u0641 u0020 u062a_u062a_u0639_u0644_u0645 u0020 u0639_u0646_u003a_u000d", 
        "u0627_u0644_u0645_u062c_u0645_u0648_u0639_u0627_u062a u0020 u0641_u064a u0020 u062a_u0628_u0648_u064a_u0628_u0629 u0020 u0627_u0644_u0635_u0641_u062d_u0629 u0020 u0627_u0644_u0631_u0626_u064a_u0633_u064a_u0629_u003a u0020 u0627_u0644_u062d_u0627_u0641_u0638_u0629_u060c u0020 u0634_u0631_u0627_u0626_u062d_u060c u0020 u062e_u0637_u060c u0020 u0020 u0020 u0020_u000d", 
        "u0020 u0020 u0641_u0642_u0631_u0629_u060c u0020 u0631_u0633_u0645_u060c u0020 u062a_u062d_u0631_u064a_u0631_u000d", 
        "u0627_u0644_u0645_u062c_u0645_u0648_u0639_u0627_u062a u0020 u0641_u064a u0020 u062a_u0628_u0648_u064a_u0628_u0629 u0020 u0625_u062f_u0631_u0627_u062c_u003a u0020 u062c_u062f_u0627_u0648_u0644_u060c u0020 u0627_u0644_u0635_u0648_u0631_u060c u0020 u0631_u0633_u0648_u0645_u0627_u062a u0020 u062a_u0648_u0636_u064a_u062d_u064a_u0629_u060c u0020 u000d", 
        "u0020 u0020 u0627_u0631_u062a_u0628_u0627_u0637_u0627_u062a_u060c u0020 u0646_u0635_u060c u0020 u0631_u0645_u0648_u0632_u060c u0020 u0648_u0633_u0627_u0626_u0637_u000d", 
        "u0627_u0644_u0645_u062c_u0645_u0648_u0639_u0627_u062a u0020 u0641_u064a u0020 u062a_u0628_u0648_u064a_u0628_u0629 u0020 u0639_u0631_u0636_u003a u0020 u0637_u0631_u0642 u0020 u0639_u0631_u0636 u0020 u0627_u0644_u0639_u0631_u0648_u0636 u0020 u0627_u0644_u062a_u0642_u062f_u064a_u0645_u064a_u0629_u060c u0020 u000d", 
        "u0020 u0020 u0637_u0631_u0642 u0020 u0627_u0644_u0639_u0631_u0636 u0020 u0627_u0644_u0631_u0626_u064a_u0633_u064a_u0629_u060c u0020 u0625_u0638_u0647_u0627_u0631_u060c u0020 u0627_u0644_u0627_u062a_u062c_u0627_u0647_u060c u0020 u062a_u0643_u0628_u064a_u0631_u002f_u062a_u0635_u063a_u064a_u0631_u060c u0020 u0627_u0644_u0644_u0648_u0646_u002f_u062a_u062f_u0631_u062c u0020 u000d", 
        "u0020 u0020 u0627_u0644_u0631_u0645_u0627_u062f_u064a_u060c u0020 u0646_u0627_u0641_u0630_u0629_u060c u0020 u0648_u062d_u062f_u0627_u062a u0020 u0627_u0644_u0645_u0627_u0643_u0631_u0648_u000d", 
        "u0627_u0644_u0645_u062c_u0645_u0648_u0639_u0627_u062a u0020 u0641_u064a u0020 u062a_u0628_u0648_u064a_u0628_u0629 u0020 u062a_u0635_u0645_u064a_u0645_u003a u0020 u0625_u0639_u062f_u0627_u062f u0020 u0627_u0644_u0635_u0641_u062d_u0629_u060c u0020 u0646_u0633_u0642_u060c u0020 u062e_u0644_u0641_u064a_u0629_u000d", 
        "u0627_u0644_u0645_u062c_u0645_u0648_u0639_u0627_u062a u0020 u0641_u064a u0020 u062a_u0628_u0648_u064a_u0628_u0629 u0020 u0627_u0646_u062a_u0642_u0627_u0644_u0627_u062a_u003a u0020 u0645_u0639_u0627_u064a_u0646_u0629_u060c u0020 u0646_u0642_u0644 u0020 u0625_u0644_u0649 u0020 u0647_u0630_u0647 u0020 u0627_u0644_u0634_u0631_u064a_u062d_u0629_u060c u0020 u000d", 
        "u0020 u0020 u062a_u0648_u0642_u064a_u062a_u000d"
    ]
}