{
    "bounding_box": [
        [
            61, 
            133, 
            588, 
            34
        ], 
        [
            97, 
            173, 
            552, 
            32
        ], 
        [
            66, 
            210, 
            583, 
            34
        ], 
        [
            53, 
            247, 
            596, 
            35
        ], 
        [
            62, 
            288, 
            586, 
            33
        ], 
        [
            106, 
            323, 
            543, 
            35
        ]
    ], 
    "image_height": 540, 
    "image_width": 720, 
    "transcription": [
        "u0628_u0645_u0639_u0646_u0649 u0020 u0623_u0646_u0647 u0020 u0625_u0630_u0627 u0020 u0643_u0627_u0646 u0020 u0627_u0644_u0645_u0643_u0648_u0646 u0020 u0627_u0644_u0623_u062c_u0646_u0628_u064a u0020 u064a_u0645_u062b_u0644 u0020 u0036_u0030_u0025 u0020 u0645_u0646 u0020 u0627_u0644_u0645_u0646_u062a_u062c_u0020", 
        "u0648_u0627_u0644_u0642_u064a_u0645_u0629 u0020 u0627_u0644_u0645_u0636_u0627_u0641_u0629 u0020 u062a_u0645_u062b_u0644 u0020 u0034_u0030_u0025_u060c u0020 u0641_u0625_u0646_u0647 u0020 u064a_u062a_u0645 u0020 u0625_u0633_u062a_u064a_u0641_u0627_u0621 u0020 u0631_u0633_u0648_u0645_u0020", 
        "u062c_u0645_u0631_u0643_u064a_u0629 u0020 u0639_u0644_u0649 u0020 u0627_u0644_u0645_u062f_u062e_u0644_u0627_u062a u0020 u0623_u062c_u0646_u0628_u064a_u0629 u0020 u0641_u0642_u0637 u0020 u0028_u0036_u0030_u0025_u0029_u060c u0020 u0648_u0647_u0630_u0627 u0020 u064a_u062d_u0642_u0642_u0020", 
        "u0625_u064a_u0631_u0627_u062f u0020 u0644_u0644_u062e_u0632_u064a_u0646_u0629_u060c u0020 u0645_u0639 u0020 u0645_u0644_u0627_u062d_u0638_u0629 u0020 u0623_u0646 u0020 u0646_u0641_u0633 u0020 u0627_u0644_u0645_u0646_u062a_u062c u0020 u0639_u0646_u062f_u0645_u0627 u0020 u064a_u0623_u062a_u064a u0020 u0645_u0646_u0020", 
        "u062f_u0648_u0644_u0629 u0020 u0639_u0631_u0628_u064a_u0629 u0020 u0628_u0630_u0627_u062a u0020 u0627_u0644_u0642_u064a_u0645_u0629 u0020 u0627_u0644_u0645_u0636_u0627_u0641_u0629 u0020 u064a_u0643_u0648_u0646 u0020 u0645_u0639_u0641_u064a_u0627_u064b u0020 u0645_u0646 u0020 u0627_u0644_u0631_u0633_u0648_u0645_u0020", 
        "u0627_u0644_u062c_u0645_u0631_u0643_u064a_u0629 u0020 u0646_u0647_u0627_u0626_u064a_u0627_u064b_u060c u0020 u0648_u0628_u0627_u0644_u062a_u0627_u0644_u064a u0020 u0641_u0647_u0648 u0020 u0644_u0627 u0020 u064a_u062d_u0642_u0642 u0020 u0625_u064a_u0631_u0627_u062f u0020 u0644_u0644_u062e_u0632_u064a_u0646_u0629_u002e"
    ]
}