{
    "bounding_box": [
        [
            8, 
            66, 
            704, 
            47
        ], 
        [
            52, 
            121, 
            660, 
            40
        ], 
        [
            8, 
            165, 
            704, 
            44
        ], 
        [
            54, 
            211, 
            658, 
            46
        ], 
        [
            23, 
            262, 
            699, 
            43
        ], 
        [
            19, 
            309, 
            692, 
            44
        ], 
        [
            35, 
            354, 
            676, 
            47
        ], 
        [
            25, 
            402, 
            687, 
            47
        ], 
        [
            293, 
            450, 
            429, 
            47
        ], 
        [
            14, 
            498, 
            698, 
            47
        ], 
        [
            507, 
            21, 
            153, 
            57
        ]
    ], 
    "image_height": 540, 
    "image_width": 720, 
    "transcription": [
        "u0627_u0644_u0639_u0628_u0648_u062f_u064a_u0629_u00a0_u0623_u0648 u0020 u0022_u0627_u0644_u0631_u0642_u0022 u0020 u0647_u064a u0020 u0646_u0648_u0639 u0020 u0645_u0646 u0020 u0627_u0644_u0623_u0634_u063a_u0627_u0644 u0020 u0627_u0644_u0634_u0627_u0642_u0629 u0020 u0627_u0644_u0642_u0633_u0631_u064a_u0629_u0020", 
        "u0637_u0648_u0627_u0644 u0020 u0627_u0644_u062d_u064a_u0627_u0629_u00a0_u0644_u0644_u0639_u0628_u064a_u062f_u00a0_u062d_u064a_u062b u0020 u064a_u0639_u0645_u0644_u0648_u0646 u0020 u0628_u0627_u0644_u0633_u062e_u0631_u0629 u0020 u0627_u0644_u0642_u0647_u0631_u064a_u0629 u0020 u0641_u064a_u0020", 
        "u0627_u0644_u0623_u0639_u0645_u0627_u0644 u0020 u0627_u0644_u0634_u0627_u0642_u0629 u0020 u0648_u0627_u0644_u062d_u0631_u0648_u0628 u0020 u0648_u0643_u0627_u0646_u062a u0020 u0645_u0644_u0643_u064a_u062a_u0647_u0645 u0020 u062a_u0639_u0648_u062f u0020 u0644_u0644_u0634_u062e_u0627_u0635_u0020", 
        "u0627_u0644_u0630_u064a_u0646 u0020 u064a_u0633_u062a_u0639_u0628_u062f_u0648_u0646_u0647_u0645_u002e u0020 u0648_u0643_u0627_u0646_u0648_u0627 u0020 u064a_u0628_u0627_u0639_u0648_u0646 u0020 u0628_u0623_u0633_u0648_u0627_u0642 u0020 u0627_u0644_u0646_u062e_u0627_u0633_u0629 u0020 u0623_u0648_u0020", 
        "u064a_u0634_u062a_u0631_u0648_u0646 u0020 u0641_u064a_u00a0_u062a_u062c_u0627_u0631_u0629 u0020 u0627_u0644_u0631_u0642_u064a_u0642_u00a0_u0628_u0639_u062f u0020 u0627_u062e_u062a_u0637_u0627_u0641_u0647_u0645 u0020 u0645_u0646 u0020 u0645_u0648_u0627_u0637_u0646_u0647_u0645 u0020 u0623_u0648_u0020", 
        "u064a_u0647_u062f_u064a u0020 u0628_u0647_u0645 u0020 u0645_u0627_u0644_u0643_u0648_u0647_u0645_u002e u0020 u0648_u0645_u0645_u0627_u0631_u0633_u0629 u0020 u0627_u0644_u0639_u0628_u0648_u062f_u064a_u0629 u0020 u062a_u0631_u062c_u0639 u0020 u0644_u0623_u0632_u0645_u0627_u0646 u0020 u0645_u0627_u0020", 
        "u0642_u0628_u0644 u0020 u0627_u0644_u062a_u0627_u0631_u064a_u062e u0020 u0639_u0646_u062f_u0645_u0627 u0020 u062a_u0637_u0648_u0631_u062a_u00a0_u0627_u0644_u0632_u0631_u0627_u0639_u0629_u00a0_u0628_u0634_u0643_u0644 u0020 u0645_u062a_u0646_u0627_u0645_u064d_u060c u0020 u0641_u0643_u0627_u0646_u0020", 
        "u0627_u0644_u062d_u0627_u062c_u0629 u0020 u0645_u0627_u0633_u0629 u0020 u0644_u0644_u0623_u064a_u062f_u064a u0020 u0627_u0644_u0639_u0627_u0645_u0644_u0629_u002e u0020 u0641_u0644_u062c_u0623_u062a u0020 u0627_u0644_u0645_u062c_u062a_u0645_u0639_u0627_u062a u0020 u0627_u0644_u0628_u062f_u0627_u0626_u064a_u0629_u0020", 
        "u0644_u0644_u0639_u0628_u064a_u062f u0020 u0644_u062a_u0623_u062f_u064a_u0629 u0020 u0623_u0639_u0645_u0627_u0644 u0020 u062a_u062e_u0635_u0635_u064a_u0629 u0020 u0628_u0647_u0627_u002e_u000d", 
        "u0648_u0643_u0627_u0646 u0020 u0627_u0644_u0639_u0628_u064a_u062f u0020 u064a_u0624_u0633_u0631_u0648_u0646 u0020 u0645_u0646 u0020 u062e_u0644_u0627_u0644 u0020 u0627_u0644_u0625_u063a_u0627_u0631_u0627_u062a u0020 u0639_u0644_u064a u0020 u0645_u0648_u0627_u0637_u0646_u0647_u0645_u0020", 
        "u0627_u0644_u0639_u0628_u0648_u062f_u064a_u0629_u00a0"
    ]
}