{
    "bounding_box": [
        [
            365, 
            497, 
            14, 
            8
        ], 
        [
            47, 
            87, 
            630, 
            20
        ], 
        [
            54, 
            111, 
            623, 
            21
        ], 
        [
            517, 
            146, 
            160, 
            17
        ], 
        [
            48, 
            175, 
            611, 
            19
        ], 
        [
            64, 
            198, 
            595, 
            21
        ], 
        [
            44, 
            221, 
            615, 
            22
        ], 
        [
            294, 
            246, 
            364, 
            21
        ], 
        [
            100, 
            309, 
            559, 
            21
        ], 
        [
            200, 
            334, 
            459, 
            22
        ], 
        [
            81, 
            366, 
            595, 
            20
        ], 
        [
            100, 
            390, 
            577, 
            21
        ], 
        [
            126, 
            414, 
            551, 
            21
        ]
    ], 
    "image_height": 540, 
    "image_width": 720, 
    "transcription": [
        "u0032_u0032", 
        "u0022 u0020 u0623_u0639_u0636_u0627_u0621 u0020 u0627_u0644_u062c_u0647_u0627_u0632 u0020 u0627_u0644_u0645_u0631_u0643_u0632_u0649 u0020 u0644_u0644_u0645_u062d_u0627_u0633_u0628_u0627_u062a u0020 u0645_u0633_u062a_u0642_u0644_u0648_u0646 u0020 u0641_u0649 u0020 u0625_u0639_u0645_u0627_u0644_u0647_u0645 u0020 u060c u0020 u0648_u0644_u0627 u0020 u064a_u062c_u0648_u0632 u0020 u0644_u0623_u064a_u0629 u0020 u0633_u0644_u0637_u0629 u0020 u0623_u0648 u0020 u062c_u0647_u0629 u0020 u0627_u0644_u062a_u062f_u062e_u0644_u0020", 
        "u0641_u0649 u0020 u0625_u0639_u0645_u0627_u0644_u0647_u0645 u0020 u060c u0020 u0648_u0647_u0645 u0020 u063a_u064a_u0631 u0020 u0642_u0627_u0628_u0644_u064a_u0646 u0020 u0644_u0644_u0639_u0632_u0644 u0020 u060c u0020 u0648_u064a_u0646_u0638_u0645 u0020 u0627_u0644_u0642_u0627_u0646_u0648_u0646 u0020 u0636_u0645_u0627_u0646_u0627_u062a_u0647_u0645 u0020 u0648_u062d_u0635_u0627_u0646_u062a_u0647_u0645 u0020 u0648_u0645_u0633_u0627_u0626_u0644_u062a_u0647_u0645 u0020 u062a_u0623_u062f_u064a_u0628_u064a_u0627 u0020 u0022 u0020 u002e u0020 u000d", 
        "u0648_u064a_u0633_u062a_u062a_u0628_u0639_u0647_u0627 u0020 u0627_u0644_u0646_u0635 u0020 u0639_u0644_u0649 u0020 u003a u0020 u000d", 
        "u0022 u0020 u064a_u0639_u064a_u0646 u0020 u0631_u0626_u064a_u0633 u0020 u0627_u0644_u062c_u0647_u0627_u0632 u0020 u0627_u0644_u0645_u0631_u0643_u0632_u0649 u0020 u0644_u0644_u0645_u062d_u0627_u0633_u0628_u0627_u062a u0020 u0628_u0642_u0631_u0627_u0631 u0020 u0645_u0646 u0020 u0631_u0626_u064a_u0633 u0020 u0627_u0644_u062c_u0645_u0647_u0648_u0631_u064a_u0629 u0020 u0644_u0645_u062f_u0629 u0020 u0623_u0631_u0628_u0639_u0629 u0020 u0633_u0646_u0648_u0627_u062a u0020 u060c u0020 u0645_u0646_u0020", 
        "u0628_u064a_u0646 u0020 u0623_u0639_u0636_u0627_u0621 u0020 u0627_u0644_u062c_u0647_u0627_u0632 u0020 u0628_u0646_u0627_u0621 u0020 u0639_u0644_u0649 u0020 u062a_u0631_u0634_u064a_u062d u0020 u062c_u0645_u0639_u064a_u062a_u0647 u0020 u0627_u0644_u0639_u0645_u0648_u0645_u064a_u0629 u0020 u060c u0020 u0648_u064a_u0624_u062f_u0649 u0020 u0627_u0644_u064a_u0645_u064a_u0646 u0020 u0627_u0644_u062f_u0633_u062a_u0648_u0631_u064a_u0629 u0020 u0623_u0645_u0627_u0645 u0020 u0631_u0626_u064a_u0633_u0020", 
        "u0627_u0644_u062c_u0645_u0647_u0648_u0631_u064a_u0629 u0020 u060c u0020 u0648_u0644_u0627 u0020 u064a_u062c_u0648_u0632 u0020 u0627_u0644_u062a_u062c_u062f_u064a_u062f u0020 u0644_u0647 u0020 u0623_u0643_u062b_u0631 u0020 u0645_u0646 u0020 u0645_u0631_u0629 u0020 u0648_u0627_u062d_u062f_u0629 u0020 u060c u0020 u0648_u0644_u0627 u0020 u064a_u062c_u0648_u0632 u0020 u0625_u0639_u0641_u0627_u0624_u0647 u0020 u0645_u0646 u0020 u0645_u0646_u0635_u0628_u0647 u0020 u060c u0020 u0648_u064a_u062a_u0628_u0639 u0020 u0641_u0649_u0020", 
        "u0625_u062a_u0647_u0627_u0645_u0647 u0020 u0648_u0645_u062d_u0627_u0643_u0645_u062a_u0647 u0020 u0627_u0644_u0623_u062d_u0643_u0627_u0645 u0020 u0627_u0644_u0645_u0642_u0631_u0631_u0629 u0020 u0644_u0645_u062d_u0627_u0643_u0645_u0629 u0020 u0627_u0644_u0648_u0632_u0631_u0627_u0621 u0020 u0022 u0020 u002e u0020 u0020_u000d", 
        "u0648_u0643_u0630_u0644_u0643 u0020 u064a_u0646_u0628_u063a_u0649 u0020 u0627_u0644_u0646_u0635 u0020 u0627_u0644_u062f_u0633_u062a_u0648_u0631_u0649 u0020 u0639_u0644_u0649 u0020 u0639_u0644_u0646_u064a_u0629 u0020 u062a_u0642_u0627_u0631_u064a_u0631 u0020 u0627_u0644_u062c_u0647_u0627_u0632 u0020 u060c u0020 u0643_u0623_u062d_u062f u0020 u0645_u0643_u062a_u0633_u0628_u0627_u062a u0020 u062b_u0648_u0631_u0629 u0020 u0627_u0644_u062e_u0627_u0645_u0633_u0020", 
        "u0648_u0627_u0644_u0639_u0634_u0631_u064a_u0646 u0020 u0645_u0646 u0020 u064a_u0646_u0627_u064a_u0631 u0020 u060c u0020 u0648_u0645_u0646_u0639 u0020 u0627_u0644_u062a_u0644_u0627_u0639_u0628 u0020 u0648_u0627_u0644_u0625_u062e_u0641_u0627_u0621 u0020 u0645_u0631_u0629 u0020 u0623_u062e_u0631_u0649 u0020 u0628_u0627_u0644_u0646_u0635 u0020 u0639_u0644_u0649 u0020 u003a u0020 u000d", 
        "u0022 u0020 u062a_u0642_u0627_u0631_u064a_u0631 u0020 u0627_u0644_u062c_u0647_u0627_u0632 u0020 u0627_u0644_u0645_u0631_u0643_u0632_u0649 u0020 u0644_u0644_u0645_u062d_u0627_u0633_u0628_u0627_u062a u0020 u0639_u0644_u0646_u064a_u0629 u0020 u060c u0020 u0639_u062f_u0627 u0020 u0645_u0627 u0020 u062a_u0639_u0644_u0642 u0020 u0645_u0646_u0647_u0627 u0020 u0628_u0627_u0644_u0623_u0645_u0646 u0020 u0627_u0644_u0642_u0648_u0645_u0649 u0020 u060c u0020 u0648_u062a_u0634_u0643_u0644 u0020 u0644_u062c_u0646_u0629_u0020", 
        "u062f_u0627_u0626_u0645_u0629 u0020 u0628_u0627_u0644_u0645_u062c_u0644_u0633 u0020 u0627_u0644_u0646_u064a_u0627_u0628_u0649 u0020 u060c u0020 u062a_u0645_u062b_u0644 u0020 u0641_u064a_u0647_u0627 u0020 u0643_u0627_u0641_u0629 u0020 u0627_u0644_u0623_u062d_u0632_u0627_u0628 u0020 u0648_u0627_u0644_u062c_u0645_u0627_u0639_u0627_u062a u0020 u0627_u0644_u0633_u064a_u0627_u0633_u064a_u0629 u0020 u0648_u0627_u0644_u0645_u0633_u062a_u0642_u0644_u064a_u0646 u0020 u060c u0020 u0644_u0628_u062d_u062b_u0020", 
        "u062a_u0642_u0627_u0631_u064a_u0631 u0020 u0627_u0644_u062c_u0647_u0627_u0632 u0020 u060c u0020 u0648_u0639_u0631_u0636 u0020 u0646_u062a_u0627_u0626_u062c u0020 u0628_u062d_u062b_u0647_u0627 u0020 u0641_u0649 u0020 u062c_u0644_u0633_u0629 u0020 u0639_u0644_u0646_u064a_u0629 u0020 u0641_u0649 u0020 u0645_u062f_u0629 u0020 u0644_u0627 u0020 u062a_u062a_u062c_u0627_u0648_u0632 u0020 u062b_u0644_u0627_u062b_u0629 u0020 u0623_u0634_u0647_u0631 u0020 u0022 u0020 u002e"
    ]
}