{
    "bounding_box": [
        [
            177, 
            44, 
            364, 
            41
        ], 
        [
            49, 
            123, 
            268, 
            22
        ], 
        [
            282, 
            150, 
            35, 
            14
        ], 
        [
            50, 
            182, 
            247, 
            19
        ], 
        [
            96, 
            202, 
            201, 
            21
        ], 
        [
            51, 
            232, 
            246, 
            20
        ], 
        [
            179, 
            257, 
            118, 
            17
        ], 
        [
            47, 
            284, 
            250, 
            19
        ], 
        [
            74, 
            308, 
            223, 
            19
        ], 
        [
            56, 
            335, 
            241, 
            19
        ], 
        [
            42, 
            359, 
            255, 
            19
        ], 
        [
            186, 
            383, 
            111, 
            19
        ], 
        [
            380, 
            139, 
            287, 
            20
        ], 
        [
            423, 
            160, 
            224, 
            20
        ], 
        [
            397, 
            181, 
            250, 
            20
        ], 
        [
            380, 
            202, 
            267, 
            18
        ], 
        [
            374, 
            223, 
            273, 
            20
        ], 
        [
            596, 
            245, 
            51, 
            15
        ], 
        [
            381, 
            308, 
            289, 
            20
        ], 
        [
            396, 
            329, 
            279, 
            20
        ], 
        [
            409, 
            350, 
            253, 
            20
        ], 
        [
            409, 
            371, 
            266, 
            19
        ], 
        [
            475, 
            520, 
            47, 
            9
        ], 
        [
            689, 
            520, 
            12, 
            7
        ]
    ], 
    "image_height": 540, 
    "image_width": 720, 
    "transcription": [
        "u062d_u06cc_u0637_u0647 u0020 u0639_u0627_u0637_u0641_u06cc u0020 u0627_u0632 u0020 u062f_u06cc_u062f_u06af_u0627_u0647 u0020 u0628_u0644_u0648_u0645", 
        "u0034_u0029 u0020 u0633_u0627_u0632_u0645_u0627_u0646_u200c_u062f_u0647_u064a u0020 u0627_u0631_u0632_u0634_u200c_u0647_u0627_u064a u0020 u062f_u0631_u0648_u0646_u064a_u0020", 
        "u0634_u062f_u0647_u000d", 
        "u0627_u0644_u0641_u0029 u0020 u062f_u0631_u0643 u0020 u0645_u0641_u0647_u0648_u0645 u0020 u064a_u0643 u0020 u0627_u0631_u0632_u0634 u0020 u0628_u0627 u0020 u0628_u0631_u0631_u0633_u064a_u0020", 
        "u0631_u0648_u0627_u0628_u0637 u0020 u0622_u0646 u0020 u0628_u0627 u0020 u0627_u0631_u0632_u0634_u200c_u0647_u0627_u064a u0020 u0622_u0645_u0648_u062e_u062a_u0647_u000d", 
        "u062f_u0631_u0643 u0020 u0645_u0633_u0626_u0648_u0644_u064a_u062a_u200c_u067e_u0630_u064a_u0631_u064a u0020 u0627_u062c_u062a_u0645_u0627_u0639_u064a u0020 u062f_u0631 u0020 u0642_u0628_u0627_u0644_u0020", 
        "u062d_u0641_u0638 u0020 u0645_u062d_u064a_u0637 u0020 u0632_u064a_u0633_u062a_u000d", 
        "u0628_u0029 u0020 u0633_u0627_u0632_u0645_u0627_u0646_u062f_u0647_u064a u0020 u064a_u0643 u0020 u0646_u0638_u0627_u0645 u0020 u0627_u0631_u0632_u0634_u064a_u003a u0020 u067e_u064a_u0648_u0646_u062f_u0020", 
        "u062f_u0647_u064a u0020 u0627_u0631_u0632_u0634_u200c_u0647_u0627 u0020 u0628_u0647 u0020 u0635_u0648_u0631_u062a_u064a u0020 u064a_u0643_u067e_u0627_u0631_u0686_u0647_u000d", 
        "u0627_u0648_u0644_u0648_u064a_u062a_u200c_u0628_u0646_u062f_u064a u0020 u0627_u0648_u0642_u0627_u062a u0020 u0641_u0631_u0627_u063a_u062a u0020 u0628_u0627 u0020 u062a_u0648_u062c_u0647 u0020 u0628_u0647_u0020", 
        "u0639_u0644_u0627_u064a_u0642 u0020 u0648 u0020 u0647_u0646_u062c_u0627_u0631_u0647_u0627_u064a u0020 u0645_u0648_u0631_u062f u0020 u0646_u0638_u0631 u0020 u062f_u0631 u0020 u0642_u0627_u0644_u0628_u0020", 
        "u064a_u0643 u0020 u0628_u0631_u0646_u0627_u0645_u0647 u0020 u0632_u0645_u0627_u0646_u064a_u000d", 
        "u0034_u002d u0020 u0633_u0627_u0632_u0645_u0627_u0646_u062f_u0647_u06cc u0020 u0627_u0631_u0632_u0634_u0647_u0627_u003a u0020 u062c_u0645_u0639 u0020 u0628_u064a_u0646 u0020 u0627_u0631_u0632_u0634_u0020", 
        "u0647_u0627_u064a u0020 u0645_u062e_u062a_u0644_u0641 u0020 u0648 u0020 u0633_u0627_u062e_u062a_u0646 u0020 u064a_u06a9 u0020 u0646_u0638_u0627_u0645_u0020", 
        "u0627_u0631_u0632_u0634_u06cc_u002e_u0627_u0641_u0639_u0627_u0644_u06cc u0020 u0686_u0648_u0646 u0020 u062a_u0639_u0645_u064a_u0645 u0020 u0645_u06cc u0020 u062f_u0647_u062f_u060c_u0020", 
        "u0627_u0631_u062a_u0628_u0627_u0637 u0020 u0645_u06cc u0020 u062f_u0647_u062f_u060c u0020 u062a_u06a9_u0645_u064a_u0644 u0020 u0645_u06cc u0020 u06a9_u0646_u062f_u060c u0020 u0627_u062f_u063a_u0627_u0645_u0020", 
        "u0645_u06cc u0020 u06a9_u0646_u062f_u060c u0020 u0633_u0627_u0632_u0645_u0627_u0646 u0020 u0645_u06cc u0020 u062f_u0647_u062f u0020 u062f_u0631 u0020 u0627_u064a_u0646 u0020 u0633_u0637_u062d_u0020", 
        "u0627_u0633_u062a_u002e u0020 u000d", 
        "u0028 u0020 u062a_u0644_u0641_u06cc_u0642 u0020 u0627_u0631_u0632_u0634_u0647_u0627_u06cc u0020 u0645_u062e_u062a_u0644_u0641 u0020 u0627_u0632 u0020 u0637_u0631_u06cc_u0642 u0020 u062f_u0631_u06a9_u0020", 
        "u0648 u0020 u0633_u0627_u0632_u0645_u0627_u0646_u062f_u0647_u06cc u0020 u0622_u0646_u0647_u0627_u002d u0020 u062d_u0644 u0020 u0648 u0020 u0631_u0641_u0639 u0020 u062a_u0646_u0627_u0642_u0636_u0627_u062a_u0020", 
        "u0645_u0648_u062c_u0648_u062f u0020 u0628_u06cc_u0646 u0020 u0627_u0631_u0632_u0634_u0647_u0627_u06cc u0020 u0645_u062e_u062a_u0644_u0641_u002d u0020 u0627_u06cc_u062c_u0627_u062f_u0020", 
        "u06cc_u06a9 u0020 u0645_u062c_u0645_u0648_u0639_u0647 u0020 u0627_u0631_u0632_u0634_u06cc u0020 u0648_u0627_u062d_u062f u0020 u0648 u0020 u0645_u0646_u0633_u062c_u0645_u0029_u000d", 
        "u062f_u06a9_u062a_u0631 u0020 u0637_u0628_u0627_u0637_u0628_u0627_u06cc_u06cc", 
        "u0035_u0035"
    ]
}