{
    "bounding_box": [
        [
            275, 
            119, 
            392, 
            52
        ], 
        [
            96, 
            207, 
            571, 
            22
        ], 
        [
            119, 
            230, 
            542, 
            28
        ], 
        [
            125, 
            259, 
            542, 
            22
        ], 
        [
            106, 
            287, 
            561, 
            24
        ], 
        [
            119, 
            312, 
            542, 
            28
        ], 
        [
            110, 
            341, 
            557, 
            22
        ], 
        [
            138, 
            365, 
            523, 
            28
        ], 
        [
            245, 
            394, 
            416, 
            22
        ]
    ], 
    "image_height": 540, 
    "image_width": 720, 
    "transcription": [
        "u062c_u0648_u062f_u0629 u0020 u0627_u0644_u0628_u064a_u0627_u0646_u0627_u062a u0020 u0648_u0627_u0644_u062a_u0642_u064a_u064a_u0645", 
        "u002d u0020 u064a_u062c_u0628 u0020 u0623_u0646 u0020 u064a_u0643_u0648_u0646 u0020 u0627_u0644_u0647_u062f_u0641 u0020 u0644_u062f_u0649 u0020 u0623_u064a u0020 u0625_u062d_u0635_u0627_u0626_u064a u0020 u0647_u0648 u0020 u062a_u062d_u0642_u064a_u0642 u0020 u0645_u0633_u062a_u0648_u0649 u0020 u0639_u0627_u0644 u0020 u0645_u0646 u0020 u062c_u0648_u062f_u0629 u0020 u0627_u0644_u0628_u064a_u0627_u0646_u0627_u062a_u000d", 
        "u002d u0020 u062a_u0645_u0644_u0643 u0020 u0627_u0644_u0623_u062c_u0647_u0632_u0629 u0020 u0627_u0644_u0625_u062d_u0635_u0627_u0626_u064a_u0629 u0020 u0627_u0644_u062c_u064a_u062f_u0629 u0020 u062b_u0642_u0627_u0641_u0629 u0020 u0643_u0628_u064a_u0631_u0629 u0020 u0628_u0634_u0623_u0646 u0020 u062c_u0648_u062f_u0629 u0020 u0627_u0644_u0628_u064a_u0627_u0646_u0627_u062a u0020 u0644_u0627 u0020 u062a_u0645_u0643_u0646_u0647_u0627 u0020 u0645_u0646_u0020", 
        "u0625_u0646_u062a_u0627_u062c u0020 u0628_u064a_u0627_u0646_u0627_u062a u0020 u0639_u0627_u0644_u064a_u0629 u0020 u0627_u0644_u062c_u0648_u062f_u0629 u0020 u0641_u062d_u0633_u0628_u060c u0020 u0628_u0644 u0020 u062a_u0636_u0641_u064a u0020 u0623_u064a_u0636_u0627 u0020 u0627_u0644_u0645_u0635_u062f_u0627_u0642_u064a_u0629 u0020 u0639_u0644_u0649 u0020 u0647_u0630_u0647 u0020 u0627_u0644_u0628_u064a_u0627_u0646_u0627_u062a_u000d", 
        "u002d u0020 u064a_u062c_u0628 u0020 u0623_u0646 u0020 u062a_u0643_u0648_u0646 u0020 u0627_u0639_u062a_u0628_u0627_u0631_u0627_u062a u0020 u062c_u0648_u062f_u0629 u0020 u0627_u0644_u0628_u064a_u0627_u0646_u0627_u062a u0020 u0633_u0627_u0626_u062f_u0629 u0020 u0641_u064a u0020 u0643_u0644 u0020 u0645_u0631_u0627_u062d_u0644 u0020 u0623_u064a_u0629 u0020 u0639_u0645_u0644_u064a_u0629 u0020 u0625_u062d_u0635_u0627_u0626_u064a_u0629_u000d", 
        "u002d u0020 u064a_u0645_u0643_u0646 u0020 u0627_u0644_u0646_u0638_u0631 u0020 u0625_u0644_u0649 u0020 u062c_u0648_u062f_u0629 u0020 u0627_u0644_u0628_u064a_u0627_u0646_u0627_u062a u0020 u0628_u0627_u0644_u0646_u0633_u0628_u0629 u0020 u0625_u0644_u0649 u0020 u0627_u0644_u0639_u062f_u064a_u062f u0020 u0645_u0646 u0020 u0627_u0644_u0623_u0628_u0639_u0627_u062f u0020 u0623_u0648 u0020 u0627_u0644_u0645_u0639_u0627_u064a_u064a_u0631 u0020 u0028_u0645_u062b_u0644_u0627_u0020", 
        "u0645_u062f_u0649 u0020 u0627_u0631_u062a_u0628_u0627_u0637_u0647_u0627 u0020 u0648_u0639_u0644_u0627_u0642_u062a_u0647_u0627 u0020 u0648_u0627_u0644_u062f_u0642_u0629 u0020 u060c u0020 u0627_u0644_u0627_u0646_u062a_u0638_u0627_u0645_u060c u0020 u0627_u0644_u0633_u0631_u0639_u0629_u060c u0020 u0627_u0644_u0648_u0636_u0648_u062d_u060c u0020 u0642_u0627_u0628_u0644_u064a_u0629 u0020 u0627_u0644_u0645_u0642_u0627_u0631_u0646_u0629 u0020 u002e_u002e_u002e_u0029_u000d", 
        "u002d u0020 u0645_u0646 u0020 u0628_u064a_u0646 u0020 u0639_u0646_u0627_u0635_u0631 u0020 u062c_u0648_u062f_u0629 u0020 u0627_u0644_u0628_u064a_u0627_u0646_u0627_u062a u0020 u0648_u062a_u0642_u064a_u064a_u0645_u0647_u0627 u0020 u003a u0020 u0627_u0644_u062a_u0648_u062b_u064a_u0642 u0020 u0627_u0644_u062c_u064a_u062f u0020 u0644_u0639_u0645_u0644_u064a_u0627_u062a u0020 u0648_u0625_u062c_u0631_u0627_u0621_u0627_u062a_u0020", 
        "u0627_u0644_u0645_u0633_u0648_u062d u0020 u0028_u0648_u0635_u0641 u0020 u0645_u0633_u0628_u0642 u0020 u0644_u0644_u062a_u0643_u0627_u0644_u064a_u0641_u060c u0020 u0627_u0644_u0645_u0646_u0647_u062c_u064a_u0627_u062a_u060c u0020 u0020_u0627_u0644_u0625_u062c_u0631_u0627_u0621_u0627_u062a_u002e_u002e_u002e_u0029"
    ]
}