{
    "bounding_box": [
        [
            18, 
            38, 
            665, 
            47
        ], 
        [
            18, 
            91, 
            681, 
            47
        ], 
        [
            18, 
            143, 
            681, 
            48
        ], 
        [
            18, 
            202, 
            681, 
            42
        ], 
        [
            18, 
            250, 
            681, 
            44
        ], 
        [
            18, 
            302, 
            681, 
            47
        ], 
        [
            18, 
            356, 
            681, 
            46
        ], 
        [
            18, 
            408, 
            681, 
            47
        ], 
        [
            631, 
            462, 
            69, 
            36
        ]
    ], 
    "image_height": 540, 
    "image_width": 720, 
    "transcription": [
        "u0648_u0645_u0642_u0627_u064a_u0633_u0629_u00a0_u0648_u0627_u0644_u062a_u062e_u0637_u064a_u0637_u00a0 u0020 u0644_u0629 u0020 u0627_u0644_u062d_u064a_u0632 u0020 u0627_u0644_u0623_u0643_u0628_u0631 u0020 u0641_u064a u0020 u0645_u0641_u0647_u0648_u0645_u0020", 
        "u0627_u0644_u0623_u0645_u0646 u0020 u0627_u0644_u0633_u064a_u0627_u062d_u064a_u00a0_u0648_u0630_u0644_u0643 u0020 u0645_u0646 u0020 u062e_u0644_u0627_u0644 u0020 u0625_u0639_u062f_u0627_u062f u0020 u0648_u062a_u0623_u0647_u064a_u0644_u0020", 
        "u0627_u0644_u0623_u0641_u0631_u0627_u062f u0020 u0627_u0644_u0639_u0627_u0645_u0644_u064a_u0646 u0020 u0641_u064a u0020 u0647_u0630_u0627 u0020 u0627_u0644_u0645_u062c_u0627_u0644 u0020 u0628_u062d_u062c_u0645 u0020 u0645_u0639_u064a_u0646 u0020 u0645_u0646_u0020", 
        "u0627_u0644_u062a_u062f_u0631_u064a_u0628 u0020 u0627_u0644_u0639_u0644_u0645_u064a u0020 u0648_u0627_u0644_u0639_u0645_u0644_u064a u0020 u0645_u0646 u0020 u0627_u062c_u0644 u0020 u0627_u0646 u0020 u064a_u0643_u0648_u0646_u0648_u0627_u0020", 
        "u0642_u0627_u062f_u0631_u064a_u0646_u00a0 u0020 u0639_u0644_u0649 u0020 u0645_u0648_u0627_u062c_u0647_u0629 u0020 u0645_u0627 u0020 u0642_u062f u0020 u064a_u0645_u0643_u0646 u0020 u0627_u0646 u0020 u064a_u0639_u0643_u0631 u0020 u0635_u0641_u0648_u0020", 
        "u0627_u0644_u0623_u0645_u0646 u0020 u0627_u0644_u0633_u064a_u0627_u062d_u064a u0020 u0648_u0643_u064a_u0641_u064a_u0629 u0020 u0645_u062c_u0627_u0628_u0647_u0629 u0020 u0628_u0627_u0644_u0637_u0631_u0642 u0020 u0627_u0644_u062a_u064a_u0020", 
        "u062a_u0643_u0641_u0644_u00a0 u0020 u0639_u062f_u0645 u0020 u0627_u0644_u0625_u0636_u0631_u0627_u0631 u0020 u0628_u0633_u0645_u0639_u0629 u0020 u0627_u0644_u0633_u064a_u0627_u062d_u0629 u0020 u0627_u0648 u0020 u0627_u0644_u0645_u0633_u0627_u0633_u0020", 
        "u0628_u0623_u0645_u0646 u0020 u0627_u0644_u0633_u064a_u0627_u062d u0020 u0627_u0644_u0630_u064a_u0646 u0020 u064a_u0624_u0645_u0648_u0646 u0020 u0627_u0644_u0648_u0637_u0646 u0020 u0645_u0646 u0020 u0643_u0644 u0020 u0628_u0642_u0627_u0639_u0020", 
        "u0627_u0644_u062f_u0646_u064a_u0627"
    ]
}