{
    "bounding_box": [
        [
            12, 
            32, 
            681, 
            47
        ], 
        [
            12, 
            86, 
            677, 
            46
        ], 
        [
            548, 
            140, 
            141, 
            39
        ], 
        [
            12, 
            202, 
            681, 
            47
        ], 
        [
            12, 
            254, 
            677, 
            47
        ], 
        [
            12, 
            309, 
            677, 
            45
        ], 
        [
            34, 
            364, 
            655, 
            42
        ], 
        [
            12, 
            423, 
            681, 
            47
        ], 
        [
            162, 
            472, 
            531, 
            50
        ]
    ], 
    "image_height": 540, 
    "image_width": 720, 
    "transcription": [
        "u0648_u062a_u0639_u062a_u0628_u0631 u0020 u0627_u0644_u0645_u0639_u0645_u0648_u062f_u064a_u0629 u0020 u0623_u0645_u0631_u0627 u0020 u0647_u0627_u0645_u0627 u0020 u0644_u0623_u0646_u0647_u0627 u0020 u062a_u0623_u062a_u064a u0020 u0636_u0645_u0646_u0020", 
        "u0627_u0644_u0645_u0623_u0645_u0648_u0631_u064a_u0629 u0020 u0627_u0644_u0639_u0638_u0645_u0649 u0020 u0627_u0644_u062a_u064a u0020 u0623_u0639_u0637_u0627_u0647_u0627 u0020 u0627_u0644_u0645_u0633_u064a_u062d u0020 u0644_u062a_u0644_u0627_u0645_u064a_u0630_u0647_u0020", 
        "u062d_u064a_u0646 u0020 u0642_u0627_u0644_u003a_u000d", 
        "u0022_u0627_u0630_u0647_u0628_u0648_u0627 u0020 u0648_u062a_u0644_u0645_u0630_u0648_u0627 u0020 u062c_u0645_u064a_u0639 u0020 u0627_u0644_u0623_u0645_u0645 u0020 u0648_u0639_u0645_u062f_u0648_u0647_u0645 u0020 u0628_u0627_u0633_u0645_u0020", 
        "u0627_u0644_u0631_u0628 u0020 u0648_u0627_u0644_u0627_u0628_u0646 u0020 u0648_u0627_u0644_u0631_u0648_u062d u0020 u0627_u0644_u0642_u062f_u0633_u060c u0020 u0648_u0639_u0644_u0645_u0648_u0647_u0645 u0020 u0623_u0646_u0020", 
        "u064a_u062d_u0641_u0638_u0648_u0627 u0020 u062c_u0645_u064a_u0639 u0020 u0645_u0627 u0020 u0627_u0648_u0635_u064a_u062a_u0643_u0645 u0020 u0628_u0647_u060c u0020 u0648_u0647_u0627 u0020 u0627_u0646_u0627 u0020 u0645_u0639_u0643_u0645 u0020 u0643_u0644_u0020", 
        "u0627_u0644_u0627_u064a_u0627_u0645 u0020 u0627_u0644_u0649 u0020 u0627_u0646_u0642_u0636_u0627_u0621 u0020 u0627_u0644_u062f_u0647_u0631_u0022 u0020 u0028_u0645_u062a_u0649 u0020 u0032_u0038_u003a_u0031_u0039_u002d_u0032_u0030_u0029_u002e_u000d", 
        "u0648_u0642_u062a u0020 u0627_u0644_u062a_u0639_u0645_u064a_u062f_u003a u0020 u0627_u0644_u0623_u0635_u0644 u0020 u0627_u0644_u063a_u0627_u0644_u0628 u0020 u0641_u064a u0020 u0633_u0646 u0020 u0627_u0644_u0637_u0641_u0648_u0644_u0629_u060c_u0020", 
        "u0648_u064a_u062c_u0648_u0632 u0020 u0641_u064a u0020 u0627_u064a u0020 u0641_u062a_u0631_u0629 u0020 u0645_u0646 u0020 u062d_u064a_u0627_u0629 u0020 u0627_u0644_u0627_u0646_u0633_u0627_u0646_u002e_u000d"
    ]
}