{
    "bounding_box": [
        [
            43, 
            28, 
            353, 
            30
        ], 
        [
            216, 
            138, 
            434, 
            28
        ], 
        [
            491, 
            180, 
            159, 
            27
        ], 
        [
            430, 
            223, 
            221, 
            25
        ], 
        [
            432, 
            266, 
            219, 
            26
        ], 
        [
            345, 
            303, 
            306, 
            28
        ], 
        [
            527, 
            347, 
            124, 
            25
        ], 
        [
            199, 
            389, 
            452, 
            28
        ], 
        [
            104, 
            431, 
            572, 
            25
        ], 
        [
            433, 
            466, 
            217, 
            27
        ]
    ], 
    "image_height": 540, 
    "image_width": 720, 
    "transcription": [
        "u062a_u062d_u0644_u064a_u0644 u0020 u0627_u0644_u0648_u0638_u0627_u0626_u0641 u0020 u0648 u0020 u0645_u0631_u0627_u0643_u0632 u0020 u0627_u0644_u0639_u0645_u0644_u000b", 
        "u0639_u0645_u0644_u064a_u0629 u0020 u062a_u062d_u0644_u064a_u0644 u0020 u0645_u0631_u0627_u0643_u0632 u0020 u0627_u0644_u0639_u0645_u0644 u0020 u062a_u062a_u064a_u062d u0020 u0644_u0644_u0645_u0624_u0633_u0633_u0629 u0020 u062a_u062d_u062f_u064a_u062f_u003a_u000d", 
        "u0627_u0644_u0627_u0646_u0634_u0637_u0629 u0020 u0648 u0020 u0627_u0644_u0645_u0647_u0627_u0645_u000d", 
        "u0627_u0644_u0648_u0627_u062c_u0628_u0627_u062a u0020 u0648 u0020 u0627_u0644_u0645_u0633_u0624_u0648_u0644_u064a_u0627_u062a_u000d", 
        "u0637_u0628_u064a_u0639_u0629 u0020 u0648 u0020 u062d_u062c_u0645 u0020 u0627_u0644_u0642_u0631_u0627_u0631_u0627_u062a_u000d", 
        "u0627_u0644_u0645_u0633_u0627_u0637_u0631 u0020 u0648 u0020 u0623_u062f_u0648_u0627_u0629 u0020 u0627_u0644_u0639_u0645_u0644 u0020 u0627_u0644_u0645_u0633_u062a_u0639_u0645_u0644_u0629_u000d", 
        "u0634_u0631_u0648_u0637 u0020 u0627_u0644_u0639_u0645_u0644_u000d", 
        "u062a_u0633_u062a_u0639_u0645_u0644 u0020 u0639_u062f_u0629 u0020 u0637_u0631_u0642 u0020 u0641_u064a u0020 u0639_u0645_u0644_u064a_u0629 u0020 u062a_u062d_u0644_u064a_u0644 u0020 u0645_u0631_u0627_u0643_u0632 u0020 u0627_u0644_u0639_u0645_u0644_u003a_u000d", 
        "u002d u0020 u0627_u0644_u0645_u0644_u0627_u062d_u0638_u0629 u0020 u2013 u0020 u0627_u0644_u0627_u0633_u062a_u0628_u064a_u0627_u0646 u0020 u2013 u0020 u0627_u0644_u0645_u0642_u0627_u0628_u0644_u0627_u062a u0020 u2013 u0020 u062a_u0633_u062c_u064a_u0644 u0020 u0627_u0644_u0646_u0642_u0637 u0020 u0645_u0646 u0020 u0637_u0631_u0641_u0020", 
        "u0627_u0644_u0645_u0648_u0638_u0641 u0020 u0627_u0644_u0642_u0627_u0626_u0645 u0020 u0628_u0627_u0644_u0639_u0645_u0644_u002d u0020 u0020"
    ]
}