{
    "bounding_box": [
        [
            17, 
            25, 
            688, 
            39
        ], 
        [
            17, 
            65, 
            688, 
            42
        ], 
        [
            17, 
            112, 
            688, 
            39
        ], 
        [
            17, 
            156, 
            688, 
            38
        ], 
        [
            17, 
            198, 
            688, 
            39
        ], 
        [
            17, 
            240, 
            688, 
            40
        ], 
        [
            17, 
            282, 
            688, 
            41
        ], 
        [
            17, 
            325, 
            688, 
            42
        ], 
        [
            17, 
            368, 
            688, 
            42
        ], 
        [
            298, 
            411, 
            407, 
            37
        ]
    ], 
    "image_height": 540, 
    "image_width": 720, 
    "transcription": [
        "u0648_u064a_u0637_u0627_u0644_u0628 u0020 u0627_u0644_u0628_u0631_u0648_u062a_u0648_u0643_u0648_u0644 u0020 u0627_u0644_u062f_u0648_u0644 u0020 u0627_u0644_u0623_u0637_u0631_u0627_u0641 u0020 u0628_u062a_u062c_u0631_u064a_u0645 u0020 u0647_u0630_u0647 u0020 u0627_u0644_u0645_u0645_u0627_u0631_u0633_u0627_u062a_u0020", 
        "u0648_u0623_u0646 u0020 u062a_u062a_u062e_u0630 u0020 u0627_u0644_u062a_u062f_u0627_u0628_u064a_u0631 u0020 u0627_u0644_u0645_u0646_u0627_u0633_u0628_u0629 u0020 u0644_u0645_u0646_u0639 u0020 u0647_u0630_u0647 u0020 u0627_u0644_u062c_u0645_u0627_u0639_u0627_u062a u0020 u0645_u0646 u0020 u062a_u062c_u0646_u064a_u062f_u0020", 
        "u0648_u0627_u0633_u062a_u062e_u062f_u0627_u0645 u0020 u0627_u0644_u0623_u0637_u0641_u0627_u0644_u002e u0020 u0648_u0628_u0645_u0648_u062c_u0628 u0020 u0627_u0644_u0628_u0631_u0648_u062a_u0648_u0643_u0648_u0644 u0020 u0639_u0644_u0649 u0020 u0627_u0644_u062f_u0648_u0644_u0020", 
        "u0627_u0644_u0623_u0637_u0631_u0627_u0641 u0020 u0623_u0646 u0020 u062a_u0631_u0641_u0639 u0020 u0627_u0644_u062d_u062f u0020 u0627_u0644_u0623_u062f_u0646_u0649 u0020 u0644_u0633_u0646 u0020 u0627_u0644_u062a_u062c_u0646_u064a_u062f u0020 u0627_u0644_u0637_u0648_u0639_u064a u0020 u0641_u0648_u0642_u0020", 
        "u062e_u0645_u0633 u0020 u0639_u0634_u0631_u0629 u0020 u0633_u0646_u0629_u002e u0020 u0648_u064a_u062c_u0628 u0020 u0648_u0636_u0639 u0020 u0627_u0644_u062a_u062f_u0627_u0628_u064a_u0631 u0020 u0627_u0644_u0644_u0627_u0632_u0645_u0629 u0020 u0644_u0644_u062a_u0623_u0643_u062f u0020 u0645_u0646_u0020", 
        "u0623_u0646 u0020 u062a_u062c_u0646_u064a_u062f u0020 u0627_u0644_u0623_u0634_u062e_u0627_u0635 u0020 u0627_u0644_u0630_u064a_u0646 u0020 u064a_u0642_u0644 u0020 u0639_u0645_u0631_u0647_u0645 u0020 u0639_u0646 u0020 u062b_u0645_u0627_u0646 u0020 u0639_u0634_u0631_u0629 u0020 u0647_u0648_u0020", 
        "u0637_u0648_u0639_u064a u0020 u0628_u0627_u0644_u0641_u0639_u0644_u060c u0020 u0648_u0623_u0646_u0647 u0020 u064a_u062a_u0645 u0020 u0628_u0645_u0648_u0627_u0641_u0642_u0629 u0020 u0639_u0646 u0020 u0639_u0644_u0645 u0020 u0645_u0646 u0020 u0648_u0627_u0644_u062f_u064a_u0020", 
        "u0627_u0644_u0634_u062e_u0635 u0020 u0623_u0648 u0020 u0623_u0648_u0635_u064a_u0627_u0626_u0647 u0020 u0627_u0644_u0642_u0627_u0646_u0648_u0646_u064a_u064a_u0646_u060c u0020 u0648_u0623_u0646 u0020 u064a_u0643_u0648_u0646 u0020 u0627_u0644_u0645_u062c_u0646_u062f_u0648_u0646 u0020 u0639_u0644_u0649_u0020", 
        "u0639_u0644_u0645 u0020 u0643_u0627_u0645_u0644 u0020 u0628_u0627_u0644_u0648_u0627_u062c_u0628_u0627_u062a u0020 u0627_u0644_u062a_u064a u0020 u0633_u064a_u0636_u0637_u0644_u0639_u0648_u0646 u0020 u0628_u0647_u0627 u0020 u0641_u064a u0020 u0627_u0644_u062e_u062f_u0645_u0629_u0020", 
        "u0627_u0644_u0639_u0633_u0643_u0631_u064a_u0629_u060c u0020 u0648_u0627_u0644_u062a_u0623_u0643_u062f u0020 u0645_u0646 u0020 u0639_u0645_u0631 u0020 u0627_u0644_u0645_u062c_u0646_u062f_u002e_u000d"
    ]
}