{
    "bounding_box": [
        [
            500, 
            46, 
            270, 
            50
        ], 
        [
            50, 
            104, 
            602, 
            24
        ], 
        [
            323, 
            134, 
            329, 
            19
        ], 
        [
            47, 
            157, 
            604, 
            23
        ], 
        [
            457, 
            183, 
            194, 
            21
        ], 
        [
            96, 
            237, 
            555, 
            19
        ], 
        [
            64, 
            258, 
            588, 
            23
        ], 
        [
            598, 
            287, 
            54, 
            18
        ], 
        [
            100, 
            309, 
            573, 
            23
        ], 
        [
            503, 
            337, 
            149, 
            19
        ], 
        [
            50, 
            357, 
            602, 
            23
        ], 
        [
            435, 
            385, 
            217, 
            19
        ], 
        [
            226, 
            409, 
            426, 
            19
        ], 
        [
            55, 
            433, 
            596, 
            19
        ]
    ], 
    "image_height": 540, 
    "image_width": 720, 
    "transcription": [
        "u0623_u0648_u0644_u0627 u0020 u003a u0020 u0627_u0644_u0645_u062c_u0627_u0645_u0644_u0629_u0020", 
        "u0020_u0627_u0644_u0645_u062c_u0627_u0645_u0644_u0629 u0020 u003a u0020 u0641_u0646 u0020 u0625_u0631_u0636_u0627_u0621 u0020 u0627_u0644_u0622_u062e_u0631_u064a_u0646 u0020 u0648_u0647_u064a u0020 u0627_u0644_u0635_u0641_u0629 u0020 u0627_u0644_u062a_u064a u0020 u062a_u062c_u062f u0020 u062f_u0627_u0626_u0645_u0627_u064b u0020 u0637_u0631_u064a_u0642_u0647_u0627 u0020 u0625_u0644_u0649 u0020 u0643_u0644_u0020", 
        "u0642_u0644_u0628 u0020 u060c u0020 u0648_u062a_u0639_u0637_u0649 u0020 u0641_u0643_u0631_u0629 u0020 u062d_u0633_u0646_u0629 u0020 u0639_u0646 u0020 u0635_u0627_u062d_u0628_u0647_u0627 u0020 u002e_u000d", 
        "u0020_u0636_u0639 u0020 u0641_u064a u0020 u0627_u0639_u062a_u0628_u0627_u0631_u0643 u0020 u0634_u0639_u0648_u0631 u0020 u0648_u062d_u0642_u0648_u0642 u0020 u060c u0020 u0623_u0645_u0627_u0646_u064a u0020 u0627_u0644_u0622_u062e_u0631_u064a_u0646 u0020 u0628_u0630_u0644_u0643 u0020 u064a_u0645_u0643_u0646 u0020 u0644_u0644_u0645_u0631_u0621 u0020 u0623_u0646 u0020 u064a_u062d_u0642_u0642_u0020", 
        "u0646_u062c_u0627_u062d_u0627_u064b u0020 u0627_u062c_u062a_u0645_u0627_u0639_u064a_u0627_u064b u0020 u0645_u0631_u0645_u0648_u0642_u0627_u064b u0020 u002e_u000b", 
        "u0628_u0639_u0636 u0020 u0627_u0644_u0625_u0631_u0634_u0627_u062f_u0627_u062a u0020 u0627_u0644_u0648_u0627_u062c_u0628 u0020 u0645_u0631_u0627_u0639_u0627_u062a_u0647_u0627 u0020 u0639_u0646_u062f u0020 u0627_u0644_u0642_u064a_u0627_u0645 u0020 u0628_u0648_u0627_u062c_u0628 u0020 u0627_u0644_u0645_u062c_u0627_u0645_u0644_u0629 u0020 u003a_u002d_u000b", 
        "u0031_u002d u0020 u062a_u0642_u062f_u064a_u0645 u0020 u0647_u062f_u064a_u0629 u0020 u0623_u0648 u0020 u062a_u0623_u062f_u064a_u0629 u0020 u062e_u062f_u0645_u0629 u0020 u0623_u0648 u0020 u062a_u0643_u0631_u064a_u0645 u0020 u0634_u062e_u0635 u0020 u0644_u0627 u0020 u064a_u0644_u064a_u0642 u0020 u0627_u0644_u062a_u0628_u0627_u0647_u064a u0020 u0628_u0630_u0644_u0643 u0020 u0623_u0645_u0627_u0645_u0020", 
        "u0627_u0644_u063a_u064a_u0631 u0020 u002e_u000d", 
        "u0020 u0020 u0020_u0032_u002d u0020 u0627_u0644_u0627_u0647_u062a_u0645_u0627_u0645 u0020 u0628_u0634_u0623_u0646 u0020 u0623_u062d_u062f u0020 u0627_u0644_u0623_u0634_u062e_u0627_u0635 u0020 u060c u0020 u064a_u062c_u0628 u0020 u0639_u062f_u0645 u0020 u0627_u0644_u0625_u0644_u062d_u0627_u062d u0020 u0641_u064a u0020 u0633_u0624_u0627_u0644_u0647 u0020 u0639_u0646_u0020", 
        "u0645_u0633_u0627_u0626_u0644 u0020 u0634_u062e_u0635_u064a_u0629 u0020 u002e_u000b", 
        "u0033_u002d u0020 u064a_u0643_u0641_u064a u0020 u0627_u0644_u062a_u0639_u0628_u064a_u0631 u0020 u0639_u0646 u0020 u0627_u0644_u0645_u0634_u0627_u0639_u0631 u0020 u0628_u0643_u0644_u0645_u0647 u0020 u0623_u0648 u0020 u0639_u0628_u0627_u0631_u0629 u0020 u0641_u064a u0020 u062d_u0627_u0644_u0629 u0020 u0627_u0644_u062a_u0639_u0627_u0631_u0641 u0020 u0627_u0648 u0020 u0627_u0644_u062a_u0647_u0646_u0626_u0629 u0020 u0627_u0648_u0020", 
        "u0627_u0644_u0634_u0643_u0631 u0020 u0627_u0648 u0020 u0627_u0644_u0627_u0639_u062a_u0630_u0627_u0631 u0020 u0648_u063a_u064a_u0631_u0647 u0020 u002e_u002e u0020 u000b", 
        "u0034_u002d u0020 u0627_u0644_u0645_u062c_u0627_u0645_u0644_u0629 u0020 u0628_u0627_u0644_u0645_u0648_u0627_u0633_u0627_u0629 u0020 u0627_u0648 u0020 u0627_u0644_u062a_u0647_u0646_u0626_u0629 u0020 u0634_u062e_u0635_u064a_u0629 u0020 u0628_u0627_u0644_u0645_u0639_u0627_u0634 u0020 u002e_u000b", 
        "u0035_u002d u0020 u0644_u064a_u0633 u0020 u0645_u0646 u0020 u0627_u0644_u0645_u062c_u0627_u0645_u0644_u0629 u0020 u0627_u0644_u0625_u0633_u0631_u0627_u0641 u0020 u0641_u064a u0020 u062a_u0643_u0627_u0644_u064a_u0641 u0020 u0627_u0644_u0636_u064a_u0627_u0641_u0629 u0020 u060c u0020 u0628_u0645_u0627 u0020 u064a_u062c_u0627_u0648_u0632 u0020 u0627_u0644_u0625_u0645_u0643_u0627_u0646_u064a_u0627_u062a u0020 u002e_u000b"
    ]
}