{
    "bounding_box": [
        [
            77, 
            37, 
            544, 
            26
        ], 
        [
            77, 
            67, 
            412, 
            26
        ], 
        [
            77, 
            105, 
            565, 
            20
        ], 
        [
            77, 
            128, 
            472, 
            22
        ], 
        [
            77, 
            161, 
            605, 
            21
        ], 
        [
            77, 
            187, 
            322, 
            21
        ], 
        [
            77, 
            219, 
            430, 
            21
        ], 
        [
            77, 
            249, 
            496, 
            22
        ], 
        [
            69, 
            280, 
            572, 
            28
        ], 
        [
            37, 
            322, 
            638, 
            18
        ], 
        [
            77, 
            352, 
            584, 
            20
        ], 
        [
            77, 
            376, 
            452, 
            21
        ], 
        [
            82, 
            402, 
            600, 
            31
        ], 
        [
            560, 
            438, 
            81, 
            17
        ], 
        [
            37, 
            470, 
            622, 
            18
        ], 
        [
            77, 
            493, 
            115, 
            13
        ]
    ], 
    "image_height": 540, 
    "image_width": 720, 
    "transcription": [
        "u0049_u006e u0020 u0064_u006f_u0069_u006e_u0067 u0020 u0627_u0635_u0644_u0627_u062d u0020 u0028_u0072_u0065_u0063_u006f_u006e_u0063_u0069_u006c_u0069_u006e_u0067_u0029 u0020 u006f_u0072 u0020 u006d_u0065_u006e_u0074_u0069_u006f_u006e_u0069_u006e_u0067 u0020 u006f_u006e_u0065_u0073_u0020", 
        "u0064_u0065_u0066_u0065_u0063_u0074_u0073_u002c u0020 u0066_u006f_u006c_u006c_u006f_u0077_u0069_u006e_u0067 u0020 u006d_u0075_u0073_u0074 u0020 u0062_u0065 u0020 u0061_u0064_u0068_u0065_u0072_u0065_u0064_u003a u0020 u000d", 
        "u0042_u0065_u0066_u006f_u0072_u0065 u0020 u006d_u0065_u006e_u0074_u0069_u006f_u006e_u0069_u006e_u0067 u0020 u0064_u0065_u0066_u0065_u0063_u0074_u0073_u002c u0020 u006d_u0065_u006e_u0074_u0069_u006f_u006e u0020 u0073_u006f_u006d_u0065 u0020 u0067_u006f_u006f_u0064 u0020 u0068_u0061_u0062_u0069_u0074_u0073 u0020 u0061_u006e_u0064_u0020", 
        "u0070_u006f_u0073_u0069_u0074_u0069_u0076_u0065 u0020 u0074_u0068_u0069_u006e_u0067_u0073 u0020 u0061_u0062_u006f_u0075_u0074 u0020 u0074_u0068_u0061_u0074 u0020 u0070_u0065_u0072_u0073_u006f_u006e_u002c u0020 u0061_u006e_u0064 u0020 u0074_u0068_u0061_u006e_u006b u0020 u0068_u0069_u006d_u002e_u000d", 
        "u0057_u0068_u0065_u006e u0020 u006d_u0065_u006e_u0074_u0069_u006f_u006e_u0069_u006e_u0067 u0020 u0064_u0065_u0066_u0065_u0063_u0074_u0073 u0020 u0064_u006f_u006e_u2019_u0074 u0020 u0062_u006f_u006d_u0062_u0061_u0072_u0064 u0020 u0074_u0068_u0065_u006d_u002c u0020 u0072_u0061_u0074_u0068_u0065_u0072 u0020 u006d_u0065_u006e_u0074_u0069_u006f_u006e_u0020", 
        "u006f_u006e_u0065 u0020 u0074_u0068_u0069_u006e_u0067 u0020 u0061_u0074 u0020 u0061 u0020 u0074_u0069_u006d_u0065 u0020 u0061_u006e_u0064 u0020 u0063_u006f_u0072_u0072_u0065_u0063_u0074 u0020 u0069_u0074_u002e_u000d", 
        "u004d_u0061_u006b_u0065 u0020 u0073_u0075_u0072_u0065 u0020 u0074_u0068_u0065 u0020 u0074_u0069_u006d_u0065 u0020 u0061_u006e_u0064 u0020 u0070_u006c_u0061_u0063_u0065 u0020 u0069_u0073 u0020 u0061_u0070_u0070_u0072_u006f_u0070_u0072_u0069_u0061_u0074_u0065_u002e_u000d", 
        "u0044_u006f_u006e_u2019_u0074 u0020 u006d_u0065_u006e_u0074_u0069_u006f_u006e u0020 u0064_u0065_u0066_u0065_u0063_u0074_u0073 u0020 u0069_u006e u0020 u0066_u0072_u006f_u006e_u0074 u0020 u006f_u0066 u0020 u006f_u0074_u0068_u0065_u0072_u0073 u0020 u0028_u0073_u0074_u0072_u0061_u006e_u0067_u0065_u0072_u0073_u0029_u000d", 
        "u0642_u0627_u0644 u0020 u0627_u0645_u06cc_u0631 u0020 u0627_u0644_u0645_u0648_u0645_u0646_u06cc_u0646 u0020 u0611_u003a u0020 u0646_u064f_u0635_u062d_u064f_u0643_u064e u0020 u0628_u064e_u064a_u0646 u0020 u0627_u0644_u0645_u0644_u0625 u0020 u062a_u064e_u0642_u0631_u064a_u0639_u064c u0020 u005b_u062a_u0641_u0631_u064a_u0639_u200f_u005d u0020 u0028_u063a_u0631_u0631_u0627_u0644_u062d_u0643_u0645_u0029_u000d", 
        "u0009_u0049_u006d_u0061_u006d u0020 u0041_u006c_u0069 u0020 u0028_u0061_u0073_u0029 u0020 u0073_u0061_u0069_u0064_u003a u0020 u0047_u0069_u0076_u0069_u006e_u0067 u0020 u0061_u0064_u0076_u0069_u0063_u0065 u0020 u0069_u006e u0020 u0070_u0075_u0062_u006c_u0069_u0063 u0020 u0069_u0073 u0020 u0064_u0065_u0073_u0074_u0072_u006f_u0079_u0069_u006e_u0067 u0020 u006f_u006e_u0065_u0073 u0020 u0070_u0065_u0072_u0073_u006f_u006e_u0061_u006c_u0069_u0074_u0079_u002e_u000d", 
        "u0042_u0065_u0066_u006f_u0072_u0065 u0020 u0079_u006f_u0075 u0020 u006d_u0065_u006e_u0074_u0069_u006f_u006e u0020 u0073_u006f_u006d_u0065_u006f_u006e_u0065 u0020 u0065_u006c_u0073_u0065_u2019_u0073 u0020 u0064_u0065_u0066_u0065_u0063_u0074_u0073_u002c u0020 u0063_u006f_u0075_u006e_u0074 u0020 u0079_u006f_u0075_u0072 u0020 u006f_u0077_u006e_u0020", 
        "u0073_u0068_u006f_u0072_u0074_u0063_u006f_u006d_u0069_u006e_u0067_u0073 u0020 u006f_u0072 u0020 u0065_u006c_u0073_u0065 u0020 u0069_u0074 u0020 u0077_u006f_u006e_u2019_u0074 u0020 u0068_u0061_u0076_u0065 u0020 u0061_u006e_u0079 u0020 u0065_u0066_u0066_u0065_u0063_u0074_u0073_u002e_u000d", 
        "uf026_u0009_u0642_u0627_u0644 u0020 u0627_u0645_u06cc_u0631 u0020 u0627_u0644_u0645_u0648_u0645_u0646_u06cc_u0646 u0020 u0611_u003a u0020 u0623_u064e_u0643_u0652_u0628_u064e_u0631_u064f u0020 u0627_u0644_u0652_u0639_u064e_u064a_u0652_u0628_u0650 u0020 u0623_u064e_u0646_u0652 u0020 u062a_u064e_u0639_u0650_u064a_u0628_u064e u0020 u0645_u064e_u0627 u0020 u0641_u0650_u064a_u0643_u064e u0020 u0645_u0650_u062b_u0652_u0644_u064f_u0647_u064f u0020 u0028_u0646_u06be_u062c u0020 u0627_u0644_u0628_u0644_u0627_u063a_u06c3_u0020", 
        "u0642_u0635_u0627_u0631_u0033_u0035_u0033_u0029_u000d", 
        "u0009_u0042_u0069_u0067_u0067_u0065_u0073_u0074 u0020 u0076_u0069_u0063_u0065 u0020 u0069_u0073 u0020 u0074_u0068_u0065 u0020 u006f_u006e_u0065 u0020 u0077_u0068_u006f u0020 u0063_u006f_u0075_u006e_u0074_u0073 u0020 u006f_u0074_u0068_u0065_u0072_u0073 u0020 u0064_u0065_u0066_u0065_u0063_u0074_u0073 u0020 u0077_u0068_u0069_u006c_u0065 u0020 u0068_u0065 u0020 u0070_u006f_u0073_u0073_u0065_u0073_u0073_u0065_u0073 u0020 u0074_u0068_u0065_u0020", 
        "u0073_u0061_u006d_u0065 u0020 u0068_u0069_u006d_u0073_u0065_u006c_u0066_u002e_u0020"
    ]
}