{
    "bounding_box": [
        [
            43, 
            35, 
            62, 
            29
        ], 
        [
            494, 
            136, 
            155, 
            31
        ], 
        [
            41, 
            184, 
            608, 
            30
        ], 
        [
            235, 
            215, 
            414, 
            37
        ], 
        [
            41, 
            267, 
            608, 
            31
        ]
    ], 
    "image_height": 540, 
    "image_width": 720, 
    "transcription": [
        "u0627_u0644_u0645_u0647_u0646", 
        "u0034_u0029 u0020 u0627_u0644_u0635_u0646_u0627_u0639_u0629 u0020 u003a_u000d", 
        "u0639_u0645_u0644 u0020 u0628_u0647_u0627 u0020 u0627_u0644_u0633_u0643_u0627_u0646 u0020 u0644_u062a_u0648_u0641_u064a_u0631 u0020 u062d_u0627_u062c_u0627_u062a_u0647_u0645 u0020 u0648_u0634_u0643_u0644_u062a u0020 u0645_u0648_u0631_u062f_u0020", 
        "u0645_u0647_u0645 u0020 u0641_u064a u0020 u0627_u0644_u0627_u0642_u062a_u0635_u0627_u062f u0020 u0645_u0646 u0020 u0623_u0634_u0647_u0631_u0647_u0627 u0020 u003a_u000d", 
        "u0627_u0644_u0633_u064a_u0648_u0641 u0020 u0648_u0627_u0644_u0646_u0633_u064a_u062c u0020 u0648_u0627_u0644_u062d_u062f_u0627_u062f_u0629 u0020 u0648_u0627_u0644_u0635_u064a_u0627_u063a_u0629 u0020 u0648_u0627_u0644_u062c_u0644_u062f_u064a_u0627_u062a_u0020"
    ]
}