{
    "bounding_box": [
        [
            190, 
            51, 
            338, 
            41
        ], 
        [
            83, 
            133, 
            565, 
            34
        ], 
        [
            554, 
            176, 
            94, 
            20
        ], 
        [
            58, 
            222, 
            591, 
            30
        ], 
        [
            465, 
            260, 
            183, 
            30
        ], 
        [
            419, 
            305, 
            230, 
            31
        ], 
        [
            180, 
            347, 
            469, 
            35
        ], 
        [
            257, 
            397, 
            392, 
            29
        ]
    ], 
    "image_height": 540, 
    "image_width": 720, 
    "transcription": [
        "u0645_u0647_u0627_u0631_u0627_u062a u0020 u0627_u0644_u0627_u062a_u0635_u0627_u0644 u0020 u0627_u0644_u0647_u0627_u062a_u0641_u064a", 
        "u0627_u062c_u0645_u0639 u0020 u0643_u0644 u0020 u0627_u0644_u0623_u0648_u0631_u0627_u0642 u0020 u0648 u0020 u0627_u0644_u0645_u0644_u0641_u0627_u062a u0020 u0627_u0644_u062a_u064a u0020 u062a_u062d_u062a_u0627_u062c u0020 u0625_u0644_u064a_u0647_u0627 u0020 u0639_u0646_u062f u0020 u0625_u062c_u0631_u0627_u0621_u0020", 
        "u0627_u0644_u0645_u0643_u0627_u0644_u0645_u0629 u0020 u000d", 
        "u0627_u062c_u0639_u0644 u0020 u0627_u0644_u0647_u062f_u0641 u0020 u0645_u0646 u0020 u0627_u062c_u0631_u0627_u0621 u0020 u0020_u0627_u0644_u0645_u0643_u0627_u0644_u0645_u0629 u0020 u0627_u0644_u0647_u0627_u062a_u0641_u064a_u0629 u0020 u0648_u0627_u0636_u062d u0020 u0641_u064a u0020 u0630_u0647_u0646_u0643 u0020 u0020", 
        "u0639_u0644_u0649 u0020 u0627_u0644_u0646_u062d_u0648 u0020 u0627_u0644_u062a_u0627_u0644_u064a u0020 u000d", 
        "u0647_u0644 u0020 u0627_u0644_u0647_u062f_u0641 u0020 u0647_u0648 u0020 u0627_u0644_u0627_u0642_u0646_u0627_u0639 u0020 u000d", 
        "u0647_u0644 u0020 u0627_u0644_u0647_u062f_u0641 u0020 u0647_u0648 u0020 u0625_u0628_u0644_u0627_u063a u0020 u0645_u0639_u0644_u0648_u0645_u0627_u062a u0020 u0648_u062a_u0648_u0635_u064a_u0644 u0020 u0623_u0641_u0643_u0627_u0631 u0020 u000d", 
        "u0647_u0644 u0020 u0627_u0644_u0647_u062f_u0641 u0020 u0647_u0648 u0020 u0627_u0644_u062d_u0635_u0648_u0644 u0020 u0639_u0644_u0649 u0020 u0645_u0639_u0644_u0648_u0645_u0627_u062a_u0020"
    ]
}