{
    "bounding_box": [
        [
            67, 
            132, 
            581, 
            29
        ], 
        [
            139, 
            165, 
            509, 
            29
        ], 
        [
            58, 
            204, 
            591, 
            29
        ], 
        [
            130, 
            235, 
            519, 
            31
        ], 
        [
            569, 
            277, 
            80, 
            25
        ], 
        [
            43, 
            313, 
            633, 
            32
        ], 
        [
            129, 
            348, 
            519, 
            29
        ], 
        [
            593, 
            389, 
            56, 
            22
        ], 
        [
            403, 
            424, 
            272, 
            29
        ], 
        [
            287, 
            32, 
            150, 
            59
        ]
    ], 
    "image_height": 540, 
    "image_width": 720, 
    "transcription": [
        "u0627_u0644_u0645_u0631_u0634_u062d_u064a_u0646 u0020 u064a_u0639_u062f_u0648_u0646 u0020 u0628_u062a_u0637_u0628_u064a_u0642 u0020 u0627_u0644_u0633_u064a_u0627_u0633_u0627_u062a u0020 u0627_u0644_u062a_u064a u0020 u062a_u0632_u064a_u062f u0020 u0634_u0639_u0628_u064a_u062a_u0647_u0645 u0020 u0648_u062a_u0648_u0633_u0639_u0020", 
        "u0634_u0631_u064a_u062d_u0629 u0020 u0627_u0644_u0645_u0635_u0648_u062a_u064a_u0646 u0020 u0648_u062a_u0632_u064a_u062f u0020 u0641_u0631_u0635_u0647_u0645 u0020 u0641_u064a u0020 u0643_u0633_u0628 u0020 u0627_u0644_u0627_u0646_u062a_u062e_u0627_u0628_u0627_u062a_u000d", 
        "u0627_u0644_u062c_u0645_u064a_u0639 u0020 u064a_u0639_u062f u0020 u0628_u062d_u0644 u0020 u0645_u0634_u0643_u0644_u0627_u062a u0020 u0627_u0644_u0641_u0642_u0631 u0020 u0648_u0627_u0644_u0628_u0637_u0627_u0644_u0629 u0020 u0648_u0627_u0644_u062a_u0639_u0644_u064a_u0645 u0020 u0648_u0631_u0633_u0648_u0645 u0020 u0627_u0644_u062a_u0639_u0644_u064a_u0645_u0020", 
        "u0627_u0644_u0639_u0627_u0644_u064a u0020 u0648_u0627_u0644_u062a_u0623_u0645_u064a_u0646 u0020 u0627_u0644_u0635_u062d_u064a u0020 u0648_u0627_u0644_u0646_u0642_u0644 u0020 u0648_u0627_u0644_u0637_u0627_u0642_u0629 u0020 u0648_u0645_u062d_u0627_u0631_u0628_u0629 u0020 u0627_u0644_u0641_u0633_u0627_u062f_u000d", 
        "u0648_u0644_u0643_u0646_u002e_u002e_u002e_u000d", 
        "u0645_u0646 u0020 u0633_u064a_u062f_u0627_u0641_u0639 u0020 u062d_u0642_u0627 u0020 u0639_u0646 u0020 u0647_u0630_u0647 u0020 u0627_u0644_u0623_u0647_u062f_u0627_u0641 u0020 u0641_u064a u0020 u0627_u0644_u0628_u0631_u0644_u0645_u0627_u0646 u0020 u0623_u0648 u0020 u0641_u064a u0020 u0627_u0644_u062d_u0643_u0648_u0645_u0629_u061f u0020 u0648_u0645_u0646_u0020", 
        "u064a_u0645_u0644_u0643 u0020 u0627_u0644_u0628_u0631_u0646_u0627_u0645_u062c u0020 u0627_u0644_u0648_u0627_u0642_u0639_u064a u0020 u0644_u062a_u0637_u0628_u064a_u0642_u0647_u0627 u0020 u062d_u064a_u0646 u0020 u064a_u0635_u0644 u0020 u0625_u0644_u0649 u0020 u0627_u0644_u0633_u0644_u0637_u0629_u061f_u000d", 
        "u0644_u0630_u0627_u002e_u002e_u002e_u000d", 
        "u062a_u062d_u0642_u0642 u0020 u0648_u0627_u0633_u0623_u0644 u0020 u0648_u062a_u062d_u062f_u0649 u0020 u0645_u0631_u0634_u062d_u0643", 
        "u062a_u0630_u0643_u0631 u0020 u0623_u0646_u003a"
    ]
}