{
    "bounding_box": [
        [
            211, 
            31, 
            285, 
            34
        ], 
        [
            396, 
            94, 
            263, 
            27
        ], 
        [
            540, 
            139, 
            119, 
            30
        ], 
        [
            536, 
            185, 
            123, 
            25
        ], 
        [
            540, 
            233, 
            119, 
            30
        ], 
        [
            409, 
            277, 
            250, 
            29
        ], 
        [
            565, 
            325, 
            94, 
            25
        ]
    ], 
    "image_height": 540, 
    "image_width": 720, 
    "transcription": [
        "u0627_u0644_u0643_u0648_u0631_u0627_u062a u0020 u0644_u062a_u0646_u0645_u064a_u0629 u0020 u0627_u0644_u062a_u0641_u0643_u064a_u0631_u0020", 
        "u0031_u002f u0020 u062a_u0648_u0633_u0639_u0629 u0020 u0645_u062c_u0627_u0644 u0020 u0627_u0644_u0627_u062f_u0631_u0627_u0643 u0020 u000d", 
        "u0032_u002f u0020 u0627_u0644_u062a_u0646_u0638_u064a_u0645 u0020 u000d", 
        "u0033_u002f u0020 u0627_u0644_u062a_u0641_u0627_u0639_u0644 u0020 u000d", 
        "u0034_u002f u0020 u0627_u0644_u0627_u0628_u062f_u0627_u0639 u0020 u000d", 
        "u0035_u002f u0020 u0627_u0644_u0645_u0639_u0644_u0648_u0645_u0627_u062a u0020 u0648_u0627_u0644_u0634_u0639_u0648_u0631 u0020 u000d", 
        "u0036_u002f u0020 u0627_u0644_u0641_u0639_u0644_u0020"
    ]
}