{
    "bounding_box": [
        [
            4, 
            98, 
            715, 
            42
        ], 
        [
            319, 
            145, 
            95, 
            39
        ], 
        [
            117, 
            257, 
            484, 
            42
        ], 
        [
            25, 
            370, 
            659, 
            42
        ], 
        [
            268, 
            420, 
            183, 
            36
        ], 
        [
            322, 
            195, 
            72, 
            63
        ], 
        [
            322, 
            300, 
            72, 
            42
        ], 
        [
            322, 
            484, 
            74, 
            35
        ]
    ], 
    "image_height": 540, 
    "image_width": 720, 
    "transcription": [
        "u0034_u002d u0020 u062c_u0645_u064a_u0639 u0020 u0644_u063a_u0627_u062a u0020 u0627_u0644_u0628_u0631_u0645_u062c_u0629 u0020 u0627_u0644_u0639_u0627_u0644_u064a_u0629 u0020 u0644_u0647_u0627 u0020 u0645_u062a_u0631_u062c_u0645 u0020 u0648_u0627_u062d_u062f u0020 u064a_u0642_u0648_u0645 u0020 u0628_u062a_u062d_u0648_u064a_u0644_u0020", 
        "u0628_u0631_u0627_u0645_u062c_u0647_u0627", 
        "u0035_u002d u0020 u0644_u063a_u0629 u0020 u0627_u0644_u0622_u0644_u0629 u0020 u064a_u0633_u064a_u0631_u0629 u0020 u062c_u062f_u0627 u0020 u0648_u0633_u0647_u0644_u0629 u0020 u0627_u0644_u0627_u0633_u062a_u062e_u062f_u0627_u0645", 
        "u0036_u002d u0020 u064a_u062a_u062d_u0643_u0645 u0020 u0645_u0633_u062a_u062e_u062f_u0645 u0020 u0627_u0644_u0628_u0631_u0646_u0627_u0645_u062c u0020 u0641_u064a u0020 u062a_u0646_u0641_u064a_u0630 u0020 u0645_u0633_u0627_u0631 u0020 u0627_u0644_u0628_u0631_u0646_u0627_u0645_u062c u0020 u0641_u064a_u0020", 
        "u0627_u0644_u0644_u063a_u0627_u062a u0020 u0627_u0644_u0625_u062c_u0631_u0627_u0626_u064a", 
        "u062e_u0637_u0623", 
        "u062e_u0637_u0623", 
        "u0635_u062d"
    ]
}