{
    "bounding_box": [
        [
            254, 
            22, 
            451, 
            31
        ], 
        [
            18, 
            66, 
            688, 
            39
        ], 
        [
            18, 
            106, 
            688, 
            31
        ], 
        [
            18, 
            139, 
            688, 
            31
        ], 
        [
            18, 
            172, 
            688, 
            31
        ], 
        [
            18, 
            204, 
            688, 
            31
        ], 
        [
            18, 
            237, 
            688, 
            31
        ], 
        [
            18, 
            270, 
            688, 
            31
        ], 
        [
            18, 
            302, 
            688, 
            31
        ], 
        [
            18, 
            335, 
            688, 
            31
        ], 
        [
            18, 
            367, 
            688, 
            31
        ], 
        [
            18, 
            400, 
            688, 
            31
        ], 
        [
            18, 
            433, 
            688, 
            31
        ], 
        [
            578, 
            466, 
            127, 
            29
        ]
    ], 
    "image_height": 540, 
    "image_width": 720, 
    "transcription": [
        "u0627_u0644_u0627_u062c_u0645_u0627_u0639 u0020 u0627_u0644_u062f_u0648_u0644_u064a u0020 u062d_u0648_u0644 u0020 u0627_u062a_u0641_u0627_u0642_u064a_u0629 u0020 u062d_u0642_u0648_u0642 u0020 u0627_u0644_u0637_u0641_u0644_u000d", 
        "u062c_u0627_u0621 u0020 u0627_u0639_u062a_u0645_u0627_u062f u0020 u0627_u062a_u0641_u0627_u0642_u064a_u0629 u0020 u062d_u0642_u0648_u0642 u0020 u0627_u0644_u0637_u0641_u0644 u0020 u0628_u0645_u062b_u0627_u0628_u0629 u0020 u062a_u062a_u0648_u064a_u062c u0020 u0644_u0645_u0627 u0020 u064a_u0632_u064a_u062f u0020 u0639_u0644_u0649_u0020", 
        "u0633_u062a_u0629 u0020 u0639_u0642_u0648_u062f u0020 u0645_u0646 u0020 u0627_u0644_u0639_u0645_u0644 u0020 u0639_u0644_u0649 u0020 u062a_u0637_u0648_u064a_u0631 u0020 u0648_u062a_u062f_u0648_u064a_u0646 u0020 u0627_u0644_u0642_u0648_u0627_u0639_u062f u0020 u0627_u0644_u062f_u0648_u0644_u064a_u0629_u0020", 
        "u0627_u0644_u0645_u0639_u0646_u064a_u0629 u0020 u0628_u062d_u0642_u0648_u0642 u0020 u0627_u0644_u0637_u0641_u0644_u002e u0020 u0625_u0630 u0020 u0635_u062f_u0631 u0020 u0625_u0639_u0644_u0627_u0646 u0020 u062c_u0646_u064a_u0641 u0020 u0641_u064a u0020 u0639_u0627_u0645 u0020 u0031_u0039_u0032_u0034_u0020", 
        "u0643_u0623_u0648_u0644 u0020 u0648_u062b_u064a_u0642_u0629 u0020 u062f_u0648_u0644_u064a_u0629 u0020 u062e_u0627_u0635_u0629 u0020 u0628_u062d_u0642_u0648_u0642 u0020 u0627_u0644_u0637_u0641_u0644_u002e u0020 u0648_u062a_u0639_u062f u0020 u0627_u0644_u0627_u062a_u0641_u0627_u0642_u064a_u0629 u0020 u0628_u0645_u062b_u0627_u0628_u0629_u0020", 
        "u0642_u0627_u0626_u0645_u0629 u0020 u0641_u0631_u064a_u062f_u0629 u0020 u0641_u064a u0020 u0634_u0645_u0648_u0644_u0647_u0627 u0020 u0644_u0645_u0639_u0627_u064a_u064a_u0631 u0020 u062d_u0642_u0648_u0642 u0020 u0627_u0644_u0625_u0646_u0633_u0627_u0646 u0020 u0627_u0644_u0645_u062a_u0639_u0644_u0642_u0629_u0020", 
        "u0628_u0627_u0644_u0623_u0637_u0641_u0627_u0644_u002e u0020 u0625_u0630_u0627 u0020 u0641_u0636_u0644_u0627 u0020 u0639_u0646 u0020 u0643_u0648_u0646_u0647_u0627 u0020 u062a_u062a_u0636_u0645_u0646 u0020 u0627_u0644_u062d_u0642_u0648_u0642 u0020 u0627_u0644_u0627_u0642_u062a_u0635_u0627_u062f_u064a_u0629_u0020", 
        "u0648_u0627_u0644_u0627_u062c_u062a_u0645_u0627_u0639_u064a_u0629 u0020 u0648_u0627_u0644_u062b_u0642_u0627_u0641_u064a_u0629 u0020 u0648_u0627_u0644_u0645_u062f_u0646_u064a_u0629 u0020 u0648_u0627_u0644_u0633_u064a_u0627_u0633_u064a_u0629 u0020 u0644_u0644_u0623_u0637_u0641_u0627_u0644_u060c u0020 u0641_u0642_u062f u0020 u0627_u0647_u062a_u0645_u062a_u0020", 
        "u0623_u064a_u0636_u0627 u0020 u0628_u0648_u0636_u0639_u064a_u0629 u0020 u0627_u0644_u0623_u0637_u0641_u0627_u0644 u0020 u0641_u064a u0020 u0627_u0644_u0646_u0632_u0627_u0639_u0627_u062a u0020 u0627_u0644_u0645_u0633_u0644_u062d_u0629 u0020 u0648_u0627_u0644_u0623_u0637_u0641_u0627_u0644_u0020", 
        "u0627_u0644_u0644_u0627_u062c_u0626_u064a_u0646_u002e u0020 u0648_u0642_u062f u0020 u0627_u0639_u062a_u0645_u062f_u062a u0020 u0627_u062a_u0641_u0627_u0642_u064a_u0629 u0020 u062d_u0642_u0648_u0642 u0020 u0627_u0644_u0637_u0641_u0644 u0020 u0641_u064a u0020 u0032_u0030 u0020 u062a_u0634_u0631_u064a_u0646_u0020", 
        "u0627_u0644_u062b_u0627_u0646_u064a_u002f_u0646_u0648_u0641_u0645_u0628_u0631 u0020 u0031_u0039_u0038_u0039_u060c u0020 u0648_u062f_u062e_u0644_u062a u0020 u062d_u064a_u0632 u0020 u0627_u0644_u0646_u0641_u0627_u0630 u0020 u0641_u064a u0020 u0623_u064a_u0644_u0648_u0644_u002f_u0633_u0628_u062a_u0645_u0628_u0631_u0020", 
        "u0031_u0039_u0039_u0030_u060c u0020 u0648_u062a_u062d_u0638_u0649 u0020 u0627_u0644_u0627_u062a_u0641_u0627_u0642_u064a_u0629 u0020 u0628_u0645_u0627 u0020 u064a_u0634_u0628_u0647 u0020 u0627_u0644_u0625_u062c_u0645_u0627_u0639 u0020 u0627_u0644_u0639_u0627_u0644_u0645_u064a u0020 u0641_u0643_u0644 u0020 u062f_u0648_u0644_u0020", 
        "u0627_u0644_u0639_u0627_u0644_u0645 u0020 u0623_u0637_u0631_u0627_u0641_u0627 u0020 u0641_u064a u0020 u0627_u0644_u0627_u062a_u0641_u0627_u0642_u064a_u0629 u0020 u0641_u064a_u0645_u0627 u0020 u0639_u062f_u0627 u0020 u0627_u0644_u0648_u0644_u0627_u064a_u0627_u062a u0020 u0627_u0644_u0645_u062a_u062d_u062f_u0629 u0020 u0627_u0644_u0623_u0645_u0631_u064a_u0643_u064a_u0629_u0020", 
        "u0648_u0627_u0644_u0635_u0648_u0645_u0627_u0644_u002e_u000d"
    ]
}