{
    "bounding_box": [
        [
            305, 
            70, 
            97, 
            43
        ], 
        [
            40, 
            117, 
            631, 
            30
        ], 
        [
            42, 
            153, 
            627, 
            28
        ], 
        [
            68, 
            188, 
            577, 
            26
        ], 
        [
            57, 
            221, 
            598, 
            27
        ], 
        [
            65, 
            254, 
            581, 
            27
        ], 
        [
            44, 
            288, 
            624, 
            27
        ], 
        [
            57, 
            321, 
            597, 
            27
        ], 
        [
            241, 
            356, 
            223, 
            26
        ], 
        [
            283, 
            389, 
            145, 
            25
        ], 
        [
            213, 
            423, 
            272, 
            27
        ], 
        [
            239, 
            456, 
            240, 
            27
        ]
    ], 
    "image_height": 540, 
    "image_width": 720, 
    "transcription": [
        "u0645_u062b_u0627_u0644 u0020 u003a_u000b", 
        "u0628_u0641_u0631_u0636 u0020 u0623_u0646 u0020 u0634_u0631_u0643_u0629 u0020 u0627_u0633_u0645_u0646_u062a u0020 u0627_u0644_u062c_u0632_u064a_u0631_u0629 u0020 u0641_u0643_u0631_u062a u0020 u0641_u064a u0020 u0632_u064a_u0627_u062f_u0629 u0020 u0625_u0646_u062a_u0627_u062c_u0647_u0627 u0020 u002e u0020 u0641_u0627_u062a_u0635_u0644_u062a u0020 u0628_u062f_u0627_u0631_u0020", 
        "u0627_u0633_u062a_u0634_u0627_u0631_u064a_u0647 u0020 u0635_u0645_u0645_u062a u0020 u0644_u0647_u0627 u0020 u0648_u062d_u062f_u0629 u0020 u0627_u0644_u062a_u0635_u0646_u064a_u0639 u0020 u0627_u0644_u0644_u0627_u0632_u0645_u0629 u0020 u0644_u0644_u0632_u064a_u0627_u062f_u0629 u0020 u0627_u0644_u0645_u0642_u062a_u0631_u062d_u0629 u0020 u0641_u064a u0020 u0627_u0644_u0625_u0646_u062a_u0627_u062c_u0020", 
        "u002e u0020 u0648_u0642_u062f u0020 u0643_u0644_u0641_u062a u0020 u0647_u0630_u0647 u0020 u0627_u0644_u0627_u0633_u062a_u0634_u0627_u0631_u0629 u0020 u0028_u0038_u0030_u0030_u0030_u0030_u0030_u0029 u0020 u0631_u064a_u0627_u0644 u0020 u062b_u0645 u0020 u0627_u0631_u0633_u0644_u062a u0020 u0627_u0644_u0645_u0648_u0627_u0635_u0641_u0627_u062a_u0020", 
        "u0644_u0635_u0646_u0627_u0639_u0647 u0020 u0627_u0644_u0648_u062d_u062f_u0647 u0020 u0628_u0639_u0642_u062f u0020 u0628_u0644_u063a u0020 u0028_u0032_u0035_u0030_u0030_u0030_u0030_u0030_u0030_u0029_u0631_u064a_u0627_u0644 u0020 u0648_u0634_u062d_u0646_u062a u0020 u0627_u0644_u0649 u0020 u0627_u0644_u062f_u0645_u0627_u0645 u0020 u0628_u0627_u062c_u0631_u0020", 
        "u0028_u0034_u0030_u0030_u0030_u0030_u0030_u0029 u0020 u0631_u064a_u0627_u0644 u0020 u0648_u0645_u0635_u0631_u0648_u0641_u0627_u062a u0020 u062a_u0627_u0645_u064a_u0646 u0020 u0628_u0644_u063a_u062a u0020 u0028_u0031_u0035_u0030_u0030_u0030_u0030_u0029 u0020 u0631_u064a_u0627_u0644 u0020 u0648_u0628_u0644_u063a_u062a_u0020", 
        "u0645_u0635_u0627_u0631_u064a_u0641 u0020 u0627_u0644_u062a_u062e_u0644_u064a_u0635 u0020 u0627_u0644_u062c_u0645_u0631_u0643_u064a u0020 u0028_u0037_u0035_u0030_u0030_u0030_u0029 u0020 u0631_u064a_u0627_u0644 u0020 u0648_u0642_u062f u0020 u062c_u0647_u0632_u062a u0020 u0627_u0644_u0634_u0631_u0643_u0647 u0020 u0642_u0648_u0627_u0639_u062f_u0020", 
        "u062e_u0627_u0635_u0647 u0020 u0644_u0644_u0627_u0644_u0647 u0020 u0628_u0644_u063a_u062a u0020 u062a_u0643_u0644_u0641_u062a_u0647_u0627 u0020 u0028_u0031_u0035_u0030_u0030_u0030_u0030_u0030_u0029 u0020 u0631_u064a_u0627_u0644 u0020 u002c u0020 u0648_u0639_u0644_u0649 u0020 u0630_u0644_u0643 u0020 u0641_u0627_u0646 u0020 u062a_u0643_u0627_u0644_u064a_u0641_u0020", 
        "u0627_u0644_u0627_u0644_u0647 u0020 u0028_u0032_u0037_u0039_u0032_u0035_u0030_u0030_u0030_u0029_u0631_u064a_u0627_u0644 u0020 u000b", 
        "u0625_u0630_u0646 u0020 u064a_u0643_u0648_u0646 u0020 u0627_u0644_u0642_u064a_u062f u0020 u003a_u000b", 
        "u0032_u0037_u0039_u0032_u0035_u0030_u0030_u0030_u0645_u0646 u0020 u062d u0020 u002f u0020 u0627_u0644_u0645_u0639_u062f_u0627_u062a u0020 u0020_u000b", 
        "u0020_u0032_u0037_u0039_u0032_u0035_u0030_u0030_u0030 u0020 u0627_u0644_u0649 u0020 u062d u0020 u002f u0020 u0627_u0644_u0628_u0646_u0643"
    ]
}