{
    "bounding_box": [
        [
            678, 
            494, 
            10, 
            13
        ], 
        [
            258, 
            52, 
            430, 
            23
        ], 
        [
            378, 
            105, 
            241, 
            13
        ], 
        [
            365, 
            121, 
            254, 
            16
        ], 
        [
            421, 
            141, 
            198, 
            14
        ], 
        [
            400, 
            157, 
            219, 
            16
        ], 
        [
            276, 
            194, 
            370, 
            15
        ], 
        [
            388, 
            211, 
            230, 
            17
        ], 
        [
            270, 
            230, 
            349, 
            16
        ], 
        [
            540, 
            269, 
            106, 
            14
        ], 
        [
            347, 
            285, 
            272, 
            16
        ], 
        [
            411, 
            302, 
            208, 
            17
        ], 
        [
            489, 
            323, 
            130, 
            14
        ], 
        [
            511, 
            341, 
            107, 
            9
        ], 
        [
            337, 
            354, 
            282, 
            16
        ], 
        [
            498, 
            373, 
            121, 
            14
        ], 
        [
            509, 
            391, 
            109, 
            15
        ], 
        [
            544, 
            409, 
            75, 
            15
        ], 
        [
            483, 
            427, 
            136, 
            14
        ]
    ], 
    "image_height": 540, 
    "image_width": 720, 
    "transcription": [
        "u0038", 
        "u0033_u002d u0020 u0627_u0644_u062a_u062c_u0647_u064a_u0632_u0627_u062a u0020 u0648_u0627_u0644_u0645_u0639_u062f_u0627_u062a u0020 u0648_u0631_u0628_u0637 u0020 u0627_u0644_u0634_u0628_u0643_u0629", 
        "u062a_u0645 u0020 u0634_u0631_u0627_u0621 u0020 u0627_u0644_u0623_u062c_u0647_u0632_u0629 u0020 u0648_u0627_u0644_u0628_u0631_u0627_u0645_u062c u0020 u0627_u0644_u0644_u0627_u0632_u0645_u0629 u0020 u0644_u062a_u0637_u0628_u064a_u0642 u0020 u0627_u0644_u0646_u0638_u0627_u0645_u002e_u000d", 
        "u062a_u0645 u0020 u062a_u0631_u0643_u064a_u0628 u0020 u0648_u062a_u0634_u063a_u064a_u0644 u0020 u0627_u0644_u0623_u062c_u0647_u0632_u0629 u0020 u0648_u0627_u0644_u0645_u0639_u062f_u0627_u062a u0020 u0627_u0644_u0644_u0627_u0632_u0645_u0629 u0020 u0644_u0644_u0646_u0638_u0627_u0645 u0020 u002e_u000d", 
        "u062a_u0645 u0020 u062a_u062f_u0631_u064a_u0628 u0020 u0627_u0644_u0645_u0648_u0638_u0641_u064a_u0646 u0020 u0639_u0644_u0649 u0020 u0627_u0633_u062a_u062e_u062f_u0627_u0645 u0020 u0627_u0644_u0646_u0638_u0627_u0645_u002e_u000d", 
        "u0627_u0644_u0645_u062a_u0627_u0628_u0639_u0629 u0020 u0627_u0644_u062f_u0642_u064a_u0642_u0629 u0020 u0627_u0644_u064a_u0648_u0645_u064a_u0629 u0020 u0644_u0622_u0644_u064a_u0629 u0020 u062a_u0646_u0641_u064a_u0630 u0020 u0627_u0644_u0645_u0634_u0631_u0648_u0639_u002e_u000d", 
        "u0634_u0631_u0648_u0637 u0020 u0645_u0631_u062a_u0628_u0637_u0629 u0020 u0648_u0645_u0643_u0645_u0644_u0629 u0020 u062d_u0633_u0628 u0020 u0627_u0644_u0645_u0648_u0627_u0635_u0641_u0627_u062a u0020 u0627_u0644_u0648_u0627_u0631_u062f_u0629 u0020 u0641_u064a u0020 u0642_u0627_u0626_u0645_u0629 u0020 u0627_u0644_u062a_u062c_u0647_u064a_u0632_u0627_u062a u0020 u003a_u000d", 
        "u062a_u0631_u0643_u064a_u0628 u0020 u062c_u0645_u064a_u0639 u0020 u0627_u0644_u0627_u062c_u0647_u0632_u0629 u0020 u0648_u0641_u0642_u0627_u064b u0020 u0644_u0645_u0648_u0627_u0635_u0641_u0627_u062a u0020 u0627_u0644_u062a_u0631_u0643_u064a_u0628_u002e u0020 u000d", 
        "u062a_u0645 u0020 u062a_u062d_u062f_u064a_u062f u0020 u0646_u0648_u0639_u064a_u0629 u0020 u0627_u0644_u0627_u062c_u0647_u0632_u0629 u0020 u0648 u0020 u062a_u0648_u0635_u064a_u0644_u0627_u062a u0020 u0627_u0644_u0634_u0628_u0643_u0629 u0020 u0648_u0627_u0644_u0623_u062b_u0627_u062b u0020 u0627_u0644_u062e_u0627_u0635 u0020 u0628_u0627_u0644_u0623_u0631_u0634_u064a_u0641 u0020 u002e_u000d", 
        "u062d_u064a_u062b u0020 u0627_u0634_u062a_u0645_u0644_u062a u0020 u0639_u0644_u0649 u0020 u003a_u000d", 
        "u062c_u0647_u0627_u0632 u0020 u062d_u0627_u0633_u0628 u0020 u0631_u0626_u064a_u0633_u064a u0020 u062c_u0647_u0627_u0632_u0028 u0020 u062e_u0627_u062f_u0645 u0020 u0644_u0644_u0634_u0628_u0643_u0629 u0020 u0029 u0020 u0020_u0639_u062f_u062f u0020 u0028 u0020 u0034 u0020 u0029 u0020 u002e_u000d", 
        "u0639_u062f_u062f u0020 u0028_u0037_u0030_u0029 u0020 u0020_u0623_u062c_u0647_u0632_u0629 u0020 u062d_u0627_u0633_u0628 u0020 u0622_u0644_u064a u0020 u0028 u0020 u0637_u0631_u0641_u064a_u0627_u062a u0020 u0029 u0020 u000d", 
        "u0645_u0648_u0632_u0639 u0020 u0625_u0650_u0634_u0627_u0631_u0627_u062a u0020 u0053_u0057_u0049_u0054_u0053_u0048_u000d", 
        "u0050_u0041_u0054_u0043_u0048 u0020 u0050_u0041_u004e_u004e_u0041_u004c_u000d", 
        "u0639_u0645_u0644 u0020 u062a_u0645_u062f_u064a_u062f_u0627_u062a u0020 u0644_u0644_u0634_u0628_u0643_u0629 u0020 u0628_u062a_u0648_u0635_u064a_u0644 u0020 u0639_u062f_u062f u0020 u0037_u0030 u0020 u0646_u0642_u0637_u0629 u0020 u0643_u0645_u0631_u062d_u0644_u0629 u0020 u0623_u0648_u0644_u0649_u000d", 
        "u0639_u062f_u062f u0020 u0032_u0030 u0020 u0645_u0627_u0633_u062d_u0629 u0020 u0636_u0648_u0626_u064a_u0629 u0020 u000d", 
        "u0639_u062f_u062f u0020 u0032_u0030 u0020 u0637_u0627_u0628_u0639_u0629 u0020 u0644_u064a_u0632_u0631_u064a_u0629_u000d", 
        "u0639_u062f_u062f u0020 u0031_u0030 u0020 u0637_u0627_u0628_u0639_u0629_u000d", 
        "u062e_u0632_u0627_u0646_u0629 u0020 u0644_u0644_u0645_u0644_u0641_u0627_u062a u0020 u0644_u0639_u062f_u062f u0020 u0032_u0030 u0020 u0645_u0644_u0641"
    ]
}