{
    "bounding_box": [
        [
            147, 
            44, 
            300, 
            20
        ], 
        [
            133, 
            140, 
            423, 
            22
        ], 
        [
            38, 
            193, 
            518, 
            19
        ], 
        [
            274, 
            222, 
            282, 
            16
        ], 
        [
            127, 
            267, 
            429, 
            20
        ], 
        [
            38, 
            317, 
            518, 
            18
        ], 
        [
            402, 
            343, 
            154, 
            17
        ], 
        [
            38, 
            388, 
            518, 
            22
        ], 
        [
            38, 
            419, 
            518, 
            19
        ], 
        [
            339, 
            446, 
            217, 
            17
        ]
    ], 
    "image_height": 540, 
    "image_width": 720, 
    "transcription": [
        "u0627_u0634_u06a9_u0627_u0644_u0627_u062a u0020 u0648_u0627_u0631_u062f u0020 u0628_u0631 u0020 u062a_u0639_u062f_u062f u0020 u0632_u0648_u062c_u0627_u062a u0020 u0648 u0020 u067e_u0627_u0633_u062e u0020 u0628_u0647 u0020 u0622_u0646_u0647_u0627_u003a_u000d", 
        "u0627_u0634_u06a9_u0627_u0644 u0020 u0631_u0648_u062d_u06cc_u003a u0020 u0639_u0634_u0642 u0020 u0642_u0627_u0628_u0644 u0020 u062a_u062c_u0632_u06cc_u0647 u0020 u0648 u0020 u062a_u0641_u06a9_u06cc_u06a9 u0020 u0634_u062f_u0646 u0020 u0646_u06cc_u0633_u062a_u002e_u000d", 
        "u067e_u0627_u0633_u062e u0020 u0031_u0029 u0020 u0639_u0634_u0642 u0020 u0645_u0631_u0628_u0648_u0637 u0020 u0628_u0647 u0020 u0633_u0639_u0647 u0020 u0631_u0648_u062d_u06cc u0020 u0627_u0646_u0633_u0627_u0646 u0020 u0627_u0633_u062a u0020 u0648 u0020 u0627_u0641_u0631_u0627_u062f u0020 u0647_u0645_u0632_u0645_u0627_u0646 u0020 u0645_u06cc u0020 u062a_u0648_u0627_u0646_u0646_u062f_u0020", 
        "u0639_u0627_u0634_u0642 u0020 u0647_u0645_u0633_u0631_u060c u0020 u0641_u0631_u0632_u0646_u062f_u0627_u0646 u0020 u0648 u0020 u0648_u0627_u0644_u062f_u06cc_u0646 u0020 u062e_u0648_u062f u0020 u0628_u0627_u0634_u0646_u062f_u002e_u000d", 
        "u067e_u0627_u0633_u062e u0020 u0032_u0029 u0020 u0647_u0645_u0647 u0020 u0645_u0648_u0627_u0631_u062f u0020 u062a_u0639_u062f_u062f_u0632_u0648_u062c_u0627_u062a_u060c u0020 u0644_u0632_u0648_u0645_u0627 u0020 u062f_u0631 u0020 u0634_u0631_u0627_u06cc_u0637 u0020 u0639_u0627_u0634_u0642_u0627_u0646_u0647 u0020 u0646_u06cc_u0633_u062a_u002e_u000d", 
        "u067e_u0627_u0633_u062e u0020 u0033_u0029 u0020 u062a_u0639_u062f_u062f_u0632_u0648_u062c_u0627_u062a u0020 u0628_u0631_u0627_u06cc u0020 u0634_u0631_u0627_u06cc_u0637 u0020 u062e_u0627_u0635 u0020 u0648 u0020 u0628_u062f_u06cc_u0647_u06cc u0020 u0627_u0633_u062a u0020 u06a9_u0647 u0020 u0631_u0648_u0627_u0628_u0637 u0020 u062f_u0631 u0020 u0627_u0632_u062f_u0648_u0627_u062c_u0020", 
        "u0648_u0627_u062d_u062f_u060c u0020 u0639_u0627_u0634_u0642_u0627_u0646_u0647 u0020 u062a_u0631 u0020 u0628_u0627_u0634_u062f_u002e_u000d", 
        "u067e_u0627_u0633_u062e u0020 u0034_u0029 u0020 u0686_u06af_u0648_u0646_u0647 u0020 u0645_u06cc u0020 u0634_u0648_u062f u0020 u06a9_u0647 u0020 u0632_u0646_u0627_u0646 u0020 u062f_u0631 u0020 u062c_u0648_u0627_u0645_u0639 u0020 u063a_u0631_u0628_u06cc u0020 u0628_u0647 u0020 u0631_u0627_u062d_u062a_u06cc u0020 u067e_u0630_u06cc_u0631_u0641_u062a_u0647 u0020 u0627_u0646_u062f u0020 u06a9_u0647_u0020", 
        "u0647_u0645_u0633_u0631_u0634_u0627_u0646 u0020 u0628_u0627 u0020 u06cc_u06a9 u0020 u06cc_u0627 u0020 u0686_u0646_u062f u0020 u0632_u0646 u0020 u0631_u0648_u0627_u0628_u0637 u0020 u0639_u0627_u0634_u0642_u0627_u0646_u0647 u0020 u0646_u0627_u0645_u0634_u0631_u0648_u0639 u0020 u062f_u0627_u0634_u062a_u0647 u0020 u0628_u0627_u0634_u062f u0020 u0648 u0020 u062f_u0631 u0020 u0639_u06cc_u0646 u0020 u062d_u0627_u0644_u0020", 
        "u0628_u0647 u0020 u0634_u062f_u062a u0020 u0628_u0627 u0020 u062a_u0639_u062f_u062f u0020 u0632_u0648_u062c_u0627_u062a u0020 u0645_u062e_u0627_u0644_u0641_u0646_u062f_u061f_u0021_u0020"
    ]
}