{
    "bounding_box": [
        [
            121, 
            52, 
            477, 
            40
        ], 
        [
            63, 
            133, 
            614, 
            34
        ], 
        [
            36, 
            172, 
            640, 
            31
        ], 
        [
            448, 
            210, 
            228, 
            34
        ], 
        [
            69, 
            256, 
            608, 
            34
        ], 
        [
            582, 
            297, 
            94, 
            27
        ]
    ], 
    "image_height": 540, 
    "image_width": 720, 
    "transcription": [
        "u0627_u0644_u0641_u062d_u0635 u0020 u0627_u0644_u0628_u062f_u0646_u064a u0020 u0648_u0627_u0644_u0633_u0631_u064a_u0631_u064a_u0627_u062a u0020 u002e_u002e_u002e_u062a_u062a_u0645_u0629", 
        "u064a_u0646_u0628_u063a_u064a u0020 u0645_u0631_u0627_u0642_u0628_u0629 u0020 u0627_u0644_u0645_u062a_u0639_u0631_u0636_u064a_u0646 u0020 u0644_u0645_u062f_u0629 u0020 u0032_u0034 u0020 u0633_u0627_u0639_u0629 u0020 u0639_u0644_u0649 u0020 u0627_u0644_u0623_u0642_u0644 u0020 u0628_u0627_u0644_u0646_u0633_u0628_u0629_u0020", 
        "u0644_u0644_u062a_u0639_u0631_u0636 u0020 u0628_u062a_u0631_u0627_u0643_u064a_u0632 u0020 u0647_u0627_u0645_u0629 u0020 u0644_u0644_u0645_u0648_u0627_u062f u0020 u0642_u0644_u064a_u0644_u0629 u0020 u0627_u0644_u0630_u0648_u0628_u0627_u0646 u0020 u0628_u0627_u0644_u0645_u0627_u0621 u0020 u0028_u0643_u0627_u0644_u0641_u0648_u0633_u062c_u064a_u0646_u0020", 
        "u0648_u0623_u0643_u0627_u0633_u064a_u062f u0020 u0627_u0644_u0646_u064a_u062a_u0631_u0648_u062c_u064a_u0646_u0029_u060c_u000d", 
        "u0020_u0648_u062e_u0627_u0635_u0629 u0020 u0641_u064a u0020 u062d_u0627_u0644 u0020 u0646_u0642_u0635 u0020 u0627_u0644_u0639_u0644_u0627_u0645_u0627_u062a u0020 u0627_u0644_u0645_u0628_u0627_u0634_u0631_u0629 u0020 u0648_u062a_u0623_u062e_u0631 u0020 u0627_u0644_u062a_u0641_u0627_u0639_u0644_u0627_u062a_u0020", 
        "u0627_u0644_u0639_u062f_u064a_u062f_u0629_u002e u0020 u000d"
    ]
}