{
    "bounding_box": [
        [
            203, 
            48, 
            322, 
            38
        ], 
        [
            67, 
            82, 
            547, 
            30
        ], 
        [
            67, 
            114, 
            547, 
            30
        ], 
        [
            67, 
            148, 
            547, 
            28
        ], 
        [
            67, 
            179, 
            547, 
            29
        ], 
        [
            74, 
            210, 
            540, 
            27
        ], 
        [
            67, 
            247, 
            547, 
            25
        ], 
        [
            67, 
            275, 
            547, 
            29
        ], 
        [
            67, 
            306, 
            547, 
            30
        ], 
        [
            74, 
            339, 
            540, 
            28
        ], 
        [
            59, 
            369, 
            555, 
            30
        ], 
        [
            202, 
            402, 
            412, 
            29
        ]
    ], 
    "image_height": 540, 
    "image_width": 720, 
    "transcription": [
        "u0644_u063a_u0629 u0020 u0627_u0644_u0625_u062c_u0631_u0627_u0621_u0627_u062a u0020 u0020_u0050_u004c_u002f_u0053_u0051_u004c_u000b", 
        "u0644_u063a_u0629 u0020 u0050_u004c_u002f_u0053_u0051_u004c u0020 u0647_u064a u0020 u0627_u0645_u062a_u062f_u0627_u062f u0020 u0644_u0644_u063a_u0629 u0020 u0053_u0051_u004c u0020 u0020_u0648_u0628_u0645_u0645_u064a_u0632_u0627_u062a u0020 u0644_u063a_u0627_u062a_u0020", 
        "u0627_u0644_u0628_u0631_u0645_u062c_u0629_u002e u0020 u062a_u0639_u0645_u0644 u0020 u0639_u0644_u0649 u0020 u0645_u0639_u0627_u0644_u062c_u0629 u0020 u0627_u0644_u0628_u064a_u0627_u0646_u0627_u062a u0020 u0648_u0639_u0628_u0627_u0631_u0627_u062a u0020 u0627_u0644_u0627_u0633_u062a_u0639_u0644_u0627_u0645_u0020", 
        "u0648_u062a_u062a_u0636_u0645_u0646 u0020 u0648_u062d_u062f_u0627_u062a u0020 u0628_u0631_u0645_u062c_u064a_u0629 u0020 u0648_u0647_u064a u0020 u0627_u0644_u0628_u0631_u0648_u0633_u064a_u062c_u0631 u0020 u002e u0020 u0648_u062a_u0639_u062a_u0628_u0631 u0020 u0627_u0644_u0644_u063a_u0629_u0020", 
        "u0627_u0644_u0628_u0631_u0645_u062c_u064a_u0629 u0020 u0627_u0644_u062e_u0627_u0635_u0629 u0020 u0628_u0646_u0638_u0627_u0645 u0020 u0623_u0648_u0631_u0627_u0643_u0644 u0020 u0648_u0647_u064a u0020 u0623_u062f_u0627_u0629 u0020 u0628_u0631_u0645_u062c_u064a_u0629 u0020 u0642_u0648_u064a_u0629 u0020 u062c_u062f_u0627_u0020", 
        "u0648_u0643_u0644_u0645_u0629 u0020 u0050_u004c_u002f_u0053_u0051_u004c u0020 u0627_u062e_u062a_u0635_u0627_u0631_u0627_u064b u0020 u0644_u0640 u0020 u0028_u0050_u0072_u006f_u0063_u0065_u0064_u0075_u0072_u0065_u0020", 
        "u004c_u0061_u006e_u0067_u0075_u0061_u0067_u0065_u002f u0020 u0053_u0074_u0072_u0075_u0063_u0074_u0075_u0072_u0065 u0020 u0051_u0075_u0065_u0072_u0079 u0020 u004c_u0061_u006e_u0067_u0075_u0061_u0067_u0065 u0020 u0029 u0020 u0020", 
        "u0648_u062a_u0633_u062a_u062e_u062f_u0645 u0020 u0647_u0630_u0647 u0020 u0627_u0644_u0644_u063a_u0629 u0020 u0644_u062a_u062c_u0647_u064a_u0632 u0020 u0646_u0638_u0627_u0645 u0020 u004f_u0072_u0061_u0063_u006c_u0065 u0020 u0641_u064a u0020 u0623_u062f_u0648_u0627_u062a_u0020", 
        "u0627_u0644_u062a_u0637_u0648_u064a_u0631 u0020 u0627_u0644_u0645_u0646_u062a_u062c_u0629 u0020 u0645_u0646 u0020 u0642_u0628_u0644 u0020 u0634_u0631_u0643_u0629 u0020 u004f_u0072_u0061_u0063_u006c_u0065 u0020 u0648_u0647_u064a u0020 u062a_u0639_u062a_u0628_u0631 u0020 u0623_u0633_u0627_u0633_u0020", 
        "u0628_u0631_u0646_u0627_u0645_u062c u0020 u0628_u0646_u0627_u0621 u0020 u0627_u0644_u0646_u0645_u0627_u0630_u062c u0020 u004f_u0072_u0061_u0063_u006c_u0065 u0020 u0046_u006f_u0072_u006d_u0073 u0020 u0648 u0020 u004f_u0072_u0061_u0063_u006c_u0065_u0020", 
        "u0052_u0065_u0070_u006f_u0072_u0074_u0073 u0020 u0648_u062a_u0633_u062a_u062e_u062f_u0645 u0020 u0647_u0630_u0647 u0020 u0627_u0644_u0644_u063a_u0629 u0020 u0623_u064a_u0636_u0627_u064b u0020 u0644_u062a_u0639_u0631_u064a_u0641 u0020 u0646_u0645_u0648_u0630_u062c u0020 u0645_u0627 u0020 u0020", 
        "u0648_u0627_u0644_u0642_u064a_u0627_u0645 u0020 u0628_u0628_u0639_u0636 u0020 u0627_u0644_u062d_u0633_u0627_u0628_u0627_u062a u0020 u0627_u0644_u062e_u0627_u0635_u0629 u0020 u0641_u064a u0020 u0627_u0644_u062a_u0642_u0631_u064a_u0631 u0020 u002e_u000d"
    ]
}