{
    "bounding_box": [
        [
            37, 
            91, 
            630, 
            21
        ], 
        [
            37, 
            127, 
            610, 
            21
        ], 
        [
            37, 
            163, 
            610, 
            22
        ], 
        [
            37, 
            199, 
            610, 
            22
        ], 
        [
            37, 
            235, 
            610, 
            21
        ], 
        [
            37, 
            271, 
            610, 
            20
        ], 
        [
            37, 
            309, 
            610, 
            18
        ], 
        [
            175, 
            343, 
            472, 
            20
        ], 
        [
            37, 
            382, 
            630, 
            21
        ], 
        [
            371, 
            421, 
            276, 
            17
        ]
    ], 
    "image_height": 540, 
    "image_width": 720, 
    "transcription": [
        "u0020 u0020 u0020_u0627_u0645_u0627 u0020 u0633_u0627_u0628_u0642_u0647 u0020 u0627_u06cc_u0646 u0020 u0641_u0631_u0645 u0020 u0645_u0639_u0645_u0627_u0631_u06cc_u060c u0020 u06cc_u0639_u0646_u06cc u0020 u0641_u0631_u0648_u0631_u0641_u062a_u06af_u06cc u0020 u0637_u0627_u0642_u0686_u0647 u0020 u0645_u0627_u0646_u0646_u062f_u06cc u0020 u06a9_u0647 u0020 u062c_u0647_u062a u0020 u0646_u06cc_u0627_u06cc_u0634 u0020 u0631_u0627 u0020 u0645_u0634_u062e_u0635 u0020 u06a9_u0646_u062f u0020 u062f_u0631_u0020", 
        "u0622_u06cc_u06cc_u0646 u0020 u0647_u0627 u0020 u0648 u0020 u0627_u062f_u06cc_u0627_u0646 u0020 u0627_u06cc_u0631_u0627_u0646_u06cc u0020 u067e_u06cc_u0634 u0020 u0627_u0632 u0020 u0627_u0633_u0644_u0627_u0645 u0020 u0646_u06cc_u0632 u0020 u0648_u062c_u0648_u062f u0020 u062f_u0627_u0634_u062a_u0647 u0020 u0627_u0633_u062a_u002e u0020 u0628_u0631_u062e_u06cc u0020 u0628_u0627 u0020 u0627_u0634_u0627_u0631_u0647 u0020 u0628_u0647 u0020 u0646_u062d_u0648_u0647 u0020 u0646_u06af_u0627_u0631_u0634_u0020", 
        "u06a9_u0644_u0645_u0647 u0020 u0645_u0647_u0631_u0627_u0628_u0647 u0020 u0622_u0646 u0020 u0631_u0627 u0020 u0645_u0631_u06a9_u0628 u0020 u0627_u0632 u0020 u062f_u0648 u0020 u062c_u0632_u0621 u0020 u0645_u0647_u0631_u002b u0020 u067e_u0633_u0648_u0646_u062f u0020 u0622_u0628_u0647 u0020 u06a9_u0647 u0020 u0646_u0634_u0627_u0646_u06af_u0631 u0020 u0645_u06a9_u0627_u0646 u0020 u0627_u0633_u062a_u0028_u0622_u0628_u0647 u0020 u0628_u0647 u0020 u0645_u0639_u0646_u06cc u0020 u062c_u0627_u06cc_u0020", 
        "u06af_u0648_u062f u0020 u0627_u0633_u062a_u002e_u0029 u0020 u0648 u0020 u062f_u0631 u0020 u06a9_u0644_u0645_u0627_u062a_u06cc u0020 u0645_u0627_u0646_u0646_u062f u0020 u0633_u0631_u062f_u0627_u0628_u0647 u0020 u0648 u0020 u06af_u0631_u0645_u0627_u0628_u0647 u0020 u0646_u06cc_u0632 u0020 u0628_u0647 u0020 u06a9_u0627_u0631 u0020 u0631_u0641_u062a_u0647 u0020 u0645_u06cc u0020 u062f_u0627_u0646_u0646_u062f u0020 u0648 u0020 u0628_u0646_u0627_u0628_u0631_u0627_u06cc_u0646 u0020 u0645_u0639_u062a_u0642_u062f_u0646_u062f_u060c_u0020", 
        "u0645_u0647_u0631_u0627_u0628_u0647 u0020 u0646_u0634_u0627_u0646_u0647 u0020 u0627_u06cc u0020 u0627_u0633_u062a u0020 u06a9_u0647 u0020 u0627_u0632 u0020 u0622_u06cc_u06cc_u0646 u0020 u0647_u0627_u06cc u0020 u0645_u0647_u0631_u067e_u0631_u0633_u062a_u06cc u0020 u0628_u0647 u0020 u06cc_u0627_u062f_u06af_u0627_u0631 u0020 u0645_u0627_u0646_u062f_u0647 u0020 u0648 u0020 u0628_u0639_u062f_u0647_u0627 u0020 u0686_u0648_u0646 u0020 u0628_u0647 u0020 u06a9_u0627_u0631 u0020 u0645_u0633_u0644_u0645_u0627_u0646_u0627_u0646_u0020", 
        "u0628_u0631_u0627_u06cc u0020 u0646_u0634_u0627_u0646 u0020 u062f_u0627_u062f_u0646 u0020 u0642_u0628_u0644_u0647 u0020 u0645_u06cc u0020 u0622_u0645_u062f_u0647 u0020 u0622_u0646 u0020 u0631_u0627 u0020 u062f_u0631 u0020 u0645_u0639_u0645_u0627_u0631_u06cc u0020 u0645_u0633_u062c_u062f u0020 u0646_u06cc_u0632 u0020 u0628_u0647 u0020 u06a9_u0627_u0631 u0020 u0628_u0631_u062f_u0647 u0020 u0627_u0646_u062f_u002e u0020 u0627_u0645_u0627 u0020 u0628_u0631_u062e_u06cc u0020 u062f_u06cc_u06af_u0631 u0020 u0628_u0627_u0020", 
        "u0627_u06cc_u0646 u0020 u0646_u0638_u0631_u06cc_u0647 u0020 u0645_u062e_u0627_u0644_u0641 u0020 u0647_u0633_u062a_u0646_u062f u0020 u0648 u0020 u0645_u062d_u0631_u0627_u0628 u0020 u0631_u0627 u0020 u06a9_u0644_u0645_u0647 u0020 u0627_u06cc u0020 u0639_u0631_u0628_u06cc u0020 u0648 u0020 u0627_u0632 u0020 u0631_u06cc_u0634_u0647 u0020 u062d_u0631_u0628 u0020 u062f_u0627_u0646_u0633_u062a_u0647 u0020 u0648 u0020 u0628_u0647 u0020 u0645_u0639_u0646_u06cc_u0020", 
        "u062c_u0627_u06cc_u06af_u0627_u0647 u0020 u062c_u0646_u06af u0020 u0648 u0020 u0646_u0628_u0631_u062f u0020 u0645_u0648_u0645_u0646 u0020 u0628_u0627 u0020 u0634_u06cc_u0637_u0627_u0646 u0020 u06cc_u0627 u0020 u0646_u0628_u0631_u062f u0020 u0628_u0627 u0020 u0646_u0641_u0633 u0020 u0627_u0645_u0627_u0631_u0647 u0020 u0642_u0644_u0645_u062f_u0627_u062f u0020 u06a9_u0631_u062f_u0647 u0020 u0627_u0646_u062f_u002e u0020 u000d", 
        "u0020 u0020 u0020 u0020 u0627_u0645_u0627 u0020 u0622_u0646 u0020 u0686_u0647 u0020 u0645_u0633_u0644_u0645 u0020 u0627_u0633_u062a_u060c u0020 u062f_u0631 u0020 u0628_u0633_u06cc_u0627_u0631_u06cc u0020 u0627_u0632 u0020 u0622_u06cc_u06cc_u0646 u0020 u0647_u0627_u06cc u0020 u062f_u06cc_u06af_u0631 u0020 u0646_u06cc_u0632 u0020 u0627_u06cc_u0646 u0020 u0641_u0631_u0645 u0020 u0645_u0639_u0645_u0627_u0631_u06cc u0020 u0628_u0627 u0020 u062a_u063a_u06cc_u06cc_u0631_u0627_u062a u0020 u06cc_u0627_u0020", 
        "u0627_u062e_u062a_u0644_u0627_u0641_u0627_u062a_u06cc u0020 u0628_u0647 u0020 u06a9_u0627_u0631 u0020 u0645_u06cc u0020 u0631_u0641_u062a_u0647 u0020 u06cc_u0627 u0020 u0647_u0646_u0648_u0632 u0020 u0645_u06cc u0020 u0631_u0648_u062f_u002e"
    ]
}