{
    "bounding_box": [
        [
            64, 
            55, 
            594, 
            33
        ], 
        [
            230, 
            93, 
            262, 
            38
        ], 
        [
            23, 
            148, 
            644, 
            28
        ], 
        [
            15, 
            177, 
            652, 
            29
        ], 
        [
            23, 
            210, 
            644, 
            29
        ], 
        [
            23, 
            242, 
            644, 
            29
        ], 
        [
            218, 
            275, 
            448, 
            28
        ]
    ], 
    "image_height": 540, 
    "image_width": 720, 
    "transcription": [
        "u0053_u0074_u0072_u0075_u0063_u0074_u0075_u0072_u0065_u0064 u0020 u0051_u0075_u0065_u0072_u0079 u0020 u0020_u004c_u0061_u006e_u0067_u0075_u0061_u0067_u0065_u0028_u0053_u0051_u004c_u0029_u000b", 
        "u0644_u063a_u0629 u0020 u0627_u0644_u0627_u0633_u062a_u0639_u0644_u0627_u0645 u0020 u0627_u0644_u0645_u0647_u064a_u0643_u0644_u0629_u000b", 
        "u0647_u064a u0020 u0639_u0628_u0627_u0631_u0629 u0020 u0639_u0646 u0020 u062a_u0639_u0644_u064a_u0645_u0627_u062a u0020 u0628_u0631_u0645_u062c_u064a_u0629 u0020 u062a_u0633_u062a_u062e_u062f_u0645 u0020 u0644_u0644_u062a_u0639_u0627_u0645_u0644 u0020 u0645_u0639 u0020 u0642_u0648_u0627_u0639_u062f u0020 u0627_u0644_u0628_u064a_u0627_u0646_u0627_u062a_u0020", 
        "u0648_u0647_u0630_u0647 u0020 u0627_u0644_u0644_u063a_u0629 u0020 u062a_u062f_u0639_u0645 u0020 u0645_u062c_u0645_u0648_u0639_u0629 u0020 u0645_u0646 u0020 u0627_u0644_u0644_u063a_u0627_u062a u0020 u0627_u0644_u0628_u0631_u0645_u062c_u064a_u0629 u0020 u0645_u062b_u0644 u0020 u0043 u0020 u0623_u0648 u0020 u0056_u0042 u0020 u0623_u0648 u0020 u0020", 
        "u004a_u0061_u0076_u0061 u0020 u0648_u063a_u064a_u0631_u0647_u0627 u0020 u0648_u0645_u0646 u0020 u062e_u0644_u0627_u0644_u0647_u0627 u0020 u062a_u0633_u062a_u0637_u064a_u0639 u0020 u0627_u0644_u0648_u0635_u0648_u0644 u0020 u0625_u0644_u0649 u0020 u0627_u0644_u0628_u064a_u0627_u0646_u0627_u062a u0020 u0627_u0644_u0645_u062e_u0632_u0646_u0629_u0020", 
        "u0648_u0625_u062c_u0631_u0627_u0621 u0020 u0020_u0639_u062f_u0629 u0020 u0639_u0645_u0644_u064a_u0627_u062a u0020 u0639_u0644_u064a_u0647_u0627 u0020 u0645_u062b_u0644_u0028 u0020 u0625_u0636_u0627_u0641_u0629 u0020 u060c u0020 u062a_u0639_u062f_u064a_u0644 u0020 u060c u0020 u062d_u0630_u0641 u0020 u0029 u0020 u0641_u064a u0020 u062c_u062f_u0627_u0648_u0644 u0020 u062a_u0645_u0020", 
        "u062a_u0635_u0645_u064a_u0645_u0647_u0627 u0020 u0645_u0646 u0020 u062e_u0644_u0627_u0644 u0020 u0020_u0627_u062d_u062f u0020 u0627_u0644_u062a_u0637_u0628_u064a_u0642_u0627_u062a u0020 u0627_u0644_u062a_u064a u0020 u0646_u0633_u062a_u062e_u062f_u0645_u0647_u0627_u002e"
    ]
}