{
    "bounding_box": [
        [
            419, 
            99, 
            269, 
            36
        ], 
        [
            238, 
            155, 
            448, 
            33
        ], 
        [
            206, 
            202, 
            480, 
            38
        ], 
        [
            149, 
            250, 
            537, 
            39
        ], 
        [
            116, 
            299, 
            570, 
            38
        ], 
        [
            529, 
            347, 
            157, 
            38
        ]
    ], 
    "image_height": 540, 
    "image_width": 720, 
    "transcription": [
        "u0646_u0638_u0631_u064a_u0629 u0020 u062c_u0648_u0646 u0020 u0647_u0648_u0644_u0627_u0646_u062f_u0020", 
        "u064a_u0639_u062a_u0628_u0631 u0020 u062c_u0648_u0646 u0020 u0647_u0648_u0644_u0627_u0646_u062f u0020 u0645_u0646 u0020 u0639_u0644_u0645_u0627_u0621 u0020 u0627_u0644_u0646_u0641_u0633_u0020", 
        "u0627_u0644_u0645_u0634_u0647_u0648_u0631_u064a_u0646 u0020 u060c_u0648_u0642_u062f_u0645 u0020 u0646_u0638_u0631_u064a_u0629 u0020 u0645_u0634_u0647_u0648_u0631_u0629 u0020 u0639_u0646_u0020", 
        "u0627_u0644_u0627_u062e_u062a_u064a_u0627_u0631 u0020 u0627_u0644_u0645_u0647_u0646_u064a u0020 u060c_u0648_u062a_u0639_u062f u0020 u0646_u0638_u0631_u064a_u062a_u0647 u0020 u0641_u064a u0020 u0627_u0644_u0627_u062e_u062a_u064a_u0627_u0631_u0020", 
        "u0627_u0644_u0645_u0647_u0646_u064a u0020 u0627_u0646_u0639_u0643_u0627_u0633_u0627 u0020 u0644_u062a_u064a_u0627_u0631_u064a_u0646 u0020 u0628_u0627_u0631_u0632_u064a_u0646 u0020 u0641_u064a u0020 u0639_u0644_u0645 u0020 u0627_u0644_u0646_u0641_u0633_u0020", 
        "u0627_u0644_u0645_u0647_u0646_u064a u0020 u0647_u0645_u0627 u0020 u003a"
    ]
}