{
    "bounding_box": [
        [
            254, 
            67, 
            417, 
            34
        ], 
        [
            110, 
            113, 
            525, 
            29
        ], 
        [
            83, 
            151, 
            552, 
            29
        ], 
        [
            469, 
            185, 
            167, 
            30
        ], 
        [
            420, 
            228, 
            215, 
            26
        ], 
        [
            186, 
            265, 
            485, 
            31
        ], 
        [
            42, 
            298, 
            629, 
            39
        ], 
        [
            493, 
            338, 
            143, 
            32
        ], 
        [
            41, 
            372, 
            630, 
            37
        ], 
        [
            305, 
            415, 
            330, 
            20
        ], 
        [
            266, 
            13, 
            187, 
            40
        ]
    ], 
    "image_height": 540, 
    "image_width": 720, 
    "transcription": [
        "u064a_u062a_u0643_u0648_u0646 u0020 u0637_u0644_u0628 u0020 u0627_u0644_u0627_u0644_u062a_u062d_u0627_u0642 u0020 u0645_u0646 u0020 u0627_u0644_u0648_u062b_u0627_u0626_u0642 u0020 u0627_u0644_u062a_u0627_u0644_u064a_u0629_u003a_u000d", 
        "u0634_u0647_u0627_u062f_u0629 u0020 u0645_u062f_u0631_u0633_u064a_u0629 u0020 u0028_u0645_u0646 u0020 u0622_u062e_u0631 u0020 u0645_u0624_u0633_u0633_u0629 u0020 u062a_u0627_u0628_u0639 u0020 u0628_u0647_u0627 u0020 u0627_u0644_u062a_u0644_u0645_u064a_u0630 u0020 u062f_u0631_u0627_u0633_u062a_u0647_u0029_u000d", 
        "u0634_u0647_u0627_u062f_u0629 u0020 u0627_u0644_u0645_u063a_u0627_u062f_u0631_u0629 u0020 u0645_u0633_u0644_u0645_u0629 u0020 u0645_u0646 u0020 u0625_u062f_u0627_u0631_u0629 u0020 u0627_u0644_u0633_u062c_u0646 u0020 u0623_u0648 u0020 u0645_u0646 u0020 u0625_u062f_u0627_u0631_u0629 u0020 u0645_u0624_u0633_u0633_u0629_u0020", 
        "u0627_u0644_u062a_u0631_u0628_u064a_u0629 u0020 u0627_u0644_u0645_u062d_u0631_u0648_u0633_u0629_u000d", 
        "u0020_u0646_u0633_u062e_u0629 u0020 u0645_u0646 u0020 u0639_u0642_u062f u0020 u0627_u0644_u0627_u0632_u062f_u064a_u0627_u062f_u000d", 
        "u0034_u002e u0020 u0634_u0647_u0627_u062f_u0629 u0020 u0627_u0644_u0646_u062c_u0627_u062d u0020 u0641_u064a u0020 u0627_u0645_u062a_u062d_u0627_u0646 u0020 u0627_u0644_u0627_u0644_u062a_u062d_u0627_u0642 u0020 u0628_u0627_u0644_u062a_u0639_u0644_u064a_u0645 u0020 u0627_u0644_u062b_u0627_u0646_u0648_u064a_u000d", 
        "u0035_u002e u0020 u0634_u0647_u0627_u062f_u0629 u0020 u0627_u0644_u062a_u0648_u062c_u064a_u0647 u0020 u0625_u0644_u0649 u0020 u0627_u0644_u0633_u0644_u0643 u0020 u0627_u0644_u062b_u0627_u0646_u064a u0020 u0628_u0627_u0644_u0646_u0633_u0628_u0629 u0020 u0644_u062a_u0644_u0627_u0645_u064a_u0630 u0020 u0627_u0644_u0633_u0644_u0643 u0020 u0627_u0644_u062b_u0627_u0646_u064a u0020 u0645_u0646 u0020 u0020_u0020", 
        "u0627_u0644_u062a_u0639_u0644_u064a_u0645 u0020 u0627_u0644_u062b_u0627_u0646_u0648_u064a_u002e_u000d", 
        "u0036_u002e u0020 u0637_u0644_u0628 u0020 u0627_u0644_u0627_u0644_u062a_u062d_u0627_u0642 u0020 u0628_u0627_u0644_u062a_u0639_u0644_u064a_u0645 u0020 u0627_u0644_u0639_u0645_u0648_u0645_u064a u0020 u0645_u0624_u0634_u0631 u0020 u0639_u0644_u064a_u0647 u0020 u0645_u0646 u0020 u0637_u0631_u0641 u0020 u0625_u062f_u0627_u0631_u0629 u0020 u0627_u0644_u0633_u062c_u0646_u0020", 
        "u0623_u0648 u0020 u0625_u062f_u0627_u0631_u0629 u0020 u0645_u0624_u0633_u0633_u0629 u0020 u0627_u0644_u062a_u0631_u0628_u064a_u0629 u0020 u0627_u0644_u0645_u062d_u0631_u0648_u0633_u0629_u002e_u000b", 
        "u0645_u0644_u0641 u0020 u0627_u0644_u0627_u0644_u062a_u062d_u0627_u0642"
    ]
}