{
    "bounding_box": [
        [
            149, 
            44, 
            420, 
            29
        ], 
        [
            282, 
            87, 
            124, 
            27
        ], 
        [
            92, 
            123, 
            497, 
            29
        ], 
        [
            25, 
            159, 
            638, 
            22
        ], 
        [
            25, 
            185, 
            638, 
            21
        ], 
        [
            25, 
            209, 
            638, 
            21
        ], 
        [
            458, 
            234, 
            206, 
            18
        ], 
        [
            329, 
            261, 
            335, 
            21
        ], 
        [
            210, 
            290, 
            453, 
            21
        ], 
        [
            227, 
            320, 
            436, 
            20
        ], 
        [
            346, 
            348, 
            318, 
            20
        ], 
        [
            25, 
            373, 
            638, 
            24
        ], 
        [
            494, 
            402, 
            169, 
            18
        ], 
        [
            252, 
            429, 
            411, 
            21
        ], 
        [
            21, 
            459, 
            642, 
            20
        ]
    ], 
    "image_height": 540, 
    "image_width": 720, 
    "transcription": [
        "u062a_u0627_u0628_u0639 u0020 u003a_u0627_u0644_u0645_u0628_u062d_u062b u0020 u0627_u0644_u062b_u0627_u0646_u064a u0020 u003a_u0627_u0644_u062d_u0631_u064a_u0629 u0020 u0627_u0644_u0627_u0642_u062a_u0635_u0627_u062f_u064a_u0629 u0020 u0627_u0644_u0645_u0642_u064a_u062f_u0629", 
        "u0627_u0644_u0645_u0637_u0644_u0628 u0020 u0627_u0644_u062b_u0627_u0646_u064a_u000d", 
        "u0627_u0644_u062d_u0631_u064a_u0629 u0020 u0627_u0644_u0627_u0642_u062a_u0635_u0627_u062f_u064a_u0629 u0020 u0627_u0644_u0645_u0642_u064a_u062f_u0629 u0020 u0641_u064a u0020 u0627_u0644_u0646_u0638_u0627_u0645 u0020 u0627_u0644_u0627_u0642_u062a_u0635_u0627_u062f_u064a u0020 u0627_u0644_u0625_u0633_u0644_u0627_u0645_u064a u0020 u000d", 
        "u062a_u0648_u0633_u0637 u0020 u0627_u0644_u0646_u0638_u0627_u0645 u0020 u0627_u0644_u0627_u0642_u062a_u0635_u0627_u062f_u064a u0020 u0627_u0644_u0625_u0633_u0644_u0627_u0645_u064a u0020 u0645_u0646 u0020 u0645_u0633_u0623_u0644_u0629 u0020 u0627_u0644_u062d_u0631_u064a_u0629_u060c_u0641_u0623_u0639_u0637_u0649 u0020 u0644_u0644_u0625_u0646_u0633_u0627_u0646 u0020 u0645_u062c_u0627_u0644_u0627_u064b u0020 u0648_u0627_u0633_u0639_u0627_u064b u0020 u064a_u062a_u062d_u0631_u0643 u0020 u0641_u064a_u0647_u0020", 
        "u0628_u0627_u062e_u062a_u064a_u0627_u0631_u0647_u060c_u0644_u064a_u0645_u0627_u0631_u0633 u0020 u0646_u0634_u0627_u0637_u0647 u0020 u0627_u0644_u0627_u0642_u062a_u0635_u0627_u062f_u064a u0020 u060c u0020 u0627_u0644_u0630_u064a u0020 u064a_u062d_u0642_u0642 u0020 u0628_u0647 u0020 u0648_u0638_u064a_u0641_u062a_u0647 u0020 u0639_u0644_u0649 u0020 u0627_u0644_u0623_u0631_u0636_u060c_u0648_u0647_u064a u0020 u062a_u062d_u0642_u064a_u0642 u0020 u0627_u0644_u0639_u0628_u0648_u062f_u064a_u0629 u0020 u0644_u0644_u0647_u0020", 
        "u060c_u0648_u0625_u0639_u0645_u0627_u0631 u0020 u0627_u0644_u0623_u0631_u0636_u060c_u0644_u0647_u0630_u0627 u0020 u0641_u0627_u0644_u062d_u0631_u064a_u0629 u0020 u0627_u0644_u0627_u0642_u062a_u0635_u0627_u062f_u064a_u0629 u0020 u0641_u064a u0020 u0627_u0644_u0646_u0638_u0627_u0645 u0020 u0627_u0644_u0625_u0633_u0644_u0627_u0645_u064a u0020 u0645_u0636_u0628_u0648_u0637_u0629 u0020 u0628_u0636_u0648_u0627_u0628_u0637 u0020 u0634_u0631_u0639_u064a_u0629 u0020 u0645_u0646 u0020 u0623_u062c_u0644_u0020", 
        "u0627_u0644_u0648_u0635_u0648_u0644 u0020 u0625_u0644_u0649 u0020 u062a_u062d_u0642_u064a_u0642 u0020 u0630_u0644_u0643 u0020 u0627_u0644_u0647_u062f_u0641 u0020 u002e_u000d", 
        "u0627_u0644_u0636_u0648_u0627_u0628_u0637 u0020 u0627_u0644_u0634_u0631_u0639_u064a_u0629 u0020 u0627_u0644_u0648_u0627_u0631_u062f_u0629 u0020 u0639_u0644_u0649 u0020 u0627_u0644_u0646_u0634_u0627_u0637 u0020 u0627_u0644_u0627_u0642_u062a_u0635_u0627_u062f_u064a u0020 u003a_u002d_u000d", 
        "u0623_u002d u0020 u062a_u0637_u0628_u064a_u0642 u0020 u0623_u062d_u0643_u0627_u0645 u0020 u0627_u0644_u0625_u0633_u0644_u0627_u0645 u0020 u0641_u064a u0020 u0627_u0644_u062d_u0644_u0627_u0644 u0020 u0648_u0627_u0644_u062d_u0631_u0627_u0645 u0020 u060c u0020 u0648_u0644_u0630_u0644_u0643 u0020 u0635_u0648_u0631 u0020 u0643_u062b_u064a_u0631_u0629 u0020 u060c u0020 u0645_u0646_u0647_u0627 u0020 u003a_u000d", 
        "u0031_u002d u0020 u062a_u062d_u0631_u064a_u0645 u0020 u0625_u0646_u062a_u0627_u062c u0020 u0648_u0627_u0633_u062a_u0647_u0644_u0627_u0643 u0020 u0627_u0644_u0633_u0644_u0639 u0020 u0648_u0627_u0644_u062e_u062f_u0645_u0627_u062a u0020 u0627_u0644_u062e_u0628_u064a_u062b_u0629 u0020 u0627_u0644_u0645_u0636_u0631_u0629 u0020 u0020_u0628_u0627_u0644_u0625_u0646_u0633_u0627_u0646 u0020 u002e_u000d", 
        "u0623_u0647_u0645 u0020 u0627_u0644_u0622_u062b_u0627_u0631 u0020 u0627_u0644_u0627_u064a_u062c_u0627_u0628_u064a_u0629 u0020 u0644_u062a_u0637_u0628_u064a_u0642 u0020 u0642_u064a_u062f u0020 u0028_u0627_u0644_u062d_u0644_u0627_u0644 u0020 u0648_u0627_u0644_u062d_u0631_u0627_u0645 u0020 u0029 u0020 u003a_u000d", 
        "u0623_u0648_u0644_u0627_u064b u0020 u003a_u0627_u0644_u0645_u062d_u0627_u0641_u0638_u0629 u0020 u0639_u0644_u0649 u0020 u0627_u0644_u0636_u0631_u0648_u0631_u064a_u0627_u062a u0020 u0627_u0644_u062a_u064a u0020 u0644_u0627 u0020 u062a_u0633_u062a_u0642_u064a_u0645 u0020 u062d_u064a_u0627_u0629 u0020 u0627_u0644_u0645_u062c_u062a_u0645_u0639 u0020 u0625_u0644_u0627_u0651_u064e u0020 u0628_u0647_u0627 u0020 u060c u0020 u0648_u0647_u064a_u003a u0020 u062d_u0641_u0638 u0020 u0627_u0644_u062f_u064a_u0646 u0020 u060c u0020 u0648_u0627_u0644_u0646_u0641_u0633_u060c_u0020", 
        "u0648_u0627_u0644_u0639_u0642_u0644 u0020 u060c u0020 u0648_u0627_u0644_u0646_u0633_u0644 u0020 u060c u0020 u0648_u0627_u0644_u0645_u0627_u0644 u0020 u002e_u000d", 
        "u062b_u0627_u0646_u064a_u0627_u064b u0020 u003a u0020 u0009_u0632_u064a_u0627_u062f_u0629 u0020 u0631_u0641_u0627_u0647_u064a_u0629 u0020 u0627_u0644_u0645_u062c_u062a_u0645_u0639 u0020 u060c u0020 u0648_u062a_u0645_u062a_u0639_u0647 u0020 u0628_u0627_u0644_u0633_u0644_u0639 u0020 u0648 u0020 u0627_u0644_u062e_u062f_u0645_u0627_u062a u0020 u0627_u0644_u0646_u0627_u0641_u0639_u0629 u0020 u002e_u000d", 
        "u0032_u002d u0020 u062a_u062d_u0631_u064a_u0645 u0020 u0637_u0631_u0642 u0020 u0627_u0644_u0643_u0633_u0628 u0020 u063a_u064a_u0631 u0020 u0627_u0644_u0645_u0634_u0631_u0648_u0639 u0020 u0643_u0627_u0644_u0631_u0628_u0627 u0020 u060c u0020 u0648 u0020 u0627_u0644_u063a_u0631_u0631 u0020 u060c u0020 u0648 u0020 u0627_u0644_u063a_u0634 u0020 u0628_u0623_u0634_u0643_u0627_u0644_u0647 u0020 u0627_u0644_u0645_u062e_u062a_u0644_u0641_u0629 u0020 u0643_u0627_u0644_u0631_u0634_u0648_u0629_u060c u0020 u0648 u0020 u0627_u0644_u062a_u0632_u0648_u064a_u0631 u0020 u000d"
    ]
}