{
    "bounding_box": [
        [
            153, 
            22, 
            343, 
            36
        ], 
        [
            197, 
            78, 
            265, 
            43
        ], 
        [
            452, 
            197, 
            176, 
            22
        ], 
        [
            522, 
            234, 
            106, 
            22
        ], 
        [
            362, 
            335, 
            239, 
            24
        ]
    ], 
    "image_height": 540, 
    "image_width": 720, 
    "transcription": [
        "u0628_u0639_u0636 u0020 u062f_u0644_u0627_u0644_u0627_u062a u0020 u0644_u063a_u0629 u0020 u0627_u0644_u062c_u0633_u062f u0020 u000b", 
        "u0641_u064a u0020 u0627_u0644_u0645_u064a_u062f_u0627_u0646 u0020 u0627_u0644_u062a_u0631_u0628_u0648_u064a_u0020", 
        "u0625_u0639_u0637_u0627_u0621 u0020 u0627_u0644_u0638_u0647_u0631 u0020 u0644_u0644_u062d_u0636_u0648_u0631_u000d", 
        "u0645_u0624_u0634_u0631 u0020 u0639_u0644_u0649 u0020 u061f_u000d", 
        "u062d_u064a_u0646_u0645_u0627 u0020 u062a_u0648_u062f_u0639 u0020 u0637_u0644_u0627_u0628_u0643_u060c u0020 u0645_u0627_u0630_u0627 u0020 u062a_u0635_u0646_u0639_u061f"
    ]
}