{
    "bounding_box": [
        [
            67, 
            32, 
            270, 
            38
        ], 
        [
            291, 
            112, 
            398, 
            25
        ], 
        [
            59, 
            148, 
            623, 
            28
        ], 
        [
            618, 
            182, 
            71, 
            25
        ], 
        [
            246, 
            217, 
            443, 
            27
        ], 
        [
            343, 
            251, 
            346, 
            28
        ], 
        [
            89, 
            289, 
            593, 
            30
        ]
    ], 
    "image_height": 540, 
    "image_width": 720, 
    "transcription": [
        "u0645_u0631_u0627_u062c_u0639_u0629 u0020 u0627_u0644_u062f_u0631_u0633 u0020 u0627_u0644_u0623_u0648_u0644_u0020", 
        "u0031_u002d u0020 u0642_u0627_u0631_u0646 u0020 u0628_u064a_u0646 u0020 u0627_u0644_u0646_u0638_u0631_u064a_u0629 u0020 u0627_u0644_u0639_u0644_u0645_u064a_u0629 u0020 u0648_u0627_u0644_u0642_u0627_u0646_u0648_u0646 u0020 u0627_u0644_u0639_u0644_u0645_u064a u0020 u061f_u000d", 
        "u0627_u0644_u0646_u0638_u0631_u064a_u0629 u0020 u0627_u0644_u0639_u0644_u0645_u064a_u0629 u0020 u003a_u002d u0020 u0645_u062d_u0627_u0648_u0644_u0629 u0020 u0644_u062a_u0641_u0633_u064a_u0631 u0020 u0646_u0645_u0637 u0020 u0645_u0639_u064a_u0646 u0020 u062a_u0645_u062a u0020 u0645_u0644_u0627_u062d_u0638_u062a_u0647 u0020 u0645_u0631_u0627_u0631_u0627 u0020 u0641_u064a u0020 u0627_u0644_u0639_u0627_u0644_u0645_u0020", 
        "u0627_u0644_u0637_u0628_u064a_u0639_u064a_u000d", 
        "u0627_u0644_u0642_u0627_u0646_u0648_u0646 u0020 u0627_u0644_u0639_u0644_u0645_u064a u0020 u003a_u002d u0020 u0642_u0648_u0627_u0639_u062f u0020 u062a_u0635_u0641 u0020 u0646_u0645_u0637 u0020 u0645_u0639_u064a_u0646 u0020 u0641_u064a u0020 u0627_u0644_u0637_u0628_u064a_u0639_u0629_u000d", 
        "u0032_u002d u0020 u0643_u064a_u0641 u0020 u064a_u0645_u0643_u0646 u0020 u0623_u0646 u0020 u062a_u062a_u063a_u064a_u0631 u0020 u0627_u0644_u0646_u0638_u0631_u064a_u0629 u0020 u0627_u0644_u0639_u0644_u0645_u064a_u0629 u0020 u061f_u000d", 
        "u062a_u062a_u063a_u064a_u0631 u0020 u0627_u0644_u0646_u0638_u0631_u064a_u0629 u0020 u0625_u0630_u0627 u0020 u0648_u062c_u062f_u062a u0020 u0628_u064a_u0627_u0646_u0627_u062a u0020 u0623_u0648 u0020 u0645_u0639_u0644_u0648_u0645_u0627_u062a u0020 u062c_u062f_u064a_u062f_u0629 u0020 u062a_u062a_u0639_u0627_u0631_u0636 u0020 u0645_u0639 u0020 u0627_u0644_u0646_u0638_u0631_u064a_u0629_u0020"
    ]
}