{
    "bounding_box": [
        [
            33, 
            83, 
            38, 
            16
        ], 
        [
            33, 
            103, 
            36, 
            16
        ], 
        [
            33, 
            149, 
            30, 
            13
        ], 
        [
            28, 
            170, 
            83, 
            16
        ], 
        [
            28, 
            189, 
            124, 
            18
        ], 
        [
            28, 
            211, 
            151, 
            17
        ], 
        [
            33, 
            231, 
            133, 
            18
        ], 
        [
            33, 
            277, 
            49, 
            13
        ], 
        [
            28, 
            295, 
            218, 
            19
        ], 
        [
            28, 
            318, 
            132, 
            17
        ], 
        [
            28, 
            336, 
            205, 
            20
        ], 
        [
            28, 
            359, 
            185, 
            18
        ], 
        [
            33, 
            385, 
            49, 
            13
        ], 
        [
            28, 
            405, 
            87, 
            16
        ], 
        [
            28, 
            426, 
            89, 
            17
        ], 
        [
            33, 
            470, 
            43, 
            13
        ], 
        [
            28, 
            492, 
            313, 
            17
        ], 
        [
            472, 
            104, 
            85, 
            13
        ], 
        [
            467, 
            124, 
            166, 
            18
        ], 
        [
            467, 
            146, 
            252, 
            18
        ], 
        [
            472, 
            187, 
            73, 
            13
        ], 
        [
            467, 
            208, 
            216, 
            16
        ], 
        [
            467, 
            229, 
            125, 
            17
        ], 
        [
            472, 
            250, 
            123, 
            17
        ], 
        [
            472, 
            295, 
            43, 
            14
        ], 
        [
            467, 
            317, 
            216, 
            16
        ], 
        [
            467, 
            338, 
            125, 
            17
        ], 
        [
            467, 
            358, 
            100, 
            17
        ], 
        [
            519, 
            47, 
            367, 
            36
        ]
    ], 
    "image_height": 540, 
    "image_width": 960, 
    "transcription": [
        "u0046_u0065_u0072_u0079_u000d", 
        "u0627_u0644_u0627_u062f_u0627_u0631_u0629_u000d", 
        "u0045_u0076_u0061_u000d", 
        "u0627_u0644_u0645_u0639_u0627_u0644_u062c u0020 u0627_u0644_u0646_u0641_u0633_u064a u0020 u000d", 
        "u062a_u0646_u0638_u064a_u0645 u0020 u0639_u0645_u0644 u0020 u0627_u0644_u0645_u0633_u0627_u0639_u062f_u064a_u0646 u0020 u000d", 
        "u062a_u0646_u0638_u064a_u0645 u0020 u062f_u0631_u0648_u0633 u0020 u0627_u0644_u0644_u063a_u0629 u0020 u0627_u0644_u0627_u0644_u0645_u0627_u0646_u064a u0020 u000d", 
        "u0631_u0626_u064a_u0633_u0629 u0020 u0645_u062c_u0645_u0648_u0639_u0629 u0020 u0627_u0644_u0627_u0646_u062f_u0645_u0627_u062c_u000d", 
        "u0044_u0061_u0076_u0069_u0064_u000d", 
        "u0645_u0633_u0624_u0648_u0644 u0020 u062a_u0646_u0638_u064a_u0645 u0020 u0627_u0644_u0627_u0645_u0648_u0631 u0020 u0627_u0644_u0645_u062a_u0639_u0644_u0642_u0629 u0020 u0628_u0627_u0644_u0644_u0627_u062c_u0626_u064a_u0646 u0020 u000d", 
        "u0627_u0644_u0645_u0646_u0633_u0642 u0020 u0645_u0639 u0020 u0645_u0643_u062a_u0628 u0020 u0627_u0644_u0639_u0645_u0644 u0020 u000d", 
        "u0645_u0631_u0627_u0641_u0642_u0629 u0020 u0627_u0644_u0644_u0627_u062c_u0626_u064a_u0646 u0020 u0641_u064a u0020 u0645_u0642_u0627_u0628_u0644_u0627_u062a u0020 u0627_u0644_u0645_u062d_u0643_u0645_u0629 u0020 u000d", 
        "u0645_u0646_u0638_u0645 u0020 u0627_u0644_u0639_u0644_u0627_u0642_u0627_u062a u0020 u0645_u0639 u0020 u0627_u0644_u062f_u0648_u0627_u0626_u0631 u0020 u0627_u0644_u0645_u0639_u0646_u064a_u0629 u0020 u000d", 
        "u0048_u0065_u0072_u006d_u0069_u000d", 
        "u0645_u0633_u0624_u0648_u0644 u0020 u0627_u0644_u0645_u0643_u062a_u0628 u0020 u000d", 
        "u0627_u0644_u0645_u0633_u0624_u0648_u0644 u0020 u0627_u0644_u0645_u0627_u0644_u064a u0020 u000d", 
        "u0053_u0074_u0065_u0066_u0066_u0069_u000d", 
        "u062a_u0639_u0645_u0644 u0020 u0641_u064a u0020 u062f_u0648_u0631_u0633 u0020 u0627_u0644_u0644_u063a_u0629 u0020 u0627_u0644_u0627_u0644_u0645_u0627_u0646_u064a_u0629 u0020 u0648_u0639_u0636_u0648 u0020 u0645_u062c_u0645_u0648_u0639_u0629 u0020 u0627_u0644_u0627_u0646_u062f_u0645_u0627_u062c u0020 u000d", 
        "u0056_u0061_u006c_u0065_u006e_u0074_u0069_u006e u0020 u000d", 
        "u062a_u0646_u0638_u064a_u0645 u0020 u0645_u062a_u0639_u0644_u0642_u0627_u062a u0020 u0627_u0644_u0645_u0642_u0631 u0020 u0627_u0644_u0631_u0626_u064a_u0633_u064a u0020 u000d", 
        "u062a_u0648_u0635_u064a_u0644 u0020 u0627_u0644_u063a_u0630_u0627_u0621 u0020 u0648_u0637_u0644_u0628_u0627_u062a u0020 u0627_u0644_u0644_u0627_u062c_u0626_u064a_u0646 u0020 u0627_u0644_u0649 u0020 u0645_u0633_u0627_u0643_u0646_u0647_u0645 u0020 u000d", 
        "u0059_u0061_u0073_u0065_u0065_u006e_u000d", 
        "u062a_u0631_u062c_u0645_u0629 u0020 u0645_u0646 u0020 u0627_u0644_u0644_u063a_u0629 u0020 u0627_u0644_u0639_u0631_u0628_u064a_u0629 u0020 u0627_u0644_u0649 u0020 u0627_u0644_u0627_u0646_u0643_u0644_u064a_u0632_u064a_u0629 u0020 u000d", 
        "u0627_u0644_u062a_u0648_u0627_u0635_u0644 u0020 u0645_u0639 u0020 u0627_u0644_u0644_u0627_u062c_u0626_u064a_u0646 u0020 u000d", 
        "u0627_u0644_u0646_u0634_u0631 u0020 u0641_u064a u0020 u0627_u0644_u0641_u064a_u0633 u0020 u0627_u0644_u0628_u0648_u0643_u000d", 
        "u004f_u0066_u0061_u0069_u000d", 
        "u062a_u0631_u062c_u0645_u0629 u0020 u0645_u0646 u0020 u0627_u0644_u0644_u063a_u0629 u0020 u0627_u0644_u0639_u0631_u0628_u064a_u0629 u0020 u0627_u0644_u0649 u0020 u0627_u0644_u0627_u0646_u0643_u0644_u064a_u0632_u064a_u0629 u0020 u000d", 
        "u0627_u0644_u062a_u0648_u0627_u0635_u0644 u0020 u0645_u0639 u0020 u0627_u0644_u0644_u0627_u062c_u0626_u064a_u0646 u0020 u000d", 
        "u0628_u0631_u0645_u062c_u0629 u0020 u0627_u0644_u062d_u0627_u0633_u0628_u0627_u062a u0020 u000d", 
        "u0645_u0646 u0020 u0627_u0644_u062c_u0647_u0629 u0020 u0627_u0644_u0645_u0634_u0631_u0641_u0629 u0020 u0639_u0644_u0649 u0020 u0627_u0644_u0645_u0646_u0638_u0645_u0629_u0020"
    ]
}