{
    "bounding_box": [
        [
            477, 
            84, 
            326, 
            34
        ], 
        [
            85, 
            188, 
            718, 
            24
        ], 
        [
            599, 
            215, 
            185, 
            23
        ], 
        [
            55, 
            249, 
            747, 
            25
        ], 
        [
            82, 
            276, 
            703, 
            24
        ], 
        [
            295, 
            303, 
            490, 
            23
        ], 
        [
            623, 
            337, 
            179, 
            20
        ], 
        [
            522, 
            375, 
            280, 
            18
        ], 
        [
            888, 
            90, 
            40, 
            26
        ]
    ], 
    "image_height": 540, 
    "image_width": 960, 
    "transcription": [
        "u062a_u0643_u0648_u064a_u0646 u0020 u0641_u0631_u064a_u0642 u0020 u0627_u0644_u0639_u0645_u0644 u0020 u0648_u062a_u0637_u0648_u064a_u0631_u0647_u0020", 
        "u062a_u0639_u0631_u0641 u0020 u0627_u0644_u0642_u064a_u0627_u062f_u0629 u0020 u0623_u062d_u064a_u0627_u0646_u0627 u0020 u0628_u0623_u0646_u0647_u0627 u0020 u062c_u0639_u0644 u0020 u0627_u0644_u0623_u0634_u062e_u0627_u0635 u0020 u0627_u0644_u0622_u062e_u0631_u064a_u0646 u0020 u064a_u0646_u0641_u0630_u0648_u0646 u0020 u0645_u0627_u062a_u0631_u064a_u062f u0020 u0623_u0646 u0020 u062a_u0646_u0641_u0630_u0647 u0020 u0644_u0623_u0646_u0647_u0645 u0020 u064a_u0631_u064a_u062f_u0648_u0646 u0020 u0630_u0644_u0643 u0020 u002e_u0020", 
        "u0648_u0644_u0643_u0646_u0646_u064a u0020 u0644_u0627 u0020 u0623_u062a_u0641_u0642 u0020 u0645_u0639 u0020 u0630_u0644_u0643 u0020 u000d", 
        "u0009_u0625_u0630_u0627 u0020 u0643_u0627_u0646_u062a u0020 u0647_u0630_u0647 u0020 u0647_u064a u0020 u0645_u0647_u0645_u062a_u0643 u0020 u060c u0020 u0644_u0645_u0627_u0630_u0627 u0020 u064a_u0633_u0627_u0639_u062f_u0643 u0020 u0623_u062d_u062f u0020 u0641_u064a u0020 u0627_u0646_u062c_u0627_u0632_u0647_u0627 u0020 u061f u0020 u0628_u0644 u0020 u064a_u062c_u0628 u0020 u0623_u0646 u0020 u062a_u0643_u0648_u0646 u0020 u0627_u0644_u0645_u0647_u0645_u0629 u0020 u0645_u0634_u062a_u0631_u0643_u0629 u0020 u060c_u0020", 
        "u0623_u064a u0020 u0645_u0647_u0645_u0629 u0020 u064a_u0645_u0643_u0646 u0020 u0644_u0623_u064a u0020 u0634_u062e_u0635 u0020 u0641_u064a u0020 u0627_u0644_u0645_u062c_u0645_u0648_u0639_u0629 u0020 u0627_u0644_u0645_u0634_u0627_u0631_u0643_u0629 u0020 u0641_u064a_u0647_u0627 u0020 u0644_u0623_u0646_u0647_u0645 u0020 u064a_u0631_u0648_u0646 u0020 u0623_u0646_u0647_u0627 u0020 u0630_u0627_u062a u0020 u0642_u064a_u0645_u0629 u0020 u0628_u0627_u0644_u0646_u0633_u0628_u0629_u0020", 
        "u0644_u0644_u0634_u0631_u0643_u0629 u0020 u060c u0020 u0623_u0648 u0020 u0644_u0644_u0645_u062c_u062a_u0645_u0639 u0020 u2013_u0648_u0644_u0623_u0646_u0641_u0633_u0647_u0645 u0020 u0628_u0634_u0643_u0644 u0020 u0645_u0628_u0627_u0634_u0631 u0020 u0623_u0648 u0020 u063a_u064a_u0631 u0020 u0645_u0628_u0627_u0634_u0631 u0020 u201d_u000d", 
        "u062c_u0648_u0646 u0020 u0623_u062f_u0627_u064a_u0631 u0020 u060c u0020 u0627_u0644_u0642_u064a_u0627_u062f_u0629 u0020 u0627_u0644_u0641_u0639_u0627_u0644_u0629 u0020 u000d", 
        "u0047_u006f_u0077_u0065_u0072 u0020 u002c u0020 u0045_u0066_u0066_u0065_u0063_u0074_u0069_u0076_u0065 u0020 u004c_u0065_u0061_u0064_u0065_u0072_u0073_u0068_u0069_u0070_u0020", 
        "u0033_u0033"
    ]
}