{
    "bounding_box": [
        [
            67, 
            65, 
            560, 
            37
        ], 
        [
            375, 
            145, 
            238, 
            42
        ], 
        [
            360, 
            208, 
            253, 
            38
        ], 
        [
            484, 
            272, 
            129, 
            38
        ]
    ], 
    "image_height": 540, 
    "image_width": 720, 
    "transcription": [
        "u0627_u0644_u0634_u0645_u0627_u0639_u0627_u062a u0020 u0627_u0644_u062a_u064a u0020 u064a_u0639_u0644_u0642 u0020 u0639_u0644_u064a_u0647_u0627 u0020 u0627_u0644_u0637_u0627_u0644_u0628 u0020 u0627_u0633_u0628_u0627_u0628 u0020 u0641_u0634_u0644_u0647 u0020 u003a", 
        "u0627_u0644_u0645_u0646_u0627_u0647_u062c u0020 u0627_u0644_u062f_u0631_u0627_u0633_u064a_u0647_u000d", 
        "u0627_u0645_u0643_u0627_u0646_u064a_u0627_u062a u0020 u0627_u0644_u0645_u062f_u0631_u0633_u0647_u000d", 
        "u0627_u0644_u0645_u062f_u0631_u0633_u064a_u0646"
    ]
}