{
    "bounding_box": [
        [
            352, 
            83, 
            451, 
            35
        ], 
        [
            719, 
            189, 
            84, 
            22
        ], 
        [
            334, 
            223, 
            468, 
            25
        ], 
        [
            678, 
            262, 
            124, 
            20
        ], 
        [
            502, 
            298, 
            301, 
            21
        ]
    ], 
    "image_height": 540, 
    "image_width": 960, 
    "transcription": [
        "u0627_u0644_u0642_u0627_u0626_u062f u0020 u0627_u0644_u0641_u0639_u0627_u0644 u0020 u062e_u0644_u0642 u0020 u0631_u0624_u064a_u0629 u0020 u0645_u0644_u0647_u0645_u0629 u0020 u0644_u0644_u0645_u0633_u062a_u0642_u0628_u0644", 
        "u062e_u0644_u0642 u0020 u0631_u0624_u064a_u0629_u000d", 
        "u0627_u0644_u062a_u0631_u0643_u064a_u0632 u0020 u0639_u0644_u0649 u0020 u0646_u0642_u0627_u0637 u0020 u0627_u0644_u0642_u0648_u0629 u0020 u0644_u0642_u0627_u062f_u0629 u0020 u0627_u0644_u0645_u0624_u0633_u0633_u0629 u0020 u0628_u0627_u0633_u062a_u062e_u062f_u0627_u0645 u0020 u0623_u062f_u0648_u0627_u062a u0020 u0645_u062b_u0644 u0020 u000d", 
        "u062a_u062d_u0644_u064a_u0644 u0020 u0020_u0050_u0045_u0053_u0054_u000d", 
        "u062a_u062d_u0644_u064a_u0644 u0020 u0053_u0057_u004f_u0054 u0020 u0644_u062a_u062d_u0644_u064a_u0644 u0020 u0648_u0636_u0639_u0647_u0645 u0020 u0627_u0644_u062d_u0627_u0644_u064a_u002e"
    ]
}