{
    "bounding_box": [
        [
            236, 
            45, 
            246, 
            42
        ], 
        [
            340, 
            130, 
            309, 
            27
        ], 
        [
            325, 
            166, 
            350, 
            24
        ], 
        [
            419, 
            197, 
            230, 
            29
        ], 
        [
            286, 
            236, 
            390, 
            26
        ], 
        [
            493, 
            275, 
            183, 
            24
        ], 
        [
            514, 
            312, 
            162, 
            26
        ], 
        [
            27, 
            348, 
            648, 
            27
        ], 
        [
            343, 
            410, 
            305, 
            27
        ], 
        [
            54, 
            446, 
            622, 
            29
        ]
    ], 
    "image_height": 540, 
    "image_width": 720, 
    "transcription": [
        "u0627_u0644_u0639_u0644_u0627_u0642_u0627_u062a u0020 u0627_u0644_u0625_u0646_u0633_u0627_u0646_u064a_u0629", 
        "u0645_u0627 u0020 u0627_u0644_u0645_u0642_u0635_u0648_u062f u0020 u0628_u0627_u0644_u0639_u0644_u0627_u0642_u0627_u062a u0020 u0627_u0644_u0625_u0646_u0633_u0627_u0646_u064a_u0629 u0020 u061f_u002e_u000d", 
        "u0020 u0020 u0020 u0020 u062a_u0641_u0627_u0639_u0644 u0020 u0648_u062a_u0635_u0631_u0641_u0627_u062a u0020 u0627_u0644_u0646_u0627_u0633 u0020 u0645_u0639 u0020 u0628_u0639_u0636_u0647_u0645 u0020 u0627_u0644_u0628_u0639_u0636_u000d", 
        "u0623_u0647_u0645_u064a_u0629 u0020 u0627_u0644_u0639_u0644_u0627_u0642_u0627_u062a u0020 u0627_u0644_u0625_u0646_u0633_u0627_u0646_u064a_u0629_u002e_u000d", 
        "u062a_u0648_u0641_u064a_u0631 u0020 u062c_u0648 u0020 u0645_u0646_u0627_u0633_u0628 u0020 u0644_u0627_u062a_u0635_u0627_u0644_u0627_u062a u0020 u0628_u0634_u0631_u064a_u0629 u0020 u0625_u064a_u062c_u0627_u0628_u064a_u0629 u0020 u000d", 
        "u062a_u0639_u0627_u0648_u0646 u0020 u0648_u062a_u062c_u0627_u0648_u0628 u0020 u0627_u0643_u062b_u0631_u000d", 
        "u062a_u0642_u0644_u064a_u0644 u0020 u0633_u0648_u0621 u0020 u0627_u0644_u0641_u0647_u0645 u0020 u000d", 
        "u064a_u062b_u0645_u0631 u0020 u0639_u0646_u0647 u0020 u0639_u0645_u0644 u0020 u062c_u0645_u0627_u0639_u064a u0020 u064a_u0624_u062f_u064a u0020 u0627_u0644_u0649 u0020 u0646_u062c_u0627_u062d u0020 u0645_u062a_u0643_u0627_u0645_u0644 u0020 u0641_u064a u0020 u062c_u0645_u064a_u0639 u0020 u062c_u0648_u0627_u0646_u0628 u0020 u0627_u0644_u062d_u064a_u0627_u0629 u0020 u0020_u000d", 
        "u0644_u0645_u0627_u0630_u0627 u0020 u064a_u062e_u062a_u0644_u0641 u0020 u0627_u0644_u0646_u0627_u0633 u0020 u0639_u0646 u0020 u0628_u0639_u0636_u0647_u0645 u0020 u061f_u002e_u000d", 
        "u0627_u0644_u062b_u0642_u0627_u0641_u0629 u0020 u002f u0020 u0627_u0644_u0628_u064a_u0626_u0629 u0020 u002f u0020 u0627_u0644_u0628_u0631_u0627_u0645_u062c u0020 u0627_u0644_u0639_u0642_u0644_u064a_u0629 u0020 u002f u0020 u0627_u0644_u0627_u0646_u0638_u0645_u0629 u0020 u0627_u0644_u062a_u0645_u062b_u064a_u0644_u064a_u0629 u0020 u002f u0020 u0627_u0644_u0645_u0639_u062a_u0642_u062f_u0627_u062a u0020 u002f u0020 u0627_u0644_u0642_u064a_u0645"
    ]
}