{
    "bounding_box": [
        [
            257, 
            22, 
            205, 
            44
        ], 
        [
            510, 
            127, 
            154, 
            29
        ], 
        [
            569, 
            168, 
            95, 
            25
        ], 
        [
            402, 
            208, 
            262, 
            26
        ], 
        [
            481, 
            250, 
            183, 
            25
        ], 
        [
            462, 
            291, 
            202, 
            27
        ]
    ], 
    "image_height": 540, 
    "image_width": 720, 
    "transcription": [
        "u0633_u0646_u0646 u0020 u0627_u0644_u0635_u0644_u0627_u0629", 
        "u0642_u0628_u0644 u0020 u0627_u0644_u0635_u0644_u0627_u0629 u0020 u0647_u064a u0020 u003a_u000d", 
        "u0031_u002d_u0627_u0644_u0627_u0630_u0627_u0646 u0020 u002e_u000d", 
        "u0032_u002d_u0627_u0644_u0627_u0642_u0627_u0645_u0629 u0020 u002e_u0627_u062a_u062e_u0627_u0630 u0020 u0633_u062a_u0631_u0629 u0020 u0627_u0645_u0627_u0645_u0647_u002e_u000d", 
        "u0627_u0644_u0633_u0646_u0646 u0020 u0627_u062b_u0646_u0627_u0621 u0020 u0627_u0644_u0635_u0644_u0627_u0629_u003a_u000d", 
        "u0647_u064a u0020 u0627_u0644_u0627_u0628_u0639_u0627_u0636 u0020 u0648_u0627_u0644_u0647_u064a_u0626_u0627_u062a_u002e"
    ]
}