{
    "bounding_box": [
        [
            392, 
            50, 
            302, 
            36
        ], 
        [
            606, 
            94, 
            89, 
            30
        ], 
        [
            199, 
            124, 
            477, 
            18
        ]
    ], 
    "image_height": 540, 
    "image_width": 720, 
    "transcription": [
        "u002a_u002a u0020 u0627_u0643_u062a_u0634_u0627_u0641 u0020 u0645_u0642_u0628_u0631_u0629 u0020 u0644_u0644_u0639_u0645_u0627_u0644 u0020 u0628_u0646_u0627_u0629_u0020", 
        "u0627_u0644_u0627_u0647_u0631_u0627_u0645 u0020 u003a", 
        "u0641_u064a u0020 u0627_u063a_u0633_u0637_u0633 u0020 u0031_u0039_u0039_u0030 u0020 u0627_u0643_u062a_u0634_u0627_u0641 u0020 u0645_u0642_u0628_u0631_u0629 u0020 u0644_u0628_u0646_u0627_u0629 u0020 u0627_u0644_u0627_u0647_u0631_u0627_u0645 u0020 u0639_u0646_u062f u0020 u0627_u0647_u0631_u0627_u0645 u0020 u0627_u0644_u062c_u064a_u0632_u0647"
    ]
}