{
    "bounding_box": [
        [
            281, 
            44, 
            391, 
            38
        ], 
        [
            83, 
            154, 
            205, 
            18
        ], 
        [
            83, 
            199, 
            41, 
            2
        ], 
        [
            83, 
            214, 
            137, 
            16
        ], 
        [
            83, 
            257, 
            41, 
            2
        ], 
        [
            83, 
            270, 
            234, 
            17
        ], 
        [
            83, 
            313, 
            41, 
            3
        ], 
        [
            83, 
            329, 
            137, 
            16
        ], 
        [
            83, 
            372, 
            41, 
            2
        ], 
        [
            83, 
            386, 
            47, 
            17
        ], 
        [
            83, 
            420, 
            34, 
            14
        ], 
        [
            83, 
            438, 
            71, 
            26
        ]
    ], 
    "image_height": 540, 
    "image_width": 720, 
    "transcription": [
        "u0635_u064a_u063a_u0629 u0020 u0028_u0049_u0046_u002d_u0054_u0048_u0045_u004e_u002d_u0045_u004c_u0053_u0045_u0049_u0046 u0020 u0020_u0029_u0020", 
        "u0049_u0046 u0020 u0063_u006f_u006e_u0064_u0069_u0074_u0069_u006f_u006e u0020 u0054_u0048_u0045_u004e u0020 u000d", 
        "u2026_u2026_u000d", 
        "u0053_u0074_u0061_u0074_u0065_u006d_u0065_u006e_u0074_u0073_u0031_u000d", 
        "u2026_u2026_u000d", 
        "u0045_u006c_u0073_u0065_u0069_u0066 u0020 u0063_u006f_u006e_u0064_u0069_u0074_u0069_u006f_u006e u0020 u0054_u0048_u0045_u004e_u000d", 
        "u2026_u2026_u000d", 
        "u0053_u0074_u0061_u0074_u0065_u006d_u0065_u006e_u0074_u0073_u0032_u000d", 
        "u2026_u2026_u000d", 
        "u0045_u006c_u0073_u0065_u000d", 
        "u2026_u002e_u002e_u000d", 
        "u0045_u004e_u0044 u0020 u0049_u0046"
    ]
}