{
    "bounding_box": [
        [
            241, 
            26, 
            399, 
            30
        ], 
        [
            14, 
            122, 
            659, 
            27
        ], 
        [
            623, 
            158, 
            50, 
            22
        ], 
        [
            64, 
            196, 
            609, 
            26
        ], 
        [
            220, 
            232, 
            452, 
            28
        ], 
        [
            27, 
            274, 
            645, 
            28
        ], 
        [
            559, 
            312, 
            113, 
            20
        ], 
        [
            73, 
            344, 
            599, 
            31
        ], 
        [
            569, 
            382, 
            104, 
            23
        ], 
        [
            25, 
            503, 
            7, 
            10
        ], 
        [
            198, 
            500, 
            58, 
            9
        ]
    ], 
    "image_height": 540, 
    "image_width": 720, 
    "transcription": [
        "u0627_u0647_u062f_u0627_u0641 u0020 u0627_u0633_u0627_u0633_u064a u0020 u0628_u0627_u0632_u0627_u0631 u0020 u064a_u0627_u0628_u064a u0020 u0639_u0628_u0627_u0631_u062a_u0646_u062f u0020 u0627_u0632 u0020 u003a_u000b", 
        "u0020_u062a_u0634_u0648_u064a_u0642 u0020 u0648 u0020 u062a_u0631_u063a_u064a_u0628 u0020 u0645_u0634_u062a_u0631_u064a_u0627_u0646 u0020 u0641_u0639_u0644_u064a u0020 u0628_u0631_u0627_u064a u0020 u062e_u0631_u064a_u062f u0020 u0628_u0647 u0020 u0645_u0642_u062f_u0627_u0631 u0020 u0628_u064a_u0634_u062a_u0631 u0020 u0648 u0020 u062f_u0641_u0639_u0627_u062a u0020 u0632_u064a_u0627_u062f_u0020", 
        "u062a_u0631 u0020 u002e u0020 u000d", 
        "u0020_u062c_u0630_u0628 u0020 u0648 u0020 u062c_u0644_u0628 u0020 u062e_u0631_u064a_u062f_u0627_u0631_u0627_u0646 u0020 u0648 u0020 u0645_u0634_u062a_u0631_u064a_u0627_u0646 u0020 u0645_u0631 u0020 u0628_u0648_u0637 u0020 u0628_u0647 u0020 u0631_u0642_u0628_u0627 u0020 u0628_u0647 u0020 u0633_u0648_u064a u0020 u062e_u0648_u062f u0020 u002e u0020 u000d", 
        "u0020_u062c_u0630_u0628 u0020 u0648 u0020 u062c_u0644_u0628 u0020 u0645_u0634_u062a_u0631_u064a_u0627_u0646 u0020 u0648 u0020 u0645_u0635_u0631_u0641 u0020 u0643_u0646_u0646_u062f_u06af_u0627_u0646 u0020 u062c_u062f_u064a_u062f u0020 u002e u0020 u000d", 
        "u0020 u0020 u0627_u064a_u062c_u0627_u062f u0020 u0632_u0645_u064a_u0646_u0647 u0020 u0648 u0020 u0631_u0648_u062d_u064a_u0629 u0020 u0648_u0641_u0627_u062f_u0627_u0631_u064a u0020 u062f_u0631 u0020 u062e_u0631_u064a_u062f_u0627_u0631_u0627_u0646 u0020 u0641_u0639_u0644_u064a u0020 u0646_u0633_u0628_u062a u0020 u0628_u0647 u0020 u0645_u062d_u0635_u0648_u0644 u0020 u06cc_u0627_u0020", 
        "u062e_u062f_u0645_u062a u0020 u062e_u0648_u062f u0020 u000d", 
        "u0020 u0020 u0627_u064a_u062c_u0627_u062f u0020 u062f_u064a_u062f_u06af_u0627_u0647 u0020 u0648 u0020 u0637_u0631_u0632 u0020 u062a_u0644_u0642_u064a u0020 u0645_u0646_u0627_u0633_u0628 u0020 u0646_u0633_u0628_u062a u0020 u0628_u0647 u0020 u0634_u0631_u0643_u062a u0020 u0648 u0020 u0645_u062d_u0635_u0648_u0644_u0627_u062a u0020 u0648_u0020", 
        "u062e_u062f_u0645_u0627_u062a u0020 u0622_u0646 u0020 u000d", 
        "u0035", 
        "u0041_u002e_u0045_u0062_u0072_u0061_u0068_u0069_u006d_u0069"
    ]
}