{
    "bounding_box": [
        [
            294, 
            50, 
            120, 
            42
        ], 
        [
            44, 
            137, 
            605, 
            29
        ], 
        [
            582, 
            185, 
            66, 
            21
        ], 
        [
            408, 
            222, 
            241, 
            27
        ]
    ], 
    "image_height": 540, 
    "image_width": 720, 
    "transcription": [
        "u0627_u0644_u0645_u0631_u0627_u062c_u0639_u0020", 
        "u0068_u0074_u0074_u0070_u0073_u003a_u002f_u002f_u006d_u0068_u0063_u002e_u0067_u006f_u0076_u002e_u006f_u006d_u002f_u0061_u0072_u0061_u0062_u0069_u0063_u002f_u0074_u0061_u0062_u0069_u0064_u002f_u0031_u0035_u0038_u002f_u0044_u0065_u0066_u0061_u0075_u006c_u0074_u002e", 
        "u0061_u0073_u0070_u0078_u000d", 
        "u062f_u0644_u064a_u0644 u0020 u0627_u0644_u0645_u0648_u0633_u0648_u0639_u0629 u0020 u0627_u0644_u0639_u0645_u0627_u0646_u064a_u0629_u0020"
    ]
}