{
    "bounding_box": [
        [
            56, 
            47, 
            615, 
            33
        ], 
        [
            42, 
            84, 
            644, 
            34
        ], 
        [
            336, 
            127, 
            56, 
            20
        ], 
        [
            209, 
            162, 
            300, 
            29
        ], 
        [
            127, 
            199, 
            465, 
            34
        ], 
        [
            43, 
            238, 
            641, 
            32
        ], 
        [
            50, 
            276, 
            628, 
            34
        ], 
        [
            279, 
            314, 
            179, 
            34
        ]
    ], 
    "image_height": 540, 
    "image_width": 720, 
    "transcription": [
        "u0648_u0639_u0646 u0020 u0623_u0628_u064a u0020 u0647_u0631_u064a_u0631_u0629 u0020 u0631_u0636_u064a u0020 u0627_u0644_u0644_u0647 u0020 u0639_u0646_u0647 u0020 u0623_u0646 u0020 u0627_u0644_u0646_u0628_u064a u0020 u0635_u0644_u0649 u0020 u0627_u0644_u0644_u0647 u0020 u0639_u0644_u064a_u0647 u0020 u0648_u0633_u0644_u0645 u0020 u0642_u0627_u0644 u0020 u003a u0020 u0028 u0020 u0623_u0646_u0627 u0020 u0623_u0648_u0644_u0649_u0020", 
        "u0627_u0644_u0646_u0627_u0633 u0020 u0628_u0639_u064a_u0633_u0649 u0020 u0627_u0628_u0646 u0020 u0645_u0631_u064a_u0645 u0020 u0641_u064a u0020 u0627_u0644_u0623_u0648_u0644_u0649 u0020 u0648_u0627_u0644_u0623_u062e_u0631_u0629 u0020 u0642_u0627_u0644_u0648_u0627_u003a u0020 u0643_u064a_u0641 u0020 u064a_u0627_u0631_u0633_u0648_u0644_u0020", 
        "u0627_u0644_u0644_u0647 u0020 u061f_u000d", 
        "u0020_u0642_u0627_u0644 u0020 u0627_u0644_u0623_u0646_u0628_u064a_u0627_u0621 u0020 u0623_u062e_u0648_u0629 u0020 u0645_u0646 u0020 u0639_u0644_u0627_u062a u0020 u000d", 
        "u0623_u0645_u0647_u0627_u062a_u0647_u0645 u0020 u0634_u062a_u0649 u0020 u0648_u062f_u064a_u0646_u0647_u0645 u0020 u0648_u0627_u062d_u062f u0020 u0641_u0644_u064a_u0633 u0020 u0628_u064a_u0646_u0646_u0627 u0020 u0646_u0628_u064a u0020 u0029 u0020 u000d", 
        "u0645_u0639_u0646_u0627_u0647 u0020 u003a u0020 u0623_u0646 u0020 u062f_u064a_u0646_u0647_u0645 u0020 u0648_u0627_u062d_u062f u0020 u0648_u0647_u0648 u0020 u062f_u0639_u0648_u062a_u0647_u0645 u0020 u0644_u062a_u0648_u062d_u064a_u062f u0020 u0627_u0644_u0644_u0647 u0020 u0648_u062d_u062f_u0647 u0020 u0644_u0627 u0020 u0634_u0631_u064a_u0643_u0020", 
        "u0644_u0647 u0020 u060c u0020 u0648_u0634_u0631_u0627_u0626_u0639_u0647_u0645 u0020 u0645_u062a_u0639_u062f_u062f_u0629 u0020 u0641_u0647_u0645 u0020 u0628_u0645_u062b_u0627_u0628_u0629 u0020 u0627_u0644_u0625_u062e_u0648_u0629 u0020 u0644_u0623_u0628 u0020 u060c u0020 u0623_u0628_u0648_u0647_u0645 u0020 u0648_u0627_u062d_u062f u0020 u060c_u0020", 
        "u0648_u0623_u0645_u0647_u0627_u062a_u0647_u0645 u0020 u0645_u062e_u062a_u0644_u0641_u0647_u002e"
    ]
}