{
    "bounding_box": [
        [
            190, 
            53, 
            339, 
            33
        ], 
        [
            37, 
            143, 
            612, 
            21
        ], 
        [
            37, 
            179, 
            612, 
            25
        ], 
        [
            37, 
            222, 
            612, 
            19
        ], 
        [
            37, 
            263, 
            612, 
            20
        ], 
        [
            37, 
            302, 
            612, 
            18
        ], 
        [
            37, 
            337, 
            612, 
            23
        ], 
        [
            37, 
            381, 
            612, 
            20
        ], 
        [
            37, 
            420, 
            612, 
            19
        ], 
        [
            129, 
            461, 
            519, 
            20
        ]
    ], 
    "image_height": 540, 
    "image_width": 720, 
    "transcription": [
        "u0627_u0644_u0641_u0631_u0642 u0020 u0628_u064a_u0646 u0020 u0627_u0644_u0635_u062d_u0631_u0627_u0621 u0020 u0648_u0627_u0644_u062a_u0635_u062d_u0651_u0631", 
        "u0627_u0646 u0020 u0627_u0644_u0635_u062d_u0631_u0627_u0621 u0020 u0028_u0044_u0065_u0073_u0065_u0072_u0074_u0029 u0020 u0647_u064a u0020 u0646_u0638_u0627_u0645 u0020 u0627_u064a_u0643_u0648_u0644_u0648_u062c_u064a u0020 u0645_u0645_u064a_u0632 u0020 u064a_u0639_u062c_u0651 u0020 u0628_u0627_u0644_u062d_u064a_u0648_u0627_u0646_u0627_u062a u0020 u0648_u0627_u0644_u0646_u0628_u0627_u062a_u0627_u062a u0020 u0627_u0644_u0628_u0631_u064a_u0629_u0020", 
        "u0648_u0627_u0644_u062a_u0646_u0648_u0639 u0020 u0627_u0644_u0627_u062d_u064a_u0627_u0626_u064a u0020 u0627_u0644_u0630_u064a u0020 u064a_u0633_u0646_u062f u0020 u062f_u0648_u0631_u0627_u062a_u064d u0020 u062d_u064a_u0627_u062a_u064a_u0629_u064b u0020 u0642_u0627_u0628_u0644_u0629 u0020 u0639_u0644_u0649 u0020 u0627_u0644_u0627_u0633_u062a_u0645_u0631_u0627_u0631 u0020 u0648_u0627_u0644_u062a_u0643_u0627_u0645_u0644_u060c u0020 u0648_u062a_u0639_u062a_u0645_u062f u0020 u0633_u0644_u0633_u0629_u0020", 
        "u0627_u0644_u062d_u064a_u0627_u0629 u0020 u0641_u064a_u0647 u0020 u0639_u0644_u0649 u0020 u062f_u064a_u0646_u0627_u0645_u064a_u0643_u064a_u062a_u0647 u0020 u0627_u0644_u062f_u0627_u062e_u0644_u064a_u0629 u0020 u0648_u0642_u062f_u0631_u062a_u0647 u0020 u0639_u0644_u0649 u0020 u0627_u0644_u062a_u062c_u062f_u062f_u002e u0020 u0648_u0647_u0648 u0020 u0628_u0630_u0644_u0643_u00a0 u0020 u064a_u0634_u0628_u0647 u0020 u0627_u0644_u0627_u0646_u0638_u0645_u0629_u0020", 
        "u0627_u0644_u0627_u064a_u0643_u0648_u0644_u0648_u062c_u064a_u0629 u0020 u0627_u0644_u0627_u062e_u0631_u0649_u060c u0020 u0643_u0627_u0644_u0627_u0631_u0627_u0636_u064a u0020 u0627_u0644_u0631_u0637_u0628_u0629 u0020 u0028_u0627_u0644_u0627_u0647_u0648_u0627_u0631_u0029 u0020 u0627_u0648 u0020 u0627_u0644_u0633_u0648_u0627_u062d_u0644 u0020 u0627_u0644_u0628_u062d_u0631_u064a_u0629_u060c u0020 u0627_u0648 u0020 u0645_u0635_u0628_u0627_u062a_u0020", 
        "u0627_u0644_u0627_u0646_u0647_u0627_u0631 u0020 u0627_u0644_u0643_u0628_u0631_u0649_u060c u0020 u0627_u0648 u0020 u0627_u0644_u062c_u0632_u0631 u0020 u0627_u0644_u0645_u0631_u062c_u0627_u0646_u064a_u0629_u060c u0020 u0627_u0648 u0020 u0627_u0644_u063a_u0627_u0628_u0627_u062a u0020 u0627_u0644_u0627_u0633_u062a_u0648_u0627_u0626_u064a_u0629 u0020 u0648_u063a_u064a_u0631_u0647_u0627_u060c u0020 u062d_u064a_u062b u0020 u062a_u062a_u0634_u0627_u0628_u0643_u0020", 
        "u0648_u062a_u062a_u0643_u0627_u0645_u0644 u0020 u0628_u0647_u0627 u0020 u062d_u0644_u0642_u0627_u062a u0020 u0627_u0644_u062d_u064a_u0627_u0629 u0020 u0628_u0627_u0639_u062a_u0645_u0627_u062f_u0647_u0627 u0020 u0627_u0644_u0645_u062a_u0628_u0627_u062f_u0644 u0020 u0639_u0644_u0649 u0020 u0628_u0639_u0636_u0647_u0627 u0020 u0627_u0644_u0628_u0639_u0636 u0020 u0627_u0644_u0627_u062e_u0631_u060c u0020 u0648_u062a_u0634_u0643_u0644 u0020 u0627_u0646_u0638_u0645_u0629_u064b_u0020", 
        "u0637_u0628_u064a_u0639_u064a_u0629 u0020 u0645_u0643_u062a_u0641_u064a_u0629 u0020 u0628_u0630_u0627_u062a_u0647_u0627_u060c u0020 u0648_u0642_u0627_u0628_u0644_u0629 u0020 u0644_u0644_u0627_u0633_u062a_u0645_u0631_u0627_u0631 u0020 u0628_u0642_u062f_u0631 u0020 u062b_u0628_u0648_u062b u0020 u0645_u062f_u062e_u0644_u0627_u062a_u0647_u0627 u0020 u0627_u0644_u0627_u0648_u0644_u064a_u0629 u0020 u0648_u062f_u0648_u0646 u0020 u062a_u062f_u062e_u0644 u0020 u062a_u0639_u0633_u0641_u064a_u0020", 
        "u0645_u0646 u0020 u0642_u0628_u0644 u0020 u0627_u0644_u0627_u0646_u0633_u0627_u0646_u002e u0020 u0644_u0630_u0644_u0643 u0020 u0641_u0627_u0646 u0020 u0644_u0644_u0635_u062d_u0631_u0627_u0621 u0020 u0642_u064a_u0645_u0629 u0020 u0627_u0642_u062a_u0635_u0627_u062f_u064a_u0629 u0020 u0648_u0628_u064a_u0648_u0644_u0648_u062c_u064a_u0629 u0020 u0648_u062b_u0642_u0627_u0641_u064a_u0629 u0020 u0648_u0628_u064a_u0626_u064a_u0629 u0020 u0643_u0628_u064a_u0631_u0629 u0020 u0627_u0630_u0627 u0020 u0645_u0627_u0020", 
        "u0627_u062d_u0633_u0646 u0020 u0627_u0633_u062a_u063a_u0644_u0627_u0644_u0647_u0627_u060c u0020 u0628_u063a_u0631_u0636 u0020 u0627_u0633_u062a_u062f_u0627_u0645_u0629 u0020 u0645_u0648_u0627_u0631_u062f_u0647_u0627 u0020 u0648_u0627_u0644_u0645_u062d_u0627_u0641_u0638_u0629 u0020 u0639_u0644_u0649 u0020 u062a_u0646_u0648_u0639_u0647_u0627 u0020 u0627_u0644_u0627_u062d_u064a_u0627_u0626_u064a_u002e"
    ]
}