{
    "bounding_box": [
        [
            36, 
            97, 
            248, 
            43
        ], 
        [
            53, 
            160, 
            620, 
            34
        ], 
        [
            104, 
            205, 
            568, 
            35
        ], 
        [
            67, 
            244, 
            605, 
            34
        ], 
        [
            66, 
            289, 
            606, 
            35
        ], 
        [
            460, 
            332, 
            212, 
            27
        ], 
        [
            158, 
            375, 
            514, 
            34
        ], 
        [
            319, 
            420, 
            353, 
            32
        ], 
        [
            87, 
            466, 
            585, 
            35
        ]
    ], 
    "image_height": 540, 
    "image_width": 720, 
    "transcription": [
        "u0645_u0642_u0648_u0644_u0627_u062a u0020 u0627_u0644_u0646_u0638_u0631_u064a_u0629", 
        "u0627_u0639_u062a_u0645_u062f_u062a u0020 u0646_u0638_u0631_u064a_u0629 u0020 u0627_u0644_u0639_u0642_u062f u0020 u0627_u0644_u0625_u062c_u062a_u0645_u0627_u0639_u064a u0020 u0639_u0644_u0649 u0020 u201d_u062d_u0627_u0644_u0629 u0020 u0627_u0644_u0641_u0637_u0631_u0629 u0020 u0627_u0644_u0623_u0648_u0644_u0649_u201c_u002e_u000d", 
        "u0627_u0644_u062d_u064a_u0627_u0629 u0020 u0627_u0644_u0628_u062f_u0627_u0626_u064a_u0629 u0020 u0647_u064a u0020 u0627_u0644_u062d_u064a_u0627_u0629 u0020 u0627_u0644_u0645_u062b_u0644_u0649 u0020 u0644_u0644_u0627_u0646_u0633_u0627_u0646 u0020 u0648_u062c_u0627_u0621_u062a u0020 u0627_u0644_u062f_u0648_u0644_u0629_u0020", 
        "u0644_u062a_u0636_u0645_u0646 u0020 u062d_u0633_u0646 u0020 u0633_u064a_u0631 u0020 u0627_u0644_u0642_u0648_u0627_u0646_u064a_u0646 u0020 u0627_u0644_u0637_u0628_u064a_u0639_u064a_u0629 u0020 u0627_u0644_u062a_u064a u0020 u0627_u0643_u062a_u0633_u0628_u0647_u0627 u0020 u0627_u0644_u0627_u0646_u0633_u0627_u0646_u002e_u000d", 
        "u0645_u0639_u0638_u0645 u0020 u0645_u0641_u0643_u0631_u064a_u0646 u0020 u0627_u0644_u0639_u0642_u062f u0020 u0627_u0644_u0627_u062c_u062a_u0645_u0627_u0639_u064a u0020 u0643_u0627_u0646_u0648_u0627 u0020 u064a_u0631_u0648_u0627 u0020 u0623_u0646 u0020 u0627_u0644_u0641_u0637_u0631_u0629 u0020 u0627_u0644_u0623_u0648_u0644_u0649_u0020", 
        "u0644_u0644_u0627_u0646_u0633_u0627_u0646 u0020 u0643_u0627_u0646_u062a u0020 u062e_u064a_u0631_u0629_u002e_u000d", 
        "u0647_u0646_u0627_u0643 u0020 u0639_u0642_u062f u0020 u0628_u064a_u0646 u0020 u0627_u0644_u0623_u0641_u0631_u0627_u062f u0020 u0644_u0644_u062a_u0639_u0627_u064a_u0634 u0020 u0641_u064a u0020 u0645_u062c_u062a_u0645_u0639 u0020 u0645_u0634_u062a_u0631_u0643_u002e_u000d", 
        "u062d_u0642_u0648_u0642 u0020 u0627_u0644_u0641_u0631_u062f u0020 u0633_u0627_u0628_u0642_u0629 u0020 u0644_u062d_u0642_u0648_u0642 u0020 u0627_u0644_u062f_u0648_u0644_u0629_u002e_u000d", 
        "u0648_u0628_u0627_u0644_u062a_u0627_u0644_u064a u0020 u0644_u0627 u0020 u064a_u0645_u0643_u0646 u0020 u0644_u0644_u062f_u0648_u0644_u0629 u0020 u0623_u0646 u0020 u062a_u0646_u0632_u0639 u0020 u062a_u0644_u0643 u0020 u0627_u0644_u062d_u0642_u0648_u0642 u0020 u0645_u0646 u0020 u0627_u0644_u0627_u0646_u0633_u0627_u0646_u002e"
    ]
}