{
    "bounding_box": [
        [
            532, 
            211, 
            163, 
            29
        ], 
        [
            75, 
            267, 
            620, 
            18
        ], 
        [
            591, 
            287, 
            78, 
            20
        ], 
        [
            75, 
            337, 
            593, 
            19
        ], 
        [
            75, 
            361, 
            593, 
            19
        ], 
        [
            383, 
            382, 
            285, 
            20
        ], 
        [
            75, 
            435, 
            593, 
            18
        ], 
        [
            605, 
            458, 
            63, 
            14
        ], 
        [
            74, 
            25, 
            619, 
            34
        ], 
        [
            76, 
            64, 
            614, 
            33
        ], 
        [
            178, 
            104, 
            402, 
            32
        ], 
        [
            316, 
            145, 
            142, 
            22
        ]
    ], 
    "image_height": 540, 
    "image_width": 720, 
    "transcription": [
        "u0641_u062d_u0648_u0649 u0020 u0627_u0644_u0625_u062c_u0631_u0627_u0621_u003a_u000d", 
        "u0627_u0644_u062a_u062e_u0641_u064a_u0636 u0020 u0641_u064a u0020 u0646_u0633_u0628_u0629 u0020 u0627_u0644_u062a_u0633_u0628_u0642_u0629 u0020 u0627_u0644_u0645_u0633_u062a_u0648_u062c_u0628_u0629 u0020 u0639_u0644_u0649 u0020 u0623_u0631_u0628_u0627_u062d u0020 u0634_u0631_u0643_u0627_u062a u0020 u0627_u0644_u0623_u0634_u062e_u0627_u0635 u0020 u0648_u0645_u0627 u0020 u0634_u0627_u0628_u0647_u0647_u0627 u0020 u0645_u0646 u0020 u0032_u0035_u0025 u0020 u0625_u0644_u0649 u0020 u0031_u0030_u0025 u0020 u0628_u0627_u0644_u0646_u0633_u0628_u0629_u0020", 
        "u0625_u0644_u0649 u0020 u0627_u0644_u0623_u0631_u0628_u0627_u062d_u003a_u00a0_u000d", 
        "u0627_u0644_u062e_u0627_u0636_u0639_u0629 u0020 u0644_u0644_u0636_u0631_u064a_u0628_u0629 u0020 u0639_u0644_u0649 u0020 u0627_u0644_u0634_u0631_u0643_u0627_u062a u0020 u0628_u0646_u0633_u0628_u0629 u0020 u0031_u0030_u0025_u0639_u0644_u0649 u0020 u0645_u0633_u062a_u0648_u0649 u0020 u0627_u0644_u0634_u0631_u0643_u0627_u0621 u0020 u0648_u0627_u0644_u0623_u0639_u0636_u0627_u0621_u060c u0020 u0648_u064a_u062a_u0639_u0644_u0651_u0642 u0020 u0627_u0644_u0623_u0645_u0631 u0020 u062e_u0627_u0635_u0629_u0020", 
        "u0628_u0627_u0644_u0645_u0624_u0633_u0651_u0633_u0627_u062a u0020 u0627_u0644_u0645_u062a_u0639_u0627_u0637_u064a_u0629 u0020 u0644_u0646_u0634_u0627_u0637 u0020 u0641_u0644_u0627_u062d_u064a u0020 u0623_u0648 u0020 u0635_u064a_u062f u0020 u0628_u062d_u0631_u064a u0020 u0623_u0648 u0020 u0635_u0646_u0627_u0639_u0629 u0020 u062a_u0642_u0644_u064a_u062f_u064a_u0629 u0020 u0648_u0627_u0644_u0623_u0631_u0628_u0627_u062d u0020 u0627_u0644_u0645_u062a_u0623_u062a_u064a_u0629 u0020 u0645_u0646 u0020 u0627_u0644_u062a_u0635_u062f_u064a_u0631_u0020", 
        "u0628_u0627_u0644_u0646_u0633_u0628_u0629 u0020 u0644_u0644_u0645_u0624_u0633_u0651_u0633_u0627_u062a u0020 u0627_u0644_u062a_u064a u0020 u0627_u0633_u062a_u0648_u0641_u062a u0020 u0645_u062f_u0651_u0629 u0020 u0627_u0644_u0637_u0631_u062d u0020 u0627_u0644_u0643_u0644_u0651_u064a_u060c_u000d", 
        "u0627_u0644_u0631_u0627_u062c_u0639_u0629 u0020 u0625_u0644_u0649 u0020 u0627_u0644_u0634_u0631_u0643_u0627_u0621 u0020 u0648_u0627_u0644_u0623_u0639_u0636_u0627_u0621 u0020 u0645_u0646 u0020 u0627_u0644_u0623_u0634_u062e_u0627_u0635 u0020 u0627_u0644_u0637_u0628_u064a_u0639_u064a_u064a_u0646 u0020 u0627_u0644_u0645_u0646_u062a_u0641_u0639_u064a_u0646 u0020 u0628_u0637_u0631_u062d u0020 u062b_u0644_u062b_u064a u0020 u0645_u062f_u0627_u062e_u064a_u0644_u0647_u0645 u0020 u0627_u0644_u0645_u062a_u0623_u062a_u064a_u0629 u0020 u0645_u0646_u0020", 
        "u0627_u0644_u0627_u0633_u062a_u063a_u0644_u0627_u0644_u002e_u000d", 
        "u0627_u0644_u062a_u062e_u0641_u064a_u0636 u0020 u0641_u064a u0020 u0646_u0633_u0628_u0629 u0020 u0627_u0644_u062a_u0633_u0628_u0642_u0629 u0020 u0627_u0644_u0645_u0633_u062a_u0648_u062c_u0628_u0629 u0020 u0639_u0644_u0649 u0020 u0634_u0631_u0643_u0627_u062a u0020 u0627_u0644_u0623_u0634_u062e_u0627_u0635_u0020", 
        "u0645_u0646 u0020 u0032_u0035_u0025 u0020 u0625_u0644_u0649 u0020 u0031_u0030_u0025 u0020 u0628_u0627_u0644_u0646_u0633_u0628_u0629 u0020 u0625_u0644_u0649 u0020 u0627_u0644_u0645_u062f_u0627_u062e_u064a_u0644 u0020 u0648_u0627_u0644_u0623_u0631_u0628_u0627_u062d u0020 u0627_u0644_u0645_u0646_u062a_u0641_u0639_u0629_u0020", 
        "u0628_u0646_u0638_u0627_u0645 u0020 u062c_u0628_u0627_u0626_u064a u0020 u062a_u0641_u0627_u0636_u0644_u064a u0020 u0628_u0639_u0646_u0648_u0627_u0646 u0020 u0627_u0644_u0627_u0633_u062a_u063a_u0644_u0627_u0644 u0020 u000b", 
        "u0020 u0020 u0028_u0627_u0644_u0641_u0635_u0644 u0020 u0032_u0037_u0029"
    ]
}