{
    "bounding_box": [
        [
            87, 
            42, 
            559, 
            38
        ], 
        [
            466, 
            44, 
            185, 
            27
        ], 
        [
            292, 
            73, 
            359, 
            33
        ], 
        [
            288, 
            110, 
            363, 
            23
        ], 
        [
            323, 
            138, 
            329, 
            25
        ], 
        [
            282, 
            166, 
            370, 
            26
        ], 
        [
            299, 
            196, 
            353, 
            25
        ], 
        [
            294, 
            226, 
            358, 
            24
        ], 
        [
            300, 
            253, 
            351, 
            24
        ], 
        [
            303, 
            282, 
            349, 
            25
        ], 
        [
            589, 
            313, 
            63, 
            21
        ], 
        [
            481, 
            346, 
            171, 
            23
        ], 
        [
            288, 
            379, 
            364, 
            26
        ], 
        [
            292, 
            409, 
            359, 
            25
        ], 
        [
            495, 
            438, 
            157, 
            22
        ], 
        [
            278, 
            472, 
            374, 
            24
        ], 
        [
            324, 
            503, 
            328, 
            23
        ]
    ], 
    "image_height": 540, 
    "image_width": 720, 
    "transcription": [
        "u0627_u0644_u0623_u0642_u0633_u0627_u0645 u0020 u0627_u0644_u0623_u0631_u0628_u0639_u0629 u0020 u0627_u0644_u0631_u0626_u064a_u0633_u064a_u0629 u0020 u0644_u062a_u0635_u0646_u064a_u0641 u0020 u0627_u0644_u0634_u062e_u0635_u064a_u0627_u062a u0020 u003a_u002d_u0020", 
        "u0623_u0029 u0020 u0627_u0644_u0639_u0642_u0644_u0627_u0646_u064a_u064a_u0646 u0020 u003a u0020 u00ab_u004e_u0054 u0020 u00bb_u000d", 
        "u0623_u0647_u0645 u0020 u062e_u0648_u0627_u0635 u0020 u0627_u0644_u0639_u0642_u0644_u0627_u0646_u064a u0020 u003a u0020 u0645_u0627_u062f_u064a u0020 u002c u0020 u0645_u062a_u0634_u0643_u0643 u0020 u002c u0020 u0645_u0643_u062a_u0641_u064a_u0020", 
        "u0628_u0630_u0627_u062a_u0647 u0020 u002c u0020 u0648_u064a_u0631_u0643_u0632 u0020 u0639_u0644_u0649 u0020 u062d_u0644 u0020 u0627_u0644_u0645_u0634_u0627_u0643_u0644 u0020 u0648_u062a_u062d_u0644_u064a_u0644 u0020 u0627_u0644_u0646_u0638_u0645 u0020 u002e_u0020", 
        "u0627_u0644_u0639_u0642_u0644_u0627_u0646_u064a u0020 u062f_u0627_u0626_u0645_u0627_u064b u0020 u0645_u0627_u064a_u0641_u062e_u0631 u0020 u0628_u0623_u0646_u0647 u0020 u0628_u0627_u0631_u0639 u0020 u002c u0020 u0645_u0633_u062a_u0642_u0644 u0020 u002c_u0020", 
        "u0648_u0642_u0648_u064a u0020 u0627_u0644_u0625_u0631_u062f_u0627_u0629 u0020 u002e u0020 u002c u0020 u064a_u0645_u0643_u0646 u0020 u0623_u0646 u0020 u064a_u0643_u0648_u0646 u0020 u0627_u0644_u0639_u0642_u0644_u0627_u0646_u064a u0020 u0635_u062f_u064a_u0642_u0020", 
        "u002c u0020 u0648_u0627_u0644_u062f u0020 u002c u0020 u0623_u0648 u0020 u0642_u0627_u0626_u062f u0020 u0628_u0627_u0631_u0639 u0020 u002e u0020 u0648_u0643_u0630_u0644_u0643 u0020 u064a_u0645_u0643_u0646_u0647 u0020 u0627_u0644_u0625_u0633_u062a_u0642_u0644_u0627_u0644_u0020", 
        "u0628_u0630_u0627_u062a_u0647 u0020 u002e u0020 u0627_u0644_u0639_u0642_u0644_u0627_u0646_u064a u0020 u0645_u0632_u0627_u062c_u0647 u0020 u0645_u0639_u062a_u062f_u0644 u0020 u002c u0020 u064a_u062b_u0642 u0020 u0628_u0627_u0644_u0645_u0646_u0637_u0642 u0020 u002c_u0020", 
        "u064a_u0639_u0634_u0642 u0020 u0627_u0644_u0625_u0646_u062c_u0627_u0632_u0627_u062a u0020 u002c u0020 u064a_u0642_u062f_u0631 u0020 u0627_u0644_u0645_u0639_u0631_u0641_u0629 u0020 u0648_u0627_u0644_u062a_u0643_u0646_u0644_u0648_u062c_u064a_u0627 u0020 u002c_u0020", 
        "u0648_u064a_u062d_u0644_u0645 u0020 u0628_u0623_u0646 u0020 u064a_u0643_u062a_u0634_u0641 u0020 u0641_u0647_u0645 u0020 u0643_u064a_u0641 u0020 u062a_u0639_u0645_u0644 u0020 u0627_u0644_u0623_u0634_u064a_u0627_u0621 u0020 u0641_u064a_u0020", 
        "u0627_u0644_u0643_u0648_u0646 u0020 u002e_u000d", 
        "u0645_u0646 u0020 u0623_u0634_u0647_u0631 u0020 u0627_u0644_u0639_u0642_u0644_u0627_u0646_u064a_u064a_u0646 u0020 u003a_u000d", 
        "u002a u0020 u0628_u064a_u0644 u0020 u0642_u064a_u062a_u0633 u0020 u002e u0020 u002a u0020 u0623_u0644_u0628_u0631_u062a u0020 u0623_u064a_u0646_u0634_u062a_u0627_u064a_u0646 u0020 u002e_u002a u0020 u0648_u0627_u0644_u062a u0020 u062f_u064a_u0632_u0646_u064a_u0020", 
        "u002e_u002a u0020 u0645_u0627_u0631_u0642_u064a_u0631_u062a u0020 u062a_u0627_u062a_u0634_u0631_u0632_u002e u0020 u0648_u064a_u0646_u062f_u0631_u062c u0020 u062a_u062d_u062a u0020 u0647_u0630_u0627 u0020 u0627_u0644_u0642_u0633_u0645 u0020 u002c_u0020", 
        "u0627_u0644_u0634_u062e_u0635_u064a_u0627_u062a u0020 u0627_u0644_u062a_u0627_u0644_u064a_u0629 u0020 u003a_u000d", 
        "u002a u0020 u0631_u0626_u064a_u0633 u0020 u0627_u0644_u0623_u0631_u0643_u0627_u0646 u0020 u0045_u004e_u0054_u004a u0020 u0020_u002d u0020 u0627_u0644_u0639_u0642_u0644 u0020 u0627_u0644_u0645_u062f_u0628_u0631 u0020 u0049_u004e_u0054_u004a_u0020", 
        "u002d u0020 u0627_u0644_u0645_u062e_u062a_u0631_u0639 u0020 u0020_u002d u0020 u0045_u004e_u0054_u0050 u0020 u0627_u0644_u0645_u0639_u0645_u0627_u0631_u064a u0020 u0049_u004e_u0054_u0050 u0020 u002e_u000d"
    ]
}