{
    "bounding_box": [
        [
            34, 
            157, 
            624, 
            35
        ], 
        [
            436, 
            193, 
            222, 
            37
        ], 
        [
            41, 
            243, 
            618, 
            34
        ], 
        [
            80, 
            278, 
            578, 
            45
        ], 
        [
            80, 
            324, 
            578, 
            45
        ], 
        [
            542, 
            370, 
            116, 
            37
        ], 
        [
            66, 
            415, 
            592, 
            38
        ], 
        [
            461, 
            455, 
            197, 
            36
        ], 
        [
            368, 
            494, 
            290, 
            42
        ], 
        [
            132, 
            38, 
            455, 
            47
        ], 
        [
            195, 
            94, 
            328, 
            39
        ]
    ], 
    "image_height": 540, 
    "image_width": 720, 
    "transcription": [
        "u0032_u002d u0020 u0623_u0646 u0020 u064a_u0645_u0644_u0623 u0020 u0627_u0644_u0641_u0631_u0627_u063a u0020 u0628_u0643_u0644_u0645_u0629 u0020 u0623_u0648 u0020 u0628_u062c_u0645_u0644_u0629 u0020 u0623_u0633_u0627_u0633_u064a_u0629 u0020 u0648_u0644_u064a_u0633 u0020 u0628_u0643_u0644_u0645_u0629 u0020 u0647_u0627_u0645_u0634_u064a_u0629_u0020", 
        "u0623_u0648 u0020 u0641_u0639_u0644 u0020 u0623_u0648 u0020 u062d_u0631_u0641 u0020 u062c_u0631_u002e_u000d", 
        "u0645_u062b_u0627_u0644 u0020 u062e_u0637_u0623_u003a u0020 u064a_u062a_u0643_u0648_u0646 u0020 u002e_u002e_u002e_u002e_u002e_u002e u0020 u0627_u0644_u062d_u0634_u0631_u0629 u0020 u0645_u0646 u0020 u062b_u0644_u0627_u062b_u0629 u0020 u002e_u002e_u002e_u002e u0020 u0648_u0647_u064a u0020 u002e_u002e_u0648_u002e_u002e_u002e_u0648_u002e_u002e_u000d", 
        "u0627_u0644_u062e_u0637_u0623_u003a u0020 u0627_u0644_u0641_u0631_u0627_u063a_u0627_u0646 u0020 u0627_u0644_u0623_u0648_u0644_u0627_u0646 u0020 u0644_u064a_u0633_u0627 u0020 u0645_u0647_u0645_u064a_u0646_u002e u0020 u0648_u0647_u0645_u0627 u0020 u062c_u0633_u0645 u0020 u0648_u0623_u062c_u0632_u0627_u0621_u002e_u000d", 
        "u062a_u0635_u062d_u064a_u062d u0020 u0627_u0644_u0641_u0642_u0631_u0629_u003a u0020 u064a_u062a_u0643_u0648_u0646 u0020 u062c_u0633_u0645 u0020 u0627_u0644_u062d_u0634_u0631_u0629 u0020 u0645_u0646 u0020 u062b_u0644_u0627_u062b_u0629 u0020 u0627_u062c_u0632_u0627_u0621 u0020 u0648_u0647_u064a_u0020", 
        "u002e_u002e_u002e_u0648_u002e_u002e_u002e_u0648_u002e_u002e_u002e_u000d", 
        "u0033_u002d u0020 u0623_u0644_u0627 u0020 u062a_u0630_u0643_u0631 u0020 u0627_u0644_u062d_u0631_u0648_u0641 u0020 u0627_u0644_u0623_u0648_u0644_u0649 u0020 u0645_u0646 u0020 u0627_u0644_u0643_u0644_u0645_u0629 u0020 u0623_u0648 u0020 u0627_u0644_u062c_u0645_u0644_u0629 u0020 u0627_u0644_u0645_u0637_u0644_u0648_u0628_u0020", 
        "u0648_u0636_u0639_u0647_u0627 u0020 u0641_u064a u0020 u0627_u0644_u0641_u0631_u0627_u063a_u002e_u000d", 
        "u0034_u002d u0020 u0623_u0646 u0020 u062a_u0643_u0648_u0646 u0020 u0627_u0644_u0639_u0628_u0627_u0631_u0629 u0020 u0642_u0635_u064a_u0631_u0629_u002e_u000d", 
        "u062a_u0627_u0628_u0639 u0020 u0634_u0631_u0648_u0637 u0020 u0625_u0639_u062f_u0627_u062f u0020 u0627_u062e_u062a_u0628_u0627_u0631 u0020 u0627_u0644_u062a_u0643_u0645_u064a_u0644 u0020 u0630_u0648_u0020", 
        "u0627_u0644_u0625_u062c_u0627_u0628_u0629 u0020 u0627_u0644_u0642_u0635_u064a_u0631_u0629 u0020 u0627_u0644_u0645_u062d_u062f_u0648_u062f_u0629_u0020"
    ]
}