{
    "bounding_box": [
        [
            208, 
            50, 
            303, 
            37
        ], 
        [
            246, 
            134, 
            321, 
            63
        ], 
        [
            37, 
            233, 
            502, 
            59
        ]
    ], 
    "image_height": 540, 
    "image_width": 720, 
    "transcription": [
        "u0031_u002e u0020 u0645_u0639_u0627_u064a_u064a_u0631 u0020 u0648_u0645_u0648_u0627_u0635_u0641_u0627_u062a", 
        "u0645_u0639_u0627_u064a_u064a_u0631 u0020 u0639_u0627_u0644_u0645_u064a_u0629 u0020 u000d", 
        "u0635_u0641_u0627_u062a u0020 u0627_u0644_u0645_u0648_u0638_u0641 u0020 u0627_u0644_u0645_u062a_u0645_u064a_u0632_u000d"
    ]
}