{
    "bounding_box": [
        [
            240, 
            51, 
            354, 
            30
        ], 
        [
            516, 
            153, 
            63, 
            18
        ], 
        [
            229, 
            147, 
            268, 
            24
        ], 
        [
            151, 
            102, 
            381, 
            24
        ], 
        [
            262, 
            264, 
            172, 
            29
        ], 
        [
            514, 
            208, 
            54, 
            21
        ], 
        [
            55, 
            327, 
            556, 
            24
        ], 
        [
            273, 
            379, 
            162, 
            26
        ], 
        [
            88, 
            434, 
            506, 
            25
        ]
    ], 
    "image_height": 540, 
    "image_width": 720, 
    "transcription": [
        "u002d_u0033 u0020 u0627_u0644_u0627_u0633_u062a_u062b_u0646_u0627_u0621 u0020 u0627_u0644_u0646_u0627_u0642_u0635 u0020 u0627_u0644_u0645_u0646_u0641_u064a_u0022 u0020 u0627_u0644_u0645_u064f_u0641_u064e_u0631_u0651_u064e_u063a_u0022_u003a", 
        "u062d_u0643_u0645_u0647 u0020 u003a", 
        "u064a_u0639_u0631_u0628 u0020 u0639_u0644_u0649 u0020 u062d_u0633_u0628 u0020 u0645_u0648_u0642_u0639_u0647 u0020 u0645_u0646 u0020 u0627_u0644_u062c_u0645_u0644_u0629", 
        "u0623_u0646 u0020 u064a_u0643_u0648_u0646 u0020 u0627_u0644_u0645_u0633_u062a_u062b_u0646_u0649 u0020 u0645_u0646_u0647 u0020 u063a_u064a_u0631 u0020 u0645_u0648_u062c_u0648_u062f u0020 u0648_u0627_u0644_u062c_u0645_u0644_u0629 u0020 u0645_u0646_u0641_u064a_u0629", 
        "u0644_u0627 u0020 u0623_u062d_u0628 u0020 u0625_u0644_u0627 u0020 u0627_u0644_u0635_u062f_u0642 u0020 u002e", 
        "u0645_u062b_u0627_u0644 u0020 u003a", 
        "u0022 u0020 u0627_u0644_u0635_u062f_u0642 u0020 u003a u0020 u0645_u0641_u0639_u0648_u0644 u0020 u0628_u0647 u0020 u0645_u0646_u0635_u0648_u0628 u0020 u0648_u0639_u0644_u0627_u0645_u0629 u0020 u0646_u0635_u0628_u0647 u0020 u0627_u0644_u0641_u062a_u062d_u0629 u0020 u0627_u0644_u0638_u0627_u0647_u0631_u0629 u0020 u0639_u0644_u0649 u0020 u0622_u062e_u0631_u0647_u0022", 
        "u0645_u0627 u0020 u062c_u0627_u0621 u0020 u0625_u0644_u0627 u0020 u0627_u0644_u0637_u0627_u0644_u0628_u064f_u002e", 
        "u0022 u0020 u0627_u0644_u0637_u0627_u0644_u0628_u003a u0020 u0641_u0627_u0639_u0644 u0020 u0645_u0631_u0641_u0648_u0639 u0020 u0648_u0639_u0644_u0627_u0645_u0629 u0020 u0631_u0641_u0639_u0647 u0020 u0627_u0644_u0636_u0645_u0629 u0020 u0627_u0644_u0638_u0627_u0647_u0631_u0629 u0020 u0639_u0644_u0649 u0020 u0622_u062e_u0631_u0647_u0022_u002e"
    ]
}