{
    "bounding_box": [
        [
            312, 
            117, 
            95, 
            30
        ], 
        [
            119, 
            201, 
            463, 
            17
        ], 
        [
            495, 
            226, 
            109, 
            16
        ], 
        [
            359, 
            257, 
            223, 
            15
        ], 
        [
            464, 
            285, 
            119, 
            13
        ], 
        [
            502, 
            314, 
            102, 
            16
        ], 
        [
            521, 
            342, 
            83, 
            15
        ], 
        [
            386, 
            372, 
            196, 
            14
        ], 
        [
            238, 
            401, 
            344, 
            15
        ]
    ], 
    "image_height": 540, 
    "image_width": 720, 
    "transcription": [
        "u0627_u0644_u0645_u0641_u0627_u0635_u0644", 
        "u0627_u0644_u0645_u0641_u0627_u0635_u0644 u0020 u003a u0020 u06be_u064a u0020 u0645_u0646_u0637_u0642_u0629 u0020 u0627_u0644_u062a_u0642_u0627_u0621 u0020 u0639_u0638_u0645_u06cc_u0646 u0020 u0623_u0648 u0020 u0627_u0643_u062b_u0631 u0020 u0648_u06cc_u0645_u0643_u0646 u0020 u062a_u0635_u0646_u06cc_u0641_u06be_u0627 u0020 u062d_u0633_u0628 u0020 u0646_u0648_u0639 u0020 u0627_u0644_u062d_u0631_u0643_u0629 u0020 u0627_u0644_u062a_u064a u0020 u062a_u0633_u0645_u062d u0020 u0628_u06be_u0627 u0020 u0623_u0648_u0020", 
        "u0628_u062d_u0633_u0628 u0020 u0623_u0634_u0643_u0627_u0644 u0020 u0623_u062c_u0632_u0627_u0626_u06be_u0627_u002e_u000d", 
        "u062a_u0648_u062c_u062f u0020 u0627_u0644_u0645_u0641_u0627_u0635_u0644 u0020 u0641_u064a u0020 u0645_u0643_u0627_u0646 u0020 u0627_u0644_u062a_u0642_u0627_u0621 u0020 u0639_u0638_u0645_u06cc_u0646 u0020 u0625_u0648 u0020 u0627_u0643_u062b_u0631_u002e_u000d", 
        "u06cc_u0645_u0643_u0646 u0020 u062a_u0635_u0646_u06cc_u0641 u0020 u0627_u0644_u0645_u0641_u0627_u0635_u0644 u0020 u003a_u000d", 
        "u002d u0020 u062d_u0633_u0628 u0020 u0646_u0648_u0639 u0020 u0627_u0644_u062d_u0631_u0643_u0629_u002e_u000d", 
        "u002d u0020 u0623_u0634_u0643_u0627_u0644 u0020 u0627_u062c_u0632_u0627_u0626_u06be_u0627_u002e_u000d", 
        "u062a_u0631_u062a_u0628_u0637 u0020 u0639_u0638_u0627_u0645 u0020 u0627_u0644_u0645_u0641_u0627_u0635_u0644 u0020 u0639_u0646 u0020 u0637_u0631_u06cc_u0642 u0020 u0627_u0644_u0623_u0631_u0628_u0637_u0629_u002e_u000d", 
        "u0627_u0644_u0623_u0631_u0628_u0637_u0629 u0020 u003a u0020 u062d_u0632_u0645 u0020 u0645_u0646 u0020 u0627_u0644_u0646_u0633_u06cc_u062c u0020 u0627_u0644_u0638_u0627_u0645 u0020 u0627_u0644_u0642_u0648_u064a u0020 u0627_u0644_u0630_u064a u0020 u06cc_u0631_u0628_u0637 u0020 u0627_u0644_u0639_u0638_u0627_u0645 u0020 u0628_u0628_u0639_u0638_u06be_u0627 u0020 u0627_u0644_u0628_u0639_u0636_u002e_u000d"
    ]
}