{
    "bounding_box": [
        [
            87, 
            18, 
            587, 
            67
        ], 
        [
            470, 
            97, 
            203, 
            61
        ], 
        [
            36, 
            95, 
            665, 
            50
        ], 
        [
            115, 
            147, 
            585, 
            51
        ], 
        [
            125, 
            208, 
            576, 
            43
        ], 
        [
            21, 
            261, 
            679, 
            36
        ], 
        [
            84, 
            308, 
            616, 
            48
        ], 
        [
            18, 
            361, 
            683, 
            48
        ], 
        [
            544, 
            423, 
            156, 
            35
        ], 
        [
            572, 
            474, 
            129, 
            32
        ]
    ], 
    "image_height": 540, 
    "image_width": 720, 
    "transcription": [
        "u0639_u0634_u062a_u064f u0020 u0641_u064a u0020 u0627_u0644_u062f_u0651_u064f_u0646_u064a_u0627 u0020 u0623_u0643_u0648_u0644_u0627_u064b u0020 u0020 u0020 u0020 u0020 u0020 u0020 u0644_u064e_u062d_u0652_u0645_u064e_u0020", 
        "u062e_u0650_u0644_u0651_u064d u0020 u0648_u064e_u0628_u064e_u0631_u0648_u0631_u0652", 
        "u0643_u0644_u0645_u0629 u0020 u0623_u0643_u0648_u0644_u0627_u064b u0020 u0647_u064a u0020 u0627_u0633_u0645 u0020 u0645_u0634_u062a_u0642_u0629 u0020 u0645_u0646 u0020 u0627_u0644_u0641_u0639_u0644 u0020 u0028_u0623_u064e_u0643_u064e_u0644_u064e_u0029 u0020 u0648_u0647_u064a_u0020", 
        "u062a_u062f_u0644 u0020 u0639_u0644_u0649 u0020 u0645_u0639_u0646_u0649 u0020 u0627_u0633_u0645 u0020 u0627_u0644_u0641_u0627_u0639_u0644 u0020 u0645_u0639 u0020 u0627_u0644_u062f_u0644_u0627_u0644_u0629 u0020 u0639_u0644_u0649_u0020", 
        "u0627_u0644_u0645_u0628_u0627_u0644_u063a_u0629 u0020 u0648_u0627_u0644_u0643_u062b_u0631_u0629 u0020 u0641_u064a_u0647_u002c_u0648_u064a_u0633_u0645_u0649 u0020 u0647_u0630_u0627 u0020 u0627_u0644_u0646_u0648_u0639 u0020 u0645_u0646_u0020", 
        "u0627_u0644_u0645_u0634_u062a_u0642_u0627_u062a u0020 u0635_u064a_u063a_u0629 u0020 u0645_u0628_u0627_u0644_u063a_u0629 u0020 u0648_u0642_u062f u0020 u0639_u0645_u0644_u062a u0020 u0635_u064a_u063a_u0629 u0020 u0627_u0644_u0645_u0628_u0627_u0644_u063a_u0629_u0020", 
        "u0028_u0623_u0643_u0648_u0644_u0627_u064b_u0029 u0020 u0639_u0645_u0644 u0020 u0627_u0644_u0630_u064a u0020 u0627_u0634_u062a_u0642_u062a u0020 u0645_u0646_u0647_u002c u0020 u0641_u0631_u0641_u0639_u062a u0020 u0641_u0627_u0639_u0644_u0627_u064b_u0020", 
        "u0645_u0633_u062a_u062a_u0631_u0627_u064b u0020 u062a_u0642_u062f_u064a_u0631_u0647 u0020 u0623_u0646_u0627 u0020 u002c u0020 u0648_u0646_u0635_u0628 u0020 u0645_u0641_u0639_u0648_u0644_u0627_u064b u0020 u0628_u0647 u0020 u0028_u0644_u064e_u062d_u0652_u0645_u064e_u0029 u0020 u0648_u0647_u064a_u0020", 
        "u0646_u0643_u0631_u0629 u0020 u0645_u0646_u0648_u0646_u000d", 
        "u062d_u0627_u0644 u0020 u0020_u0030 u0020 u0020"
    ]
}