{
    "bounding_box": [
        [
            400, 
            58, 
            308, 
            64
        ], 
        [
            722, 
            191, 
            148, 
            17
        ], 
        [
            324, 
            243, 
            574, 
            23
        ], 
        [
            347, 
            271, 
            551, 
            24
        ], 
        [
            622, 
            326, 
            275, 
            18
        ], 
        [
            271, 
            345, 
            626, 
            28
        ], 
        [
            274, 
            376, 
            624, 
            26
        ], 
        [
            692, 
            407, 
            206, 
            24
        ], 
        [
            390, 
            437, 
            507, 
            24
        ], 
        [
            346, 
            462, 
            552, 
            28
        ], 
        [
            880, 
            491, 
            18, 
            0
        ]
    ], 
    "image_height": 540, 
    "image_width": 960, 
    "transcription": [
        "u0645_u0646 u0020 u062c_u0645_u064a_u0644 u0020 u0623_u0642_u0648_u0627_u0644_u0647_u0645", 
        "u064a_u0642_u0648_u0644 u0020 u0627_u0628_u0646 u0020 u0627_u0644_u0648_u0631_u062f_u064a u0020 u003a_u000d", 
        "u0627_u0637_u0644_u0628 u0020 u0627_u0644_u0639_u0644_u0645 u0020 u0648_u0644_u0627 u0020 u062a_u0643_u0633_u0644 u0020 u0641_u0645_u0640_u0627 u0020 u0020 u0020 u0020 u0020 u0020 u0020 u0020 u0020 u0020_u0623_u0628_u0639_u062f_u064e u0020 u0627_u0644_u062e_u064a_u0631_u064e u0020 u0639_u0644_u064a u0020 u0623_u0647_u0644 u0020 u0627_u0644_u0643_u0633_u0640_u0640_u0640_u0644_u000d", 
        "u0644_u0627 u0020 u062a_u0642_u0644 u0020 u0642_u062f u0020 u0630_u0647_u0628_u062a u0020 u0623_u0631_u0628_u0627_u0628_u0640_u0647 u0020 u0020 u0020 u0020 u0020 u0020 u0020 u0020 u0020 u0020 u0020 u0020 u0020 u0643_u0644_u064f u0020 u0645_u0646 u0020 u0633_u0627_u0631 u0020 u0639_u0644_u0649 u0020 u0627_u0644_u062f_u0631_u0628 u0020 u0648_u0635_u0644_u000d", 
        "u0642_u0627_u0644 u0020 u0627_u0644_u0642_u0627_u0636_u064a u0020 u0623_u0628_u0648 u0020 u0645_u062d_u0645_u062f u0020 u0628_u0646 u0020 u0646_u0635_u0631 u0020 u003a_u000d", 
        "u064a_u0627 u0020 u0644_u0647_u0641 u0020 u0642_u0644_u0628_u064a u0020 u0639_u0644_u0649 u0020 u0634_u064a_u0626_u064a_u0646 u0020 u0644_u0648 u0020 u062c_u0645_u0639_u0627 u0020 u0020 u0020 u0639_u0646_u062f_u064a u0020 u0644_u0643_u0646_u062a u0020 u0625_u0630_u0646 u0020 u0645_u0646 u0020 u0623_u0633_u0639_u062f u0020 u0627_u0644_u0628_u0634_u0631_u000d", 
        "u0643_u064e_u0641_u0627_u0641_u064f u0020 u0639_u064e_u064a_u0652_u0634 u0020 u064a_u0642_u064a_u0646_u064a u0020 u0634_u064e_u0631_u0651 u0020 u0645_u0633_u0623_u0644_u0629 u0020 u0020 u0020 u0020 u0020 u0020 u0020 u0648_u062e_u062f_u0645_u0629_u064f u0020 u0627_u0644_u0639_u0644_u0645 u0020 u062d_u062a_u0649 u0020 u064a_u0646_u0642_u0636_u064a u0020 u0639_u0645_u0631_u064a_u000d", 
        "u064a_u0642_u0648_u0644 u0020 u0623_u062d_u0645_u062f u0020 u0628_u0646 u0020 u0641_u0627_u0631_u0633_u003a u0020 u000d", 
        "u0625_u0630_u0627 u0020 u0643_u0627_u0646 u0020 u064a_u0624_u0630_u064a_u0643 u0020 u062d_u064e_u0631_u0651_u064f u0020 u0627_u0644_u0645_u0635_u064a_u0641 u0020 u0020 u0020 u0020 u0020 u0020 u0020 u0648_u064a_u064f_u0628_u0652_u0633 u0020 u0627_u0644_u062e_u0631_u064a_u0641 u0020 u0648_u0628_u0631_u062f u0020 u0627_u0644_u0634_u062a_u0627_u000d", 
        "u0648_u064a_u064f_u0644_u0647_u064a_u0643 u0020 u062d_u0633_u0646_u064f u0020 u0632_u0645_u0627_u0646_u0650 u0020 u0627_u0644_u0631_u0628_u064a_u0639 u0020 u0020 u0020 u0020 u0020 u0020 u0020 u0020_u0641_u0623_u062e_u0630_u0643 u0020 u0644_u0644_u0639_u0644_u0645 u0020 u0642_u0644 u0020 u0644_u064a u0020 u003a u0020 u0645_u062a_u0649 u0020 u061f_u0021_u000b", 
        "u0020 u0020 u000d"
    ]
}