{
    "bounding_box": [
        [
            374, 
            40, 
            284, 
            26
        ], 
        [
            109, 
            90, 
            553, 
            29
        ], 
        [
            411, 
            129, 
            234, 
            27
        ], 
        [
            181, 
            197, 
            403, 
            25
        ], 
        [
            106, 
            230, 
            478, 
            21
        ], 
        [
            518, 
            258, 
            66, 
            19
        ], 
        [
            211, 
            287, 
            374, 
            21
        ], 
        [
            302, 
            319, 
            283, 
            21
        ]
    ], 
    "image_height": 540, 
    "image_width": 720, 
    "transcription": [
        "u0646_u0628_u0630_u0629 u0020 u0639_u0646 u0020 u062a_u0628_u0648_u064a_u0628_u0627_u062a u0020 u0623_u062f_u0648_u0627_u062a u0020 u0627_u0644_u0645_u062e_u0637_u0637", 
        "u062f_u0639_u0648_u0646_u0627 u0020 u0646_u0644_u0642_u064a u0020 u0646_u0638_u0631_u0629 u0020 u0633_u0631_u064a_u0639_u0629 u0020 u0639_u0644_u0649 u0020 u0627_u0644_u062a_u0628_u0648_u064a_u0628_u0627_u062a u0020 u0627_u0644_u062b_u0644_u0627_u062b_u0629 u0020 u0644_u0623_u062f_u0648_u0627_u062a u0020 u0627_u0644_u0645_u062e_u0637_u0637_u003a u0020 u000d", 
        "u0627_u0644_u062a_u0628_u0648_u064a_u0628_u0629 u0020 u0627_u0644_u0623_u0648_u0644_u0649 u0020 u0647_u064a u0020 u062a_u0635_u0645_u064a_u0645_u003a_u000d", 
        "u0627_u0644_u0646_u0648_u0639_u003a u0020 u062a_u063a_u064a_u064a_u0631 u0020 u0646_u0648_u0639 u0020 u0627_u0644_u0645_u062e_u0637_u0637 u0020 u0623_u0648 u0020 u062d_u0641_u0638 u0020 u0627_u0644_u0646_u0648_u0639 u0020 u0627_u0644_u062d_u0627_u0644_u064a u0020 u0643_u0642_u0627_u0644_u0628_u002e_u000d", 
        "u0628_u064a_u0627_u0646_u0627_u062a_u003a u0020 u062a_u062d_u062f_u064a_u062f u0020 u0623_u0648 u0020 u062a_u062d_u0631_u064a_u0631 u0020 u0623_u0648 u0020 u062a_u062d_u062f_u064a_u062b u0020 u0627_u0644_u0628_u064a_u0627_u0646_u0627_u062a_u060c u0020 u0623_u0648 u0020 u062a_u063a_u064a_u064a_u0631 u0020 u0643_u064a_u0641_u064a_u0629 u0020 u0639_u0631_u0636_u0020", 
        "u0627_u0644_u0628_u064a_u0627_u0646_u0627_u062a_u002e_u000d", 
        "u062a_u062e_u0637_u064a_u0637_u0627_u062a u0020 u0627_u0644_u0645_u062e_u0637_u0637_u0627_u062a_u003a u0020 u062a_u063a_u064a_u064a_u0631 u0020 u0637_u0631_u064a_u0642_u0629 u0020 u062a_u0646_u0638_u064a_u0645 u0020 u0627_u0644_u0645_u062e_u0637_u0637_u002e_u000d", 
        "u0623_u0646_u0645_u0627_u0637 u0020 u0627_u0644_u0645_u062e_u0637_u0637_u0627_u062a_u003a u0020 u062a_u063a_u064a_u064a_u0631 u0020 u0645_u0638_u0647_u0631 u0020 u0627_u0644_u0645_u062e_u0637_u0637"
    ]
}