{
    "bounding_box": [
        [
            114, 
            84, 
            570, 
            42
        ], 
        [
            19, 
            131, 
            664, 
            43
        ], 
        [
            263, 
            180, 
            420, 
            38
        ], 
        [
            220, 
            227, 
            464, 
            42
        ], 
        [
            67, 
            276, 
            617, 
            42
        ], 
        [
            358, 
            324, 
            325, 
            41
        ]
    ], 
    "image_height": 540, 
    "image_width": 720, 
    "transcription": [
        "u0627_u0644_u062f_u0648_u0631_u0629 u0020 u0627_u0644_u062b_u0627_u0644_u062b_u0629_u003a_u0627_u0644_u0625_u0633_u0644_u0627_u0645 u0020 u0639_u0642_u064a_u062f_u0629 u0020 u0648 u0020 u0639_u0645_u0644 u0020 u0648 u0020 u0627_u0644_u062a_u0632_u0627_u0645_u000d", 
        "u0627_u0644_u0642_u062f_u0631_u0629 u0020 u0639_u0644_u0649 u0020 u0623_u062f_u0627_u0621 u0020 u0627_u0644_u0645_u0633_u0624_u0648_u0644_u064a_u0629 u0020 u0645_u0646 u0020 u062e_u0644_u0627_u0644 u0020 u0627_u0644_u0641_u0647_u0645 u0020 u0627_u0644_u0635_u062d_u064a_u062d_u0020", 
        "u0644_u0644_u0625_u0633_u0644_u0627_u0645 u0020 u0648 u0020 u0627_u0644_u0627_u0642_u062a_u062f_u0627_u0621 u0020 u0628_u0639_u0638_u0645_u0627_u0621 u0020 u0627_u0644_u0623_u0645_u0629 u0020 u000d", 
        "u0627_u0644_u062f_u0648_u0631_u0629 u0020 u0627_u0644_u0631_u0627_u0628_u0639_u0629_u003a u0020 u0644_u0627 u0020 u0636_u0631_u0631 u0020 u0641_u064a u0020 u0627_u0644_u0625_u0633_u0644_u0627_u0645 u0020 u000d", 
        "u0627_u0644_u0643_u0641_u0627_u0621_u0629 u0020 u0627_u0644_u0645_u0631_u062d_u0644_u064a_u0629 u0020 u003a u0020 u062f_u0641_u0639 u0020 u0627_u0644_u0636_u0631_u0631 u0020 u0628_u0627_u0644_u0627_u0642_u062a_u062f_u0627_u0621 u0020 u0628_u0645_u0648_u0627_u0642_u0641_u0020", 
        "u0627_u0644_u0631_u0633_u0648_u0644 u0020 u0635_u0644_u0649 u0020 u0627_u0644_u0644_u0647 u0020 u0639_u0644_u064a_u0647 u0020 u0648_u0633_u0644_u0645 u0020 u0641_u064a u0020 u0627_u0644_u0645_u0639_u0627_u0645_u0644_u0627_u062a_u0020"
    ]
}