{
    "bounding_box": [
        [
            72, 
            33, 
            575, 
            34
        ], 
        [
            51, 
            74, 
            596, 
            32
        ], 
        [
            98, 
            113, 
            549, 
            27
        ], 
        [
            113, 
            149, 
            534, 
            33
        ], 
        [
            72, 
            188, 
            575, 
            33
        ], 
        [
            67, 
            224, 
            580, 
            35
        ], 
        [
            104, 
            267, 
            543, 
            31
        ], 
        [
            35, 
            301, 
            612, 
            35
        ], 
        [
            54, 
            340, 
            593, 
            34
        ], 
        [
            43, 
            379, 
            604, 
            34
        ], 
        [
            277, 
            417, 
            370, 
            30
        ]
    ], 
    "image_height": 540, 
    "image_width": 720, 
    "transcription": [
        "u062c_u002d u0020 u0623_u0633_u0644_u0648_u0628 u0020 u0627_u0644_u062a_u0636_u0627_u062f_u0651 u0020 u0648_u0627_u0644_u063a_u0631_u0636 u0020 u0645_u0646_u0647 u0020 u003a u0020 u0625_u0646 u0020 u0623_u0633_u0644_u0648_u0628 u0020 u0627_u0644_u062a_u0636_u0627_u062f_u0651 u0020 u0623_u064a_u0020", 
        "u0627_u0644_u0637_u0628_u0627_u0642 u0020 u0648_u0627_u0644_u062a_u0642_u0627_u0628_u0644 u0020 u0638_u0647_u0631 u0020 u0641_u064a u0020 u0645_u062b_u0644 u0020 u0642_u0648_u0644_u0647 u0020 u003a_u0022 u0020 u064a_u0628_u0643_u064a u0020 u003c_u003e u0020 u064a_u0633_u062a_u0636_u062d_u0643_u0020", 
        "u060c u0020 u0627_u0644_u0633_u062c_u0646 u0020 u003c_u003e u0020 u0627_u0644_u0645_u062c_u062f u0020 u060c u0020 u0635_u063a_u0631_u0648_u0627 u0020 u003c_u003e u0020 u0643_u0628_u0631_u0648_u0627 u0020 u060c u0020 u0627_u0644_u0632_u0647_u0631 u0020 u003c_u003e_u0020", 
        "u0627_u0644_u062d_u0642_u0644 u0020 u060c u0020 u0645_u0630_u0645_u0648_u0645 u0020 u003c_u003e u0020 u0628_u0627_u0633_u0644 u0020 u062e_u0637_u0631_u060c u0020 u0627_u0644_u062c_u0633_u0645 u0020 u003c_u003e u0020 u0627_u0644_u0631_u0648_u062d u0020 u002e_u0020", 
        "u0648_u0627_u0644_u063a_u0631_u0636 u0020 u0645_u0646 u0020 u0627_u0644_u062a_u0636_u0627_u062f u0020 u003a u0020 u0625_u0628_u0631_u0627_u0632 u0020 u0627_u0644_u0627_u062b_u0646_u064a_u0646_u064a_u0629 u0020 u0641_u064a u0020 u0627_u0644_u0645_u0648_u0635_u0648_u0641_u0627_u062a u0020 u0623_u0648_u0020", 
        "u0627_u0644_u0635_u0641_u0627_u062a u0020 u060c u0020 u0625_u0628_u0631_u0627_u0632 u0020 u0627_u062d_u062a_u0645_u0627_u0644 u0020 u0627_u0644_u0623_u0645_u0631_u064a_u0646 u0020 u0623_u064a u0020 u0627_u0644_u062a_u062e_u064a_u064a_u0631 u0020 u0628_u064a_u0646 u0020 u0623_u0645_u0631_u064a_u0646 u0020 u0644_u0627_u0020", 
        "u062b_u0627_u0644_u062b u0020 u0644_u0647_u0645_u0627 u0020 u060c u0020 u0648_u062e_u0644_u0642 u0020 u0627_u0644_u062a_u062f_u0627_u0639_u064a u0020 u0648_u0627_u0644_u0627_u0645_u062a_u062f_u0627_u062f u0020 u0644_u062f_u0649 u0020 u0627_u0644_u0645_u062a_u0644_u0642_u064a u0020 u0643_u064a_u0020", 
        "u064a_u0633_u062a_u062b_u064a_u0631_u0647 u0020 u0648_u064a_u062d_u0643_u0645_u0647 u0020 u0641_u064a u0020 u0623_u0645_u0631_u064a_u0646 u0020 u060c u0020 u0642_u0648_u0627_u0645 u0020 u0627_u0644_u0623_u0639_u0631_u0627_u0636 u0020 u0648_u0627_u0644_u062c_u0648_u0627_u0647_u0631 u0020 u0639_u0644_u0649_u0020", 
        "u0645_u062a_u0636_u0627_u062f_u0651_u064a_u0646 u0020 u0641_u0642_u0637 u0020 u060c u0020 u0627_u0633_u062a_u0641_u062a_u0627_u0621 u0020 u0627_u0644_u0645_u062a_u0644_u0642_u064a u0020 u0628_u0634_u0623_u0646 u0020 u0627_u0644_u0645_u062a_u0636_u0627_u062f_u0651_u064a_u0646_u060c u0020 u0648_u0625_u0628_u0631_u0627_u0632_u0020", 
        "u0643_u0648_u0646 u0020 u0627_u062d_u062a_u0645_u0627_u0644 u0020 u0627_u0644_u062d_u0642_u064a_u0642_u0629 u0020 u0627_u0644_u0645_u0637_u0644_u0642_u0629 u0020 u0644_u0648_u062c_u0647_u064a_u0646 u0020 u0641_u0642_u0637_u002e_u0028_u0623_u064a u0020 u0623_u0646 u0020 u0645_u0646_u0637_u0644_u0642_u0627_u062a_u0020", 
        "u062c_u0628_u0631_u0627_u0646 u0020 u0645_u0646 u0020 u0627_u0644_u0637_u0628_u0627_u0642_u0627_u062a u0020 u0641_u0644_u0633_u0641_u064a_u0629 u0020 u0645_u062d_u0636_u0629_u0029_u00a0"
    ]
}