{
    "bounding_box": [
        [
            331, 
            46, 
            359, 
            33
        ], 
        [
            188, 
            140, 
            503, 
            33
        ], 
        [
            151, 
            182, 
            540, 
            32
        ], 
        [
            120, 
            225, 
            570, 
            32
        ], 
        [
            122, 
            265, 
            568, 
            34
        ], 
        [
            132, 
            310, 
            558, 
            32
        ], 
        [
            182, 
            351, 
            508, 
            38
        ], 
        [
            577, 
            400, 
            113, 
            29
        ]
    ], 
    "image_height": 540, 
    "image_width": 720, 
    "transcription": [
        "u0627_u0644_u0645_u062d_u062a_u0648_u0649 u0020 u0627_u0644_u0645_u0641_u062a_u0648_u062d u0020 u0648 u0020 u0627_u0644_u062d_u0631_u064a_u0627_u062a u0020 u0020_u003a_u000b", 
        "u0625_u0646 u0020 u062a_u0631_u062e_u064a_u0635 u0020 u0641_u062a_u062d u0020 u0627_u0644_u0645_u062d_u062a_u0648_u0649 u0020 u0644_u0644_u062c_u0645_u064a_u0639 u0020 u0645_u0639 u0020 u0645_u0631_u0627_u0639_u0627_u0629_u0020", 
        "u0627_u0644_u062d_u0642_u0648_u0642 u0020 u0627_u0644_u0641_u0643_u0631_u064a_u0629 u0020 u0020_u0628_u0627_u0644_u0637_u0631_u064a_u0642_u0629 u0020 u0648 u0020 u0627_u0644_u0634_u0631_u0648_u0637 u0020 u0627_u0644_u062a_u0649 u0020 u064a_u0631_u0627_u0647_u0627_u0020", 
        "u0635_u0627_u062d_u0628 u0020 u0627_u0644_u062d_u0642 u0020 u0631_u0628_u0645_u0627 u0020 u062a_u0645_u062b_u0644 u0020 u0646_u0642_u0637_u0629 u0020 u0625_u0644_u062a_u0642_u0627_u0621 u0020 u0628_u064a_u0646 u0020 u0627_u0644_u0645_u062a_u0639_u0633_u0641_u064a_u0646_u0020", 
        "u0641_u0649 u0020 u0623_u0645_u0631 u0020 u0627_u0644_u0645_u0644_u0643_u064a_u0629 u0020 u0627_u0644_u0641_u0643_u0631_u064a_u0629 u0020 u0648_u0628_u064a_u0646 u0020 u0627_u0644_u0645_u062a_u063a_u0648_u0644_u064a_u0646 u0020 u0639_u0644_u0649 u0020 u062d_u0642_u0648_u0642_u0020", 
        "u0627_u0644_u0622_u062e_u0631_u064a_u0646 u0020 u0628_u0625_u0639_u062a_u0628_u0627_u0631 u0020 u0020_u0627_u0646 u0020 u0627_u0644_u0645_u0639_u0631_u0641_u0629 u0020 u0647_u0649 u0020 u062d_u0642 u0020 u0625_u0646_u0633_u0627_u0646_u0649 u0020 u0643_u0645_u0627_u0020", 
        "u0623_u0646 u0020 u0625_u0639_u062a_u0628_u0627_u0631 u0020 u062d_u0642_u0648_u0642 u0020 u0645_u0646_u062a_u062c u0020 u0627_u0644_u0645_u0639_u0631_u0641_u0629 u0020 u0647_u0649 u0020 u0643_u0630_u0644_u0643 u0020 u062d_u0642_u0020", 
        "u0625_u0646_u0633_u0627_u0646_u0649 u0020 u002e u0020 u000b"
    ]
}