{
    "bounding_box": [
        [
            107, 
            27, 
            554, 
            52
        ], 
        [
            567, 
            86, 
            93, 
            35
        ], 
        [
            510, 
            208, 
            151, 
            26
        ], 
        [
            409, 
            245, 
            251, 
            23
        ], 
        [
            445, 
            269, 
            216, 
            33
        ], 
        [
            502, 
            303, 
            159, 
            33
        ], 
        [
            229, 
            345, 
            432, 
            26
        ], 
        [
            278, 
            372, 
            383, 
            33
        ], 
        [
            405, 
            407, 
            256, 
            32
        ], 
        [
            240, 
            441, 
            415, 
            33
        ]
    ], 
    "image_height": 540, 
    "image_width": 720, 
    "transcription": [
        "u0623_u0647_u0645 u0020 u0645_u0648_u0627_u0642_u0639 u0020 u0627_u0644_u0645_u0624_u0633_u0633_u0627_u062a u0020 u0627_u0644_u062f_u0648_u0644_u064a_u0629 u0020 u0630_u0627_u062a_u0020", 
        "u0627_u0644_u0635_u0644_u0629", 
        "u0645_u0648_u0642_u0639 u0020 u0627_u0644_u064a_u0648_u0631_u0648_u0633_u062a_u0627_u062a_u000d", 
        "u0065_u0063_u002e_u0065_u0075_u0072_u006f_u0070_u0061_u002e_u0065_u0075_u002f_u0065_u0075_u0072_u006f_u0073_u0074_u0061_u0074_u000d", 
        "u0645_u0648_u0642_u0639 u0020 u0627_u0644_u0645_u0646_u062a_u062f_u0649 u0020 u0627_u0644_u062f_u0648_u0644_u064a u0020 u0644_u0644_u0646_u0642_u0644_u000d", 
        "u006f_u0065_u0063_u0064_u002e_u006f_u0072_u0067_u002f_u0063_u0065_u006d_u000d", 
        "u0077_u0077_u0077_u002e_u0069_u006e_u0074_u0065_u0072_u006e_u0061_u0074_u0069_u006f_u006e_u0061_u006c_u0074_u0072_u0061_u006e_u0073_u0070_u006f_u0072_u0074_u0066_u006f_u0072_u0075_u006d_u002e_u006f_u0072_u0067_u000d", 
        "u0627_u0644_u0644_u062c_u0646_u0629 u0020 u0627_u0644_u0627_u0642_u062a_u0635_u0627_u062f_u064a_u0629 u0020 u0644_u0623_u0648_u0631_u0648_u0628_u0627 u0020 u0627_u0644_u062a_u0627_u0628_u0639_u0629 u0020 u0644_u0644_u0623_u0645_u0645 u0020 u0627_u0644_u0645_u062a_u062d_u062f_u0629_u000d", 
        "u0077_u0077_u0077_u002e_u0075_u006e_u0065_u0063_u0065_u002e_u006f_u0072_u0067_u002f_u0074_u0072_u0061_u006e_u0073_u002f_u000d", 
        "u0627_u0644_u0634_u0631_u0627_u0643_u0629 u0020 u0645_u0646 u0020 u0623_u062c_u0644 u0020 u062a_u0637_u0648_u064a_u0631 u0020 u0627_u0644_u0625_u062d_u0635_u0627_u0626_u064a_u0627_u062a u0020 u0641_u064a u0020 u0627_u0644_u0642_u0631_u0646 u0020 u0032_u0031"
    ]
}