{
    "bounding_box": [
        [
            225, 
            48, 
            255, 
            42
        ], 
        [
            46, 
            135, 
            614, 
            51
        ], 
        [
            33, 
            192, 
            611, 
            52
        ], 
        [
            77, 
            250, 
            524, 
            51
        ], 
        [
            54, 
            303, 
            570, 
            56
        ], 
        [
            224, 
            361, 
            231, 
            50
        ]
    ], 
    "image_height": 540, 
    "image_width": 720, 
    "transcription": [
        "u062a_u0639_u0631_u064a_u0641 u0020 u0627_u0644_u0625_u0633_u0639_u0627_u0641_u0020", 
        "u0647_u0648 u0020 u0627_u0644_u0639_u0646_u0627_u064a_u0629 u0020 u0627_u0644_u0641_u0648_u0631_u064a_u0629 u0020 u0627_u0644_u062a_u064a u0020 u064a_u062a_u0644_u0642_u0627_u0647_u0627 u0020 u0627_u0644_u0645_u0635_u0627_u0628_u0020", 
        "u0648_u0623_u0635_u0628_u062d u0020 u0641_u064a u0020 u0639_u0635_u0631_u0646_u0627 u0020 u0647_u0630_u0627 u0020 u0645_u0646 u0020 u0627_u0644_u0636_u0631_u0648_u0631_u064a_u0627_u062a_u0020", 
        "u0644_u0623_u0646_u0647 u0020 u0628_u0627_u0644_u0625_u0633_u0639_u0627_u0641 u0020 u0627_u0644_u0635_u062d_u064a_u062d u0020 u0646_u0639_u0645_u0644 u0020 u0639_u0644_u0649_u0020", 
        "u0645_u0633_u0627_u0639_u062f_u0629 u0020 u0627_u0644_u0645_u0635_u0627_u0628 u0020 u0645_u0646 u0020 u0623_u0646 u0020 u062a_u0632_u064a_u062f u0020 u0625_u0635_u0627_u0628_u062a_u0647_u0020", 
        "u0633_u0648_u0621_u0627_u064b u0020 u0628_u0625_u0630_u0646 u0020 u0627_u0644_u0644_u0647_u0020"
    ]
}