{
    "bounding_box": [
        [
            529, 
            40, 
            94, 
            26
        ], 
        [
            105, 
            137, 
            488, 
            31
        ], 
        [
            64, 
            180, 
            530, 
            35
        ], 
        [
            498, 
            225, 
            96, 
            29
        ]
    ], 
    "image_height": 540, 
    "image_width": 720, 
    "transcription": [
        "u0627_u0644_u0623_u0633_u0626_u0644_u0629 u0020 u003a u0020 u000b", 
        "u0633_u0032 u0020 u002e u0020 u0644_u0645_u0627_u0630_u0627 u0020 u0627_u062e_u062a_u0627_u0631 u0020 u0627_u0644_u0645_u0635_u0648_u062a_u0648_u0646 u0020 u0645_u062f_u064a_u0646_u0629 u0020 u0627_u0644_u0628_u062a_u0631_u0627_u0621_u0020", 
        "u0636_u0645_u0646 u0020 u0642_u0627_u0626_u0645_u0629 u0020 u0639_u062c_u0627_u0626_u0628 u0020 u0627_u0644_u062f_u0646_u064a_u0627 u0020 u0627_u0644_u0633_u0628_u0639 u0020 u0627_u0644_u062c_u062f_u064a_u062f_u0629 u0020 u0628_u062d_u0633_u0628_u0020", 
        "u0627_u0644_u0646_u0635 u0020 u061f_u000d"
    ]
}