{
    "bounding_box": [
        [
            45, 
            46, 
            629, 
            43
        ], 
        [
            74, 
            132, 
            574, 
            26
        ], 
        [
            38, 
            161, 
            611, 
            26
        ], 
        [
            75, 
            197, 
            574, 
            24
        ], 
        [
            472, 
            226, 
            177, 
            23
        ], 
        [
            402, 
            259, 
            247, 
            26
        ], 
        [
            79, 
            298, 
            597, 
            25
        ], 
        [
            69, 
            326, 
            580, 
            26
        ], 
        [
            101, 
            356, 
            547, 
            26
        ], 
        [
            81, 
            385, 
            568, 
            24
        ], 
        [
            118, 
            414, 
            531, 
            26
        ]
    ], 
    "image_height": 540, 
    "image_width": 720, 
    "transcription": [
        "u0627_u0644_u0645_u062d_u0648_u0631 u0020 u0627_u0644_u0623_u0648_u0644_u003a u0020 u0627_u0644_u0645_u0634_u0627_u0631_u0643_u0629 u0020 u0627_u0644_u0633_u064a_u0627_u0633_u064a_u0629 u0020 u0641_u064a u0020 u0635_u0646_u0639 u0020 u0627_u0644_u0642_u0631_u0627_u0631", 
        "u0627_u0644_u0627_u0646_u062a_u062e_u0627_u0628_u0627_u062a u0020 u0648_u0627_u0644_u062f_u064a_u0645_u0648_u0642_u0631_u0627_u0637_u064a_u0629 u0020 u0648_u0627_u0644_u0646_u0638_u0645 u0020 u0627_u0644_u062d_u0643_u0645 u0020 u0641_u064a u0020 u0627_u0644_u0639_u0627_u0644_u0645_u003a u0020 u062d_u0643_u0645 u0020 u0627_u0644_u0641_u0631_u062f_u060c u0020 u0627_u0644_u062d_u0643_u0645_u0020", 
        "u0627_u0644_u0634_u0645_u0648_u0644_u064a u0020 u0028 u0020 u0646_u0638_u0627_u0645 u0020 u0627_u0644_u062d_u0632_u0628 u0020 u0627_u0644_u0648_u0627_u062d_u062f_u0029_u060c u0020 u0627_u0644_u062d_u0643_u0645 u0020 u0627_u0644_u062b_u064a_u0648_u0642_u0631_u0627_u0637_u064a_u060c u0020 u0627_u0644_u062d_u0643_u0645 u0020 u0627_u0644_u062f_u064a_u0645_u0648_u0642_u0631_u0627_u0637_u064a_u000d", 
        "u0627_u0644_u0646_u0638_u0645 u0020 u0627_u0644_u062f_u064a_u0645_u0648_u0642_u0631_u0627_u0637_u064a_u0629_u003a u0020 u0627_u0644_u062f_u064a_u0645_u0648_u0642_u0631_u0627_u0637_u064a_u0629 u0020 u0627_u0644_u0645_u0628_u0627_u0634_u0631_u0629_u060c u0020 u0627_u0644_u062f_u064a_u0645_u0648_u0642_u0631_u0627_u0637_u064a_u0629 u0020 u0627_u0644_u0631_u0626_u0627_u0633_u064a_u0629_u060c_u0020", 
        "u0627_u0644_u062f_u064a_u0645_u0648_u0642_u0631_u0627_u0637_u064a_u0629 u0020 u0627_u0644_u0646_u064a_u0627_u0628_u064a_u0629_u000d", 
        "u0627_u0644_u0623_u062d_u0632_u0627_u0628 u0020 u0648_u0627_u0644_u062a_u0639_u062f_u062f_u064a_u0629 u0020 u0627_u0644_u0633_u064a_u0627_u0633_u064a_u0629_u003a_u000d", 
        "u0020 u0020 u0020_u0627_u0644_u0639_u0645_u0644 u0020 u0627_u0644_u062d_u0632_u0628_u064a u0020 u0627_u0644_u062c_u0627_u062f u0020 u0647_u0648 u0020 u0630_u0644_u0643 u0020 u0627_u0644_u0639_u0645_u0644 u0020 u0627_u0644_u0633_u064a_u0627_u0633_u064a u0020 u0627_u0644_u0645_u0624_u0633_u0633_u064a u0020 u0627_u0644_u0630_u064a u0020 u062a_u062f_u0627_u0631 u0020 u0641_u064a_u0647_u0020", 
        "u0627_u0644_u0645_u0624_u0633_u0633_u0629 u0020 u0628_u0637_u0631_u0642 u0020 u062f_u064a_u0645_u0648_u0642_u0631_u0627_u0637_u064a_u0629 u0020 u062a_u0642_u0648_u0645 u0020 u0639_u0644_u0649 u0020 u0627_u0644_u0627_u0646_u062a_u062e_u0627_u0628 u0020 u0648_u0633_u0644_u0627_u0645_u0629 u0020 u0627_u0644_u062a_u0645_u062b_u064a_u0644 u0020 u0628_u0646_u0627_u0621_u0020", 
        "u0639_u0644_u0649 u0020 u0627_u0644_u0643_u0641_u0627_u0621_u0629 u0020 u0648_u0627_u0644_u0627_u0642_u0646_u0627_u0639_u060c u0020 u0648_u0647_u0648 u0020 u0627_u0644_u0639_u0645_u0644 u0020 u0627_u0644_u0630_u064a u0020 u064a_u0646_u0647_u0645_u0643 u0020 u0641_u064a_u0647 u0020 u0627_u0644_u0627_u0641_u0631_u0627_u062f u0020 u0641_u064a u0020 u062d_u0644_u0020", 
        "u0627_u0644_u0645_u0634_u0643_u0644_u0627_u062a u0020 u0627_u0644_u0627_u062c_u062a_u0645_u0627_u0639_u064a_u0629 u0020 u0627_u0644_u0642_u0627_u0626_u0645_u0629 u0020 u0639_u0628_u0631 u0020 u062f_u0631_u0627_u0633_u062a_u0647_u0627 u0020 u0648_u062a_u0634_u062e_u064a_u0635 u0020 u0646_u0642_u0627_u0637 u0020 u0627_u0644_u0636_u0639_u0641_u0020", 
        "u0648_u0627_u0633_u062a_u062b_u0645_u0627_u0631 u0020 u0646_u0642_u0627_u0637 u0020 u0627_u0644_u0642_u0648_u0629 u0020 u0648_u062a_u062d_u0644_u064a_u0644 u0020 u0627_u0644_u062a_u062d_u062f_u064a_u0627_u062a u0020 u0648_u0627_u0644_u0641_u0631_u0635 u0020 u0648_u0627_u0642_u062a_u0631_u0627_u062d u0020 u0627_u0644_u0628_u062f_u0627_u0626_u0644_u000d"
    ]
}