{
    "bounding_box": [
        [
            235, 
            64, 
            244, 
            42
        ], 
        [
            86, 
            140, 
            566, 
            28
        ], 
        [
            356, 
            175, 
            297, 
            30
        ], 
        [
            46, 
            254, 
            607, 
            32
        ], 
        [
            279, 
            295, 
            373, 
            29
        ]
    ], 
    "image_height": 540, 
    "image_width": 720, 
    "transcription": [
        "u062a_u0648_u0635_u06cc_u0647 u0020 u0647_u0627_u06cc u0020 u0645_u0647_u0645", 
        "u0627_u0632 u0020 u0648_u0627_u0698_u0647 u0020 u201d_u062e_u0648_u062f_u06a9_u0634_u06cc u0020 u0645_u0648_u0641_u0642_u201c u0020 u0628_u0631_u0627_u06cc u0020 u062e_u0648_u062f_u06a9_u0634_u06cc u0020 u0647_u0627_u06cc u0020 u06a9_u0627_u0645_u0644 u0020 u0648 u0020 u0020", 
        "u0645_u0646_u062c_u0631 u0020 u0628_u0647 u0020 u0645_u0631_u06af u0020 u0627_u0633_u062a_u0641_u0627_u062f_u0647 u0020 u0646_u06a9_u0646_u06cc_u062f_u002e_u000d", 
        "u0639_u06a9_u0633 u0020 u0627_u0641_u0631_u0627_u062f u0020 u06cc_u0627 u0020 u0646_u0648_u0634_u062a_u0647 u0020 u0647_u0627_u06cc_u06cc u0020 u0631_u0627 u0020 u06a9_u0647 u0020 u062a_u0648_u0633_u0637 u0020 u0622_u0646_u0627_u0646 u0020 u0642_u0628_u0644 u0020 u0627_u0632 u0020 u0627_u0642_u062f_u0627_u0645 u0020 u0628_u0647_u0020", 
        "u062e_u0648_u062f_u06a9_u0634_u06cc u0020 u0646_u0648_u0634_u062a_u0647 u0020 u0634_u062f_u0647_u060c u0020 u0686_u0627_u067e u0020 u0646_u06a9_u0646_u06cc_u062f_u002e u0020 u0020 u0020 u0020"
    ]
}