{
    "bounding_box": [
        [
            145, 
            190, 
            38, 
            17
        ], 
        [
            139, 
            243, 
            451, 
            25
        ], 
        [
            145, 
            274, 
            442, 
            23
        ], 
        [
            145, 
            302, 
            455, 
            23
        ], 
        [
            145, 
            329, 
            463, 
            23
        ], 
        [
            145, 
            359, 
            141, 
            24
        ], 
        [
            145, 
            390, 
            360, 
            22
        ], 
        [
            145, 
            446, 
            381, 
            23
        ]
    ], 
    "image_height": 540, 
    "image_width": 720, 
    "transcription": [
        "u062a_u0646_u0628_u064a_u0647_u000b", 
        "u0647_u0630_u0647 u0020 u0647_u064a u0020 u0627_u0644_u062a_u0631_u062c_u0645_u0629 u0020 u0627_u0644_u063a_u064a_u0631 u0020 u0627_u0644_u0631_u0633_u0645_u064a_u0629 u0020 u0644_u0645_u0627_u062f_u0629 u0020 u0627_u0644_u062a_u062f_u0631_u064a_u0628 u0020 u0627_u0644_u0623_u0635_u0644_u064a_u0629 u0020 u0628_u0627_u0644_u0644_u063a_u0629_u0020", 
        "u0627_u0644_u0625_u0646_u062c_u0644_u064a_u0632_u064a_u0629_u002e u0020 u0627_u0644_u0646_u0633_u062e_u0629 u0020 u0627_u0644_u0627_u0646_u062c_u0644_u064a_u0632_u064a_u0629 u0020 u0647_u064a u0020 u0627_u0644_u0646_u0633_u062e_u0629 u0020 u0627_u0644_u0631_u0633_u0645_u064a_u0629 u0020 u0645_u0646 u0020 u0645_u0648_u0627_u062f_u0020", 
        "u0627_u0644_u062a_u062f_u0631_u064a_u0628 u0020 u0627_u0644_u0645_u0648_u062d_u062f_u002e u0020 u0627_u0644_u0647_u062f_u0641 u0020 u0647_u0648 u0020 u0627_u0633_u062a_u062e_u062f_u0627_u0645_u0647_u0627 u0020 u0641_u064a u0020 u0627_u0644_u062a_u062f_u0631_u064a_u0628 u0020 u0639_u0644_u0649 u0020 u062d_u0641_u0638_u0020", 
        "u0627_u0644_u0633_u0644_u0627_u0645_u002e u0020 u0625_u0630_u0627 u0020 u0643_u0627_u0646 u0020 u0647_u0646_u0627_u0643 u0020 u0623_u0633_u0626_u0644_u0629 u0020 u0645_u062a_u0639_u0644_u0642_u0629 u0020 u0628_u062f_u0642_u0629 u0020 u0627_u0644_u062a_u0631_u062c_u0645_u0629_u060c u0020 u064a_u0631_u062c_u0649 u0020 u0625_u0631_u0633_u0627_u0644_u0020", 
        "u0628_u0631_u064a_u062f u0020 u0625_u0644_u0643_u062a_u0631_u0648_u0646_u064a u0020 u0625_u0644_u0649_u000d", 
        "u002d_u002d_u0070_u0065_u0061_u0063_u0065_u006b_u0065_u0065_u0070_u0069_u006e_u0067_u002d_u0074_u0072_u0061_u0069_u006e_u0069_u006e_u0067_u0040_u0075_u006e_u002e_u006f_u0072_u0067_u002d_u002d_u000d", 
        "u0020_u0645_u0639 u0020 u062a_u062d_u062f_u064a_u062f u0020 u0627_u0644_u0635_u0641_u062d_u0629 u0020 u0648_u0627_u0644_u0641_u0642_u0631_u0629 u0020 u0645_u0646 u0020 u0627_u0644_u0645_u062d_u062a_u0648_u0649 u0020 u0641_u064a u0020 u0627_u0644_u0633_u0624_u0627_u0644_u002e"
    ]
}