{
    "bounding_box": [
        [
            258, 
            55, 
            202, 
            34
        ], 
        [
            43, 
            135, 
            606, 
            31
        ], 
        [
            70, 
            178, 
            579, 
            28
        ], 
        [
            112, 
            207, 
            537, 
            37
        ], 
        [
            88, 
            253, 
            561, 
            27
        ], 
        [
            345, 
            294, 
            304, 
            25
        ]
    ], 
    "image_height": 540, 
    "image_width": 720, 
    "transcription": [
        "u0627_u0633_u062a_u0631_u064a_u0644_u064a_u0632_u0627_u0633_u064a_u0648_u0646", 
        "u0032_u002d u0020 u0631_u0648_u0634 u0020 u062d_u0631_u0627_u0631_u062a_u064a u0020 u0634_u062f_u064a_u062f_u062a_u0631_u064a u0020 u0643_u0647 u0020 u062f_u0631 u0020 u0622_u0646 u0020 u062a_u0645_u0627_u0645 u0020 u0645_u064a_u0643_u0631_u0648 u0020 u0627_u0631_u06af_u0627_u0646_u064a_u0633_u0645_u0020", 
        "u0647_u0627 u0020 u0627_u0632 u0020 u062c_u0645_u0644_u0647 u0020 u0627_u0633_u067e_u0648_u0631 u0020 u0628_u0627_u0643_u062a_u0631_u064a u0020 u0647_u0627 u0020 u064a u0020 u0645_u0642_u0627_u0648_u0645 u0020 u0628_u0647 u0020 u062d_u0631_u0627_u0631_u062a u0020 u0627_u0632 u0020 u0628_u064a_u0646_u0020", 
        "u0645_u064a_u0631_u0648_u062f u0020 u0648 u0020 u0632_u0645_u0627_u0646 u0020 u0645_u0627_u0646_u062f_u06af_u0627_u0631_u064a u0020 u0645_u062d_u0635_u0648_u0644 u0020 u0646_u064a_u0632 u0020 u0627_u0641_u0632_u0627_u064a_u0634 u0020 u0645_u064a_u064a_u0627_u0628_u062f_u0020", 
        "u0627_u0633_u062a_u0631_u064a_u0644_u064a_u0632_u0627_u0633_u064a_u0648_u0646 u0020 u0646_u0627_u0645_u064a_u062f_u0647 u0020 u0645_u064a_u0634_u0648_u062f u0020 u062f_u0631 u0020 u0645_u0648_u0631_u062f u0020 u0634_u064a_u0631 u0020 u0031_u0032_u0030_u002d_u0031_u0031_u0030_u0020", 
        "u062f_u0631_u062c_u0647 u0020 u0628_u0647 u0020 u0645_u062f_u062a u0020 u0033_u0030_u002d_u0031_u0030 u0020 u062f_u0642_u064a_u0642_u0647 u0020 u000d"
    ]
}