{
    "bounding_box": [
        [
            12, 
            65, 
            671, 
            21
        ], 
        [
            12, 
            91, 
            671, 
            18
        ], 
        [
            12, 
            116, 
            671, 
            19
        ], 
        [
            291, 
            139, 
            392, 
            18
        ], 
        [
            12, 
            165, 
            649, 
            21
        ], 
        [
            12, 
            189, 
            649, 
            20
        ], 
        [
            450, 
            215, 
            212, 
            17
        ], 
        [
            12, 
            243, 
            671, 
            20
        ], 
        [
            68, 
            268, 
            615, 
            18
        ], 
        [
            12, 
            299, 
            671, 
            19
        ], 
        [
            12, 
            324, 
            671, 
            17
        ], 
        [
            239, 
            344, 
            444, 
            22
        ], 
        [
            12, 
            375, 
            671, 
            21
        ], 
        [
            12, 
            399, 
            671, 
            22
        ], 
        [
            475, 
            424, 
            207, 
            20
        ], 
        [
            12, 
            454, 
            671, 
            21
        ], 
        [
            12, 
            477, 
            671, 
            20
        ], 
        [
            617, 
            503, 
            65, 
            17
        ], 
        [
            146, 
            530, 
            537, 
            23
        ], 
        [
            21, 
            503, 
            15, 
            10
        ]
    ], 
    "image_height": 540, 
    "image_width": 720, 
    "transcription": [
        "u0037_u002d u0020 u0627_u06af_u0631 u0020 u0645_u062a_u0648_u062c_u0647 u0020 u0634_u062f_u06cc_u062f u0020 u06a9_u0647 u0020 u062d_u062a_u06cc u0020 u062f_u0631_u0635_u062f u0020 u06a9_u0648_u0686_u06a9_u06cc u0020 u062a_u0642_u0635_u06cc_u0631 u0020 u0628_u0627 u0020 u0634_u0645_u0627_u0633_u062a u0020 u0633_u0631_u06cc_u0639_u0627_u064b u0020 u0645_u0633_u0626_u0648_u0644_u06cc_u062a u0020 u0631_u0627 u0020 u067e_u0630_u06cc_u0631_u0641_u062a_u0647 u0020 u0648 u0020 u0636_u0645_u0646_u0020", 
        "u0627_u0639_u062a_u0631_u0627_u0641_u060c u0020 u0627_u0632 u0020 u0627_u0648 u0020 u0639_u0630_u0631_u062e_u0648_u0627_u0647_u06cc u0020 u06a9_u0646_u06cc_u062f u0020 u0648 u0020 u0642_u0648_u0644 u0020 u062f_u0647_u06cc_u062f u0020 u06a9_u0647 u0020 u062f_u0631 u0020 u0627_u06cc_u0646 u0020 u0627_u0648_u0644_u06cc_u0646 u0020 u0641_u0631_u0635_u062a u0020 u0635_u062f_u0645_u0627_u062a u0020 u062d_u0627_u0635_u0644_u0647 u0020 u0631_u0627 u0020 u062c_u0628_u0631_u0627_u0646 u0020 u06a9_u0631_u062f_u0647 u0020 u0648_u0020", 
        "u0646_u062a_u06cc_u062c_u0647 u0020 u0631_u0627 u0020 u0628_u0647 u0020 u0627_u0648 u0020 u0627_u0637_u0644_u0627_u0639 u0020 u0645_u06cc_u062f_u0647_u06cc_u062f u0020 u0648 u0020 u0645_u0637_u0645_u0626_u0646 u0020 u0628_u0627_u0634_u06cc_u062f u0020 u06a9_u0647 u0020 u0627_u06cc_u0646 u0020 u0635_u062f_u0627_u0642_u062a u0020 u062f_u0631 u0020 u0628_u0631_u062e_u0648_u0631_u062f u0020 u0648 u0020 u06cc_u06a9 u0020 u067e_u0648_u0632_u0634 u0020 u0634_u0641_u0627_u0641 u0020 u0645_u06cc u0020 u062a_u0648_u0627_u0646_u062f_u0020", 
        "u06cc_u06a9 u0020 u06a9_u062f_u0648_u0631_u062a u0020 u0648 u0020 u06a9_u06cc_u0646_u0647 u0020 u062a_u0648_u0632_u06cc u0020 u0631_u0627 u0020 u0628_u0647 u0020 u06cc_u06a9 u0020 u062a_u0641_u0627_u0647_u0645 u0020 u0645_u0634_u062a_u0631_u06a9 u0020 u062a_u0628_u062f_u06cc_u0644 u0020 u06a9_u0646_u062f_u002e_u000d", 
        "u0020_u0628_u0627 u0020 u062a_u0648_u062c_u0647 u0020 u0628_u0647 u0020 u0627_u06cc_u0646_u06a9_u0647 u0020 u0648_u062c_u0648_u062f u0020 u06cc_u06a9 u0020 u0646_u0627_u0631_u0627_u062d_u062a_u06cc u0020 u062f_u0631 u0020 u062a_u062c_u0627_u0631_u062a u0020 u062e_u0633_u0627_u0631_u0627_u062a u0020 u0628_u0632_u0631_u06af u0020 u067e_u06cc_u0634 u0020 u0628_u06cc_u0646_u06cc u0020 u0646_u0634_u062f_u0647 u0020 u0627_u06cc u0020 u0631_u0627 u0020 u0628_u0647 u0020 u0648_u062c_u0648_u062f u0020 u0645_u06cc_u0020", 
        "u0622_u0648_u0631_u062f_u060c u0020 u0628_u0627 u0020 u0627_u06cc_u0646 u0020 u06a9_u0627_u0631_u060c u0020 u0627_u0632 u0020 u0634_u0645_u0627_u0631 u0020 u0646_u0627_u0631_u0627_u0636_u06cc_u0627_u0646 u0020 u0020_u0628_u0627_u0644_u0642_u0648_u0647 u0020 u062e_u0648_u062f u0020 u0646_u0647 u0020 u06cc_u06a9 u0020 u0646_u0641_u0631 u0020 u0628_u0644_u06a9_u0647 u0020 u062f_u0647 u0020 u0647_u0627 u0020 u0646_u0641_u0631 u0020 u0631_u0627 u0020 u06a9_u0645 u0020 u0648 u0020 u0628_u0647 u0020 u06af_u0631_u0648_u0647_u0020", 
        "u0637_u0631_u0641_u062f_u0627_u0631_u0627_u0646 u0020 u062e_u0648_u062f u0020 u0627_u0636_u0627_u0641_u0647 u0020 u0645_u06cc u0020 u0646_u0645_u0627_u06cc_u06cc_u062f_u002e_u000d", 
        "u0038_u002d u0020 u0627_u06af_u0631 u0020 u062d_u0642 u0020 u0628_u0627 u0020 u0627_u0648 u0020 u0628_u0648_u062f_u060c u0020 u0628_u0647 u0020 u0627_u0648 u0020 u0628_u06af_u0648_u06cc_u06cc_u062f_u003a u0020 u0627_u0632 u0020 u0648_u0642_u062a_u06cc u0020 u06a9_u0647 u0020 u0628_u0631_u0627_u06cc u0020 u0645_u0627 u0020 u0635_u0631_u0641 u0020 u06a9_u0631_u062f_u0647 u0020 u062a_u0627 u0020 u0645_u0634_u06a9_u0644_u06cc u0020 u0631_u0627 u0020 u06af_u0648_u0634_u0632_u062f u0020 u06a9_u0646_u062f u0020 u0648 u0020 u0645_u0627_u0646_u0639_u06cc_u0020", 
        "u0631_u0627 u0020 u0627_u0632 u0020 u0633_u0631 u0020 u0631_u0627_u0647 u0020 u06a9_u0627_u0631 u0020 u0634_u0645_u0627 u0020 u0628_u0631_u062f_u0627_u0631_u062f_u060c u0020 u06a9_u0645_u0627_u0644 u0020 u0627_u0645_u062a_u0646_u0627_u0646 u0020 u0631_u0627 u0020 u0627_u0632 u0020 u0627_u0648 u0020 u062f_u0627_u0634_u062a_u0647 u0020 u0648 u0020 u0647_u0645_u0647 u0020 u0639_u0645_u0631 u0020 u062e_u0648_u062f u0020 u0631_u0627 u0020 u0645_u062f_u06cc_u0648_u0646 u0020 u0627_u0648 u0020 u0645_u06cc_u062f_u0627_u0646_u06cc_u062f_u002e_u000d", 
        "u0039_u002d u0020 u06a9_u0644_u0645_u0627_u062a_u062a_u0627_u0646 u0020 u0645_u062d_u062a_u0631_u0645_u0627_u0646_u0647 u0020 u0628_u0648_u062f_u0647 u0020 u0648 u0020 u0628_u0648_u06cc u0020 u0635_u0645_u06cc_u0645_u06cc_u062a u0020 u062f_u0647_u062f_u060c u0020 u0645_u062b_u0644 u0020 u00ab_u0627_u0632 u0020 u0627_u06cc_u0646_u06a9_u0647 u0020 u0634_u0645_u0627 u0020 u0686_u0646_u062f u0020 u0633_u0627_u0644 u0020 u0627_u0633_u062a u0020 u0645_u0634_u062a_u0631_u06cc u0020 u0645_u0627 u0020 u0647_u0633_u062a_u06cc_u062f u0020 u0645_u0627_u0020", 
        "u062e_u0648_u062f u0020 u0631_u0627 u0020 u0645_u0644_u0632_u0645 u0020 u0645_u06cc u0020 u062f_u0627_u0646_u06cc_u0645 u0020 u0628_u0647 u0020 u0647_u0631_u0637_u0631_u06cc_u0642 u0020 u0645_u0645_u06a9_u0646 u0020 u0631_u0636_u0627_u06cc_u062a u0020 u0634_u0645_u0627 u0020 u0631_u0627 u0020 u062c_u0644_u0628 u0020 u06a9_u0646_u06cc_u0645_u00bb u0020 u0628_u062f_u06cc_u0646_u0648_u0633_u06cc_u0644_u0647 u0020 u062f_u0631 u0020 u0627_u0648 u0020 u0627_u062d_u0633_u0627_u0633 u0020 u0645_u0647_u0645 u0020 u0628_u0648_u062f_u0646_u0020", 
        "u0631_u0627 u0020 u0632_u0646_u062f_u0647 u0020 u06a9_u0646_u06cc_u062f u0020 u0648 u0020 u0628_u0647 u0020 u0627_u0648 u0020 u062f_u0642_u06cc_u0642_u0627_u064b u0020 u0627_u0637_u0645_u06cc_u0646_u0627_u0646 u0020 u062f_u0647_u06cc_u062f u0020 u06a9_u0647 u0020 u0628_u0647 u0020 u0646_u0641_u0639 u0020 u0627_u0648 u0020 u06a9_u0627_u0631 u0020 u062e_u0648_u0627_u0647_u06cc_u062f u0020 u06a9_u0631_u062f_u002e_u000d", 
        "u0031_u0030_u002d u0020 u0631_u0627_u0647 u0020 u0647_u0627_u06cc_u06cc u0020 u0628_u0631_u0627_u06cc u0020 u06a9_u0627_u0647_u0634 u0020 u0641_u0634_u0627_u0631 u0020 u0645_u0633_u0626_u0644_u0647 u0020 u067e_u06cc_u062f_u0627 u0020 u06a9_u0646_u06cc_u062f u0020 u0645_u062b_u0644_u0627 u0020 u0627_u06af_u0631 u0020 u062a_u0623_u062e_u06cc_u0631 u0020 u062f_u0631 u0020 u062a_u062d_u0648_u06cc_u0644 u0020 u06a9_u0627_u0644_u0627 u0020 u0628_u0627_u0639_u062b u0020 u062e_u0634_u0645 u0020 u0627_u0648 u0020 u0634_u062f_u0647_u0020", 
        "u0628_u06af_u0648_u0626_u06cc_u062f_u00ab_u062f_u06cc_u0631 u0020 u0648 u0020 u0632_u0648_u062f u0020 u062f_u0627_u0631_u062f u0020 u0648_u0644_u06cc u0020 u0645_u0637_u0645_u0626_u0646 u0020 u0628_u0627_u0634_u06cc_u062f u0020 u0633_u0648_u062e_u062a u0020 u0648 u0020 u0633_u0648_u0632 u0020 u0646_u062f_u0627_u0631_u062f_u00bb u0020 u0020_u06cc_u0627 u0020 u00ab u0020 u0627_u06af_u0631 u0020 u062f_u06cc_u0631 u0020 u0634_u0631_u0648_u0639 u0020 u06a9_u0631_u062f_u06cc_u0645 u0020 u0648_u0644_u06cc u0020 u0633_u0639_u06cc_u0020", 
        "u0645_u06cc u0020 u06a9_u0646_u06cc_u0645 u0020 u0628_u0647 u0020 u0645_u0648_u0642_u0639 u0020 u062a_u062d_u0648_u06cc_u0644 u0020 u062f_u0647_u06cc_u0645_u002e_u00bb u0020 u000d", 
        "u0031_u0031_u002d u0020 u0627_u0642_u062f_u0627_u0645_u06cc u0020 u0633_u0631_u06cc_u0639 u0020 u0648 u0020 u0641_u0648_u0631_u06cc u0020 u0628_u0647 u0020 u0639_u0645_u0644 u0020 u0622_u0648_u0631_u06cc_u062f u0020 u0648 u0020 u0645_u0633_u0626_u0644_u0647 u0020 u0631_u0627 u0020 u0641_u0648_u0631_u06cc u0020 u062d_u0644 u0020 u06a9_u0646_u06cc_u062f u0020 u0648 u0020 u0628_u0647 u0020 u0645_u0634_u062a_u0631_u06cc u0020 u0628_u0641_u0647_u0645_u0627_u0646_u06cc_u062f u0020 u06a9_u0647 u0020 u0634_u0645_u0627 u0020 u0628_u0631_u0627_u06cc_u0020", 
        "u062d_u0644 u0020 u0645_u0633_u0626_u0644_u0647 u0020 u0627_u0648 u0020 u0646_u0647_u0627_u06cc_u062a u0020 u062a_u0644_u0627_u0634_u062a_u0627_u0646 u0020 u0631_u0627 u0020 u0628_u0647 u0020 u06a9_u0627_u0631 u0020 u06af_u0631_u0641_u062a_u0647 u0020 u0627_u06cc_u062f u0020 u0648 u0020 u0628_u06af_u0630_u0627_u0631_u06cc_u062f u0020 u0627_u0648 u0020 u0648_u0642_u062a_u06cc u0020 u0627_u0632 u0020 u0634_u0645_u0627 u0020 u062c_u062f_u0627 u0020 u0645_u06cc u0020 u0634_u0648_u062f u0020 u0627_u062d_u0633_u0627_u0633 u0020 u0645_u0647_u0645_u0020", 
        "u0628_u0648_u062f_u0646 u0020 u06a9_u0646_u062f_u002e_u000d", 
        "u0031_u0032_u002d u0020 u062f_u0631 u0020 u062e_u0627_u062a_u0645_u0647 u0020 u0647_u0645 u0020 u0645_u062c_u062f_u062f_u0627 u0020 u0628_u0631_u0627_u06cc u0020 u0645_u0634_u062a_u0631_u06cc u0020 u062a_u0648_u0636_u06cc_u062d u0020 u062f_u0647_u06cc_u062f u0020 u06a9_u0647 u0020 u0686_u06af_u0648_u0646_u0647 u0020 u0645_u0634_u06a9_u0644 u0020 u0631_u0627 u0020 u062d_u0644 u0020 u06a9_u0631_u062f_u06cc_u062f_u002e_u000d", 
        "u0034_u0037"
    ]
}