{
    "bounding_box": [
        [
            282, 
            29, 
            122, 
            37
        ], 
        [
            109, 
            182, 
            540, 
            32
        ], 
        [
            95, 
            215, 
            554, 
            36
        ]
    ], 
    "image_height": 540, 
    "image_width": 720, 
    "transcription": [
        "u0641_u064a_u0632_u064a_u0643_u064a u0020 u0020_u000b", 
        "u0645_u0643_u0627_u0646 u0020 u062a_u0647_u064a_u0647 u0020 u0648 u0020 u0622_u0645_u0627_u062f_u0647 u0020 u0633_u0627_u0632_u064a u0020 u0645_u0648_u0627_u062f u0020 u063a_u0630_u0627_u064a_u064a u0020 u0628_u0627_u064a_u062f u0020 u0628_u0631_u0627_u064a u0020 u0647_u0645_u064a_u0646_u0020", 
        "u0645_u0646_u0638_u0648_u0631 u0020 u0633_u0627_u062e_u062a_u0647 u0020 u0634_u0648_u062f u0020 u0648 u0020 u0639_u0627_u0631_u064a u0020 u0627_u0632 u0020 u0647_u0631_u06af_u0648_u0646_u0647 u0020 u0622_u0644_u0648_u062f_u06af_u064a u0020 u0628_u0627_u0634_u062f u0020 u002e_u000d"
    ]
}