{
    "bounding_box": [
        [
            438, 
            47, 
            261, 
            32
        ], 
        [
            125, 
            84, 
            573, 
            33
        ], 
        [
            606, 
            122, 
            93, 
            29
        ], 
        [
            75, 
            160, 
            624, 
            33
        ], 
        [
            26, 
            198, 
            673, 
            34
        ], 
        [
            26, 
            236, 
            673, 
            31
        ], 
        [
            91, 
            276, 
            608, 
            33
        ], 
        [
            21, 
            313, 
            678, 
            31
        ], 
        [
            494, 
            356, 
            204, 
            29
        ], 
        [
            9, 
            390, 
            689, 
            34
        ], 
        [
            451, 
            430, 
            248, 
            32
        ], 
        [
            67, 
            467, 
            631, 
            34
        ], 
        [
            28, 
            504, 
            670, 
            32
        ]
    ], 
    "image_height": 540, 
    "image_width": 720, 
    "transcription": [
        "u0645_u0642_u0648_u0645_u0627_u062a u0020 u0627_u0644_u0639_u0645_u0644 u0020 u0627_u0644_u062a_u0637_u0648_u0639_u064a_u003a_u000d", 
        "u0648_u0645_u0646 u0020 u0623_u0647_u0645 u0020 u0627_u0644_u0645_u0642_u0648_u0645_u0627_u062a u0020 u0627_u0644_u0623_u0633_u0627_u0633_u064a_u0629 u0020 u0644_u0644_u0639_u0645_u0644 u0020 u0627_u0644_u062f_u0639_u0648_u064a u0020 u0648_u0627_u0644_u062a_u0637_u0648_u0639_u064a_u003a_u000d", 
        "u0031_u002d_u0627_u0644_u0646_u064a_u0629_u003a_u000d", 
        "u0625_u0646_u0647_u0627 u0020 u0623_u0633_u0627_u0633 u0020 u0643_u0644 u0020 u0639_u0645_u0644_u060c u0020 u0648_u0639_u0644_u0649 u0020 u0623_u0633_u0627_u0633_u0647_u0627 u0020 u064a_u062d_u0627_u0633_u0628 u0020 u0627_u0644_u0645_u0631_u0621 u0020 u0639_u0646 u0020 u0623_u0641_u0639_u0627_u0644_u0647_u0020", 
        "u0648_u0623_u0642_u0648_u0627_u0644_u0647_u060c u0020 u0641_u0639_u0646 u0020 u0623_u0645_u064a_u0631 u0020 u0627_u0644_u0645_u0624_u0645_u0646_u064a_u0646 u0020 u0639_u0645_u0631 u0020 u0627_u0628_u0646 u0020 u0627_u0644_u062e_u0637_u0627_u0628 u0020 u0631_u0636_u064a u0020 u0627_u0644_u0644_u0647 u0020 u0639_u0646_u0647 u0020 u0642_u0627_u0644_u003a_u0020", 
        "u0633_u0645_u0639_u062a u0020 u0631_u0633_u0648_u0644 u0020 u0627_u0644_u0644_u0647 u0020 u0635_u0644_u0649 u0020 u0627_u0644_u0644_u0647 u0020 u0639_u0644_u064a_u0647 u0020 u0648_u0633_u0644_u0645 u0020 u064a_u0642_u0648_u0644_u003a u0020 u00ab_u0625_u0646_u0645_u0627 u0020 u0627_u0644_u0623_u0639_u0645_u0627_u0644 u0020 u0628_u0627_u0644_u0646_u064a_u0627_u062a u0020 u0648_u0625_u0646_u0645_u0627 u0020 u0644_u0643_u0644 u0020 u0627_u0645_u0631_u0626_u0020", 
        "u0645_u0627 u0020 u0646_u0648_u0649_u061b u0020 u0641_u0645_u0646 u0020 u0643_u0627_u0646_u062a u0020 u0647_u062c_u0631_u062a_u0647 u0020 u0625_u0644_u0649 u0020 u0627_u0644_u0644_u0647 u0020 u0648_u0631_u0633_u0648_u0644_u0647 u0020 u0641_u0647_u062c_u0631_u062a_u0647 u0020 u0625_u0644_u0649 u0020 u0627_u0644_u0644_u0647_u0020", 
        "u0648_u0631_u0633_u0648_u0644_u0647_u060c u0020 u0648_u0645_u0646 u0020 u0643_u0627_u0646_u062a u0020 u0647_u062c_u0631_u062a_u0647 u0020 u0644_u062f_u0646_u064a_u0627 u0020 u064a_u0635_u064a_u0628_u0647_u0627 u0020 u0623_u0648 u0020 u0627_u0645_u0631_u0623_u0629 u0020 u064a_u0646_u0643_u062d_u0647_u0627 u0020 u0641_u0647_u062c_u0631_u062a_u0647_u0020", 
        "u0625_u0644_u0649 u0020 u0645_u0627 u0020 u0647_u0627_u062c_u0631 u0020 u0625_u0644_u064a_u0647_u00bb u0020 u000d", 
        "u0028_u0648_u064a_u0642_u0648_u0644 u0020 u0627_u0644_u0631_u0633_u0648_u0644 u0020 u0635_u0644_u0649 u0020 u0627_u0644_u0644_u0647 u0020 u0639_u0644_u064a_u0647 u0020 u0648_u0633_u0644_u0645 u0020 u003a_u00ab_u0625_u0646 u0020 u0627_u0644_u0644_u0647 u0020 u0644_u0627 u0020 u064a_u0646_u0638_u0631 u0020 u0625_u0644_u0649 u0020 u0623_u062c_u0633_u0627_u062f_u0643_u0645 u0020 u0648_u0644_u0627 u0020 u0625_u0644_u0649 u0020 u0635_u0648_u0631_u0643_u0645_u060c_u0020", 
        "u0648_u0644_u0643_u0646 u0020 u064a_u0646_u0638_u0631 u0020 u0625_u0644_u0649 u0020 u0642_u0644_u0648_u0628_u0643_u0645_u00bb_u000d", 
        "u0641_u0639_u0644_u0649 u0020 u0627_u0644_u0645_u062a_u0637_u0648_u0639 u0020 u0639_u0642_u062f u0020 u0627_u0644_u0646_u064a_u0629 u0020 u0644_u0644_u0647_u060c u0020 u0648_u062a_u062c_u062f_u064a_u062f_u0647_u0627 u0020 u0643_u0644_u0645_u0627 u0020 u0623_u062d_u0633 u0020 u0623_u0646 u0020 u0648_u0633_u0627_u0648_u0633_u0020", 
        "u0627_u0644_u0634_u064a_u0637_u0627_u0646 u0020 u062a_u0633_u0627_u0648_u0631_u0647 u0020 u0644_u062a_u0628_u062f_u064a_u0644 u0020 u0627_u0644_u0646_u064a_u0627_u062a u0020 u0648_u0623_u0646 u0020 u064a_u062f_u0639_u0648 u0020 u0627_u0644_u0644_u0647 u0020 u0627_u0644_u062b_u0628_u0627_u062a u0020 u0648_u0630_u0644_u0643 u0020 u0628_u0627_u0644_u062f_u0639_u0627_u0621_u0020"
    ]
}