{
    "bounding_box": [
        [
            103, 
            56, 
            527, 
            94
        ], 
        [
            114, 
            152, 
            481, 
            100
        ]
    ], 
    "image_height": 540, 
    "image_width": 720, 
    "transcription": [
        "u062e_u0637_u0629_u0028_u0627_u0633_u062a_u0631_u0627_u062a_u064a_u062c_u064a_u0629_u0029_u000d", 
        "u0627_u0644_u062a_u062e_u0645_u064a_u0646 u0020 u0648_u0627_u0644_u062a_u062d_u0642_u0642"
    ]
}