{
    "bounding_box": [
        [
            230, 
            50, 
            259, 
            36
        ], 
        [
            133, 
            124, 
            540, 
            25
        ], 
        [
            209, 
            153, 
            463, 
            25
        ], 
        [
            541, 
            182, 
            132, 
            25
        ], 
        [
            525, 
            213, 
            147, 
            21
        ], 
        [
            490, 
            242, 
            183, 
            22
        ], 
        [
            375, 
            270, 
            297, 
            20
        ], 
        [
            489, 
            329, 
            183, 
            20
        ], 
        [
            351, 
            356, 
            305, 
            23
        ], 
        [
            336, 
            384, 
            320, 
            22
        ], 
        [
            486, 
            412, 
            170, 
            25
        ], 
        [
            474, 
            443, 
            182, 
            21
        ], 
        [
            537, 
            471, 
            119, 
            22
        ], 
        [
            496, 
            502, 
            160, 
            22
        ]
    ], 
    "image_height": 540, 
    "image_width": 720, 
    "transcription": [
        "u0627_u0644_u062c_u0645_u0627_u0639_u0627_u062a u0020 u0648_u062a_u0643_u0648_u064a_u0646_u0647_u0627", 
        "u0627_u0644_u062c_u0645_u0627_u0639_u0629 u0020 u0639_u0628_u0627_u0631_u0629 u0020 u0639_u0646 u0020 u0645_u062c_u0645_u0648_u0639_u0629 u0020 u0645_u0646 u0020 u0623_u062b_u0646_u064a_u0646 u0020 u0623_u0648 u0020 u0623_u0643_u062b_u0631 u0020 u0645_u0646 u0020 u0627_u0644_u0623_u0641_u0631_u0627_u062f u0020 u0627_u0644_u0645_u062a_u0641_u0627_u0639_u0644_u064a_u0646 u0020 u0645_u0639_u0020", 
        "u0628_u0639_u0636_u0647_u0645 u0020 u0627_u0644_u0628_u0639_u0636 u0020 u0641_u064a u0020 u0623_u062f_u0627_u0621 u0020 u0648_u0638_u0627_u0626_u0641 u0020 u0645_u0639_u064a_u0646_u0629 u0020 u0644_u062a_u062d_u0642_u064a_u0642 u0020 u0623_u0647_u062f_u0627_u0641 u0020 u0645_u0634_u062a_u0631_u0643_u0629_u000d", 
        "u0623_u0646_u0648_u0627_u0639 u0020 u0627_u0644_u062c_u0645_u0627_u0639_u0627_u062a_u003a_u000d", 
        "u0627_u0644_u062c_u0645_u0627_u0639_u0627_u062a u0020 u0627_u0644_u0648_u0638_u064a_u0641_u064a_u0629_u000d", 
        "u062c_u0645_u0627_u0639_u0627_u062a u0020 u0627_u0644_u0645_u0647_u0627_u0645 u0020 u0627_u0644_u062e_u0627_u0635_u0629_u000d", 
        "u062c_u0645_u0627_u0639_u0627_u062a u0020 u0627_u0644_u0635_u062f_u0627_u0642_u0629 u0020 u0648_u0627_u0644_u0627_u0647_u062a_u0645_u0627_u0645_u0627_u062a u0020 u0627_u0644_u062e_u0627_u0635_u0629_u000d", 
        "u0627_u0633_u0628_u0627_u0628 u0020 u062a_u0643_u0648_u064a_u0646 u0020 u0627_u0644_u062c_u0645_u0627_u0639_u0627_u062a_u000d", 
        "u062a_u062d_u062f_u064a_u062f u0020 u0623_u0641_u0631_u0627_u062f u0020 u0627_u0644_u062c_u0645_u0627_u0639_u0629 u0020 u0644_u0625_u0646_u062c_u0627_u0632 u0020 u0645_u0647_u0627_u0645 u0020 u062e_u0627_u0635_u0629_u000d", 
        "u0623_u0648 u0020 u0644_u062d_u0644 u0020 u0645_u0634_u0627_u0643_u0644 u0020 u064a_u0635_u0639_u0628 u0020 u062d_u0644_u0647_u0627 u0020 u0628_u0637_u0631_u064a_u0642_u0629 u0020 u0641_u0631_u062f_u064a_u0629_u000d", 
        "u0623_u0648 u0020 u0644_u0644_u062a_u0634_u0627_u0628_u0647 u0020 u0641_u064a u0020 u0627_u0644_u0635_u0641_u0627_u062a_u000d", 
        "u0644_u0648_u062c_u0648_u062f u0020 u0639_u0644_u0627_u0642_u0629 u0020 u0642_u0648_u064a_u0629 u0020 u0628_u064a_u0646_u0647_u0645_u000d", 
        "u0644_u0623_u0646 u0020 u0627_u0644_u0627_u062a_u062d_u0627_u062f u0020 u0642_u0648_u0629_u000d", 
        "u0644_u0625_u0634_u0628_u0627_u0639 u0020 u062d_u0627_u062c_u0627_u062a u0020 u0644_u062f_u064a_u0647_u0645_u000d"
    ]
}