{
    "bounding_box": [
        [
            414, 
            13, 
            231, 
            28
        ], 
        [
            26, 
            43, 
            596, 
            34
        ], 
        [
            30, 
            79, 
            592, 
            28
        ], 
        [
            22, 
            109, 
            600, 
            28
        ], 
        [
            26, 
            138, 
            596, 
            28
        ], 
        [
            68, 
            168, 
            555, 
            28
        ], 
        [
            62, 
            198, 
            561, 
            28
        ], 
        [
            259, 
            228, 
            364, 
            28
        ], 
        [
            19, 
            257, 
            604, 
            34
        ], 
        [
            39, 
            293, 
            583, 
            28
        ], 
        [
            6, 
            323, 
            617, 
            28
        ], 
        [
            33, 
            353, 
            590, 
            28
        ], 
        [
            20, 
            382, 
            603, 
            28
        ], 
        [
            52, 
            412, 
            571, 
            28
        ], 
        [
            11, 
            442, 
            611, 
            28
        ], 
        [
            163, 
            472, 
            460, 
            28
        ]
    ], 
    "image_height": 540, 
    "image_width": 720, 
    "transcription": [
        "u0035_u0640 u0020 u064a_u0646_u0643_u0631_u0648_u0646 u0020 u0627_u0644_u0642_u064a_u0627_u0645_u0629 u0020 u000d", 
        "u064a_u062f_u0639_u0648_u0646 u0020 u0623_u0646 u0020 u0627_u0644_u0633_u064a_u062f u0020 u0627_u0644_u0645_u0633_u064a_u062d u0020 u0642_u0627_u0645 u0020 u0643_u0645_u062e_u0644_u0648_u0642 u0020 u0631_u0648_u062d_u064a u0020 u0648_u0020", 
        "u062a_u062d_u0648_u0644 u0020 u0627_u0644_u062c_u0633_u062f u0020 u0625_u0644_u0649 u0020 u063a_u0627_u0632_u0627_u062a u0020 u0641_u0649 u0020 u0645_u0643_u0627_u0646 u0020 u0644_u0627 u0020 u064a_u0639_u0631_u0641_u0647 u0020 u0627_u062d_u062f_u0020", 
        "u0648_u0623_u0646 u0020 u0631_u0648_u062d_u0647 u0020 u0645_u0627_u062a_u062a u0020 u0648 u0020 u062e_u0644_u0642 u0020 u0644_u0647 u0020 u0627_u0644_u0644_u0647 u0020 u0631_u0648_u062d u0020 u0628_u0648_u0636_u0639 u0020 u0645_u0645_u062c_u062f u0020 u0648_u0020", 
        "u064a_u0633_u062a_u062f_u0644_u0648_u0646 u0020 u0639_u0644_u0649 u0020 u0630_u0644_u0643 u0020 u0628_u062a_u063a_u064a_u0631 u0020 u0647_u064a_u0626_u062a_u0647 u0020 u0628_u0639_u062f u0020 u0627_u0644_u0642_u064a_u0627_u0645_u0629 u0020 u0643_u0645_u0627_u0020", 
        "u064a_u0646_u0643_u0631_u0648_u0646 u0020 u0627_u0644_u0642_u064a_u0627_u0645_u0629 u0020 u0627_u0644_u0639_u0627_u0645_u0629 u0020 u0644_u062c_u0645_u064a_u0639 u0020 u0627_u0644_u0645_u0624_u0645_u0646_u064a_u0646 u0020 u0645_u0627_u0639_u062f_u0627_u0020", 
        "u0627_u0644_u0635_u0641_u0648_u0629 u0020 u0627_u0644_u0623_u0648_u0644_u0649 u0020 u0645_u0646 u0020 u062c_u0645_u0627_u0639_u0627_u062a_u0647_u0645 u0020 u0627_u0644_u0630_u064a_u0646 u0020 u0627_u0633_u0645_u0648_u0647_u0645_u0020", 
        "u0628_u0627_u0644_u0642_u0637_u064a_u0639 u0020 u0627_u0644_u0635_u063a_u064a_u0631 u0020 u0020_u0623_u0648 u0020 u0031_u0034_u0034 u0020 u0623_u0644_u0641 u0020 u002e_u000d", 
        "u0627_u0644_u0631_u062f u0020 u003a u0020 u0643_u0627_u0646 u0020 u0631_u0628_u0646_u0627 u0020 u064a_u0633_u0648_u0639 u0020 u0641_u0649 u0020 u062a_u062c_u0633_u062f_u0647 u0020 u064a_u0638_u0647_u0631 u0020 u0628_u0639_u0636_u0627_u064b u0020 u0645_u0646_u0020", 
        "u0645_u062c_u062f_u0647 u0020 u0648 u0020 u064a_u062b_u0628_u062a u0020 u0644_u0627_u0647_u0648_u062a_u0647 u0020 u0645_u062b_u0644_u0645_u0627 u0020 u0643_u0627_u0646 u0020 u0641_u0649 u0020 u0627_u0644_u062a_u062c_u0644_u064a u0020 u002c u0020 u0648_u0020", 
        "u0639_u0646_u062f_u0645_u0627 u0020 u0645_u0631 u0020 u0631_u0628_u0646_u0627 u0020 u064a_u0633_u0648_u0639 u0020 u0641_u0649 u0020 u0648_u0633_u0637_u0647_u0645 u0020 u0648 u0020 u0644_u0645 u0020 u064a_u0634_u0639_u0631_u0648_u0627 u0020 u0628_u0647_u0020", 
        "u0648 u0020 u0643_u0630_u0644_u0643 u0020 u0639_u0646_u062f_u0645_u0627 u0020 u0645_u0634_u0649 u0020 u0639_u0644_u0649 u0020 u0627_u0644_u0645_u0627_u0621 u0020 u002e u0020 u0648 u0020 u0628_u0639_u062f u0020 u0627_u0644_u0642_u064a_u0627_u0645_u0629_u0020", 
        "u0638_u0647_u0631 u0020 u0631_u0628_u0646_u0627 u0020 u064a_u0633_u0648_u0639 u0020 u0644_u0645_u062c_u0645_u0648_u0639_u0627_u062a u0020 u0648_u0623_u0641_u0631_u0627_u062f u0020 u0645_u062a_u0646_u0648_u0639_u064a_u0646 u0020 u0645_u0646_u0647_u0645_u0020", 
        "u062a_u0644_u0645_u064a_u0630_u064a u0020 u0639_u0645_u0648_u0627_u0633 u0020 u0648 u0020 u064a_u0642_u0648_u0644 u0020 u0639_u0646_u0647_u0645_u0627 u0020 u0627_u0644_u0643_u062a_u0627_u0628 u0020 u0022 u0020 u0623_u0642_u062a_u0631_u0628_u0020", 
        "u064a_u0633_u0648_u0639 u0020 u0625_u0644_u064a_u0647_u0645_u0627 u0020 u0648_u0643_u0627_u0646 u0020 u064a_u0645_u0634_u064a u0020 u0645_u0639_u0647_u0645_u0627 u0020 u0648 u0020 u0644_u0643_u0646 u0020 u0623_u0645_u0633_u0643_u062a_u0020", 
        "u0623_u0639_u064a_u0646_u0647_u0645_u0627 u0020 u0639_u0646 u0020 u0645_u0639_u0631_u0641_u062a_u0647 u0020 u0022 u0020 u0028 u0020 u0644_u0648_u0032_u0034_u003a_u0031_u0035_u002d_u0031_u0036_u0029_u0020"
    ]
}