{
    "bounding_box": [
        [
            50, 
            47, 
            626, 
            30
        ], 
        [
            44, 
            83, 
            605, 
            30
        ], 
        [
            94, 
            119, 
            555, 
            30
        ], 
        [
            109, 
            156, 
            540, 
            29
        ], 
        [
            70, 
            192, 
            579, 
            29
        ], 
        [
            56, 
            229, 
            593, 
            28
        ], 
        [
            105, 
            258, 
            544, 
            35
        ], 
        [
            39, 
            299, 
            610, 
            30
        ], 
        [
            40, 
            336, 
            608, 
            29
        ], 
        [
            66, 
            371, 
            582, 
            30
        ], 
        [
            52, 
            407, 
            596, 
            30
        ], 
        [
            191, 
            444, 
            458, 
            29
        ]
    ], 
    "image_height": 540, 
    "image_width": 720, 
    "transcription": [
        "u064a_u0641_u062a_u062a_u062d u0020 u0628_u0648_u0644_u0633 u0020 u0631_u0633_u0627_u0626_u0644_u0647 u0020 u0628_u0646_u0635_u0648_u0635 u0020 u062a_u0631_u062d_u064a_u0628_u064a_u0647 u0020 u062a_u0634_u064a_u0631_u0627_u0644_u0649 u0020 u0627_u0644_u0644_u0647 u0020 u0648_u0627_u0644_u0649 u0020 u064a_u0633_u0648_u0639_u002c u0020 u0627_u0644_u0627_u0020", 
        "u0627_u0646_u0647_u0627 u0020 u0644_u0627 u0020 u062a_u0634_u064a_u0631 u0020 u0627_u0644_u0649 u0020 u0627_u0644_u0631_u0648_u062d u0020 u0627_u0644_u0642_u062f_u0633 u0020 u0028_u0631_u0648_u0645_u064a_u0629 u0020 u0037_u003a_u0031_u002c u0020 u0031 u0020 u0643_u0648_u0631_u0646_u062b_u0648_u0633 u0020 u0033_u003a_u0031_u002c_u0020", 
        "u0032 u0020 u0643_u0648_u0631_u0646_u062b_u0648_u0633 u0020 u0032_u003a_u0031_u002c u0020 u063a_u0644_u0627_u0637_u064a_u0629 u0020 u0033_u003a_u0031_u002c u0020 u0627_u0641_u0633_u0633 u0020 u0032_u003a_u0031_u002c u0020 u0641_u064a_u0644_u0628_u064a u0020 u0032_u003a_u0031_u002c_u0020", 
        "u0643_u0648_u0644_u0648_u0633_u064a u0020 u0032_u003a_u0031_u002c u0020 u0031 u0020 u062a_u0633_u0627_u0644_u0648_u0646_u064a_u0643_u064a u0020 u0031_u003a_u0031_u002c u0020 u0032 u0020 u062a_u0633_u0627_u0644_u0648_u0646_u064a_u0643_u064a u0020 u0032_u003a_u0031_u002c u0020 u0031_u0020", 
        "u062a_u064a_u0645_u0648_u062b_u0627_u0648_u0633 u0020 u0032_u003a_u0031_u002c u0020 u0032 u0020 u062a_u064a_u0645_u0648_u062b_u0627_u0648_u0633 u0020 u0032_u003a_u0031_u002c u0020 u062a_u064a_u0637_u0633 u0020 u0034_u003a_u0031_u002c u0020 u0641_u0644_u064a_u0645_u0648_u0646 u0020 u0033_u0029_u002c_u0020", 
        "u0627_u0644_u0627_u0645_u0631 u0020 u0627_u0644_u0630_u064a u0020 u064a_u062b_u064a_u0631 u0020 u0627_u0644_u0627_u0633_u062a_u063a_u0631_u0627_u0628 u0020 u0627_u0630_u0627 u0020 u0645_u0627 u0020 u0627_u0639_u062a_u0628_u0631_u0646_u0627 u0020 u0627_u0646 u0020 u0627_u0644_u0631_u0648_u062d u0020 u0627_u0644_u0642_u062f_u0633 u0020 u0627_u062d_u062f_u0020", 
        "u0627_u0634_u062e_u0627_u0635 u0020 u0627_u0644_u0644_u0647_u002c u0020 u0643_u0645_u0627 u0020 u064a_u0641_u062a_u0631_u0636 u0020 u0645_u0630_u0647_u0628 u0020 u0028_u0627_u0644_u062b_u0627_u0644_u0648_u062b_u0029 u0020 u062e_u0637_u0623_u064b_u002e u0020 u0648_u0628_u062d_u0633_u0628_u0020", 
        "u0028_u0627_u0639_u0645_u0627_u0644 u0020 u0031_u0037_u003a_u0032_u002c u0020 u0031_u0038_u0029 u0020 u0641_u0627_u0646 u0020 u0628_u0639_u0636_u0627 u0020 u0645_u0646 u0020 u0627_u0644_u0631_u0648_u062d u0020 u0627_u0644_u0642_u062f_u0633 u0020 u0642_u062f u0020 u0627_u0646_u0633_u0643_u0628 u0020 u0639_u0644_u0649_u0020", 
        "u0627_u0644_u0646_u0627_u0633_u002c u0020 u0648_u0646_u0641_u0633 u0020 u0627_u0644_u062a_u0639_u0628_u064a_u0631 u0020 u0627_u0644_u064a_u0648_u0646_u0627_u0646_u064a u0020 u0642_u062f u0020 u0627_u0633_u062a_u062e_u062f_u0645 u0020 u0641_u064a u0020 u0028_u0645_u0631_u0642_u0633 u0020 u0032_u003a_u0031_u0032_u002c u0020 u0644_u0648_u0642_u0627_u0020", 
        "u0031_u0033_u003a_u0036_u002c u0020 u064a_u0648_u062d_u0646_u0627 u0020 u0031_u0030_u003a_u0032_u0031_u002c u0020 u0627_u0639_u0645_u0627_u0644 u0020 u0032_u003a_u0035_u0029_u002c u0020 u0641_u0643_u064a_u0641 u0020 u064a_u0645_u0643_u0646 u0020 u0646_u0648_u0627_u0644 u0020 u0628_u0639_u0636_u0627_u0020", 
        "u0645_u0646 u0020 u0634_u062e_u0635_u061f u0020 u0022_u0627_u0646_u0647 u0020 u005b_u0627_u0644_u0644_u0647_u005d u0020 u0642_u062f u0020 u0627_u0639_u0637_u0627_u0646_u0627 u0020 u0645_u0646 u0020 u0631_u0648_u062d_u0647_u0022 u0020 u0028_u0031 u0020 u064a_u0648_u062d_u0646_u0627 u0020 u0031_u0033_u003a_u0034_u0029_u002c_u0020", 
        "u0644_u064a_u0633 u0020 u0644_u0630_u0644_u0643 u0020 u0627_u064a u0020 u0645_u0639_u0646_u0649 u0020 u0644_u0648 u0020 u0643_u0627_u0646 u0020 u0627_u0644_u0631_u0648_u062d u0020 u0627_u0644_u0642_u062f_u0633 u0020 u0634_u062e_u0635_u0627_u002e"
    ]
}