{
    "bounding_box": [
        [
            196, 
            41, 
            326, 
            51
        ], 
        [
            79, 
            130, 
            575, 
            23
        ], 
        [
            117, 
            154, 
            537, 
            23
        ], 
        [
            81, 
            207, 
            568, 
            23
        ], 
        [
            39, 
            231, 
            610, 
            23
        ], 
        [
            72, 
            255, 
            577, 
            23
        ], 
        [
            57, 
            279, 
            592, 
            23
        ], 
        [
            52, 
            303, 
            597, 
            23
        ], 
        [
            392, 
            327, 
            257, 
            23
        ], 
        [
            49, 
            380, 
            600, 
            23
        ], 
        [
            74, 
            404, 
            574, 
            23
        ], 
        [
            41, 
            428, 
            608, 
            23
        ], 
        [
            53, 
            453, 
            596, 
            22
        ], 
        [
            98, 
            476, 
            551, 
            23
        ]
    ], 
    "image_height": 540, 
    "image_width": 720, 
    "transcription": [
        "u062a_u0639_u0631_u064a_u0641 u0020 u0627_u0644_u0639_u0635_u0631 u0020 u0627_u0644_u0631_u0627_u0634_u062f_u064a", 
        "u0643_u0627_u0646_u062a u0020 u0627_u0644_u0645_u062f_u064a_u0646_u0629 u0020 u0627_u0644_u0645_u0646_u0648_u0631_u0629 u0020 u0641_u064a u0020 u0645_u0639_u0638_u0645 u0020 u0647_u0630_u0627 u0020 u0627_u0644_u0639_u0647_u062f u0020 u0639_u0627_u0635_u0645_u0629 u0020 u0627_u0644_u062f_u0648_u0644_u0629 u0020 u0627_u0644_u0625_u0633_u0644_u0627_u0645_u064a_u0629 u0020 u0627_u0644_u0645_u062a_u0646_u0627_u0645_u064a_u0629 u0020 u0648_u0645_u0631_u0643_u0632 u0020 u062a_u0648_u062c_u064a_u0647_u0020", 
        "u0627_u0644_u0641_u062a_u0648_u062d_u0627_u062a u0020 u0648_u0646_u0634_u0631 u0020 u0627_u0644_u0625_u0633_u0644_u0627_u0645 u0020 u0641_u064a u0020 u0627_u0644_u0623_u0645_u0635_u0627_u0631_u060c u0020 u0648_u0645_u0631_u0643_u0632 u0020 u0627_u0644_u062d_u0631_u0643_u0629 u0020 u0627_u0644_u0633_u064a_u0627_u0633_u064a_u0629 u0020 u0648_u0627_u0644_u0646_u0634_u0627_u0637 u0020 u0627_u0644_u0627_u0642_u062a_u0635_u0627_u062f_u064a_u002e u0020 u000d", 
        "u062a_u0648_u0644_u0649 u0020 u0623_u0628_u0648 u0020 u0628_u0643_u0631 u0020 u0627_u0644_u0635_u062f_u064a_u0642 u0020 u0627_u0644_u062e_u0644_u0627_u0641_u0629 u0020 u0628_u0639_u062f u0020 u0645_u062f_u0627_u0648_u0644_u0627_u062a u0020 u0628_u064a_u0646 u0020 u0627_u0644_u0645_u0647_u0627_u062c_u0631_u064a_u0646 u0020 u0648_u0627_u0644_u0623_u0646_u0635_u0627_u0631 u0020 u062c_u0631_u062a u0020 u0641_u064a u0020 u0633_u0642_u064a_u0641_u0629 u0020 u0628_u0646_u064a_u0020", 
        "u0633_u0627_u0639_u062f_u0629_u060c u0020 u0641_u0628_u0639_u062b u0020 u062c_u064a_u0634 u0020 u0623_u0633_u0627_u0645_u0629 u0020 u0628_u0646 u0020 u0632_u064a_u062f u0020 u0627_u0644_u0630_u064a u0020 u0623_u0645_u0631 u0020 u0631_u0633_u0648_u0644 u0020 u0627_u0644_u0644_u0647 u0020 u0635_u0644_u0649 u0020 u0627_u0644_u0644_u0647 u0020 u0639_u0644_u064a_u0647 u0020 u0648_u0633_u0644_u0645 u0020 u0628_u062a_u062c_u0647_u064a_u0632_u0647 u0020 u0642_u0628_u0644 u0020 u0648_u0641_u0627_u062a_u0647 u0020 u0625_u0644_u0649 u0020 u0623_u0637_u0631_u0627_u0641 u0020 u0627_u0644_u0634_u0627_u0645_u060c_u0020", 
        "u0648_u0627_u0645_u062a_u0646_u0639_u062a u0020 u0628_u0639_u0636 u0020 u0627_u0644_u0642_u0628_u0627_u0626_u0644 u0020 u0627_u0644_u062a_u064a u0020 u0644_u0645 u0020 u064a_u062a_u0645_u0643_u0646 u0020 u0645_u0646_u0647_u0627 u0020 u0627_u0644_u0625_u0633_u0644_u0627_u0645 u0020 u0628_u0639_u062f u0020 u0639_u0646 u0020 u062f_u0641_u0639 u0020 u0627_u0644_u0632_u0643_u0627_u0629 u0020 u0648_u0627_u0631_u062a_u062f_u062a u0020 u0628_u0639_u0636 u0020 u0627_u0644_u0642_u0628_u0627_u0626_u0644_u0020", 
        "u0648_u0627_u062f_u0639_u0649 u0020 u0628_u0639_u0636 u0020 u0627_u0644_u0623_u0641_u0631_u0627_u062f u0020 u0627_u0644_u0646_u0628_u0648_u0629_u060c u0020 u0648_u062c_u0645_u0639_u0648_u0627 u0020 u062d_u0648_u0644_u0647_u0645 u0020 u0623_u0646_u0635_u0627_u0631_u0647_u0645_u060c u0020 u0648_u0627_u0642_u062a_u0631_u0628_u062a u0020 u0642_u0628_u0627_u0626_u0644 u0020 u0623_u062e_u0631_u0649 u0020 u0645_u0646 u0020 u0627_u0644_u0645_u062f_u064a_u0646_u0629 u0020 u0637_u0645_u0639_u0627_u064b_u0020", 
        "u0628_u0628_u0639_u0636 u0020 u0627_u0644_u0645_u063a_u0627_u0646_u0645_u060c u0020 u0648_u0627_u062c_u062a_u0647_u062f u0020 u0623_u0628_u0648 u0020 u0628_u0643_u0631 u0020 u0631_u0636_u064a u0020 u0627_u0644_u0644_u0647 u0020 u0639_u0646_u0647 u0020 u0641_u064a u0020 u062a_u062b_u0628_u064a_u062a u0020 u0627_u0644_u0623_u0645_u0646 u0020 u0641_u064a u0020 u0627_u0644_u0645_u062f_u064a_u0646_u0629_u060c u0020 u0648_u0642_u0627_u062f u0020 u0628_u0646_u0641_u0633_u0647 u0020 u062d_u0645_u0644_u0627_u062a_u0020", 
        "u0633_u0631_u064a_u0639_u0629 u0020 u0644_u0625_u0628_u0639_u0627_u062f u0020 u0627_u0644_u0637_u0627_u0645_u0639_u064a_u0646 u0020 u0648_u062a_u0623_u0645_u064a_u0646 u0020 u0627_u0644_u0645_u062f_u064a_u0646_u0629_u002e u0020 u000d", 
        "u0648_u0644_u0645_u0627 u0020 u0639_u0627_u062f u0020 u062c_u064a_u0634 u0020 u0623_u0633_u0627_u0645_u0629 u0020 u0628_u0627_u0644_u0646_u0635_u0631 u0020 u0648_u0627_u0644_u063a_u0646_u0627_u0626_u0645 u0020 u062c_u0647_u0632 u0020 u062d_u0645_u0644_u0627_u062a u0020 u0623_u062e_u0631_u0649 u0020 u0644_u062a_u0623_u062f_u064a_u0628 u0020 u0645_u0627_u0646_u0639_u064a u0020 u0627_u0644_u0632_u0643_u0627_u0629 u0020 u0648_u0642_u062a_u0627_u0644 u0020 u0627_u0644_u0645_u0631_u062a_u062f_u064a_u0646_u0020", 
        "u0648_u0627_u0644_u0645_u062a_u0646_u0628_u0626_u064a_u0646_u060c u0020 u0648_u0635_u0627_u0631_u062a u0020 u0627_u0644_u0645_u062f_u064a_u0646_u0629 u0020 u0645_u0646_u0637_u0644_u0642_u0627_u064b u0020 u0644_u062d_u0645_u0644_u0627_u062a u0020 u0646_u0634_u0637_u0629 u0020 u0627_u0633_u062a_u0637_u0627_u0639_u062a u0020 u0623_u0646 u0020 u062a_u0639_u064a_u062f u0020 u0627_u0644_u0623_u0645_u0646 u0020 u0648_u0627_u0644_u0637_u0645_u0623_u0646_u064a_u0646_u0629 u0020 u0625_u0644_u0649_u0020", 
        "u0627_u0644_u062c_u0632_u064a_u0631_u0629 u0020 u0627_u0644_u0639_u0631_u0628_u064a_u0629_u060c u0020 u062b_u0645 u0020 u062a_u062d_u0648_u0644_u062a u0020 u0625_u0644_u0649 u0020 u062d_u0631_u0643_u0629 u0020 u0641_u062a_u0648_u062d_u0627_u062a u0020 u0641_u064a u0020 u0627_u0644_u0634_u0627_u0645 u0020 u0648_u0627_u0644_u0639_u0631_u0627_u0642_u002e u0020 u0648_u0627_u0646_u062e_u0631_u0637 u0020 u0643_u062b_u064a_u0631 u0020 u0645_u0646 u0020 u0623_u0647_u0644 u0020 u0627_u0644_u0645_u062f_u064a_u0646_u0629_u0020", 
        "u0641_u064a u0020 u0627_u0644_u062c_u0647_u0627_u062f u0020 u0648_u0627_u0633_u062a_u0634_u0647_u062f u0020 u0639_u062f_u062f u0020 u0643_u0628_u064a_u0631 u0020 u0645_u0646_u0647_u0645 u0020 u0645_u0639_u0638_u0645_u0647_u0645 u0020 u0645_u0646 u0020 u062d_u0641_u0638_u0629 u0020 u0627_u0644_u0642_u0631_u0622_u0646_u060c u0020 u0641_u0623_u0645_u0631 u0020 u0623_u0628_u0648 u0020 u0628_u0643_u0631 u0020 u0628_u062c_u0645_u0639 u0020 u0627_u0644_u0642_u0631_u0622_u0646 u0020 u0641_u064a_u0020", 
        "u0645_u0635_u062d_u0641 u0020 u0645_u0648_u062d_u062f u0020 u0641_u062c_u0645_u0639_u002e u0020 u0648_u0648_u0631_u062f_u062a u0020 u0625_u0644_u0649 u0020 u0627_u0644_u0645_u062f_u064a_u0646_u0629 u0020 u0627_u0644_u063a_u0646_u0627_u0626_u0645 u0020 u0648_u0627_u0644_u0633_u0628_u0627_u064a_u0627_u060c u0020 u0648_u0623_u0639_u062a_u0642 u0020 u0627_u0644_u0643_u062b_u064a_u0631 u0020 u0645_u0646_u0647_u0646 u0020 u0627_u0644_u0625_u0633_u0644_u0627_u0645_u000d"
    ]
}