{
    "bounding_box": [
        [
            609, 
            53, 
            86, 
            38
        ], 
        [
            125, 
            121, 
            564, 
            30
        ], 
        [
            257, 
            166, 
            409, 
            29
        ], 
        [
            262, 
            208, 
            405, 
            26
        ], 
        [
            115, 
            250, 
            552, 
            29
        ], 
        [
            177, 
            292, 
            489, 
            29
        ], 
        [
            479, 
            324, 
            187, 
            29
        ], 
        [
            165, 
            367, 
            502, 
            32
        ], 
        [
            409, 
            406, 
            258, 
            26
        ], 
        [
            219, 
            448, 
            447, 
            29
        ]
    ], 
    "image_height": 540, 
    "image_width": 720, 
    "transcription": [
        "u062a_u0627_u0628_u0639_u002e_u002e_u002e", 
        "u0631_u0627_u0628_u0639_u0627 u0020 u003a u0020 u0645_u0647_u0627_u0631_u0629 u0020 u0627_u0644_u062a_u0630_u0648_u0642 u0020 u0648_u0627_u0644_u0646_u0642_u062f u0020 u060c u0020 u0648_u062a_u062a_u0635_u0644 u0020 u0628_u0647_u0627 u0020 u0627_u0644_u0639_u0646_u0627_u0635_u0631 u0020 u0627_u0644_u0622_u062a_u064a_u0629 u0020 u003a_u000d", 
        "u0031 u0020 u0640 u0020 u062d_u0633_u0646 u0020 u0627_u0644_u0627_u0633_u062a_u0645_u0627_u0639 u0020 u0648_u0627_u0644_u062a_u0641_u0627_u0639_u0644 u0020 u0645_u0639 u0020 u0627_u0644_u0645_u062a_u062d_u062f_u062b u0020 u002e_u000d", 
        "u0032 u0020 u0640 u0020 u0627_u0644_u0642_u062f_u0631_u0629 u0020 u0639_u0644_u0649 u0020 u0645_u0634_u0627_u0631_u0643_u0629 u0020 u0627_u0644_u0645_u062a_u062d_u062f_u062b u0020 u0639_u0627_u0637_u0641_u064a_u0627 u0020 u002e_u000d", 
        "u0033 u0020 u0640 u0020 u0627_u0644_u0642_u062f_u0631_u0629 u0020 u0639_u0644_u0649 u0020 u062a_u0645_u064a_u064a_u0632 u0020 u0645_u0648_u0627_u0637_u0646 u0020 u0627_u0644_u0642_u0648_u0629 u0020 u060c u0020 u0648_u0627_u0644_u0636_u0639_u0641 u0020 u0641_u064a u0020 u0627_u0644_u062d_u062f_u064a_u062b_u000d", 
        "u0034 u0020 u0640 u0020 u0627_u0644_u062d_u0643_u0645 u0020 u0639_u0644_u0649 u0020 u0627_u0644_u062d_u062f_u064a_u062b u0020 u0641_u064a u0020 u0636_u0648_u0621 u0020 u0627_u0644_u062e_u0628_u0631_u0627_u062a u0020 u0627_u0644_u0633_u0627_u0628_u0642_u0629 u0020 u060c_u0020", 
        "u0648_u0642_u0628_u0648_u0644_u0647 u0020 u0623_u0648 u0020 u0631_u0641_u0636_u0647 u0020 u002e_u00a0_u000d", 
        "u0035 u0020 u0640 u0020 u0625_u062f_u0631_u0627_u0643 u0020 u0645_u062f_u0649 u0020 u0623_u0647_u0645_u064a_u0629 u0020 u0627_u0644_u0623_u0641_u0643_u0627_u0631 u0020 u0627_u0644_u062a_u064a u0020 u062a_u0636_u0645_u0646_u0647_u0627 u0020 u0627_u0644_u062d_u062f_u064a_u062b u0020 u060c_u0020", 
        "u0648_u0645_u062f_u0649 u0020 u0635_u0644_u0627_u062d_u064a_u062a_u0647_u0627 u0020 u0644_u0644_u062a_u0637_u0628_u064a_u0642 u0020 u002e_u000d", 
        "u0036 u0020 u0640 u0020 u0627_u0644_u0642_u062f_u0631_u0629 u0020 u0639_u0644_u0649 u0020 u0627_u0644_u062a_u0646_u0628_u0624 u0020 u0628_u0645_u0627 u0020 u0633_u064a_u0646_u062a_u0647_u064a u0020 u0625_u0644_u064a_u0647 u0020 u0627_u0644_u062d_u062f_u064a_u062b u0020 u002e_u000d"
    ]
}