{
    "bounding_box": [
        [
            63, 
            143, 
            612, 
            23
        ], 
        [
            612, 
            172, 
            70, 
            19
        ], 
        [
            45, 
            199, 
            631, 
            24
        ], 
        [
            349, 
            229, 
            333, 
            23
        ], 
        [
            42, 
            260, 
            634, 
            21
        ], 
        [
            87, 
            287, 
            589, 
            23
        ], 
        [
            266, 
            315, 
            416, 
            22
        ], 
        [
            93, 
            343, 
            583, 
            24
        ], 
        [
            218, 
            372, 
            458, 
            24
        ]
    ], 
    "image_height": 540, 
    "image_width": 720, 
    "transcription": [
        "u002a_u0648_u064a_u0645_u0643_u0646 u0020 u062a_u0642_u0633_u064a_u0645 u0020 u0627_u0644_u0645_u0631_u0627_u062d_u0644 u0020 u0627_u0644_u062a_u064a u0020 u062a_u0643_u0648_u0646 u0020 u0641_u064a_u0647_u0627 u0020 u0627_u0644_u0628_u062a_u0631_u0648_u0644 u0020 u0637_u0628_u0642_u0627 u0020 u0644_u0644_u0646_u0638_u0631_u064a_u0647 u0020 u0627_u0644_u0639_u0636_u0648_u064a_u0647 u0020 u0627_u0644_u0649 u0020 u062b_u0644_u0627_u062b_u0020", 
        "u0645_u0631_u0627_u062d_u0644 u0020 u003a_u000b", 
        "u0031_u002d u0020 u0645_u0631_u062d_u0644_u0647 u0020 u062f_u0641_u0646 u0020 u0627_u0644_u0643_u0627_u0626_u0646_u0627_u062a u0020 u0627_u0644_u062d_u064a_u0647 u0020 u002f u0020 u0641_u064a u0020 u0647_u0630_u0647 u0020 u0627_u0644_u0645_u0631_u062d_u0644_u0647 u0020 u064a_u062a_u0645 u0020 u062f_u0641_u0646 u0020 u0648_u0637_u0645_u0631 u0020 u0627_u0644_u0646_u0628_u0627_u062a_u0627_u062a u0020 u0648_u0627_u0644_u0637_u062d_u0627_u0644_u0628_u0020", 
        "u0648_u0627_u0644_u062d_u064a_u0648_u0627_u0646_u0627_u062a u0020 u0627_u0644_u0628_u062d_u0631_u064a_u0647 u0020 u0627_u0644_u062a_u0649 u0020 u0648_u0635_u0644_u062a u0020 u0627_u0644_u0649 u0020 u0627_u0644_u0628_u062d_u0631 u0020 u000b", 
        "u0032_u002d u0020 u0645_u0631_u062d_u0644_u0647 u0020 u0627_u0644_u062a_u0641_u0643_u0643 u0020 u0627_u0644_u062d_u064a_u0648_u064a_u002f u0020 u062a_u062a_u0643_u0648_u0646 u0020 u0627_u0644_u0646_u0628_u0627_u062a_u0627_u062a u0020 u0648_u0627_u0644_u062d_u064a_u0648_u0627_u0646_u0627_u062a u0020 u0645_u0646 u0020 u0627_u0631_u0628_u0639 u0020 u0645_u062c_u0645_u0648_u0639_u0627_u062a u0020 u0643_u064a_u0645_u064a_u0627_u0626_u064a_u0647_u0020", 
        "u0647_u064a u0020 u0627_u0644_u0628_u0631_u0648_u062a_u064a_u0646_u0627_u062a u0020 u0648_u0627_u0644_u0643_u0631_u0628_u0648_u0647_u064a_u062f_u0631_u0627_u062a u0020 u0648_u0627_u0644_u0644_u064a_u062c_u0646_u064a_u062a u0020 u0648_u0627_u0644_u062f_u0647_u0646_u064a_u0627_u062a u0020 u002c u0020 u062a_u062a_u062d_u0644_u0644 u0020 u0627_u0644_u0645_u0648_u0627_u062f u0020 u0627_u0644_u0639_u0636_u0648_u064a_u0647_u0020", 
        "u0627_u0644_u0633_u0627_u0628_u0642_u0647 u0020 u0628_u0641_u0639_u0644 u0020 u0627_u0644_u0628_u0643_u062a_u0631_u064a_u0627 u0020 u0645_u0646 u0020 u0628_u0648_u0644_u064a_u0645_u0631 u0020 u0627_u0644_u0649 u0020 u062c_u0632_u064a_u0626_u0627_u062a u0020 u0635_u063a_u064a_u0631_u0647 u0020 u002e_u000b", 
        "u0033_u002d u0020 u0645_u0631_u062d_u0644_u0647 u0020 u0627_u0644_u062a_u0643_u062b_u0641 u0020 u002f u0020 u0628_u0639_u062f u0020 u062a_u0648_u0642_u0641 u0020 u0627_u0644_u0639_u0645_u0644_u064a_u0627_u062a u0020 u0627_u0644_u0628_u064a_u0648_u0643_u064a_u0645_u064a_u0627_u0626_u064a_u0647 u0020 u062a_u062e_u0636_u0639 u0020 u0627_u0644_u0645_u0627_u062f_u0647 u0020 u0644_u062a_u0641_u0627_u0639_u0644_u0627_u062a_u0020", 
        "u0643_u064a_u0645_u064a_u0627_u0626_u064a_u0647 u0020 u062a_u062d_u0648_u0644_u0647_u0627 u0020 u0627_u0644_u0649 u0020 u0645_u0627_u062f_u0647 u0020 u0643_u062b_u064a_u0641_u0647 u0020 u0627_u0648 u0020 u0635_u0644_u0628_u0647 u0020 u063a_u064a_u0631 u0020 u0642_u0627_u0628_u0644_u0647 u0020 u0644_u0644_u0630_u0648_u0628_u0627_u0646 u0020 u0020"
    ]
}