{
    "bounding_box": [
        [
            26, 
            55, 
            656, 
            23
        ], 
        [
            26, 
            113, 
            656, 
            23
        ], 
        [
            26, 
            173, 
            656, 
            21
        ], 
        [
            26, 
            230, 
            656, 
            23
        ], 
        [
            26, 
            290, 
            656, 
            21
        ], 
        [
            26, 
            346, 
            656, 
            22
        ], 
        [
            26, 
            404, 
            656, 
            24
        ], 
        [
            277, 
            461, 
            405, 
            24
        ]
    ], 
    "image_height": 540, 
    "image_width": 720, 
    "transcription": [
        "u064a_u0628_u062f_u0648 u0020 u0645_u0646 u0020 u0639_u0646_u0648_u0627_u0646 u0020 u0647_u0630_u0647 u0020 u0627_u0644_u0645_u0642_u0627_u0644_u0629 u0020 u0628_u0623_u0646 u0020 u0627_u0644_u062d_u062f_u064a_u062b u0020 u0633_u0648_u0641 u0020 u064a_u062a_u0637_u0631_u0642 u0020 u0625_u0644_u0649 u0020 u0627_u0644_u0623_u0645_u0631_u0627_u0636 u0020 u0627_u0644_u062a_u064a u0020 u062a_u0635_u064a_u0628 u0020 u0627_u0644_u0625_u0646_u0633_u0627_u0646 u0020 u0623_u0648_u0020", 
        "u0627_u0644_u062d_u064a_u0648_u0627_u0646 u0020 u0648_u0644_u0643_u0646 u0020 u0644_u064a_u0633 u0020 u0627_u0644_u0623_u0645_u0631 u0020 u0628_u0635_u062d_u064a_u062d u0020 u0641_u064a u0020 u0647_u0630_u0647 u0020 u0627_u0644_u0645_u0642_u0627_u0644_u0629_u002e u0020 u0020_u0625_u0646 u0020 u0645_u0648_u0636_u0648_u0639 u0020 u0647_u0630_u0627 u0020 u0627_u0644_u0645_u0642_u0627_u0644 u0020 u064a_u062a_u0637_u0631_u0642 u0020 u0625_u0644_u0649 u0020 u0642_u0636_u064a_u0629_u0020", 
        "u0627_u0642_u062a_u0635_u0627_u062f_u064a_u0629 u0020 u062c_u0627_u062f_u0629 u0020 u0648_u0645_u0647_u0645_u0629 u0020 u062a_u062e_u062a_u0635 u0020 u0627_u0644_u062f_u0648_u0644 u0020 u0627_u0644_u062a_u064a u0020 u064a_u0647_u064a_u0645_u0646 u0020 u0639_u0644_u0649 u0020 u0627_u0642_u062a_u0635_u0627_u062f_u064a_u0627_u062a_u0647_u0627 u0020 u0627_u0644_u0645_u0648_u0627_u0631_u062f u0020 u0627_u0644_u0637_u0628_u064a_u0639_u064a_u0629 u0020 u0633_u0648_u0627_u0621 u0020 u0643_u0627_u0646_u062a_u0020", 
        "u0625_u0646_u062a_u0627_u062c u0020 u0627_u0644_u0630_u0647_u0628 u0020 u0643_u0645_u0627 u0020 u0647_u0648 u0020 u0627_u0644_u062d_u0627_u0644 u0020 u0641_u064a u0020 u0642_u062f_u064a_u0645 u0020 u0627_u0644_u0632_u0645_u0627_u0646 u0020 u0623_u0648 u0020 u0627_u0644_u0646_u0641_u0637 u0020 u0648_u0627_u0644_u0623_u0644_u0645_u0627_u0633 u0020 u0641_u064a u0020 u0627_u0644_u0639_u0635_u0631 u0020 u0627_u0644_u062d_u062f_u064a_u062b_u002e u0020 u0020_u0648_u0628_u062d_u0643_u0645 u0020 u0627_u0646_u0020", 
        "u062f_u0648_u0644 u0020 u0645_u062c_u0644_u0633 u0020 u0627_u0644_u062a_u0639_u0627_u0648_u0646 u0020 u0627_u0644_u062e_u0644_u064a_u062c_u064a u0020 u062a_u062f_u062e_u0644 u0020 u0636_u0645_u0646 u0020 u0647_u0630_u0647 u0020 u0627_u0644_u0641_u0626_u0629 u0020 u062d_u064a_u062b u0020 u0625_u0646 u0020 u0642_u0637_u0627_u0639 u0020 u0627_u0644_u0646_u0641_u0637 u0020 u0648_u0627_u0644_u063a_u0627_u0632 u0020 u0627_u0644_u0637_u0628_u064a_u0639_u064a u0020 u064a_u0647_u064a_u0645_u0646_u0020", 
        "u0639_u0644_u0649 u0020 u0645_u0639_u0638_u0645 u0020 u0635_u0627_u062f_u0631_u0627_u062a_u0647_u0627 u0020 u0648_u0645_u064a_u0632_u0627_u0646_u064a_u0627_u062a_u0647_u0627 u0020 u0627_u0644_u0639_u0627_u0645_u0629 u0020 u0648_u0645_u062c_u0645_u0644 u0020 u0623_u0646_u0634_u0637_u062a_u0647_u0627 u0020 u0627_u0644_u0627_u0642_u062a_u0635_u0627_u062f_u064a_u0629_u060c u0020 u0641_u0625_u0646_u0647_u0627 u0020 u062a_u0643_u0648_u0646 u0020 u0639_u0627_u062f_u0629 u0020 u0639_u0631_u0636_u0629_u0020", 
        "u0644_u0644_u0625_u0635_u0627_u0628_u0629 u0020 u0628_u0627_u0644_u0645_u0631_u0636 u0020 u0627_u0644_u0647_u0648_u0644_u0646_u062f_u064a_u002e u0020 u0648_u0644_u0643_u0646 u0020 u0645_u0627 u0020 u0647_u0648 u0020 u0627_u0644_u0645_u0631_u0636 u0020 u0627_u0644_u0647_u0648_u0644_u0646_u062f_u064a_u061f u0020 u0020_u0648_u0645_u0627 u0020 u0647_u064a u0020 u0623_u0639_u0631_u0627_u0636_u0647_u061f u0020 u0020_u0648_u0643_u064a_u0641 u0020 u064a_u0634_u0643_u0644_u0020", 
        "u062a_u062d_u062f_u064a_u0627_u064b u0020 u0644_u0644_u0627_u0642_u062a_u0635_u0627_u062f u0020 u0627_u0644_u062e_u0644_u064a_u062c_u064a_u061f u0020 u0020_u0648_u0628_u0627_u0644_u0637_u0628_u0639 u0020 u0643_u064a_u0641 u0020 u064a_u0645_u0643_u0646 u0020 u0627_u0644_u062a_u0639_u0627_u0645_u0644 u0020 u0645_u0639_u0647_u061f"
    ]
}