{
    "bounding_box": [
        [
            324, 
            37, 
            70, 
            20
        ], 
        [
            0, 
            105, 
            711, 
            23
        ], 
        [
            0, 
            136, 
            711, 
            23
        ], 
        [
            0, 
            168, 
            711, 
            21
        ], 
        [
            0, 
            198, 
            711, 
            21
        ], 
        [
            0, 
            227, 
            711, 
            23
        ], 
        [
            0, 
            259, 
            711, 
            21
        ], 
        [
            41, 
            287, 
            671, 
            23
        ], 
        [
            291, 
            318, 
            421, 
            23
        ], 
        [
            476, 
            350, 
            208, 
            21
        ], 
        [
            388, 
            380, 
            296, 
            21
        ], 
        [
            548, 
            411, 
            136, 
            19
        ], 
        [
            424, 
            441, 
            260, 
            21
        ]
    ], 
    "image_height": 540, 
    "image_width": 720, 
    "transcription": [
        "u0627_u0644_u062e_u0627_u062a_u0645_u0629", 
        "u0623_u0638_u0647_u0631_u062a u0020 u0627_u0644_u062f_u0631_u0627_u0633_u0629 u0020 u0623_u0646 u0020 u0625_u0642_u0644_u064a_u0645 u0020 u062c_u0646_u0648_u0628 u0020 u0627_u0644_u0635_u0639_u064a_u062f u0020 u064a_u0639_u0627_u0646_u064a u0020 u0645_u0646 u0020 u0645_u0634_u0643_u0644_u0629 u0020 u0633_u0643_u0627_u0646_u064a_u0629_u060c u0020 u0646_u0648_u0642_u0634_u062a u0020 u0623_u0628_u0639_u0627_u062f_u0647_u0627 u0020 u0641_u064a u0020 u0627_u0644_u0635_u0641_u062d_u0627_u062a_u0020", 
        "u0627_u0644_u0633_u0627_u0628_u0642_u0629_u060c u0020 u0648_u064a_u0645_u0643_u0646 u0020 u0627_u0644_u062a_u063a_u0644_u0628 u0020 u0639_u0644_u064a_u0647_u0627 u0020 u0628_u0639_u062f_u0629 u0020 u0637_u0631_u0642 u0020 u062a_u062d_u062a_u0627_u062c u0020 u0644_u062a_u0636_u0627_u0641_u0631 u0020 u062c_u0647_u0648_u062f u0020 u0645_u0634_u062a_u0631_u0643_u0629 u0020 u0628_u064a_u0646 u0020 u0627_u0644_u0645_u062e_u0644_u0635_u064a_u0646 u0020 u0645_u0646 u0020 u0623_u0628_u0646_u0627_u0621 u0020 u0627_u0644_u0625_u0642_u0644_u064a_u0645_u0020", 
        "u0645_u0639 u0020 u062c_u0647_u0648_u062f u0020 u0637_u0648_u064a_u0644_u0629 u0020 u0627_u0644_u0645_u062f_u064a u0020 u0645_u0646 u0020 u0627_u0644_u062c_u0647_u0627_u062a u0020 u0627_u0644_u062d_u0643_u0648_u0645_u064a_u0629 u0020 u0020_u0627_u0644_u062a_u064a u0020 u062a_u062c_u0627_u0647_u0644_u062a u0020 u0625_u0642_u0644_u064a_u0645 u0020 u0627_u0644_u0635_u0639_u064a_u062f u0020 u0644_u0641_u062a_u0631_u0627_u062a u0020 u0637_u0648_u064a_u0644_u0629 u0020 u062a_u0631_u0627_u0643_u0645_u062a u0020 u062e_u0644_u0627_u0644_u0647_u0020", 
        "u0627_u0644_u0639_u062f_u064a_u062f u0020 u0645_u0646 u0020 u0627_u0644_u0645_u0634_u0643_u0644_u0627_u062a u0020 u0646_u062a_u064a_u062c_u0629 u0020 u0647_u0630_u0627 u0020 u0627_u0644_u0625_u0647_u0645_u0627_u0644 u0020 u0641_u064a u0020 u0627_u0644_u0645_u0634_u0627_u0631_u064a_u0639 u0020 u0648_u0627_u0644_u062e_u0637_u0637 u0020 u0627_u0644_u062a_u0646_u0645_u0648_u064a_u0629 u0020 u0648_u0639_u062f_u0645 u0020 u0627_u0644_u0639_u062f_u0627_u0644_u0629 u0020 u0641_u064a u0020 u062a_u0648_u0632_u064a_u0639_u0020", 
        "u0627_u0644_u0627_u0633_u062a_u062b_u0645_u0627_u0631_u0627_u062a u0020 u0627_u0644_u062d_u0643_u0648_u0645_u064a_u0629 u0020 u0628_u064a_u0646 u0020 u0645_u062d_u0627_u0641_u0638_u0627_u062a u0020 u0627_u0644_u062c_u0645_u0647_u0648_u0631_u064a_u0629_u060c u0020 u0641_u0646_u0627_u0644_u062a u0020 u0645_u062d_u0627_u0641_u0638_u0627_u062a u0020 u0627_u0644_u0648_u062c_u0647 u0020 u0627_u0644_u0628_u062d_u0631_u064a u0020 u0627_u0644_u0646_u0635_u064a_u0628 u0020 u0627_u0644_u0623_u0648_u0641_u0649_u060c u0020 u0639_u0644_u064a_u0020", 
        "u062d_u064a_u0646 u0020 u0644_u0645 u0020 u062a_u0646_u0644 u0020 u0645_u062d_u0627_u0641_u0638_u0627_u062a u0020 u0627_u0644_u0635_u0639_u064a_u062f u0020 u0625_u0644_u0627 u0020 u0627_u0644_u0646_u0630_u0631 u0020 u0627_u0644_u064a_u0633_u064a_u0631 u0020 u0645_u0646 u0020 u062a_u0644_u0643 u0020 u0627_u0644_u0627_u0633_u062a_u062b_u0645_u0627_u0631_u0627_u062a_u060c u0020 u0648_u0625_u0646 u0020 u0628_u062f_u062a u0020 u0627_u0644_u062f_u0648_u0644_u0629 u0020 u0641_u064a u0020 u0020_u0627_u0644_u0639_u0642_u0648_u062f u0020 u0627_u0644_u062b_u0644_u0627_u062b_u0629_u0020", 
        "u0627_u0644_u0623_u062e_u064a_u0631_u0629 u0020 u0645_u0646 u0020 u0627_u0644_u062a_u0648_u062c_u0647 u0020 u0646_u062d_u0648 u0020 u0623_u0642_u0627_u0644_u064a_u0645 u0020 u0627_u0644_u0635_u0639_u064a_u062f u0020 u0628_u0628_u0639_u0636 u0020 u0627_u0644_u0645_u0634_u0631_u0648_u0639_u0627_u062a u0020 u0648_u0627_u0644_u062a_u0646_u0645_u064a_u0629 u0020 u0627_u0644_u062a_u064a u0020 u064a_u0645_u0643_u0646 u0020 u0627_u0646 u0020 u062a_u0642_u064a_u0644_u0647 u0020 u0645_u0646 u0020 u0639_u062b_u0631_u062a_u0647 u0020 u002e_u000d", 
        "u0648_u064a_u0643_u0645_u0646 u0020 u0627_u0644_u062a_u063a_u0644_u0628 u0020 u0639_u0644_u064a u0020 u0627_u0644_u0645_u0634_u0643_u0644_u0629 u0020 u0627_u0644_u0633_u0643_u0627_u0646_u064a_u0629 u0020 u0641_u064a u0020 u0627_u0644_u0625_u0642_u0644_u064a_u0645 u0020 u0628_u0639_u062f_u0629 u0020 u0637_u0631_u0642_u003a u0020 u000d", 
        "u062e_u0641_u0636 u0020 u0645_u0639_u062f_u0644_u0627_u062a u0020 u0627_u0644_u0646_u0645_u0648 u0020 u0627_u0644_u0633_u0643_u0627_u0646_u064a_u002e_u000d", 
        "u0625_u0639_u0627_u062f_u0629 u0020 u062a_u0648_u0632_u064a_u0639 u0020 u0627_u0644_u0633_u0643_u0627_u0646 u0020 u0639_u0644_u064a u0020 u0645_u062d_u0627_u0641_u0638_u0627_u062a u0020 u0627_u0644_u0625_u0642_u0644_u064a_u0645_u002e_u000d", 
        "u062a_u0646_u0645_u064a_u0629 u0020 u0645_u0648_u0627_u0631_u062f u0020 u0627_u0644_u0625_u0642_u0644_u064a_u0645_u002e_u000d", 
        "u0627_u0644_u0631_u0642_u064a u0020 u0628_u0627_u0644_u062e_u0635_u0627_u0626_u0635 u0020 u0627_u0644_u0633_u0643_u0627_u0646_u064a_u0629 u0020 u0641_u064a u0020 u0627_u0644_u0625_u0642_u0644_u064a_u0645_u002e"
    ]
}