{
    "bounding_box": [
        [
            196, 
            195, 
            327, 
            70
        ], 
        [
            66, 
            317, 
            573, 
            55
        ], 
        [
            159, 
            396, 
            401, 
            49
        ]
    ], 
    "image_height": 540, 
    "image_width": 720, 
    "transcription": [
        "u0631_u0648_u0627_u0628_u0637 u0020 u0639_u0645_u0648_u0645_u06cc", 
        "u0646_u0648_u06cc_u0633_u0646_u062f_u0647 u0020 u003a u0020 u062c_u0646_u0627_u0628 u0020 u0622_u0642_u0627_u06cc u0020 u0631_u0648_u063a_u0646_u06cc u0020 u0647_u0627_u000d", 
        "u0631_u0627_u06cc_u0627_u0646_u0647 u0020 u003a u0020 u0645_u0647_u062f_u06cc u0020 u0633_u064f_u0631_u0648_u0631_u06cc"
    ]
}