{
    "bounding_box": [
        [
            599, 
            24, 
            149, 
            29
        ], 
        [
            176, 
            134, 
            455, 
            30
        ], 
        [
            239, 
            172, 
            329, 
            31
        ], 
        [
            223, 
            219, 
            281, 
            32
        ], 
        [
            187, 
            266, 
            432, 
            29
        ], 
        [
            146, 
            307, 
            515, 
            27
        ], 
        [
            340, 
            345, 
            136, 
            27
        ]
    ], 
    "image_height": 540, 
    "image_width": 780, 
    "transcription": [
        "u0645_u0646_u0647_u062c_u064a_u0629 u0020 u0627_u0644_u0639_u0645_u0644", 
        "u0642_u0627_u0645 u0020 u0627_u0644_u0641_u0631_u064a_u0642 u0020 u0627_u0644_u0641_u0646_u064a u0020 u0641_u064a u0020 u0627_u0644_u0628_u0631_u0646_u0627_u0645_u062c u0020 u0627_u0644_u0633_u0639_u0648_u062f_u064a u0020 u0644_u0643_u0641_u0627_u0621_u0629_u0020", 
        "u0627_u0644_u0637_u0627_u0642_u0629 u0020 u0628_u0627_u062a_u0628_u0627_u0639 u0020 u0645_u0646_u0647_u062c_u064a_u0629 u0020 u0645_u0628_u0646_u064a_u0629 u0020 u0639_u0644_u0649_u003a_u000d", 
        "u0020 u0020 u0627_u0644_u062a_u0648_u0627_u0641_u0642 u0020 u0648_u0627_u0644_u0625_u062c_u0645_u0627_u0639 u0020 u0020 u0020 u0020 u0020 u0020 u0020 u0020 u0020 u000d", 
        "u0645_u0646 u0020 u0623_u062c_u0644 u0020 u062a_u062d_u062f_u064a_u062b u0020 u0648 u0020 u062a_u0641_u0639_u064a_u0644 u0020 u0627_u0644_u0645_u0648_u0627_u0635_u0641_u0629 u0020 u0627_u0644_u0642_u064a_u0627_u0633_u064a_u0629_u0020", 
        "u0627_u0644_u0633_u0639_u0648_u062f_u064a_u0629 u0020 u0032_u0036_u0036_u0033 u0020 u0644_u0643_u0641_u0627_u0621_u0629 u0020 u0627_u062c_u0647_u0632_u0629 u0020 u0627_u0644_u062a_u0643_u064a_u064a_u0641 u0020 u0648 u0020 u0625_u062c_u0631_u0627_u0621_u0627_u062a_u0020", 
        "u0645_u0631_u0627_u0642_u0628_u0629 u0020 u0627_u0644_u062c_u0648_u062f_u0629"
    ]
}