{
    "bounding_box": [
        [
            99, 
            159, 
            533, 
            46
        ], 
        [
            78, 
            216, 
            554, 
            41
        ], 
        [
            497, 
            274, 
            135, 
            47
        ], 
        [
            74, 
            324, 
            558, 
            51
        ], 
        [
            150, 
            388, 
            482, 
            43
        ], 
        [
            283, 
            87, 
            348, 
            44
        ]
    ], 
    "image_height": 540, 
    "image_width": 720, 
    "transcription": [
        "u062a_u0634_u0643_u0644 u0020 u0639_u0627_u0645 u0020 u0031_u0039_u0037_u0033_u002c u0020 u0644_u0643_u064a u0020 u064a_u0643_u0648_u0646 u0020 u062d_u0644_u0642_u0629_u0020", 
        "u0627_u0644_u0648_u0635_u0644 u0020 u0628_u064a_u0646 u0020 u0627_u0644_u0644_u062c_u0646_u0629 u0020 u0627_u0644_u062a_u0646_u0641_u064a_u0630_u064a_u0629 u0020 u0648_u0627_u0644_u0645_u062c_u0644_u0633_u0020", 
        "u0627_u0644_u0648_u0637_u0646_u064a_u002e_u000d", 
        "u0648_u0643_u0627_u0646 u0020 u064a_u062a_u0643_u0648_u0646 u0020 u0645_u0646 u0020 u0033_u0032 u0020 u0639_u0636_u0648_u0627_u064b u0020 u0641_u0642_u0637_u002c u0020 u0623_u0645_u0627_u0020", 
        "u0627_u0644_u0622_u0646 u0020 u0641_u0642_u062f u0020 u0648_u0635_u0644 u0020 u0627_u0644_u0639_u062f_u062f u0020 u0625_u0644_u0649 u0020 u0031_u0032_u0030 u0020 u002e", 
        "u0033_u002e u0020 u0627_u0644_u0645_u062c_u0644_u0633 u0020 u0627_u0644_u0645_u0631_u0643_u0632_u064a u0020 u003a"
    ]
}