{
    "bounding_box": [
        [
            673, 
            509, 
            20, 
            13
        ], 
        [
            345, 
            43, 
            6, 
            12
        ], 
        [
            345, 
            81, 
            6, 
            1
        ], 
        [
            345, 
            85, 
            6, 
            25
        ], 
        [
            23, 
            204, 
            638, 
            23
        ], 
        [
            23, 
            232, 
            638, 
            24
        ], 
        [
            23, 
            261, 
            638, 
            24
        ], 
        [
            23, 
            289, 
            638, 
            25
        ], 
        [
            29, 
            320, 
            638, 
            23
        ], 
        [
            29, 
            348, 
            638, 
            21
        ], 
        [
            29, 
            376, 
            638, 
            24
        ], 
        [
            18, 
            38, 
            672, 
            25
        ], 
        [
            18, 
            67, 
            672, 
            25
        ], 
        [
            24, 
            97, 
            672, 
            23
        ]
    ], 
    "image_height": 540, 
    "image_width": 720, 
    "transcription": [
        "u0032_u0038", 
        "u000b", 
        "u000b", 
        "u000b", 
        "u0641_u064a u0020 u0625_u0637_u0627_u0631 u0020 u062a_u0637_u0628_u064a_u0642 u0020 u0645_u0642_u062a_u0636_u064a_u0627_u062a u0020 u0627_u0644_u0645_u0631_u0633_u0648_u0645 u0020 u0639_u062f_u062f u0020 u0031_u0031_u0037 u0020 u0627_u0644_u0645_u0624_u0631_u062e u0020 u0641_u064a u0020 u0035 u0020 u0646_u0648_u0641_u0645_u0628_u0631 u0020 u0032_u0030_u0031_u0031_u060c u0020 u062c_u0627_u0621 u0020 u0642_u0631_u0627_u0631_u0020", 
        "u0648_u0632_u064a_u0631 u0020 u0627_u0644_u0645_u0627_u0644_u064a_u0629 u0020 u0627_u0644_u0645_u0624_u0631_u062e u0020 u0641_u064a u0020 u0032_u0032 u0020 u062c_u0627_u0646_u0641_u064a u0020 u0032_u0030_u0031_u0033 u0020 u0644_u064a_u0634_u0631_u062d u0020 u0637_u0631_u0642 u0020 u0625_u062d_u062f_u0627_u062b u0020 u0645_u0624_u0633_u0633_u0627_u062a u0020 u0627_u0644_u062a_u0645_u0648_u064a_u0644_u0020", 
        "u0627_u0644_u0635_u063a_u064a_u0631 u0020 u0628_u0627_u0644_u0646_u0633_u0628_u0629 u0020 u0644_u0644_u062c_u0645_u0639_u064a_u0627_u062a u0020 u0648 u0020 u0627_u0644_u0645_u062a_u0645_u062b_u0644_u0629 u0020 u0641_u064a u0020 u0627_u0644_u0627_u062a_u062d_u0627_u062f_u060c u0020 u0627_u0644_u0627_u0646_u062f_u0645_u0627_u062c u0020 u0020_u0648 u0020 u0627_u0644_u062a_u0641_u0631_u064a_u0639 u0020 u0625_u0644_u0649 u0020 u062c_u0627_u0646_u0628 u0020 u0636_u0628_u0637_u0020", 
        "u0625_u062c_u0631_u0627_u0621_u0627_u062a u0020 u0645_u0646_u062d u0020 u0627_u0644_u062a_u0631_u0627_u062e_u064a_u0635 u0020 u0644_u0647_u0630_u0647 u0020 u0627_u0644_u0645_u0624_u0633_u0633_u0627_u062a u0020 u0627_u0644_u062c_u062f_u064a_u062f_u0629 u0020 u062d_u064a_u062b u0020 u0644_u0627 u0020 u064a_u0645_u0643_u0646 u0020 u0644_u0623_u064a u0020 u0645_u0624_u0633_u0633_u0629 u0020 u062a_u0645_u0648_u064a_u0644_u0020", 
        "u0627_u0644_u0627_u0646_u0637_u0644_u0627_u0642 u0020 u0627_u0644_u0641_u0639_u0644_u064a u0020 u0641_u064a u0020 u062a_u0639_u0627_u0637_u064a u0020 u0646_u0634_u0627_u0637 u0020 u0627_u0644_u062a_u0645_u0648_u064a_u0644 u0020 u0627_u0644_u0635_u063a_u064a_u0631 u0020 u0625_u0644_u0627 u0020 u0628_u0639_u062f u0020 u000b", 
        "u062d_u0635_u0648_u0644_u0647_u0627 u0020 u0639_u0644_u0649 u0020 u062a_u0631_u062e_u064a_u0635 u0020 u0648_u0632_u064a_u0631 u0020 u0627_u0644_u0645_u0627_u0644_u064a_u0629_u002e_u000b", 
        "u0648_u0641_u064a_u0645_u0627 u0020 u064a_u0644_u064a u0020 u0628_u0633_u0637 u0020 u062e_u0627_u0635_u064a_u0627_u062a u0020 u0643_u0644 u0020 u0637_u0631_u064a_u0642_u0629 u0020 u0644_u062e_u0644_u0642 u0020 u0645_u0624_u0633_u0633_u0629 u0020 u062a_u0645_u0648_u064a_u0644 u0020 u0635_u063a_u064a_u0631 u0020 u062c_u062f_u064a_u062f_u0629_u003a_u000b", 
        "u0625_u0639_u0627_u062f_u0629 u0020 u0647_u064a_u0643_u0644_u0629 u0020 u0627_u0644_u062c_u0645_u0639_u064a_u0627_u062a u0020 u0627_u0644_u062a_u0646_u0645_u0648_u064a_u0629 u0020 u0644_u062c_u0639_u0644_u0647_u0627 u0020 u0645_u062a_u0644_u0627_u0626_u0645_u0629 u0020 u0645_u0639 u0020 u0645_u062a_u0637_u0644_u0628_u0627_u062a u0020 u0627_u0644_u0645_u0631_u0633_u0648_u0645 u0020 u0639_u062f_u062f u0020 u0031_u0031_u0037_u0020", 
        "u0644_u0633_u0646_u0629_u0032_u0030_u0031_u0031 u0020 u0648 u0020 u0627_u0644_u0642_u0631_u0627_u0631 u0020 u0627_u0644_u0645_u0624_u0631_u062e u0020 u0641_u064a u0020 u0032_u0032 u0020 u062c_u0627_u0646_u0641_u064a u0020 u0032_u0030_u0031_u0033 u0020 u0648 u0020 u0627_u0644_u0645_u062a_u0639_u0644_u0642 u0020 u0628_u0636_u0628_u0637 u0020 u0625_u062c_u0631_u0627_u0621_u0627_u062a u0020 u0645_u0646_u062d_u0020", 
        "u0627_u0644_u062a_u0631_u0627_u062e_u064a_u0635 u0020 u0644_u0645_u0624_u0633_u0633_u0627_u062a u0020 u0627_u0644_u062a_u0645_u0648_u064a_u0644 u0020 u0627_u0644_u0635_u063a_u064a_u0631 u0020 u0648 u0020 u0628_u062a_u0637_u0648_u0631_u0647_u0627 u0020 u0627_u0644_u0645_u0624_u0633_u0633_u0627_u062a_u064a_u000b"
    ]
}