{
    "bounding_box": [
        [
            86, 
            22, 
            534, 
            36
        ], 
        [
            286, 
            73, 
            146, 
            40
        ], 
        [
            77, 
            134, 
            542, 
            50
        ], 
        [
            264, 
            194, 
            134, 
            43
        ], 
        [
            141, 
            331, 
            416, 
            28
        ], 
        [
            153, 
            380, 
            393, 
            35
        ], 
        [
            56, 
            431, 
            595, 
            35
        ]
    ], 
    "image_height": 540, 
    "image_width": 720, 
    "transcription": [
        "u0627_u0644_u0645_u0639_u0644_u0648_u0645_u0627_u062a u0020 u062d_u0648_u0644 u0020 u062d_u064a_u0627_u0632_u0629 u0020 u0627_u0644_u0645_u0631_u0623_u0629 u0020 u0644_u0644_u0623_u0635_u0648_u0644_u0020", 
        "u0627_u0644_u0627_u0642_u062a_u0635_u0627_u062f_u064a_u0629", 
        "u0648_u0639_u0644_u0649 u0020 u0648_u062c_u0647 u0020 u0627_u0644_u062e_u0635_u0648_u0635 u0020 u0627_u0644_u0623_u0635_u0648_u0644 u0020 u063a_u064a_u0631_u0020", 
        "u0627_u0644_u0645_u0646_u0642_u0648_u0644_u0629_u000d", 
        "u0647_u0644 u0020 u0628_u0625_u0645_u0643_u0627_u0646 u0020 u0627_u0644_u0645_u0631_u0623_u0629 u0020 u0623_u0646 u0020 u062a_u0645_u062a_u0644_u0643 u0020 u0627_u0644_u0623_u0635_u0648_u0644_u061f_u000d", 
        "u0648_u0645_u0627 u0020 u0647_u064a u0020 u062d_u0635_u062a_u0647_u0627 u0020 u0645_u0646 u0020 u0645_u0644_u0643_u064a_u0629 u0020 u0627_u0644_u0623_u0635_u0648_u0631_u000d", 
        "u0648_u0647_u0644 u0020 u0647_u0646_u0627_u0643 u0020 u0633_u062c_u0644_u0627_u062a u0020 u0644_u0647_u0630_u0647 u0020 u0627_u0644_u0645_u0644_u0643_u064a_u0629 u0020 u0623_u0648 u0020 u062d_u062a_u0649 u0020 u0628_u064a_u0627_u0646_u0627_u062a u0020 u0639_u0646_u0647_u0627_u061f"
    ]
}