{
    "bounding_box": [
        [
            244, 
            198, 
            233, 
            61
        ], 
        [
            223, 
            269, 
            254, 
            54
        ]
    ], 
    "image_height": 540, 
    "image_width": 720, 
    "transcription": [
        "u0020 u0020 u0020_u0648_u0627_u0644_u0622_u0646 u0020 u0645_u0639_u0020", 
        "u0643_u062a_u0627_u0628 u0020 u0627_u0644_u0648_u0642_u0641 u0020 u000d"
    ]
}