{
    "bounding_box": [
        [
            44, 
            26, 
            639, 
            59
        ], 
        [
            612, 
            99, 
            71, 
            39
        ], 
        [
            433, 
            159, 
            221, 
            28
        ], 
        [
            46, 
            197, 
            608, 
            27
        ], 
        [
            74, 
            227, 
            580, 
            28
        ], 
        [
            75, 
            258, 
            579, 
            28
        ], 
        [
            422, 
            293, 
            232, 
            25
        ], 
        [
            38, 
            328, 
            616, 
            27
        ], 
        [
            455, 
            357, 
            200, 
            28
        ], 
        [
            671, 
            519, 
            12, 
            8
        ]
    ], 
    "image_height": 540, 
    "image_width": 720, 
    "transcription": [
        "u062a_u0627_u0628_u0639 u0020 u003a u0020 u0623_u0633_u0633 u0020 u0628_u0646_u0627_u0621 u0020 u0627_u0644_u0645_u062c_u062a_u0645_u0639 u0020 u0648_u0639_u0646_u0627_u064a_u0629 u0020 u0627_u0644_u0625_u0633_u0644_u0627_u0645_u0020", 
        "u0628_u0647_u0627 u0020 u003a", 
        "u0627_u0644_u0623_u0633_u0627_u0633 u0020 u0627_u0644_u0631_u0627_u0628_u0639 u0020 u003a u0020 u0627_u0644_u0623_u0631_u0636 u0020 u003a_u000d", 
        "u062a_u0639_u062f u0020 u0627_u0644_u0623_u0631_u0636 u0020 u0648_u0627_u062d_u062f_u0629 u0020 u0645_u0646 u0020 u0627_u0644_u0623_u0633_u0633 u0020 u0627_u0644_u062a_u064a u0020 u064a_u0628_u0646_u0649 u0020 u0639_u0644_u064a_u0647_u0627 u0020 u0627_u0644_u0645_u062c_u062a_u0645_u0639_u060c u0020 u0648_u0628_u064a_u0627_u0646 u0020 u0647_u0630_u0627 u0020 u003a u0020 u0623_u0646 u0020 u0627_u0644_u0644_u0647_u0020", 
        "u062a_u0639_u0627_u0644_u0649 u0020 u0623_u0646_u0632_u0644 u0020 u0627_u0644_u0625_u0633_u0644_u0627_u0645 u0020 u0628_u0623_u062d_u0643_u0627_u0645_u0647 u0020 u0648_u062a_u0634_u0631_u064a_u0639_u0627_u062a_u0647 u0020 u0644_u064a_u062d_u0643_u0645 u0020 u0641_u064a u0020 u0627_u0644_u0623_u0631_u0636_u060c u0020 u0648_u064a_u0637_u0628_u0642 u0020 u0639_u0644_u0649_u0020", 
        "u0623_u0631_u0636 u0020 u0627_u0644_u0648_u0627_u0642_u0639_u060c u0020 u064a_u0645_u062a_u062b_u0644_u0647 u0020 u0627_u0644_u0646_u0627_u0633 u0020 u0641_u064a u0020 u0634_u0624_u0648_u0646 u0020 u062d_u064a_u0627_u062a_u0647_u0645 u0020 u0645_u0646 u0020 u0623_u062c_u0644 u0020 u062a_u0642_u062f_u064a_u0645 u0020 u0623_u0646_u0645_u0648_u0630_u062c u0020 u062d_u064a_u0020", 
        "u0648_u0645_u062b_u0627_u0644_u064a u0020 u0644_u0645_u062c_u062a_u0645_u0639 u0020 u0645_u0633_u0644_u0645 u0020 u0645_u062a_u0645_u064a_u0632_u002e_u000d", 
        "u0648_u0644_u0630_u0627 u0020 u062c_u0627_u0621 u0020 u0641_u064a u0020 u0627_u0644_u0642_u0631_u0622_u0646 u0020 u0627_u0644_u0643_u0631_u064a_u0645 u0020 u0623_u0646 u0020 u0647_u0646_u0627_u0643 u0020 u0639_u0644_u0627_u0642_u0629 u0020 u0648_u0631_u0628_u0637 u0020 u0628_u064a_u0646 u0020 u0625_u0642_u0627_u0645_u0629 u0020 u0627_u0644_u0623_u062d_u0643_u0627_u0645 u0020 u0627_u0644_u0634_u0631_u0639_u064a_u0629_u0020", 
        "u0648_u0628_u064a_u0646 u0020 u0627_u0644_u062a_u0645_u0643_u064a_u0646 u0020 u0641_u064a u0020 u0627_u0644_u0623_u0631_u0636", 
        "u0031_u0031"
    ]
}