{
    "bounding_box": [
        [
            116, 
            191, 
            467, 
            52
        ], 
        [
            207, 
            281, 
            343, 
            26
        ], 
        [
            394, 
            308, 
            157, 
            33
        ]
    ], 
    "image_height": 540, 
    "image_width": 720, 
    "transcription": [
        "u0627_u0644_u0645_u0639_u0627_u064a_u064a_u0631 u0020 u0627_u0644_u0625_u062d_u0635_u0627_u0626_u064a_u0629 u0020 u0627_u0644_u062f_u0648_u0644_u064a_u0629", 
        "u002d u0020 u0645_u0639_u062c_u0645 u0020 u0625_u062d_u0635_u0627_u0626_u064a_u0627_u062a u0020 u0627_u0644_u0646_u0642_u0644 u0020 u0028_u0627_u0644_u0646_u0633_u062e_u0629 u0020 u0627_u0644_u0631_u0627_u0628_u0639_u0629_u0029_u000d", 
        "u002d u0020 u0627_u0644_u0627_u0633_u062a_u0628_u064a_u0627_u0646 u0020 u0627_u0644_u0645_u0648_u062d_u062f_u000d"
    ]
}