{
    "bounding_box": [
        [
            239, 
            166, 
            290, 
            130
        ]
    ], 
    "image_height": 540, 
    "image_width": 720, 
    "transcription": [
        "u0623_u0641_u0643_u0640_u0640_u0640_u0640_u0631"
    ]
}