{
    "bounding_box": [
        [
            58, 
            219, 
            583, 
            37
        ], 
        [
            306, 
            267, 
            97, 
            32
        ], 
        [
            689, 
            520, 
            12, 
            7
        ]
    ], 
    "image_height": 540, 
    "image_width": 720, 
    "transcription": [
        "u0627_u0644_u0648_u0636_u0639 u0020 u0627_u0644_u062d_u0627_u0644_u064a u0020 u0644_u0644_u0645_u0639_u0644_u0648_u0645_u0627_u062a_u064a_u0629 u0020 u0641_u064a u0020 u0625_u062f_u0627_u0631_u0629 u0020 u0642_u0637_u0627_u0639 u0020 u0627_u0644_u0633_u064a_u0627_u062d_u0629_u0020", 
        "u0627_u0644_u0645_u0635_u0631_u064a", 
        "u0032_u0030"
    ]
}