{
    "bounding_box": [
        [
            291, 
            96, 
            213, 
            40
        ], 
        [
            116, 
            186, 
            565, 
            33
        ], 
        [
            130, 
            226, 
            528, 
            32
        ], 
        [
            354, 
            266, 
            96, 
            31
        ]
    ], 
    "image_height": 540, 
    "image_width": 720, 
    "transcription": [
        "u0648_u0639_u0631_u0641_u0647_u0627 u0020 u0647_u064a_u062c_u064a_u0644_u0020", 
        "u0628_u0623_u0646_u0647_u0627 u0020 u0645_u062c_u0645_u0648_u0639_u0629 u0020 u0645_u0646 u0020 u0627_u0644_u0641_u0631_u0648_u0636 u0020 u0627_u0644_u062a_u0649 u0020 u064a_u0645_u0643_u0646 u0020 u0628_u0647_u0627 u0020 u0627_u0644_u062a_u0648_u0635_u0644 u0020 u0625_u0644_u0649_u0020", 
        "u0645_u062c_u0645_u0648_u0639_u0629 u0020 u0645_u0646 u0020 u0627_u0644_u0642_u0648_u0627_u0646_u064a_u0646 u0020 u0627_u0644_u062a_u062c_u0631_u064a_u0628_u064a_u0629 u0020 u0628_u0625_u0633_u062a_u062e_u062f_u0627_u0645 u0020 u0020_u0627_u0644_u0645_u0646_u0637_u0642 u0020 u0020", 
        "u0627_u0644_u0631_u064a_u0627_u0636_u064a_u002c"
    ]
}