{
    "bounding_box": [
        [
            562, 
            39, 
            96, 
            27
        ], 
        [
            50, 
            90, 
            611, 
            29
        ], 
        [
            37, 
            128, 
            625, 
            23
        ], 
        [
            51, 
            160, 
            610, 
            24
        ], 
        [
            91, 
            185, 
            570, 
            27
        ], 
        [
            37, 
            224, 
            624, 
            25
        ], 
        [
            20, 
            252, 
            641, 
            29
        ], 
        [
            52, 
            289, 
            610, 
            25
        ], 
        [
            32, 
            317, 
            630, 
            29
        ], 
        [
            623, 
            352, 
            38, 
            20
        ]
    ], 
    "image_height": 540, 
    "image_width": 720, 
    "transcription": [
        "u0623_u062f_u0627_u0629 u0020 u0627_u0644_u0642_u0637_u0639_u0020", 
        "u0647_u0644 u0020 u0643_u0646_u062a u0020 u062a_u0639_u0631_u0641 u0020 u0623_u0646_u0647 u0020 u0628_u0625_u0645_u0643_u0627_u0646_u0643 u0020 u0627_u062e_u0630 u0020 u0644_u0642_u0637_u0629 u0020 u0634_u0627_u0634_u0629 u0020 u0644_u0623_u064a u0020 u0634_u064a_u0621 u0020 u062a_u0642_u0631_u064a_u0628_u0627 u0020 u064a_u0638_u0647_u0631 u0020 u0639_u0644_u0649_u0020", 
        "u062c_u0647_u0627_u0632 u0020 u0627_u0644_u0643_u0645_u0628_u064a_u0648_u062a_u0631_u061f u0020 u0648_u0644_u0644_u0642_u064a_u0627_u0645 u0020 u0628_u0647_u0630_u0627_u060c u0020 u064a_u0645_u0643_u0646_u0643 u0020 u0627_u0644_u0636_u063a_u0637 u0020 u0639_u0644_u0649 u0020 u0632_u0631 u0020 u0637_u0628_u0627_u0639_u0629 u0020 u0627_u0644_u0634_u0627_u0634_u0629 u0020 u0639_u0644_u0649_u0020", 
        "u0644_u0648_u062d_u0629 u0020 u0627_u0644_u0645_u0641_u0627_u062a_u064a_u062d_u002e u0020 u0648_u0641_u064a u0020 u0644_u0648_u062d_u0629 u0020 u0627_u0644_u0645_u0641_u0627_u062a_u064a_u062d u0020 u0627_u0644_u0642_u064a_u0627_u0633_u064a_u0629_u060c u0020 u064a_u0643_u0648_u0646 u0020 u0647_u0630_u0627 u0020 u0627_u0644_u0632_u0631 u0020 u0645_u0648_u062c_u0648_u062f_u0627 u0020 u0639_u0644_u0649_u0020", 
        "u064a_u0645_u064a_u0646 u0020 u0623_u0632_u0631_u0627_u0631 u0020 u0627_u0644_u0648_u0638_u0627_u0626_u0641 u0020 u0046_u002e u0020 u0648_u0639_u0646_u062f_u0645_u0627 u0020 u062a_u0642_u0648_u0645 u0020 u0628_u0627_u0644_u0636_u063a_u0637 u0020 u0639_u0644_u0649 u0020 u0647_u0630_u0627 u0020 u0627_u0644_u0632_u0631_u060c u0020 u064a_u0642_u0648_u0645_u0020", 
        "u0627_u0644_u0643_u0645_u0628_u064a_u0648_u062a_u0631 u0020 u0628_u062a_u062e_u0632_u064a_u0646 u0020 u0644_u0642_u0637_u0629 u0020 u0627_u0644_u0634_u0627_u0634_u0629 u0020 u0022 u0020 u0644_u0643_u0627_u0645_u0644 u0020 u0627_u0644_u0634_u0627_u0634_u0629 u0020 u0022 u0020 u0641_u064a u0020 u0627_u0644_u0630_u0627_u0643_u0631_u0629_u060c u0020 u0643_u0645_u0627 u0020 u0644_u0648 u0020 u0642_u0645_u062a_u0020", 
        "u0628_u0642_u0635 u0020 u0623_u0648 u0020 u0646_u0633_u062e u0020 u0634_u064a_u0621 u0020 u0645_u0627_u002e u0020 u064a_u0645_u0643_u0646_u0643 u0020 u0628_u0639_u062f_u0626_u0630 u0020 u0641_u062a_u062d u0020 u0628_u0631_u0646_u0627_u0645_u062c u0020 u0644_u062a_u062d_u0631_u064a_u0631 u0020 u0627_u0644_u0635_u0648_u0631 u0020 u0645_u062b_u0644 u0020 u0627_u0644_u0631_u0633_u0627_u0645_u0020", 
        "u0648_u0644_u0635_u0642 u0020 u0644_u0642_u0637_u0629 u0020 u0627_u0644_u0634_u0627_u0634_u0629 u0020 u0648_u0645_u0646 u0020 u062b_u0645 u0020 u062a_u062d_u0631_u064a_u0631_u0647_u0627 u0020 u0648_u062d_u0630_u0641 u0020 u0627_u0644_u0645_u0639_u0644_u0648_u0645_u0627_u062a u0020 u0627_u0644_u062a_u064a u0020 u0644_u0627 u0020 u062a_u0631_u064a_u062f_u0647_u0627_u002e_u0020", 
        "u0648_u0647_u0630_u0627 u0020 u0627_u0644_u0623_u0645_u0631 u0020 u0645_u0641_u064a_u062f u0020 u063a_u064a_u0631 u0020 u0627_u0646_u0647 u0020 u0644_u064a_u0633 u0020 u0639_u0645_u0644_u064a_u0627 u0020 u0646_u062a_u064a_u062c_u0629 u0020 u0644_u0643_u0627_u0641_u0629 u0020 u0623_u0639_u0645_u0627_u0644 u0020 u0627_u0644_u062a_u062d_u0631_u064a_u0631 u0020 u0627_u0644_u062a_u064a u0020 u0633_u062a_u0642_u0648_u0645_u0020", 
        "u0628_u0647_u0627_u002e_u0020"
    ]
}