{
    "bounding_box": [
        [
            246, 
            29, 
            232, 
            42
        ], 
        [
            47, 
            101, 
            610, 
            35
        ], 
        [
            23, 
            138, 
            658, 
            40
        ], 
        [
            28, 
            185, 
            648, 
            36
        ], 
        [
            47, 
            230, 
            611, 
            36
        ], 
        [
            63, 
            273, 
            579, 
            35
        ], 
        [
            27, 
            315, 
            651, 
            35
        ], 
        [
            40, 
            357, 
            625, 
            33
        ], 
        [
            265, 
            401, 
            175, 
            36
        ], 
        [
            36, 
            460, 
            648, 
            17
        ], 
        [
            138, 
            486, 
            436, 
            12
        ]
    ], 
    "image_height": 540, 
    "image_width": 720, 
    "transcription": [
        "u0631_u0623_u0633 u0020 u0627_u0644_u0645_u0627_u0644 u0020 u0627_u0644_u0641_u0643_u0631_u064a", 
        "u064a_u0631_u0649 u0020 u004a_u0061_u0079 u0020 u004c_u0069_u0065_u0062_u006f_u0077_u0069_u0074_u007a u0020 u0026 u0020 u0054_u006f_u006d u0020 u0042_u0065_u0063_u006b_u006d_u0061_u006e u0020 u0020_u0623_u0646_u0020", 
        "u0631_u0623_u0633 u0020 u0627_u0644_u0645_u0627_u0644 u0020 u0627_u0644_u0641_u0643_u0631_u064a u0020 u201d u0020 u064a_u062a_u0631_u0643_u0628 u0020 u0645_u0646 u0020 u0631_u0623_u0633 u0020 u0627_u0644_u0645_u0627_u0644 u0020 u0627_u0644_u0628_u0634_u0631_u064a_u0020", 
        "u0648 u0020 u0631_u0623_u0633 u0020 u0627_u0644_u0645_u0627_u0644 u0020 u0627_u0644_u0647_u064a_u0643_u0644_u064a_u060c u0020 u0627_u0644_u0623_u0648_u0644 u0020 u064a_u062a_u0634_u0643_u0644 u0020 u0645_u0646 u0020 u0627_u0644_u0645_u0639_u0627_u0631_u0641 u0020 u0648_u0020", 
        "u0627_u0644_u0643_u0641_u0627_u0621_u0627_u062a u0020 u0648 u0020 u0645_u0624_u0647_u0644_u0627_u062a u0020 u0627_u0644_u0645_u0633_u062a_u062e_u062f_u0645_u064a_u0646 u0020 u0641_u064a u0020 u0625_u064a_u062c_u0627_u062f u0020 u062d_u0644_u0648_u0644_u0020", 
        "u0644_u0644_u0632_u0628_u0627_u0626_u0646_u060c u0020 u0623_u0645_u0627 u0020 u0627_u0644_u062b_u0627_u0646_u064a u0020 u0641_u064a_u062a_u0643_u0648_u0646 u0020 u0645_u0646 u0020 u0643_u0644 u0020 u0645_u0627 u0020 u064a_u062a_u0628_u0642_u0649 u0020 u0641_u064a_u0020", 
        "u0627_u0644_u0645_u0646_u0638_u0645_u0629 u0020 u0639_u0646_u062f_u0645_u0627 u0020 u064a_u063a_u0627_u062f_u0631_u0647_u0627 u0020 u0627_u0644_u0645_u0633_u062a_u062e_u062f_u0645_u0648_u0646 u0020 u0028_u0642_u0648_u0627_u0639_u062f u0020 u0628_u064a_u0627_u0646_u0627_u062a_u060c_u0020", 
        "u0628_u0637_u0627_u0642_u0627_u062a u0020 u0632_u0628_u0627_u0626_u0646_u060c u0020 u0628_u0631_u0645_u062c_u064a_u0627_u062a_u060c u0020 u062f_u0631_u0627_u0633_u0627_u062a u0020 u0633_u0648_u0642_u064a_u0629_u060c u0020 u0647_u064a_u0627_u0643_u0644_u0020", 
        "u062a_u0646_u0638_u064a_u0645_u064a_u0629_u002e_u002e_u002e_u0029_u201c_u002e_u000d", 
        "u0020 u0020 u004c_u0069_u0065_u0062_u006f_u0077_u0069_u0074_u007a u0020 u004a_u002e u0020 u0026 u0020 u0042_u0065_u0063_u006b_u006d_u0061_u006e u0020 u0054_u002e_u002c u0020 u0022 u0020 u004b_u006e_u006f_u0077_u006c_u0065_u0064_u0067_u0065 u0020 u006f_u0072_u0067_u0061_u006e_u0069_u007a_u0061_u0074_u0069_u006f_u006e_u0073 u0020 u003a u0020 u0057_u0068_u0061_u0074 u0020 u0065_u0076_u0065_u0072_u0079 u0020 u006d_u0061_u006e_u0061_u0067_u0065_u0072_u0020", 
        "u0073_u0068_u006f_u0075_u006c_u0064 u0020 u006b_u006e_u006f_u0077 u0020 u0022 u0020 u00e9_u0064_u002e u0020 u0043_u0052_u0043 u0020 u0050_u0072_u0065_u0073_u0073 u0020 u0020_u004c_u004c_u0043 u0020 u0046_u006c_u006f_u0072_u0069_u0064_u0061 u0020 u002c u0020 u0031_u0039_u0039_u0038 u0020 u002c u0020 u0070_u002e_u0031_u0030_u000d"
    ]
}