{
    "bounding_box": [
        [
            115, 
            90, 
            483, 
            41
        ], 
        [
            355, 
            144, 
            14, 
            22
        ], 
        [
            136, 
            276, 
            443, 
            38
        ], 
        [
            254, 
            320, 
            216, 
            38
        ]
    ], 
    "image_height": 540, 
    "image_width": 720, 
    "transcription": [
        "u0645_u062a_u0649 u0020 u0646_u0633_u062a_u062e_u062f_u0645 u0020 u0627_u0633_u062a_u0631_u0627_u062a_u064a_u062c_u064a_u0629 u0020 u0625_u0646_u0634_u0627_u0621 u0020 u062c_u062f_u0648_u0644_u0020", 
        "u061f", 
        "u0625_u0630_u0627 u0020 u0623_u0645_u0643_u0646 u0020 u062a_u0646_u0638_u064a_u0645 u0020 u0627_u0644_u0645_u0639_u0637_u064a_u0627_u062a u0020 u0641_u064a u0020 u0635_u0641_u064a_u0646 u0020 u0623_u0648_u0020", 
        "u0639_u0645_u0648_u062f_u064a_u0646 u0020 u0028_u0623_u0648 u0020 u0623_u0643_u062b_u0631 u0020 u0029"
    ]
}