{
    "bounding_box": [
        [
            45, 
            139, 
            649, 
            34
        ], 
        [
            30, 
            178, 
            664, 
            34
        ], 
        [
            50, 
            217, 
            644, 
            33
        ], 
        [
            504, 
            253, 
            190, 
            34
        ], 
        [
            160, 
            294, 
            534, 
            33
        ], 
        [
            85, 
            330, 
            609, 
            34
        ], 
        [
            80, 
            370, 
            614, 
            33
        ], 
        [
            204, 
            407, 
            490, 
            34
        ]
    ], 
    "image_height": 540, 
    "image_width": 720, 
    "transcription": [
        "u0625_u0646 u0020 u0635_u0644_u0648_u0627_u062a u0020 u0627_u0644_u0628_u0634_u0631 u0020 u0628_u0639_u0636_u0647_u0645 u0020 u0644_u0623_u062c_u0644 u0020 u0628_u0639_u0636 u0020 u0028_u0645_u0646_u062a_u0642_u0644_u064a_u0646 u0020 u0648_u0645_u062c_u0627_u0647_u062f_u064a_u0646_u0029 u0020 u062f_u0644_u064a_u0644_u0020", 
        "u0639_u0644_u0649 u0020 u0627_u0644_u0645_u062d_u0628_u0629 u0020 u0627_u0644_u0645_u062a_u0628_u0627_u062f_u0644_u0629 u0020 u0628_u064a_u0646 u0020 u0627_u0644_u0628_u0634_u0631_u060c u0020 u0648_u062f_u0644_u064a_u0644 u0020 u0639_u0644_u0649 u0020 u0625_u064a_u0645_u0627_u0646 u0020 u0627_u0644_u0628_u0634_u0631 u0020 u0627_u0644_u0623_u062d_u064a_u0627_u0621_u0020", 
        "u0628_u0623_u0646 u0020 u0627_u0644_u0630_u064a_u0646 u0020 u0625_u0646_u062a_u0642_u0644_u0648_u0627 u0020 u0645_u0627 u0020 u064a_u0632_u0627_u0644_u0648_u0646 u0020 u0623_u062d_u064a_u0627_u0621 u0020 u064a_u0642_u0628_u0644 u0020 u0627_u0644_u0644_u0647 u0020 u0635_u0644_u0648_u0627_u062a_u0647_u0645_u060c u0020 u062f_u0644_u064a_u0644 u0020 u0639_u0644_u0649_u0020", 
        "u0625_u0643_u0631_u0627_u0645 u0020 u0627_u0644_u0644_u0647 u0020 u0644_u0642_u062f_u064a_u0633_u064a_u0647_u002e_u000b", 
        "u0645_u0646 u0020 u0623_u062c_u0644 u0020 u0647_u0630_u0627 u0020 u0633_u0645_u062d u0020 u0627_u0644_u0644_u0647 u0020 u0628_u0647_u0630_u0647 u0020 u0627_u0644_u0634_u0641_u0627_u0639_u0627_u062a_u060c u0020 u0644_u0641_u0627_u0626_u062f_u0629 u0020 u0627_u0644_u0628_u0634_u0631_u002e_u0020", 
        "u0648_u0647_u0630_u0647_u00a0_u0627_u0644_u0634_u0641_u0627_u0639_u0629_u00a0_u0623_u0642_u0627_u0645_u062a u0020 u062c_u0633_u0631_u0627_u064b u0020 u0645_u0645_u062a_u062f_u0627_u064b u0020 u0628_u064a_u0646 u0020 u0633_u0643_u0627_u0646 u0020 u0627_u0644_u0633_u0645_u0627_u0621 u0020 u0648_u0633_u0643_u0627_u0646_u0020", 
        "u0627_u0644_u0623_u0631_u0636_u002e u0020 u0648_u0644_u0645 u0020 u062a_u0639_u062f u0020 u0627_u0644_u0633_u0645_u0627_u0621 u0020 u0634_u064a_u0626_u0627_u064b u0020 u0645_u062c_u0647_u0648_u0644_u0627_u064b u0020 u0645_u062e_u064a_u0641_u0627_u064b u0020 u0641_u064a u0020 u0646_u0638_u0631 u0020 u0627_u0644_u0646_u0627_u0633_u002e_u0020", 
        "u0648_u0623_u0635_u0628_u062d u0020 u0644_u0644_u0646_u0627_u0633 u0020 u0625_u064a_u0645_u0627_u0646 u0020 u0628_u0627_u0644_u0623_u0631_u0648_u0627_u062d u0020 u0648_u0639_u0645_u0644_u0647_u0627 u0020 u0648_u0645_u062d_u0628_u062a_u0647_u0627_u002e_u000b"
    ]
}