{
    "bounding_box": [
        [
            12, 
            23, 
            659, 
            33
        ], 
        [
            12, 
            64, 
            659, 
            29
        ], 
        [
            12, 
            99, 
            659, 
            34
        ], 
        [
            12, 
            140, 
            659, 
            28
        ], 
        [
            12, 
            180, 
            659, 
            29
        ], 
        [
            12, 
            213, 
            659, 
            35
        ], 
        [
            12, 
            255, 
            659, 
            31
        ], 
        [
            12, 
            291, 
            659, 
            31
        ], 
        [
            12, 
            328, 
            659, 
            35
        ], 
        [
            12, 
            372, 
            659, 
            30
        ], 
        [
            12, 
            406, 
            659, 
            34
        ], 
        [
            270, 
            445, 
            400, 
            33
        ]
    ], 
    "image_height": 540, 
    "image_width": 720, 
    "transcription": [
        "u0627_u0644_u0645_u062e_u0627_u0637_u0631 u0020 u0627_u0644_u0645_u0635_u0631_u0641_u064a_u0629 u0020 u0648_u0642_u0631_u0627_u0631_u0627_u062a u0020 u0644_u062c_u0646_u0629 u0020 u0628_u0627_u0632_u0644_u003a u0020 u0641_u064a u0020 u0638_u0644 u0020 u062a_u0635_u0627_u0639_u062f u0020 u062d_u062f_u0629_u0020", 
        "u0627_u0644_u0645_u0646_u0627_u0641_u0633_u0629 u0020 u0628_u064a_u0646 u0020 u0627_u0644_u0645_u062a_u062f_u062e_u0644_u064a_u0646 u0020 u0641_u064a u0020 u0627_u0644_u0633_u0648_u0642 u0020 u0627_u0644_u0645_u0635_u0631_u0641_u064a_u0629 u0020 u0648_u0632_u064a_u0627_u062f_u0629 u0020 u0646_u0633_u0628_u0629_u0020", 
        "u0627_u0644_u0645_u062e_u0627_u0637_u0631 u0020 u0627_u0644_u0645_u062d_u062a_u0645_u0644_u0629 u0020 u0627_u0644_u062a_u064a u0020 u0642_u062f u0020 u062a_u0646_u0634_u0623 u0020 u0645_u0646 u0020 u0627_u0644_u0639_u0648_u0627_u0645_u0644 u0020 u0627_u0644_u062f_u0627_u062e_u0644_u064a_u0629 u0020 u0627_u0644_u062a_u064a u0020 u062a_u062a_u0639_u0644_u0642_u0020", 
        "u0628_u0646_u0634_u0627_u0637 u0020 u0648_u0625_u062f_u0627_u0631_u0629 u0020 u0627_u0644_u0628_u0646_u0643 u0020 u0648_u0643_u0630_u0644_u0643 u0020 u0627_u0644_u0639_u0648_u0627_u0645_u0644 u0020 u0627_u0644_u062e_u0627_u0631_u062c_u064a_u0629 u0020 u0627_u0644_u0646_u0627_u062a_u062c_u0629 u0020 u0639_u0646 u0020 u062a_u063a_u064a_u0631_u0020", 
        "u0627_u0644_u0628_u064a_u0626_u0629 u0020 u0627_u0644_u062a_u064a u0020 u064a_u0639_u0645_u0644 u0020 u0641_u064a_u0647_u0627 u0020 u0627_u0644_u0628_u0646_u0643 u0020 u0648_u0639_u0644_u0649 u0020 u0648_u062c_u0647 u0020 u0627_u0644_u062e_u0635_u0648_u0635 u0020 u0627_u0644_u0628_u064a_u0626_u0629 u0020 u0627_u0644_u0639_u0627_u0644_u0645_u064a_u0629_u060c_u0020", 
        "u0623_u062f_u0649 u0020 u0630_u0644_u0643 u0020 u0625_u0644_u0649 u0020 u0627_u0644_u0627_u0647_u062a_u0645_u0627_u0645 u0020 u0628_u0645_u0639_u0627_u064a_u064a_u0631 u0020 u0643_u0641_u0627_u064a_u0629 u0020 u0631_u0623_u0633 u0020 u0627_u0644_u0645_u0627_u0644 u0020 u0641_u064a u0020 u0627_u0644_u0628_u0646_u0648_u0643 u0020 u0641_u0642_u0627_u0645_u062a_u0020", 
        "u0644_u062c_u0646_u0629 u0020 u0628_u0627_u0632_u0644 u0020 u0627_u0644_u062f_u0648_u0644_u064a_u0629_u0028_uf02a_u0029 u0020 u0628_u0625_u0635_u062f_u0627_u0631 u0020 u0645_u062c_u0645_u0648_u0639_u0629 u0020 u0645_u0646 u0020 u0627_u0644_u0645_u0639_u0627_u064a_u064a_u0631 u0020 u0644_u0648_u0636_u0639 u0020 u062d_u062f_u0648_u062f_u0020", 
        "u062f_u0646_u064a_u0627 u0020 u0644_u0631_u0623_u0633_u0645_u0627_u0644 u0020 u0627_u0644_u0628_u0646_u0643 u0020 u0644_u0645_u0642_u0627_u0628_u0644_u0629 u0020 u0645_u062e_u0627_u0637_u0631 u0020 u0627_u0644_u0627_u0626_u062a_u0645_u0627_u0646 u0020 u0628_u063a_u064a_u0629 u0020 u0627_u0644_u062d_u0641_u0627_u0638 u0020 u0639_u0644_u0649_u0020", 
        "u0627_u0633_u062a_u0642_u0631_u0627_u0631 u0020 u0627_u0644_u0646_u0638_u0627_u0645 u0020 u0627_u0644_u0645_u0635_u0631_u0641_u064a u0020 u0627_u0644_u0639_u0627_u0644_u0645_u064a_u060c u0020 u0020_u062e_u0627_u0635_u0629 u0020 u0628_u0639_u062f u0020 u062a_u0641_u0627_u0642_u0645 u0020 u0623_u0632_u0645_u0629 u0020 u0627_u0644_u062f_u064a_u0648_u0646_u0020", 
        "u0627_u0644_u062e_u0627_u0631_u062c_u064a_u0629 u0020 u0641_u064a u0020 u0627_u0644_u062f_u0648_u0644 u0020 u0627_u0644_u0646_u0627_u0645_u064a_u0629 u0020 u0628_u0633_u0628_u0628 u0020 u062a_u0648_u0633_u0639 u0020 u0627_u0644_u0628_u0646_u0648_u0643 u0020 u0627_u0644_u062f_u0648_u0644_u064a_u0629 u0020 u062e_u0627_u0635_u0629_u0020", 
        "u0627_u0644_u0623_u0645_u0631_u064a_u0643_u064a_u0629 u0020 u0645_u0646_u0647_u0627 u0020 u0641_u064a u0020 u062f_u064a_u0648_u0646 u0020 u0645_u0646_u0641_u0631_u062f_u0629 u0020 u0623_u0648 u0020 u0645_u0639_u062f_u0648_u0645_u0629 u0020 u0648_u0647_u0648 u0020 u0645_u0627 u0020 u062f_u0641_u0639 u0020 u0627_u0644_u0628_u0646_u0648_u0643_u0020", 
        "u0625_u0644_u0649 u0020 u062a_u0646_u0648_u064a_u0639 u0020 u0623_u0646_u0634_u0637_u062a_u0647_u0627 u0020 u0648_u062a_u0645_u0644_u0643 u0020 u0623_u0635_u0648_u0644 u0020 u062d_u0642_u064a_u0642_u064a_u0629_u002e"
    ]
}