{
    "bounding_box": [
        [
            4, 
            14, 
            609, 
            34
        ], 
        [
            2, 
            50, 
            611, 
            35
        ], 
        [
            66, 
            90, 
            547, 
            32
        ], 
        [
            283, 
            125, 
            331, 
            33
        ], 
        [
            26, 
            162, 
            587, 
            39
        ], 
        [
            70, 
            203, 
            544, 
            35
        ], 
        [
            67, 
            240, 
            546, 
            35
        ], 
        [
            28, 
            276, 
            586, 
            35
        ], 
        [
            65, 
            317, 
            548, 
            37
        ], 
        [
            21, 
            356, 
            593, 
            35
        ], 
        [
            24, 
            394, 
            589, 
            33
        ], 
        [
            26, 
            429, 
            588, 
            35
        ], 
        [
            305, 
            466, 
            309, 
            35
        ]
    ], 
    "image_height": 540, 
    "image_width": 720, 
    "transcription": [
        "u0637 u0020 u2013 u0020 u0623_u0641_u0643_u0627_u0631 u0020 u062e_u0627_u0635_u0629 u0020 u0628_u0627_u0644_u0633_u064a_u0627_u0633_u0629 u0020 u0648_u0627_u0644_u0648_u0637_u0646 u0020 u003a u0020 u064a_u0631_u0641_u0636_u0648_u0646_u0020", 
        "u0643_u0644 u0020 u0623_u0646_u0648_u0627_u0639 u0020 u0627_u0644_u062d_u0643_u0648_u0645_u0627_u062a u0020 u002c u0020 u0627_u0644_u0623_u0646_u0636_u0645_u0627_u0645 u0020 u0644_u0644_u062c_u064a_u0634 u0020 u0627_u0644_u0639_u0645_u0644_u0020", 
        "u0641_u0649 u0020 u0627_u0649 u0020 u0648_u0638_u064a_u0641_u0629 u0020 u062d_u0643_u0648_u0645_u0629 u0020 u002c u0020 u062a_u062d_u064a_u0629 u0020 u0627_u0644_u0639_u0644_u0645 u0020 u002e_u002e_u002e_u002e_u0648_u0020", 
        "u064a_u0639_u062a_u0628_u0631_u0648_u0646 u0020 u0647_u0630_u0627 u0020 u0645_u0646 u0020 u0627_u0644_u0648_u062b_u0646_u064a_u0629 u0020 u000d", 
        "u0627_u0644_u0631_u062f u0020 u003a u0020 u0627_u0644_u062e_u0636_u0648_u0639 u0020 u0644_u0644_u0631_u0624_u0633_u0627_u0621 u0020 u0648_u0635_u064a_u0629 u0020 u0643_u062a_u0627_u0628_u064a_u0629 u0020 u062f_u0648_u0646 u0020 u0623_u0646_u0020", 
        "u064a_u0643_u0648_u0646 u0020 u0641_u0649 u0020 u0637_u0627_u0639_u062a_u0647_u0645 u0020 u0645_u0627 u0020 u064a_u062e_u0627_u0644_u0641 u0020 u0648 u0020 u0635_u0627_u064a_u0627 u0020 u0627_u0644_u0631_u0628_u0020", 
        "u0628_u063a_u0636 u0020 u0627_u0644_u0646_u0638_u0631 u0020 u0639_u0646 u0020 u062f_u064a_u0627_u0646_u0629 u0020 u0627_u0644_u062d_u0627_u0643_u0645 u0020 u0022 u0020 u064a_u0646_u0628_u063a_u064a u0020 u0623_u0646_u0020", 
        "u064a_u0637_u0627_u0639 u0020 u0627_u0644_u0644_u0647 u0020 u0623_u0643_u062b_u0631 u0020 u0645_u0646 u0020 u0627_u0644_u0646_u0627_u0633 u0020 u0022 u0020 u0028_u0623_u0639_u0035 u0020 u003a_u0032_u0039 u0020 u0029 u0020 u002e_u002e_u002e_u002e_u0022 u0020 u000d", 
        "u0644_u062a_u062e_u0636_u0639 u0020 u0643_u0644 u0020 u0646_u0641_u0633 u0020 u0644_u0644_u0633_u0644_u0627_u0637_u064a_u0646 u0020 u0627_u0644_u0641_u0627_u0626_u0642_u0629 u0020 u0644_u0623_u0646_u0647_u0020", 
        "u0644_u064a_u0633 u0020 u0633_u0644_u0637_u0627_u0646 u0020 u0625_u0644_u0627 u0020 u0645_u0646 u0020 u0627_u0644_u0644_u0647 u0020 u0648_u0627_u0644_u0633_u0644_u0627_u0637_u064a_u0646 u0020 u0627_u0644_u0643_u0627_u0626_u0646_u0629_u0020", 
        "u0647_u0649 u0020 u0645_u0631_u062a_u0628_u0629 u0020 u0645_u0646 u0020 u0627_u0644_u0644_u0647 u0020 u062d_u062a_u0649 u0020 u0625_u0646 u0020 u064a_u0642_u0627_u0648_u0645 u0020 u0627_u0644_u0633_u0644_u0637_u0627_u0646_u0020", 
        "u062a_u0631_u062a_u064a_u0628 u0020 u0627_u0644_u0644_u0647 u0020 u0648 u0020 u0627_u0644_u0645_u0642_u0627_u0648_u0645_u0648_u0646 u0020 u0633_u064a_u0623_u062e_u0630_u0648_u0646 u0020 u0644_u0623_u0646_u0641_u0633_u0647_u0645_u0020", 
        "u062f_u064a_u0646_u0648_u0646_u0629 u0020 u0022 u0020 u0028_u0631_u0648_u0031_u0033 u0020 u003a u0020 u0031_u002d_u0032 u0020 u0029_u000d"
    ]
}