{
    "bounding_box": [
        [
            279, 
            41, 
            197, 
            51
        ], 
        [
            145, 
            166, 
            521, 
            37
        ], 
        [
            172, 
            206, 
            466, 
            36
        ], 
        [
            134, 
            243, 
            504, 
            37
        ], 
        [
            128, 
            281, 
            511, 
            37
        ], 
        [
            152, 
            322, 
            487, 
            35
        ], 
        [
            430, 
            358, 
            209, 
            37
        ]
    ], 
    "image_height": 540, 
    "image_width": 720, 
    "transcription": [
        "u0627_u0644_u0641_u062d_u0645 u0020 u0627_u0644_u062d_u062c_u0631_u064a", 
        "u0020_u0627_u0644_u0641_u062d_u0645 u0020 u0627_u0644_u062d_u062c_u0631_u064a u0020 u0647_u0648 u0020 u0645_u0627_u062f_u0629 u0020 u0635_u0644_u0628_u0629 u0020 u062a_u0633_u062a_u0639_u0645_u0644 u0020 u0641_u064a u0020 u0645_u062d_u0637_u0627_u062a_u0020", 
        "u062a_u0648_u0644_u064a_u062f u0020 u0627_u0644_u0643_u0647_u0631_u0628_u0627_u0621 u0020 u0648_u0642_u062f u0020 u0643_u0627_u0646 u0020 u064a_u0633_u062a_u0639_u0645_u0644 u0020 u062d_u062a_u0649 u0020 u0642_u0628_u0644 u0020 u0035_u0030_u0020", 
        "u0633_u0646_u0629 u0020 u062a_u0642_u0631_u064a_u0628_u0627_u064b u0020 u0643_u0645_u0627_u062f_u0629 u0020 u0648_u0642_u0648_u062f u0020 u0627_u0633_u0627_u0633_u064a_u0629 u0020 u0644_u062a_u062d_u0631_u064a_u0643 u0020 u0627_u0644_u0642_u0637_u0627_u0631_u0627_u062a_u0020", 
        "u0648_u0627_u0644_u0633_u0641_u0646 u0020 u0627_u0644_u0641_u062d_u0645 u0020 u0627_u0644_u062d_u062c_u0631_u064a u0020 u064a_u0633_u062a_u062e_u0631_u062c u0020 u0645_u0646 u0020 u0628_u0627_u0637_u0646 u0020 u0627_u0644_u0627_u0631_u0636_u0020", 
        "u0648_u0647_u0648 u0020 u0641_u064a u0020 u0627_u0644_u0627_u0635_u0644 u0020 u0627_u062c_u0633_u0627_u062f u0020 u062d_u064a_u0648_u0627_u0646_u0627_u062a u0020 u0645_u062a_u062d_u062c_u0631_u0629 u0020 u0639_u0627_u0634_u062a_u0020", 
        "u0641_u064a u0020 u0627_u0644_u0627_u0632_u0645_u0627_u0646 u0020 u0627_u0644_u0645_u0627_u0636_u064a_u0629_u0020"
    ]
}