{
    "bounding_box": [
        [
            11, 
            148, 
            649, 
            50
        ], 
        [
            11, 
            205, 
            649, 
            50
        ], 
        [
            11, 
            261, 
            649, 
            47
        ], 
        [
            11, 
            323, 
            649, 
            48
        ], 
        [
            297, 
            382, 
            364, 
            46
        ]
    ], 
    "image_height": 540, 
    "image_width": 720, 
    "transcription": [
        "u0627_u0644_u0645_u0624_u0631_u062e u0020 u062b_u064a_u0648_u062f_u0648_u0633_u064a_u0648_u0633 u0020 u064a_u0642_u0648_u0644 u0020 u201d_u0641_u064a u0020 u0627_u0644_u0645_u0643_u0627_u0646_u0020", 
        "u0627_u0644_u0630_u064a u0020 u062a_u0639_u0645_u062f u0020 u0641_u064a_u0647 u0020 u0627_u0644_u0631_u0628 u0020 u0647_u0646_u0627_u0643 u0020 u0639_u0644_u0649 u0020 u0627_u0644_u0637_u0631_u0641_u0020", 
        "u0627_u0644_u0627_u062e_u0631 u0020 u0645_u0646 u0020 u0646_u0647_u0631 u0020 u0627_u0644_u0627_u0631_u062f_u0646 u0020 u062a_u0648_u062c_u062f u0020 u062a_u0644_u0629 u0020 u0635_u063a_u064a_u0631_u0629_u0020", 
        "u0627_u0644_u0645_u0633_u0645_u0627_u0629 u0020 u062d_u0631_u0645_u0648_u0646_u060c u0020 u0648_u0627_u0644_u062a_u064a u0020 u0627_u062e_u062a_u0637_u0641 u0020 u0645_u0646_u0647_u0627_u0020", 
        "u0627_u0644_u0646_u0628_u064a u0020 u0627_u064a_u0644_u064a_u0627 u0020 u0627_u0644_u0649 u0020 u0627_u0644_u0633_u0645_u0627_u0621_u201c_u002e"
    ]
}