{
    "bounding_box": [
        [
            90, 
            90, 
            502, 
            25
        ], 
        [
            332, 
            119, 
            259, 
            25
        ], 
        [
            393, 
            157, 
            235, 
            22
        ], 
        [
            59, 
            190, 
            532, 
            20
        ], 
        [
            388, 
            212, 
            203, 
            22
        ], 
        [
            85, 
            242, 
            507, 
            21
        ], 
        [
            77, 
            269, 
            515, 
            18
        ], 
        [
            539, 
            293, 
            53, 
            17
        ], 
        [
            56, 
            320, 
            536, 
            22
        ], 
        [
            46, 
            344, 
            545, 
            22
        ], 
        [
            94, 
            369, 
            498, 
            21
        ], 
        [
            402, 
            395, 
            190, 
            19
        ], 
        [
            67, 
            423, 
            524, 
            21
        ], 
        [
            516, 
            449, 
            76, 
            18
        ], 
        [
            61, 
            34, 
            483, 
            27
        ]
    ], 
    "image_height": 540, 
    "image_width": 720, 
    "transcription": [
        "u0627_u0644_u0645_u0642_u0635_u0648_u062f u0020 u0628_u0627_u0644_u0623_u0639_u0645_u0627_u0644 u0020 u0627_u0644_u062a_u062c_u0627_u0631_u064a_u0629 u0020 u0647_u064a u0020 u0627_u0644_u0623_u0639_u0645_u0627_u0644 u0020 u0627_u0644_u062a_u062c_u0627_u0631_u064a_u0629 u0020 u0627_u0644_u0623_u0635_u0644_u064a_u0629 u0020 u0648_u0644_u0627_u062a_u0634_u0645_u0644_u0020", 
        "u0627_u0644_u0623_u0639_u0645_u0627_u0644 u0020 u0627_u0644_u062a_u062c_u0627_u0631_u064a_u0629 u0020 u0628_u0627_u0644_u062a_u0628_u0639_u064a_u0629 u0020 u0020_u0028_u0639_u0644_u0644_u064a u0020 u0029_u000d", 
        "u064a_u062a_u0631_u062a_u0628 u0020 u0639_u0644_u0649 u0020 u0630_u0644_u0643 u0020 u0627_u0644_u0646_u062a_u0627_u0626_u062c u0020 u0627_u0644_u062a_u0627_u0644_u064a_u0629 u0020 u003a_u000d", 
        "u0627_u0644_u0645_u062e_u0627_u0637_u0631_u0629 u0020 u0647_u064a u0020 u0627_u0644_u0645_u0639_u064a_u0627_u0631 u0020 u0627_u0644_u0630_u064a u0020 u064a_u062c_u0628 u0020 u0627_u0644_u0627_u0639_u062a_u062f_u0627_u062f u0020 u0628_u0647 u0020 u0641_u0627_u0644_u0634_u062e_u0635 u0020 u0627_u0644_u0630_u064a u0020 u064a_u062a_u062d_u0645_u0644 u0020 u0646_u062a_u0627_u0626_u062c u0020 u0627_u0644_u0645_u0634_u0631_u0648_u0639 u0020 u0645_u0646_u0020", 
        "u0631_u0628_u062d u0020 u0648_u062e_u0633_u0627_u0631_u0629 u0020 u0647_u0648 u0020 u0627_u0644_u0630_u064a u0020 u064a_u0639_u062f u0020 u062a_u0627_u062c_u0631_u0627_u064b_u000d", 
        "u0644_u0627_u064a_u0639_u062a_u0628_u0631 u0020 u0627_u0644_u0645_u0648_u0638_u0641 u0020 u0648_u0627_u0644_u0645_u062f_u064a_u0631 u0020 u0648 u0020 u0627_u0644_u0639_u0627_u0645_u0644 u0020 u062a_u062c_u0627_u0631_u0627_u064b u0020 u0020_u0644_u0623_u0646_u0647_u0645 u0020 u064a_u0642_u0648_u0645_u0648_u0646 u0020 u0628_u0627_u0644_u0623_u0639_u0645_u0627_u0644 u0020 u0627_u0644_u062a_u062c_u0627_u0631_u064a_u0629 u0020 u0644_u062d_u0633_u0627_u0628_u0020", 
        "u0635_u0627_u062d_u0628 u0020 u0627_u0644_u0639_u0645_u0644 u0020 u0648_u0644_u064a_u0633 u0020 u0644_u062d_u0633_u0627_u0628_u0647_u0645 u0020 u0627_u0644_u062e_u0627_u0635 u0020 u002e_u0028_u0645_u0627_u0639_u062f_u0627 u0020 u0645_u062f_u0631_u0627_u0621 u0020 u0634_u0631_u0643_u0627_u062a u0020 u0627_u0644_u0627_u0634_u062e_u0627_u0635 u0020 u0643_u0645_u0627 u0020 u0633_u0646_u0631_u0649_u0020", 
        "u0644_u0627_u062d_u0642_u0627 u0020 u064b u0020 u0029_u000d", 
        "u0641_u064a u0020 u062d_u0627_u0644 u0020 u0627_u062d_u062a_u0631_u0627_u0641 u0020 u0634_u062e_u0635 u0020 u0644_u0644_u0623_u0639_u0645_u0627_u0644 u0020 u0627_u0644_u062a_u062c_u0627_u0631_u064a_u0629 u0020 u0645_u0633_u062a_u062a_u0631_u0627_u064b u0020 u0648_u0631_u0627_u0621 u0020 u0634_u062e_u0635 u0020 u0622_u062e_u0631 u0020 u0644_u0643_u0648_u0646_u0647 u0020 u0645_u0645_u0646_u0648_u0639_u0627_u064b u0020 u0645_u0646_u0020", 
        "u0645_u0645_u0627_u0631_u0633_u0629 u0020 u0627_u0644_u062a_u062c_u0627_u0631_u0629 u0020 u0628_u0645_u0642_u062a_u0636_u0649 u0020 u0642_u0627_u0646_u0648_u0646 u0020 u0623_u0648 u0020 u0644_u0627_u0626_u062d_u0629 u0020 u0028_u0645_u062b_u0644 u0020 u0645_u0648_u0638_u0641_u064a u0020 u0627_u0644_u062d_u0643_u0648_u0645_u0629_u0029_u002e u0020 u064a_u0643_u062a_u0633_u0628 u0020 u0627_u0644_u0634_u062e_u0635_u064a_u0646 u0020 u0645_u0639_u0627_u064b_u0020", 
        "u0627_u0644_u0645_u0633_u062a_u062a_u0631 u0020 u0648_u0627_u0644_u0638_u0627_u0647_u0631 u0020 u0644_u0635_u0641_u0629 u0020 u0627_u0644_u062a_u0627_u062c_u0631 u0020 u0028_u0639_u0644_u0644_u064a_u0029 u0020 u0648_u0644_u0627_u064a_u0645_u0646_u0639 u0020 u0630_u0644_u0643 u0020 u0645_u0646 u0020 u062a_u0639_u0631_u0636 u0020 u0627_u0644_u0634_u062e_u0635 u0020 u0627_u0644_u0645_u0633_u062a_u062a_u0631_u0020", 
        "u0644_u0644_u0639_u0642_u0648_u0628_u0627_u062a u0020 u0627_u0644_u062a_u064a u0020 u064a_u0641_u0631_u0636_u0647_u0627 u0020 u0627_u0644_u0642_u0627_u0646_u0648_u0646_u000d", 
        "u0644_u0627_u064a_u0639_u062f u0020 u0627_u0644_u0645_u0645_u062b_u0644 u0020 u0627_u0644_u0634_u0631_u0639_u064a u0020 u0627_u0644_u0630_u064a u0020 u064a_u0645_u0627_u0631_u0633 u0020 u0627_u0639_u0645_u0627_u0644_u0627 u0020 u062a_u062c_u0627_u0631_u064a_u0629 u0020 u0628_u0627_u0633_u0645 u0020 u0648_u0644_u062d_u0633_u0627_u0628 u0020 u0627_u0644_u0642_u0627_u0635_u0631 u0020 u0627_u0648 u0020 u0627_u0644_u0645_u062d_u062c_u0648_u0631_u0020", 
        "u0639_u0644_u064a_u0647 u0020 u062a_u0627_u062c_u0631_u0627 u0020 u000d", 
        "u0645_u0628_u0627_u0634_u0631_u0629 u0020 u0627_u0644_u0634_u062e_u0635 u0020 u0627_u0644_u0639_u0645_u0644 u0020 u0628_u0627_u0633_u0645_u0647 u0020 u0648_u0644_u062d_u0633_u0627_u0628_u0647 u0020 u0627_u0644_u062e_u0627_u0635_u0020"
    ]
}