{
    "bounding_box": [
        [
            74, 
            82, 
            582, 
            29
        ], 
        [
            84, 
            113, 
            572, 
            30
        ], 
        [
            46, 
            209, 
            610, 
            27
        ], 
        [
            74, 
            237, 
            582, 
            30
        ], 
        [
            58, 
            270, 
            598, 
            29
        ], 
        [
            54, 
            300, 
            602, 
            30
        ], 
        [
            399, 
            333, 
            257, 
            28
        ], 
        [
            56, 
            395, 
            600, 
            28
        ], 
        [
            60, 
            427, 
            596, 
            28
        ], 
        [
            55, 
            459, 
            637, 
            27
        ], 
        [
            598, 
            493, 
            94, 
            24
        ], 
        [
            442, 
            518, 
            250, 
            30
        ]
    ], 
    "image_height": 540, 
    "image_width": 720, 
    "transcription": [
        "u0631_u0627_u0628_u0639_u0627_u003a u0020 u0648_u0642_u0641 u0020 u0627_u0644_u0633_u0646_u0629_u003a u0020 u0648_u0647_u0648 u0020 u0623_u0646 u0020 u064a_u0642_u0641 u0020 u0639_u0644_u0649 u0020 u0631_u0624_u0648_u0633 u0020 u0627_u0644_u0622_u064a_u060c u0020 u0643_u0645_u0627 u0020 u0641_u0639_u0644 u0020 u0631_u0633_u0648_u0644 u0020 u0627_u0644_u0644_u0647_u0020", 
        "u0635_u0644_u0649 u0020 u0627_u0644_u0644_u0647 u0020 u0639_u0644_u064a_u0647 u0020 u0648_u0633_u0644_u0645 u0020 u0641_u064a u0020 u0631_u0648_u0627_u064a_u0629 u0020 u0623_u0645 u0020 u0633_u0644_u0645_u0629_u060c u0020 u062d_u062a_u0649 u0020 u0642_u0637_u0651_u0639 u0020 u0627_u0644_u0641_u0627_u062a_u062d_u0629_u060c u0020 u0641_u0642_u0627_u0644_u003a u0020 u0028_u0028 u0020 u0627_u0644_u0631_u062d_u064a_u0645 u0020 u002e_u002e u0020 u0627_u0644_u062f_u0651_u064a_u0646_u0029_u0029 u0020 u002e_u000d", 
        "u062e_u0627_u0645_u0633_u0627_u003a u0020 u0648_u0642_u0641 u0020 u0627_u0644_u0628_u064a_u0627_u0646_u003a u0020 u0648_u0647_u0648 u0020 u0627_u0644_u0648_u0642_u0641 u0020 u0639_u0644_u0649 u0020 u0643_u0644_u0645_u0629 u0020 u0644_u0625_u064a_u0636_u0627_u062d u0020 u0627_u0644_u0645_u0639_u0646_u0649 u0020 u0625_u0630_u0627 u0020 u0643_u0627_u0646 u0020 u0627_u0644_u0648_u0635_u0644_u0020", 
        "u064a_u0633_u0628_u0628 u0020 u0627_u0644_u062a_u0628_u0627_u0633_u0627 u0020 u0641_u064a u0020 u0641_u0647_u0645 u0020 u0627_u0644_u0645_u0639_u0646_u0649 u0020 u0627_u0644_u0645_u0631_u0627_u062f u0020 u0641_u064a u0020 u0630_u0647_u0646 u0020 u0627_u0644_u0633_u0627_u0645_u0639_u002e u0020 u0020_u0645_u062b_u0644_u003a u0020 u0028_u0028_u0648_u064e_u0625_u0650_u0630_u0652 u0020 u0623_u064e_u062e_u064e_u0630_u0652_u0646_u064e_u0627_u0020", 
        "u0645_u0650_u064a_u062b_u064e_u0627_u0642_u064e u0020 u0628_u064e_u0646_u0650_u064a u0020 u0625_u0650_u0633_u0652_u0631_u064e_u0627_u0626_u0650_u064a_u0644_u064e u0020 u0644_u0627_u064e u0020 u062a_u064e_u0639_u0652_u0628_u064f_u062f_u064f_u0648_u0646_u064e u0020 u0625_u0650_u0644_u0627_u064e_u0651 u0020 u0627_u0644_u0644_u0651_u0647_u064e u0020 u0028_u0028 u0020 u0648_u064a_u0628_u062a_u062f_u0649_u0621 u0020 u0028_u0028_u064e_u0628_u0650_u0627_u0644_u0652_u0648_u064e_u0627_u0644_u0650_u062f_u064e_u064a_u0652_u0646_u0650 u0020 u0625_u0650_u062d_u0652_u0633_u064e_u0627_u0646_u0627_u064b u0020 u0648_u064e_u0630_u0650_u064a_u0020", 
        "u0627_u0644_u0652_u0642_u064f_u0631_u0652_u0628_u064e_u0649 u0020 u0648_u064e_u0627_u0644_u0652_u064a_u064e_u062a_u064e_u0627_u0645_u064e_u0649 u0020 u0028_u0627_u0644_u0628_u0642_u0631_u0629 u0020 u0038_u0033_u0029 u0020 u0648_u0642_u0648_u0644_u0647 u0020 u062a_u0639_u0627_u0644_u0649_u003a u0020 u0028_u0028 u0020 u0625_u0646 u0020 u062a_u0631_u0643 u0020 u062e_u064a_u0631_u0627_u0029_u0029 u0020 u0020 u0020 u0028_u0028 u0020 u0627_u0644_u0648_u0635_u064a_u0629_u0020", 
        "u0644_u0644_u0648_u0627_u0644_u062f_u064a_u0646 u0020 u0648_u0627_u0644_u0623_u0642_u0631_u0628_u064a_u0646_u0029_u0029 u0020 u0020_u0028_u0627_u0644_u0628_u0642_u0631_u0629 u0020 u0029_u000d", 
        "u0633_u0627_u062f_u0633_u0627_u003a u0020 u0648_u0642_u0641 u0020 u0627_u0644_u062a_u0645_u064a_u064a_u0632_u003a u0020 u0642_u0627_u0644 u0020 u0627_u0644_u0625_u0645_u0627_u0645 u0020 u0627_u0644_u0647_u0630_u0644_u064a_u003a u0020 u0648_u0647_u0648 u0020 u0643_u0645_u0627 u0020 u0630_u0643_u0631_u0646_u0627 u0020 u0641_u064a u0020 u0627_u0644_u0641_u0631_u0642 u0020 u0628_u064a_u0646 u0020 u0645_u0627_u0020", 
        "u0627_u062e_u062a_u0635 u0020 u0628_u0647 u0020 u0627_u0644_u0631_u0633_u0648_u0644 u0020 u0635_u0644_u0649 u0020 u0627_u0644_u0644_u0647 u0020 u0639_u0644_u064a_u0647 u0020 u0648_u0633_u0644_u0645 u0020 u0645_u0646 u0020 u0627_u0644_u062a_u0648_u0642_u064a_u0631_u060c u0020 u0648_u0645_u0627 u0020 u0627_u062e_u062a_u0635 u0020 u0628_u0647 u0020 u0627_u0644_u0644_u0647 u0020 u062a_u0639_u0627_u0644_u0649 u0020 u0645_u0646 u0020 u0627_u0644_u062a_u0633_u0628_u064a_u062d_u0029_u002e_u000d", 
        "u0020 u0020 u0020 u0020 u0020_u0648_u0647_u0648 u0020 u064a_u0634_u064a_u0631 u0020 u0625_u0644_u0649 u0020 u0642_u0648_u0644 u0020 u0627_u0644_u0644_u0647 u0020 u062a_u0639_u0627_u0644_u0649 u0020 u0641_u064a u0020 u0028_u0633_u0648_u0631_u0629 u0020 u0627_u0644_u0641_u062a_u062d u0020 u0020_u0029_u003a u0020 u0028_u0028 u0020 u0648_u062a_u0639_u0632_u0631_u0648_u0647 u0020 u0648_u062a_u0648_u0642_u0631_u0648_u0647_u0029_u0029_u0020", 
        "u062b_u0645 u0020 u064a_u0628_u062a_u062f_u0649_u0621 u0020 u000d", 
        "u0020 u0020 u0028_u0028 u0020 u0648_u062a_u0633_u0628_u062d_u0648_u0647 u0020 u0628_u0643_u0631_u0629 u0020 u0648_u0623_u0635_u0628_u0644_u0627_u0029_u0029 u0020 u000b"
    ]
}