{
    "bounding_box": [
        [
            128, 
            42, 
            462, 
            34
        ], 
        [
            65, 
            108, 
            622, 
            33
        ], 
        [
            80, 
            142, 
            579, 
            37
        ], 
        [
            54, 
            181, 
            605, 
            37
        ], 
        [
            45, 
            219, 
            641, 
            45
        ], 
        [
            67, 
            271, 
            593, 
            31
        ], 
        [
            389, 
            311, 
            270, 
            30
        ], 
        [
            38, 
            356, 
            649, 
            31
        ], 
        [
            227, 
            394, 
            432, 
            31
        ]
    ], 
    "image_height": 540, 
    "image_width": 720, 
    "transcription": [
        "u0038 u0020 u0640 u0020 u0627_u0633_u062a_u0639_u0645_u0627_u0644 u0020 u0627_u0644_u0645_u062d_u0644_u0627_u062a u0020 u0627_u0644_u0645_u062a_u062e_u0635_u0635_u0629", 
        "u062a_u0638_u0647_u0631 u0020 u0647_u0630_u0647 u0020 u0627_u0644_u0648_u062b_u064a_u0642_u0629 u0020 u062d_u0635_u0635 u0020 u0627_u0644_u0623_u0639_u0645_u0627_u0644 u0020 u0627_u0644_u062a_u0637_u0628_u064a_u0642_u064a_u0629 u0020 u0627_u0644_u0645_u0637_u0627_u0628_u0642_u0629 u0020 u0644_u0644_u0645_u0648_u0627_u0642_u064a_u062a_u0020", 
        "u0627_u0644_u0631_u0633_u0645_u064a_u0629 u0020 u0627_u0644_u062a_u064a u0020 u064a_u062c_u0631_u064a_u0647_u0627 u0020 u0627_u0644_u062a_u0644_u0627_u0645_u064a_u0630 u0020 u0641_u064a u0020 u0627_u0644_u0642_u0627_u0639_u0627_u062a u0020 u0627_u0644_u0645_u062a_u062e_u0635_u0635_u0629 u0020 u0645_u062b_u0644_u0020", 
        "u003a_u0645_u062e_u0627_u0628_u0631 u0020 u0627_u0644_u0641_u064a_u0632_u064a_u0627_u0621 u0020 u0648 u0020 u0627_u0644_u0639_u0644_u0648_u0645 u0020 u0648 u0020 u0627_u0644_u062a_u0643_u0646_u0648_u0644_u0648_u062c_u064a_u0627 u0020 u0028_u0647_u0646_u062f_u0633_u0629 u0020 u0627_u0644_u0637_u0631_u0627_u0626_u0640_u0640_u0640_u0640_u0640_u0642_u0029 u0020 u000d", 
        "u0648 u0020 u0645_u062e_u0627_u0628_u0631 u0020 u062a_u062f_u0631_u064a_u0633 u0020 u0627_u0644_u0644_u063a_u0627_u062a u0020 u0627_u0644_u0627_u062c_u0646_u0628_u064a_u0629 u0020 u0648 u0020 u0645_u062e_u0627_u0628_u0631 u0020 u0627_u0644_u0625_u0639_u0644_u0627_u0645 u0020 u0627_u0644_u0622_u0644_u0640_u0640_u0640_u0640_u0640_u0640_u0640_u0640_u0640_u0640_u0640_u0640_u0640_u0640_u064a_u0020", 
        "u0648 u0020 u0627_u0644_u062a_u0643_u0646_u0648_u0644_u0648_u062c_u064a_u0627 u0020 u0648 u0020 u0648_u0631_u0634_u0627_u062a u0020 u0648 u0020 u0627_u0644_u0645_u062e_u0627_u0628_u0631 u0020 u0645_u0627_u062f_u0629 u0020 u0627_u0644_u062a_u0643_u0646_u0648_u0644_u0648_u062c_u064a_u0627 u0020 u0028_u0647_u0646_u062f_u0633_u0629_u0020", 
        "u0645_u062f_u0646_u064a_u0629 u0020 u060c u0020 u0647_u0646_u062f_u0633_u0629 u0020 u0645_u064a_u0643_u0627_u0646_u064a_u0643_u064a_u0629_u0029 u0020 u002e_u000d", 
        "u0648_u0647_u064a u0020 u0645_u062d_u0644_u0627_u062a u0020 u062a_u062a_u0637_u0644_u0628 u0020 u062d_u0635_u0635_u0627 u0020 u0646_u0648_u0639_u064a_u0629 u0020 u0648 u0020 u062a_u062c_u0647_u064a_u0632_u0627_u062a u0020 u062e_u0627_u0635_u0629 u0020 u002e u0020 u0648 u0020 u064a_u0645_u062a_u0627_u0632_u0020", 
        "u0627_u0633_u062a_u063a_u0644_u0627_u0644_u0647_u0627 u0020 u0639_u0645_u0648_u0645_u0627 u0020 u0020_u0641_u064a u0020 u062d_u0635_u0635 u0020 u0630_u0627_u062a u0020 u0627_u0644_u062a_u0641_u0648_u064a_u062c u0020 u002e"
    ]
}