{
    "bounding_box": [
        [
            273, 
            7, 
            214, 
            24
        ], 
        [
            51, 
            50, 
            605, 
            22
        ], 
        [
            73, 
            74, 
            567, 
            22
        ], 
        [
            557, 
            128, 
            67, 
            11
        ], 
        [
            519, 
            164, 
            153, 
            11
        ], 
        [
            535, 
            180, 
            138, 
            12
        ], 
        [
            534, 
            195, 
            138, 
            14
        ], 
        [
            526, 
            215, 
            146, 
            11
        ], 
        [
            535, 
            228, 
            138, 
            14
        ], 
        [
            515, 
            248, 
            158, 
            11
        ], 
        [
            521, 
            262, 
            151, 
            14
        ], 
        [
            514, 
            281, 
            158, 
            12
        ], 
        [
            536, 
            298, 
            136, 
            12
        ], 
        [
            641, 
            315, 
            35, 
            10
        ], 
        [
            528, 
            330, 
            145, 
            13
        ], 
        [
            515, 
            346, 
            158, 
            14
        ], 
        [
            536, 
            365, 
            136, 
            12
        ], 
        [
            528, 
            381, 
            144, 
            13
        ], 
        [
            529, 
            396, 
            144, 
            14
        ], 
        [
            542, 
            414, 
            131, 
            13
        ], 
        [
            523, 
            429, 
            150, 
            15
        ], 
        [
            526, 
            449, 
            146, 
            12
        ], 
        [
            535, 
            464, 
            138, 
            14
        ], 
        [
            535, 
            482, 
            137, 
            12
        ], 
        [
            635, 
            499, 
            37, 
            12
        ], 
        [
            325, 
            128, 
            68, 
            11
        ], 
        [
            244, 
            175, 
            222, 
            13
        ], 
        [
            263, 
            191, 
            202, 
            13
        ], 
        [
            263, 
            209, 
            202, 
            11
        ], 
        [
            269, 
            224, 
            196, 
            14
        ], 
        [
            289, 
            243, 
            176, 
            12
        ], 
        [
            257, 
            258, 
            208, 
            14
        ], 
        [
            250, 
            273, 
            215, 
            15
        ], 
        [
            391, 
            294, 
            78, 
            11
        ], 
        [
            256, 
            307, 
            209, 
            15
        ], 
        [
            256, 
            327, 
            209, 
            12
        ], 
        [
            259, 
            342, 
            206, 
            14
        ], 
        [
            257, 
            358, 
            208, 
            14
        ], 
        [
            258, 
            375, 
            207, 
            14
        ], 
        [
            294, 
            394, 
            171, 
            12
        ], 
        [
            94, 
            128, 
            42, 
            11
        ], 
        [
            51, 
            174, 
            142, 
            11
        ], 
        [
            48, 
            190, 
            144, 
            12
        ], 
        [
            35, 
            204, 
            158, 
            14
        ], 
        [
            119, 
            221, 
            77, 
            14
        ], 
        [
            47, 
            258, 
            145, 
            11
        ], 
        [
            57, 
            274, 
            139, 
            11
        ], 
        [
            56, 
            290, 
            136, 
            12
        ], 
        [
            37, 
            307, 
            155, 
            11
        ], 
        [
            26, 
            323, 
            166, 
            13
        ], 
        [
            161, 
            342, 
            35, 
            9
        ], 
        [
            33, 
            357, 
            160, 
            13
        ], 
        [
            43, 
            374, 
            149, 
            12
        ], 
        [
            10, 
            7, 
            10, 
            12
        ], 
        [
            49, 
            7, 
            86, 
            10
        ]
    ], 
    "image_height": 540, 
    "image_width": 720, 
    "transcription": [
        "u062c_u0631_u064a_u0645_u0629 u0020 u0647_u062a_u0643 u0020 u0627_u0644_u0639_u0631_u0636 u0020 u0628_u0627_u0644_u0625_u0643_u0631_u0627_u0647", 
        "u062a_u062a_u0637_u0644_u0628 u0020 u062c_u0631_u064a_u0645_u0629 u0020 u0647_u062a_u0643 u0020 u0627_u0644_u0639_u0631_u0636 u0020 u0623_u0646 u0020 u064a_u0643_u0648_u0646 u0020 u0647_u0646_u0627_u0644_u0643 u0020 u0641_u0639_u0644 u0020 u064a_u062e_u0644 u0020 u0628_u062d_u064a_u0627_u0621 u0020 u0627_u0644_u0645_u062c_u0646_u064a u0020 u0639_u0644_u064a_u0647 u0020 u0639_u0644_u0649 u0020 u0646_u062d_u0648 u0020 u062c_u0633_u064a_u0645 u0020 u0648_u0623_u064a_u0636_u0627_u064e_u0020", 
        "u064a_u062a_u0637_u0644_u0628 u0020 u0627_u0644_u0631_u0643_u0646 u0020 u0627_u0644_u0645_u0641_u062a_u0631_u0636 u0020 u0648_u0647_u0648 u0020 u0648_u0642_u0639 u0020 u0627_u0644_u0625_u0643_u0631_u0627_u0647 u0020 u0648_u0623_u064a_u0636_u0627_u064e u0020 u064a_u062a_u0637_u0644_u0628 u0020 u0648_u062c_u0648_u062f u0020 u0627_u0644_u0642_u0635_u062f u0020 u0627_u0644_u062c_u0646_u0627_u0626_u064a u0020 u0644_u062f_u0649 u0020 u0627_u0644_u062c_u0627_u0646_u064a u0020 u002e", 
        "u0627_u0644_u0625_u0643_u0640_u0640_u0640_u0640_u0640_u0640_u0640_u0640_u0640_u0640_u0640_u0640_u0640_u0640_u0631_u0627_u0647", 
        "u064a_u0643_u062a_u0645_u0644 u0020 u0627_u0644_u0625_u0643_u0631_u0627_u0647 u0020 u0628_u062a_u0648_u0627_u0641_u0631 u0020 u0627_u0644_u0631_u0643_u0646 u0020 u0627_u0644_u0645_u0627_u062f_u064a_u0020", 
        "u0648_u0627_u0644_u0645_u0639_u0646_u0648_u064a u0020 u0648_u0644_u0643_u0646 u0020 u0647_u0630_u0627 u0020 u0644_u0627 u0020 u064a_u0641_u064a u0020 u0639_u0646_u062f_u0020", 
        "u0641_u0642_u0647_u0627_u0621 u0020 u0627_u0644_u0642_u0636_u0627_u0621 u0020 u062d_u064a_u062b u0020 u0627_u0646_u0647 u0020 u064a_u062c_u0628 u0020 u0623_u0646_u0020", 
        "u064a_u062a_u0633_u0639 u0020 u0625_u0644_u0649 u0020 u0625_u0644_u0649 u0020 u0639_u062f_u0645 u0020 u0631_u0636_u0627_u0621 u0020 u0627_u0644_u0645_u062c_u0646_u064a_u0020", 
        "u0639_u0644_u064a_u0647 u0020 u0628_u0648_u0633_u0627_u0626_u0644 u0020 u0623_u062e_u0631_u0649 u0020 u0645_u062b_u0644 u0020 u0627_u0644_u062a_u0647_u062f_u064a_u062f_u0020", 
        "u0648_u0627_u0644_u062e_u062f_u064a_u0639_u0647 u0020 u0648_u0627_u0644_u0645_u0643_u0631 u0020 u0648_u0627_u0644_u0628_u0627_u063a_u062b_u0647 u0020 u0648_u0625_u0633_u062a_u063a_u0644_u0627_u0644_u0020", 
        "u0641_u0642_u062f_u0627_u0646 u0020 u0627_u0644_u0645_u062c_u0646_u064a u0020 u0639_u0644_u064a_u0647 u0020 u0644_u0625_u0631_u0627_u062f_u062a_u0647 u0020 u0623_u0648 u0020 u0644_u062d_u0627_u0647_u0020", 
        "u0642_u0627_u0626_u0645_u0647 u0020 u0644_u062f_u0649 u0020 u0627_u0644_u0645_u062c_u0646_u064a u0020 u0639_u0644_u064a_u0647 u0020 u0645_u062b_u0644 u0020 u0627_u0644_u0625_u063a_u0645_u0627_u0621_u0020", 
        "u0648_u0627_u0644_u062c_u0646_u0648_u0646 u0020 u0648_u0627_u0644_u063a_u064a_u0628_u0648_u0628_u0647 u0020 u0648_u0627_u0644_u0625_u0633_u062a_u063a_u0631_u0627_u0642_u0020", 
        "u0628_u0627_u0644_u0646_u0648_u0645 u0020 u002e_u000d", 
        "u0648_u064a_u0634_u062a_u0631_u0637 u0020 u003a u0020 u0623_u0646 u0020 u064a_u0643_u0648_u0646 u0020 u0627_u0644_u0625_u0643_u0631_u0627_u0647 u0020 u0628_u063a_u064a_u0631_u0020", 
        "u0631_u0636_u0627 u0020 u0627_u0644_u0645_u062c_u0646_u064a u0020 u0639_u0644_u064a_u0647 u0020 u0628_u0627_u0644_u0641_u0639_u0644 u0020 u0627_u0644_u0630_u064a u0020 u064a_u0623_u062a_u064a_u0647_u0020", 
        "u0641_u0627_u0644_u0639_u0628_u0631_u0647 u0020 u0644_u064a_u0633 u0020 u0641_u0642_u0637 u0020 u0628_u0627_u0644_u0625_u0643_u0631_u0627_u0647 u0020 u0648_u0625_u0646_u0645_u0627_u0020", 
        "u0628_u0627_u0644_u0623_u062b_u0631 u0020 u0627_u0644_u0630_u064a u0020 u0627_u0644_u0645_u062a_u0631_u062a_u0628 u0020 u0639_u0644_u064a_u0647 u0020 u0628_u0625_u0646_u0639_u062f_u0627_u0645_u0020", 
        "u0627_u0644_u0631_u0636_u0627 u0020 u0648_u0644_u0643_u0646 u0020 u0625_u0646 u0020 u062b_u0628_u062a u0020 u0628_u0623_u0646 u0020 u0627_u0644_u0645_u062c_u0646_u064a_u0020", 
        "u0639_u0644_u064a_u0647 u0020 u0643_u0627_u0646 u0020 u0631_u0627_u0636_u064a_u0627_u064e u0020 u0628_u0627_u0644_u062a_u0639_u0630_u064a_u0628 u0020 u0641_u064a_u0020", 
        "u0627_u0644_u0634_u062e_u0635_u064a_u0647 u0020 u0627_u0644_u0645_u0627_u0632_u0648_u062e_u064a_u0647 u0020 u0028 u0020 u0648_u064a_u0642_u0635_u062f u0020 u0628_u0647_u0627_u0020", 
        "u0627_u0644_u0634_u062e_u0635 u0020 u0627_u0644_u0630_u064a u0020 u064a_u0633_u062a_u0645_u062a_u0639 u0020 u062d_u0628 u0020 u0627_u0644_u0639_u0646_u0641_u0020", 
        "u0644_u0644_u062d_u0635_u0648_u0644 u0020 u0639_u0644_u0649 u0020 u0627_u0644_u0645_u062a_u0639_u0647 u0020 u0029 u0020 u0641_u0623_u0646 u0020 u0647_u0630_u0627_u0020", 
        "u0627_u0644_u0646_u0648_u0639 u0020 u0645_u0646 u0020 u0627_u0644_u062a_u0639_u0630_u064a_u0628 u0020 u0628_u0627_u0644_u0631_u0636_u0627 u0020 u064a_u0646_u0641_u064a_u0020", 
        "u0627_u0644_u0625_u0643_u0631_u0627_u0647 u0020 u002e", 
        "u0627_u0644_u0642_u0635_u0640_u0640_u062f u0020 u0627_u0644_u062c_u0646_u0627_u0626_u064a", 
        "u0647_u062a_u0643 u0020 u0627_u0644_u0639_u0631_u0636 u0020 u0628_u0627_u0644_u0625_u0643_u0631_u0627_u0647 u0020 u0648_u0642_u0644_u0646_u0627 u0020 u0633_u0627_u0628_u0642_u0627_u064e u0020 u0628_u0623_u0646 u0020 u0627_u0644_u0625_u0643_u0631_u0627_u0647 u0020 u064a_u0643_u0648_u0646_u0020", 
        "u063a_u0635_u0628_u0627_u064e u0020 u0639_u0646 u0020 u0627_u0644_u0645_u062c_u0646_u064a u0020 u0639_u0644_u064a_u0647 u0020 u0641_u0647_u0646_u0627 u0020 u0646_u0643_u0648_u0646 u0020 u0639_u0646_u062f u0020 u062c_u0631_u064a_u0645_u0647_u0020", 
        "u0639_u0645_u062f_u064a_u0647 u0020 u0648_u0644_u0627 u0020 u064a_u062a_u0635_u0648_u0631 u0020 u0642_u064a_u0627_u0645 u0020 u0627_u0644_u062c_u0631_u064a_u0645_u0647 u0020 u0645_u0646 u0020 u063a_u064a_u0631 u0020 u0642_u0635_u062f_u0020", 
        "u0648_u0644_u064a_u062a_u0648_u0627_u0641_u0631 u0020 u0627_u0644_u0631_u0643_u0646 u0020 u0627_u0644_u0645_u0639_u0646_u0648_u064a u0020 u0020_u064a_u062c_u0628 u0020 u0623_u0646 u0020 u064a_u0643_u0648_u0646 u0020 u0644_u062f_u0649_u0020", 
        "u0627_u0644_u062c_u0627_u0646_u064a u0020 u0627_u0644_u0639_u0644_u0645 u0020 u0648_u0627_u0644_u0625_u0631_u0627_u062f_u0647 u0020 u0648_u064a_u0639_u0644_u0645 u0020 u0627_u0644_u062c_u0627_u0646_u064a u0020 u0628_u0641_u0639_u0644_u0647_u0020", 
        "u0628_u0627_u0644_u0625_u0633_u062a_u064a_u0637_u0627_u0644 u0020 u0639_u0644_u0649 u0020 u062c_u0633_u0645 u0020 u0627_u0644_u0645_u062c_u0646_u064a u0020 u0639_u0644_u064a_u0647 u0020 u0645_u062e_u0644_u0627_u064e u0020 u0628_u062d_u064a_u0627_u0626_u0647_u0020", 
        "u0648_u0627_u0646 u0020 u064a_u0639_u0644_u0645 u0020 u0628_u0623_u0646 u0020 u0645_u0627 u0020 u064a_u0642_u0648_u0645 u0020 u0628_u0647 u0020 u063a_u064a_u0631 u0020 u0645_u0634_u0631_u0648_u0639 u0020 u0648_u0627_u0646 u0020 u0627_u0644_u062c_u0627_u0646_u064a_u0020", 
        "u063a_u064a_u0631 u0020 u0631_u0627_u0636_u064d u0020 u0639_u0646_u0647 u0020 u002e_u000d", 
        "u0648_u0625_u0630_u0627 u0020 u0623_u0646_u062a_u0641_u0649 u0020 u0627_u0644_u0642_u0635_u062f u0020 u0644_u062f_u0649 u0020 u0627_u0644_u062c_u0627_u0646_u064a u0020 u0645_u062b_u0627_u0644 u0020 u003a u0020 u0643_u0645_u0646 u0020 u064a_u0645_u0634_u064a_u0020", 
        "u0641_u064a u0020 u0645_u0643_u0627_u0646 u0020 u0645_u0632_u062f_u062d_u0645 u0020 u0628_u064a_u0646 u0020 u0627_u0644_u0646_u0627_u0633 u0020 u0648_u064a_u062d_u0631_u0643 u0020 u064a_u062f_u064a_u0647 u0020 u0648_u064a_u0644_u0645_u0633_u0020", 
        "u062c_u0633_u0645 u0020 u0634_u062e_u0635 u0020 u0622_u062e_u0631 u0020 u0639_u0644_u0649 u0020 u0646_u062d_u0648 u0020 u064a_u062e_u0644 u0020 u0628_u0627_u0644_u062d_u064a_u0627_u0621 u0020 u0648_u064a_u0639_u062a_u0642_u062f_u0020", 
        "u0627_u0644_u062c_u0627_u0646_u064a u0020 u0623_u0646 u0020 u0641_u0639_u0644_u0647 u0020 u0645_u0634_u0631_u0648_u0639 u0020 u0645_u062b_u0644 u0020 u0627_u0644_u0634_u062e_u0635 u0020 u0627_u0644_u0630_u064a u0020 u064a_u0639_u0642_u062f_u0020", 
        "u0639_u0642_u062f u0020 u0627_u0644_u0632_u0648_u0627_u062c u0020 u0648_u064a_u0643_u0648_u0646 u0020 u0627_u0644_u0639_u0642_u062f u0020 u0628_u0627_u0637_u0644_u0627_u064e u0020 u0623_u0648 u0020 u0641_u0627_u0633_u062f_u0627_u064e u0020 u0648_u064a_u062c_u0647_u0644_u0020", 
        "u0633_u0628_u0628 u0020 u0628_u0637_u0644_u0627_u0646_u0647 u0020 u0641_u0647_u0646_u0627 u0020 u064a_u0646_u062a_u0641_u064a u0020 u0627_u0644_u0642_u0635_u062f u0020 u0627_u0644_u062c_u0646_u0627_u0626_u064a u0020 u002e", 
        "u0627_u0644_u0639_u0642_u0648_u0628_u0640_u0640_u0640_u0640_u0647", 
        "u0645_u062a_u0649 u0020 u0645_u0627 u0020 u062a_u062d_u0642_u0642 u0020 u0627_u0644_u0639_u0644_u0645 u0020 u0648_u0627_u0644_u0625_u0631_u0627_u062f_u0629 u0020 u0644_u062f_u0649_u0020", 
        "u0627_u0644_u062c_u0627_u0646_u064a u0020 u0641_u0625_u0646 u0020 u0627_u0644_u0628_u0627_u0639_u062b u0020 u0028 u0020 u0627_u0644_u0625_u062d_u0633_u0627_u0633 u0020 u0029_u0020", 
        "u064a_u0646_u062a_u0641_u064a u0020 u063a_u0627_u0644_u0628_u0627_u064e u0020 u0644_u0623_u0646_u0647 u0020 u064a_u0643_u0648_u0646 u0020 u0628_u062a_u0641_u0643_u064a_u0631 u0020 u0627_u0644_u062c_u0627_u0646_u064a_u0020", 
        "u0623_u0646 u0020 u064a_u0634_u0628_u0639 u0020 u0634_u0647_u0648_u062a_u0647 u0020 u002e_u000d", 
        "u0627_u0644_u0639_u0642_u0648_u0628_u0647 u0020 u003a u0020 u0627_u0644_u0633_u062c_u0646 u0020 u0627_u0644_u0645_u0624_u0642_u062a u0020 u0644_u0644_u062c_u0631_u064a_u0645_u0647_u0020", 
        "u0628_u0635_u0648_u0631_u062a_u0647_u0627 u0020 u0627_u0644_u0628_u0633_u064a_u0637_u0647 u0020 u0648_u062a_u0639_u062f u0020 u062c_u0646_u0627_u064a_u0647 u0020 u002e_u000d", 
        "u0641_u0625_u0646 u0020 u0648_u0642_u0641_u062a u0020 u0639_u0646_u062f u0020 u062d_u062f u0020 u0627_u0644_u0634_u0631_u0648_u0639 u0020 u0641_u0625_u0646_u0020", 
        "u0627_u0644_u0639_u0642_u0648_u0628_u0647 u0020 u062a_u0643_u0648_u0646 u0020 u0645_u062f_u0647 u0020 u0644_u0627 u0020 u062a_u0642_u0644 u0020 u0639_u0646 u0020 u0646_u0635_u0641_u0020", 
        "u0627_u0644_u062d_u062f u0020 u0627_u0644_u0623_u0642_u0635_u0649 u0020 u0623_u0648 u0020 u0627_u0644_u062d_u0628_u0633 u0020 u0628_u0646_u0635 u0020 u0627_u0644_u0645_u0627_u062f_u0647 u0020 u0028_u0020", 
        "u0033_u0035 u0020 u0029 u0020 u002e_u000d", 
        "u0648_u0625_u0630_u0627 u0020 u062a_u0648_u0641_u0649 u0020 u0627_u0644_u0645_u062c_u0646_u064a u0020 u0639_u0644_u064a_u0647 u0020 u0643_u0627_u0646_u062a u0020 u0627_u0644_u0639_u0642_u0648_u0628_u0629_u0020", 
        "u0647_u064a u0020 u0627_u0644_u0625_u0639_u062f_u0627_u0645 u0020 u002e_u0628_u0646_u0635 u0020 u0627_u0644_u0645_u0627_u062f_u0647 u0020 u0028 u0020 u0033_u0035_u0037 u0020 u0029", 
        "u0037", 
        "u0635_u0641_u062d_u0629 u0020 u0645_u0646 u0020 u0020_u0032_u0035_u0037 u0020 u002d u0020 u0032_u0036_u0030_u0020"
    ]
}