{
    "bounding_box": [
        [
            42, 
            116, 
            623, 
            44
        ], 
        [
            71, 
            172, 
            567, 
            42
        ], 
        [
            262, 
            228, 
            184, 
            38
        ], 
        [
            36, 
            272, 
            635, 
            46
        ], 
        [
            40, 
            331, 
            629, 
            37
        ], 
        [
            35, 
            382, 
            639, 
            42
        ]
    ], 
    "image_height": 540, 
    "image_width": 720, 
    "transcription": [
        "u062a_u062d_u062f_u064a_u062f u0020 u0642_u0633_u0637 u0020 u0627_u0644_u0627_u0633_u062a_u0647_u0644_u0627_u0643 u0020 u0028_u0645_u0635_u0631_u0648_u0641 u0020 u0627_u0644_u0627_u0633_u062a_u0647_u0644_u0627_u0643_u0029_u000b", 
        "u0644_u0643_u064a u0020 u0646_u062d_u062f_u062f u0020 u0630_u0644_u0643 u0020 u0644_u0627_u0628_u062f u0020 u0645_u0646 u0020 u062a_u0648_u0641_u0631 u0020 u062b_u0644_u0627_u062b u0020 u0639_u0648_u0627_u0645_u0644_u0020", 
        "u0631_u0626_u064a_u0633_u064a_u0647 u0020 u0647_u064a u0020 u003a_u000b", 
        "u0031_u002d u0020 u062a_u0643_u0644_u0641_u0629 u0020 u0627_u0644_u0623_u0635_u0644 u0020 u0627_u0644_u062b_u0627_u0628_u062a u0020 u003a_u0648_u0647_u064a u0020 u0639_u0628_u0627_u0631_u0647 u0020 u0639_u0646 u0020 u062c_u0645_u064a_u0639_u0020", 
        "u0627_u0644_u062a_u0643_u0627_u0644_u064a_u0641 u0020 u0627_u0644_u0644_u0627_u0632_u0645_u0647 u0020 u0644_u0644_u062d_u0635_u0648_u0644 u0020 u0639_u0644_u0649 u0020 u0627_u0644_u0627_u0635_u0644 u0020 u0627_u0644_u062b_u0627_u0628_u062a_u0020", 
        "u0648_u062a_u0647_u064a_u0626_u062a_u0647 u0020 u0644_u0644_u0627_u0633_u062a_u062e_u062f_u0627_u0645 u0020 u0641_u064a u0020 u0627_u0644_u0639_u0645_u0644_u064a_u0647 u0020 u0627_u0644_u0627_u0646_u062a_u0627_u062c_u064a_u0647 u0020 u0644_u0644_u0645_u0646_u0634_u0623_u0647_u002e_u0020"
    ]
}