{
    "bounding_box": [
        [
            40, 
            41, 
            646, 
            42
        ], 
        [
            83, 
            89, 
            603, 
            42
        ], 
        [
            101, 
            137, 
            585, 
            42
        ], 
        [
            54, 
            185, 
            632, 
            42
        ], 
        [
            70, 
            232, 
            616, 
            43
        ], 
        [
            587, 
            284, 
            99, 
            34
        ]
    ], 
    "image_height": 540, 
    "image_width": 720, 
    "transcription": [
        "u0648_u0647_u0646_u0627_u0643 u0020 u0623_u0642_u0627_u0645 u0020 u0645_u0633_u062a_u0639_u0645_u0631_u0629 u0020 u0627_u0633_u0628_u0627_u0646_u064a_u0629 u0020 u0639_u0644_u0649 u0020 u0627_u0631_u0636 u0020 u062c_u0645_u0647_u0648_u0631_u064a_u0629_u0020", 
        "u0647_u0627_u064a_u062a_u0649 u0020 u0627_u0644_u062d_u0627_u0644_u064a_u0629 u0020 u0648_u0628_u0630_u0627 u0020 u0623_u0642_u0627_u0645 u0020 u0623_u0648_u0644 u0020 u0645_u0624_u0633_u0633_u0629 u0020 u0623_u0648_u0631_u0628_u064a_u0629 u0020 u0641_u0649_u0020", 
        "u0627_u0644_u0639_u0627_u0644_u0645 u0020 u0627_u0644_u062c_u062f_u064a_u062f u0020 u002e u0020 u0648_u0641_u0649 u0020 u0031_u0035 u0020 u0622_u0630_u0627_u0631 u0020 u0633_u0646_u0629 u0020 u0031_u0034_u0039_u0033 u0020 u0639_u0627_u062f_u0020", 
        "u0643_u0648_u0644_u0648_u0645_u0628_u0648_u0633 u0020 u0627_u0644_u0649 u0020 u0627_u0644_u0634_u0627_u0637_u0626 u0020 u0627_u0644_u0623_u0633_u0628_u0627_u0646_u064a u0020 u0645_u0646 u0020 u062d_u064a_u062b u0020 u0627_u0646_u0637_u0644_u0642_u0020", 
        "u0644_u064a_u0639_u0644_u0646 u0020 u0641_u0649 u0020 u0627_u0644_u0628_u0644_u0627_u0637 u0020 u0648_u0623_u0645_u0627_u0645 u0020 u0643_u0628_u0627_u0631 u0020 u0631_u062c_u0627_u0644 u0020 u0627_u0644_u0645_u0644_u0643_u0629 u0020 u0627_u0643_u062a_u0634_u0627_u0641_u0647_u0020", 
        "u0627_u0644_u062c_u062f_u064a_u062f u0020 u002e"
    ]
}