{
    "bounding_box": [
        [
            279, 
            181, 
            150, 
            38
        ]
    ], 
    "image_height": 540, 
    "image_width": 720, 
    "transcription": [
        "u0631_u0627_u062d_u0629 u0020 u0628_u0631_u064a_u0643_u0020"
    ]
}