{
    "bounding_box": [
        [
            56, 
            22, 
            585, 
            47
        ], 
        [
            304, 
            74, 
            99, 
            43
        ], 
        [
            82, 
            271, 
            562, 
            34
        ], 
        [
            40, 
            310, 
            604, 
            34
        ], 
        [
            635, 
            372, 
            8, 
            4
        ]
    ], 
    "image_height": 540, 
    "image_width": 720, 
    "transcription": [
        "u0645_u0627 u0020 u0627_u0644_u0635_u0648_u0631_u0629 u0020 u0627_u0644_u062a_u064a u0020 u0639_u0631_u0641_u062a u0020 u0628_u0647_u0627 u0020 u0627_u0644_u0642_u0635_u0629 u0020 u0641_u064a u0020 u0627_u0644_u0639_u0635_u0631 u0020 u000b", 
        "u0627_u0644_u0623_u0645_u0648_u064a_u0020", 
        "u0645_u062c_u0631_u062f u0020 u0623_u062e_u0628_u0627_u0631 u0020 u062a_u0631_u0648_u0649 u0020 u062a_u0645_u062a_u0632_u062c u0020 u0628_u0647_u0627 u0020 u0627_u0644_u062d_u0642_u064a_u0642_u0629 u0020 u0628_u0627_u0644_u062e_u064a_u0627_u0644 u0020 u0648_u0627_u0644_u062a_u0627_u0631_u064a_u062e_u0020", 
        "u0628_u0627_u0644_u0623_u0633_u0637_u0648_u0631_u0629 u0020 u0648_u0632_u0627_u062f u0020 u0627_u0644_u0623_u0647_u062a_u0645_u0627_u0645 u0020 u0628_u0627_u0644_u0642_u0635_u0635 u0020 u0627_u0644_u0634_u0641_u0648_u064a u0020 u0641_u064a u0020 u0630_u0644_u0643 u0020 u0627_u0644_u0639_u0635_u0631_u0020", 
        "u002e"
    ]
}