{
    "bounding_box": [
        [
            70, 
            51, 
            804, 
            32
        ], 
        [
            239, 
            100, 
            634, 
            30
        ], 
        [
            70, 
            157, 
            804, 
            30
        ], 
        [
            377, 
            204, 
            497, 
            30
        ], 
        [
            225, 
            261, 
            649, 
            30
        ], 
        [
            70, 
            318, 
            804, 
            30
        ], 
        [
            718, 
            366, 
            156, 
            27
        ], 
        [
            529, 
            424, 
            345, 
            29
        ], 
        [
            371, 
            523, 
            211, 
            15
        ]
    ], 
    "image_height": 540, 
    "image_width": 960, 
    "transcription": [
        "u0641_u064a u0020 u062c_u0645_u064a_u0639 u0020 u0645_u0646_u0638_u0645_u0627_u062a u0020 u0627_u0644_u0623_u0639_u0645_u0627_u0644 u0020 u002e_u002e_u002e u0020 u062a_u0639_u062a_u0628_u0631 u0020 u0627_u0644_u0645_u0648_u0627_u0631_u062f u0020 u0627_u0644_u0628_u0634_u0631_u064a_u0629 u0020 u0647_u064a u0020 u0623_u062d_u062f u0020 u0623_u0647_u0645 u0020 u0623_u0633_u0628_u0627_u0628 u0020 u0646_u062c_u0627_u062d u0020 u0623_u0648 u0020 u0641_u0634_u0644_u0020", 
        "u0627_u0644_u0645_u0646_u0638_u0645_u0627_u062a_u060c u0020 u0632_u064a_u0627_u062f_u0629 u0020 u0625_u0646_u062a_u0627_u062c_u064a_u0629 u0020 u0648_u0646_u062c_u0627_u062d u0020 u0627_u0644_u0645_u0646_u0638_u0645_u0627_u062a u0020 u064a_u0639_u062a_u0645_u062f u0020 u0639_u0644_u0649 u0020 u0627_u0644_u0645_u0648_u0627_u0631_u062f u0020 u0627_u0644_u0628_u0634_u0631_u064a_u0629_u002e_u000d", 
        "u0627_u0644_u0645_u0648_u0627_u0631_u062f u0020 u0627_u0644_u0628_u0634_u0631_u064a_u0629 u0020 u0644_u0645 u0020 u062a_u0639_u062f u0020 u062a_u0645_u0627_u0631_u0633 u0020 u0627_u0644_u0639_u0645_u0644 u0020 u0627_u0644_u062a_u0642_u0644_u064a_u062f_u064a u0020 u0641_u064a u0020 u0627_u0644_u0645_u0633_u0626_u0648_u0644_u0629 u0020 u0639_u0646 u0020 u0634_u0626_u0648_u0646 u0020 u0627_u0644_u0645_u0648_u0638_u0641_u064a_u0646_u0020", 
        "u0648_u063a_u064a_u0631_u0647_u0627_u060c u0020 u0627_u0644_u062a_u0642_u0646_u064a_u0629 u0020 u062a_u0643_u0641_u0644_u062a u0020 u0628_u0639_u0645_u0644 u0020 u062c_u0645_u064a_u0639 u0020 u0627_u0644_u0625_u062c_u0631_u0627_u0621_u0627_u062a u0020 u0627_u0644_u062a_u0642_u0644_u064a_u062f_u064a_u0629_u002e_u000d", 
        "u0627_u0633_u062a_u0642_u0631_u0627_u0631 u0020 u0627_u0644_u0645_u0646_u0638_u0645_u0627_u062a u0020 u0648_u062a_u062d_u0642_u064a_u0642 u0020 u0627_u0644_u0631_u0628_u062d_u064a_u0629 u0020 u0645_u0631_u062a_u0628_u0637 u0020 u0628_u0646_u062c_u0627_u062d u0020 u0625_u062f_u0627_u0631_u0629 u0020 u0627_u0644_u0645_u0648_u0627_u0631_u062f u0020 u0627_u0644_u0628_u0634_u0631_u064a_u0629_u002e_u000d", 
        "u0625_u0639_u062f_u0627_u062f u0020 u0627_u0644_u0642_u0627_u062f_u0629 u0020 u2013 u0020 u0627_u0644_u0628_u062f_u0644_u0627_u0621 u0020 u002d u0020 u0053_u0075_u0063_u0063_u0065_u0073_u0073_u0069_u006f_u006e u0020 u0070_u006c_u0061_u006e_u006e_u0069_u006e_u0067 u0020 u002d u0020 u0627_u0644_u062a_u063a_u064a_u0631 u0020 u0641_u064a u0020 u0627_u0644_u0642_u064a_u0627_u062f_u0627_u062a u0020 u0643_u0644_u0647_u0627 u0020 u0645_u0633_u0626_u0648_u0644_u064a_u0629_u0020", 
        "u0627_u0644_u0645_u0648_u0627_u0631_u062f u0020 u0627_u0644_u0628_u0634_u0631_u064a_u0629_u002e_u000d", 
        "u0627_u0644_u0625_u0646_u062a_u0645_u0627_u0621 u0020 u2013 u0020 u0627_u0644_u0625_u0631_u062a_u0628_u0627_u0637 u0020 u0627_u0644_u0645_u0647_u0646_u064a u0020 u0628_u0627_u0644_u0645_u0633_u062a_u0634_u0641_u0649_u002e", 
        "u0645_u0639_u0647_u062f u0020 u0627_u0644_u0625_u062f_u0627_u0631_u0629 u0020 u0627_u0644_u0639_u0627_u0645_u0629 u0020 u2013 u0020 u0645_u0631_u0643_u0632 u0020 u0627_u0644_u062a_u062f_u0631_u064a_u0628 u0020 u0639_u0646 u0020 u0628_u0639_u062f"
    ]
}