{
    "bounding_box": [
        [
            97, 
            25, 
            531, 
            23
        ], 
        [
            252, 
            57, 
            226, 
            24
        ], 
        [
            24, 
            100, 
            637, 
            27
        ], 
        [
            24, 
            129, 
            637, 
            27
        ], 
        [
            17, 
            159, 
            643, 
            26
        ], 
        [
            593, 
            194, 
            67, 
            20
        ], 
        [
            58, 
            225, 
            636, 
            20
        ], 
        [
            58, 
            247, 
            636, 
            25
        ], 
        [
            58, 
            278, 
            636, 
            20
        ], 
        [
            58, 
            300, 
            636, 
            25
        ], 
        [
            58, 
            330, 
            636, 
            21
        ], 
        [
            58, 
            358, 
            331, 
            19
        ], 
        [
            58, 
            379, 
            583, 
            30
        ], 
        [
            58, 
            421, 
            636, 
            20
        ], 
        [
            58, 
            446, 
            636, 
            21
        ], 
        [
            58, 
            474, 
            509, 
            20
        ], 
        [
            58, 
            505, 
            601, 
            20
        ]
    ], 
    "image_height": 540, 
    "image_width": 720, 
    "transcription": [
        "u0020_u0052_u0065_u0061_u0073_u006f_u006e u0020 u0069_u0073 u0020 u0065_u0069_u0074_u0068_u0065_u0072 u0020 u0062_u006f_u0074_u0068 u0020 u0063_u006f_u0075_u0070_u006c_u0065_u0073 u0020 u006f_u0072 u0020 u006f_u006e_u0065 u0020 u006f_u0066 u0020 u0074_u0068_u0065_u006d_u003a_u000b", 
        "u0044_u0069_u0076_u0069_u006e_u0065 u0020 u0070_u0075_u006e_u0069_u0073_u0068_u006d_u0065_u006e_u0074 u0020 u000b", 
        "u0639_u064e_u0646_u0652 u0020 u0639_u064f_u0645_u064e_u0631_u064e u0020 u0628_u0652_u0646_u0650 u0020 u0642_u064e_u064a_u0652_u0633_u064d u0020 u0639_u064e_u0646_u0652 u0020 u0623_u064e_u0628_u0650_u064a u0020 u062c_u064e_u0639_u0652_u0641_u064e_u0631_u064d u0020 u0639 u0020 u0642_u064e_u0627_u0644_u064e u0020 u0633_u064e_u0645_u0650_u0639_u0652_u062a_u064f_u0647_u064f u0020 u064a_u064e_u0642_u064f_u0648_u0644_u064f u0020 u0625_u0650_u0646_u0651_u064e u0020 u0627_u0644_u0644_u0651_u064e_u0647_u064e u0020 u062a_u064e_u0628_u064e_u0627_u0631_u064e_u0643_u064e u0020 u0648_u064e u0020 u062a_u064e_u0639_u064e_u0627_u0644_u064e_u0649 u0020 u0644_u064e_u0645_u0652 u0020 u064a_u064e_u062f_u064e_u0639_u0652_u0020", 
        "u0634_u064e_u064a_u0652_u0626_u0627_u064b u0020 u064a_u064e_u062d_u0652_u062a_u064e_u0627_u062c_u064f u0020 u0625_u0650_u0644_u064e_u064a_u0652_u0647_u0650 u0020 u0627_u0644_u0652_u0623_u064f_u0645_u0651_u064e_u0629_u064f u0020 u0625_u0650_u0644_u0651_u064e_u0627 u0020 u0623_u064e_u0646_u0652_u0632_u064e_u0644_u064e_u0647_u064f u0020 u0641_u0650_u064a u0020 u0643_u0650_u062a_u064e_u0627_u0628_u0650_u0647_u0650 u0020 u0648_u064e u0020 u0628_u064e_u064a_u0651_u064e_u0646_u064e_u0647_u064f u0020 u0644_u0650_u0631_u064e_u0633_u064f_u0648_u0644_u0650_u0647_u0650 u0020 u0635 u0020 u0648_u064e u0020 u062c_u064e_u0639_u064e_u0644_u064e u0020 u0644_u0650_u0643_u064f_u0644_u0651_u0650 u0020 u0634_u064e_u064a_u0652_u200f_u0621_u064d u0020 u062d_u064e_u062f_u0651_u0627_u064b u0020 u0648_u064e_u0020", 
        "u062c_u064e_u0639_u064e_u0644_u064e u0020 u0639_u064e_u0644_u064e_u064a_u0652_u0647_u0650 u0020 u062f_u064e_u0644_u0650_u064a_u0644_u064b_u0627 u0020 u064a_u064e_u062f_u064f_u0644_u0651_u064f u0020 u0639_u064e_u0644_u064e_u064a_u0652_u0647_u0650 u0020 u0648_u064e u0020 u062c_u064e_u0639_u064e_u0644_u064e u0020 u0639_u064e_u0644_u064e_u0649 u0020 u0645_u064e_u0646_u0652 u0020 u062a_u064e_u0639_u064e_u062f_u0651_u064e_u0649 u0020 u0630_u064e_u0644_u0650_u0643_u064e u0020 u0627_u0644_u0652_u062d_u064e_u062f_u0651_u064e u0020 u062d_u064e_u062f_u0651_u0627 u0020 u0028_u0627_u0644_u0643_u0627_u0641_u064a u0020 u0020_u062c_u200f_u0031 u0020 u0020", 
        "u0635_u0035_u0039_u0029_u000d", 
        "u0050_u0065_u0072_u0073_u006f_u006e u0020 u0062_u0079 u0020 u0074_u0068_u0065 u0020 u006e_u0061_u006d_u0065 u0020 u0055_u006d_u0061_u0072 u0020 u0069_u0062_u006e u0020 u0051_u0061_u0079_u0073 u0020 u0073_u0061_u0069_u0064 u0020 u0049 u0020 u0068_u0065_u0061_u0072_u0064 u0020 u0049_u006d_u0061_u006d u0020 u0042_u0061_u0071_u0069_u0072 u0020 u0028_u0061_u0073_u0029_u0020", 
        "u006d_u0065_u006e_u0074_u0069_u006f_u006e_u003a u0020 u0041_u006c_u006c_u0061_u0068 u0020 u0068_u0061_u0073 u0020 u006e_u006f_u0074 u0020 u006c_u0065_u0066_u0074 u0020 u006f_u0075_u0074 u0020 u0061_u006e_u0079_u0074_u0068_u0069_u006e_u0067 u0020 u0075_u006e_u0061_u0064_u0064_u0072_u0065_u0073_u0073_u0065_u0064 u0020 u0077_u0068_u0069_u0063_u0068 u0020 u0069_u0073 u0020 u0061_u0020", 
        "u006e_u0065_u0063_u0065_u0073_u0073_u0069_u0074_u0079 u0020 u0066_u006f_u0072 u0020 u0074_u0068_u0065 u0020 u0070_u0065_u006f_u0070_u006c_u0065_u002e u0020 u0049_u0074 u0020 u0069_u0073 u0020 u0065_u0069_u0074_u0068_u0065_u0072 u0020 u006d_u0065_u006e_u0074_u0069_u006f_u006e_u0065_u0064 u0020 u0069_u006e u0020 u0051_u0075_u0072_u0061_u006e u0020 u006f_u0072 u0020 u0065_u0078_u0070_u006c_u0061_u0069_u006e_u0065_u0064_u0020", 
        "u0074_u0068_u0072_u006f_u0075_u0067_u0068 u0020 u0048_u0069_u0073 u0020 u004d_u0065_u0073_u0073_u0065_u006e_u0067_u0065_u0072_u002e u0020 u0048_u0065 u0020 u0068_u0061_u0073 u0020 u0065_u0078_u0070_u006c_u0061_u0069_u006e_u0065_u0064 u0020 u0074_u0068_u0065 u0020 u006c_u0069_u006d_u0069_u0074_u0073 u0020 u006f_u0066 u0020 u0065_u0076_u0065_u0072_u0079_u0074_u0068_u0069_u006e_u0067 u0020 u0061_u006e_u0064_u0020", 
        "u006d_u0065_u006e_u0074_u0069_u006f_u006e_u0065_u0064 u0020 u0069_u0074_u0073 u0020 u0072_u0065_u0061_u0073_u006f_u006e_u0069_u006e_u0067_u002e u0020 u004d_u006f_u0072_u0065_u006f_u0076_u0065_u0072_u002c u0020 u0048_u0065 u0020 u0068_u0061_u0073 u0020 u006d_u0065_u006e_u0074_u0069_u006f_u006e_u0065_u0064 u0020 u0074_u0068_u0065 u0020 u0070_u0075_u006e_u0069_u0073_u0068_u006d_u0065_u006e_u0074_u0020", 
        "u0066_u006f_u0072 u0020 u0074_u0068_u006f_u0073_u0065 u0020 u0077_u0068_u006f u0020 u0074_u0072_u0061_u006e_u0073_u0067_u0072_u0065_u0073_u0073 u0020 u0074_u0068_u0065_u0073_u0065 u0020 u006c_u0069_u006d_u0069_u0074_u0073_u002e_u000d", 
        "u0041_u0063_u0063_u006f_u0072_u0064_u0069_u006e_u0067 u0020 u0074_u006f u0020 u0051_u0075_u0072_u0061_u006e u0020 u0073_u0069_u006e u0020 u0028_u0630_u0646_u0628_u0029 u0020 u006d_u0065_u0061_u006e_u0073 u0020 u0074_u0068_u0061_u0074 u0020 u0077_u0068_u0069_u0063_u0068 u0020 u0068_u0061_u0073 u0020 u0072_u0065_u0070_u0065_u0072_u0063_u0075_u0073_u0073_u0069_u006f_u006e_u002e u0020 u000d", 
        "u0041 u0020 u0073_u0069_u006e_u006e_u0065_u0072 u0020 u0074_u0068_u0069_u006e_u006b_u0073 u0020 u0061_u0066_u0074_u0065_u0072 u0020 u0068_u0069_u0073 u0020 u0073_u0069_u006e u0020 u0068_u0065 u0020 u0069_u0073 u0020 u0064_u006f_u006e_u0065_u002c u0020 u0062_u0075_u0074 u0020 u0061_u0063_u0063_u006f_u0072_u0064_u0069_u006e_u0067 u0020 u0074_u006f u0020 u0041_u0077_u006c_u0069_u0079_u0061 u0020 u0041_u006c_u006c_u0061_u0068_u002c_u0020", 
        "u0077_u0069_u0074_u0068 u0020 u0073_u0069_u006e u0020 u0073_u0074_u0061_u0072_u0074 u0020 u0074_u0068_u0065 u0020 u0065_u0076_u0069_u006c u0020 u0063_u006f_u006e_u0073_u0065_u0071_u0075_u0065_u006e_u0063_u0065_u0073 u0020 u0077_u0068_u0069_u0063_u0068 u0020 u0073_u006f_u006d_u0065_u0074_u0069_u006d_u0065_u0073 u0020 u0061_u0066_u0066_u0065_u0063_u0074 u0020 u0074_u0068_u0061_u0074_u0020", 
        "u0070_u0065_u0072_u0073_u006f_u006e_u002c u0020 u0068_u0069_u0073 u0020 u0066_u0061_u006d_u0069_u006c_u0079_u002c u0020 u0068_u0069_u0073 u0020 u0073_u006f_u0063_u0069_u0065_u0074_u0079 u0020 u0061_u006e_u0064 u0020 u0063_u006f_u006e_u0074_u0069_u006e_u0075_u0065_u0073 u0020 u0069_u006e u0020 u0048_u0065_u0072_u0065_u0061_u0066_u0074_u0065_u0072_u002e_u000d", 
        "u0053_u006f_u006d_u0065 u0020 u0073_u0069_u006e_u0073 u0020 u0068_u0061_u0076_u0065 u0020 u0077_u006f_u0072_u006c_u0064_u006c_u0079 u0020 u0070_u0075_u006e_u0069_u0073_u0068_u006d_u0065_u006e_u0074_u0073 u0020 u0061_u006c_u006f_u006e_u0067 u0020 u0077_u0069_u0074_u0068 u0020 u0061_u0066_u0074_u0065_u0072 u0020 u0052_u0065_u0073_u0075_u0072_u0072_u0065_u0063_u0074_u0069_u006f_u006e_u002e_u000d"
    ]
}