{
    "bounding_box": [
        [
            418, 
            29, 
            249, 
            34
        ], 
        [
            318, 
            71, 
            368, 
            43
        ], 
        [
            367, 
            121, 
            17, 
            31
        ], 
        [
            105, 
            300, 
            225, 
            95
        ], 
        [
            105, 
            300, 
            225, 
            95
        ], 
        [
            327, 
            195, 
            112, 
            41
        ], 
        [
            512, 
            320, 
            106, 
            40
        ], 
        [
            334, 
            437, 
            122, 
            43
        ], 
        [
            545, 
            248, 
            17, 
            32
        ], 
        [
            174, 
            246, 
            17, 
            23
        ], 
        [
            373, 
            376, 
            17, 
            31
        ]
    ], 
    "image_height": 540, 
    "image_width": 720, 
    "transcription": [
        "u0020_u0645_u0631_u0627_u062d_u0644 u0020 u0639_u0645_u0644_u064a_u0629 u0020 u0627_u0644_u062a_u062f_u0642_u064a_u0642", 
        "u062c_u0645_u064a_u0639 u0020 u0623_u0646_u0648_u0627_u0639 u0020 u0627_u0644_u062a_u062f_u0642_u064a_u0642 u0020 u062a_u0645_u0631 u0020 u0628_u0623_u0631_u0628_u0639_u0629 u0020 u0645_u0631_u0627_u062d_u0644_u000d", 
        "u0031", 
        "u0020 u0020 u0020_u0643_u062a_u0627_u0628_u0629 u0020 u0627_u0644_u062a_u0642_u0627_u0631_u064a_u0631 u0020 u000d u0020 u0020 u0020 u0648_u0627_u0644_u0645_u062a_u0627_u0628_u0639_u0629_u0020", 
        "u0020 u0020 u0020_u0643_u062a_u0627_u0628_u0629 u0020 u0627_u0644_u062a_u0642_u0627_u0631_u064a_u0631 u0020 u000d u0020 u0020 u0020 u0648_u0627_u0644_u0645_u062a_u0627_u0628_u0639_u0629_u0020", 
        "u0627_u0644_u062a_u062e_u0637_u064a_u0637", 
        "u0627_u0644_u0625_u0639_u062f_u0627_u062f_u0020", 
        "u0020 u0020 u0020_u0627_u0644_u062a_u0646_u0641_u064a_u0630", 
        "u0032", 
        "u0034", 
        "u0033"
    ]
}