{
    "bounding_box": [
        [
            283, 
            78, 
            147, 
            37
        ], 
        [
            354, 
            116, 
            5, 
            34
        ], 
        [
            61, 
            154, 
            588, 
            37
        ], 
        [
            55, 
            193, 
            601, 
            37
        ], 
        [
            35, 
            231, 
            640, 
            37
        ], 
        [
            61, 
            270, 
            588, 
            37
        ], 
        [
            38, 
            308, 
            634, 
            37
        ], 
        [
            61, 
            346, 
            588, 
            37
        ], 
        [
            100, 
            385, 
            518, 
            37
        ]
    ], 
    "image_height": 540, 
    "image_width": 720, 
    "transcription": [
        "u0031_u002d u0020 u00a0_u0634_u062c_u0631_u0629 u0020 u0637_u0648_u0628_u0649 u0020 u003a_u000b", 
        "u000b", 
        "u0648_u0633_u0644_u0645 u0020 u0623_u0646_u0647_u0627 u0020 u062a_u0634_u0628_u0647 u0020 u0634_u062c_u0631_u0629 u0020 u0627_u0644_u062c_u0648_u0632 u0020 u0648_u0647_u0649 u0020 u0628_u0627_u0644_u063a_u0629 u0020 u0627_u0644_u0639_u0638_u0645 u0020 u0641_u064a u0020 u062d_u062c_u0645_u0647_u0627_u0020", 
        "u0648_u062a_u062a_u0641_u062a_u0642 u0020 u062b_u0645_u0627_u0631_u0647_u0627 u0020 u0639_u0646 u0020 u062b_u064a_u0627_u0628 u0020 u0623_u0647_u0644 u0020 u0627_u0644_u062c_u0646_u0629 u0020 u0641_u064a u0020 u0643_u0644 u0020 u062b_u0645_u0631_u0629 u0020 u0633_u0628_u0639_u064a_u0646 u0020 u062b_u0648_u0628_u0627_u0020", 
        "u0623_u0644_u0648_u0627_u0646_u0627 u0020 u0623_u0644_u0648_u0627_u0646 u0020 u0645_u0646 u0020 u0627_u0644_u0633_u0646_u062f_u0633 u0020 u0028_u0627_u0644_u062d_u0631_u064a_u0631 u0020 u0627_u0644_u0631_u0642_u064a_u0642 u0020 u0029 u0020 u0648_u0627_u0644_u0625_u0633_u062a_u0628_u0631_u0642 u0020 u0028 u0020 u0627_u0644_u062d_u0631_u064a_u0631_u0020", 
        "u0627_u0644_u0633_u0645_u064a_u0643 u0020 u0029 u0020 u0644_u0645 u0020 u064a_u0631 u0020 u0645_u062b_u0644_u0647_u0627 u0020 u0623_u0647_u0644 u0020 u0627_u0644_u062f_u0646_u064a_u0627 u0020 u064a_u0646_u0627_u0644 u0020 u0645_u0646_u0647_u0627 u0020 u0627_u0644_u0645_u0624_u0645_u0646 u0020 u0645_u0627 u0020 u064a_u0634_u0627_u0621_u0020", 
        "u0648_u0639_u0646_u062f_u0647_u0627 u0020 u064a_u062c_u062a_u0645_u0639 u0020 u0623_u0647_u0644 u0020 u0627_u0644_u062c_u0646_u0629 u0020 u0641_u064a_u062a_u0630_u0643_u0631_u0648_u0646 u0020 u0644_u0647_u0648 u0020 u0627_u0644_u062f_u0646_u064a_u0627 u0020 u0028 u0020 u0627_u0644_u0644_u0639_u0628 u0020 u0648_u0627_u0644_u0637_u0631_u0628_u0020", 
        "u0648_u0627_u0644_u0641_u0646_u0648_u0646_u0029_u00a0 u0020 u0641_u064a_u0628_u0639_u062b u0020 u0627_u0644_u0644_u0647 u0020 u0631_u064a_u062d_u0627 u0020 u0645_u0646 u0020 u0627_u0644_u062c_u0646_u0629 u0020 u062a_u062d_u0631_u0643 u0020 u062a_u0644_u0643 u0020 u0627_u0644_u0634_u062c_u0631_u0629 u0020 u0628_u0643_u000b", 
        "u0642_u0627_u0644 u0020 u0639_u0646_u0647_u0627 u0020 u0631_u0633_u0648_u0644 u0020 u0627_u0644_u0644_u0647 u0020 u0635_u0644_u0649 u0020 u0627_u0644_u0644_u0647 u0020 u0639_u0644_u064a_u0647 u0020 u0644 u0020 u0644_u0647_u0648 u0020 u0643_u0627_u0646 u0020 u0641_u064a u0020 u0627_u0644"
    ]
}