{
    "bounding_box": [
        [
            73, 
            126, 
            621, 
            34
        ], 
        [
            51, 
            167, 
            642, 
            30
        ], 
        [
            161, 
            204, 
            533, 
            33
        ], 
        [
            63, 
            242, 
            630, 
            34
        ], 
        [
            16, 
            281, 
            678, 
            34
        ], 
        [
            75, 
            318, 
            619, 
            35
        ], 
        [
            31, 
            359, 
            663, 
            33
        ], 
        [
            46, 
            396, 
            648, 
            34
        ], 
        [
            615, 
            436, 
            79, 
            31
        ]
    ], 
    "image_height": 540, 
    "image_width": 720, 
    "transcription": [
        "u0648_u0625_u0646 u0020 u0643_u0627_u0646_u062a_u00a0_u0627_u0644_u0634_u0641_u0627_u0639_u0629_u00a0_u002d_u0648_u0647_u064a u0020 u0635_u0644_u0627_u0629_u002d u0020 u062a_u0639_u062a_u0628_u0631 u0020 u0648_u0633_u0627_u0637_u0629_u060c u0020 u0648_u0625_u0646 u0020 u0643_u0627_u0646_u062a u0020 u0643_u0644_u0020", 
        "u0648_u0633_u0627_u0637_u0629 u0020 u063a_u064a_u0631 u0020 u0645_u0642_u0628_u0648_u0644_u0629_u060c u0020 u062a_u0643_u0648_u0646 u0020 u0625_u0630_u0646 u0020 u0643_u0644 u0020 u0635_u0644_u0627_u0629 u0020 u0625_u0646_u0633_u0627_u0646 u0020 u0645_u0646 u0020 u0623_u062c_u0644 u0020 u0625_u0646_u0633_u0627_u0646_u0020", 
        "u0622_u062e_u0631 u0020 u0647_u064a u0020 u0623_u064a_u0636_u0627_u064b u0020 u0648_u0633_u0627_u0637_u0629 u0020 u0645_u0631_u0641_u0648_u0636_u0629 u0020 u0625_u0630 u0020 u0644_u0646_u0627 u0020 u0648_u0633_u064a_u0637 u0020 u0648_u0627_u062d_u062f_u002e_u002e_u0021_u000b", 
        "u0648_u0628_u0631_u0641_u0636 u0020 u0648_u0633_u0627_u0637_u0627_u062a u0020 u0627_u0644_u0635_u0644_u0627_u0629_u060c u0020 u064a_u0643_u0648_u0646 u0020 u0627_u0644_u0631_u0633_u0648_u0644 u0020 u0625_u0630_u0646 u0020 u0642_u062f u0020 u0623_u062e_u0637_u0623 u0020 u0028_u062d_u0627_u0634_u0627_u0029_u0020", 
        "u062d_u064a_u0646_u0645_u0627 u0020 u0642_u0627_u0644 u0020 u0022_u0635_u0644_u0648_u0627 u0020 u0628_u0639_u0636_u0643_u0645 u0020 u0644_u0623_u062c_u0644 u0020 u0628_u0639_u0636_u0022 u0020 u0028_u064a_u0639_u0031_u0036_u003a_u0035_u0029_u060c u0020 u0639_u0644_u0649 u0020 u0625_u0639_u062a_u0628_u0627_u0631 u0020 u0623_u0646_u0020", 
        "u0627_u0644_u0639_u0644_u0627_u0642_u0629 u0020 u0628_u064a_u0646 u0020 u0627_u0644_u0625_u0646_u0633_u0627_u0646 u0020 u0648_u0627_u0644_u0644_u0647_u060c u0020 u0639_u0644_u0627_u0642_u0629 u0020 u0645_u0628_u0627_u0634_u0631_u0629_u060c u0020 u0648_u0647_u064a u0020 u0641_u064a u0020 u0638_u0644 u0020 u0627_u0644_u062d_u0628_u0020", 
        "u0627_u0644_u0625_u0644_u0647_u064a u0020 u0644_u0627 u0020 u062a_u062d_u062a_u0627_u062c u0020 u0625_u0644_u0649 u0020 u0635_u0644_u0627_u0629 u0020 u0645_u0646 u0020 u0623_u062d_u062f_u002e_u002e_u0021 u0020 u0648_u0628_u0627_u0644_u062a_u0627_u0644_u064a u0020 u062a_u0643_u0648_u0646 u0020 u0643_u0644 u0020 u0627_u0644_u0635_u0644_u0648_u0627_u062a_u0020", 
        "u0645_u0646 u0020 u0623_u062c_u0644 u0020 u0627_u0644_u0622_u062e_u0631_u064a_u0646 u0020 u0627_u0644_u062a_u064a u0020 u0648_u0631_u062f_u062a u0020 u0641_u064a u0020 u0627_u0644_u0643_u062a_u0627_u0628 u0020 u0644_u0627 u0020 u0645_u0639_u0646_u0649 u0020 u0644_u0647_u0627 u0020 u0648_u0636_u062f u0020 u0627_u0644_u062d_u0628_u0020", 
        "u0627_u0644_u0625_u0644_u0647_u064a_u0021_u0021"
    ]
}