{
    "bounding_box": [
        [
            235, 
            212, 
            279, 
            52
        ], 
        [
            246, 
            275, 
            238, 
            69
        ], 
        [
            512, 
            66, 
            121, 
            35
        ], 
        [
            520, 
            118, 
            116, 
            39
        ], 
        [
            302, 
            66, 
            95, 
            35
        ], 
        [
            300, 
            117, 
            113, 
            37
        ], 
        [
            83, 
            60, 
            91, 
            36
        ], 
        [
            96, 
            113, 
            77, 
            35
        ], 
        [
            308, 
            230, 
            85, 
            34
        ], 
        [
            320, 
            276, 
            72, 
            31
        ], 
        [
            545, 
            362, 
            55, 
            34
        ], 
        [
            524, 
            411, 
            96, 
            32
        ], 
        [
            543, 
            464, 
            71, 
            40
        ], 
        [
            313, 
            390, 
            75, 
            34
        ], 
        [
            312, 
            442, 
            88, 
            36
        ], 
        [
            94, 
            345, 
            70, 
            32
        ], 
        [
            77, 
            386, 
            114, 
            39
        ], 
        [
            101, 
            434, 
            57, 
            26
        ], 
        [
            91, 
            476, 
            86, 
            36
        ], 
        [
            83, 
            222, 
            91, 
            36
        ], 
        [
            73, 
            277, 
            122, 
            34
        ], 
        [
            534, 
            214, 
            98, 
            34
        ], 
        [
            511, 
            256, 
            125, 
            35
        ], 
        [
            532, 
            297, 
            92, 
            37
        ]
    ], 
    "image_height": 540, 
    "image_width": 720, 
    "transcription": [
        "u0627_u0633_u062a_u0631_u0627_u062a_u064a_u062c_u064a_u0627_u062a_u000d", 
        "u062d_u0644 u0020 u0627_u0644_u0645_u0633_u0623_u0644_u0629", 
        "u0627_u0644_u062a_u062e_u0645_u064a_u0646_u0020", 
        "u0648_u0627_u0644_u062a_u062d_u0642_u0642", 
        "u0627_u0644_u0628_u062d_u062b_u0020", 
        "u0639_u0646 u0020 u0646_u0645_u0637", 
        "u0625_u0646_u0634_u0627_u0621_u0020", 
        "u062c_u062f_u0648_u0644", 
        "u0625_u0639_u062f_u0627_u062f_u0020", 
        "u0642_u0627_u0626_u0645_u0629", 
        "u062d_u0644_u0020", 
        "u0645_u0633_u0623_u0644_u0629_u0020", 
        "u0623_u0628_u0633_u0637", 
        "u0627_u0644_u062d_u0644_u0020", 
        "u0639_u0643_u0633_u064a_u064b_u0627", 
        "u062a_u0645_u062b_u064a_u0644_u0020", 
        "u0627_u0644_u0645_u0633_u0623_u0644_u0629_u0028_u0625_u0646", 
        "u0634_u0627_u0621_u0020", 
        "u0646_u0645_u0648_u0630_u062c_u0029", 
        "u0625_u0646_u0634_u0627_u0621_u0020", 
        "u0631_u0633_u0648_u0645_u0627_u062a", 
        "u0627_u0644_u062a_u0628_u0631_u064a_u0631_u0028_u000d", 
        "u0627_u0644_u0627_u0633_u062a_u062f_u0644_u0627_u0644_u0029_u0020", 
        "u0627_u0644_u0645_u0646_u0637_u0642_u064a"
    ]
}