{
    "bounding_box": [
        [
            87, 
            216, 
            535, 
            26
        ], 
        [
            87, 
            244, 
            535, 
            27
        ], 
        [
            72, 
            273, 
            550, 
            26
        ], 
        [
            94, 
            301, 
            529, 
            27
        ], 
        [
            147, 
            330, 
            475, 
            27
        ], 
        [
            262, 
            51, 
            182, 
            45
        ]
    ], 
    "image_height": 540, 
    "image_width": 720, 
    "transcription": [
        "u0642_u0627_u0644 u0020 u0627_u0644_u0625_u0645_u0627_u0645 u0020 u0645_u0633_u0644_u0645 u0020 u0641_u064a u0020 u0635_u062d_u064a_u062d_u0647_u003a u0020 u062d_u064e_u062f_u0651_u064e_u062b_u064e_u0646_u0650_u064a u0020 u0632_u064f_u0647_u064e_u064a_u0652_u0631_u064f u0020 u0628_u0652_u0646_u064f u0020 u062d_u064e_u0631_u0652_u0628_u064d u0020 u0648_u064e_u0645_u064f_u062d_u064e_u0645_u0651_u064e_u062f_u064f u0020 u0628_u0652_u0646_u064f u0020 u0627_u0644_u0652_u0645_u064f_u062b_u064e_u0646_u0651_u064e_u0649_u0020", 
        "u0642_u064e_u0627_u0644_u064e_u0627 u0020 u062d_u064e_u062f_u0651_u064e_u062b_u064e_u0646_u064e_u0627 u0020 u064a_u064e_u062d_u0652_u064a_u064e_u0649 u0020 u0648_u064e_u0647_u064f_u0648_u064e u0020 u0627_u0644_u0652_u0642_u064e_u0637_u0651_u064e_u0627_u0646_u064f u0020 u062d u0020 u0648_u062d_u064e_u062f_u0651_u064e_u062b_u064e_u0646_u064e_u0627 u0020 u0623_u064e_u0628_u064f_u0648 u0020 u0628_u064e_u0643_u0652_u0631_u0650 u0020 u0628_u0652_u0646_u064f u0020 u0623_u064e_u0628_u0650_u064a u0020 u0634_u064e_u064a_u0652_u0628_u064e_u0629_u064e u0020 u062d_u064e_u062f_u0651_u064e_u062b_u064e_u0646_u064e_u0627 u0020 u0623_u064e_u0628_u064f_u0648_u0020", 
        "u0623_u064f_u0633_u064e_u0627_u0645_u064e_u0629_u064e u0020 u0648_u064e_u0627_u0628_u0652_u0646_u064f u0020 u0646_u064f_u0645_u064e_u064a_u0652_u0631_u064d u0020 u0643_u064f_u0644_u0651_u064f_u0647_u064f_u0645_u0652 u0020 u0639_u064e_u0646_u0652 u0020 u0639_u064f_u0628_u064e_u064a_u0652_u062f_u0650 u0020 u0627_u0644_u0644_u0651_u064e_u0647_u0650 u0020 u0639_u064e_u0646_u0652 u0020 u0646_u064e_u0627_u0641_u0650_u0639_u064d u0020 u0639_u064e_u0646_u0652 u0020 u0627_u0628_u0652_u0646_u0650 u0020 u0639_u064f_u0645_u064e_u0631_u064e u0020 u0639_u064e_u0646_u0652 u0020 u0627_u0644_u0646_u0651_u064e_u0628_u0650_u064a_u0651_u0650 u0020 u0635_u0644_u0649 u0020 u0627_u0644_u0644_u0647 u0020 u0639_u0644_u064a_u0647 u0020 u0648_u0633_u0644_u0645_u0020", 
        "u062d u0020 u0648_u062d_u064e_u062f_u0651_u064e_u062b_u064e_u0646_u064e_u0627 u0020 u064a_u064e_u062d_u0652_u064a_u064e_u0649 u0020 u0628_u0652_u0646_u064f u0020 u064a_u064e_u062d_u0652_u064a_u064e_u0649 u0020 u0648_u064e_u0627_u0644_u0644_u0651_u064e_u0641_u0652_u0638_u064f u0020 u0644_u064e_u0647_u064f u0020 u0642_u064e_u0627_u0644_u064e u0020 u0642_u064e_u0631_u064e_u0623_u0652_u062a_u064f u0020 u0639_u064e_u0644_u064e_u0649 u0020 u0645_u064e_u0627_u0644_u0650_u0643_u064d u0020 u0639_u064e_u0646_u0652 u0020 u0646_u064e_u0627_u0641_u0650_u0639_u064d u0020 u0639_u064e_u0646_u0652_u0020", 
        "u0627_u0628_u0652_u0646_u0650 u0020 u0639_u064f_u0645_u064e_u0631_u064e u0020 u0623_u064e_u0646_u0651_u064e u0020 u0627_u0644_u0646_u0651_u064e_u0628_u0650_u064a_u0651_u064e u0020 u0635_u0644_u0649 u0020 u0627_u0644_u0644_u0647 u0020 u0639_u0644_u064a_u0647 u0020 u0648_u0633_u0644_u0645 u0020 u0020_u0642_u064e_u0627_u0644_u064e_u003a u0020 u0022_u0645_u064e_u0646_u0652 u0020 u062d_u064e_u0645_u064e_u0644_u064e u0020 u0639_u064e_u0644_u064e_u064a_u0652_u0646_u064e_u0627 u0020 u0627_u0644_u0633_u0651_u0650_u0644_u064e_u0627_u062d_u064e u0020 u0641_u064e_u0644_u064e_u064a_u0652_u0633_u064e u0020 u0645_u0650_u0646_u0651_u064e_u0627_u0022", 
        "u0646_u0635 u0020 u0627_u0644_u062d_u062f_u064a_u062b_u0020"
    ]
}