{
    "bounding_box": [
        [
            326, 
            65, 
            307, 
            31
        ], 
        [
            418, 
            153, 
            455, 
            29
        ], 
        [
            70, 
            210, 
            803, 
            32
        ], 
        [
            745, 
            264, 
            128, 
            26
        ], 
        [
            567, 
            316, 
            269, 
            23
        ], 
        [
            490, 
            364, 
            346, 
            24
        ], 
        [
            307, 
            412, 
            529, 
            26
        ], 
        [
            371, 
            523, 
            211, 
            15
        ]
    ], 
    "image_height": 540, 
    "image_width": 960, 
    "transcription": [
        "u0054_u0061_u006c_u0065_u006e_u0074 u0020 u004d_u0061_u006e_u0061_u0067_u0065_u006d_u0065_u006e_u0074", 
        "u0625_u062f_u0627_u0631_u0629 u0020 u0627_u0644_u0645_u0648_u0627_u0647_u0628 u0020 u0641_u064a u0020 u0628_u062f_u0627_u064a_u0629 u0020 u062a_u0633_u0639_u064a_u0646_u064a_u0627_u062a u0020 u0627_u0644_u0642_u0631_u0646 u0020 u0627_u0644_u0645_u0627_u0636_u064a_u002e u0020 u000d", 
        "u0627_u0644_u0622_u0646 u0020 u062a_u0639_u062a_u0628_u0631_u0625_u062f_u0627_u0631_u0629 u0020 u0627_u0644_u0645_u0648_u0647_u0628_u0629 u0020 u0645_u0646 u0020 u0623_u0647_u0645 u0020 u0627_u0644_u0631_u0643_u0627_u0626_u0632 u0020 u0627_u0644_u062a_u064a u0020 u062a_u0633_u062a_u0646_u062f u0020 u0639_u0644_u064a_u0647_u0627 u0020 u0627_u0644_u0645_u0646_u0638_u0645_u0627_u062a u0020 u0641_u064a u0020 u062a_u062d_u0642_u064a_u0642 u0020 u0631_u0624_u064a_u062a_u0647_u0627_u0020", 
        "u0627_u0644_u0627_u0633_u062a_u0631_u0627_u062a_u064a_u062c_u064a_u0629_u003a_u000d", 
        "u0625_u062e_u062a_u064a_u0627_u0631 u0020 u0627_u0644_u0645_u0648_u0638_u0641_u064a_u0646 u0020 u0627_u0644_u0645_u0624_u0647_u0644_u064a_u0646 u0020 u0627_u0644_u0623_u0643_u0641_u0627_u0621_u002e_u000d", 
        "u0625_u0643_u062a_u0634_u0627_u0641 u0020 u0645_u0648_u0627_u0647_u0628_u0647_u0645 u0020 u0648_u062a_u0646_u0645_u064a_u062a_u0647_u0627 u0020 u0648_u0627_u0644_u0645_u062d_u0627_u0641_u0638_u0629 u0020 u0639_u0644_u064a_u0647_u0627_u002e_u000d", 
        "u0647_u064a u0020 u0627_u0644_u0645_u0647_u0645_u0629 u0020 u0627_u0644_u0623_u0628_u0631_u0632 u0020 u0644_u0625_u062f_u0627_u0631_u0629 u0020 u0627_u0644_u0645_u0648_u0627_u0631_u062f u0020 u0627_u0644_u0628_u0634_u0631_u064a_u0629 u0020 u0641_u064a u0020 u0645_u0646_u0638_u0645_u0627_u062a u0020 u0627_u0644_u0639_u0635_u0631 u0020 u0627_u0644_u062d_u062f_u064a_u062b_u002e", 
        "u0645_u0639_u0647_u062f u0020 u0627_u0644_u0625_u062f_u0627_u0631_u0629 u0020 u0627_u0644_u0639_u0627_u0645_u0629 u0020 u2013 u0020 u0645_u0631_u0643_u0632 u0020 u0627_u0644_u062a_u062f_u0631_u064a_u0628 u0020 u0639_u0646 u0020 u0628_u0639_u062f"
    ]
}