{
    "bounding_box": [
        [
            456, 
            56, 
            202, 
            39
        ], 
        [
            516, 
            108, 
            142, 
            40
        ], 
        [
            464, 
            183, 
            197, 
            24
        ], 
        [
            88, 
            221, 
            573, 
            25
        ], 
        [
            92, 
            249, 
            570, 
            29
        ], 
        [
            110, 
            281, 
            552, 
            29
        ], 
        [
            59, 
            315, 
            602, 
            28
        ], 
        [
            64, 
            349, 
            598, 
            26
        ], 
        [
            213, 
            377, 
            448, 
            29
        ]
    ], 
    "image_height": 540, 
    "image_width": 720, 
    "transcription": [
        "u0627_u0644_u062c_u0644_u0633_u0629 u0020 u0627_u0644_u062b_u0627_u0646_u064a_u0629_u000b", 
        "u0627_u0644_u0645_u0648_u0627_u0637_u0646_u0629 u0020 u0020", 
        "u0020_u0645_u0627_u0630_u0627 u0020 u0646_u0639_u0646_u0649 u0020 u0628_u0627_u0644_u0645_u0648_u0627_u0637_u0646_u0629 u0020 u061f_u000d", 
        "u064a_u0642_u0635_u062f u0020 u0628_u0627_u0644_u0645_u0648_u0627_u0637_u0646_u0629 u0020 u0627_u0644_u0639_u0636_u0648_u064a_u0629 u0020 u0627_u0644_u0643_u0627_u0645_u0644_u0629 u0020 u0648_u0627_u0644_u0645_u062a_u0633_u0627_u0648_u064a_u0629 u0020 u0641_u064a u0020 u0627_u0644_u0645_u062c_u062a_u0645_u0639 u0020 u0628_u0645_u0627 u0020 u064a_u062a_u0631_u062a_u0628_u0020", 
        "u0639_u0644_u064a_u0647_u0627 u0020 u0645_u0646 u0020 u062d_u0642_u0648_u0642 u0020 u0648_u0648_u0627_u062c_u0628_u0627_u062a_u060c u0020 u0648_u0647_u0648 u0020 u0645_u0627 u0020 u064a_u0639_u0646_u064a u0020 u0623_u0646 u0020 u0643_u0627_u0641_u0629 u0020 u0623_u0628_u0646_u0627_u0621 u0020 u0627_u0644_u0634_u0639_u0628 u0020 u0627_u0644_u0630_u064a_u0646_u0020", 
        "u064a_u0639_u064a_u0634_u0648_u0646 u0020 u0641_u0648_u0642 u0020 u062a_u0631_u0627_u0628 u0020 u0627_u0644_u0648_u0637_u0646 u0020 u0633_u0648_u0627_u0633_u064a_u0629 u0020 u0628_u062f_u0648_u0646 u0020 u0623_u062f_u0646_u0649 u0020 u062a_u0645_u064a_u064a_u0632 u0020 u0642_u0627_u0626_u0645 u0020 u0639_u0644_u0649 u0020 u0623_u064a_u0020", 
        "u0645_u0639_u0627_u064a_u064a_u0631 u0020 u062a_u062d_u0643_u0645_u064a_u0629 u0020 u0645_u062b_u0644 u0020 u0627_u0644_u062f_u064a_u0646 u0020 u0623_u0648 u0020 u0627_u0644_u062c_u0646_u0633 u0020 u0623_u0648 u0020 u0627_u0644_u0644_u0648_u0646 u0020 u0623_u0648 u0020 u0627_u0644_u0645_u0633_u062a_u0648_u0649 u0020 u0627_u0644_u0627_u0642_u062a_u0635_u0627_u062f_u064a u0020 u0623_u0648_u0020", 
        "u0627_u0644_u0627_u0646_u062a_u0645_u0627_u0621 u0020 u0627_u0644_u0633_u064a_u0627_u0633_u064a u0020 u0648_u0627_u0644_u0645_u0648_u0642_u0641 u0020 u0627_u0644_u0641_u0643_u0631_u064a_u060c u0020 u0648_u064a_u0631_u062a_u0628 u0020 u0627_u0644_u062a_u0645_u062a_u0639 u0020 u0628_u0627_u0644_u0645_u0648_u0627_u0637_u0646_u0629 u0020 u0633_u0644_u0633_u0644_u0629 u0020 u0645_u0646_u0020", 
        "u0627_u0644_u062d_u0642_u0648_u0642 u0020 u0648_u0627_u0644_u0648_u0627_u062c_u0628_u0627_u062a u0020 u062a_u0631_u062a_u0643_u0632 u0020 u0639_u0644_u0649 u0020 u0623_u0631_u0628_u0639 u0020 u0642_u064a_u0645 u0020 u0645_u062d_u0648_u0631_u064a_u0629 u0020 u0647_u064a_u003a"
    ]
}