{
    "bounding_box": [
        [
            257, 
            144, 
            205, 
            1
        ], 
        [
            39, 
            163, 
            627, 
            52
        ], 
        [
            57, 
            226, 
            568, 
            52
        ], 
        [
            44, 
            291, 
            594, 
            57
        ], 
        [
            50, 
            355, 
            583, 
            52
        ]
    ], 
    "image_height": 540, 
    "image_width": 720, 
    "transcription": [
        "u0647_u062f_u0641 u0020 u0627_u0644_u0631_u0633_u0627_u0644_u0629", 
        "u0020_u0638_u0646 u0020 u0627_u0644_u0628_u0639_u0636 u0020 u0646_u062a_u064a_u062c_u0629 u0020 u0631_u0633_u0627_u0644_u062a_u0647 u0020 u0627_u0644_u0623_u0648_u0644_u0649 u0020 u0623_u0646_u0020", 
        "u0645_u062c_u0649_u0621 u0020 u0627_u0644_u0633_u064a_u062f u0020 u0639_u0644_u0649 u0020 u0627_u0644_u0623_u0628_u0648_u0627_u0628 u0020 u0641_u062a_u0631_u0643_u0648_u0627_u0020", 
        "u0623_u0639_u0645_u0627_u0644_u0647_u0645_u060c u0020 u064a_u062d_u062f_u062b_u0647_u0645 u0020 u0639_u0646 u0020 u0625_u0646_u0633_u0627_u0646 u0020 u0627_u0644_u062e_u0637_u064a_u0629_u0020", 
        "u0627_u0644_u0630_u0649 u0020 u0644_u0627_u0628_u062f u0020 u0623_u0646 u0020 u064a_u0633_u0628_u0642 u0020 u0627_u0644_u0645_u062c_u0649_u0621 u0020 u0627_u0644_u062b_u0627_u0646_u0649_u002e_u000d"
    ]
}