{
    "bounding_box": [
        [
            36, 
            97, 
            104, 
            42
        ], 
        [
            118, 
            162, 
            536, 
            27
        ], 
        [
            62, 
            195, 
            599, 
            27
        ], 
        [
            70, 
            228, 
            590, 
            28
        ], 
        [
            353, 
            262, 
            301, 
            27
        ], 
        [
            62, 
            301, 
            592, 
            29
        ], 
        [
            77, 
            333, 
            577, 
            30
        ]
    ], 
    "image_height": 540, 
    "image_width": 720, 
    "transcription": [
        "u062a_u0639_u0631_u064a_u0641", 
        "u0054_u0068_u0061_u0074 u0020 u0063_u006f_u006d_u0062_u0069_u006e_u0061_u0074_u0069_u006f_u006e u0020 u006f_u0066 u0020 u006d_u0061_u006e_u0075_u0066_u0061_u0063_u0074_u0075_u0072_u0069_u006e_u0067 u0020 u0061_u006e_u0064_u0020", 
        "u0071_u0075_u0061_u006c_u0069_u0074_u0079 u0020 u0063_u006f_u006e_u0074_u0072_u006f_u006c u0020 u0070_u0072_u006f_u0063_u0065_u0064_u0075_u0072_u0065_u0073 u0020 u0061_u0069_u006d_u0065_u0064 u0020 u0061_u0074 u0020 u0065_u006e_u0073_u0075_u0072_u0069_u006e_u0067_u0020", 
        "u0074_u0068_u0061_u0074 u0020 u0070_u0072_u006f_u0064_u0075_u0063_u0074_u0073 u0020 u0061_u0072_u0065 u0020 u0063_u006f_u006e_u0073_u0069_u0073_u0074_u0065_u006e_u0074_u006c_u0079 u0020 u006d_u0061_u006e_u0075_u0066_u0061_u0063_u0074_u0075_u0072_u0065_u0064_u0020", 
        "u0074_u006f u0020 u0074_u0068_u0065_u0069_u0072 u0020 u0073_u0070_u0065_u0063_u0069_u0066_u0069_u0063_u0061_u0074_u0069_u006f_u006e_u0073_u002e_u000d", 
        "u002e_u002e u0020 u0647_u0630_u0627 u0020 u0627_u0644_u0645_u0632_u064a_u062c u0020 u0645_u0646 u0020 u062a_u0639_u0644_u064a_u0645_u0627_u062a u0020 u0627_u0644_u0625_u0646_u062a_u0627_u062c u0020 u0648_u0636_u0628_u0637 u0020 u0627_u0644_u062c_u0648_u062f_u0629 u0020 u064a_u0647_u062f_u0641 u0020 u0625_u0644_u0649 u0020 u0636_u0645_u0627_u0646_u0020", 
        "u0627_u0644_u062e_u0631_u0648_u062c u0020 u0628_u0645_u0646_u062a_u062c_u0627_u062a u0020 u0645_u0637_u0627_u0628_u0642_u0629 u0020 u0644_u0644_u0645_u0648_u0627_u0635_u0641_u0627_u062a u0020 u0627_u0644_u062e_u0627_u0635_u0629 u0020 u0628_u0647_u0627 u0020 u0639_u0644_u0649 u0020 u0627_u0644_u062f_u0648_u0627_u0645_u002e u0020 u0020 u0020 u000d"
    ]
}