{
    "bounding_box": [
        [
            254, 
            38, 
            212, 
            36
        ], 
        [
            37, 
            130, 
            612, 
            25
        ], 
        [
            93, 
            157, 
            556, 
            25
        ], 
        [
            94, 
            184, 
            555, 
            25
        ], 
        [
            201, 
            211, 
            448, 
            25
        ], 
        [
            56, 
            242, 
            593, 
            28
        ], 
        [
            80, 
            271, 
            569, 
            25
        ], 
        [
            354, 
            298, 
            295, 
            24
        ], 
        [
            61, 
            331, 
            588, 
            26
        ], 
        [
            267, 
            359, 
            382, 
            23
        ], 
        [
            52, 
            391, 
            597, 
            26
        ], 
        [
            32, 
            419, 
            616, 
            25
        ], 
        [
            336, 
            446, 
            313, 
            25
        ]
    ], 
    "image_height": 540, 
    "image_width": 720, 
    "transcription": [
        "u0645_u062f_u064a_u0646_u0629 u0020 u0633_u0627_u064a_u0628_u0631_u062c_u0627_u064a_u0627", 
        "u0645_u0646 u0020 u0623_u0648_u0644_u0648_u064a_u0627_u062a u0020 u062f_u0648_u0644_u0629 u0020 u0645_u0627_u0644_u064a_u0632_u064a_u0627 u0020 u0623_u0646 u0020 u062a_u0643_u0648_u0646 u0020 u0647_u064a u0020 u0645_u062d_u0648_u0631 u0020 u0627_u0644_u0625_u062a_u0635_u0627_u0644_u0627_u062a u0020 u0648_u0627_u0644_u062a_u0642_u0646_u064a_u0629_u002e u0020 u0648_u062a_u0645_u0020", 
        "u062a_u062e_u0637_u064a_u0637 u0020 u0645_u062f_u064a_u0646_u0629 u0020 u0633_u0627_u064a_u0628_u0631_u062c_u0627_u064a_u0627 u0020 u0639_u0644_u0649 u0020 u0623_u0646 u0020 u062a_u0643_u0648_u0646 u0020 u0630_u0627_u062a u0020 u0627_u0644_u0628_u0646_u064a_u0629 u0020 u0627_u0644_u062a_u062d_u062a_u064a_u0629 u0020 u0627_u0644_u0639_u0627_u0644_u064a_u0629_u0020", 
        "u0627_u0644_u062c_u0648_u062f_u0629 u0020 u0645_u0646 u0020 u062d_u064a_u062b u0020 u0627_u0644_u062a_u0643_u0646_u0648_u0644_u0648_u062c_u064a_u0629 u0020 u0648_u0627_u0644_u0625_u062a_u0635_u0627_u0644_u0627_u062a u0020 u0644_u062a_u062c_u0644_u0628 u0020 u0625_u0644_u064a_u0647_u0627 u0020 u0627_u0644_u0634_u0631_u0643_u0627_u062a_u0020", 
        "u0627_u0644_u0639_u0627_u0644_u0645_u064a_u0629 u0020 u0627_u0644_u0639_u0645_u0644_u0627_u0642_u0629_u002e u0020 u0648_u0647_u064a u0020 u0645_u062f_u064a_u0646_u0629 u0020 u0627_u0644_u0645_u0633_u062a_u0642_u0628_u0644 u0020 u0641_u064a u0020 u0645_u0627_u0644_u064a_u0632_u064a_u0627_u002e u0020 u000d", 
        "u0645_u062f_u064a_u0646_u0629 u0020 u0633_u0627_u064a_u0628_u0631_u062c_u0627_u064a_u0627 u0020 u062a_u0642_u062f_u0645 u0020 u0645_u0633_u0627_u062d_u0627_u062a u0020 u062e_u0627_u0635_u0629 u0020 u0644_u0644_u0634_u0631_u0643_u0627_u062a u0020 u0627_u0644_u062a_u064a u0020 u062a_u0639_u0645_u0644 u0020 u0641_u064a u0020 u0645_u062c_u0627_u0644_u0020", 
        "u062a_u0642_u0646_u064a_u0629 u0020 u0627_u0644_u0645_u0639_u0644_u0648_u0645_u0627_u062a u0020 u0648_u0627_u0644_u0625_u062a_u0635_u0627_u0644_u0627_u062a u0020 u0648_u0630_u0644_u0643 u0020 u0644_u062a_u0637_u0648_u064a_u0631 u0020 u0627_u0644_u0628_u062d_u0648_u062b u0020 u0648_u0625_u0646_u062a_u0627_u062c u0020 u0623_u062d_u062f_u062b_u0020", 
        "u0627_u0644_u062a_u0642_u0646_u064a_u0627_u062a u0020 u0627_u0644_u0645_u0639_u0644_u0648_u0645_u0627_u062a_u064a_u0629 u0020 u0648_u0627_u0644_u0625_u062a_u0635_u0627_u0644_u0627_u062a_u002e_u000d", 
        "u0625_u0646 u0020 u0627_u0644_u0634_u0631_u0643_u0627_u062a u0020 u0627_u0644_u0639_u0645_u0644_u0627_u0642_u0629 u0020 u0648_u0627_u0644_u0639_u0627_u0644_u0645_u064a_u0629 u0020 u0641_u062a_u062d_u062a u0020 u0641_u0631_u0648_u0639_u0647_u0627 u0020 u0641_u064a u0020 u0647_u0630_u0647 u0020 u0627_u0644_u0645_u062f_u064a_u0646_u0629 u0020 u0648_u0630_u0644_u0643_u0020", 
        "u0628_u0633_u0628_u0628 u0020 u0648_u062c_u0648_u062f u0020 u0627_u0644_u062e_u062f_u0645_u0627_u062a u0020 u0627_u0644_u062a_u0642_u0646_u064a_u0629 u0020 u0627_u0644_u0639_u0627_u0644_u064a_u0629 u0020 u0627_u0644_u062c_u0648_u062f_u0629_u002e_u000d", 
        "u0648_u062a_u0642_u0639 u0020 u0633_u0627_u064a_u0628_u0631_u062c_u0627_u064a_u0627 u0020 u0642_u0631_u064a_u0628_u0629 u0020 u0645_u0646 u0020 u0645_u062f_u064a_u0646_u0629 u0020 u0628_u0648_u062a_u0631_u0627_u062c_u0627_u064a_u0627_u002c u0020 u0648_u0633_u0627_u064a_u0628_u0631_u062c_u0627_u064a_u0627 u0020 u062a_u0642_u062f_u0645 u0020 u0627_u0644_u062e_u062f_u0645_u0627_u062a_u0020", 
        "u0627_u0644_u062a_u064a u0020 u0647_u064a u0020 u0635_u062f_u064a_u0642_u0629 u0020 u0644_u0644_u0628_u064a_u0626_u0629 u0020 u0648_u0628_u0646_u064a_u0629 u0020 u0627_u0644_u062a_u062d_u062a_u064a_u0629 u0020 u0645_u062f_u0646_u064a_u0629 u0020 u0645_u062a_u0637_u0648_u0631_u0629 u0020 u0644_u0644_u0625_u0633_u062a_u0641_u0627_u062f_u0629 u0020 u0641_u064a u0020 u0645_u062c_u0627_u0644 u0020 u0020", 
        "u0627_u0644_u062a_u062c_u0627_u0631_u0629 u0020 u0648_u0627_u0644_u062a_u0639_u0644_u064a_u0645 u0020 u0648_u0627_u0644_u0633_u0643_u0646_u0649 u0020 u0648_u0627_u0644_u062a_u0631_u0641_u064a_u0647_u002e u0020 u000d"
    ]
}