{
    "bounding_box": [
        [
            57, 
            63, 
            591, 
            38
        ], 
        [
            84, 
            105, 
            565, 
            39
        ], 
        [
            39, 
            145, 
            610, 
            42
        ], 
        [
            445, 
            195, 
            204, 
            35
        ], 
        [
            670, 
            517, 
            6, 
            1
        ]
    ], 
    "image_height": 540, 
    "image_width": 720, 
    "transcription": [
        "u0623_u0635_u0628_u062d u0020 u0627_u0644_u0627_u0646_u0633_u0627_u0646_u064f u0020 u0645_u062f_u0639_u0648_u0651_u064b_u0627 u0020 u0627_u0644_u0649 u0020 u0627_u0644_u0628_u0642_u0627_u0621_u060c u0020 u0628_u062d_u064a_u062b u0020 u0639_u0646_u062f_u0645_u0627 u0020 u064a_u0635_u0641_u0020", 
        "u0644_u0646_u0627 u0020 u0633_u0641_u0631 u0020 u0627_u0644_u062a_u0651_u0643_u0648_u064a_u0646 u0020 u0643_u064a_u0641 u0020 u0623_u0646 u0020 u0627_u0644_u0644_u0647 u0020 u062e_u0644_u0642 u0020 u0627_u0644_u0645_u0631_u0623_u0629 u0020 u0639_u0648_u0646_u064b_u0627 u0020 u0644_u0622_u062f_u0645_u0020", 
        "u0028_u062a_u0643 u0020 u0032_u003a u0020 u0031_u0038_u0029_u060c u0020 u0641_u0633_u0645_u0651_u0649 u0020 u0627_u0644_u0627_u0646_u0633_u0627_u0646_u064f u0020 u0627_u0645_u0631_u0623_u062a_u0647 u0020 u062d_u0648_u0651_u0627_u0621 u0020 u0644_u0623_u0651_u0646_u0647_u0627 u0020 u0623_u0645_u0651 u0020 u0643_u0644_u0651_u0020", 
        "u062d_u064a_u0651 u0020 u0028_u062a_u0643 u0020 u0033_u003a u0020 u0032_u0030_u0029_u002e", 
        "u0033"
    ]
}