{
    "bounding_box": [
        [
            321, 
            46, 
            335, 
            29
        ], 
        [
            398, 
            113, 
            258, 
            30
        ], 
        [
            144, 
            181, 
            511, 
            24
        ], 
        [
            508, 
            212, 
            147, 
            20
        ], 
        [
            195, 
            266, 
            425, 
            22
        ], 
        [
            117, 
            295, 
            503, 
            25
        ], 
        [
            546, 
            328, 
            74, 
            19
        ], 
        [
            140, 
            353, 
            480, 
            25
        ], 
        [
            466, 
            383, 
            154, 
            20
        ]
    ], 
    "image_height": 540, 
    "image_width": 720, 
    "transcription": [
        "u0631_u0627_u0628_u0639_u0627 u0020 u0646_u0638_u0631_u064a_u0629 u0020 u0627_u0644_u062a_u0639_u0644_u0645 u0020 u0627_u0644_u0634_u0631_u0637_u064a u0020 u0627_u0644_u0648 u0020 u0633_u064a_u0644_u064a_u000d", 
        "u062e_u0627_u0645_u0633_u0627 u0020 u0646_u0638_u0631_u064a_u0629 u0020 u0648_u0636_u0639 u0020 u0627_u0644_u0623_u0647_u062f_u0627_u0641_u000d", 
        "u0623_u062f_u0648_u064a_u0646 u0020 u0644_u0648_u0643 u0020 u0623_u0646 u0020 u0627_u0644_u0623_u0647_u062f_u0627_u0641 u0020 u0634_u064a_u0621 u0020 u0623_u0633_u0627_u0633_u064a u0020 u0644_u062a_u062d_u062f_u064a_u062f u0020 u0645_u0633_u0627_u0631_u0627_u062a u0020 u0627_u0644_u0633_u0644_u0648_u0643 u0020 u0648_u062a_u0643_u0648_u0646_u0020", 
        "u062f_u0627_u0641_u0639_u0627 u0020 u0644_u0644_u0641_u0631_u062f u0020 u0644_u062a_u062d_u0642_u064a_u0642_u0647_u0627_u000d", 
        "u0623_u0646 u0020 u0648_u062c_u0648_u062f u0020 u0623_u0647_u062f_u0627_u0641 u0020 u0647_u0648 u0020 u0623_u0645_u0631 u0020 u0645_u0647_u0645 u0020 u0644_u0623_u0646_u0647_u0627 u0020 u062a_u0645_u062b_u0644 u0020 u0637_u0645_u0648_u062d_u0627_u062a u0020 u0627_u0644_u0623_u062f_u0627_u0621_u000d", 
        "u0623_u0646 u0020 u0627_u0644_u0623_u0647_u062f_u0627_u0641 u0020 u0648_u0627_u0644_u0637_u0645_u0648_u062d_u0627_u062a u0020 u0647_u064a u0020 u0645_u062d_u0635_u0644_u0629 u0020 u0644_u0642_u064a_u0645 u0020 u0648_u0645_u0639_u062a_u0642_u062f_u0627_u062a u0020 u0627_u0644_u0641_u0631_u062f u0020 u0648_u0631_u063a_u0628_u0627_u062a_u0647_u0020", 
        "u0648_u0639_u0648_u0627_u0637_u0641_u0647_u000d", 
        "u062a_u0632_u064a_u062f u0020 u0627_u0644_u062f_u0627_u0641_u0639_u064a_u0629 u0020 u0625_u0630_u0627 u0020 u0645_u0627 u0020 u0643_u0627_u0646_u062a u0020 u0627_u0644_u0623_u0647_u062f_u0627_u0641 u0020 u0645_u062d_u062f_u062f_u0629 u0020 u2013 u0020 u0645_u0642_u0628_u0648_u0644_u0629 u0020 u2013 u0020 u0630_u0627_u062a u0020 u0646_u0641_u0639 u0020 u2013_u0020", 
        "u0635_u0639_u0628_u0629 u0020 u2013 u0020 u0642_u0627_u0628_u0644_u0629 u0020 u0644_u0644_u0642_u064a_u0627_u0633"
    ]
}