{
    "bounding_box": [
        [
            25, 
            114, 
            670, 
            31
        ], 
        [
            61, 
            148, 
            634, 
            31
        ], 
        [
            41, 
            181, 
            655, 
            32
        ], 
        [
            412, 
            214, 
            283, 
            29
        ], 
        [
            29, 
            250, 
            666, 
            30
        ], 
        [
            55, 
            281, 
            640, 
            32
        ], 
        [
            33, 
            316, 
            662, 
            31
        ], 
        [
            64, 
            353, 
            632, 
            28
        ], 
        [
            40, 
            383, 
            655, 
            31
        ], 
        [
            232, 
            420, 
            464, 
            28
        ]
    ], 
    "image_height": 540, 
    "image_width": 720, 
    "transcription": [
        "u0623_u064a_u0629 u0020 u0634_u0641_u0627_u0639_u0629 u0020 u0623_u0639_u0638_u0645_u060c u0020 u0648_u0623_u064a_u0629 u0020 u0627_u0633_u062a_u062c_u0627_u0628_u0629 u0020 u0623_u0633_u0631_u0639 u0020 u0645_u0646 u0020 u0647_u0630_u0647_u060c u0020 u0625_u0646 u0020 u0643_u0627_u0646_u062a u0020 u0627_u0644_u0633_u064a_u062f_u0629 u0020 u0627_u0644_u0639_u0630_u0631_u0627_u0621 u0020 u0642_u062f_u0020", 
        "u062a_u0648_u0633_u0644_u062a u0020 u0645_u0646 u0020 u0623_u062c_u0644 u0020 u0623_u0635_u062d_u0627_u0628 u0020 u0627_u0644_u062d_u0641_u0644 u0020 u0641_u064a u0020 u0623_u0645_u0648_u0631_u0647_u0645 u0020 u0627_u0644_u0645_u0627_u062f_u064a_u0629 u0020 u0648_u0627_u0633_u062a_u062c_u0627_u0628 u0020 u0644_u0647_u0627 u0020 u0627_u0644_u0631_u0628_u060c_u0020", 
        "u0623_u0644_u064a_u0633 u0020 u0628_u0627_u0644_u0623_u0648_u0644_u0649 u0020 u0623_u0646 u0020 u0646_u0637_u0644_u0628 u0020 u0634_u0641_u0627_u0639_u062a_u0647_u0627 u0020 u0645_u0646 u0020 u0623_u062c_u0644_u0646_u0627 u0020 u0644_u0643_u064a u0020 u062a_u0637_u0644_u0628 u0020 u0645_u0646 u0020 u0627_u0628_u0646_u0647_u0627 u0020 u0627_u0644_u062d_u0628_u064a_u0628 u0020 u0645_u0646_u0020", 
        "u0623_u062c_u0644 u0020 u062d_u064a_u0627_u062a_u0646_u0627 u0020 u0627_u0644_u0631_u0648_u062d_u064a_u0629 u0020 u0648_u0627_u0644_u062c_u0633_u062f_u064a_u0629_u002e_u00a0_u000b", 
        "u0648_u0643_u0645_u0627 u0020 u0633_u0628_u0642 u0020 u0644_u0627 u0020 u0646_u0633_u062a_u0637_u064a_u0639 u0020 u0623_u0646 u0020 u0646_u0646_u0643_u0631 u0020 u0634_u0641_u0627_u0639_u0629 u0020 u0627_u0644_u0639_u0630_u0631_u0627_u0621 u0020 u0645_u0646 u0020 u0623_u062c_u0644_u0646_u0627 u0020 u0628_u062f_u0639_u0648_u0649 u0020 u0625_u0646_u0647_u0627 u0020 u0627_u0646_u062a_u0642_u0644_u062a_u0020", 
        "u0627_u0644_u0622_u0646 u0020 u0641_u0645_u0627_u0632_u0627_u0644_u062a u0020 u0627_u0644_u0639_u0630_u0631_u0627_u0621 u0020 u0639_u0636_u0648 u0020 u0641_u064a u0020 u0627_u0644_u0643_u0646_u064a_u0633_u0629 u0020 u0648_u062c_u0633_u062f u0020 u0627_u0644_u0645_u0633_u064a_u062d u0020 u062a_u0634_u0641_u0639 u0020 u0641_u064a u0020 u0623_u0628_u0646_u0627_u0626_u0647_u0627_u0020", 
        "u0627_u0644_u0645_u062d_u062a_u0627_u062c_u064a_u0646 u0020 u0625_u0644_u0649 u0020 u0635_u0644_u0648_u0627_u062a_u0647_u0627 u0020 u0648_u0637_u0644_u0628_u0627_u062a_u0647_u0627 u0020 u0648_u062a_u0648_u0633_u0644_u0627_u062a_u0647_u0627 u0020 u0645_u0646 u0020 u0623_u062c_u0644_u0647_u0645 u0020 u0623_u0645_u0627_u0645 u0020 u0639_u0631_u0634 u0020 u0627_u0644_u0646_u0639_u0645_u0629_u002e_u0020", 
        "u0648_u0644_u0639_u0644 u0020 u0648_u062c_u0648_u062f_u0647_u0627 u0020 u0627_u0644_u062f_u0627_u0626_u0645 u0020 u0645_u0639_u0646_u0627 u0020 u0645_u0646 u0020 u062e_u0644_u0627_u0644 u0020 u0638_u0647_u0648_u0631_u0627_u062a_u0647_u0627 u0020 u0627_u0644_u0645_u062a_u0643_u0631_u0631_u0629 u0020 u0641_u064a u0020 u0643_u0644 u0020 u0645_u0643_u0627_u0646 u0020 u0641_u064a_u0020", 
        "u0627_u0644_u0639_u0627_u0644_u0645 u0020 u002d u0020 u0648_u0627_u0644_u062a_u064a u0020 u0644_u0627 u0020 u064a_u0633_u062a_u0637_u064a_u0639 u0020 u0623_u062d_u062f u0020 u0625_u0646_u0643_u0627_u0631_u0647_u0627 u0020 u0628_u0639_u062f u0020 u0623_u0646 u0020 u0631_u0623_u064a_u0646_u0627_u0647_u0627 u0020 u0628_u0639_u064a_u0648_u0646_u0646_u0627 u0020 u002d u0020 u0648_u0627_u0644_u0645_u0639_u062c_u0632_u0627_u062a_u0020", 
        "u0627_u0644_u0643_u062b_u064a_u0631_u0629 u0020 u0627_u0644_u062a_u064a u0020 u062a_u0642_u0648_u0645 u0020 u0628_u0647_u0627 u0020 u0647_u0648 u0020 u062e_u064a_u0631 u0020 u062f_u0644_u064a_u0644 u0020 u0639_u0644_u0649 u0020 u0627_u0647_u062a_u0645_u0627_u0645_u0647_u0627 u0020 u0628_u0646_u0627"
    ]
}