{
    "bounding_box": [
        [
            279, 
            507, 
            151, 
            15
        ], 
        [
            329, 
            209, 
            57, 
            21
        ], 
        [
            247, 
            246, 
            223, 
            24
        ], 
        [
            67, 
            284, 
            589, 
            25
        ], 
        [
            337, 
            317, 
            42, 
            23
        ], 
        [
            70, 
            356, 
            574, 
            24
        ]
    ], 
    "image_height": 540, 
    "image_width": 720, 
    "transcription": [
        "u062f_u002e u0020 u062a_u063a_u0631_u064a_u062f u0020 u0639_u0628_u062f u0020 u0627_u0644_u0641_u062a_u0627_u062d u0020 u0627_u0644_u0631_u062d_u064a_u0644_u064a", 
        "u062a_u062c_u0633_u064a_u062f_u000d", 
        "u0068_u0074_u0074_u0070_u003a_u002f_u002f_u0062_u0079_u0061_u006e_u0069_u002e_u0069_u006e_u0066_u006f_u002f_u000d", 
        "u0068_u0074_u0074_u0070_u003a_u002f_u002f_u0077_u0077_u0077_u002e_u0074_u0068_u0061_u0071_u0061_u0066_u006e_u0061_u0066_u0073_u0061_u006b_u002e_u0063_u006f_u006d_u002f_u0063_u0061_u0074_u0065_u0067_u006f_u0072_u0079_u002f_u0069_u006e_u0066_u006f_u0067_u0072_u0061_u0070", 
        "u0068_u0069_u0063_u000d", 
        "u0068_u0074_u0074_u0070_u003a_u002f_u002f_u0077_u0077_u0077_u002e_u0064_u0061_u0069_u006c_u0079_u006d_u0065_u0064_u0069_u0063_u0061_u006c_u0069_u006e_u0066_u006f_u002e_u0063_u006f_u006d_u002f_u0069_u006e_u0066_u006f_u0067_u0072_u0061_u0070_u0068_u0069_u0063_u0073_u0020"
    ]
}