{
    "bounding_box": [
        [
            67, 
            133, 
            544, 
            55
        ], 
        [
            275, 
            205, 
            115, 
            42
        ], 
        [
            158, 
            336, 
            325, 
            27
        ], 
        [
            249, 
            376, 
            144, 
            27
        ], 
        [
            259, 
            416, 
            131, 
            23
        ]
    ], 
    "image_height": 540, 
    "image_width": 720, 
    "transcription": [
        "u0048_u0069_u0073_u0074_u006f_u0072_u0079 u0020 u0026 u0020 u0041_u0070_u0070_u006c_u0069_u0063_u0061_u0074_u0069_u006f_u006e_u0020", 
        "u006f_u0066 u0020 u0041_u0049", 
        "u0020_u062a_u0627_u0631_u064a_u062e u0020 u0648_u062a_u0637_u0628_u064a_u0642_u0627_u062a u0020 u0627_u0644_u0630_u0643_u0627_u0621 u0020 u0627_u0644_u0627_u0635_u0637_u0646_u0627_u0639_u064a_u000d", 
        "u0630_u0643_u0627_u0621 u0020 u0627_u0635_u0637_u0646_u0627_u0639_u064a_u000d", 
        "u062c_u0627_u0645_u0639_u0647 u0020 u0627_u0644_u0645_u062c_u0645_u0639_u0647"
    ]
}