{
    "bounding_box": [
        [
            380, 
            62, 
            296, 
            30
        ], 
        [
            34, 
            105, 
            601, 
            31
        ], 
        [
            34, 
            139, 
            601, 
            28
        ], 
        [
            34, 
            175, 
            601, 
            28
        ], 
        [
            226, 
            210, 
            410, 
            29
        ], 
        [
            48, 
            292, 
            628, 
            30
        ], 
        [
            34, 
            377, 
            642, 
            30
        ], 
        [
            34, 
            410, 
            615, 
            30
        ], 
        [
            584, 
            453, 
            65, 
            19
        ], 
        [
            43, 
            511, 
            6, 
            1
        ]
    ], 
    "image_height": 540, 
    "image_width": 720, 
    "transcription": [
        "u0645_u062d_u062f_u0648_u062f_u06cc_u062a_u0632_u0647_u0627_u06cc u0020 u0641_u0646 u0020 u0633_u062e_u0646_u0631_u0627_u0646_u06cc_u003a_u000d", 
        "u0622_u0645_u0648_u0632_u0634 u0020 u062f_u0647_u0646_u062f_u0647 u0020 u062f_u0631_u0627_u06cc_u0646 u0020 u0641_u0646 u0020 u0645_u062a_u06a9_u0644_u0645 u0020 u0648_u062d_u062f_u0647 u0020 u0628_u0648_u062f_u0647 u0020 u0648 u0020 u0645_u062e_u0627_u0637_u0628_u060c_u0020", 
        "u063a_u06cc_u0631_u0641_u0639_u0627_u0644 u0020 u0648 u0020 u0641_u0642_u0637 u0020 u0634_u0646_u0648_u0646_u062f_u0647 u0020 u0627_u0633_u062a_u002e u0020 u0627_u0644_u0628_u062a_u0647 u0020 u0645_u06cc_u062a_u0648_u0627_u0646 u0020 u0628_u0627 u0020 u0627_u0633_u062a_u0641_u0627_u062f_u0647 u0020 u0627_u0632_u0020", 
        "u0641_u0646_u0648_u0646_u06cc u0020 u0645_u0627_u0646_u0646_u062f u0020 u0645_u0634_u0627_u0631_u06a9_u062a u0020 u062f_u0627_u062f_u0646 u0020 u0641_u0639_u0627_u0644 u0020 u0645_u062e_u0627_u0637_u0628 u0020 u0628_u0647 u0020 u0635_u0648_u0631_u062a_u0020", 
        "u067e_u0631_u0633_u0634 u0020 u0648 u0020 u067e_u0627_u0633_u062e u0020 u0627_u0632 u0020 u0627_u06cc_u0646 u0020 u0645_u062d_u062f_u0648_u062f_u06cc_u062a u0020 u06a9_u0627_u0633_u062a_u002e_u000d", 
        "u0032_u002e u0020 u0627_u06cc_u0646 u0020 u0631_u0648_u0634 u0020 u0628_u0631_u0627_u06cc u0020 u0622_u0645_u0648_u0632_u0634 u0020 u0645_u0647_u0627_u0631_u062a u0020 u0647_u0627_u06cc u0020 u0639_u0645_u0644_u06cc u0020 u0645_u0646_u0627_u0633_u0628 u0020 u0646_u06cc_u0633_u062a_u002e_u000d", 
        "u0033_u002e u0020 u062f_u0631 u0020 u0633_u062e_u0646_u0631_u0627_u0646_u06cc_u060c u0020 u0622_u0645_u0648_u0632_u0634 u0020 u062f_u0647_u0646_u062f_u0647 u0020 u0627_u062e_u062a_u0644_u0627_u0641 u0020 u0641_u0631_u062f_u06cc u0020 u0645_u062e_u0627_u0637_u0628_u06cc_u0646 u0020 u0631_u0627 u0020 u062f_u0631_u0020", 
        "u0646_u0638_u0631 u0020 u0646_u06af_u0631_u0641_u062a_u0647 u0020 u0645_u0637_u0644_u0628 u0020 u0631_u0627 u0020 u0628_u0631_u0627_u06cc u0020 u0647_u0645_u0647 u0020 u0628_u0647 u0020 u0635_u0648_u0631_u062a u0020 u06cc_u06a9_u0633_u0627_u0646 u0020 u0622_u0645_u0648_u0632_u0634_u0020", 
        "u0645_u06cc_u062f_u0647_u062f_u002e", 
        "u0037"
    ]
}