{
    "bounding_box": [
        [
            181, 
            159, 
            259, 
            26
        ], 
        [
            234, 
            197, 
            160, 
            25
        ], 
        [
            163, 
            232, 
            302, 
            23
        ], 
        [
            220, 
            268, 
            195, 
            23
        ], 
        [
            156, 
            48, 
            408, 
            38
        ]
    ], 
    "image_height": 540, 
    "image_width": 720, 
    "transcription": [
        "u0627_u0644_u062a_u064a u0020 u0642_u0627_u0645 u0020 u0628_u0627_u0639_u062f_u0627_u062f_u0647_u0627 u0020 u0645_u062f_u0631_u0633 u0020 u0645_u0627_u062f_u0629 u0020 u000d", 
        "u0627_u0644_u062a_u0631_u0628_u064a_u0629 u0020 u0627_u0644_u0643_u0634_u0641_u064a_u0629 u0020 u0641_u064a_u000d", 
        "u0643_u0644_u064a_u0629 u0020 u0627_u0644_u062a_u0631_u0628_u064a_u0629 u0020 u0627_u0644_u0631_u064a_u0627_u0636_u064a_u0629 u0020 u002f_u062c_u0627_u0645_u0639_u0629 u0020 u0628_u063a_u062f_u0627_u062f_u000d", 
        "u0639_u0628_u062f_u0627_u0644_u0646_u0627_u0635_u0631 u0020 u0645_u0631_u0632_u0629 u0020 u062d_u0645_u0632_u0629", 
        "u0645_u062d_u0627_u0636_u0631_u0627_u062a u0020 u0645_u0627_u062f_u0629 u0020 u0627_u0644_u062a_u0631_u0628_u064a_u0629 u0020 u0627_u0644_u0643_u0634_u0641_u064a_u0629"
    ]
}