{
    "bounding_box": [
        [
            416, 
            90, 
            288, 
            42
        ], 
        [
            15, 
            168, 
            689, 
            39
        ], 
        [
            568, 
            226, 
            109, 
            30
        ], 
        [
            475, 
            292, 
            229, 
            31
        ], 
        [
            203, 
            353, 
            500, 
            35
        ], 
        [
            325, 
            422, 
            379, 
            35
        ], 
        [
            127, 
            488, 
            577, 
            34
        ], 
        [
            270, 
            41, 
            191, 
            35
        ]
    ], 
    "image_height": 540, 
    "image_width": 720, 
    "transcription": [
        "u0031_u002d u0020 u0648_u062c_u0648_u062f u0020 u0642_u0636_u064a_u0629 u0020 u0623_u0648 u0020 u0645_u0633_u0623_u0644_u0629 u0020 u003a_u000d", 
        "u0627_u0644_u0642_u0636_u064a_u0629 u0020 u0647_u064a u0020 u0623_u064a u0020 u0645_u0648_u0636_u0648_u0639 u0020 u064a_u0643_u0648_u0646 u0020 u0645_u0648_u0636_u0639 u0020 u0625_u0647_u062a_u0645_u0627_u0645 u0020 u0639_u0627_u0645 u0020 u0645_u0646 u0020 u0627_u0644_u0645_u062c_u062a_u0645_u0639 u0020 u0623_u0648_u0020", 
        "u0627_u0644_u062c_u0645_u0627_u0639_u0629 u0020 u002e_u000d", 
        "u0032_u002d u0020 u0637_u0628_u064a_u0639_u0629 u0020 u0627_u0644_u062c_u0645_u0647_u0648_u0631 u0020 u003a u0020 u000d", 
        "u0648_u0647_u0648 u0020 u062c_u0645_u0627_u0639_u0629 u0020 u0645_u0639_u064a_u0646_u0629 u0020 u0645_u0646 u0020 u0627_u0644_u0623_u0641_u0631_u0627_u062f u0020 u0645_u0647_u062a_u0645_u0629 u0020 u0628_u0642_u0636_u064a_u0629 u0020 u0645_u0627 u0020 u002e_u000d", 
        "u0033_u002d u0020 u0645_u0631_u0643_u0628 u0020 u0627_u0644_u0623_u0641_u0636_u0644_u064a_u0627_u062a u0020 u0644_u062f_u0649 u0020 u0627_u0644_u062c_u0645_u0647_u0648_u0631 u0020 u003a_u000d", 
        "u0648_u0647_u0648 u0020 u064a_u0634_u064a_u0631 u0020 u0625_u0644_u0649 u0020 u0643_u0644_u064a_u0629 u0020 u0028 u0020 u0645_u062c_u0645_u0648_u0639_u0629 u0020 u0029 u0020 u0623_u0631_u0627_u0621 u0020 u0623_u0639_u0636_u0627_u0621 u0020 u0627_u0644_u062c_u0645_u0647_u0648_u0631_u002e_u000d", 
        "u0639_u0646_u0627_u0635_u0631 u0020 u0627_u0644_u0631_u0623_u064a u0020 u0627_u0644_u0639_u0627_u0645"
    ]
}