{
    "bounding_box": [
        [
            591, 
            87, 
            264, 
            32
        ], 
        [
            96, 
            157, 
            740, 
            26
        ], 
        [
            96, 
            201, 
            740, 
            26
        ], 
        [
            793, 
            249, 
            43, 
            22
        ], 
        [
            96, 
            308, 
            723, 
            24
        ], 
        [
            96, 
            350, 
            723, 
            24
        ], 
        [
            215, 
            393, 
            605, 
            24
        ]
    ], 
    "image_height": 540, 
    "image_width": 959, 
    "transcription": [
        "u0639_u0627_u0634_u0631_u0627_u064b_u003a u0020 u0645_u0628_u062f_u0623 u0020 u0627_u0644_u062a_u0631_u0628_u064a_u0629 u0020 u0644_u0644_u062d_u064a_u0627_u0629_u003a", 
        "u0623_u064a u0020 u0625_u0639_u062f_u0627_u062f u0020 u0627_u0644_u0641_u0631_u062f u0020 u0644_u0644_u0639_u064a_u0634 u0020 u0641_u064a u0020 u0647_u0630_u0647 u0020 u0627_u0644_u062d_u064a_u0627_u0629 u0020 u0627_u0644_u062f_u0646_u064a_u0627 u0020 u0628_u0645_u0627 u0020 u064a_u062d_u0642_u0642 u0020 u0627_u0644_u063a_u0627_u064a_u0629 u0020 u0645_u0646 u0020 u062e_u0644_u0642_u0647_u002e u0020 u0648_u0627_u0644_u0642_u0631_u0622_u0646 u0020 u0627_u0644_u0643_u0631_u064a_u0645 u0020 u064a_u0635_u0641 u0020 u0627_u0644_u062d_u064a_u0627_u0629_u0020", 
        "u0627_u0644_u062f_u0646_u064a_u0627 u0020 u0628_u0627_u0644_u0639_u062f_u064a_u062f u0020 u0645_u0646 u0020 u0627_u0644_u0635_u0641_u0627_u062a u0020 u0627_u0644_u062a_u064a u0020 u062a_u0628_u064a_u0646 u0020 u0642_u062f_u0631_u0647_u0627 u0020 u0648_u0623_u0647_u0645_u064a_u062a_u0647_u0627 u0020 u0648_u0627_u0644_u0639_u0645_u0644 u0020 u0627_u0644_u0645_u0637_u0644_u0648_u0628 u0020 u0645_u0646 u0020 u0627_u0644_u0625_u0646_u0633_u0627_u0646 u0020 u062e_u0644_u0627_u0644 u0020 u0641_u062a_u0631_u0629 u0020 u062d_u064a_u0627_u062a_u0647_u002e_u0020", 
        "u0641_u0647_u064a_u003a_u000d", 
        "u0645_u062a_u0627_u0639 u0020 u0645_u0624_u0642_u062a u0020 u0648_u0645_u0643_u0627_u0646 u0020 u0639_u0628_u0648_u0631_u060c u0020 u0648_u0648_u0633_u064a_u0644_u0629 u0020 u0625_u0644_u0649 u0020 u0627_u0644_u0622_u062e_u0631_u0629_u060c u0020 u0648_u0628_u0627_u0644_u062a_u0627_u0644_u064a u0020 u0644_u0627 u0020 u064a_u062c_u0648_u0632 u0020 u0627_u062a_u062e_u0627_u0630_u0647_u0627 u0020 u063a_u0627_u064a_u0629 u0020 u0641_u064a u0020 u062d_u062f u0020 u0630_u0627_u062a_u0647_u0627_u002e u0020 u0642_u0627_u0644_u0020", 
        "u062a_u0639_u0627_u0644_u0649_u003a u0020 u007b_u064a_u0627 u0020 u0623_u064a_u0647_u0627 u0020 u0627_u0644_u0630_u064a_u0646 u0020 u0622_u0645_u0646_u0648_u0627 u0020 u0645_u0627 u0020 u0644_u0643_u0645 u0020 u0625_u0630_u0627 u0020 u0642_u064a_u0644 u0020 u0644_u0643_u0645 u0020 u0627_u0646_u0641_u0631_u0648_u0627 u0020 u0641_u064a u0020 u0633_u0628_u064a_u0644 u0020 u0627_u0644_u0644_u0647 u0020 u0627_u062b_u0627_u0642_u0644_u062a_u0645 u0020 u0625_u0644_u0649 u0020 u0627_u0644_u0623_u0631_u0636 u0020 u0623_u0631_u0636_u064a_u062a_u0645_u0020", 
        "u0628_u0627_u0644_u062d_u064a_u0627_u0629 u0020 u0627_u0644_u062f_u0646_u064a_u0627 u0020 u0645_u0646 u0020 u0627_u0644_u0622_u062e_u0631_u0629 u0020 u0641_u0645_u0627 u0020 u0645_u062a_u0627_u0639 u0020 u0627_u0644_u062d_u064a_u0627_u0629 u0020 u0627_u0644_u062f_u0646_u064a_u0627 u0020 u0641_u064a u0020 u0627_u0644_u0622_u062e_u0631_u0629 u0020 u0625_u0644_u0627 u0020 u0642_u0644_u064a_u0644_u007d u0020 u0028_u0633_u0648_u0631_u0629 u0020 u0627_u0644_u062a_u0648_u0628_u0629 u0020 u0033_u0038_u0029"
    ]
}