{
    "bounding_box": [
        [
            85, 
            64, 
            548, 
            42
        ], 
        [
            424, 
            121, 
            216, 
            19
        ], 
        [
            487, 
            147, 
            148, 
            22
        ], 
        [
            37, 
            178, 
            603, 
            22
        ], 
        [
            312, 
            202, 
            364, 
            22
        ], 
        [
            37, 
            227, 
            603, 
            25
        ], 
        [
            327, 
            253, 
            349, 
            22
        ], 
        [
            37, 
            280, 
            603, 
            24
        ], 
        [
            37, 
            305, 
            639, 
            22
        ], 
        [
            37, 
            328, 
            639, 
            22
        ], 
        [
            632, 
            351, 
            44, 
            18
        ], 
        [
            37, 
            377, 
            603, 
            24
        ], 
        [
            590, 
            403, 
            85, 
            20
        ], 
        [
            347, 
            428, 
            288, 
            22
        ], 
        [
            37, 
            457, 
            603, 
            25
        ], 
        [
            318, 
            485, 
            358, 
            21
        ]
    ], 
    "image_height": 540, 
    "image_width": 720, 
    "transcription": [
        "u0623_u0633_u0628_u0627_u0628 u0020 u0627_u0644_u0627_u0643_u062a_u0626_u0627_u0628 u0020 u0648_u0627_u0644_u0627_u0636_u0637_u0631_u0627_u0628_u0627_u062a u0020 u0627_u0644_u0645_u0632_u0627_u062c_u064a_u0629", 
        "u0623_u0648_u0644_u0627 u0020 u003a u0020 u0627_u0644_u0639_u0648_u0627_u0645_u0644 u0020 u0627_u0644_u0628_u064a_u0648_u0644_u0648_u062c_u064a_u0629 u0020 u003a u0020 u000d", 
        "u0627_u0644_u0639_u0648_u0627_u0645_u0644 u0020 u0627_u0644_u0648_u0631_u0627_u062b_u064a_u0629 u0020 u003a u0020 u000d", 
        "u062a_u0648_u062c_u062f u0020 u0625_u0634_u0627_u0631_u0627_u062a u0020 u0625_u0644_u064a u0020 u0627_u0644_u0639_u0648_u0627_u0645_u0644 u0020 u0627_u0644_u0648_u0631_u0627_u062b_u064a_u0629 u0020 u0644_u0644_u0627_u0643_u062a_u0626_u0627_u0628 u0020 u0645_u0646_u0630 u0020 u0627_u0644_u0642_u0631_u0646 u0020 u0627_u0644_u0633_u0627_u0628_u0639 u0020 u0639_u0634_u0631 u0020 u060c u0020 u0641_u0642_u062f u0020 u0623_u0643_u062f_u0020", 
        "u062f_u0648_u0631 u0020 u0627_u0644_u0639_u0648_u0627_u0645_u0644 u0020 u0627_u0644_u0648_u0631_u0627_u062b_u064a_u0629 u0020 u0641_u064a u0020 u0627_u0644_u0627_u062e_u062a_u0644_u0627_u0644_u0627_u062a u0020 u0627_u0644_u0645_u0632_u0627_u062c_u064a_u0629 u0020 u002e u0020 u000d", 
        "u0625_u0646 u0020 u0627_u0644_u062f_u0631_u0627_u0633_u0627_u062a u0020 u0627_u0644_u0623_u0633_u0631_u064a_u0629 u0020 u062a_u0631_u064a u0020 u0623_u0646 u0020 u0627_u0644_u0627_u0643_u062a_u0626_u0627_u0628 u0020 u0623_u062d_u0627_u062f_u064a u0020 u0627_u0644_u0642_u0637_u0628 u0020 u0639_u0627_u062f_u0629 u0020 u0645_u0627 u0020 u064a_u0646_u062a_u0634_u0631 u0020 u062f_u0627_u062e_u0644 u0020 u0623_u0633_u0631_u0629_u0020", 
        "u0627_u0644_u062d_u0627_u0644_u0629 u0020 u0648_u0647_u0648 u0020 u0645_u0627 u0020 u064a_u0639_u0631_u0641 u0020 u0628_u0627_u0644_u0628_u062b u0020 u0627_u0644_u0623_u0633_u0631_u064a u0020 u0644_u0644_u0645_u0631_u0636 u0020 u002e u0020 u000d", 
        "u062f_u0631_u0627_u0633_u0627_u062a u0020 u0627_u0644_u062a_u0648_u0627_u0626_u0645 u0020 u003a u0020 u0645_u0646 u0020 u0628_u064a_u0646 u0020 u0627_u0644_u062a_u0648_u0627_u0626_u0645 u0020 u0627_u0644_u0645_u062a_u0645_u0627_u062b_u0644_u0629 u0020 u0625_u0630_u0627 u0020 u0634_u062e_u0635_u062a u0020 u062d_u0627_u0644_u0629 u0020 u0623_u062d_u062f_u0647_u0645_u0627 u0020 u0639_u0644_u064a u0020 u0623_u0646_u0647_u0020", 
        "u064a_u0639_u0627_u0646_u064a u0020 u0627_u0644_u0627_u0643_u062a_u0626_u0627_u0628 u0020 u0623_u0633_u0627_u0633_u064a_u0627 u0020 u060c u0020 u0641_u0625_u0646 u0020 u0627_u062d_u062a_u0645_u0627_u0644_u064a_u0629 u0020 u0625_u0635_u0627_u0628_u0629 u0020 u0627_u0644_u062a_u0648_u0623_u0645 u0020 u0627_u0644_u0622_u062e_u0631 u0020 u0628_u0646_u0641_u0633 u0020 u0627_u0644_u0645_u0631_u0636 u0020 u062a_u0635_u0644 u0020 u0625_u0644_u064a_u0020", 
        "u0034_u0030_u0025 u0020 u0623_u0645_u0627 u0020 u0641_u064a u0020 u062d_u0627_u0644_u0629 u0020 u0627_u0644_u062a_u0648_u0627_u0626_u0645 u0020 u0627_u0644_u0623_u062e_u0648_u064a_u0629 u0020 u0028 u0020 u063a_u064a_u0631 u0020 u0627_u0644_u0645_u062a_u0645_u0627_u062b_u0644_u0629 u0020 u0029 u0020 u0641_u0625_u0646 u0020 u0627_u0644_u0646_u0633_u0628_u0629 u0020 u062a_u0646_u062e_u0641_u0636 u0020 u0625_u0644_u064a u0020 u0031_u0030_u0025_u0020", 
        "u0641_u0642_u0637 u0020 u002e_u000d", 
        "u062f_u0631_u0627_u0633_u0627_u062a u0020 u0627_u0644_u062a_u0628_u0646_u064a u0020 u003a u0020 u0623_u0628_u0631_u0632_u062a u0020 u062f_u0631_u0627_u0633_u0627_u062a u0020 u0627_u0644_u062a_u0628_u0646_u064a u0020 u0628_u0634_u0643_u0644 u0020 u0648_u0627_u0636_u062d u0020 u062f_u0648_u0631 u0020 u0627_u0644_u0627_u0633_u062a_u0639_u062f_u0627_u062f u0020 u0644_u0648_u0631_u062b_u0629_u0020", 
        "u0627_u0644_u0627_u0643_u062a_u0626_u0627_u0628 u0020 u002e u0020 u000d", 
        "u0627_u0644_u0639_u0648_u0627_u0645_u0644 u0020 u0627_u0644_u0645_u0631_u062a_u0628_u0637_u0629 u0020 u0628_u0627_u0644_u0643_u064a_u0645_u064a_u0627_u0621 u0020 u0627_u0644_u0639_u0635_u0628_u064a_u0629 u0020 u003a_u000d", 
        "u0623_u0643_u062f u0020 u0643_u0627_u0631_u0628_u0644_u064a_u0646 u0020 u0623_u0646 u0020 u0627_u0644_u0627_u0643_u062a_u0626_u0627_u0628 u0020 u0645_u0631_u0636 u0020 u0639_u0636_u0648_u064a u0020 u0644_u0647 u0020 u0623_u0633_u0628_u0627_u0628_u0647 u0020 u0627_u0644_u062f_u0627_u062e_u0644_u064a_u0629 u0020 u060c u0020 u0648_u0628_u062d_u0644_u0648_u0644 u0020 u0627_u0644_u0633_u062a_u064a_u0646_u064a_u0627_u062a_u0020", 
        "u0645_u0646 u0020 u0646_u0641_u0633 u0020 u0627_u0644_u0642_u0631_u0646 u0020 u0628_u062f_u0623 u0020 u0627_u0633_u062a_u062e_u062f_u0627_u0645 u0020 u0645_u0636_u0627_u062f_u0627_u062a u0020 u0627_u0644_u0627_u0643_u062a_u0626_u0627_u0628 u0020 u002e u0020 u0020"
    ]
}