{
    "bounding_box": [
        [
            330, 
            20, 
            328, 
            28
        ], 
        [
            100, 
            64, 
            562, 
            28
        ], 
        [
            81, 
            96, 
            580, 
            25
        ], 
        [
            299, 
            123, 
            363, 
            23
        ], 
        [
            88, 
            157, 
            574, 
            24
        ], 
        [
            120, 
            188, 
            542, 
            25
        ], 
        [
            81, 
            216, 
            580, 
            26
        ], 
        [
            476, 
            243, 
            185, 
            23
        ]
    ], 
    "image_height": 540, 
    "image_width": 720, 
    "transcription": [
        "u0645_u0627 u0020 u0627_u0644_u0630_u064a u0020 u062a_u0642_u0648_u0645 u0020 u0628_u0647 u0020 u062a_u0637_u0628_u064a_u0642_u0627_u062a u0020 u0627_u0644_u0628_u0631_u0645_u062c_u064a_u0627_u062a_u061f", 
        "u0641_u064a u0020 u062d_u064a_u0646 u0020 u0623_u0646 u0020 u0648_u0638_u064a_u0641_u0629 u0020 u0646_u0638_u0627_u0645 u0020 u0627_u0644_u062a_u0634_u063a_u064a_u0644 u0020 u0647_u064a u0020 u0627_u0644_u0639_u0645_u0644 u0020 u0643_u0645_u062f_u064a_u0631 u0020 u0639_u0627_u0645 u0020 u0644_u0646_u0638_u0627_u0645 u0020 u062c_u0647_u0627_u0632_u0020", 
        "u0627_u0644_u0643_u0645_u0628_u064a_u0648_u062a_u0631_u060c u0020 u0641_u0625_u0646 u0020 u0648_u0638_u064a_u0641_u0629 u0020 u062a_u0637_u0628_u064a_u0642_u0627_u062a u0020 u0627_u0644_u0628_u0631_u0645_u062c_u064a_u0627_u062a u0020 u0647_u064a u0020 u0627_u0633_u062a_u062e_u062f_u0627_u0645 u0020 u0645_u0648_u0627_u0631_u062f u0020 u0627_u0644_u0646_u0638_u0627_u0645_u0020", 
        "u0644_u062a_u0646_u0641_u064a_u0630 u0020 u0645_u0647_u0627_u0645 u0020 u0627_u0643_u062b_u0631 u0020 u062a_u062d_u062f_u064a_u062f_u0627 u0020 u062e_u0627_u0635_u0629 u0020 u0628_u0627_u0644_u0645_u0633_u062a_u062e_u062f_u0645_u002e u0020 u000d", 
        "u064a_u0642_u0648_u0645 u0020 u0646_u0638_u0627_u0645 u0020 u0627_u0644_u062a_u0634_u063a_u064a_u0644 u0020 u0639_u0627_u062f_u0629 u0020 u0628_u0623_u062f_u0627_u0621 u0020 u0645_u062c_u0645_u0648_u0639_u0629 u0020 u0643_u0628_u064a_u0631_u0629 u0020 u0645_u0646 u0020 u0627_u0644_u0645_u0647_u0627_u0645 u0020 u062f_u0648_u0646 u0020 u0627_u0644_u062d_u0627_u062c_u0629_u0020", 
        "u0627_u0644_u0649 u0020 u062a_u0648_u062c_u064a_u0647_u0647 u0020 u0645_u0646 u0020 u0642_u0628_u0644 u0020 u0627_u0644_u0645_u0633_u062a_u062e_u062f_u0645_u002e u0020 u0645_u0646 u0020 u0646_u0627_u062d_u064a_u0629 u0020 u0627_u062e_u0631_u0649_u060c u0020 u062a_u062d_u062a_u0627_u062c u0020 u062a_u0637_u0628_u064a_u0642_u0627_u062a_u0020", 
        "u0627_u0644_u0628_u0631_u0645_u062c_u064a_u0627_u062a u0020 u063a_u0627_u0644_u0628_u0627 u0020 u0627_u0644_u0649 u0020 u062a_u0641_u0627_u0639_u0644 u0020 u0643_u0628_u064a_u0631 u0020 u0645_u0639 u0020 u0627_u0644_u0645_u0633_u062a_u062e_u062f_u0645 u0020 u0644_u0625_u0646_u062c_u0627_u0632 u0020 u0627_u0644_u0647_u062f_u0641 u0020 u0627_u0644_u0630_u064a u0020 u062a_u0645_u0020", 
        "u062a_u0635_u0645_u064a_u0645 u0020 u0627_u0644_u062a_u0637_u0628_u064a_u0642 u0020 u0644_u0623_u062c_u0644_u0647_u002e"
    ]
}