{
    "bounding_box": [
        [
            485, 
            71, 
            190, 
            37
        ], 
        [
            35, 
            151, 
            612, 
            30
        ], 
        [
            35, 
            185, 
            612, 
            28
        ], 
        [
            249, 
            219, 
            398, 
            27
        ], 
        [
            35, 
            255, 
            612, 
            30
        ], 
        [
            103, 
            289, 
            544, 
            28
        ], 
        [
            35, 
            325, 
            612, 
            30
        ], 
        [
            35, 
            359, 
            612, 
            30
        ], 
        [
            288, 
            396, 
            359, 
            26
        ], 
        [
            35, 
            429, 
            612, 
            30
        ], 
        [
            35, 
            463, 
            612, 
            30
        ], 
        [
            470, 
            496, 
            177, 
            28
        ], 
        [
            35, 
            534, 
            612, 
            29
        ]
    ], 
    "image_height": 540, 
    "image_width": 720, 
    "transcription": [
        "u0645_u0628_u0627_u062f_u064a_u0621 u0020 u0627_u0644_u062a_u0648_u062c_u064a_u0647", 
        "u062a_u062c_u0627_u0646_u0633 u0020 u0627_u0644_u0623_u0647_u062f_u0627_u0641_u060c u0020 u0648_u064a_u0639_u0646_u064a u0020 u0647_u0630_u0627 u0020 u0636_u0631_u0648_u0631_u0629 u0020 u062a_u062d_u0642_u064a_u0642 u0020 u0627_u0644_u062a_u0648_u0627_u0632_u0646 u0020 u0648_u0627_u0644_u062a_u0648_u0627_u0641_u0642_u0020", 
        "u0648_u0627_u0644_u062a_u0643_u0627_u0645_u0644 u0020 u0628_u064a_u0646 u0020 u0623_u0647_u062f_u0627_u0641 u0020 u0627_u0644_u0641_u0631_u062f u0020 u0648_u0623_u0647_u062f_u0627_u0641 u0020 u0627_u0644_u062c_u0645_u0627_u0639_u0629 u0020 u0645_u0646 u0020 u0646_u0627_u062d_u064a_u0629_u060c u0020 u0648_u0623_u0647_u062f_u0627_u0641_u0020", 
        "u0627_u0644_u0645_u0643_u062a_u0628_u0629 u0020 u0623_u0648 u0020 u0645_u0631_u0643_u0632 u0020 u0627_u0644_u0645_u0639_u0644_u0648_u0645_u0627_u062a u0020 u0645_u0646 u0020 u0646_u0627_u062d_u064a_u0629 u0020 u0623_u062e_u0631_u0649_u002e_u000d", 
        "u0648_u062d_u062f_u0629 u0020 u0627_u0644_u0623_u0645_u0631_u060c u0020 u0648_u064a_u0639_u0646_u064a u0020 u0647_u0630_u0627_u060c u0020 u0643_u0645_u0627 u0020 u0630_u0643_u0631 u0020 u0633_u0627_u0628_u0642_u0627_u064b_u060c u0020 u0636_u0631_u0648_u0631_u0629 u0020 u0625_u0635_u062f_u0627_u0631 u0020 u0627_u0644_u0623_u0648_u0627_u0645_u0631_u0020", 
        "u0644_u0644_u0645_u0631_u0624_u0648_u0633_u064a_u0646 u0020 u0645_u0646 u0020 u0642_u0628_u0644 u0020 u062c_u0647_u0629 u0020 u0648_u0627_u062d_u062f_u0629 u0020 u0641_u0642_u0637_u060c u0020 u0645_u0646_u0639_u0627_u064b u0020 u0644_u0644_u0625_u0631_u0628_u0627_u0643 u0020 u0648_u0627_u0644_u0627_u062d_u062a_u0643_u0627_u0643_u002e_u000d", 
        "u062a_u0648_u0641_u064a_u0631 u0020 u0627_u0644_u0645_u0639_u0644_u0648_u0645_u0627_u062a_u060c u0020 u0648_u064a_u0639_u0646_u064a u0020 u0647_u0630_u0627 u0020 u0627_u0644_u0645_u0628_u062f_u0623 u0020 u0636_u0631_u0648_u0631_u0629 u0020 u0020_u062a_u0648_u0641_u064a_u0631 u0020 u0627_u0644_u0645_u0639_u0644_u0648_u0645_u0627_u062a_u0020", 
        "u0644_u0644_u0645_u0631_u0624_u0648_u0633_u064a_u0646 u0020 u0639_u0646 u0020 u0627_u0644_u0623_u0639_u0645_u0627_u0644 u0020 u0648_u0627_u0644_u0645_u0647_u0645_u0627_u062a u0020 u0020_u0627_u0644_u0645_u0648_u0643_u0648_u0644_u0629 u0020 u0625_u0644_u064a_u0647_u0645 u0020 u0628_u0627_u0644_u0643_u0645 u0020 u0648_u0627_u0644_u0643_u064a_u0641_u0020", 
        "u0648_u0627_u0644_u0648_u0642_u062a u0020 u0627_u0644_u0645_u0646_u0627_u0633_u0628 u0020 u0644_u0636_u0645_u0627_u0646 u0020 u062d_u0633_u0646 u0020 u0627_u0644_u0642_u064a_u0627_u0645 u0020 u0628_u0647_u0627_u002e_u000d", 
        "u0627_u0644_u0633_u0644_u0637_u0629_u060c u0020 u0625_u0630 u0020 u062a_u0639_u0637_u064a u0020 u0627_u0644_u0633_u0644_u0637_u0629 u0020 u0627_u0644_u0631_u0624_u0633_u0627_u0621 u0020 u062d_u0642 u0020 u0625_u0635_u062f_u0627_u0631 u0020 u0627_u0644_u0623_u0648_u0627_u0645_u0631 u0020 u0648_u0627_u0644_u062a_u0648_u062c_u064a_u0647_u0627_u062a_u0020", 
        "u0644_u0644_u0645_u0631_u0624_u0648_u0633_u064a_u0646 u0020 u0628_u063a_u0631_u0636 u0020 u062a_u062d_u0631_u064a_u0643 u0020 u0627_u0644_u0639_u0645_u0644 u0020 u0648_u062f_u0641_u0639_u0647 u0020 u0625_u0644_u0649 u0020 u0627_u0644_u0623_u0645_u0627_u0645_u060c u0020 u0648_u0628_u0627_u0644_u062a_u0627_u0644_u064a u0020 u062a_u062d_u0642_u064a_u0642_u0020", 
        "u0627_u0644_u0623_u0647_u062f_u0627_u0641 u0020 u0627_u0644_u0645_u0631_u0633_u0648_u0645_u0629_u002e_u000d", 
        "u062a_u0641_u0648_u064a_u0636 u0020 u0627_u0644_u0633_u0644_u0637_u0629_u060c u0020 u0639_u0646_u062f_u0645_u0627 u0020 u064a_u0637_u0644_u0628 u0020 u0627_u0644_u0631_u0626_u064a_u0633 u0020 u0645_u0646 u0020 u0623_u062d_u062f u0020 u0645_u0631_u0624_u0648_u0633_u064a_u0647 u0020 u0623_u062f_u0627_u0621 u0020 u0645_u0647_u0645_u0629_u0020"
    ]
}