{
    "bounding_box": [
        [
            41, 
            43, 
            594, 
            34
        ], 
        [
            530, 
            85, 
            105, 
            29
        ], 
        [
            117, 
            121, 
            518, 
            33
        ], 
        [
            36, 
            157, 
            600, 
            35
        ], 
        [
            519, 
            199, 
            116, 
            28
        ], 
        [
            68, 
            235, 
            567, 
            34
        ], 
        [
            221, 
            274, 
            414, 
            30
        ], 
        [
            35, 
            313, 
            600, 
            33
        ], 
        [
            77, 
            348, 
            559, 
            36
        ], 
        [
            319, 
            393, 
            316, 
            30
        ]
    ], 
    "image_height": 540, 
    "image_width": 720, 
    "transcription": [
        "u0627_u0646 u0020 u062a_u0644_u062c_u0623 u0020 u0627_u0644_u0649 u0020 u0627_u0644_u0627_u0642_u062a_u0631_u0627_u0636 u0020 u0639_u0646_u062f_u0645_u0627 u0020 u062a_u0631_u062a_u062c_u0649 u0020 u0627_u064a_u0631_u0627_u062f_u0627 u0020 u0648_u0627_u0644_u0627 u0020 u0641_u062a_u0639_u062a_u0645_u062f u0020 u0639_u0644_u0649_u0020", 
        "u0627_u0644_u0636_u0631_u0627_u0626_u0628 u0020 u000d", 
        "u0627_u0644_u0627_u0635_u0644 u0020 u062a_u0648_u0633_u064a_u0639 u0020 u062f_u0627_u0626_u0631_u0629 u0020 u0627_u0644_u0634_u0631_u0627_u0643_u0629 u0020 u0645_u0639 u0020 u0627_u0644_u0642_u0637_u0627_u0639 u0020 u0627_u0644_u062e_u0627_u0635 u0020 u0641_u0649_u0020", 
        "u0627_u0644_u062e_u062f_u0645_u0627_u062a u0020 u0648_u0627_u0644_u0627_u0646_u062a_u0627_u062c u0020 u0628_u062d_u064a_u062b u0020 u062a_u062a_u0642_u0644_u0635 u0020 u0627_u0644_u0645_u0648_u0627_u0632_u0646_u0629 u0020 u0648_u062a_u0642_u0644 u0020 u0627_u0639_u0628_u0627_u0626_u0647_u0627 u0020 u0639_u0644_u0649_u0020", 
        "u0627_u0644_u0645_u0648_u0627_u0637_u0646_u064a_u0646 u0020 u000d", 
        "u0627_u0646 u0020 u062a_u0643_u0648_u0646 u0020 u0627_u0644_u0646_u0641_u0642_u0627_u062a u0020 u0641_u0649 u0020 u062d_u062f_u0647_u0627 u0020 u0627_u0644_u0627_u062f_u0646_u0649 u0020 u0648_u0628_u0627_u0644_u0642_u062f_u0631 u0020 u0627_u0644_u0630_u0649 u0020 u064a_u0645_u0643_u0646 u0020 u0645_u0646_u0020", 
        "u0627_u062f_u0627_u0621 u0020 u0627_u0644_u0648_u0638_u0627_u0626_u0641 u0020 u0648_u0627_u0644_u0648_u0627_u062c_u0628_u0627_u062a u0020 u0627_u0644_u0645_u0646_u0627_u0637_u0629 u0020 u0628_u0627_u0644_u062f_u0648_u0644_u0629_u000d", 
        "u0627_u0646 u0020 u062a_u062a_u0628_u0646_u0649 u0020 u0627_u0644_u062f_u0648_u0644_u0629 u0020 u0628_u0631_u0627_u0645_u062c u0020 u062a_u0648_u0639_u064a_u0629 u0020 u062a_u0646_u0634_u0626 u0020 u0642_u0646_u0627_u0639_u0627_u062a u0020 u0644_u062f_u0649 u0020 u0627_u0644_u0645_u0648_u0627_u0637_u0646_u064a_u0646_u0020", 
        "u0628_u0627_u0646 u0020 u0623_u0649 u0020 u062a_u0648_u0633_u0639 u0020 u0641_u0649 u0020 u0648_u0638_u0627_u0626_u0641 u0020 u0627_u0644_u062f_u0648_u0644_u0629 u0020 u064a_u0639_u0646_u0649 u0020 u0645_u0632_u064a_u062f_u0627 u0020 u0645_u0646 u0020 u0627_u0644_u0627_u0646_u0641_u0627_u0642_u0020", 
        "u0627_u0644_u062d_u0643_u0648_u0645_u0649 u0020 u0648_u0645_u0632_u064a_u062f_u0627 u0020 u0645_u0646 u0020 u0627_u0644_u0636_u0631_u0627_u0626_u0628 u0020 u000d"
    ]
}