{
    "bounding_box": [
        [
            206, 
            93, 
            418, 
            52
        ], 
        [
            175, 
            152, 
            479, 
            51
        ], 
        [
            177, 
            222, 
            475, 
            49
        ], 
        [
            174, 
            283, 
            482, 
            57
        ], 
        [
            353, 
            352, 
            124, 
            51
        ]
    ], 
    "image_height": 540, 
    "image_width": 720, 
    "transcription": [
        "u0639_u062c_u0627_u0626_u0628 u0020 u0627_u0644_u062f_u0646_u064a_u0627 u0020 u0627_u0644_u0633_u0628_u0639 u0020 u0647_u064a_u0020", 
        "u0633_u0628_u0639_u0629 u0020 u0623_u0639_u0645_u0627_u0644 u0020 u0641_u0646_u064a_u0629 u0020 u0648_u0645_u0639_u0645_u0627_u0631_u064a_u0629_u0020", 
        "u0627_u0639_u062a_u0628_u0631_u0647_u0627 u0020 u0627_u0644_u0625_u063a_u0631_u064a_u0642 u0020 u0648_u0627_u0644_u0631_u0648_u0645_u0627_u0646_u0020", 
        "u0625_u0646_u0634_u0627_u0621_u0627_u062a u0020 u0625_u0639_u062c_u0627_u0632_u064a_u0629 u0020 u0641_u064a u0020 u0627_u0644_u0639_u0627_u0644_u0645_u0020", 
        "u0627_u0644_u0642_u062f_u064a_u0645_u002e_u000d"
    ]
}