{
    "bounding_box": [
        [
            120, 
            197, 
            552, 
            41
        ], 
        [
            302, 
            364, 
            188, 
            21
        ], 
        [
            286, 
            406, 
            219, 
            24
        ], 
        [
            221, 
            451, 
            349, 
            22
        ], 
        [
            188, 
            493, 
            409, 
            22
        ]
    ], 
    "image_height": 595, 
    "image_width": 793, 
    "transcription": [
        "u0627_u0644_u0625_u0646_u062a_u0631_u0646_u062a_u003a u0020 u0627_u0644_u062f_u062e_u0644_u0627_u0621 u0020 u0648_u0637_u0631_u0642 u0020 u0627_u0644_u062d_u0645_u0627_u064a_u0629", 
        "u0639_u0628_u062f_u0627_u0644_u0645_u0644_u0643 u0020 u0627_u0644_u0633_u0644_u0645_u0627_u0646_u000d", 
        "u062c_u0627_u0645_u0639_u0629 u0020 u0627_u0644_u0645_u0644_u0643 u0020 u0633_u0639_u0648_u062f_u000d", 
        "u0639_u0628_u062f_u0627_u0644_u0631_u062d_u0645_u0646 u0020 u0627_u0644_u0639_u0631_u064a_u0641_u064a u0020 u0648 u0020 u0645_u0646_u0635_u0648_u0631 u0020 u0627_u0644_u0635_u0627_u0644_u062d_u000d", 
        "u0645_u062f_u064a_u0646_u0629 u0020 u0627_u0644_u0645_u0644_u0643 u0020 u0639_u0628_u062f_u0627_u0644_u0639_u0632_u064a_u0632 u0020 u0644_u0644_u0639_u0644_u0648_u0645 u0020 u0648_u0627_u0644_u062a_u0642_u0646_u064a_u0629"
    ]
}