{
    "bounding_box": [
        [
            189, 
            89, 
            333, 
            44
        ], 
        [
            123, 
            273, 
            415, 
            28
        ], 
        [
            271, 
            326, 
            135, 
            25
        ], 
        [
            196, 
            373, 
            286, 
            26
        ], 
        [
            212, 
            425, 
            253, 
            24
        ], 
        [
            700, 
            518, 
            8, 
            12
        ]
    ], 
    "image_height": 540, 
    "image_width": 720, 
    "transcription": [
        "u0622_u0645_u0627_u0631 u0020 u0648 u0020 u0631_u0648_u0634 u0020 u062a_u062d_u0642_u06cc_u0642 u0020 u000b", 
        "u0631_u0634_u062a_u0629 u0020 u0647_u0627_u064a u0020 u0020_u0639_u0644_u0648_u0645 u0020 u067e_u0632_u0634_u0643_u064a u0020 u0648_u0634_u0627_u062e_u0647 u0020 u0647_u0627_u064a u0020 u0645_u0631_u062a_u0628_u0637 u0020 u0020_u000d", 
        "u0032 u0020 u0648_u0627_u062d_u062f u0020 u062f_u0631_u0633_u064a_u000d", 
        "u0645_u0637_u0627_u0628_u0642 u0020 u0628_u0627 u0020 u0633_u0631_u0641_u0635_u0644 u0020 u0647_u0627_u06cc u0020 u0645_u0635_u0648_u0628_u000d", 
        "u062a_u0647_u064a_u0647 u0020 u0643_u0646_u0646_u062f_u0647_u003a u0020 u0645_u062d_u0645_u062f_u0631_u0636_u0627 u0020 u0645_u064a_u0631_u0632_u0627_u062f_u0647_u000d", 
        "u0032"
    ]
}