{
    "bounding_box": [
        [
            66, 
            54, 
            581, 
            29
        ], 
        [
            524, 
            92, 
            138, 
            26
        ], 
        [
            377, 
            129, 
            269, 
            25
        ], 
        [
            436, 
            164, 
            211, 
            26
        ], 
        [
            450, 
            202, 
            197, 
            25
        ], 
        [
            450, 
            237, 
            196, 
            26
        ], 
        [
            175, 
            274, 
            471, 
            26
        ]
    ], 
    "image_height": 540, 
    "image_width": 720, 
    "transcription": [
        "u0627_u0644_u062a_u0635_u0641_u062d u0020 u062d_u0633_u0628 u0020 u0627_u0644_u062d_u0642_u0644_u002e_u0028 u0020 u064a_u062a_u0645 u0020 u0627_u0633_u062a_u062e_u062f_u0627_u0645 u0020 u0627_u0644_u062d_u0642_u0648_u0644 u0020 u0641_u064a u0020 u0627_u0644_u0623_u0634_u0643_u0627_u0644 u0020 u0648_u062f_u0645_u062c u0020 u0627_u0644_u0628_u0631_u064a_u062f u0020 u000d", 
        "u0020 u0020 u0627_u0644_u0625_u0644_u0643_u062a_u0631_u0648_u0646_u064a_u0029 u0020 u0020_u000d", 
        "u0627_u0644_u062a_u0635_u0641_u062d u0020 u062d_u0633_u0628 u0020 u0627_u0644_u062a_u0639_u0644_u064a_u0642 u0020 u0627_u0644_u062e_u062a_u0627_u0645_u064a_u002e_u000d", 
        "u0627_u0644_u062a_u0635_u0641_u062d u0020 u062d_u0633_u0628 u0020 u0627_u0644_u062d_u0627_u0634_u064a_u0629_u002e u0020 u000d", 
        "u0627_u0644_u062a_u0635_u0641_u062d u0020 u062d_u0633_u0628 u0020 u0627_u0644_u062a_u0639_u0644_u064a_u0642_u002e_u000d", 
        "u0627_u0644_u062a_u0635_u0641_u062d u0020 u062d_u0633_u0628 u0020 u0627_u0644_u062f_u0631_u0633_u002e_u000d", 
        "u0627_u0644_u062a_u0635_u0641_u062d u0020 u062d_u0633_u0628 u0020 u0627_u0644_u0635_u0641_u062d_u0629_u002e_u0028 u0020 u0647_u0630_u0627 u0020 u0647_u0648 u0020 u0627_u0644_u0627_u062e_u062a_u064a_u0627_u0631 u0020 u0627_u0644_u0627_u0641_u062a_u0631_u0627_u0636_u064a_u002e_u0029_u000d"
    ]
}