{
    "bounding_box": [
        [
            71, 
            30, 
            567, 
            33
        ], 
        [
            265, 
            76, 
            189, 
            27
        ], 
        [
            114, 
            126, 
            548, 
            29
        ], 
        [
            221, 
            163, 
            441, 
            24
        ], 
        [
            58, 
            196, 
            603, 
            28
        ], 
        [
            91, 
            230, 
            570, 
            26
        ], 
        [
            95, 
            264, 
            566, 
            23
        ], 
        [
            517, 
            292, 
            144, 
            26
        ]
    ], 
    "image_height": 540, 
    "image_width": 720, 
    "transcription": [
        "u00a0_u0627_u0644_u062f_u0631_u0633 u0020 u0031_u002d_u0036_u003a u0020 u0627_u0644_u062d_u0635_u0648_u0644 u0020 u0639_u0644_u0649 u0020 u062a_u0639_u0644_u064a_u0645_u0627_u062a u0020 u0641_u064a u0020 u0628_u0631_u0646_u0627_u0645_u062c u0020 u0645_u0639_u0627_u0644_u062c_u0020", 
        "u0627_u0644_u0646_u0635_u0648_u0635 u0020 u0022_u0648_u0648_u0631_u062f_u0022", 
        "u0644_u0642_u062f u0020 u0644_u0627_u062d_u0638_u062a u0020 u0627_u0644_u0622_u0646 u0020 u0623_u0646 u0020 u0647_u0646_u0627_u0643 u0020 u0623_u0645_u0648_u0631_u0627 u0020 u0643_u062b_u064a_u0631_u0629 u0020 u064a_u0645_u0643_u0646_u0643 u0020 u0627_u0644_u0642_u064a_u0627_u0645 u0020 u0628_u0647_u0627 u0020 u0641_u064a u0020 u0645_u0639_u0627_u0644_u062c_u0020", 
        "u0627_u0644_u0646_u0635_u0648_u0635 u0020 u0022_u0648_u0648_u0631_u062f_u0022 u0020 u0648_u0646_u062d_u0646 u0020 u0628_u0627_u0644_u0643_u0627_u062f u0020 u0625_u0637_u0644_u0639_u0646_u0627 u0020 u0639_u0644_u0649 u0020 u0627_u0644_u0628_u062f_u0627_u064a_u0629_u002e u0020 u000d", 
        "u0648_u0628_u063a_u0636 u0020 u0627_u0644_u0646_u0638_u0631 u0020 u0639_u0646 u0020 u0639_u062f_u062f u0020 u0627_u0644_u0643_u062a_u0628 u0020 u0627_u0644_u062a_u064a u0020 u062a_u0642_u0631_u0624_u0647_u0627 u0020 u0623_u0648 u0020 u0627_u0644_u062f_u0648_u0631_u0627_u062a u0020 u0627_u0644_u062a_u064a u0020 u062a_u0634_u062a_u0631_u0643 u0020 u0641_u064a_u0647_u0627_u0020", 
        "u0641_u0625_u0646_u0647 u0020 u0645_u0646 u0020 u0627_u0644_u0645_u0633_u062a_u062d_u064a_u0644 u0020 u062a_u0630_u0643_u0631 u0020 u0643_u0644 u0020 u0634_u064a_u0621_u002e u0020 u0648_u0644_u062d_u0633_u0646 u0020 u0627_u0644_u062d_u0638_u060c u0020 u0641_u0625_u0646 u0020 u0628_u0631_u0646_u0627_u0645_u062c u0020 u0645_u0639_u0627_u0644_u062c_u0020", 
        "u0627_u0644_u0646_u0635_u0648_u0635 u0020 u0022_u0648_u0648_u0631_u062f_u0022 u0020 u0645_u0632_u0648_u062f u0020 u0628_u0645_u0644_u0641_u0627_u062a u0020 u062a_u0639_u0644_u064a_u0645_u0627_u062a u0020 u0628_u062d_u064a_u062b u0020 u064a_u0645_u0643_u0646_u0643 u0020 u0627_u0644_u0639_u062b_u0648_u0631 u0020 u0639_u0644_u0649_u0020", 
        "u0625_u062c_u0627_u0628_u0627_u062a u0020 u0644_u0623_u0633_u0626_u0644_u062a_u0643_u002e_u0020"
    ]
}