{
    "bounding_box": [
        [
            209, 
            52, 
            301, 
            48
        ], 
        [
            219, 
            133, 
            421, 
            29
        ], 
        [
            432, 
            210, 
            196, 
            23
        ], 
        [
            105, 
            252, 
            523, 
            24
        ], 
        [
            511, 
            283, 
            116, 
            22
        ], 
        [
            396, 
            323, 
            232, 
            24
        ], 
        [
            97, 
            362, 
            530, 
            24
        ], 
        [
            516, 
            390, 
            112, 
            23
        ], 
        [
            82, 
            432, 
            545, 
            24
        ], 
        [
            523, 
            464, 
            104, 
            21
        ]
    ], 
    "image_height": 540, 
    "image_width": 720, 
    "transcription": [
        "u0627_u062e_u062a_u0628_u0627_u0631_u0627_u062a u0020 u0627_u0644_u062e_u0631_u0633_u0627_u0646_u0629", 
        "u0644_u0645_u0627_u0630 u0020 u0646_u062c_u0631_u0649 u0020 u0627_u062e_u062a_u0628_u0627_u0631_u0627_u062a u0020 u0639_u0644_u0649 u0020 u0627_u0644_u062e_u0631_u0633_u0627_u0646_u0629 u0020 u0627_u0644_u0645_u062a_u0635_u0644_u062f_u0629_u061f_u000d", 
        "u0031_u002d u0020 u0644_u0628_u064a_u0627_u0646 u0020 u0645_u0637_u0627_u0628_u0642_u0629 u0020 u0627_u0644_u0645_u0648_u0627_u062f u0020 u0020_u000d", 
        "u0032_u002d u0020 u0628_u064a_u0627_u0646 u0020 u0645_u062f_u0649 u0020 u0627_u0644_u062a_u0634_u062a_u062a u0020 u0641_u0649 u0020 u062e_u0648_u0627_u0635 u0020 u0627_u0644_u062e_u0631_u0633_u0627_u0646_u0629 u0020 u0648 u0020 u0623_u062b_u0631 u0020 u0627_u0644_u0638_u0631_u0648_u0641 u0020 u0627_u0644_u0645_u0639_u0627_u0643_u0633_u0629_u0020", 
        "u0639_u0644_u0649 u0020 u0627_u0644_u062e_u0648_u0627_u0635 u0020 u000d", 
        "u0033_u002d u0020 u0644_u062f_u0641_u0639 u0020 u0627_u0644_u0639_u0627_u0645_u0644_u064a_u0646 u0020 u0644_u0627_u062a_u0642_u0627_u0646 u0020 u0627_u0644_u0639_u0645_u0644_u000d", 
        "u0034_u002d u0020 u0646_u062a_u0627_u0626_u062c u0020 u0627_u062e_u062a_u0628_u0627_u0631_u0627_u062a u0020 u0627_u0644_u062e_u0631_u0633_u0627_u0646_u0629 u0020 u062a_u0641_u064a_u062f u0020 u0641_u0649 u0020 u0625_u064a_u062c_u0627_u062f u0020 u062d_u0644_u0648_u0644 u0020 u0644_u0623_u0649 u0020 u0645_u0634_u0627_u0643_u0644 u0020 u0625_u0646_u0634_u0627_u0626_u064a_u0629_u0020", 
        "u062a_u0638_u0647_u0631 u0020 u0645_u0633_u062a_u0642_u0628_u0644_u0627_u000d", 
        "u0035_u002d u0020 u062a_u0641_u064a_u062f u0020 u0641_u0649 u0020 u0645_u062a_u0627_u0628_u0639_u0629 u0020 u0627_u0644_u062a_u0646_u0641_u064a_u0630 u0020 u0028_u062a_u062d_u062f_u064a_u062f u0020 u0632_u0645_u0646 u0020 u0641_u0643 u0020 u0627_u0644_u0634_u062f_u0627_u062a u0020 u0623_u0648 u0020 u0632_u0645_u0646 u0020 u0627_u0644_u062a_u0623_u062b_u064a_u0631 u0020 u0628_u0642_u0648_u0649_u0020", 
        "u0633_u0628_u0642 u0020 u0627_u0644_u0625_u062c_u0647_u0627_u062f_u0029"
    ]
}