{
    "bounding_box": [
        [
            29, 
            80, 
            630, 
            46
        ], 
        [
            29, 
            132, 
            646, 
            52
        ], 
        [
            29, 
            191, 
            646, 
            50
        ], 
        [
            29, 
            251, 
            646, 
            47
        ], 
        [
            29, 
            306, 
            646, 
            51
        ], 
        [
            300, 
            361, 
            376, 
            45
        ]
    ], 
    "image_height": 540, 
    "image_width": 720, 
    "transcription": [
        "u0648_u0639_u0627_u0634 u0020 u0627_u0644_u0646_u0628_u064a u0020 u0647_u0627_u0631_u0648_u0646 u0020 u0645_u0639 u0020 u0627_u062e_u064a_u0647 u0020 u0627_u0644_u0646_u0628_u064a_u0020", 
        "u0645_u0648_u0633_u0649 u0020 u0641_u064a u0020 u0645_u0635_u0631 u0020 u0641_u064a u0020 u0639_u0635_u0631 u0020 u0627_u0644_u0641_u0631_u0627_u0639_u0646_u0629_u0020", 
        "u062d_u0633_u0628 u0020 u0627_u0644_u0639_u0647_u062f u0020 u0627_u0644_u0642_u062f_u064a_u0645 u0020 u0648_u0627_u0644_u0642_u0631_u0627_u0646 u0020 u0648_u0641_u064a u0020 u0627_u0644_u0643_u062a_u0627_u0628_u0020", 
        "u0627_u0644_u0645_u0642_u062f_u0633 u0020 u0627_u0644_u0639_u0647_u062f u0020 u0627_u0644_u0642_u062f_u064a_u0645 u0020 u0647_u0648 u0020 u0627_u0628_u0646 u0020 u0639_u0645_u0631_u0627_u0646_u0020", 
        "u0648_u0627_u0644_u0627_u062e u0020 u0627_u0644_u0623_u0643_u0628_u0631 u0020 u0644_u0645_u0648_u0633_u0649 u0020 u0648_u0645_u0631_u064a_u0645 u0020 u0645_u062a_u0632_u0648_u062c u0020 u0645_u0646_u0020", 
        "u0627_u0644_u0628_u0634_u064a_u0628 u0020 u0648_u0644_u0647 u0020 u0627_u0631_u0628_u0639_u0629 u0020 u0623_u0628_u0646_u0627_u0621_u002e_u000d"
    ]
}