{
    "bounding_box": [
        [
            201, 
            42, 
            317, 
            31
        ], 
        [
            91, 
            114, 
            570, 
            29
        ], 
        [
            124, 
            151, 
            537, 
            25
        ], 
        [
            197, 
            182, 
            464, 
            26
        ]
    ], 
    "image_height": 540, 
    "image_width": 720, 
    "transcription": [
        "u0627_u0644_u062f_u0631_u0633 u0020 u0033_u002d_u0036_u003a u0020 u062a_u062e_u0635_u064a_u0635 u0020 u0627_u0644_u0634_u0631_u064a_u0637", 
        "u0633_u0646_u062a_u0639_u0631_u0641 u0020 u0639_u0644_u0649 u0020 u0645_u0647_u0645_u0629 u0020 u062a_u062e_u0635_u064a_u0635 u0020 u0623_u062e_u064a_u0631_u0629 u0020 u0642_u0628_u0644 u0020 u0627_u0644_u062f_u062e_u0648_u0644 u0020 u0641_u064a u0020 u062a_u0641_u0627_u0635_u064a_u0644 u0020 u0625_u0646_u0634_u0627_u0621_u0020", 
        "u0645_u0633_u062a_u0646_u062f u0020 u0628_u0627_u0644_u0641_u0639_u0644_u002e u0020 u0648_u0633_u0646_u0633_u062a_u0643_u0634_u0641 u0020 u0641_u064a u0020 u0647_u0630_u0627 u0020 u0627_u0644_u062f_u0631_u0633 u0020 u0633_u0645_u0629 u0020 u062c_u062f_u064a_u062f_u0629 u0020 u0641_u064a u0020 u0645_u0639_u0627_u0644_u062c_u0020", 
        "u0627_u0644_u0646_u0635_u0648_u0635 u0020 u0022_u0648_u0648_u0631_u062f_u0022 u0020 u0648_u0647_u064a u0020 u0627_u0644_u0642_u062f_u0631_u0629 u0020 u0639_u0644_u0649 u0020 u062a_u062e_u0635_u064a_u0635 u0020 u0627_u0644_u0634_u0631_u064a_u0637_u002e"
    ]
}