{
    "bounding_box": [
        [
            173, 
            27, 
            485, 
            33
        ], 
        [
            103, 
            93, 
            558, 
            26
        ], 
        [
            174, 
            125, 
            487, 
            25
        ], 
        [
            67, 
            163, 
            594, 
            25
        ], 
        [
            55, 
            194, 
            606, 
            26
        ], 
        [
            74, 
            228, 
            587, 
            25
        ], 
        [
            52, 
            259, 
            610, 
            26
        ], 
        [
            359, 
            293, 
            302, 
            25
        ]
    ], 
    "image_height": 540, 
    "image_width": 720, 
    "transcription": [
        "u0630_u0627_u0643_u0631_u0629 u0020 u0627_u0644_u0648_u0635_u0648_u0644 u0020 u0627_u0644_u0639_u0634_u0648_u0627_u0626_u064a u0020 u0648_u0627_u062f_u0627_u0621 u0020 u062c_u0647_u0627_u0632 u0020 u0627_u0644_u0643_u0645_u0628_u064a_u0648_u062a_u0631_u0020", 
        "u064a_u0645_u0643_u0646 u0020 u0627_u064a_u0636_u0627 u0020 u0627_u0646 u0020 u064a_u0624_u062b_u0631 u0020 u062d_u062c_u0645 u0020 u0648_u0646_u0648_u0639 u0020 u0630_u0627_u0643_u0631_u0629 u0020 u0627_u0644_u0648_u0635_u0648_u0644 u0020 u0627_u0644_u0639_u0634_u0648_u0627_u0626_u064a u0020 u0028_u0627_u0644_u0630_u0627_u0643_u0631_u0629_u0020", 
        "u0627_u0644_u0631_u0626_u064a_u0633_u064a_u0629_u0029 u0020 u0641_u064a u0020 u062c_u0647_u0627_u0632 u0020 u0627_u0644_u0643_u0645_u0628_u064a_u0648_u062a_u0631 u0020 u0639_u0644_u0649 u0020 u0627_u062f_u0627_u0621 u0020 u062c_u0647_u0627_u0632 u0020 u0627_u0644_u0643_u0645_u0628_u064a_u0648_u062a_u0631_u002e u0020 u000d", 
        "u0648_u0643_u0645_u0627 u0020 u062a_u0630_u0643_u0631_u060c u0020 u062a_u0639_u062a_u0628_u0631 u0020 u0630_u0627_u0643_u0631_u0629 u0020 u0627_u0644_u0648_u0635_u0648_u0644 u0020 u0627_u0644_u0639_u0634_u0648_u0627_u0626_u064a u0020 u0630_u0627_u0643_u0631_u0629 u0020 u063a_u064a_u0631 u0020 u062b_u0627_u0628_u062a_u0629 u0020 u064a_u0633_u062a_u062e_u062f_u0645_u0647_u0627_u0020", 
        "u062c_u0647_u0627_u0632 u0020 u0627_u0644_u0643_u0645_u0628_u064a_u0648_u062a_u0631 u0020 u0644_u064a_u062e_u0632_u0646 u0020 u0628_u0634_u0643_u0644 u0020 u0645_u0624_u0642_u062a u0020 u0627_u0644_u0628_u0631_u0627_u0645_u062c u0020 u0648_u0627_u0644_u0628_u064a_u0627_u0646_u0627_u062a u0020 u0627_u0644_u0645_u0633_u062a_u062e_u062f_u0645_u0629 u0020 u062d_u0627_u0644_u064a_u0627_u002e_u0020", 
        "u0648_u0646_u0638_u0631_u0627 u0020 u0644_u0625_u0645_u0643_u0627_u0646_u064a_u0629 u0020 u0637_u0644_u0628 u0020 u0627_u0644_u0645_u0639_u0627_u0644_u062c u0020 u0628_u0634_u0643_u0644 u0020 u0645_u062a_u0643_u0631_u0631 u0020 u0644_u0646_u0642_u0644 u0020 u062a_u0644_u0643 u0020 u0627_u0644_u0628_u064a_u0627_u0646_u0627_u062a u0020 u0645_u0646 u0020 u0648_u0627_u0644_u0649_u0020", 
        "u0630_u0627_u0643_u0631_u0629 u0020 u0627_u0644_u0648_u0635_u0648_u0644 u0020 u0627_u0644_u0639_u0634_u0648_u0627_u0626_u064a_u060c u0020 u0641_u0625_u0646 u0020 u0627_u0644_u0633_u0631_u0639_u0629 u0020 u0627_u0644_u062a_u064a u0020 u062a_u0633_u062a_u062c_u064a_u0628 u0020 u0628_u0647_u0627 u0020 u0630_u0627_u0643_u0631_u0629 u0020 u0627_u0644_u0648_u0635_u0648_u0644_u0020", 
        "u0627_u0644_u0639_u0634_u0648_u0627_u0626_u064a u0020 u0644_u062a_u0644_u0643 u0020 u0627_u0644_u0637_u0644_u0628_u0627_u062a u0020 u062a_u0639_u062a_u0628_u0631 u0020 u0647_u0627_u0645_u0629_u002e_u0020"
    ]
}