{
    "bounding_box": [
        [
            32, 
            50, 
            647, 
            31
        ], 
        [
            51, 
            86, 
            609, 
            33
        ], 
        [
            61, 
            124, 
            604, 
            34
        ], 
        [
            25, 
            203, 
            661, 
            32
        ], 
        [
            90, 
            239, 
            547, 
            34
        ], 
        [
            49, 
            316, 
            612, 
            34
        ], 
        [
            39, 
            354, 
            633, 
            35
        ], 
        [
            18, 
            396, 
            674, 
            31
        ], 
        [
            70, 
            431, 
            578, 
            31
        ]
    ], 
    "image_height": 540, 
    "image_width": 720, 
    "transcription": [
        "u062a_u0639_u0631_u0641 u0020 u0627_u0644_u0645_u062b_u064a_u0631 u0020 u0648_u0627_u0644_u0625_u0633_u062a_u062c_u0627_u0628_u0629_u003a u0020 u0022_u0627_u0644_u062d_u0627_u062f_u062b u0020 u0627_u0644_u0630_u064a u0020 u064a_u0645_u0643_u0646 u0020 u0644_u0644_u0645_u0644_u0627_u062d_u0638 u0020 u0627_u0644_u062e_u0627_u0631_u062c_u064a_u0020", 
        "u062a_u0639_u064a_u064a_u0646_u0647 u0020 u0028_u0627_u0644_u0646_u0634_u0627_u0637 u0020 u0627_u0644_u0632_u0627_u0626_u062f u0020 u2013 u0020 u0627_u0644_u0625_u0646_u062f_u0641_u0627_u0639_u064a_u0629 u0020 u2013 u0020 u0625_u0636_u0637_u0631_u0627_u0628 u0020 u0627_u0644_u0625_u0646_u062a_u0628_u0627_u0647_u0029 u0020 u0648_u0630_u0644_u0643_u0020", 
        "u0628_u0625_u0641_u062a_u0631_u0627_u0636 u0020 u0623_u0646 u0020 u0644_u0647_u0630_u0627 u0020 u0627_u0644_u062d_u0627_u062f_u062b u0020 u062a_u0623_u062b_u064a_u0631_u064b_u0627 u0020 u0641_u064a u0020 u0633_u0644_u0648_u0643 u0020 u0627_u0644_u0645_u064f_u0644_u0627_u062d_u064e_u0638 u0020 u0028_u0627_u0644_u0637_u0641_u0644_u0029_u00ab_u000b", 
        "u002d u0020 u062a_u0631_u062a_u0628 u0020 u0639_u0644_u0649 u0020 u0630_u0644_u0643 u0020 u0638_u0647_u0648_u0631 u0020 u0645_u062d_u0643 u0020 u0627_u0644_u062a_u0628_u0627_u0639_u062f u0020 u0628_u064a_u0646 u0020 u0627_u0644_u062a_u062d_u0635_u064a_u0644 u0020 u0627_u0644_u062d_u0627_u0644_u064a u0020 u0644_u0644_u062a_u0644_u0645_u064a_u0630_u0020", 
        "u0648_u0627_u0644_u062a_u062d_u0635_u064a_u0644 u0020 u0627_u0644_u0645_u062a_u0648_u0642_u0639 u0020 u0645_u0646_u0647 u0020 u0641_u064a u0020 u0636_u0648_u0621 u0020 u0642_u062f_u0631_u0627_u062a_u0647 u0020 u0627_u0644_u0639_u0642_u0644_u064a_u0629 u0020 u0627_u0644_u0639_u0627_u0645_u0629_u002e_u000b", 
        "u002d u0020 u0020_u064a_u0631_u0643_u0632 u0020 u0647_u0630_u0627 u0020 u0627_u0644_u0646_u0645_u0648_u0630_u062c u0020 u0623_u0648 u0020 u0627_u0644_u0646_u0638_u0631_u064a_u0629 u0020 u0625_u0644_u0649 u0020 u0645_u0639_u0631_u0641_u0629 u0020 u0627_u0644_u0623_u0633_u0628_u0627_u0628 u0020 u0627_u0644_u0623_u0633_u0627_u0633_u064a_u0629_u0020", 
        "u0627_u0644_u0645_u0628_u0627_u0634_u0631_u0629 u0020 u0644_u0625_u0646_u062d_u0631_u0627_u0641 u0020 u0627_u0644_u0623_u062f_u0627_u0621 u0020 u0627_u0644_u0641_u0639_u0644_u064a u0020 u0644_u0644_u0637_u0641_u0644 u0020 u0641_u064a u0020 u0645_u062c_u0627_u0644 u0020 u0627_u0644_u062a_u0639_u0644_u0645 u0020 u0639_u0646 u0020 u0623_u062f_u0627_u0626_u0647_u0020", 
        "u0627_u0644_u0645_u062a_u0648_u0642_u0639 u0020 u0028_u0628_u0627_u0644_u062a_u0631_u0643_u064a_u0632 u0020 u0639_u0644_u0649 u0020 u0627_u0644_u0635_u0639_u0648_u0628_u0629 u0020 u0630_u0627_u062a_u0647_u0627 u0020 u0648_u0627_u0644_u0633_u0644_u0648_u0643_u064a_u0627_u062a u0020 u0627_u0644_u0645_u0631_u062a_u0628_u0637_u0629 u0020 u0628_u0647_u0627_u0029 u0020 u0644_u0630_u0627_u0020", 
        "u063a_u0627_u0644_u0628_u0627 u0020 u0645_u0627 u0020 u064a_u0633_u0645_u0649 u0020 u0647_u0630_u0627 u0020 u0627_u0644_u0645_u062f_u062e_u0644 u0020 u0628_u0640 u0020 u0022_u0645_u062f_u062e_u0644 u0020 u0627_u0644_u062a_u0645_u0631_u0643_u0632 u0020 u062d_u0648_u0644 u0020 u0627_u0644_u0637_u0641_u0644_u0022_u002e"
    ]
}