{
    "bounding_box": [
        [
            63, 
            148, 
            805, 
            34
        ], 
        [
            172, 
            187, 
            695, 
            37
        ], 
        [
            567, 
            283, 
            301, 
            33
        ], 
        [
            630, 
            336, 
            215, 
            34
        ], 
        [
            602, 
            381, 
            243, 
            33
        ], 
        [
            600, 
            433, 
            245, 
            35
        ]
    ], 
    "image_height": 540, 
    "image_width": 960, 
    "transcription": [
        "u0627_u0644_u0623_u0633_u0644_u0648_u0628 u0020 u0647_u0648 u0020 u003a u0020 u00ab_u0637_u0631_u064a_u0642_u0629 u0020 u0627_u0644_u0643_u062a_u0627_u0628_u0629 u0020 u0627_u0648 u0020 u0637_u0631_u064a_u0642_u0629 u0020 u0627_u0644_u0627_u0646_u0634_u0627_u0621 u0020 u0627_u0648 u0020 u0637_u0631_u064a_u0642_u0629 u0020 u0627_u062e_u062a_u064a_u0627_u0631_u0020", 
        "u0627_u0644_u0623_u0644_u0641_u0627_u0638 u0020 u0648 u0020 u062a_u0623_u0644_u064a_u0641_u0647_u0627 u0020 u0644_u0644_u062a_u0639_u0628_u064a_u0631 u0020 u0639_u0646 u0020 u0627_u0644_u0645_u0639_u0627_u0646_u064a u0020 u0642_u0635_u062f u0020 u0627_u0644_u0627_u064a_u0636_u0627_u062d u0020 u0648 u0020 u0627_u0644_u062a_u0623_u062b_u064a_u0631_u00bb_u000d", 
        "u0623_u0633_u0628_u0627_u0628 u0020 u0627_u062e_u062a_u0644_u0627_u0641 u0020 u0627_u0644_u0623_u0633_u0627_u0644_u064a_u0628 u0020 u003a_u000d", 
        "u0627_u062e_u062a_u0644_u0627_u0641 u0020 u0627_u0644_u0645_u0648_u0636_u0648_u0639_u000d", 
        "u0020_u062a_u0628_u0627_u064a_u0646 u0020 u0645_u0648_u0627_u0647_u0628 u0020 u0627_u0644_u0623_u062f_u0628_u0627_u0621_u000d", 
        "u0637_u0628_u064a_u0639_u0629 u0020 u0627_u0644_u0645_u062a_u0644_u0642_u064a u0020 u0648 u0020 u062b_u0642_u0627_u0641_u062a_u0647"
    ]
}