{
    "bounding_box": [
        [
            43, 
            54, 
            166, 
            30
        ], 
        [
            437, 
            93, 
            182, 
            22
        ], 
        [
            36, 
            137, 
            324, 
            22
        ], 
        [
            82, 
            171, 
            537, 
            28
        ], 
        [
            558, 
            213, 
            61, 
            22
        ], 
        [
            35, 
            258, 
            330, 
            22
        ], 
        [
            492, 
            295, 
            127, 
            24
        ], 
        [
            36, 
            336, 
            281, 
            24
        ], 
        [
            36, 
            377, 
            311, 
            24
        ], 
        [
            36, 
            418, 
            320, 
            23
        ], 
        [
            558, 
            455, 
            61, 
            22
        ], 
        [
            43, 
            498, 
            570, 
            24
        ]
    ], 
    "image_height": 540, 
    "image_width": 720, 
    "transcription": [
        "u0043_u0072_u0065_u0061_u0074_u0065 u0020 u0020 u0020 u0020_u0020", 
        "u0625_u0646_u0634_u0627_u0621 u0020 u0642_u0627_u0639_u062f_u0629 u0020 u0628_u064a_u0627_u0646_u0627_u062a u0020 u003a_u000d", 
        "u0043_u0052_u0045_u0041_u0054_u0045 u0020 u0044_u0041_u0054_u0045_u0042_u0041_u0053_u0045 u0020 u0044_u0042_u006e_u0061_u006d_u0065_u003b_u000d", 
        "u0623_u0645_u0631 u0020 u0627_u0644_u0627_u0646_u0634_u0627_u0621 u0020 u0020_u0642_u0627_u0639_u062f_u0629 u0020 u0627_u0644_u0628_u064a_u0627_u0646_u0627_u062a u0020 u0020_u0627_u0633_u0645 u0020 u0642_u0627_u0639_u062f u0020 u0627_u0644_u0628_u064a_u0627_u0646_u0627_u062a u0020 u0627_u0644_u0645_u0631_u0627_u062f u0020 u0627_u0646_u0634_u0627_u0626_u0647_u0627 u0020 u000d", 
        "u0645_u062b_u0627_u0644 u0020 u003a_u000d", 
        "u0043_u0052_u0045_u0041_u0054_u0045 u0020 u0044_u0041_u0054_u0041_u0042_u0041_u0053_u0045 u0020 u0043_u004f_u004c_u004c_u0045_u0047_u0045_u003b_u000d", 
        "u0625_u0646_u0634_u0627_u0621 u0020 u062c_u062f_u0648_u0644 u0020 u003a_u000d", 
        "u0043_u0072_u0065_u0061_u0074_u0065 u0020 u0074_u0061_u0062_u006c_u0065 u0020 u0074_u0061_u0062_u006c_u0065_u006e_u0061_u006d_u0065_u0028_u000d", 
        "u0046_u0061_u006c_u0069_u0064_u0031 u0020 u0074_u0079_u0070_u0065 u0020 u006e_u0075_u006c_u006c u0020 u006f_u0072 u0020 u006e_u006f_u0074 u0020 u006e_u0075_u006c_u006c_u002c_u000d", 
        "u0046_u0061_u006c_u0069_u0064_u0032 u0020 u0074_u0079_u0070_u0065 u0020 u006e_u0075_u006c_u006c u0020 u006f_u0072 u0020 u006e_u006f_u0074 u0020 u006e_u0075_u006c_u006c_u0029_u003b_u000d", 
        "u0645_u062b_u0627_u0644 u0020 u003a_u000d", 
        "u0043_u0052_u0045_u0041_u0054_u0045 u0020 u0054_u0041_u0042_u004c_u0045 u0020 u0053_u0054_u0055_u0044_u0045_u004e_u0054_u0028_u0073_u0074_u0069_u0064 u0020 u004e_u0055_u004d_u0042_u0045_u0052 u0020 u004e_u004f_u0054 u0020 u004e_u0055_u004c_u004c_u0029_u003b"
    ]
}