{
    "bounding_box": [
        [
            391, 
            92, 
            158, 
            24
        ], 
        [
            145, 
            95, 
            132, 
            20
        ], 
        [
            5, 
            209, 
            133, 
            13
        ], 
        [
            5, 
            235, 
            391, 
            15
        ], 
        [
            5, 
            256, 
            381, 
            16
        ], 
        [
            5, 
            276, 
            361, 
            17
        ], 
        [
            5, 
            295, 
            388, 
            20
        ], 
        [
            5, 
            320, 
            375, 
            16
        ], 
        [
            5, 
            341, 
            376, 
            17
        ], 
        [
            5, 
            364, 
            333, 
            16
        ], 
        [
            5, 
            385, 
            379, 
            16
        ], 
        [
            5, 
            403, 
            385, 
            17
        ], 
        [
            5, 
            429, 
            388, 
            15
        ], 
        [
            5, 
            449, 
            387, 
            17
        ], 
        [
            5, 
            472, 
            366, 
            16
        ], 
        [
            5, 
            493, 
            381, 
            16
        ], 
        [
            431, 
            203, 
            170, 
            32
        ], 
        [
            431, 
            237, 
            206, 
            29
        ], 
        [
            431, 
            271, 
            212, 
            31
        ], 
        [
            431, 
            306, 
            208, 
            29
        ], 
        [
            431, 
            338, 
            203, 
            31
        ], 
        [
            431, 
            372, 
            204, 
            31
        ], 
        [
            439, 
            406, 
            58, 
            28
        ]
    ], 
    "image_height": 540, 
    "image_width": 720, 
    "transcription": [
        "u0643_u062a_u0627_u0628 u0020 u0628_u062f_u0621 u0020 u0627_u0644_u0648_u062d_u0649 u0020 u000d", 
        "u0052_u0065_u0076_u0065_u006c_u0061_u0074_u0069_u006f_u006e", 
        "u004e_u0061_u0072_u0072_u0061_u0074_u0065_u0064 u0020 u0027_u0041_u0069_u0073_u0068_u0061_u003a_u000d", 
        "u0028_u0074_u0068_u0065 u0020 u006d_u006f_u0074_u0068_u0065_u0072 u0020 u006f_u0066 u0020 u0074_u0068_u0065 u0020 u0066_u0061_u0069_u0074_u0068_u0066_u0075_u006c u0020 u0062_u0065_u006c_u0069_u0065_u0076_u0065_u0072_u0073_u0029 u0020 u0041_u006c_u002d_u0048_u0061_u0072_u0069_u0074_u0068 u0020 u0062_u0069_u006e_u0020", 
        "u0048_u0069_u0073_u0068_u0061_u006d u0020 u0061_u0073_u006b_u0065_u0064 u0020 u0041_u006c_u006c_u0061_u0068_u0027_u0073 u0020 u004d_u0065_u0073_u0073_u0065_u006e_u0067_u0065_u0072 u0020 u0028_ufdfa_u0029 u0020 u0022_u004f u0020 u0041_u006c_u006c_u0061_u0068_u0027_u0073_u0020", 
        "u004d_u0065_u0073_u0073_u0065_u006e_u0067_u0065_u0072 u0020 u0028_ufdfa_u0029_u0021 u0020 u0048_u006f_u0077 u0020 u0069_u0073 u0020 u0074_u0068_u0065 u0020 u0044_u0069_u0076_u0069_u006e_u0065 u0020 u0049_u006e_u0073_u0070_u0069_u0072_u0061_u0074_u0069_u006f_u006e_u0020", 
        "u0072_u0065_u0076_u0065_u0061_u006c_u0065_u0064 u0020 u0074_u006f u0020 u0079_u006f_u0075_u003f_u0022 u0020 u0041_u006c_u006c_u0061_u0068_u0027_u0073 u0020 u004d_u0065_u0073_u0073_u0065_u006e_u0067_u0065_u0072 u0020 u0028_ufdfa_u0029 u0020 u0072_u0065_u0070_u006c_u0069_u0065_u0064_u002c_u0020", 
        "u0022_u0053_u006f_u006d_u0065_u0074_u0069_u006d_u0065_u0073 u0020 u0069_u0074 u0020 u0069_u0073 u0020 u0028_u0072_u0065_u0076_u0065_u0061_u006c_u0065_u0064_u0029 u0020 u006c_u0069_u006b_u0065 u0020 u0074_u0068_u0065 u0020 u0072_u0069_u006e_u0067_u0069_u006e_u0067 u0020 u006f_u0066 u0020 u0061_u0020", 
        "u0062_u0065_u006c_u006c_u002c u0020 u0074_u0068_u0069_u0073 u0020 u0066_u006f_u0072_u006d u0020 u006f_u0066 u0020 u0049_u006e_u0073_u0070_u0069_u0072_u0061_u0074_u0069_u006f_u006e u0020 u0069_u0073 u0020 u0074_u0068_u0065 u0020 u0068_u0061_u0072_u0064_u0065_u0073_u0074 u0020 u006f_u0066 u0020 u0061_u006c_u006c_u0020", 
        "u0061_u006e_u0064 u0020 u0074_u0068_u0065_u006e u0020 u0074_u0068_u0069_u0073 u0020 u0073_u0074_u0061_u0074_u0065 u0020 u0070_u0061_u0073_u0073_u0065_u0073 u0020 u006f_u0066_u0066 u0020 u0061_u0066_u0074_u0065_u0072 u0020 u0049 u0020 u0068_u0061_u0076_u0065_u0020", 
        "u0067_u0072_u0061_u0073_u0070_u0065_u0064 u0020 u0077_u0068_u0061_u0074 u0020 u0069_u0073 u0020 u0069_u006e_u0073_u0070_u0069_u0072_u0065_u0064_u002e u0020 u0053_u006f_u006d_u0065_u0074_u0069_u006d_u0065_u0073 u0020 u0074_u0068_u0065 u0020 u0041_u006e_u0067_u0065_u006c_u0020", 
        "u0063_u006f_u006d_u0065_u0073 u0020 u0069_u006e u0020 u0074_u0068_u0065 u0020 u0066_u006f_u0072_u006d u0020 u006f_u0066 u0020 u0061 u0020 u006d_u0061_u006e u0020 u0061_u006e_u0064 u0020 u0074_u0061_u006c_u006b_u0073 u0020 u0074_u006f u0020 u006d_u0065 u0020 u0061_u006e_u0064_u0020", 
        "u0049 u0020 u0067_u0072_u0061_u0073_u0070 u0020 u0077_u0068_u0061_u0074_u0065_u0076_u0065_u0072 u0020 u0068_u0065 u0020 u0073_u0061_u0079_u0073_u002e_u0022 u0020 u0027_u0041_u0069_u0073_u0068_u0061 u0020 u0061_u0064_u0064_u0065_u0064_u003a u0020 u0056_u0065_u0072_u0069_u006c_u0079 u0020 u0049_u0020", 
        "u0073_u0061_u0077 u0020 u0074_u0068_u0065 u0020 u0050_u0072_u006f_u0070_u0068_u0065_u0074 u0020 u0028_ufdfa_u0029 u0020 u0062_u0065_u0069_u006e_u0067 u0020 u0069_u006e_u0073_u0070_u0069_u0072_u0065_u0064 u0020 u0064_u0069_u0076_u0069_u006e_u0065_u006c_u0079 u0020 u006f_u006e u0020 u0061_u0020", 
        "u0076_u0065_u0072_u0079 u0020 u0063_u006f_u006c_u0064 u0020 u0064_u0061_u0079 u0020 u0061_u006e_u0064 u0020 u006e_u006f_u0074_u0069_u0063_u0065_u0064 u0020 u0074_u0068_u0065 u0020 u0073_u0077_u0065_u0061_u0074 u0020 u0064_u0072_u006f_u0070_u0070_u0069_u006e_u0067_u0020", 
        "u0066_u0072_u006f_u006d u0020 u0068_u0069_u0073 u0020 u0066_u006f_u0072_u0065_u0068_u0065_u0061_u0064 u0020 u0028_u0061_u0073 u0020 u0074_u0068_u0065 u0020 u0049_u006e_u0073_u0070_u0069_u0072_u0061_u0074_u0069_u006f_u006e u0020 u0077_u0061_u0073 u0020 u006f_u0076_u0065_u0072_u0029_u002e_u0020", 
        "u0022_u200f u0020 u0623_u064e_u062d_u0652_u064a_u064e_u0627_u0646_u064b_u0627 u0020 u064a_u064e_u0623_u0652_u062a_u0650_u064a_u0646_u0650_u064a u0020 u0645_u0650_u062b_u0652_u0644_u064e_u0020", 
        "u0635_u064e_u0644_u0652_u0635_u064e_u0644_u064e_u0629_u0650 u0020 u0627_u0644_u0652_u062c_u064e_u0631_u064e_u0633_u0650 u0020 u0640 u0020 u0648_u064e_u0647_u064f_u0648_u064e_u0020", 
        "u0623_u064e_u0634_u064e_u062f_u0651_u064f_u0647_u064f u0020 u0639_u064e_u0644_u064e_u0649_u0651_u064e u0020 u0640 u0020 u0641_u064e_u064a_u064f_u0641_u0652_u0635_u064e_u0645_u064f u0020 u0639_u064e_u0646_u0651_u0650_u064a_u0020", 
        "u0648_u064e_u0642_u064e_u062f_u0652 u0020 u0648_u064e_u0639_u064e_u064a_u0652_u062a_u064f u0020 u0639_u064e_u0646_u0652_u0647_u064f u0020 u0645_u064e_u0627 u0020 u0642_u064e_u0627_u0644_u064e_u060c_u0020", 
        "u0648_u064e_u0623_u064e_u062d_u0652_u064a_u064e_u0627_u0646_u064b_u0627 u0020 u064a_u064e_u062a_u064e_u0645_u064e_u062b_u0651_u064e_u0644_u064f u0020 u0644_u0650_u064a_u064e u0020 u0627_u0644_u0652_u0645_u064e_u0644_u064e_u0643_u064f_u0020", 
        "u0631_u064e_u062c_u064f_u0644_u0627_u064b u0020 u0641_u064e_u064a_u064f_u0643_u064e_u0644_u0651_u0650_u0645_u064f_u0646_u0650_u064a u0020 u0641_u064e_u0623_u064e_u0639_u0650_u064a u0020 u0645_u064e_u0627_u0020", 
        "u064a_u064e_u0642_u064f_u0648_u0644_u064f u0020 u200f_u0022_u200f_u200f"
    ]
}