{
    "bounding_box": [
        [
            93, 
            54, 
            583, 
            22
        ], 
        [
            38, 
            77, 
            616, 
            18
        ], 
        [
            49, 
            96, 
            605, 
            18
        ], 
        [
            595, 
            116, 
            59, 
            14
        ], 
        [
            69, 
            136, 
            607, 
            19
        ], 
        [
            47, 
            156, 
            607, 
            16
        ], 
        [
            80, 
            174, 
            574, 
            16
        ], 
        [
            512, 
            191, 
            142, 
            13
        ], 
        [
            56, 
            209, 
            620, 
            19
        ], 
        [
            46, 
            230, 
            608, 
            16
        ], 
        [
            57, 
            247, 
            597, 
            16
        ], 
        [
            41, 
            264, 
            613, 
            16
        ], 
        [
            39, 
            282, 
            615, 
            16
        ], 
        [
            43, 
            299, 
            611, 
            16
        ], 
        [
            74, 
            316, 
            580, 
            16
        ], 
        [
            38, 
            334, 
            616, 
            16
        ], 
        [
            42, 
            351, 
            612, 
            16
        ], 
        [
            364, 
            368, 
            290, 
            16
        ], 
        [
            51, 
            386, 
            625, 
            19
        ], 
        [
            239, 
            407, 
            415, 
            16
        ], 
        [
            61, 
            425, 
            615, 
            19
        ], 
        [
            412, 
            446, 
            243, 
            15
        ]
    ], 
    "image_height": 540, 
    "image_width": 720, 
    "transcription": [
        "u062b_u0627_u0644_u062b u0020 u0645_u0628_u062f_u0623 u0020 u0645_u0647_u0645 u0020 u0641_u0649 u0020 u0627_u0644_u0645_u0642_u0627_u0628_u0644_u0629 u0020 u0627_u0644_u0645_u062d_u0641_u0632_u0629 u0020 u0647_u0648 u0020 u0623_u0646 u0020 u064a_u062a_u062c_u0646_u0628 u0020 u0627_u0644_u0645_u0631_u0634_u062f u0020 u0627_u0644_u0645_u0646_u0627_u0642_u0634_u0629 u0020 u0627_u0644_u062c_u062f_u0644_u064a_u0629 u0020 u0648_u0627_u0644_u062d_u0648_u0627_u0631 u0020 u0627_u0644_u062d_u0627_u062f u0020 u0645_u0639_u0020", 
        "u0627_u0644_u0645_u0631_u064a_u0636 u0020 u0028_u0631_u0623_u0633_u0627_u064b u0020 u0628_u0631_u0623_u0633_u0029_u002e u0020 u0625_u0646 u0020 u0645_u0645_u0627 u0020 u0644_u0627 u0020 u064a_u0631_u063a_u0628 u0020 u0641_u064a_u0647 u0020 u0647_u0648 u0020 u0623_u0646 u0020 u064a_u062a_u062d_u0648_u0644 u0020 u0627_u0644_u0645_u0648_u0642_u0641 u0020 u0625_u0644_u0649 u0020 u0623_u0646 u0020 u064a_u062c_u0627_u062f_u0644 u0020 u0627_u0644_u0645_u0631_u0634_u062f u0020 u0627_u0644_u0645_u0631_u064a_u0636_u0020", 
        "u0628_u0623_u0646_u0647 u0020 u0644_u062f_u064a_u0647 u0020 u0645_u0634_u0643_u0644_u0629 u0020 u0648_u064a_u062d_u062a_u0627_u062c u0020 u0644_u0644_u062a_u063a_u064a_u064a_u0631 u0020 u0628_u064a_u0646_u0645_u0627 u0020 u064a_u062f_u0627_u0641_u0639 u0020 u0627_u0644_u0645_u0631_u064a_u0636 u0020 u0639_u0646 u0020 u0646_u0641_u0633_u0647 u0020 u0648_u064a_u0643_u0648_u0646 u0020 u0644_u0647 u0020 u0648_u062c_u0647_u0629 u0020 u0646_u0638_u0631 u0020 u0623_u062e_u0631_u064a u0020 u062a_u062c_u0627_u0647_u0020", 
        "u0627_u0644_u0645_u0634_u0643_u0644_u0629_u002e_u000d", 
        "u0625_u0646 u0020 u0647_u062f_u0641 u0020 u0627_u0644_u0645_u0642_u0627_u0628_u0644_u0629 u0020 u0627_u0644_u0645_u062d_u0641_u0632_u0629 u0020 u0647_u0648 u0020 u0627_u0644_u0645_u062c_u0627_u0628_u0647_u0629 u0020 u0643_u064a u0020 u062a_u0632_u064a_u062f u0020 u0645_u0646 u0020 u0648_u0639_u064a u0020 u0627_u0644_u0645_u0631_u064a_u0636 u0020 u0628_u0645_u0634_u0627_u0643_u0644_u0647 u0020 u0648_u062d_u0627_u062c_u062a_u0647 u0020 u0644_u0639_u0645_u0644 u0020 u0634_u064a_u0621 u0020 u0644_u062d_u0644_u0647_u0627_u060c u0020 u0644_u0643_u0646_u0020", 
        "u0627_u0644_u0645_u0644_u0627_u062d_u0638_u0629 u0020 u0627_u0644_u062f_u0642_u064a_u0642_u0629 u0020 u0644_u0647_u0630_u0627 u0020 u0627_u0644_u0623_u0633_u0644_u0648_u0628 u0020 u0627_u0644_u0625_u0631_u0634_u0627_u062f_u064a u0020 u0642_u062f u0020 u0644_u0627 u0020 u064a_u0639_u0646_u064a u0020 u0628_u0647_u0627 u0020 u0627_u0644_u0645_u062c_u0627_u0628_u0647_u0629_u002e u0020 u0625_u0646 u0020 u0623_u062d_u062f u0020 u0627_u0644_u0645_u0639_u0627_u0644_u062c_u064a_u0646 u0020 u0630_u0648_u064a u0020 u0627_u0644_u062e_u0628_u0631_u0629 u0020 u0641_u0649 u0020 u0648_u0631_u0634_u0629_u0020", 
        "u0627_u0644_u0639_u0645_u0644 u0020 u0627_u0644_u062a_u064a u0020 u0623_u0642_u0645_u0646_u0627_u0647_u0627 u0020 u0623_u0637_u0644_u0642 u0020 u0639_u0644_u064a_u0647_u0627 u0020 u0028_u0627_u0644_u0645_u062c_u0627_u0628_u0647_u0629 u0020 u0627_u0644_u0646_u0627_u0639_u0645_u0629_u0029 u0020 u0644_u0627_u0628_u062f u0020 u0645_u0646 u0020 u0627_u0633_u062a_u062e_u062f_u0627_u0645 u0020 u0623_u0633_u0644_u0648_u0628 u0020 u0625_u0642_u0646_u0627_u0639 u0020 u0633_u0644_u0633 u0020 u0648_u0631_u0642_u064a_u0642 u0020 u0644_u062a_u0624_u062a_u064a_u0020", 
        "u0627_u0644_u0645_u0642_u0627_u0628_u0644_u0629 u0020 u0627_u0644_u0645_u062d_u0641_u0632_u0629 u0020 u062b_u0645_u0627_u0631_u0647_u0627_u002e_u000d", 
        "u0625_u0646 u0020 u0627_u0644_u0645_u0646_u0627_u0642_u0634_u0627_u062a u0020 u0627_u0644_u062c_u062f_u0644_u064a_u0629 u0020 u062a_u0645_u064a_u0644 u0020 u0625_u0644_u064a u0020 u0625_u0638_u0647_u0627_u0631 u0020 u0645_u0642_u0627_u0648_u0645_u0629 u0020 u0627_u0644_u0645_u0631_u064a_u0636 u0020 u0648_u062a_u062f_u0641_u0639_u0647_u0645 u0020 u0625_u0644_u0649 u0020 u0627_u063a_u062a_u0635_u0627_u0628 u0020 u0627_u0644_u062d_u0631_u064a_u0629 u0020 u0641_u0649 u0020 u0641_u0639_u0644 u0020 u0645_u0627 u0020 u064a_u0631_u064a_u062f_u0648_u0646_u0647_u002e u0020 u0644_u0623_u0646_u0647_u0020", 
        "u0637_u0627_u0644_u0645_u0627 u0020 u0642_u0644_u062a u0020 u0644_u0634_u062e_u0635 u0020 u0645_u0627_u003a u0020 u0022_u0623_u0646_u062a u0020 u0644_u0627 u0020 u062a_u0642_u062f_u0631 u0020 u0639_u0644_u0649 u0020 u0641_u0639_u0644 u0020 u0643_u0630_u0627_u0022 u0020 u0641_u0625_u0646 u0020 u0630_u0644_u0643 u0020 u0627_u0644_u0634_u062e_u0635 u0020 u0633_u064a_u0633_u062a_u062c_u064a_u0628 u0020 u0641_u0648_u0631_u0627_u064b u0020 u0648_u064a_u0642_u0648_u0644_u003a u0020 u0022_u0633_u0623_u0642_u062f_u0631 u0020 u0639_u0644_u0649_u0020", 
        "u0641_u0639_u0644_u0647_u0022 u0020 u0623_u064a u0020 u0646_u062d_u0641_u0632_u0647 u0020 u0628_u0625_u0638_u0647_u0627_u0631 u0020 u0636_u0639_u0641_u0647 u0020 u0644_u064a_u0638_u0647_u0631 u0020 u0642_u0648_u062a_u0647 u0020 u0640 u0020 u062f_u0627_u0641_u0639 u0020 u0628_u0642_u0648_u0629 u0020 u0639_u0646 u0020 u0645_u0648_u0642_u0639_u0643 u0020 u0640 u0020 u0028_u0645_u062b_u0627_u0644 u0020 u0630_u0644_u0643_u003a u0020 u0022_u0623_u0646_u062a u0020 u0644_u062f_u064a_u0643 u0020 u0645_u0634_u0643_u0644_u0629 u0020 u0648_u064a_u062c_u0628_u0020", 
        "u0639_u0644_u064a_u0643 u0020 u0623_u0646 u0020 u062a_u062a_u063a_u064a_u0631_u0022_u0029 u0020 u0642_u062f u0020 u062a_u0624_u062f_u064a u0020 u0625_u0644_u0649 u0020 u062a_u0637_u0648_u064a_u0631 u0020 u0645_u0648_u0642_u0641 u0020 u0645_u0636_u0627_u062f u0020 u0648_u0645_u062f_u0627_u0641_u0639 u0020 u0645_u0646 u0020 u0642_u0628_u0644 u0020 u0627_u0644_u0645_u0631_u064a_u0636 u0020 u0628_u0631_u0641_u0636_u0647 u0020 u0644_u0644_u062a_u063a_u064a_u064a_u0631 u0020 u0627_u0644_u0645_u0641_u0631_u0648_u0636 u0020 u0639_u0644_u064a_u0647_u060c_u0020", 
        "u0648_u0643_u0645_u0627 u0020 u0646_u0627_u0642_u0634_u0646_u0627 u0020 u0641_u0649 u0020 u0627_u0644_u062c_u0632_u0621 u0020 u0627_u0644_u0623_u0648_u0644 u0020 u0641_u0625_u0646 u0020 u0627_u0644_u0645_u0642_u0627_u0648_u0645_u0629 u0020 u0623_u062b_u0646_u0627_u0621 u0020 u0627_u0644_u0639_u0644_u0627_u062c u0020 u062a_u0646_u0628_u0626 u0020 u0628_u0641_u0634_u0644 u0020 u0627_u0644_u062a_u063a_u064a_u064a_u0631_u002e u0020 u0644_u0647_u0630_u0647 u0020 u0627_u0644_u0623_u0633_u0628_u0627_u0628 u0020 u0641_u0625_u0646 u0020 u0627_u0644_u0647_u062f_u0641 u0020 u0627_u0644_u0623_u0633_u0627_u0633_u064a_u0020", 
        "u0644_u0644_u0645_u0642_u0627_u0628_u0644_u0629 u0020 u0627_u0644_u0645_u062d_u0641_u0632_u0629 u0020 u0647_u0648 u0020 u0623_u0646 u0020 u0646_u062a_u062c_u0646_u0628 u0020 u0625_u0634_u0639_u0627_u0644 u0020 u0645_u0642_u0627_u0648_u0645_u0629 u0020 u0627_u0644_u0645_u0631_u064a_u0636_u002e u0020 u0648_u0639_u0646_u062f_u0645_u0627 u0020 u062a_u0628_u062f_u0623 u0020 u0627_u0644_u0645_u0642_u0627_u0648_u0645_u0629 u0020 u064a_u062c_u0628 u0020 u0639_u0644_u0649 u0020 u0627_u0644_u0645_u0639_u0627_u0644_u062c u0020 u0623_u0646 u0020 u064a_u063a_u064a_u0631 u0020 u0645_u0646_u0020", 
        "u0627_u0633_u062a_u0631_u0627_u062a_u064a_u062c_u064a_u062a_u0647 u0020 u0645_u0646 u0020 u0627_u0644_u0645_u0648_u0627_u0636_u0639 u0020 u0627_u0644_u062a_u064a u0020 u064a_u0646_u0634_u0623 u0020 u0641_u064a_u0647_u0627 u0020 u0627_u0644_u0645_u0646_u0627_u0642_u0634_u0629 u0020 u0627_u0644_u062c_u062f_u0644_u064a_u0629 u0020 u0640 u0020 u0628_u062e_u0627_u0635_u0629 u0020 u0640 u0020 u0641_u0649 u0020 u0625_u0631_u0634_u0627_u062f u0020 u0627_u0644_u0633_u0644_u0648_u0643 u0020 u0627_u0644_u0625_u062f_u0645_u0627_u0646_u0649 u0020 u0646_u062a_u064a_u062c_u0629_u0020", 
        "u0644_u0644_u062a_u0634_u062e_u064a_u0635 u0020 u0627_u0644_u0642_u0627_u0626_u0645 u0020 u0639_u0644_u0649 u0020 u0625_u0644_u0635_u0627_u0642 u0020 u0628_u0637_u0627_u0642_u0629 u0020 u0645_u0631_u0636_u064a_u0629 u0020 u0639_u0644_u0649 u0020 u0627_u0644_u0634_u062e_u0635_u002e u0020 u0641_u0628_u0639_u0636 u0020 u0627_u0644_u0645_u0631_u0634_u062f_u064a_u0646 u0020 u064a_u0639_u0648_u0644_u0648_u0646 u0020 u0623_u0647_u0645_u064a_u0629 u0020 u0643_u0628_u0631_u064a u0020 u0639_u0644_u0649 u0020 u0642_u0627_u0628_u0644_u064a_u0629_u0020", 
        "u0627_u0644_u0645_u0631_u064a_u0636 u0020 u0644_u0644_u0627_u0639_u062a_u0631_u0627_u0641 u0020 u0628_u0648_u062c_u0648_u062f u0020 u0645_u0634_u0643_u0644_u0629 u0020 u0645_u062b_u0644 u0020 u0022_u0625_u062f_u0645_u0627_u0646 u0020 u062a_u0639_u0627_u0637_u064a u0020 u0627_u0644_u0643_u062d_u0648_u0644_u0022 u0020 u0028_u0641_u0649 u0020 u0627_u0644_u0648_u0627_u0642_u0639 u0020 u0641_u0625_u0646 u0020 u0623_u063a_u0644_u0628 u0020 u0627_u0644_u0645_u0634_u0627_u0643_u0644 u0020 u063a_u0627_u0644_u0628_u0627_u064b u0020 u0645_u0627 u0020 u064a_u0643_u0648_u0646_u0020", 
        "u0647_u0646_u0627_u0643 u0020 u062a_u0631_u0643_u064a_u0632 u0020 u0642_u0644_u064a_u0644 u0020 u0639_u0644_u0649 u0020 u062a_u0642_u0628_u0644 u0020 u0644_u0645_u062c_u0631_u062f u0020 u062a_u0634_u062e_u064a_u0635 u0020 u062d_u0627_u0644_u062a_u0647_u0029_u002e_u000d", 
        "u0625_u0646 u0020 u0645_u062d_u0627_u0648_u0644_u0629 u0020 u0625_u062c_u0628_u0627_u0631 u0020 u0627_u0644_u0645_u0631_u064a_u0636 u0020 u0644_u062a_u0642_u0628_u0644 u0020 u0627_u0644_u062a_u0634_u062e_u064a_u0635 u0020 u064a_u0645_u0643_u0646 u0020 u0623_u0646 u0020 u064a_u0642_u0627_u0648_u0645 u0020 u0627_u0644_u0639_u0644_u0627_u062c_u060c u0020 u0639_u0644_u0649 u0020 u0627_u0644_u0631_u063a_u0645 u0020 u0645_u0646 u0020 u0630_u0644_u0643 u0020 u0641_u0625_u0646_u0647 u0020 u0644_u0627 u0020 u064a_u0648_u062c_u062f u0020 u062f_u0644_u064a_u0644 u0020 u064a_u0642_u062a_u0631_u062d_u0020", 
        "u0628_u0623_u0646 u0020 u0634_u0641_u0627_u0621 u0020 u0627_u0644_u0645_u0631_u064a_u0636 u0020 u064a_u0646_u062a_u062c u0020 u0645_u0646 u0020 u0625_u0642_u0646_u0627_u0639_u0647 u0020 u0628_u0627_u0644_u0627_u0639_u062a_u0631_u0627_u0641 u0020 u0628_u0627_u0644_u062a_u0634_u062e_u064a_u0635 u0020 u0627_u0644_u0637_u0628_u064a u0020 u0644_u062d_u0627_u0644_u062a_u0647_u002e u0020 u000d", 
        "u0648_u0646_u062d_u0646 u0020 u0646_u0646_u0635_u062d u0020 u0628_u0623_u0646 u0020 u0646_u0628_u062f_u0623 u0020 u0645_u0639 u0020 u0627_u0644_u0645_u0631_u064a_u0636 u0020 u0645_u0646 u0020 u062d_u064a_u062b u0020 u0648_u0635_u0644 u0020 u0648_u0646_u0642_u0648_u064a u0020 u0645_u0646 u0020 u0648_u0639_u064a u0020 u0627_u0644_u0645_u0631_u064a_u0636 u0020 u0627_u0644_u0634_u062e_u0635_u064a u0020 u0648_u0630_u0644_u0643 u0020 u0639_u0646 u0020 u0637_u0631_u064a_u0642 u0020 u0637_u0631_u0642_u0020", 
        "u0641_u0639_u0627_u0644_u0629 u0020 u0648_u0644_u064a_u0633 u0020 u0639_u0646 u0020 u0637_u0631_u064a_u0642 u0020 u0627_u0644_u0645_u0646_u0627_u0642_u0634_u0627_u062a u0020 u0627_u0644_u062c_u062f_u0644_u064a_u0629_u002e_u000d"
    ]
}