{
    "bounding_box": [
        [
            185, 
            43, 
            348, 
            48
        ], 
        [
            101, 
            136, 
            564, 
            31
        ], 
        [
            89, 
            169, 
            543, 
            37
        ], 
        [
            81, 
            207, 
            552, 
            37
        ], 
        [
            405, 
            249, 
            228, 
            33
        ]
    ], 
    "image_height": 540, 
    "image_width": 720, 
    "transcription": [
        "u0627_u0644_u062a_u063a_u064a_u0631 u0020 u0641_u064a u0020 u0627_u0644_u062a_u0631_u0643_u064a_u0628_u0629 u0020 u0627_u0644_u0633_u0643_u0627_u0646_u064a_u0629", 
        "u0648_u064a_u0644_u0627_u062d_u0638 u0020 u0641_u064a u0020 u0627_u0644_u062a_u0631_u0643_u064a_u0628 u0020 u0627_u0644_u0645_u0639_u0627_u0635_u0631 u0020 u0639_u062f_u0645 u0020 u0648_u062c_u0648_u062f u0020 u0628_u0639_u0636 u0020 u0627_u0644_u0637_u0628_u0642_u0627_u062a_u0020", 
        "u0627_u0644_u0627_u062c_u062a_u0645_u0627_u0639_u064a_u0629 u0020 u0627_u0644_u062a_u064a u0020 u0643_u0627_u0646_u062a u0020 u0645_u0648_u062c_u0648_u062f_u0629 u0020 u0641_u064a u0020 u0641_u062a_u0631_u0629 u0020 u0645_u0627 u0020 u0642_u0628_u0644 u0020 u0627_u0643_u062a_u0634_u0627_u0641_u0020", 
        "u0627_u0644_u0646_u0641_u0637 u0020 u060c u0020 u0645_u062b_u0644 u0020 u0637_u0628_u0642_u0629 u0020 u0634_u064a_u0648_u062e u0020 u0627_u0644_u0642_u0628_u0627_u0626_u0644_u060c u0020 u0648_u0637_u0628_u0642_u0629 u0020 u0627_u0644_u0625_u062e_u0648_u0627_u0646_u060c u0020 u0648_u0637_u0628_u0642_u0629_u0020", 
        "u0627_u0644_u0635_u0646_u0627_u0639_u060c u0020 u0648_u0637_u0628_u0642_u0629 u0020 u0627_u0644_u0639_u0628_u064a_u062f_u002e_u000d"
    ]
}