{
    "bounding_box": [
        [
            644, 
            500, 
            14, 
            10
        ], 
        [
            550, 
            52, 
            161, 
            15
        ], 
        [
            20, 
            71, 
            664, 
            18
        ], 
        [
            10, 
            91, 
            675, 
            16
        ], 
        [
            3, 
            108, 
            681, 
            16
        ], 
        [
            347, 
            127, 
            337, 
            15
        ], 
        [
            18, 
            145, 
            667, 
            18
        ], 
        [
            40, 
            164, 
            645, 
            16
        ], 
        [
            27, 
            182, 
            657, 
            16
        ], 
        [
            18, 
            199, 
            667, 
            16
        ], 
        [
            162, 
            216, 
            523, 
            15
        ], 
        [
            25, 
            235, 
            660, 
            19
        ], 
        [
            376, 
            255, 
            309, 
            16
        ], 
        [
            14, 
            273, 
            670, 
            19
        ], 
        [
            116, 
            294, 
            569, 
            15
        ], 
        [
            250, 
            313, 
            434, 
            18
        ], 
        [
            343, 
            333, 
            341, 
            20
        ], 
        [
            6, 
            356, 
            679, 
            19
        ], 
        [
            46, 
            376, 
            639, 
            16
        ], 
        [
            627, 
            393, 
            58, 
            14
        ], 
        [
            23, 
            413, 
            662, 
            18
        ], 
        [
            7, 
            432, 
            678, 
            16
        ], 
        [
            623, 
            452, 
            62, 
            14
        ]
    ], 
    "image_height": 540, 
    "image_width": 720, 
    "transcription": [
        "u0032_u0036", 
        "u062a_u0639_u0628_u064a_u0631_u0627_u062a u0020 u0627_u0644_u0648_u062c_u0647 u0020 u0648_u0644_u063a_u0629 u0020 u0627_u0644_u0639_u064a_u0648_u0646_u003a_u000d", 
        "u064a_u0639_u062a_u0628_u0631 u0020 u0627_u0644_u0648_u062c_u0647 u0020 u0623_u0643_u062b_u0631 u0020 u0623_u062c_u0632_u0627_u0621 u0020 u0627_u0644_u062c_u0633_u0645 u0020 u0648_u0636_u0648_u062d_u0627 u0020 u0648_u062a_u0639_u0628_u064a_u0631_u0627 u0020 u0639_u0646 u0020 u0627_u0644_u0639_u0648_u0627_u0637_u0641 u0020 u0648_u0627_u0644_u0645_u0634_u0627_u0639_u0631 u0020 u0648_u0623_u0643_u062b_u0631_u0647_u0627 u0020 u0641_u064a u0020 u0646_u0642_u0644 u0020 u0627_u0644_u0645_u0639_u0627_u0646_u064a_u060c u0020 u0643_u0645_u0627 u0020 u0623_u0646_u0647 u0020 u0623_u0643_u062b_u0631 u0020 u0627_u0644_u0623_u062c_u0632_u0627_u0621_u0020", 
        "u0635_u0639_u0648_u0628_u0629 u0020 u0641_u064a u0020 u0641_u0647_u0645 u0020 u0627_u0644_u062a_u0639_u0628_u064a_u0631_u0627_u062a u0020 u0627_u0644_u062a_u064a u0020 u062a_u0635_u062f_u0631 u0020 u0639_u0646_u0647_u060c u0020 u0648_u064a_u0642_u0648_u0644 u0020 u0623_u062d_u062f u0020 u062e_u0628_u0631_u0627_u0621 u0020 u0627_u0644_u0627_u062a_u0635_u0627_u0644 u0020 u0623_u0646 u0020 u0627_u0644_u0648_u062c_u0647 u0020 u0642_u0627_u062f_u0631 u0020 u0639_u0644_u0649 u0020 u0623_u0646 u0020 u064a_u0639_u0631_u0628 u0020 u0639_u0646 u0020 u0032_u0035_u0030_u0030_u0030_u0030 u0020 u062a_u0639_u0628_u064a_u0631_u0020", 
        "u0645_u062e_u062a_u0644_u0641_u002e u0020 u0648_u064a_u0645_u0643_u0646 u0020 u0627_u0644_u0642_u0648_u0644 u0020 u0623_u0646 u0020 u0647_u0646_u0627_u0643 u0020 u0639_u0644_u0649 u0020 u0627_u0644_u0623_u0642_u0644 u0020 u0633_u062a_u0629 u0020 u0623_u0646_u0648_u0627_u0639 u0020 u0645_u0646 u0020 u0627_u0644_u0639_u0648_u0627_u0637_u0641 u0020 u0627_u0644_u062a_u064a u0020 u064a_u0645_u0643_u0646 u0020 u0627_u0644_u062a_u0639_u0628_u064a_u0631 u0020 u0639_u0646_u0647_u0627 u0020 u0628_u0627_u0633_u062a_u062e_u062f_u0627_u0645 u0020 u0627_u0644_u0648_u062c_u0647 u0020 u0648_u0647_u064a u0020 u0627_u0644_u062a_u0639_u0628_u064a_u0631 u0020 u0639_u0646_u0020", 
        "u0627_u0644_u0633_u0639_u0627_u062f_u0629 u0020 u0648_u0627_u0644_u063a_u0636_u0628_u060c u0020 u0648_u0627_u0644_u062f_u0647_u0634_u0629 u0020 u0648_u0627_u0644_u062d_u0632_u0646_u060c u0020 u0648_u0627_u0644_u0627_u0634_u0645_u0626_u0632_u0627_u0632_u060c u0020 u0648_u0627_u0644_u062e_u0648_u0641_u002e_u000d", 
        "u0648_u0623_u0643_u062b_u0631 u0020 u0645_u0646_u0627_u0637_u0642 u0020 u0627_u0644_u0648_u062c_u0647 u0020 u062a_u0639_u0628_u064a_u0631_u0627 u0020 u0647_u064a u0020 u0645_u0646_u0637_u0642_u0629 u0020 u0627_u0644_u0639_u064a_u0646_u064a_u0646_u060c u0020 u0641_u0627_u0644_u0639_u064a_u0646_u0627_u0646 u0020 u0645_u0646 u0020 u0627_u0644_u0623_u062f_u0648_u0627_u062a u0020 u0627_u0644_u0627_u0633_u062a_u0631_u0627_u062a_u064a_u062c_u064a_u0629 u0020 u0641_u064a u0020 u0646_u0642_u0644 u0020 u0627_u0644_u0631_u0633_u0627_u0626_u0644 u0020 u0648_u0627_u0644_u0645_u0639_u0627_u0646_u064a u0020 u063a_u064a_u0631 u0020 u0627_u0644_u0644_u0641_u0638_u064a_u0629_u002e_u0020", 
        "u0648_u0643_u062b_u064a_u0631_u0627 u0020 u0645_u0627 u0020 u0646_u0633_u062a_u0645_u0639 u0020 u0627_u0644_u0639_u062f_u064a_u062f u0020 u0645_u0646 u0020 u0627_u0644_u0635_u0641_u0627_u062a u0020 u0627_u0644_u0634_u062e_u0635_u064a_u0629 u0020 u0627_u0644_u062a_u064a u0020 u062a_u0631_u062a_u0628_u0637 u0020 u0628_u0627_u0644_u0639_u064a_u0646_u064a_u0646_u060c u0020 u0641_u064a_u0642_u0627_u0644 u0020 u0647_u0630_u0647 u0020 u0639_u064a_u0648_u0646 u0020 u0645_u0627_u0643_u0631_u0629_u060c u0020 u0623_u0648 u0020 u0639_u064a_u0648_u0646 u0020 u0630_u0643_u064a_u0629_u060c u0020 u0623_u0648 u0020 u0639_u064a_u0648_u0646_u0020", 
        "u0645_u062e_u0627_u062f_u0639_u0629_u060c u0020 u0648 u0020 u0639_u064a_u0648_u0646 u0020 u062d_u0627_u0644_u0645_u0629_u060c u0020 u0623_u0648 u0020 u0639_u064a_u0648_u0646 u0020 u0634_u0631_u064a_u0631_u0629_u060c u0020 u0648_u0643_u0644_u0647_u0627 u0020 u0635_u0641_u0627_u062a u0020 u0644_u0644_u062a_u0639_u0628_u064a_u0631 u0020 u0639_u0646 u0020 u0634_u062e_u0635_u064a_u0629 u0020 u0635_u0627_u062d_u0628_u0647_u0627_u060c u0020 u0648_u0623_u062d_u064a_u0627_u0646_u0627 u0020 u0645_u0627 u0020 u064a_u0642_u0639 u0020 u0627_u0644_u0645_u0633_u062a_u0642_u0628_u0644 u0020 u0636_u062d_u064a_u0629_u0020", 
        "u0644_u0633_u0648_u0621 u0020 u0641_u0647_u0645 u0020 u0627_u0644_u0631_u0633_u0627_u0626_u0644 u0020 u0627_u0644_u062a_u064a u0020 u062a_u0646_u0642_u0644_u0647_u0627 u0020 u0627_u0644_u0639_u064a_u0646_u0627_u0646 u0020 u062e_u0627_u0635_u0629 u0020 u0625_u0630_u0627 u0020 u0643_u0627_u0646 u0020 u0635_u0627_u062d_u0628_u0647_u0627 u0020 u064a_u0639_u0627_u0646_u064a u0020 u0645_u0646 u0020 u0642_u0635_u0648_u0631 u0020 u0641_u0633_u064a_u0648_u0644_u0648_u062c_u064a u0020 u0628_u0647_u0627_u002e u0020 u0641_u0642_u062f u0020 u0644_u0627 u0020 u064a_u0633_u062a_u0637_u064a_u0639 u0020 u0623_u062d_u062f u0020 u0627_u0644_u0623_u0641_u0631_u0627_u062f_u0020", 
        "u062a_u0631_u0643_u064a_u0632 u0020 u0628_u0635_u0631_u0647 u0020 u0639_u0644_u064a_u0643 u0020 u0644_u0636_u0639_u0641 u0020 u0639_u0636_u0644_u0627_u062a u0020 u0627_u0644_u0639_u064a_u0646 u0020 u0641_u062a_u0639_u062a_u0642_u062f u0020 u0623_u0646_u0647 u0020 u063a_u064a_u0631 u0020 u0645_u0643_u062a_u0631_u062b u0020 u0628_u0643 u0020 u0623_u0648 u0020 u0644_u0627 u0020 u064a_u0648_u062f u0020 u0627_u0644_u0625_u0635_u063a_u0627_u0621 u0020 u0625_u0644_u064a_u0643_u002e_u000d", 
        "u0648_u0644_u0645_u0627 u0020 u0643_u0627_u0646_u062a u0020 u0645_u0646_u0637_u0642_u0629 u0020 u0627_u0644_u0639_u064a_u0646_u064a_u0646 u0020 u0645_u0635_u062f_u0631_u0627 u0020 u0647_u0627_u0645_u0627 u0020 u0644_u0631_u0633_u0627_u0626_u0644 u0020 u0627_u0644_u0627_u062a_u0635_u0627_u0644 u0020 u063a_u064a_u0631 u0020 u0627_u0644_u0644_u0641_u0638_u064a u0020 u0641_u0642_u062f u0020 u0642_u0627_u0645 u0020 u062e_u0628_u0631_u0627_u0621 u0020 u0627_u0644_u0627_u062a_u0635_u0627_u0644 u0020 u0628_u0625_u062c_u0631_u0627_u0621 u0020 u0627_u0644_u062f_u0631_u0627_u0633_u0627_u062a u0020 u0648_u0627_u0644_u0628_u062d_u0648_u062b_u0020", 
        "u0639_u0644_u064a_u0647_u0627_u060c u0020 u0648_u062a_u062a_u0644_u062e_u0635 u0020 u0623_u0647_u0645 u0020 u0627_u0644_u0646_u062a_u0627_u0626_u062c u0020 u0627_u0644_u062a_u064a u0020 u062a_u0648_u0635_u0644_u0648_u0627 u0020 u0625_u0644_u064a_u0647_u0627 u0020 u0641_u064a_u0645_u0627 u0020 u064a_u0644_u064a_u003a_u000d", 
        "u064a_u0633_u062a_u062e_u062f_u0645 u0020 u0627_u0644_u0623_u0641_u0631_u0627_u062f u0020 u0627_u0644_u0628_u0635_u0631 u0020 u0648_u0627_u0644_u062a_u0631_u0643_u064a_u0632 u0020 u0639_u0644_u0649 u0020 u0627_u0644_u0639_u064a_u0646_u064a_u0646 u0020 u0641_u064a u0020 u062d_u0627_u0644_u0629 u0020 u0627_u0644_u0631_u063a_u0628_u0629 u0020 u0641_u064a u0020 u0627_u0644_u062d_u0635_u0648_u0644 u0020 u0639_u0644_u0649 u0020 u0627_u0633_u062a_u0631_u062c_u0627_u0639 u0020 u0627_u0644_u0645_u0639_u0644_u0648_u0645_u0627_u062a u0020 u0648_u0645_u0639_u0631_u0641_u0629 u0020 u0631_u062f_u0648_u062f u0020 u0627_u0644_u0641_u0639_u0644_u0020", 
        "u0644_u062f_u0649 u0020 u0627_u0644_u0622_u062e_u0631_u064a_u0646_u060c u0020 u0648_u0643_u0630_u0644_u0643 u0020 u0644_u0644_u0625_u0639_u0631_u0627_u0628 u0020 u0639_u0646 u0020 u0627_u0644_u0627_u0647_u062a_u0645_u0627_u0645 u0020 u0648_u0627_u0633_u062a_u0645_u0631_u0627_u0631_u064a_u0629 u0020 u0627_u0644_u0627_u062a_u0635_u0627_u0644 u0020 u0628_u064a_u0646 u0020 u0627_u0644_u0637_u0631_u0641_u064a_u0646 u0020 u0648_u0627_u0644_u0631_u063a_u0628_u0629 u0020 u0641_u064a u0020 u0627_u0644_u0645_u0634_u0627_u0631_u0643_u0629_u002e_u000d", 
        "u062a_u0632_u062f_u0627_u062f u0020 u062f_u0631_u062c_u0629 u0020 u062a_u0631_u0643_u064a_u0632 u0020 u0627_u0644_u0639_u064a_u0646_u064a_u0646 u0020 u0628_u064a_u0646 u0020 u0637_u0631_u0641_u064a u0020 u0627_u0644_u0627_u062a_u0635_u0627_u0644 u0020 u0643_u0644_u0645_u0627 u0020 u0643_u0627_u0646_u062a u0020 u0627_u0644_u0645_u0633_u0627_u0641_u0629 u0020 u0628_u064a_u0646_u0647_u0645_u0627 u0020 u0623_u0643_u062b_u0631_u002e_u000d", 
        "u064a_u0633_u062a_u062e_u062f_u0645 u0020 u062a_u0631_u0643_u064a_u0632 u0020 u0627_u0644_u0639_u064a_u0646_u064a_u0646 u0020 u0643_u0648_u0633_u064a_u0644_u0629 u0020 u0644_u0625_u062b_u0627_u0631_u0629 u0020 u0627_u0644_u0642_u0644_u0642 u0020 u0641_u064a u0020 u0627_u0644_u0637_u0631_u0641 u0020 u0627_u0644_u0622_u062e_u0631_u002e_u000d", 
        "u064a_u0642_u0644 u0020 u0627_u0633_u062a_u062e_u062f_u0627_u0645 u0020 u0627_u0644_u0628_u0635_u0631 u0020 u0648_u062a_u0631_u0643_u064a_u0632 u0020 u0627_u0644_u0639_u064a_u0646_u064a_u0646 u0020 u0641_u064a u0020 u062d_u0627_u0644_u0629 u0020 u0627_u0644_u0631_u063a_u0628_u0629 u0020 u0641_u064a u0020 u0625_u062e_u0641_u0627_u0621 u0020 u0627_u0644_u0645_u0634_u0627_u0639_u0631 u0020 u0627_u0644_u062f_u0627_u062e_u0644_u064a_u0629_u060c u0020 u0648_u0639_u0646_u062f_u0645_u0627 u0020 u062a_u0643_u0648_u0646 u0020 u0627_u0644_u0645_u0633_u0627_u0641_u0629 u0020 u0628_u064a_u0646 u0020 u0637_u0631_u0641_u064a u0020 u0627_u0644_u0627_u062a_u0635_u0627_u0644_u0020", 
        "u0642_u0635_u064a_u0631_u0629_u060c u0020 u0648_u0639_u0646_u062f_u0645_u0627 u0020 u064a_u0643_u0648_u0646 u0020 u0628_u064a_u0646_u0647_u0645_u0627 u0020 u062a_u0646_u0627_u0641_u0633 u0020 u0634_u062f_u064a_u062f_u060c u0020 u0648_u062a_u0633_u0648_u062f u0020 u0639_u0644_u0627_u0642_u0627_u062a_u0647_u0627 u0020 u062f_u0631_u062c_u0629 u0020 u0645_u0646 u0020 u0627_u0644_u0641_u062a_u0648_u0631_u060c u0020 u0648_u0641_u064a u0020 u062d_u0627_u0644_u0629 u0020 u0639_u062f_u0645 u0020 u0627_u0644_u0631_u063a_u0628_u0629 u0020 u0641_u064a u0020 u062a_u0646_u0645_u064a_u0629 u0020 u0631_u0648_u0627_u0628_u0637_u0020", 
        "u0627_u062c_u062a_u0645_u0627_u0639_u064a_u0629_u002e_u000d", 
        "u0648_u064a_u0645_u0643_u0646 u0020 u0627_u0644_u0627_u0633_u062a_u0641_u0627_u062f_u0629 u0020 u0645_u0646 u0020 u0644_u063a_u0629 u0020 u0627_u0644_u0639_u064a_u0648_u0646 u0020 u0623_u062b_u0646_u0627_u0621 u0020 u0627_u0644_u0627_u062c_u062a_u0645_u0627_u0639_u0627_u062a u0020 u0641_u064a u0020 u0627_u0644_u0639_u0645_u0644_u060c u0020 u0641_u0645_u0639_u0631_u0641_u0629 u0020 u062a_u0648_u0632_u064a_u0639 u0020 u0627_u0644_u0646_u0638_u0631_u0627_u062a u0020 u0628_u064a_u0646 u0020 u0627_u0644_u062d_u0627_u0636_u0631_u064a_u0646_u060c u0020 u0648_u0645_u0646 u0020 u064a_u0631_u0643_u0632 u0020 u0628_u0635_u0631_u0647_u0020", 
        "u0639_u0644_u0649 u0020 u0645_u0646_u060c u0020 u064a_u0633_u0627_u0639_u062f u0020 u0639_u0644_u0649 u0020 u0645_u0639_u0631_u0641_u0629 u0020 u0627_u0644_u062a_u0646_u0638_u064a_u0645_u0627_u062a u0020 u063a_u064a_u0631 u0020 u0627_u0644_u0631_u0633_u0645_u064a_u0629 u0020 u0623_u062b_u0646_u0627_u0621 u0020 u0627_u0644_u0627_u062c_u062a_u0645_u0627_u0639_u060c u0020 u0648_u0627_u0643_u062a_u0634_u0627_u0641 u0020 u0627_u0644_u0623_u0639_u0636_u0627_u0621 u0020 u0627_u0644_u0645_u0624_u064a_u062f_u064a_u0646 u0020 u0623_u0648 u0020 u0627_u0644_u0645_u0639_u0627_u0631_u0636_u064a_u0646 u0020 u0644_u0648_u062c_u0647_u0627_u062a_u0020", 
        "u0646_u0638_u0631 u0020 u0645_u0639_u064a_u0646_u0629_u002e"
    ]
}