{
    "bounding_box": [
        [
            102, 
            194, 
            584, 
            42
        ], 
        [
            175, 
            242, 
            512, 
            37
        ], 
        [
            227, 
            16, 
            290, 
            56
        ], 
        [
            135, 
            88, 
            410, 
            30
        ], 
        [
            61, 
            500, 
            15, 
            10
        ]
    ], 
    "image_height": 540, 
    "image_width": 720, 
    "transcription": [
        "u0647_u0630_u0627 u0020 u0627_u0644_u0645_u0648_u0642_u0639 u0020 u0627_u0644_u0645_u0632_u064a_u0641 u0020 u0647_u0648 u0020 u0628_u0628_u0633_u0627_u0637_u0629 u0020 u0648_u0633_u064a_u0644_u0629 u0020 u0644_u0633_u0631_u0642_u0629_u0020", 
        "u0645_u0639_u0644_u0648_u0645_u0627_u062a u0020 u0645_u0627_u0644_u064a_u0629 u0020 u0648_u0634_u062e_u0635_u064a_u0629 u0020 u062a_u0644_u0643 u0020 u0627_u0644_u0636_u062d_u064a_u0629_u002e u0020 u000d", 
        "u0647_u062c_u0645_u0627_u062a u0020 u0627_u0644_u0623_u0639_u062f_u0627_u0621", 
        "u0631_u0633_u0627_u0626_u0644 u0020 u0627_u0644_u0627_u062d_u062a_u064a_u0627_u0644 u0020 u0627_u0644_u0625_u0644_u0643_u062a_u0631_u0648_u0646_u064a u0020 u0050_u0068_u0069_u0073_u0068_u0069_u006e_u0067", 
        "u0038_u0034"
    ]
}