{
    "bounding_box": [
        [
            215, 
            33, 
            308, 
            33
        ], 
        [
            82, 
            90, 
            579, 
            29
        ], 
        [
            327, 
            123, 
            334, 
            27
        ], 
        [
            114, 
            163, 
            547, 
            25
        ], 
        [
            123, 
            194, 
            538, 
            26
        ], 
        [
            94, 
            225, 
            568, 
            25
        ], 
        [
            106, 
            259, 
            555, 
            24
        ], 
        [
            110, 
            293, 
            551, 
            25
        ], 
        [
            86, 
            322, 
            575, 
            23
        ]
    ], 
    "image_height": 540, 
    "image_width": 720, 
    "transcription": [
        "u00a0_u0627_u0644_u062f_u0631_u0633 u0020 u0034_u002d_u0035_u003a u0020 u0627_u0644_u0633_u0644_u0627_u0645_u0629 u0020 u0648_u0627_u0644_u0628_u064a_u0626_u0629", 
        "u062b_u0645_u0629 u0020 u0645_u0635_u062f_u0631 u0020 u0642_u0644_u0642 u0020 u0622_u062e_u0631 u0020 u0644_u0645_u0633_u062a_u062e_u062f_u0645_u064a u0020 u0623_u062c_u0647_u0632_u0629 u0020 u0627_u0644_u0643_u0645_u0628_u064a_u0648_u062a_u0631_u060c u0020 u064a_u062a_u062c_u0627_u0648_u0632 u0020 u0648_u062c_u0648_u062f u0020 u0628_u064a_u0626_u0629_u0020", 
        "u0645_u0631_u064a_u062d_u0629_u060c u0020 u0647_u0648 u0020 u0636_u0645_u0627_u0646 u0020 u0627_u0644_u0639_u0645_u0644 u0020 u0641_u064a u0020 u0628_u064a_u0626_u0629 u0020 u0622_u0645_u0646_u0629_u002e_u000d", 
        "u0648_u0641_u064a u0020 u0647_u0630_u0627 u0020 u0627_u0644_u062f_u0631_u0633_u060c u0020 u0633_u0646_u0644_u0642_u064a u0020 u0646_u0638_u0631_u0629 u0020 u0639_u0644_u0649 u0020 u0628_u0639_u0636 u0020 u0642_u0636_u0627_u064a_u0627 u0020 u0627_u0644_u0633_u0644_u0627_u0645_u0629 u0020 u0627_u0644_u0634_u0627_u0626_u0639_u0629_u0020", 
        "u0644_u0645_u0633_u062a_u062e_u062f_u0645_u064a u0020 u0627_u0644_u0643_u0645_u0628_u064a_u0648_u062a_u0631_u060c u0020 u0627_u0644_u0649 u0020 u062c_u0627_u0646_u0628 u0020 u0628_u0639_u0636 u0020 u0627_u0644_u0645_u062e_u0627_u0648_u0641 u0020 u0627_u0644_u0628_u064a_u0626_u064a_u0629 u0020 u0627_u0644_u0645_u062a_u0639_u0644_u0642_u0629_u0020", 
        "u0628_u0627_u0644_u0643_u0645_u0628_u064a_u0648_u062a_u0631_u002e u0020 u0648_u0628_u0634_u0643_u0644 u0020 u0623_u0643_u062b_u0631 u0020 u062a_u062d_u062f_u064a_u062f_u0627_u060c u0020 u0633_u0646_u0646_u0627_u0642_u0634 u0020 u0627_u0644_u0645_u062e_u0627_u0648_u0641 u0020 u0627_u0644_u0633_u0644_u0627_u0645_u0629 u0020 u0627_u0644_u0645_u062a_u0639_u0644_u0642_u0629_u0020", 
        "u0628_u0627_u0644_u0643_u0627_u0628_u0644_u0627_u062a u0020 u0627_u0644_u0643_u0647_u0631_u0628_u0627_u0626_u064a_u0629 u0020 u0648_u0627_u0644_u0648_u0635_u0644_u0627_u062a u0020 u0648_u0634_u0627_u0634_u0627_u062a u0020 u0627_u0644_u0643_u0645_u0628_u064a_u0648_u062a_u0631 u0020 u0628_u0627_u0644_u0625_u0636_u0627_u0641_u0629 u0020 u0627_u0644_u0649_u0020", 
        "u0627_u0644_u0645_u062e_u0627_u0648_u0641 u0020 u0627_u0644_u0628_u064a_u0626_u064a_u0629 u0020 u0627_u0644_u062a_u064a u0020 u062a_u0646_u0637_u0648_u064a u0020 u0639_u0644_u0649 u0020 u0627_u0633_u062a_u0647_u0644_u0627_u0643 u0020 u0627_u0644_u0637_u0627_u0642_u0629 u0020 u0648_u0625_u0639_u0627_u062f_u0629 u0020 u0627_u0644_u062a_u062f_u0648_u064a_u0631_u0020", 
        "u0648_u0627_u0644_u0645_u0633_u062a_u0646_u062f_u0627_u062a u0020 u0627_u0644_u0625_u0644_u0643_u062a_u0631_u0648_u0646_u064a_u0629 u0020 u0645_u0642_u0627_u0628_u0644 u0020 u0627_u0644_u0646_u0633_u062e_u0629 u0020 u0627_u0644_u0645_u0637_u0628_u0648_u0639_u0629 u0020 u0648_u0627_u0644_u0645_u0633_u062a_u0646_u062f_u0627_u062a u0020 u0627_u0644_u0648_u0631_u0642_u064a_u0629_u002e"
    ]
}