{
    "bounding_box": [
        [
            252, 
            24, 
            222, 
            29
        ], 
        [
            19, 
            56, 
            686, 
            39
        ], 
        [
            19, 
            96, 
            686, 
            32
        ], 
        [
            19, 
            132, 
            686, 
            30
        ], 
        [
            19, 
            165, 
            686, 
            30
        ], 
        [
            517, 
            199, 
            189, 
            27
        ], 
        [
            210, 
            237, 
            305, 
            29
        ], 
        [
            19, 
            280, 
            686, 
            30
        ], 
        [
            392, 
            311, 
            313, 
            31
        ], 
        [
            279, 
            350, 
            168, 
            34
        ], 
        [
            242, 
            390, 
            463, 
            34
        ], 
        [
            275, 
            432, 
            175, 
            32
        ], 
        [
            19, 
            473, 
            686, 
            32
        ], 
        [
            76, 
            506, 
            629, 
            32
        ]
    ], 
    "image_height": 540, 
    "image_width": 720, 
    "transcription": [
        "u0627_u0644_u0645_u0627_u062f_u0629 u0020 u0033_u0039_u003a u0020 u062a_u0642_u0631_u064a_u0631 u0020 u0627_u0644_u0644_u062c_u0646_u0629_u000d", 
        "u062a_u0642_u062f_u0645 u0020 u0627_u0644_u0644_u062c_u0646_u0629 u0020 u0643_u0644 u0020 u0633_u0646_u062a_u064a_u0646 u0020 u062a_u0642_u0627_u0631_u064a_u0631 u0020 u0639_u0646 u0020 u0623_u0646_u0634_u0637_u062a_u0647_u0627 u0020 u0625_u0644_u0649 u0020 u0627_u0644_u062c_u0645_u0639_u064a_u0629 u0020 u0627_u0644_u0639_u0627_u0645_u0629 u0020 u0648_u0627_u0644_u0645_u062c_u0644_u0633_u0020", 
        "u0627_u0644_u0627_u0642_u062a_u0635_u0627_u062f_u064a u0020 u0648_u0627_u0644_u0627_u062c_u062a_u0645_u0627_u0639_u064a_u060c u0020 u0648_u064a_u062c_u0648_u0632 u0020 u0644_u0647_u0627 u0020 u0623_u0646 u0020 u062a_u0642_u062f_u0645 u0020 u0627_u0642_u062a_u0631_u0627_u062d_u0627_u062a u0020 u0648_u062a_u0648_u0635_u064a_u0627_u062a u0020 u0639_u0627_u0645_u0629 u0020 u0628_u0646_u0627_u0621_u0020", 
        "u0639_u0644_u0649 u0020 u0641_u062d_u0635 u0020 u0627_u0644_u062a_u0642_u0627_u0631_u064a_u0631 u0020 u0648_u0627_u0644_u0645_u0639_u0644_u0648_u0645_u0627_u062a u0020 u0627_u0644_u0648_u0627_u0631_u062f_u0629 u0020 u0645_u0646 u0020 u0627_u0644_u062f_u0648_u0644 u0020 u0627_u0644_u0623_u0637_u0631_u0627_u0641_u002e u0020 u0648_u062a_u062f_u0631_u062c u0020 u062a_u0644_u0643_u0020", 
        "u0627_u0644_u0627_u0642_u062a_u0631_u0627_u062d_u0627_u062a u0020 u0648_u0627_u0644_u062a_u0648_u0635_u064a_u0627_u062a u0020 u0627_u0644_u0639_u0627_u0645_u0629 u0020 u0641_u064a u0020 u062a_u0642_u0631_u064a_u0631 u0020 u0627_u0644_u0644_u062c_u0646_u0629 u0020 u0625_u0644_u0649 u0020 u062c_u0627_u0646_u0628 u0020 u062a_u0639_u0644_u064a_u0642_u0627_u062a u0020 u0627_u0644_u062f_u0648_u0644_u0020", 
        "u0627_u0644_u0623_u0637_u0631_u0627_u0641_u060c u0020 u0625_u0646 u0020 u0648_u062c_u062f_u062a_u002e_u000d", 
        "u0627_u0644_u0645_u0627_u062f_u0629 u0020 u0034_u0030_u003a u0020 u0645_u0624_u062a_u0645_u0631 u0020 u0627_u0644_u062f_u0648_u0644 u0020 u0627_u0644_u0623_u0637_u0631_u0627_u0641_u000d", 
        "u062a_u062c_u062a_u0645_u0639 u0020 u0627_u0644_u062f_u0648_u0644 u0020 u0627_u0644_u0623_u0637_u0631_u0627_u0641 u0020 u0628_u0627_u0646_u062a_u0638_u0627_u0645 u0020 u0641_u064a u0020 u0645_u0624_u062a_u0645_u0631 u0020 u0644_u0644_u062f_u0648_u0644 u0020 u0627_u0644_u0623_u0637_u0631_u0627_u0641 u0020 u0628_u063a_u064a_u0629 u0020 u0627_u0644_u0646_u0638_u0631 u0020 u0641_u064a u0020 u0623_u064a_u0020", 
        "u0645_u0633_u0623_u0644_u0629 u0020 u062a_u062a_u0639_u0644_u0642 u0020 u0628_u062a_u0637_u0628_u064a_u0642 u0020 u0647_u0630_u0647 u0020 u0627_u0644_u0627_u062a_u0641_u0627_u0642_u064a_u0629_u002e_u000d", 
        "u0627_u0644_u0645_u0627_u062f_u0629 u0020 u0034_u0031_u003a u0020 u0627_u0644_u0648_u062f_u064a_u0639_u000d", 
        "u064a_u0643_u0648_u0646 u0020 u0627_u0644_u0623_u0645_u064a_u0646 u0020 u0627_u0644_u0639_u0627_u0645 u0020 u0644_u0644_u0623_u0645_u0645 u0020 u0627_u0644_u0645_u062a_u062d_u062f_u0629 u0020 u0648_u062f_u064a_u0639 u0020 u0647_u0630_u0647 u0020 u0627_u0644_u0627_u062a_u0641_u0627_u0642_u064a_u0629_u002e_u000d", 
        "u0627_u0644_u0645_u0627_u062f_u0629 u0020 u0034_u0032_u003a u0020 u0627_u0644_u062a_u0648_u0642_u064a_u0639_u000d", 
        "u064a_u0641_u062a_u062d u0020 u0628_u0627_u0628 u0020 u0627_u0644_u062a_u0648_u0642_u064a_u0639 u0020 u0639_u0644_u0649 u0020 u0647_u0630_u0647 u0020 u0627_u0644_u0627_u062a_u0641_u0627_u0642_u064a_u0629 u0020 u0644_u062c_u0645_u064a_u0639 u0020 u0627_u0644_u062f_u0648_u0644 u0020 u0648_u0644_u0645_u0646_u0638_u0645_u0627_u062a u0020 u0627_u0644_u062a_u0643_u0627_u0645_u0644 u0020 u0627_u0644_u0625_u0642_u0644_u064a_u0645_u064a_u0020", 
        "u0641_u064a u0020 u0645_u0642_u0631 u0020 u0627_u0644_u0623_u0645_u0645 u0020 u0627_u0644_u0645_u062a_u062d_u062f_u0629 u0020 u0641_u064a u0020 u0646_u064a_u0648_u064a_u0648_u0631_u0643 u0020 u0627_u0639_u062a_u0628_u0627_u0631_u0627 u0020 u0645_u0646 u0020 u0033_u0030 u0020 u0622_u0630_u0627_u0631_u002f_u0645_u0627_u0631_u0633 u0020 u0032_u0030_u0030_u0037_u002e"
    ]
}