{
    "bounding_box": [
        [
            89, 
            57, 
            540, 
            43
        ], 
        [
            76, 
            186, 
            582, 
            40
        ], 
        [
            407, 
            233, 
            262, 
            42
        ], 
        [
            99, 
            282, 
            558, 
            40
        ], 
        [
            107, 
            329, 
            550, 
            42
        ], 
        [
            172, 
            377, 
            485, 
            42
        ], 
        [
            356, 
            424, 
            301, 
            43
        ]
    ], 
    "image_height": 540, 
    "image_width": 720, 
    "transcription": [
        "u0627_u0644_u0641_u0631_u0642 u0020 u0628_u064a_u0646 u0020 u0625_u0646_u0634_u0627_u0621 u0020 u062c_u062f_u0648_u0644 u0020 u0648 u0020 u0642_u0627_u0626_u0645_u0629 u0020 u0645_u0646_u0638_u0645_u0629", 
        "u002d u0020 u0625_u0646_u0634_u0627_u0621 u0020 u0627_u0644_u062c_u062f_u0648_u0644 u0020 u064a_u064f_u0628_u0646_u0649 u0020 u0639_u0644_u0649 u0020 u0646_u0645_u0637 u0020 u0628_u064a_u0646_u0645_u0627 u0020 u0644_u0627_u064a_u064f_u0634_u062a_u0631_u0637_u0020", 
        "u0630_u0644_u0643 u0020 u0641_u064a u0020 u0625_u0646_u0634_u0627_u0621 u0020 u0642_u0627_u0626_u0645_u0629_u000d", 
        "u0020_u002d u0020 u0625_u0646_u0634_u0627_u0621 u0020 u0627_u0644_u062c_u062f_u0648_u0644 u0020 u064a_u064f_u0628_u0646_u0649 u0020 u0639_u0644_u0649 u0020 u0633_u0644_u0627_u0633_u0644 u0020 u062a_u062a_u0633_u0627_u0648_u0649_u0020", 
        "u0641_u064a u0020 u0639_u062f_u062f u0020 u0639_u0646_u0627_u0635_u0631_u0647_u0627 u0020 u0628_u064a_u0646_u0645_u0627 u0020 u0625_u0646_u0634_u0627_u0621 u0020 u0627_u0644_u0642_u0627_u0626_u0645_u0629 u0020 u064a_u064f_u0628_u0646_u0649_u0020", 
        "u0639_u0644_u0649 u0020 u0639_u062f_u0629 u0020 u0627_u062e_u062a_u064a_u0627_u0631_u0627_u062a u0020 u0642_u062f u0020 u062a_u062e_u062a_u0644_u0641 u0020 u0641_u064a u0020 u0639_u062f_u062f_u0020", 
        "u0639_u0646_u0627_u0635_u0631_u0647_u0627 u0020 u0623_u0648 u0020 u0641_u064a u0020 u062a_u0631_u062a_u064a_u0628_u0647_u0627"
    ]
}