{
    "bounding_box": [
        [
            12, 
            28, 
            641, 
            45
        ], 
        [
            12, 
            79, 
            681, 
            47
        ], 
        [
            12, 
            131, 
            681, 
            48
        ], 
        [
            12, 
            185, 
            681, 
            47
        ], 
        [
            12, 
            237, 
            681, 
            46
        ], 
        [
            12, 
            290, 
            681, 
            46
        ], 
        [
            12, 
            346, 
            681, 
            42
        ], 
        [
            12, 
            395, 
            681, 
            47
        ], 
        [
            165, 
            447, 
            528, 
            48
        ]
    ], 
    "image_height": 540, 
    "image_width": 720, 
    "transcription": [
        "u0648_u0645_u0639 u0020 u0647_u0630_u0647 u0020 u0627_u0644_u0645_u0639_u062c_u0632_u0627_u062a u0020 u0627_u0644_u062a_u0649 u0020 u062c_u0627_u0621 u0020 u0628_u0647_u0627 u0020 u0639_u064a_u0633_u0649 u0020 u0644_u0628_u0646_u064a_u0020", 
        "u0625_u0633_u0631_u0627_u0626_u064a_u0644 u0020 u0644_u0645 u0020 u064a_u0624_u0645_u0646 u0020 u0628_u0647 u0020 u0625_u0644_u0627 u0020 u0627_u0644_u0642_u0644_u064a_u0644_u060c u0020 u0648_u0627_u0633_u062a_u0645_u0631 u0020 u0623_u0643_u062b_u0631_u0647_u0645_u0020", 
        "u0639_u0644_u0649 u0020 u0643_u0641_u0631_u0647_u0645 u0020 u0648_u0639_u0646_u0627_u062f_u0647_u0645_u060c u0020 u0648_u0644_u0645 u0020 u064a_u064a_u0623_u0633 u0020 u0639_u064a_u0633_u0649 u0020 u0639_u0644_u064a_u0647_u0020", 
        "u0627_u0644_u0633_u0644_u0627_u0645 u0020 u0628_u0644 u0020 u0627_u0633_u062a_u0645_u0631 u0020 u064a_u062f_u0639_u0648_u0647_u0645 u0020 u0625_u0644_u0649 u0020 u0639_u0628_u0627_u062f_u0629 u0020 u0627_u0644_u0644_u0647_u060c u0020 u0648_u0637_u0644_u0628_u0020", 
        "u0639_u064a_u0633_u0649 u0020 u002d_u0639_u0644_u064a_u0647 u0020 u0627_u0644_u0633_u0644_u0627_u0645_u002d u0020 u0645_u0646 u0020 u0642_u0648_u0645_u0647 u0020 u0627_u0644_u0646_u0635_u0631_u0629 u0020 u0644_u062f_u064a_u0646 u0020 u0627_u0644_u0644_u0647_u0020", 
        "u0641_u0647_u062f_u0649 u0020 u0627_u0644_u0644_u0647 u0020 u0645_u062c_u0645_u0648_u0639_u0629 u0020 u0645_u0646 u0020 u0627_u0644_u0641_u0642_u0631_u0627_u0621 u0020 u0648_u0627_u0644_u0645_u0633_u0627_u0643_u064a_u0646 u0020 u0625_u0644_u0649_u0020", 
        "u0627_u0644_u0625_u064a_u0645_u0627_u0646_u060c u0020 u0641_u0643_u0627_u0646 u0020 u0647_u0624_u0644_u0627_u0621 u0020 u0647_u0645 u0020 u0627_u0644_u062d_u0648_u0627_u0631_u064a_u0648_u0646 u0020 u0627_u0644_u0630_u064a_u0646_u0020", 
        "u0627_u0635_u0637_u0641_u0627_u0647_u0645 u0020 u0627_u0644_u0644_u0647_u061b u0020 u0644_u064a_u062d_u0645_u0644_u0648_u0627 u0020 u062f_u0639_u0648_u0629 u0020 u0627_u0644_u062d_u0642_u060c u0020 u0648_u064a_u0646_u0627_u0635_u0631_u0648_u0627_u0020", 
        "u0639_u064a_u0633_u0649_u060c u0020 u0648_u0643_u0627_u0646 u0020 u0639_u062f_u062f_u0647_u0645 u0020 u0627_u062b_u0646_u064a u0020 u0639_u0634_u0631 u0020 u0631_u062c_u0644_u0627_u064b_u002e"
    ]
}