{
    "bounding_box": [
        [
            38, 
            7, 
            645, 
            34
        ], 
        [
            613, 
            48, 
            70, 
            30
        ], 
        [
            79, 
            92, 
            604, 
            30
        ], 
        [
            28, 
            129, 
            655, 
            31
        ], 
        [
            46, 
            168, 
            637, 
            31
        ], 
        [
            46, 
            202, 
            637, 
            35
        ], 
        [
            385, 
            242, 
            298, 
            32
        ], 
        [
            61, 
            289, 
            622, 
            29
        ], 
        [
            1, 
            321, 
            682, 
            35
        ], 
        [
            15, 
            365, 
            668, 
            30
        ], 
        [
            15, 
            402, 
            668, 
            28
        ], 
        [
            51, 
            440, 
            632, 
            32
        ], 
        [
            202, 
            476, 
            481, 
            34
        ]
    ], 
    "image_height": 540, 
    "image_width": 720, 
    "transcription": [
        "u0646_u0628_u0630_u0647 u0020 u0645_u062e_u062a_u0635_u0631_u0647 u0020 u0639_u0646 u0020 u0634_u0631_u0643_u0629 u0020 u0627_u0644_u062d_u0641_u0631 u0020 u0627_u0644_u0639_u0631_u0627_u0642_u064a_u0647 u0020 u0648_u0645_u0648_u0642_u0639 u0020 u0627_u0644_u0639_u0645_u0644 u0020 u0641_u064a u0020 u0634_u0631_u0642_u0020", 
        "u0628_u063a_u062f_u0627_u062f_u003a_u000d", 
        "u062a_u0639_u062a_u0628_u0631 u0020 u0634_u0631_u0643_u0629 u0020 u0627_u0644_u062d_u0641_u0631 u0020 u0627_u0644_u0639_u0631_u0627_u0642_u064a_u0647 u0020 u0647_u064a u0020 u0627_u062d_u062f_u0649 u0020 u062a_u0634_u0643_u064a_u0644_u0627_u062a u0020 u0648_u0632_u0627_u0631_u0629 u0020 u0627_u0644_u0646_u0641_u0637_u0020", 
        "u0627_u0644_u0639_u0631_u0627_u0642_u064a_u0647_u002e u0020 u0648_u0647_u064a u0020 u0634_u0631_u0643_u0647 u0020 u0639_u0627_u0645_u0647 u0020 u0645_u062a_u062e_u0635_u0635_u0647 u0020 u0641_u064a u0020 u062d_u0641_u0631 u0020 u0648_u0627_u0633_u062a_u0635_u0644_u0627_u062d u0020 u0627_u0644_u0627_u0628_u0627_u0631_u0020", 
        "u0627_u0644_u0646_u0641_u0637_u064a_u0647_u002e_u0648_u0645_u0646 u0020 u0627_u0644_u062c_u062f_u064a_u0631 u0020 u0628_u0627_u0644_u0630_u0643_u0631 u0020 u0627_u0646 u0020 u0627_u0644_u0645_u0648_u0642_u0639 u0020 u0627_u0644_u0630_u064a u0020 u062a_u062f_u0631_u0628_u062a u0020 u0641_u064a_u0647 u0020 u0641_u064a u0020 u0634_u0631_u0642_u0020", 
        "u0628_u063a_u062f_u0627_u062f u0020 u0643_u0627_u0646 u0020 u0627_u0644_u0639_u0645_u0644 u0020 u0641_u064a_u0647 u0020 u0644_u0623_u0633_u062a_u0635_u0644_u0627_u062d u0020 u0627_u062d_u062f u0020 u0627_u0644_u0627_u0628_u0627_u0631 u0020 u0627_u0644_u0646_u0641_u0637_u064a_u0647 u0020 u0627_u0644_u0630_u064a u0020 u062a_u0639_u0631_u0636_u0020", 
        "u0644_u0639_u0645_u0644 u0020 u062a_u062e_u0631_u064a_u0628_u064a u0020 u0633_u0646_u0629_u0028 u0020 u0032_u0030_u0030_u0035_u0029_u002e_u000d", 
        "u0648_u0644_u0642_u062f u0020 u0628_u0627_u0634_u0631_u062a u0020 u0634_u0631_u0643_u0629 u0020 u0627_u0644_u062d_u0641_u0631 u0020 u0628_u0627_u0633_u062a_u0635_u0644_u0627_u062d u0020 u0647_u0630_u0627 u0020 u0627_u0644_u0628_u0626_u0631 u0020 u0641_u064a u0020 u0627_u0648_u0627_u062e_u0631 u0020 u0627_u0644_u0639_u0627_u0645_u0020", 
        "u0627_u0644_u0645_u0627_u0636_u064a u0020 u0648_u0645_u0627 u0020 u062a_u0632_u0627_u0644 u0020 u0645_u0633_u062a_u0645_u0631_u0647 u0020 u0628_u0627_u0644_u0639_u0645_u0644 u0020 u0644_u062d_u062f u0020 u0627_u0644_u0627_u0646 u0020 u002e_u0648_u064a_u0639_u0632_u0649 u0020 u0647_u0630_u0627 u0020 u0627_u0644_u062a_u0623_u062e_u064a_u0631 u0020 u0627_u0644_u0649_u0020", 
        "u0628_u0639_u0636 u0020 u0627_u0644_u0627_u062c_u0632_u0627_u0621 u0020 u0627_u0644_u0639_u0627_u0644_u0642_u0647 u0020 u062f_u0627_u062e_u0644 u0020 u0627_u0644_u0628_u0626_u0631 u0020 u0648_u0627_u0644_u062a_u064a u0020 u0627_u0633_u062a_u0639_u0635_u0649 u0020 u0639_u0644_u0649 u0020 u0641_u0631_u064a_u0642 u0020 u0627_u0644_u0639_u0645_u0644_u0020", 
        "u0627_u062e_u0631_u0627_u062c_u0647_u0627 u0020 u0627_u0644_u0627 u0020 u0627_u0646_u0647 u0020 u0645_u0628_u0627_u0634_u0631_u0648 u0020 u0628_u0637_u062d_u0646 u0020 u0647_u0630_u0647 u0020 u0627_u0644_u0627_u062c_u0632_u0627_u0621 u0020 u062f_u0627_u062e_u0644 u0020 u0627_u0644_u0628_u0626_u0631 u0020 u062d_u064a_u062b u0020 u0642_u0627_u0645_u0648_u0627_u0020", 
        "u0628_u0644_u062d_u0645 u0020 u0645_u0639_u062f_u0646 u0020 u0627_u0644_u062a_u0646_u0643_u0633_u062a_u0646 u0020 u0641_u064a u0020 u0627_u0644_u0628_u0631_u064a_u0646_u0647_u0028_u0042_u0069_u0074_u0029 u0020 u0648_u0630_u0644_u0643 u0020 u0644_u0644_u0645_u0633_u0627_u0639_u062f_u0647 u0020 u0641_u064a u0020 u0639_u0645_u0644_u064a_u0629_u0020", 
        "u0627_u0644_u0637_u062d_u0646 u0020 u0628_u0627_u0644_u0645_u062d_u0627_u0641_u0638_u0647 u0020 u0639_u0644_u0649 u0020 u0627_u0644_u0628_u0631_u064a_u0646_u0647_u0028_u0042_u0069_u0074_u0029 u0020 u0645_u0646 u0020 u0627_u0644_u062a_u0622_u0643_u0644_u002e_u000d"
    ]
}