{
    "bounding_box": [
        [
            45, 
            54, 
            636, 
            25
        ], 
        [
            401, 
            85, 
            280, 
            23
        ], 
        [
            123, 
            114, 
            558, 
            21
        ], 
        [
            382, 
            142, 
            299, 
            24
        ], 
        [
            87, 
            169, 
            593, 
            26
        ], 
        [
            73, 
            198, 
            608, 
            25
        ], 
        [
            52, 
            226, 
            628, 
            26
        ], 
        [
            104, 
            257, 
            577, 
            24
        ], 
        [
            68, 
            284, 
            612, 
            26
        ], 
        [
            244, 
            312, 
            437, 
            27
        ], 
        [
            62, 
            340, 
            619, 
            27
        ], 
        [
            263, 
            369, 
            418, 
            27
        ], 
        [
            56, 
            398, 
            625, 
            27
        ], 
        [
            487, 
            428, 
            193, 
            26
        ]
    ], 
    "image_height": 540, 
    "image_width": 720, 
    "transcription": [
        "u0648_u0647_u0630_u0647 u0020 u0627_u0644_u0623_u062d_u0627_u062f_u064a_u062b u0020 u2013 u0020 u0648_u0645_u0627 u0020 u0641_u064a u0020 u0645_u0639_u0646_u0627_u0647_u0627 u0020 u2013 u0020 u062c_u0627_u0621_u062a u0020 u0645_u0648_u0627_u0641_u0642_u0629 u0020 u0644_u0645_u0627 u0020 u0641_u064a u0020 u0627_u0644_u0642_u0631_u0622_u0646 u0020 u0641_u064a u0020 u0623_u0645_u0631_u0647 u0020 u0628_u0627_u0644_u0648_u0633_u0637_u064a_u0629 u0020 u0641_u064a_u0020", 
        "u0627_u0644_u0639_u0628_u0627_u062f_u0629_u060c u0020 u0648_u062a_u0634_u0646_u064a_u0639_u0647 u0020 u0639_u0644_u0649 u0020 u0645_u0646 u0020 u062e_u0631_u062c u0020 u0639_u0646_u0647_u0627_u002e_u000b", 
        "u0648_u0642_u062f u0020 u0643_u0627_u0646 u0020 u0642_u0628_u0644 u0020 u0646_u0632_u0648_u0644 u0020 u0627_u0644_u0642_u0631_u0622_u0646_u060c u0020 u0645_u0646_u0647_u062c_u0627_u0646 u0020 u0633_u0627_u0626_u062f_u0627_u0646 u0020 u064a_u062a_u0639_u0644_u0642_u0627_u0646 u0020 u0628_u0627_u0644_u0639_u0628_u0627_u062f_u0629 u0020 u062a_u0641_u0631_u064a_u0637_u064b_u0627 u0020 u0648_u0625_u0641_u0631_u0627_u0637_u064b_u0627_u003a_u000b", 
        "u0627_u0644_u0645_u0646_u0647_u062c u0020 u0627_u0644_u0623_u0648_u0644_u003a u0020 u0627_u0644_u062a_u0641_u0631_u064a_u0637 u0020 u0648_u0627_u0644_u0628_u0639_u062f u0020 u0639_u0646 u0020 u0627_u0644_u062a_u0639_u0628_u062f_u003a_u000b", 
        "u0648_u064a_u0645_u062b_u0644_u0647 u0020 u0627_u0644_u064a_u0647_u0648_u062f u0020 u0627_u0644_u0630_u064a_u0646 u0020 u0641_u0631_u0637_u0648_u0627 u0020 u0648_u0642_u0635_u0631_u0648_u0627 u0020 u0641_u064a u0020 u0627_u0644_u062a_u0639_u0628_u062f_u060c u0020 u0648_u0625_u0630_u0627 u0020 u0646_u0638_u0631_u0646_u0627 u0020 u0625_u0644_u0649 u0020 u0627_u0644_u062a_u0648_u0631_u0627_u0629 u0020 u0644_u0648_u062c_u062f_u0646_u0627 u0020 u0623_u0646_u0020", 
        "u0627_u0644_u0622_u062e_u0631_u0629 u0020 u063a_u0627_u0626_u0628_u0629 u0020 u0639_u0646 u0020 u0646_u0635_u0648_u0635_u0647_u0627_u060c u0020 u0641_u0644_u0627 u0020 u062a_u0642_u0631_u0623 u0020 u0641_u064a u0020 u0623_u0633_u0641_u0627_u0631 u0020 u0627_u0644_u062a_u0648_u0631_u0627_u0629 u0020 u0630_u0643_u0631_u064b_u0627 u0020 u0644_u0644_u0622_u062e_u0631_u0629_u060c u0020 u062d_u062a_u0649 u0020 u0645_u0627 u0020 u0648_u0631_u062f_u0020", 
        "u0641_u064a_u0647_u0627 u0020 u0645_u0646 u0020 u0648_u0639_u062f u0020 u0648_u0648_u0639_u064a_u062f u0020 u0641_u0625_u0646_u0645_u0627 u0020 u0647_u0648 u0020 u0645_u062a_u0639_u0644_u0651_u0642 u0020 u0628_u0627_u0644_u062f_u0646_u064a_u0627 u0020 u0641_u0642_u0637_u060c u0020 u0641_u0627_u0644_u062f_u0646_u064a_u0627 u0020 u0647_u064a u0020 u063a_u0627_u064a_u062a_u0647_u0645 u0020 u0648_u0645_u0642_u0635_u062f_u0647_u0645 u0020 u0648_u0645_u0646_u062a_u0647_u0649_u0020", 
        "u0622_u0645_u0627_u0644_u0647_u0645_u060c u0020 u0648_u062a_u062d_u0648_u0644 u0020 u0627_u0644_u0625_u0646_u0633_u0627_u0646 u0020 u0641_u064a u0020 u0646_u0638_u0631_u0647_u0645 u0020 u0625_u0644_u0649 u0020 u0622_u0644_u0629 u0020 u062a_u062a_u062d_u0631_u0651_u0643_u060c u0020 u0648_u0645_u0639_u062f_u0629 u0020 u062a_u0647_u0636_u0645_u060c u0020 u0648_u0643_u0627_u0626_u0646 u0020 u064a_u0644_u0647_u0648_u002e_u000b", 
        "u0648_u0642_u062f u0020 u0648_u0635_u0641_u0647_u0645 u0020 u0627_u0644_u0642_u0631_u0622_u0646 u0020 u0627_u0644_u0643_u0631_u064a_u0645_u060c u0020 u0648_u0628_u064a_u0646 u0020 u0645_u062f_u0649 u0020 u062a_u0639_u0644_u0651_u0642_u0647_u0645 u0020 u0628_u0627_u0644_u062d_u064a_u0627_u0629 u0020 u0648_u062d_u0631_u0635_u0647_u0645 u0020 u0639_u0644_u064a_u0647_u0627_u060c u0020 u0641_u0642_u0627_u0644_u002d u0020 u062a_u0639_u0627_u0644_u0649_u003a_u0020", 
        "u0028_u0648_u064e_u0644_u064e_u062a_u064e_u062c_u0650_u062f_u064e_u0646_u0651_u064e_u0647_u064f_u0645_u0652 u0020 u0623_u064e_u062d_u0652_u0631_u064e_u0635_u064e u0020 u0627_u0644_u0646_u0651_u064e_u0627_u0633_u0650 u0020 u0639_u064e_u0644_u064e_u0649 u0020 u062d_u064e_u064a_u064e_u0627_u0629_u064d_u0029 u0020 u0028_u0627_u0644_u0628_u0642_u0631_u0629_u003a u0020 u0645_u0646 u0020 u0627_u0644_u0622_u064a_u0629_u0039_u0036_u0029_u002e_u000b", 
        "u0648_u0648_u0635_u0641 u0020 u0628_u0639_u062f_u0647_u0645 u0020 u0639_u0646 u0020 u0627_u0644_u0639_u0628_u0627_u062f_u0629 u0020 u0641_u0642_u0627_u0644_u003a u0020 u2013 u0020 u0633_u0628_u062d_u0627_u0646_u0647 u0020 u0648_u062a_u0639_u0627_u0644_u0649_u003a u0020 u0028_u0641_u064e_u062e_u064e_u0644_u064e_u0641_u064e u0020 u0645_u0650_u0646_u0652 u0020 u0628_u064e_u0639_u0652_u062f_u0650_u0647_u0650_u0645_u0652 u0020 u062e_u064e_u0644_u0652_u0641_u064c u0020 u0623_u064e_u0636_u064e_u0627_u0639_u064f_u0648_u0627_u0020", 
        "u0627_u0644_u0635_u0651_u064e_u0644_u0627_u0629_u064e u0020 u0648_u064e_u0627_u062a_u0651_u064e_u0628_u064e_u0639_u064f_u0648_u0627 u0020 u0627_u0644_u0634_u0651_u064e_u0647_u064e_u0648_u064e_u0627_u062a_u0650 u0020 u0641_u064e_u0633_u064e_u0648_u0652_u0641_u064e u0020 u064a_u064e_u0644_u0652_u0642_u064e_u0648_u0652_u0646_u064e u0020 u063a_u064e_u064a_u0651_u0627_u064b_u0029 u0020 u0028_u0645_u0631_u064a_u0645_u003a_u0035_u0039_u0029_u002e_u000b", 
        "u0648_u0642_u0627_u0644 u0020 u2013 u0020 u062c_u0644_u0651 u0020 u0648_u0639_u0644_u0627_u003a u0020 u0028_u0648_u064e_u0627_u0644_u0644_u0651_u064e_u0647_u064f u0020 u064a_u064f_u0631_u0650_u064a_u062f_u064f u0020 u0623_u064e_u0646_u0652 u0020 u064a_u064e_u062a_u064f_u0648_u0628_u064e u0020 u0639_u064e_u0644_u064e_u064a_u0652_u0643_u064f_u0645_u0652 u0020 u0648_u064e_u064a_u064f_u0631_u0650_u064a_u062f_u064f u0020 u0627_u0644_u0651_u064e_u0630_u0650_u064a_u0646_u064e u0020 u064a_u064e_u062a_u0651_u064e_u0628_u0650_u0639_u064f_u0648_u0646_u064e u0020 u0627_u0644_u0634_u0651_u064e_u0647_u064e_u0648_u064e_u0627_u062a_u0650 u0020 u0623_u064e_u0646_u0652 u0020 u062a_u064e_u0645_u0650_u064a_u0644_u064f_u0648_u0627_u0020", 
        "u0645_u064e_u064a_u0652_u0644_u0627_u064b u0020 u0639_u064e_u0638_u0650_u064a_u0645_u0627_u064b_u0029 u0020 u0028_u0627_u0644_u0646_u0633_u0627_u0621_u003a_u0032_u0037_u0029_u002e"
    ]
}