{
    "bounding_box": [
        [
            48, 
            46, 
            622, 
            43
        ], 
        [
            597, 
            137, 
            79, 
            29
        ], 
        [
            100, 
            179, 
            549, 
            35
        ], 
        [
            41, 
            222, 
            608, 
            30
        ], 
        [
            477, 
            260, 
            172, 
            27
        ], 
        [
            298, 
            307, 
            115, 
            28
        ]
    ], 
    "image_height": 540, 
    "image_width": 720, 
    "transcription": [
        "u0031_u002d u0020 u0623_u062f_u0648_u064a_u0629 u0020 u062a_u0639_u0645_u0644 u0020 u0643_u0645_u0648_u0627_u062f u0020 u0623_u0648_u0644_u064a_u0629 u0020 u0644_u062a_u0635_u0646_u064a_u0639 u0020 u0627_u0644_u0646_u0627_u0642_u0644 u0020 u0627_u0644_u0639_u0635_u0628_u0649_u0020", 
        "u0645_u062b_u0627_u0644 u0020 u003a u0020 u000d", 
        "u062f_u0648_u0627_u0621 u0020 u004c_u002d_u0044_u006f_u0070_u0061 u0020 u0648_u0627_u0644_u062a_u064a u0020 u062a_u0645_u062b_u0644 u0020 u0627_u0644_u0645_u0627_u062f_u0629 u0020 u0627_u0644_u0623_u0648_u0644_u064a_u0629 u0020 u0644_u062a_u0635_u0646_u064a_u0639 u0020 u0627_u0644_u0646_u0627_u0642_u0644_u0020", 
        "u0627_u0644_u062f_u0648_u0628_u0627_u0645_u064a_u0646 u0020 u060c u0020 u0641_u0648_u062c_u0648_u062f_u0647_u0627 u0020 u064a_u0624_u062f_u0649 u0020 u0627_u0644_u0649 u0020 u0632_u064a_u0627_u062f_u0629 u0020 u0627_u0644_u0646_u0627_u0642_u0644 u0020 u0627_u0644_u0639_u0635_u0628_u064a u0020 u0648_u062a_u0646_u0634_u064a_u0637_u0020", 
        "u0627_u0644_u0646_u0642_u0644 u0020 u0627_u0644_u0645_u0634_u0628_u0643_u0649 u0020 u002e u0020 u000d", 
        "u064a_u0639_u062a_u0628_u0631 u0020 u062f_u0648_u0627_u0621_u000d"
    ]
}