{
    "bounding_box": [
        [
            670, 
            518, 
            13, 
            9
        ], 
        [
            85, 
            216, 
            549, 
            46
        ]
    ], 
    "image_height": 540, 
    "image_width": 720, 
    "transcription": [
        "u0032_u0034", 
        "u0052_u0065_u0063_u006f_u006d_u006d_u0065_u006e_u0064_u0061_u0074_u0069_u006f_u006e_u0073"
    ]
}