{
    "bounding_box": [
        [
            43, 
            44, 
            608, 
            38
        ], 
        [
            587, 
            152, 
            80, 
            18
        ], 
        [
            476, 
            175, 
            190, 
            19
        ], 
        [
            584, 
            199, 
            82, 
            19
        ], 
        [
            94, 
            220, 
            573, 
            20
        ], 
        [
            494, 
            246, 
            173, 
            18
        ], 
        [
            579, 
            271, 
            87, 
            19
        ], 
        [
            67, 
            292, 
            599, 
            22
        ], 
        [
            342, 
            318, 
            325, 
            18
        ], 
        [
            579, 
            343, 
            87, 
            19
        ], 
        [
            50, 
            364, 
            617, 
            22
        ], 
        [
            180, 
            388, 
            486, 
            22
        ]
    ], 
    "image_height": 540, 
    "image_width": 720, 
    "transcription": [
        "u0627_u0644_u0645_u064a_u062b_u0627_u0642 u0020 u0627_u0644_u0625_u0633_u0644_u0627_u0645_u064a u0020 u0627_u0644_u0639_u0627_u0644_u0645_u064a u0020 u0644_u0644_u0623_u062e_u0644_u0627_u0642_u064a_u0627_u062a u0020 u0627_u0644_u0637_u0628_u064a_u0629 u0020 u0648_u0627_u0644_u0635_u062d_u064a_u0629", 
        "u0627_u0644_u0628_u0627_u0628 u0020 u0627_u0644_u0631_u0627_u0628_u0639_u000d", 
        "u0648_u0627_u062c_u0628_u0627_u062a u0020 u0627_u0644_u0637_u0628_u064a_u0628 u0020 u062a_u062c_u0627_u0647 u0020 u0627_u0644_u0645_u062c_u062a_u0645_u0639_u000d", 
        "u0627_u0644_u0645_u0627_u062f_u0629 u0020 u0028_u0034_u0037_u0029_u000d", 
        "u0639_u0644_u0649 u0020 u0627_u0644_u0637_u0628_u064a_u0628 u0020 u0623_u0646 u0020 u064a_u062d_u0631_u0635 u0020 u0639_u0644_u0649 u0020 u0627_u0644_u0645_u062d_u0627_u0641_u0638_u0629 u0020 u0639_u0644_u0649 u0020 u0627_u0644_u0645_u0648_u0627_u0631_u062f u0020 u0627_u0644_u0635_u062d_u064a_u0629_u060c u0020 u0627_u0644_u0628_u0634_u0631_u064a_u0629 u0020 u0645_u0646_u0647_u0627 u0020 u0648_u0627_u0644_u0645_u0627_u062f_u0651_u0650_u064a_u0629_u060c u0020 u0648_u0639_u0644_u0649_u0020", 
        "u0627_u0633_u062a_u062e_u062f_u0627_u0645_u0647_u0627 u0020 u0628_u0627_u0644_u0637_u0631_u064a_u0642_u0629 u0020 u0627_u0644_u0645_u062b_u0644_u0649_u002e_u000d", 
        "u0627_u0644_u0645_u0627_u062f_u0629 u0020 u0028_u0034_u0038 u0020 u0028_u000d", 
        "u0639_u0644_u0649 u0020 u0627_u0644_u0637_u0628_u064a_u0628_u060c u0020 u0648_u0644_u0627_u0633_u064a_u0651_u064e_u0645_u0627 u0020 u0625_u0630_u0627 u0020 u0643_u0627_u0646 u0020 u0641_u064a u0020 u0645_u0648_u0642_u0639 u0020 u0627_u0644_u0645_u0633_u0624_u0648_u0644_u064a_u0629_u060c u0020 u0623_u0646 u0020 u064a_u0634_u0627_u0631_u0643 u0020 u0628_u0641_u0627_u0639_u0644_u064a_u0629 u0020 u0648_u0625_u064a_u062c_u0627_u0628_u064a_u0629 u0020 u0641_u064a u0020 u0633_u064e_u0646_u0651_u0650 u0020 u0627_u0644_u0623_u0646_u0638_u0645_u0629_u060c_u0020", 
        "u0648_u0631_u0633_u0645 u0020 u0627_u0644_u0633_u064a_u0627_u0633_u0627_u062a u0020 u0627_u0644_u0635_u062d_u064a_u0629_u060c u0020 u0648_u062d_u0644 u0020 u0627_u0644_u0645_u0634_u0643_u0644_u0627_u062a u0020 u0627_u0644_u0635_u062d_u064a_u0629_u002e_u000d", 
        "u0627_u0644_u0645_u0627_u062f_u0629 u0020 u0028 u0020 u0034_u0039_u0028_u000d", 
        "u0639_u0644_u0649 u0020 u0627_u0644_u0637_u0628_u064a_u0628 u0020 u0641_u064a u0020 u062d_u0627_u0644_u0627_u062a u0020 u0627_u0644_u0623_u0645_u0631_u0627_u0636 u0020 u0627_u0644_u0633_u0627_u0631_u064a_u0629 u0020 u0623_u0646 u0020 u064a_u0644_u062a_u0632_u0645 u0020 u0628_u0627_u062a_u0651_u0650_u0628_u0627_u0639 u0020 u0627_u0644_u062a_u0646_u0638_u064a_u0645_u0627_u062a u0020 u0627_u0644_u0635_u062d_u064a_u0629 u0020 u0627_u0644_u0645_u0648_u0636_u0648_u0639_u0629 u0020 u0644_u0630_u0644_u0643_u060c u0020 u0628_u0645_u0627_u0020", 
        "u0641_u064a u0020 u0630_u0644_u0643 u0020 u0627_u0644_u0625_u0628_u0644_u0627_u063a u0020 u0639_u0646 u0020 u0647_u0630_u0647 u0020 u0627_u0644_u062d_u0627_u0644_u0627_u062a u0020 u0644_u0644_u062c_u0647_u0629 u0020 u0627_u0644_u0645_u062e_u062a_u0635_u0651_u064e_u0629 u0020 u0648_u0627_u062a_u0651_u0650_u062e_u0627_u0630 u0020 u0645_u0627 u0020 u064a_u0644_u0632_u0645 u0020 u0645_u0646 u0020 u0625_u062c_u0631_u0627_u0621_u0627_u062a_u002e"
    ]
}