{
    "bounding_box": [
        [
            47, 
            138, 
            599, 
            30
        ], 
        [
            47, 
            175, 
            599, 
            27
        ], 
        [
            47, 
            204, 
            599, 
            31
        ], 
        [
            47, 
            242, 
            599, 
            27
        ], 
        [
            47, 
            273, 
            599, 
            30
        ], 
        [
            47, 
            308, 
            599, 
            28
        ], 
        [
            47, 
            344, 
            599, 
            26
        ], 
        [
            47, 
            372, 
            599, 
            31
        ], 
        [
            472, 
            410, 
            174, 
            27
        ]
    ], 
    "image_height": 540, 
    "image_width": 720, 
    "transcription": [
        "u0623_u062f_u062a u0020 u0627_u0644_u0645_u0645_u0627_u0631_u0633_u0627_u062a u0020 u0627_u0644_u0632_u0631_u0627_u0639_u064a_u0629 u0020 u0627_u0644_u062e_u0627_u0637_u0626_u0629 u0020 u0648_u0627_u0644_u0627_u0633_u062a_u062e_u062f_u0627_u0645 u0020 u0627_u0644_u0645_u0641_u0631_u0637 u0020 u0644_u0644_u0623_u0633_u0645_u062f_u0629 u0020 u0028_u0044_u0029_u0020", 
        "u0641_u064a u0020 u062d_u0648_u0636 u0020 u0627_u0644_u0635_u0631_u0641 u0020 u0625_u0644_u0649 u0020 u0632_u064a_u0627_u062f_u0629 u0020 u0641_u064a u0020 u0643_u0645_u064a_u0627_u062a u0020 u0627_u0644_u0646_u062a_u0631_u0648_u062c_u064a_u0646 u0020 u0648 u0020 u0627_u0644_u0641_u0648_u0633_u0641_u0648_u0631_u0020", 
        "u0627_u0644_u0645_u0646_u0635_u0631_u0641_u0629 u0020 u0641_u064a u0020 u0627_u0644_u0645_u0648_u0627_u0631_u062f u0020 u0627_u0644_u0645_u0627_u0626_u064a_u0629 u0020 u0028_u0050_u0029 u0020 u0627_u0644_u0623_u0645_u0631 u0020 u0627_u0644_u0630_u064a u0020 u0623_u062f_u0649 u0020 u0625_u0644_u0649 u0020 u0627_u0632_u062f_u0647_u0627_u0631_u0020", 
        "u0627_u0644_u0637_u062d_u0627_u0644_u0628 u0020 u0641_u064a u0020 u0627_u0644_u0645_u0633_u0637_u062d_u0627_u062a u0020 u0627_u0644_u0645_u0627_u0626_u064a_u0629 u0020 u0627_u0644_u062a_u064a u0020 u062a_u0639_u0645_u0644 u0020 u0639_u0644_u0649 u0020 u0627_u0633_u062a_u0646_u0632_u0627_u0641_u0020", 
        "u0627_u0644_u0623_u0648_u0643_u0633_u062c_u064a_u0646 u0020 u0639_u0646_u062f u0020 u0645_u0648_u062a_u0647_u0627 u0020 u0648_u062a_u0631_u0627_u0643_u0645_u0647_u0627 u0020 u0641_u064a u0020 u0642_u0627_u0639 u0020 u0627_u0644_u0645_u0633_u0637_u062d_u0627_u062a u0020 u0627_u0644_u0645_u0627_u0626_u064a_u0629 u0020 u0028_u0053_u0029_u060c_u0020", 
        "u0645_u0645_u0627 u0020 u064a_u0624_u062b_u0631 u0020 u0633_u0644_u0628_u0627 u0020 u0641_u064a u0020 u0627_u0644_u062b_u0631_u0648_u0629 u0020 u0627_u0644_u0633_u0645_u0643_u064a_u0629 u0020 u0648_u062c_u0648_u062f_u0629 u0020 u0627_u0644_u0645_u064a_u0627_u0647 u0020 u0644_u0644_u0634_u0631_u0628 u0020 u0028_u0049_u0029_u002e_u0020", 
        "u0648_u062a_u062a_u0644_u062e_u0635 u0020 u0627_u0644_u0627_u0633_u062a_u062c_u0627_u0628_u0629 u0020 u0645_u0646 u0020 u062c_u0627_u0646_u0628 u0020 u0627_u0644_u0645_u0624_u0633_u0633_u0627_u062a u0020 u0627_u0644_u062d_u0643_u0648_u0645_u064a_u0629 u0020 u0641_u064a u0020 u062a_u0646_u0638_u064a_u0645_u0020", 
        "u0627_u0633_u062a_u062e_u062f_u0627_u0645 u0020 u0627_u0644_u0623_u0633_u0645_u062f_u0629 u0020 u0641_u064a u0020 u0627_u0644_u0632_u0631_u0627_u0639_u0629 u0020 u0648_u0645_u0631_u0627_u0642_u0628_u0629 u0020 u0639_u0645_u0644_u064a_u0629 u0020 u0644_u062d_u0645_u0648_u0644_u0627_u062a u0020 u0020_u0627_u0644_u0645_u064a_u0627_u0647 u0020 u0645_u0646_u0020", 
        "u0627_u0644_u0645_u0648_u0627_u062f u0020 u0627_u0644_u063a_u0630_u0627_u0626_u064a_u0629 u0020 u0028_u0052_u0029_u002e"
    ]
}