{
    "bounding_box": [
        [
            481, 
            86, 
            387, 
            34
        ], 
        [
            97, 
            180, 
            771, 
            38
        ], 
        [
            115, 
            220, 
            753, 
            37
        ], 
        [
            124, 
            259, 
            744, 
            37
        ]
    ], 
    "image_height": 540, 
    "image_width": 960, 
    "transcription": [
        "u0036_u002d u0020 u0627_u0644_u0646_u0647_u0627_u064a_u0629 u0020 u0648_u0627_u0644_u062d_u0644 u0020 u0028_u0644_u062d_u0638_u0629 u0020 u0627_u0644_u062a_u0646_u0648_u064a_u0631_u0029_u003a_u000d", 
        "u0627_u0644_u0646_u0647_u0627_u064a_u0629 u0020 u0623_u0648 u0020 u0627_u0644_u062d_u0644 u0020 u0627_u0644_u0645_u0642_u0646_u0639 u0020 u0627_u0644_u0630_u064a u0020 u0642_u062f u0020 u064a_u0648_u0627_u0641_u0642 u0020 u062a_u0648_u0642_u0639_u0627_u062a u0020 u0627_u0644_u0645_u062a_u0644_u0642_u064a u0020 u0648_u0642_u062f u0020 u064a_u0641_u0627_u062c_u0626_u0647 u0020 u062f_u0648_u0646_u0020", 
        "u0627_u0644_u062e_u0631_u0648_u062c u0020 u0639_u0646 u0020 u0627_u0644_u0633_u064a_u0627_u0642 u0020 u0627_u0644_u0637_u0628_u064a_u0639_u064a u0020 u0644_u062a_u0637_u0648_u0631 u0020 u0623_u062d_u062f_u0627_u062b u0020 u0627_u0644_u0642_u0635_u0629 u0020 u002c u0020 u0628_u0644 u0020 u064a_u0643_u0648_u0646 u0020 u0627_u0644_u062d_u0644_u0020", 
        "u0645_u0633_u062a_u0645_u062f_u0627 u0020 u0645_u0646 u0020 u0633_u064a_u0627_u0642 u0020 u0627_u0644_u0623_u062d_u062f_u0627_u062b u0020 u002c u0020 u064a_u0642_u0646_u0639 u0020 u0627_u0644_u0645_u062a_u0644_u0642_u064a u0020 u002c u0020 u0648_u064a_u062c_u062f u0020 u0644_u0647 u0020 u062a_u0641_u0633_u064a_u0631_u0627 u0020 u0645_u0646_u0637_u0642_u064a_u0627_u002e_u000d"
    ]
}