{
    "bounding_box": [
        [
            55, 
            38, 
            119, 
            39
        ], 
        [
            550, 
            130, 
            107, 
            18
        ], 
        [
            206, 
            154, 
            451, 
            20
        ], 
        [
            581, 
            209, 
            75, 
            16
        ], 
        [
            74, 
            234, 
            583, 
            17
        ], 
        [
            599, 
            284, 
            57, 
            20
        ], 
        [
            60, 
            313, 
            597, 
            19
        ], 
        [
            470, 
            363, 
            187, 
            19
        ], 
        [
            215, 
            391, 
            442, 
            19
        ]
    ], 
    "image_height": 540, 
    "image_width": 720, 
    "transcription": [
        "u062a_u062d_u0630_u064a_u0631_u0627_u062a", 
        "u0627_u0644_u0627_u0637_u0641_u0627_u0644 u0020 u0648_u0627_u0644_u0631_u0636_u0639_u000d", 
        "u0644_u0627 u0020 u064a_u0646_u0635_u062d u0020 u0628_u0627_u0633_u062a_u0639_u0645_u0627_u0644_u0647 u0020 u0644_u0644_u0627_u0637_u0641_u0627_u0644 u0020 u062a_u062d_u062a u0020 u0633_u0646 u0020 u0031_u0032 u0020 u0633_u0646_u0647_u060c u0020 u0627_u0644_u0627 u0020 u0628_u062a_u0648_u0635_u064a_u0647 u0020 u0645_u0646 u0020 u0627_u0644_u0637_u0628_u064a_u0628_u002e_u000d", 
        "u0643_u0628_u0627_u0631 u0020 u0627_u0644_u0633_u0646_u003a_u000d", 
        "u0627_u062d_u062a_u0645_u0627_u0644 u0020 u0643_u0628_u064a_u0631 u0020 u0644_u0638_u0647_u0648_u0631 u0020 u0627_u062b_u0627_u0631 u0020 u062c_u0627_u0646_u0628_u064a_u0647 u0020 u0648_u0032_u0645_u0646 u0020 u0627_u0644_u0645_u062d_u062a_u0645_u0644 u0020 u0627_u0646 u0020 u062a_u0643_u0648_u0646 u0020 u0647_u0646_u0627_u0644_u0643 u0020 u062d_u0627_u062c_u0647 u0020 u0644_u062a_u0642_u0644_u064a_u0644 u0020 u0627_u0644_u062c_u0631_u0639_u0647 u0020 u0627_u0644_u0645_u0639_u0637_u0627_u0647_u002e_u000d", 
        "u0627_u0644_u0633_u064a_u0627_u0642_u0629_u003a_u000d", 
        "u064a_u062c_u0628 u0020 u0627_u0644_u0627_u0645_u062a_u0646_u0627_u0639 u0020 u0639_u0646 u0020 u0627_u0644_u0633_u064a_u0627_u0642_u0647 u0020 u062d_u062a_u0649 u0020 u062a_u062a_u0636_u062d u0020 u0645_u0627_u0647_u064a_u0629 u0020 u062a_u0627_u062b_u064a_u0631 u0020 u0627_u0644_u062f_u0648_u0627_u0621_u060c u0020 u062d_u064a_u062b u0020 u0627_u0646_u0647 u0020 u0645_u0646 u0020 u0627_u0644_u0645_u0645_u0643_u0646 u0020 u0627_u0646 u0020 u064a_u0633_u0628_u0628 u0020 u0636_u0628_u0627_u0628_u064a_u0629_u000d", 
        "u0627_u0644_u0639_u0645_u0644_u064a_u0627_u062a u0020 u0627_u0644_u062c_u0631_u0627_u062d_u064a_u0629 u0020 u0648_u0627_u0644_u062a_u062e_u062f_u064a_u0631_u003a_u000d", 
        "u064a_u062c_u0628 u0020 u0627_u0628_u0644_u0627_u063a u0020 u0627_u0644_u0637_u0628_u064a_u0628 u0020 u0627_u0644_u062c_u0631_u0627_u062d u0020 u0627_u0648 u0020 u0627_u0644_u0637_u0628_u064a_u0628 u0020 u0627_u0644_u0645_u062e_u062f_u0631 u0020 u0639_u0646 u0020 u0627_u0633_u062a_u0639_u0645_u0627_u0644 u0020 u0647_u0630_u0627 u0020 u0627_u0644_u062f_u0648_u0627_u0621_u002e_u000d"
    ]
}