{
    "bounding_box": [
        [
            321, 
            31, 
            378, 
            37
        ], 
        [
            23, 
            138, 
            677, 
            32
        ], 
        [
            563, 
            193, 
            137, 
            25
        ], 
        [
            270, 
            300, 
            403, 
            25
        ], 
        [
            39, 
            334, 
            634, 
            26
        ], 
        [
            239, 
            369, 
            434, 
            25
        ], 
        [
            431, 
            243, 
            281, 
            37
        ], 
        [
            82, 
            436, 
            590, 
            29
        ], 
        [
            245, 
            471, 
            427, 
            28
        ]
    ], 
    "image_height": 540, 
    "image_width": 720, 
    "transcription": [
        "u0633_u064a_u0646_u0627_u0631_u064a_u0648_u0647_u0627_u062a u0020 u062a_u0642_u062f_u064a_u0631 u0020 u0631_u0623_u0633 u0020 u0627_u0644_u0645_u0627_u0644", 
        "u0627_u0644_u0633_u064a_u0646_u0627_u0631_u064a_u0648 u0020 u0627_u0644_u0623_u0643_u062b_u0631 u0020 u062d_u062f_u0629 u0020 u0627_u0644_u0630_u064a u0020 u0648_u0636_u0639 u0020 u0644_u064a_u0639_u0643_u0633 u0020 u0643_u0633_u0627_u062f_u0627 u0020 u0623_u0637_u0648_u0644 u0020 u0648_u0623_u0634_u062f u0020 u0645_u0646 u0020 u0627_u0644_u062a_u0648_u0642_u0639_u0627_u062a_u0020", 
        "u0627_u0644_u0645_u062a_u0641_u0642 u0020 u0639_u0644_u064a_u0647_u0627_u002e u0020 u000d", 
        "u0646_u0645_u0648 u0020 u0627_u0644_u0646_u0627_u062a_u062c u0020 u0627_u0644_u0645_u062d_u0644_u064a u0020 u0639_u0644_u0649 u0020 u0638_u0631_u0648_u0641 u0020 u0627_u0635_u0639_u0628 u0020 u0645_u0646 u0020 u0627_u0644_u0623_u0633_u0627_u0633_u064a_u002e_u000d", 
        "u0645_u0639_u062f_u0644 u0020 u0627_u0644_u0628_u0637_u0627_u0644_u0629 u0020 u0641_u064a u0020 u0639_u0627_u0645_u064a u0020 u0032_u0030_u0030_u0039 u0020 u0648_u0032_u0030_u0031_u0030_u060c u0020 u062a_u0639_u0643_u0633 u0020 u0643_u0633_u0627_u062f_u0627_u064b u0020 u0623_u0639_u0645_u0642 u0020 u0648_u0623_u0637_u0648_u0644 u0020 u0645_u0646 u0020 u0627_u0644_u0623_u0633_u0627_u0633_u064a_u002e_u000d", 
        "u0623_u0633_u0639_u0627_u0631 u0020 u0627_u0644_u0645_u0646_u0627_u0632_u0644_u003a u0020 u0627_u0646_u062e_u0641_u0627_u0636 u0020 u0623_u0643_u062b_u0631 u0020 u0628_u0646_u0633_u0628_u0629 u0020 u0031_u0030_u0025 u0020 u0645_u0646 u0020 u0627_u0644_u0623_u0633_u0627_u0633_u064a_u002e", 
        "u0627_u0644_u0625_u0641_u062a_u0631_u0627_u0636_u0627_u062a u0020 u0627_u0644_u0623_u0643_u062b_u0631 u0020 u062d_u062f_u0629_u003a", 
        "u0644_u0627_u062d_u0638 u0020 u0623_u0646 u0020 u0627_u0644_u0633_u064a_u0646_u0627_u0631_u064a_u0648 u0020 u0627_u0644_u0623_u0643_u062b_u0631 u0020 u062d_u062f_u0629 u0020 u0644_u064a_u0633 u0020 u0627_u0644_u0645_u0631_u0627_u062f u0020 u0645_u0646_u0647 u0020 u0623_u0646 u0020 u064a_u0643_u0648_u0646 u0020 u0627_u0644_u0633_u064a_u0646_u0627_u0631_u064a_u0648_u0020", 
        "u0627_u0644_u0623_u0633_u0648_u0623_u060c u0020 u0648_u0625_u0646_u0645_u0627 u0020 u064a_u0639_u0643_u0633 u0020 u0623_u062d_u0648_u0627_u0644_u0627_u064b u0020 u062d_u0627_u062f_u0629 u0020 u0648_u0644_u0643_u0646_u0647_u0627 u0020 u0645_u0639_u0642_u0648_u0644_u0629_u002e"
    ]
}