{
    "bounding_box": [
        [
            35, 
            24, 
            638, 
            42
        ], 
        [
            98, 
            67, 
            523, 
            43
        ], 
        [
            206, 
            136, 
            359, 
            26
        ], 
        [
            346, 
            164, 
            78, 
            39
        ], 
        [
            92, 
            206, 
            578, 
            37
        ], 
        [
            338, 
            244, 
            95, 
            32
        ], 
        [
            160, 
            278, 
            450, 
            39
        ], 
        [
            323, 
            319, 
            115, 
            35
        ]
    ], 
    "image_height": 540, 
    "image_width": 720, 
    "transcription": [
        "u0627_u0644_u064a_u0645 u0020 u0627_u0644_u0625_u0639_u0644_u0627_u0645_u064a u0020 u0627_u0644_u062e_u0627_u0635 u0020 u0628_u0623_u0633_u0627_u062a_u0630_u0629 u0020 u0627_u0644_u062a_u0639_u0644_u064a_u0645_u0020", 
        "u0627_u0644_u062b_u0627_u0646_u0648_u064a u0020 u060c u0020 u0645_u0627_u062f_u0629 u0020 u0627_u0644_u0639_u0644_u0648_u0645 u0020 u0627_u0644_u0625_u0633_u0644_u0627_u0645_u064a_u0629", 
        "u062b_u0627_u0646_u0648_u064a_u0629 u0020 u064a_u062d_u064a u0020 u0628_u0648_u0632_u064a_u0627_u0646 u0020 u0640_u0640 u0020 u0645_u0633_u0631_u0642_u064a_u0646 u0020 u0640_u0640_u000d", 
        "u0648_u0647_u0631_u0627_u0646_u000d", 
        "u064a_u0648_u0645 u0020 u0627_u0644_u0625_u062b_u0646_u064a_u0646 u0020 u0032_u0031 u0020 u0645_u062d_u0631_u0645 u0020 u0031_u0034_u0033_u0035 u0020 u0647_u0640 u0020 u0627_u0644_u0645_u0648_u0627_u0641_u0642 u0020 u0644_u0640 u0020 u0032_u0035 u0020 u0646_u0648_u0641_u0645_u0628_u0631_u0020", 
        "u0032_u0030_u0031_u0033 u0020 u0645_u000d", 
        "u062a_u062d_u062a u0020 u0625_u0634_u0631_u0627_u0641 u0020 u0627_u0644_u0633_u064a_u062f u0020 u003a u0020 u0645_u0641_u062a_u0634 u0020 u0627_u0644_u062a_u0631_u0628_u064a_u0629 u0020 u0627_u0644_u0648_u0637_u0646_u064a_u0629 u0020 u000d", 
        "u0644_u062e_u0636_u0631 u0020 u0648_u0644_u0627_u0641"
    ]
}