{
    "bounding_box": [
        [
            153, 
            191, 
            392, 
            56
        ], 
        [
            47, 
            258, 
            601, 
            27
        ], 
        [
            296, 
            286, 
            96, 
            26
        ], 
        [
            41, 
            320, 
            614, 
            27
        ], 
        [
            254, 
            349, 
            189, 
            27
        ]
    ], 
    "image_height": 540, 
    "image_width": 720, 
    "transcription": [
        "u0031_u0032_u0627_u0644_u0631_u0633_u0627_u0644_u0629 u0020 u0625_u0644_u0649 u0020 u062a_u064a_u0637_u0633", 
        "u062a_u064a_u0637_u0633 u0020 u0647_u0630_u0627 u0020 u0643_u0627_u0646 u0020 u0631_u062c_u0644_u0627 u0020 u0623_u0645_u0645_u064a_u0627 u0020 u0623_u0645_u0646 u0020 u0639_u0644_u0649 u0020 u064a_u062f u0020 u0628_u0648_u0644_u0633 u0020 u0627_u0644_u0631_u0633_u0648_u0644 u0020 u0648_u0623_u0635_u0628_u062d u0020 u0645_u0646 u0020 u062a_u0644_u0627_u0645_u064a_u0630_u0647_u0020", 
        "u0627_u0644_u0645_u062e_u0644_u0635_u064a_u0646 u0020 u000d", 
        "u0643_u062a_u0628_u062a u0020 u0647_u0630_u0647 u0020 u0627_u0644_u0631_u0633_u0627_u0644_u0629 u0020 u0020_u0648_u062a_u062d_u062a_u0648_u0649 u0020 u0639_u0644_u0649 u0020 u0033 u0020 u0625_u0635_u062d_u0627_u062d_u0627_u062a u0020 u062d_u0648_u0627_u0644_u0649 u0020 u0633_u0646_u0629 u0020 u0036_u0034 u0020 u0645_u064a_u0644_u0627_u062f_u064a_u0629 u0020 u0628_u0639_u062f_u0020", 
        "u0633_u062c_u0646_u0647 u0020 u0627_u0644_u0623_u0648_u0644 u0020 u0641_u0649 u0020 u0631_u0648_u0645_u064a_u0629_u0020"
    ]
}