{
    "bounding_box": [
        [
            64, 
            45, 
            622, 
            25
        ], 
        [
            184, 
            142, 
            450, 
            22
        ], 
        [
            278, 
            178, 
            357, 
            22
        ], 
        [
            409, 
            214, 
            226, 
            22
        ], 
        [
            303, 
            250, 
            331, 
            22
        ], 
        [
            62, 
            285, 
            572, 
            22
        ], 
        [
            531, 
            313, 
            103, 
            23
        ]
    ], 
    "image_height": 540, 
    "image_width": 720, 
    "transcription": [
        "u0627_u0647_u0645 u0020 u0627_u0644_u0627_u0633_u0626_u0644_u0629 u0020 u0627_u0644_u062a_u064a u0020 u0644_u0627 u0020 u0628_u062f u0020 u0645_u0646 u0020 u0627_u0644_u0627_u062c_u0627_u0628_u0629 u0020 u0639_u0644_u064a_u0647_u0627 u0020 u0641_u064a u0020 u0647_u0630_u0627 u0020 u0627_u0644_u0645_u0648_u0636_u0648_u0639 u0020 u003a", 
        "u0645_u0627_u0647_u0648 u0020 u0645_u0641_u0647_u0648_u0645 u0020 u0627_u0644_u0633_u064a_u0627_u0633_u0629 u0020 u0627_u0644_u062a_u0639_u0644_u064a_u0645_u064a_u0629 u0020 u0648_u0645_u0627 u0020 u0627_u0647_u0645_u064a_u062a_u0647_u0627 u0020 u061f_u000d", 
        "u0645_u0627 u0020 u0647_u064a u0020 u0627_u0647_u0645 u0020 u0627_u0644_u062e_u0635_u0627_u0626_u0635 u0020 u0627_u0644_u062a_u064a u0020 u062a_u0645_u064a_u0632_u0647_u0627 u0020 u061f_u000d", 
        "u0645_u0627_u0647_u064a u0020 u0645_u0631_u0627_u062d_u0644 u0020 u062a_u0643_u0648_u064a_u0646_u0647_u0627_u061f u0020 u000d", 
        "u0645_u0627_u0647_u064a u0020 u0627_u0644_u0627_u0633_u0633 u0020 u0627_u0644_u062a_u064a u0020 u062a_u0631_u062a_u0643_u0632 u0020 u0639_u0644_u064a_u0647_u0627 u0020 u061f_u000d", 
        "u0020_u0645_u0627_u0647_u064a u0020 u0627_u0644_u0627_u0647_u062f_u0627_u0641 u0020 u0627_u0644_u062a_u064a u0020 u064a_u0645_u0643_u0646 u0020 u0627_u0646 u0020 u0646_u062c_u0646_u064a_u0647_u0627 u0020 u0645_u0646 u0020 u062a_u0637_u0628_u064a_u0642 u0020 u0627_u0644_u0633_u064a_u0627_u0633_u0629_u0020", 
        "u0627_u0644_u062a_u0639_u0644_u064a_u0645_u064a_u0629_u061f_u000d"
    ]
}