{
    "bounding_box": [
        [
            251, 
            57, 
            631, 
            30
        ], 
        [
            133, 
            88, 
            749, 
            37
        ], 
        [
            187, 
            126, 
            573, 
            31
        ], 
        [
            296, 
            196, 
            595, 
            28
        ], 
        [
            91, 
            229, 
            800, 
            28
        ], 
        [
            819, 
            263, 
            72, 
            24
        ], 
        [
            75, 
            291, 
            816, 
            31
        ], 
        [
            790, 
            325, 
            101, 
            30
        ], 
        [
            86, 
            360, 
            805, 
            28
        ], 
        [
            607, 
            391, 
            284, 
            31
        ], 
        [
            85, 
            423, 
            806, 
            32
        ], 
        [
            669, 
            459, 
            222, 
            30
        ], 
        [
            370, 
            490, 
            234, 
            32
        ]
    ], 
    "image_height": 540, 
    "image_width": 960, 
    "transcription": [
        "u0641_u0649 u0020 u0639_u0627_u0645 u0020 u0031_u0039_u0034_u0039 u0020 u0642_u062f_u0645 u0020 u0627_u0644_u0645_u0647_u0646_u062f_u0633_u0648_u0646 u0020 u0627_u0644_u0633_u0648_u064a_u0633_u0631_u064a_u0648_u0646 u0020 u0028_u0623_u062e_u0648_u0627_u0646 u0020 u062c_u0631_u0648_u064a_u0631_u0029 u0020 u062a_u0642_u0631_u064a_u0631_u0627 u0020 u0639_u0646 u0020 u0627_u0644_u0645_u0634_u0631_u0648_u0639_u002e_u000d", 
        "u00a0_u00a0_u0641_u0649 u0020 u0639_u0627_u0645 u0020 u0031_u0039_u0035_u0038 u0020 u0642_u062f_u0645 u0020 u0627_u0644_u0645_u0647_u0646_u062f_u0633_u0648_u0646 u0020 u0627_u0644_u0625_u0633_u062a_u0634_u0627_u0631_u064a_u0648_u0646 u0020 u0627_u0644_u0633_u0648_u064a_u062f_u064a_u0648_u0646 u0020 u0022_u0641_u002e_u0628_u002e_u0628_u0022 u0020 u062a_u0642_u0631_u064a_u0631_u0627 u0020 u0645_u0628_u062f_u0626_u064a_u0627 u0020 u0639_u0646 u0020 u0627_u0644_u0645_u0634_u0631_u0648_u0639 u0020 u000d", 
        "u0641_u0649 u0020 u0647_u0630_u0647 u0020 u0627_u0644_u0623_u062b_u0646_u0627_u0621 u0020 u062a_u0642_u0631_u0631 u0020 u062a_u0646_u0641_u064a_u0630 u0020 u0645_u0634_u0631_u0648_u0639 u0020 u0627_u0644_u0633_u062f u0020 u0627_u0644_u0639_u0627_u0644_u0649 u0020 u0648_u0623_u064f_u063a_u0644_u0642 u0020 u0627_u0644_u0645_u0634_u0631_u0648_u0639 u0020 u0644_u0644_u0645_u0631_u0629 u0020 u0627_u0644_u062b_u0627_u0646_u064a_u0629", 
        "u00a0_u00a0_u00a0_u0641_u0649 u0020 u0639_u0627_u0645 u0020 u0031_u0039_u0035_u0039 u0020 u0642_u0627_u0645_u062a u0020 u0634_u0631_u0643_u0629 u0020 u0633_u064a_u0645_u0646_u0632 u0020 u0627_u0644_u0623_u0644_u0645_u0627_u0646_u064a_u0629 u0020 u0628_u0639_u0645_u0644 u0020 u062f_u0631_u0627_u0633_u0627_u062a u0020 u0645_u064a_u062f_u0627_u0646_u064a_u0629 u0020 u0644_u0644_u0645_u0634_u0631_u0648_u0639_u002e_u000d", 
        "u00a0_u00a0_u00a0_u00a0_u0641_u0649 u0020 u0639_u0627_u0645 u0020 u0031_u0039_u0036_u0030 u0020 u0642_u0627_u0645_u062a u0020 u0625_u062f_u0627_u0631_u0629 u0020 u0627_u0644_u0642_u0648_u0649 u0020 u0627_u0644_u0643_u0647_u0631_u0628_u0627_u0626_u064a_u0629 u0020 u0627_u0644_u0645_u0627_u0626_u064a_u0629 u0020 u0628_u0648_u0632_u0627_u0631_u0629 u0020 u0627_u0644_u0623_u0634_u063a_u0627_u0644 u0020 u0628_u0625_u0639_u062f_u0627_u062f u0020 u062a_u0642_u0631_u064a_u0631 u0020 u0639_u0646 u0020 u0645_u0634_u0631_u0648_u0639 u0020 u0645_u0646_u062e_u0641_u0636_u0020", 
        "u0627_u0644_u0642_u0637_u0627_u0631_u0629 u0020 u002e_u000d", 
        "u00a0_u00a0_u0641_u0649 u0020 u0639_u0627_u0645 u0020 u0031_u0039_u0036_u0031 u0020 u0623_u064f_u062f_u0631_u062c u0020 u0647_u0630_u0627 u0020 u0627_u0644_u0645_u0634_u0631_u0648_u0639 u0020 u0641_u0649 u0020 u0627_u062a_u0641_u0627_u0642_u064a_u0629 u0020 u0627_u0644_u062a_u0639_u0627_u0648_u0646 u0020 u0627_u0644_u0641_u0646_u0649 u0020 u0645_u0639 u0020 u062d_u0643_u0648_u0645_u0629 u0020 u0623_u0644_u0645_u0627_u0646_u064a_u0627 u0020 u0627_u0644_u0625_u062a_u062d_u0627_u062f_u064a_u0629 u0020 u0641_u0649 u0020 u0634_u0647_u0631 u0020 u064a_u0648_u0644_u064a_u0648 u0020 u0645_u0646_u0020", 
        "u0646_u0641_u0633 u0020 u0627_u0644_u0633_u0646_u0629 u0020 u002e_u000d", 
        "u00a0_u00a0_u0641_u0649 u0020 u0639_u0627_u0645 u0020 u0031_u0039_u0036_u0034 u0020 u0639_u064f_u0642_u062f_u062a u0020 u0628_u0634_u0623_u0646 u0020 u0647_u0630_u0627 u0020 u0627_u0644_u0645_u0634_u0631_u0648_u0639 u0020 u0627_u062a_u0641_u0627_u0642_u064a_u0629 u0020 u062e_u0627_u0635_u0629 u0020 u062d_u062f_u062f_u062a u0020 u0623_u0639_u0645_u0627_u0644 u0020 u0627_u0644_u0628_u062d_u062b u0020 u0648_u0627_u0644_u062a_u0635_u0645_u064a_u0645 u0020 u0648_u0645_u0633_u0626_u0648_u0644_u064a_u0629 u0020 u0627_u0644_u062c_u0627_u0646_u0628_u0020", 
        "u0627_u0644_u0623_u0644_u0645_u0627_u0646_u0649 u0020 u0648_u0645_u0633_u0626_u0648_u0644_u064a_u0629 u0020 u0627_u0644_u062c_u0627_u0646_u0628 u0020 u0627_u0644_u0645_u0635_u0631_u0649 u0020 u002e_u000d", 
        "u00a0_u00a0_u0627_u0646_u062a_u0647_u062a u0020 u0627_u0644_u0623_u0639_u0645_u0627_u0644 u0020 u0627_u0644_u0628_u062d_u062b_u064a_u0629 u0020 u060c u0020 u0648_u0642_u062f_u0645 u0020 u0627_u0644_u062c_u0627_u0646_u0628 u0020 u0627_u0644_u0623_u0644_u0645_u0627_u0646_u0649 u0020 u0627_u0644_u062a_u0642_u0631_u064a_u0631 u0020 u0627_u0644_u062c_u064a_u0648_u0644_u0648_u062c_u0649 u0020 u2013 u0020 u0648_u0644_u0645 u0020 u064a_u0642_u062f_u0645 u0020 u0627_u0644_u062a_u0642_u0631_u064a_u0631 u0020 u0627_u0644_u0641_u0646_u0649 u0020 u0644_u0642_u0637_u0639 u0020 u0627_u0644_u0639_u0644_u0627_u0642_u0627_u062a_u0020", 
        "u0627_u0644_u0633_u064a_u0627_u0633_u064a_u0629 u0020 u0645_u0639 u0020 u0623_u0644_u0645_u0627_u0646_u064a_u0627 u0020 u0648_u0642_u062a_u0630_u0627_u0643 u0020 u002c_u000d", 
        "u0648_u0623_u064f_u063a_u0644_u0642 u0020 u0627_u0644_u0645_u0634_u0631_u0648_u0639 u0020 u0644_u0644_u0645_u0631_u0629 u0020 u0627_u0644_u062b_u0627_u0644_u062b_u0629 u0020 u002e"
    ]
}