{
    "bounding_box": [
        [
            450, 
            40, 
            183, 
            35
        ], 
        [
            164, 
            106, 
            531, 
            37
        ], 
        [
            450, 
            169, 
            205, 
            29
        ], 
        [
            453, 
            232, 
            201, 
            24
        ], 
        [
            460, 
            285, 
            194, 
            31
        ], 
        [
            105, 
            343, 
            549, 
            31
        ], 
        [
            421, 
            400, 
            233, 
            28
        ]
    ], 
    "image_height": 540, 
    "image_width": 720, 
    "transcription": [
        "u0020_u0625_u062e_u062a_u064a_u0627_u0631 u0020 u0627_u0644_u0645_u062f_u0642_u0642_u064a_u0646", 
        "u064a_u0639_u062a_u0645_u062f u0020 u0646_u0638_u0627_u0645 u0020 u0625_u062e_u062a_u064a_u0627_u0631 u0020 u0627_u0644_u0645_u062f_u0642_u0642_u064a_u0646 u0020 u0639_u0644_u0649 u0020 u0627_u0644_u0623_u0633_u0633 u0020 u0627_u0644_u0622_u062a_u064a_u0629_u003a u0020 u000d", 
        "u0627_u0644_u0633_u0645_u0627_u062a u0020 u0627_u0644_u0634_u062e_u0635_u064a_u0629 u0020 u002e_u000d", 
        "u0020_u0627_u0644_u062a_u062f_u0631_u064a_u0628 u0020 u0627_u0644_u0645_u0646_u0627_u0633_u0628 u0020 u002e_u000d", 
        "u0627_u0644_u062a_u0623_u0647_u064a_u0644 u0020 u0627_u0644_u0623_u0643_u0627_u062f_u064a_u0645_u064a u0020 u002e_u000d", 
        "u0627_u0644_u062e_u0628_u0631_u0629 u0020 u0641_u0649 u0020 u0645_u062c_u0627_u0644 u0020 u062a_u0637_u0628_u064a_u0642 u0020 u0646_u0638_u0645 u0020 u0625_u062f_u0627_u0631_u0629 u0020 u0627_u0644_u062c_u0648_u062f_u0629 u0020 u0641_u0649 u0020 u0627_u0644_u0645_u062c_u0627_u0644_u0627_u062a_u0020", 
        "u0627_u0644_u0635_u0646_u0627_u0639_u064a_u0629 u0020 u0623_u0648 u0020 u0627_u0644_u062e_u062f_u0645_u064a_u0629_u002e u0020 u000d"
    ]
}