{
    "bounding_box": [
        [
            21, 
            503, 
            15, 
            10
        ], 
        [
            22, 
            147, 
            660, 
            29
        ], 
        [
            390, 
            209, 
            270, 
            25
        ], 
        [
            81, 
            257, 
            601, 
            31
        ], 
        [
            66, 
            302, 
            616, 
            30
        ], 
        [
            48, 
            346, 
            634, 
            31
        ], 
        [
            36, 
            391, 
            646, 
            31
        ], 
        [
            74, 
            435, 
            608, 
            30
        ], 
        [
            484, 
            68, 
            183, 
            22
        ]
    ], 
    "image_height": 540, 
    "image_width": 720, 
    "transcription": [
        "u0032_u0035", 
        "u0628_u0647 u0020 u062f_u0644_u064a_u0644 u0020 u062e_u0635_u0627_u064a_u0644 u0020 u0645_u0645_u062a_u0627_u0632 u0020 u0645_u062d_u064a_u0637 u0020 u0627_u064a_u0646_u062a_u0631_u0646_u062a_u060c u0020 u0636_u0631_u064a_u0628 u0020 u0646_u0641_u0648_u0630 u0020 u0622_u0646 u0020 u0628_u064a_u0634 u0020 u0627_u0632_u0020", 
        "u0647_u0645_u0647 u0020 u0631_u0633_u0627_u0646_u0647 u0020 u0647_u0627 u0020 u0628_u0648_u062f_u0647 u0020 u0627_u0633_u062a_u003a u0020 u000d", 
        "uf098 u0020 u062a_u0644_u0641_u0646 u0020 u062f_u0631 u0020 u0637_u064a u0020 u0037_u0034 u0020 u0633_u0627_u0644 u0020 u0628_u0647 u0020 u0035_u0030 u0020 u0645_u064a_u0644_u064a_u0648_u0646 u0020 u0643_u0627_u0631_u0628_u0631 u0020 u062f_u0633_u062a u0020 u064a_u0627_u0641_u062a_u002e_u000d", 
        "uf098 u0020 u0631_u0627_u062f_u064a_u0648 u0020 u062f_u0631 u0020 u0637_u064a u0020 u0033_u0038 u0020 u0633_u0627_u0644 u0020 u0628_u0647 u0020 u0035_u0030 u0020 u0645_u064a_u0644_u064a_u0648_u0646 u0020 u0643_u0627_u0631_u0628_u0631 u0020 u062f_u0633_u062a u0020 u064a_u0627_u0641_u062a_u002e_u000d", 
        "uf098 u0020 u062a_u0644_u0648_u064a_u0632_u064a_u0648_u0646 u0020 u062f_u0631_u0637_u064a u0020 u0031_u0033_u0633_u0627_u0644 u0020 u0628_u0647 u0020 u0035_u0030 u0020 u0645_u064a_u0644_u064a_u0648_u0646 u0020 u0643_u0627_u0631_u0628_u0631 u0020 u062f_u0633_u062a u0020 u064a_u0627_u0641_u062a_u002e_u000d", 
        "uf098 u0020 u0634_u0628_u0643_u0647 u0020 u0643_u0627_u0628_u0644_u064a u0020 u062f_u0631_u0637_u064a_u0031_u0030_u0633_u0627_u0644 u0020 u0628_u0647 u0020 u0035_u0030 u0020 u0645_u064a_u0644_u064a_u0648_u0646 u0020 u0643_u0627_u0631_u0628_u0631 u0020 u062f_u0633_u062a u0020 u064a_u0627_u0641_u062a_u002e_u000d", 
        "uf098 u0020 u0627_u064a_u0646_u062a_u0631_u0646_u062a u0020 u062f_u0631 u0020 u0637_u064a u0020 u0034 u0020 u0633_u0627_u0644 u0020 u0628_u0647 u0020 u0035_u0030 u0020 u0645_u064a_u0644_u064a_u0648_u0646 u0020 u0643_u0627_u0631_u0628_u0631_u062f_u0633_u062a u0020 u064a_u0627_u0641_u062a_u0021_u0020", 
        "u0633_u0631_u0639_u062a u0020 u0631_u0634_u062f u0020 u0627_u064a_u0646_u062a_u0631_u0646_u062a"
    ]
}