{
    "bounding_box": [
        [
            529, 
            40, 
            94, 
            26
        ], 
        [
            46, 
            133, 
            547, 
            39
        ], 
        [
            111, 
            181, 
            483, 
            34
        ], 
        [
            511, 
            225, 
            84, 
            28
        ]
    ], 
    "image_height": 540, 
    "image_width": 720, 
    "transcription": [
        "u0627_u0644_u0623_u0633_u0626_u0644_u0629 u0020 u003a u0020 u000b", 
        "u0633_u0035 u0020 u002e u0020 u0020_u0641_u064a u0020 u0623_u0639_u0642_u0627_u0628 u0020 u0642_u0631_u0627_u0621_u062a_u0643 u0020 u0644_u0644_u0646_u0635 u0020 u0647_u0644 u0020 u062a_u0648_u0627_u0641_u0642 u0020 u0639_u0644_u0649_u0020", 
        "u0627_u062e_u062a_u064a_u0627_u0631 u0020 u0627_u0644_u0628_u062a_u0631_u0627_u0621 u0020 u0636_u0645_u0646 u0020 u0627_u0644_u0639_u062c_u0627_u0626_u0628 u0020 u0627_u0644_u0633_u0628_u0639 u0020 u061f u0020 u0639_u0644_u0644_u0020", 
        "u0627_u062c_u0627_u0628_u062a_u0643_u000d"
    ]
}