{
    "bounding_box": [
        [
            158, 
            104, 
            396, 
            41
        ], 
        [
            27, 
            149, 
            628, 
            34
        ], 
        [
            54, 
            217, 
            637, 
            34
        ], 
        [
            631, 
            257, 
            60, 
            27
        ], 
        [
            49, 
            330, 
            643, 
            31
        ], 
        [
            102, 
            364, 
            589, 
            28
        ], 
        [
            110, 
            401, 
            581, 
            27
        ], 
        [
            106, 
            432, 
            586, 
            30
        ], 
        [
            96, 
            465, 
            596, 
            29
        ], 
        [
            194, 
            499, 
            498, 
            30
        ]
    ], 
    "image_height": 540, 
    "image_width": 720, 
    "transcription": [
        "u0645_u0646_u0647_u062c u0020 u0627_u0644_u0645_u0624_u0644_u0641 u0020 u0641_u064a u0020 u0643_u062a_u0627_u0628 u0020 u0627_u0644_u0648_u0642_u0641 u0020 u000d", 
        "u0648_u0636_u0639 u0020 u0627_u0644_u0645_u0624_u0644_u0641 u0020 u0641_u064a u0020 u0643_u062a_u0627_u0628_u0647 u0020 u0645_u0642_u062f_u0645_u0629 u0020 u0648_u0623_u0631_u0628_u0639_u0629 u0020 u0639_u0646_u0627_u0648_u064a_u0646 u0020 u0631_u0626_u064a_u0633_u0629 u0020 u0648_u062e_u0627_u062a_u0645_u0629 u0020 u000d", 
        "u0623_u0645_u0627 u0020 u0627_u0644_u0645_u0642_u062f_u0645_u0629_u003a u0020 u0020 u0020 u0641_u0641_u064a_u0647_u0627 u0020 u0628_u064a_u0651_u0646 u0020 u0623_u0647_u0645_u064a_u0629 u0020 u0639_u0644_u0645 u0020 u0627_u0644_u0648_u0642_u0641 u0020 u0648_u0627_u0641_u062a_u0642_u0627_u0631 u0020 u0627_u0644_u0642_u0627_u0631_u0626 u0020 u0625_u0644_u064a_u0647_u060c_u0020", 
        "u0641_u0642_u0627_u0644_u003a_u000d", 
        "u0020_u0028_u0028 u0020 u0625_u0639_u0644_u0645 u0020 u0623_u0646 u0020 u0627_u0644_u0645_u0642_u0627_u0637_u0639 u0020 u0648_u0627_u0644_u0645_u0628_u0627_u062f_u0626 u0020 u0639_u0644_u0645 u0020 u0645_u0641_u062a_u0642_u0631 u0020 u0625_u0644_u064a_u0647 u0020 u064a_u0639_u0644_u0645 u0020 u0628_u0647 u0020 u0627_u0644_u0641_u0631_u0642 u0020 u0628_u064a_u0646 u0020 u0627_u0644_u0645_u0639_u0646_u064a_u064a_u0646_u0020", 
        "u0627_u0644_u0645_u062e_u062a_u0644_u0641_u064a_u0646_u060c u0020 u0648_u0627_u0644_u0642_u0635_u062a_u064a_u0646 u0020 u0627_u0644_u0645_u062a_u0646_u0627_u0641_u064a_u062a_u064a_u0646_u060c u0020 u0648_u0627_u0644_u0622_u064a_u062a_u064a_u0646 u0020 u0627_u0644_u0645_u062a_u0636_u0627_u062f_u062a_u064a_u0646_u060c u0020 u0648_u0627_u0644_u062d_u0643_u0645_u064a_u0646_u0020", 
        "u0627_u0644_u0645_u062a_u0642_u0627_u0631_u0628_u064a_u0646_u060c u0020 u0648_u0628_u064a_u0646 u0020 u0627_u0644_u0646_u0627_u0633_u062e u0020 u0648_u0627_u0644_u0645_u0646_u0633_u0648_u062e_u060c u0020 u0648_u0627_u0644_u0645_u062c_u0645_u0644 u0020 u0648_u0627_u0644_u0645_u0641_u0633_u0631_u060c u0020 u0648_u0627_u0644_u0645_u062d_u0643_u0645_u0020", 
        "u0648_u0627_u0644_u0645_u062a_u0634_u0627_u0628_u0647_u060c u0020 u0648_u064a_u0645_u064a_u0632 u0020 u0628_u0647 u0020 u0628_u064a_u0646 u0020 u0627_u0644_u062d_u0644_u0627_u0644 u0020 u0648_u0627_u0644_u062d_u0631_u0627_u0645_u060c u0020 u0648_u0628_u064a_u0646 u0020 u0645_u0627 u0020 u064a_u0642_u062a_u0636_u064a u0020 u0627_u0644_u0631_u062d_u0645_u0629_u0020", 
        "u0648_u0627_u0644_u0639_u0630_u0627_u0628_u002e_u002e_u002e u0020 u062b_u0645 u0020 u0642_u0627_u0644 u0020 u003a u0020 u0641_u0625_u0630_u0627_u064b u0020 u0627_u0644_u0648_u0642_u0641 u0020 u062d_u0644_u064a_u0629 u0020 u0627_u0644_u062a_u0644_u0627_u0648_u0629_u060c u0020 u0648_u062a_u062d_u0644_u064a_u0629 u0020 u0627_u0644_u062f_u0631_u0627_u064a_u0629_u060c u0020 u0648_u0632_u064a_u0646_u0629_u0020", 
        "u0627_u0644_u0642_u0627_u0631_u064a_u060c u0020 u0648_u0628_u0644_u0627_u063a_u0629 u0020 u0627_u0644_u062a_u0627_u0644_u064a_u060c u0020 u0648_u0641_u0647_u0645 u0020 u0627_u0644_u0645_u0633_u062a_u0645_u0639_u060c u0020 u0648_u0641_u062e_u0631 u0020 u0644_u0644_u0639_u0627_u0644_u0645 u0020 u0029_u0029_u002e u0020 u000d"
    ]
}