{
    "bounding_box": [
        [
            90, 
            56, 
            574, 
            29
        ], 
        [
            86, 
            88, 
            578, 
            31
        ], 
        [
            91, 
            123, 
            573, 
            29
        ], 
        [
            79, 
            156, 
            584, 
            30
        ], 
        [
            82, 
            188, 
            582, 
            31
        ], 
        [
            51, 
            221, 
            613, 
            32
        ], 
        [
            73, 
            256, 
            590, 
            31
        ], 
        [
            300, 
            293, 
            364, 
            25
        ], 
        [
            62, 
            325, 
            601, 
            29
        ], 
        [
            82, 
            355, 
            582, 
            32
        ], 
        [
            273, 
            391, 
            391, 
            30
        ], 
        [
            95, 
            428, 
            569, 
            27
        ], 
        [
            531, 
            458, 
            133, 
            28
        ]
    ], 
    "image_height": 540, 
    "image_width": 720, 
    "transcription": [
        "u0641_u0639_u0646 u0020 u0623_u0646_u0633 u0020 u0628_u0646 u0020 u0645_u0627_u0644_u0643 u0020 u0623_u0646 u0020 u0631_u0633_u0648_u0644 u0020 u0627_u0644_u0644_u0647_u060c u0020 u0643_u0627_u0646 u0020 u064a_u0642_u0648_u0644_u003a u0020 u0644_u0627 u0020 u062a_u064f_u0634_u0651_u062f_u062f_u0648_u0627 u0020 u0639_u0644_u0649 u0020 u0623_u0646_u0641_u0633_u0643_u0645_u0020", 
        "u0641_u064a_u0634_u062f_u0651_u0650_u062f u0020 u0627_u0644_u0644_u0647 u0020 u0639_u0644_u064a_u0643_u0645_u060c u0020 u0641_u0625_u0646_u0651_u064e u0020 u0642_u0648_u0645_u064b_u0627 u0020 u0634_u062f_u0651_u064e_u062f_u0648_u0627 u0020 u0639_u0644_u0649 u0020 u0623_u0646_u0641_u0633_u0647_u0645 u0020 u0641_u0634_u062f_u0651_u064e_u062f u0020 u0627_u0644_u0644_u0647 u0020 u0639_u0644_u064a_u0647_u0645_u060c u0020 u0641_u062a_u0644_u0643_u0020", 
        "u0628_u0642_u0627_u064a_u0627_u0647_u0645 u0020 u0641_u064a u0020 u0627_u0644_u0635_u0651_u064e_u0648_u0627_u0645_u0639 u0020 u0648_u0627_u0644_u062f_u0651_u064a_u0627_u0631_u0627_u062a u0020 u0631_u0647_u0628_u0627_u0646_u064a_u0651_u064e_u0629 u0020 u0627_u0628_u062a_u062f_u0639_u0648_u0647_u0627 u0020 u0645_u0627 u0020 u0643_u062a_u0628_u0646_u0627_u0647_u0627 u0020 u0639_u0644_u064a_u0647_u0645_u002e_u000b", 
        "u0648_u0641_u064a u0020 u0627_u0644_u0635_u062d_u064a_u062d_u064a_u0646 u0020 u0623_u0646 u0020 u0631_u062c_u0644_u0627 u0020 u062c_u0627_u0621 u0020 u0625_u0644_u0649 u0020 u0631_u0633_u0648_u0644 u0020 u0627_u0644_u0644_u0647_u060c u0020 u0641_u0642_u0627_u0644_u003a u0020 u0625_u0646_u0651_u064a u0020 u0644_u0623_u062a_u0623_u062e_u0631_u0651 u0020 u0639_u0646_u0020", 
        "u0635_u0644_u0627_u0629 u0020 u0627_u0644_u0635_u0651_u0628_u062d u0020 u0645_u0646 u0020 u0623_u062c_u0644 u0020 u0641_u0644_u0627_u0646 u0020 u0645_u0645_u0627 u0020 u064a_u0637_u064a_u0644 u0020 u0628_u0646_u0627 u0020 u0642_u0627_u0644 u0020 u0623_u0628_u0648 u0020 u0645_u0633_u0639_u0648_u062f u0020 u0627_u0644_u0623_u0646_u0635_u0627_u0631_u064a_u0020", 
        "u0631_u0627_u0648_u064a u0020 u0627_u0644_u062d_u062f_u064a_u062b_u003a u0020 u0641_u0645_u0627 u0020 u0631_u0623_u064a_u062a u0020 u0627_u0644_u0646_u0628_u064a_u060c u0020 u063a_u0636_u0628 u0020 u0641_u064a u0020 u0645_u0648_u0639_u0638_u0629 u0020 u0642_u0637_u0651 u0020 u0623_u0634_u062f_u0651 u0020 u0645_u0645_u0651_u0627 u0020 u063a_u0636_u0628_u0020", 
        "u064a_u0648_u0645_u0626_u0630_u060c u0020 u0641_u0642_u0627_u0644_u003a u0020 u0623_u064a_u0651_u0647_u0627 u0020 u0627_u0644_u0646_u0627_u0633 u0020 u0625_u0646 u0020 u0645_u0646_u0643_u0645 u0020 u0645_u0646_u0641_u0651_u0631_u064a_u0646_u060c u0020 u0641_u0623_u064a_u0651_u0643_u0645 u0020 u0623_u0645_u0651_u064e u0020 u0627_u0644_u0646_u0651_u0627_u0633 u0020 u0641_u0644_u064a_u0648_u062c_u0632_u060c u0020 u0641_u0625_u0646_u0651_u064e_u0020", 
        "u0645_u0646 u0020 u0648_u0631_u0627_u0626_u0647 u0020 u0627_u0644_u0643_u0628_u064a_u0631_u060c u0020 u0648_u0627_u0644_u0636_u0639_u064a_u0641_u060c u0020 u0648_u0630_u0627 u0020 u0627_u0644_u062d_u0627_u062c_u0629_u002e_u000b", 
        "u0648_u062c_u0627_u0621 u0020 u0641_u064a u0020 u0627_u0644_u0635_u0651_u062d_u064a_u062d_u064a_u0646 u0020 u0648_u063a_u064a_u0631_u0647_u0645_u0627 u0020 u0639_u0646 u0020 u0623_u0646_u0633 u0020 u0628_u0646 u0020 u0645_u0627_u0644_u0643 u0020 u0623_u0646 u0020 u0627_u0644_u0646_u0628_u064a_u060c u0020 u0631_u0623_u0649 u0020 u0634_u064a_u062e_u064b_u0627_u0020", 
        "u064a_u0647_u0627_u062f_u064a u0020 u0628_u064a_u0646 u0020 u0627_u0628_u0646_u064a_u0647_u060c u0020 u0641_u0642_u0627_u0644_u003a u0020 u0645_u0627 u0020 u0628_u0627_u0644 u0020 u0647_u0630_u0627_u061f u0020 u0642_u0627_u0644_u0648_u0627_u003a u0020 u0646_u0630_u0631 u0020 u0623_u0646 u0020 u064a_u0645_u0634_u064a_u060c u0020 u0642_u0627_u0644_u003a u0020 u0625_u0646_u0651_u064e u0020 u0627_u0644_u0644_u0647_u0020", 
        "u0639_u0646 u0020 u062a_u0639_u0630_u064a_u0628 u0020 u0647_u0630_u0627 u0020 u0644_u0646_u0641_u0633_u0647 u0020 u0644_u063a_u0646_u064a_u060c u0020 u0648_u0623_u0645_u0631_u0647 u0020 u0623_u0646 u0020 u064a_u0631_u0643_u0628_u002e_u000b", 
        "u0641_u0647_u0630_u0627 u0020 u0643_u0644_u0647 u0020 u0648_u063a_u064a_u0631_u0647 u0020 u0643_u062b_u064a_u0631_u060c u0020 u064a_u0624_u0643_u062f u0020 u0639_u0644_u0649 u0020 u0646_u0647_u064a u0020 u0627_u0644_u0625_u0633_u0644_u0627_u0645 u0020 u0639_u0646 u0020 u0627_u0644_u063a_u0644_u0648 u0020 u0641_u064a u0020 u0627_u0644_u062a_u0639_u0628_u062f_u060c_u0020", 
        "u0648_u0623_u0645_u0631_u0647 u0020 u0628_u0627_u0644_u062a_u0648_u0633_u0637_u002e"
    ]
}