{
    "bounding_box": [
        [
            49, 
            142, 
            615, 
            35
        ], 
        [
            16, 
            180, 
            648, 
            38
        ], 
        [
            466, 
            229, 
            198, 
            27
        ], 
        [
            1, 
            262, 
            663, 
            38
        ], 
        [
            55, 
            305, 
            609, 
            36
        ], 
        [
            557, 
            346, 
            107, 
            31
        ], 
        [
            11, 
            387, 
            653, 
            35
        ], 
        [
            51, 
            428, 
            613, 
            35
        ], 
        [
            27, 
            468, 
            637, 
            36
        ], 
        [
            34, 
            507, 
            630, 
            38
        ], 
        [
            270, 
            43, 
            203, 
            71
        ], 
        [
            276, 
            81, 
            156, 
            37
        ], 
        [
            61, 
            497, 
            23, 
            13
        ]
    ], 
    "image_height": 540, 
    "image_width": 720, 
    "transcription": [
        "u0648_u0627_u062d_u062f_u0629 u0020 u0645_u0646 u0020 u0623_u0647_u0645 u0020 u0648_u0633_u0627_u0626_u0644 u0020 u062e_u062f_u0627_u0639 u0020 u0627_u0644_u0645_u0633_u062a_u062e_u062f_u0645 u0020 u062a_u062a_u0645_u062b_u0644 u0020 u0641_u064a u0020 u0627_u0633_u062a_u062e_u062f_u0627_u0645_u0020", 
        "u0648_u0633_u0627_u0626_u0644 u0020 u0627_u0644_u0647_u0646_u062f_u0633_u0629 u0020 u0627_u0644_u0627_u062c_u062a_u0645_u0627_u0639_u064a_u0629 u0020 u062c_u0645_u0639 u0020 u0645_u0639_u0644_u0648_u0645_u0627_u062a u0020 u0639_u0646_u0647 u0020 u0645_u0646_u0647 u0020 u0634_u062e_u0635_u064a_u0627_u0020", 
        "u0644_u0627_u0633_u062a_u062e_u062f_u0627_u0645_u0647_u0627 u0020 u0636_u062f_u0647_u002e_u000d", 
        "u0643_u062b_u064a_u0631_u0627 u0020 u0645_u0627 u0020 u064a_u0642_u0648_u0645 u0020 u0627_u0644_u0645_u062e_u062a_u0631_u0642_u0648_u0646 u0020 u0628_u0627_u0644_u0627_u062a_u0635_u0627_u0644 u0020 u0628_u0645_u0633_u062a_u062e_u062f_u0645 u0020 u0645_u062a_u0638_u0627_u0647_u0631_u064a_u0646 u0020 u0628_u0623_u0646_u0647_u0645_u0020", 
        "u0645_u0645_u062b_u0644_u064a_u0646 u0020 u0644_u0645_u0648_u0642_u0639 u0020 u0632_u0627_u0631_u0647 u0020 u0647_u0630_u0627 u0020 u0627_u0644_u0645_u0633_u062a_u062e_u062f_u0645 u0020 u0644_u064a_u0633_u0623_u0644_u0648_u0647 u0020 u0639_u0646 u0020 u0645_u0639_u0644_u0648_u0645_u0627_u062a_u0020", 
        "u0634_u062e_u0635_u064a_u0629_u002e_u000d", 
        "u0628_u0639_u062f u0020 u0623_u0646 u0020 u064a_u0623_u062e_u0630 u0020 u0627_u0644_u0645_u062e_u062a_u0631_u0642 u0020 u0647_u0630_u0647 u0020 u0627_u0644_u0645_u0639_u0644_u0648_u0645_u0627_u062a u0020 u064a_u0642_u0648_u0645 u0020 u0628_u0627_u0644_u0627_u062a_u0635_u0627_u0644 u0020 u0628_u0627_u0644_u0645_u0648_u0642_u0639_u0020", 
        "u0627_u0644_u0630_u064a u0020 u0632_u0627_u0631_u0647 u0020 u0627_u0644_u0645_u0633_u062a_u062e_u062f_u0645 u0020 u0645_u062a_u0638_u0627_u0647_u0631_u0627 u0020 u0628_u0623_u0646_u0647 u0020 u0630_u0644_u0643 u0020 u0627_u0644_u0645_u0633_u062a_u062e_u062f_u0645 u0020 u0648_u064a_u0637_u0644_u0628_u0020", 
        "u062a_u063a_u064a_u064a_u0631 u0020 u0643_u0644_u0645_u0629 u0020 u0627_u0644_u0633_u0631 u0020 u0627_u0644_u062e_u0627_u0635_u0629 u0020 u0628_u0627_u0644_u0645_u0633_u062a_u062e_u062f_u0645 u0020 u0644_u064a_u0633_u062a_u0648_u0644_u064a u0020 u0639_u0644_u0649 u0020 u062d_u0633_u0627_u0628_u0647_u002e_u000d", 
        "u0643_u0630_u0644_u0643 u0020 u062a_u0639_u062f u0020 u0631_u0633_u0627_u0626_u0644 u0020 u0627_u0644_u0627_u062d_u062a_u064a_u0627_u0644 u0020 u0627_u0644_u0623_u0644_u0643_u062a_u0631_u0648_u0646_u064a u0020 u0050_u0068_u0069_u0073_u0068_u0069_u006e_u0067 u0020 u0020_u0648_u0627_u062d_u062f_u0629_u0020", 
        "u0627_u0644_u0645_u062e_u062a_u0631_u0642_u0648_u0646", 
        "u062e_u062f_u0627_u0639 u0020 u0627_u0644_u0645_u0633_u062a_u062e_u062f_u0645", 
        "u0032_u0030_u0037"
    ]
}