{
    "bounding_box": [
        [
            417, 
            63, 
            241, 
            29
        ], 
        [
            188, 
            115, 
            461, 
            26
        ]
    ], 
    "image_height": 540, 
    "image_width": 720, 
    "transcription": [
        "u0633_u0637_u062d u0020 u0627_u0644_u0645_u0643_u062a_u0628 u0020 u0641_u064a u0020 u0648_u064a_u0646_u062f_u0648_u0632 u0020 u0037", 
        "u0628_u0639_u062f u0020 u0644_u062d_u0638_u0627_u062a u0020 u0645_u0646 u0020 u062a_u0633_u062c_u064a_u0644 u0020 u0627_u0644_u062f_u062e_u0648_u0644 u0020 u0633_u062a_u0634_u0627_u0647_u062f u0020 u0633_u0637_u062d u0020 u0627_u0644_u0645_u0643_u062a_u0628 u0020 u000d"
    ]
}