{
    "bounding_box": [
        [
            136, 
            53, 
            448, 
            33
        ], 
        [
            101, 
            152, 
            76, 
            19
        ], 
        [
            101, 
            194, 
            115, 
            19
        ], 
        [
            101, 
            238, 
            70, 
            20
        ], 
        [
            101, 
            283, 
            66, 
            19
        ], 
        [
            101, 
            325, 
            62, 
            19
        ]
    ], 
    "image_height": 540, 
    "image_width": 720, 
    "transcription": [
        "u0054_u0079_u0070_u0065_u0073 u0020 u006f_u0066 u0020 u0047_u0072_u006f_u0075_u0070 u0020 u0046_u0075_u006e_u0063_u0074_u0069_u006f_u006e_u0073", 
        "u0041_u0056_u0047 u0020 u000d", 
        "u0043_u004f_u0055_u004e_u0054 u0020 u000d", 
        "u004d_u0041_u0058_u000d", 
        "u004d_u0049_u004e u0020 u000d", 
        "u0053_u0055_u004d"
    ]
}