{
    "bounding_box": [
        [
            69, 
            142, 
            623, 
            28
        ], 
        [
            347, 
            187, 
            345, 
            19
        ], 
        [
            226, 
            55, 
            266, 
            30
        ]
    ], 
    "image_height": 540, 
    "image_width": 720, 
    "transcription": [
        "u0648_u062a_u0646_u0642_u0633_u0645 u0020 u0627_u0644_u0625_u0642_u0627_u0645_u0629 u0020 u0625_u0644_u0649 u0020 u0633_u0646_u0629 u0020 u0639_u0627_u0645_u0629 u0020 u0050_u0047_u0059_u0031 u0020 u0648_u0633_u0646_u0629 u0020 u062a_u062e_u0635_u0635 u0020 u0050_u0047_u0059_u0032_u000d", 
        "u0050_u0047_u0059_u003d u0020 u0050_u006f_u0073_u0074_u002d_u0047_u0072_u0061_u0064_u0075_u0061_u0074_u0065 u0020 u0059_u0065_u0061_u0072_u000d", 
        "u0627_u0644_u0625_u0642_u0627_u0645_u0629 u0020 u0052_u0065_u0073_u0069_u0064_u0065_u006e_u0063_u0079"
    ]
}