{
    "bounding_box": [
        [
            36, 
            96, 
            120, 
            46
        ], 
        [
            92, 
            157, 
            562, 
            32
        ], 
        [
            156, 
            193, 
            498, 
            31
        ], 
        [
            426, 
            229, 
            228, 
            23
        ], 
        [
            60, 
            267, 
            594, 
            34
        ], 
        [
            257, 
            304, 
            397, 
            31
        ], 
        [
            73, 
            344, 
            581, 
            33
        ], 
        [
            306, 
            381, 
            348, 
            26
        ], 
        [
            63, 
            421, 
            591, 
            34
        ], 
        [
            170, 
            456, 
            484, 
            33
        ]
    ], 
    "image_height": 540, 
    "image_width": 720, 
    "transcription": [
        "u0627_u0644_u062a_u0637_u0628_u064a_u0642", 
        "u064a_u062d_u0642 u0020 u0644_u0647_u0630_u0647 u0020 u0627_u0644_u0645_u0624_u0633_u0633_u0627_u062a u0020 u0627_u0644_u062a_u062f_u0642_u064a_u0642_u064a_u0629 u0020 u0623_u0646 u0020 u062a_u0642_u0648_u0645 u0020 u0628_u0639_u0645_u0644_u064a_u0627_u062a u0020 u0641_u062d_u0635_u0020", 
        "u0648_u062a_u0641_u062a_u064a_u0634 u0020 u002e_u002e u0020 u0020_u063a_u064a_u0631 u0020 u0645_u0639_u0644_u0646 u0020 u0648_u062d_u062a_u0649 u0020 u0628_u062f_u0648_u0646 u0020 u062a_u0631_u062a_u064a_u0628 u0020 u0645_u0633_u0628_u0642_u0020", 
        "u0075_u006e_u0061_u006e_u006e_u006f_u0075_u006e_u0063_u0065_u0064_u002e_u000d", 
        "u0627_u0644_u062a_u0641_u062a_u064a_u0634 u0020 u0627_u0644_u0631_u0648_u062a_u064a_u0646_u064a u0020 u0627_u0644_u062e_u0627_u0635 u0020 u0628_u0627_u0644_u0640 u0020 u0046_u0044_u0041 u0020 u0639_u0627_u062f_u0629 u0020 u0645_u0627 u0020 u064a_u0643_u0648_u0646 u0020 u0641_u062c_u0627_u0626_u064a_u0020", 
        "u062d_u0633_u0628 u0020 u0645_u0627 u0020 u064a_u0633_u0645_u062d u0020 u0628_u0647 u0020 u0627_u0644_u0642_u0627_u0646_u0648_u0646_u0037_u0030_u0034_u0028_u0041_u0029 u0020 u002e_u002e_u000d", 
        "u002e_u002e u0020 u0627_u0644_u0630_u064a u0020 u064a_u0646_u0635 u0020 u0639_u0644_u0649 u0020 u0636_u0631_u0648_u0631_u0629 u0020 u0623_u0646 u0020 u064a_u0643_u0648_u0646 u0020 u0627_u0644_u062a_u0641_u062a_u064a_u0634 u0020 u0636_u0645_u0646 u0020 u0648_u0642_u062a_u0020", 
        "u0645_u0639_u0642_u0648_u0644 u0020 u2013 u0020 u0072_u0065_u0061_u0073_u006f_u006e_u0061_u0062_u006c_u0065 u0020 u0074_u0069_u006d_u0065_u000d", 
        "u0648_u062a_u0641_u0633_u0631 u0020 u0627_u0644_u0645_u062d_u0627_u0643_u0645 u0020 u0647_u0630_u0627 u0020 u0627_u0644_u0648_u0642_u062a u0020 u0627_u0644_u0645_u0639_u0642_u0648_u0644 u0020 u0639_u0644_u0649 u0020 u0623_u0646_u0647 u0020 u0623_u064a u0020 u0648_u0642_u062a u0020 u062a_u0641_u062a_u062d_u0020", 
        "u0641_u064a_u0647 u0020 u0627_u0644_u0645_u0624_u0633_u0629 u0020 u0644_u0644_u0639_u0645_u0644 u0020 u2013 u0020 u006f_u0070_u0065_u006e u0020 u0066_u006f_u0072 u0020 u0062_u0075_u0073_u0069_u006e_u0065_u0073_u0073_u000d"
    ]
}