{
    "bounding_box": [
        [
            108, 
            352, 
            437, 
            29
        ], 
        [
            454, 
            392, 
            92, 
            27
        ], 
        [
            140, 
            435, 
            406, 
            32
        ], 
        [
            394, 
            473, 
            152, 
            28
        ]
    ], 
    "image_height": 540, 
    "image_width": 720, 
    "transcription": [
        "u062a_u0633_u0623_u0644 u0020 u0627_u0644_u0645_u0639_u0644_u0645_u0629 u0020 u0627_u0644_u0623_u0637_u0641_u0627_u0644 u0020 u0645_u0627 u0020 u0627_u0644_u0639_u0644_u0627_u0642_u0629 u0020 u0628_u064a_u0646 u0020 u0627_u0644_u0633_u0645_u0643_u0020", 
        "u0648_u0627_u0644_u0645_u0627_u0621 u0020 u061f_u000d", 
        "u0641_u064a_u0633_u062a_u0646_u062a_u062c u0020 u0627_u0644_u0623_u0637_u0641_u0627_u0644 u0020 u0627_u0646 u0020 u0627_u0644_u0633_u0645_u0643 u0020 u064a_u0639_u064a_u0634 u0020 u0628_u0633_u0628_u0628_u0020", 
        "u0648_u062c_u0648_u062f_u0647 u0020 u0641_u0627_u0644_u0645_u0627_u0621 u0020 u002e"
    ]
}