{
    "bounding_box": [
        [
            43, 
            35, 
            586, 
            42
        ], 
        [
            43, 
            110, 
            626, 
            30
        ], 
        [
            54, 
            149, 
            615, 
            30
        ], 
        [
            159, 
            182, 
            510, 
            36
        ], 
        [
            37, 
            231, 
            632, 
            31
        ], 
        [
            34, 
            276, 
            635, 
            31
        ], 
        [
            429, 
            313, 
            240, 
            29
        ], 
        [
            31, 
            359, 
            638, 
            27
        ], 
        [
            40, 
            398, 
            629, 
            28
        ], 
        [
            50, 
            430, 
            619, 
            33
        ], 
        [
            308, 
            474, 
            361, 
            26
        ]
    ], 
    "image_height": 540, 
    "image_width": 720, 
    "transcription": [
        "u0637_u0631_u064a_u0642_u0629 u0020 u0049_u0055_u0050_u0041_u0043 u0020 u0028_u0627_u0644_u062a_u0633_u0645_u064a_u0647 u0020 u0627_u0644_u0646_u0638_u0627_u0645_u064a_u0647 u0020 u0029_u0627_u0644_u0627_u064a_u0648_u0628_u0627_u0643", 
        "u0031_u002d u0020 u064a_u062a_u0645 u0020 u0627_u062e_u062a_u064a_u0627_u0631 u0020 u0627_u0637_u0648_u0644 u0020 u0633_u0644_u0633_u0644_u0647 u0020 u0645_u0633_u062a_u0645_u0631_u0647 u0020 u0645_u0646 u0020 u0630_u0631_u0627_u062a u0020 u0627_u0644_u0643_u0631_u0628_u0648_u0646 u0020 u0648_u062a_u0639_u062a_u0628_u0631_u0020", 
        "u0647_u0649 u0020 u0627_u0644_u0645_u0631_u0643_u0628 u0020 u0627_u0644_u0627_u0633_u0627_u0633_u0649 u0020 u0028_u0627_u0644_u0627_u0645_u0029 u0020 u0648_u064a_u0637_u0644_u0642 u0020 u0639_u0644_u064a_u0647_u0627 u0020 u0627_u0633_u0645 u0020 u0627_u0644_u0627_u0644_u0643_u0627_u0646 u0020 u0627_u0644_u0645_u0642_u0627_u0628_u0644_u0020", 
        "u0648_u0645_u0627_u062a_u0641_u0631_u0639 u0020 u0645_u0646_u0647_u0627 u0020 u0645_u0646 u0020 u0645_u062c_u0645_u0648_u0639_u0627_u062a u0020 u0627_u0644_u0643_u064a_u0644_u064a_u0647 u0020 u062a_u0639_u062a_u0628_u0631 u0020 u0641_u0631_u0648_u0639_u0627_u064b u0020 u002e_u000d", 
        "u0032_u002d u0020 u062a_u0631_u0642_u0645 u0020 u0627_u0644_u0633_u0644_u0633_u0644_u0647 u0020 u0627_u0628_u062a_u062f_u0627_u0621_u064b u0020 u0645_u0646 u0020 u0637_u0631_u0641 u0020 u0627_u0644_u0633_u0644_u0633_u0644_u0647 u0020 u0627_u0644_u0627_u0642_u0631_u0628 u0020 u0644_u0627_u0648_u0644 u0020 u062a_u0641_u0631_u0639 u0020 u002e_u000d", 
        "u0033_u002d u0020 u062a_u0639_u064a_u0646 u0020 u0645_u0648_u0627_u0642_u0639 u0020 u0645_u062c_u0627_u0645_u064a_u0639 u0020 u0627_u0644_u0627_u0644_u0643_u064a_u0644 u0020 u0627_u0648 u0020 u0627_u0644_u0645_u062c_u0627_u0645_u064a_u0639 u0020 u0627_u0644_u0628_u062f_u064a_u0644_u0647 u0020 u0628_u0627_u0631_u0642_u0627_u0645 u0020 u0630_u0631_u0627_u062a_u0020", 
        "u0627_u0644_u0643_u0631_u0628_u0648_u0646 u0020 u0627_u0644_u0645_u0631_u062a_u0628_u0637_u0629 u0020 u0628_u0647_u0627 u0020 u002e_u000d", 
        "u0034_u002d u0020 u0627_u0630_u0627 u0020 u0648_u062c_u062f_u062a u0020 u0639_u062f_u0629 u0020 u0645_u062c_u0645_u0648_u0639_u0627_u062a u0020 u0627_u0644_u0643_u064a_u0644_u064a_u0647 u0020 u0628_u0627_u0644_u0633_u0644_u0633_u0644_u0647 u0020 u0627_u0644_u0627_u0633_u0627_u0633_u064a_u0647 u0020 u0641_u0625_u0646 u0020 u062a_u0644_u0643_u0020", 
        "u0627_u0644_u0645_u062c_u0645_u0648_u0639_u0627_u062a u0020 u062a_u0630_u0643_u0631 u0020 u0628_u062a_u0631_u062a_u064a_u0628 u0020 u0645_u0639_u064a_u0646 u0020 u062d_u0633_u0628 u0020 u0627_u0644_u0632_u064a_u0627_u062f_u0647 u0020 u0641_u0649 u0020 u0627_u0644_u062d_u062c_u0645 u0020 u0627_u0649 u0020 u0627_u0646_u0020", 
        "u0645_u062c_u0645_u0648_u0639_u0629 u0020 u0627_u0644_u0645_u064a_u062b_u064a_u0644 u0020 u062a_u0630_u0643_u0631 u0020 u0642_u0628_u0644 u0020 u0645_u062c_u0645_u0648_u0639_u0629 u0020 u0627_u0644_u0627_u064a_u062b_u064a_u0644 u0020 u0648_u0645_u0646 u0020 u0627_u0644_u0645_u0645_u0643_u0646 u0020 u0627_u064a_u0636_u0627_u064b_u0020", 
        "u0627_u0646 u0020 u062a_u0631_u062a_u0628 u0020 u062d_u0633_u0628 u0020 u0627_u0644_u062d_u0631_u0648_u0641 u0020 u0627_u0644_u0627_u0628_u062c_u062f_u064a_u0647 u0020 u002e_u000d"
    ]
}