{
    "bounding_box": [
        [
            12, 
            33, 
            672, 
            46
        ], 
        [
            12, 
            82, 
            683, 
            47
        ], 
        [
            12, 
            135, 
            683, 
            50
        ], 
        [
            12, 
            196, 
            683, 
            42
        ], 
        [
            12, 
            244, 
            683, 
            46
        ], 
        [
            12, 
            301, 
            683, 
            37
        ], 
        [
            12, 
            350, 
            683, 
            46
        ], 
        [
            12, 
            402, 
            683, 
            43
        ], 
        [
            124, 
            455, 
            571, 
            44
        ]
    ], 
    "image_height": 540, 
    "image_width": 720, 
    "transcription": [
        "u0020_u0632_u0627_u062f u0020 u0645_u0646 u0020 u0627_u0647_u0645_u064a_u0629 u0020 u0627_u0644_u0645_u0648_u0642_u0639 u0020 u0632_u064a_u0627_u0631_u0629 u0020 u0642_u062f_u0627_u0633_u0629 u0020 u0627_u0644_u0628_u0627_u0628_u0627 u0020 u064a_u0648_u062d_u0646_u0627_u0020", 
        "u0628_u0648_u0644_u0633 u0020 u0627_u0644_u062b_u0627_u0646_u064a u0020 u0644_u0644_u0645_u0648_u0642_u0639 u0020 u0639_u0627_u0645 u0020 u0032_u0030_u0030_u0030 u0020 u0631_u0627_u0641_u0642_u0647 u0020 u0627_u0644_u0627_u0644_u0627_u0641_u0020", 
        "u0645_u0646 u0020 u0627_u0644_u062d_u062c_u0627_u062c u0020 u0645_u0646 u0020 u0645_u062e_u062a_u0644_u0641 u0020 u0627_u0646_u062d_u0627_u0621 u0020 u0627_u0644_u0639_u0627_u0644_u0645 u0020 u062d_u064a_u062b u0020 u0628_u0627_u0631_u0643_u0020", 
        "u0645_u064a_u0627_u0647 u0020 u0627_u0644_u0646_u0647_u0631 u0020 u0648_u0627_u0639_u0644_u0646_u0647 u0020 u0631_u0643_u0646_u0627 u0020 u0627_u0633_u0627_u0633_u064a_u0627 u0020 u0020_u0645_u0646 u0020 u0627_u0631_u0643_u0627_u0646 u0020 u0627_u0644_u062d_u062c_u0020", 
        "u0627_u0644_u0645_u0633_u064a_u062d_u064a u0020 u0627_u0644_u062e_u0645_u0633_u0629_u003a u0020 u0031_u002d u0020 u0627_u0644_u0645_u063a_u0637_u0633_u060c u0020 u0032_u002d u0020 u0645_u0643_u0627_u0648_u0631_u060c u0020 u0033_u002d_u0020", 
        "u0633_u064a_u062f_u0629 u0020 u0627_u0644_u062c_u0628_u0644_u060c u0020 u0034_u002d u0020 u062a_u0644 u0020 u0645_u0627_u0631 u0020 u0627_u0644_u064a_u0627_u0633_u060c u0020 u0035_u002d u0020 u062c_u0628_u0644 u0020 u0646_u064a_u0628_u0648_u060c_u0020", 
        "u0641_u064a u0020 u0627_u0644_u0645_u0645_u0644_u0643_u0629 u0020 u0627_u0644_u0623_u0631_u062f_u0646_u064a_u0629 u0020 u0627_u0644_u0647_u0627_u0634_u0645_u064a_u0629 u0020 u0648_u0627_u0639_u062a_u0631_u0627_u0641_u0647 u0020 u0628_u0623_u0646_u0020", 
        "u0645_u0646_u0637_u0642_u0629 u0020 u0627_u0644_u0645_u063a_u0637_u0633 u0020 u0643_u0627_u0646_u062a u0020 u0628_u062f_u0627_u064a_u0629 u0020 u0627_u0646_u0637_u0644_u0627_u0642 u0020 u0627_u0644_u062f_u0639_u0648_u0629_u0020", 
        "u0627_u0644_u0645_u0633_u064a_u062d_u064a_u0629 u0020 u0627_u0644_u0649 u0020 u0645_u062e_u062a_u0644_u0641 u0020 u0645_u0646_u0627_u0637_u0642 u0020 u0627_u0644_u0645_u0639_u0645_u0648_u0631_u0629_u002e u0020 u000d"
    ]
}