{
    "bounding_box": [
        [
            83, 
            74, 
            593, 
            30
        ], 
        [
            53, 
            136, 
            587, 
            21
        ], 
        [
            55, 
            159, 
            585, 
            27
        ], 
        [
            84, 
            188, 
            556, 
            27
        ], 
        [
            135, 
            220, 
            505, 
            24
        ], 
        [
            54, 
            245, 
            586, 
            33
        ], 
        [
            104, 
            282, 
            536, 
            25
        ], 
        [
            98, 
            309, 
            542, 
            27
        ], 
        [
            62, 
            338, 
            578, 
            33
        ], 
        [
            76, 
            373, 
            564, 
            27
        ], 
        [
            98, 
            406, 
            542, 
            22
        ], 
        [
            96, 
            435, 
            543, 
            22
        ], 
        [
            243, 
            459, 
            397, 
            27
        ]
    ], 
    "image_height": 540, 
    "image_width": 720, 
    "transcription": [
        "u062e_u0637_u0648_u0629 u0020 u0628_u062e_u0637_u0648_u0629_u003a u0020 u0627_u0633_u062a_u062e_u062f_u0627_u0645 u0020 u0645_u0631_u0627_u062c_u0639 u0020 u0627_u0644_u062e_u0644_u0627_u064a_u0627 u0020 u0627_u0644_u0646_u0633_u0628_u064a_u0629", 
        "u064a_u062a_u0645_u062b_u0644 u0020 u0627_u0644_u0647_u062f_u0641 u0020 u0645_u0646 u0020 u0647_u0630_u0647 u0020 u0627_u0644_u062e_u0637_u0648_u0629 u0020 u0641_u064a u0020 u0625_u0646_u0634_u0627_u0621 u0020 u0635_u064a_u063a_u0629 u0020 u0628_u0633_u064a_u0637_u0629_u002e u0020 u062d_u062f_u062f_u0020", 
        "u0044_u0034 u0020 u062b_u0645 u0020 u0623_u062f_u062e_u0644 u0020 u003d_u002e u0020 u0627_u0646_u0642_u0631 u0020 u0641_u0648_u0642 u0020 u0042_u0034 u0020 u062b_u0645 u0020 u0623_u062f_u062e_u0644 u0020 u2212_u002e u0020 u0648_u0627_u0646_u0642_u0631 u0020 u0641_u0648_u0642 u0020 u0043_u0034 u0020 u062b_u0645_u0020", 
        "u0627_u0636_u063a_u0637 u0020 u0639_u0644_u0649 u0020 u0045_u006e_u0074_u0065_u0072_u002e u0020 u0639_u0646_u062f_u0645_u0627 u0020 u0644_u0627 u0020 u064a_u0646_u062a_u062c u0020 u0639_u0646 u0020 u0635_u064a_u063a_u0629 u0020 u0637_u0631_u062d u0020 u0623_u064a u0020 u0641_u0631_u0642_u0020", 
        "u0028_u0625_u062c_u0627_u0628_u0629 u0020 u0635_u0641_u0631_u064a_u0629_u0029_u060c u0020 u064a_u064f_u062f_u062e_u0644 u0020 u0045_u0078_u0063_u0065_u006c u0020 u0628_u0634_u0643_u0644_u064d u0020 u0627_u0641_u062a_u0631_u0627_u0636_u064a u0020 u0648_u0627_u0635_u0644_u0629_u002e_u000d", 
        "u062d_u062f_u062f u0020 u0044_u0034 u0020 u0645_u0631_u0629_u064b u0020 u0623_u062e_u0631_u0649_u002e u0020 u0648_u0627_u0646_u0642_u0631 u0020 u0641_u0648_u0642 u0020 u0645_u0642_u0628_u0636 u0020 u0627_u0644_u062a_u0639_u0628_u0626_u0629 u0020 u062b_u0645 u0020 u0627_u0633_u062d_u0628_u0647 u0020 u0625_u0644_u0649_u0020", 
        "u0044_u0037 u0020 u0644_u062a_u062d_u062f_u064a_u062f u0020 u0647_u0630_u0627 u0020 u0627_u0644_u0646_u0637_u0627_u0642 u0020 u0645_u0646 u0020 u0627_u0644_u062e_u0644_u0627_u064a_u0627_u002e u0020 u0625_u0646_u0643 u0020 u062a_u0642_u0648_u0645 u0020 u0627_u0644_u0622_u0646 u0020 u0628_u0646_u0633_u062e_u0020", 
        "u0627_u0644_u0635_u064a_u063a_u0629 u0020 u0645_u0646 u0020 u0627_u0644_u062e_u0637_u0648_u0629 u0020 u0627_u0644_u0633_u0627_u0628_u0642_u0629 u0020 u0625_u0644_u0649 u0020 u0646_u0637_u0627_u0642 u0020 u062c_u062f_u064a_u062f u0020 u0645_u0646 u0020 u0627_u0644_u062e_u0644_u0627_u064a_u0627_u002e_u000d", 
        "u0627_u0633_u062a_u062e_u062f_u0645 u0020 u0645_u0642_u0628_u0636 u0020 u0627_u0644_u062a_u0639_u0628_u0626_u0629 u0020 u0644_u0646_u0633_u062e u0020 u0627_u0644_u0635_u064a_u063a_u0629 u0020 u0627_u0644_u0645_u0648_u062c_u0648_u062f_u0629 u0020 u0641_u064a u0020 u0042_u0037 u0020 u0625_u0644_u0649_u0020", 
        "u0043_u0037_u200f_u002e u0020 u0644_u0627_u062d_u0638 u0020 u0623_u0646 u0020 u0627_u0644_u0645_u0642_u062f_u0627_u0631 u0020 u0627_u0644_u0645_u0648_u062c_u0648_u062f u0020 u0641_u064a u0020 u0044_u0037 u0020 u064a_u062a_u0645 u0020 u062a_u063a_u064a_u064a_u0631_u0647 u0020 u0639_u0646_u062f u0020 u0646_u0633_u062e_u0020", 
        "u0627_u0644_u0635_u064a_u063a_u0629_u002e u0020 u0641_u0639_u0646_u062f_u0645_u0627 u0020 u062a_u0645 u0020 u0646_u0633_u062e u0020 u0627_u0644_u0635_u064a_u063a_u0629 u0020 u0625_u0644_u0649 u0020 u0043_u0037_u060c u0020 u062a_u0645 u0020 u062a_u063a_u064a_u064a_u0631 u0020 u0645_u0648_u0636_u0639_u0020", 
        "u0627_u0644_u062e_u0644_u064a_u0629 u0020 u0627_u0644_u062a_u064a u0020 u062a_u062d_u062a_u0648_u064a u0020 u0639_u0644_u0649 u0020 u0627_u0644_u0635_u064a_u063a_u0629_u060c u0020 u0628_u062d_u064a_u062b u0020 u062a_u0645 u0020 u062a_u063a_u064a_u064a_u0631 u0020 u0627_u0644_u0645_u0631_u062c_u0639_u0020", 
        "u0627_u0644_u0645_u0648_u062c_u0648_u062f u0020 u0641_u064a u0020 u0627_u0644_u0635_u064a_u063a_u0629 u0020 u0625_u0644_u0649 u0020 u0043_u0037 u0020 u0628_u062f_u0644_u0627_u064b u0020 u0645_u0646 u0020 u0042_u0037_u002e_u0020"
    ]
}