{
    "bounding_box": [
        [
            444, 
            46, 
            219, 
            26
        ], 
        [
            86, 
            90, 
            575, 
            29
        ], 
        [
            67, 
            124, 
            594, 
            28
        ], 
        [
            100, 
            155, 
            561, 
            27
        ], 
        [
            34, 
            187, 
            627, 
            29
        ], 
        [
            100, 
            221, 
            561, 
            28
        ], 
        [
            53, 
            255, 
            608, 
            23
        ], 
        [
            42, 
            289, 
            620, 
            25
        ], 
        [
            82, 
            317, 
            580, 
            28
        ], 
        [
            108, 
            352, 
            553, 
            26
        ], 
        [
            579, 
            385, 
            82, 
            19
        ]
    ], 
    "image_height": 540, 
    "image_width": 720, 
    "transcription": [
        "u062a_u062d_u062f_u064a_u062b u0020 u0627_u0644_u0628_u0631_u0627_u0645_u062c u0020 u0628_u0627_u0633_u062a_u0645_u0631_u0627_u0631", 
        "u062a_u0633_u062a_u063a_u0644 u0020 u0627_u0644_u0639_u062f_u064a_u062f u0020 u0645_u0646 u0020 u0627_u0644_u0641_u064a_u0631_u0648_u0633_u0627_u062a u0020 u0028_u0648_u063a_u064a_u0631_u0647_u0627 u0020 u0645_u0646 u0020 u0627_u0644_u0628_u0631_u0627_u0645_u062c u0020 u0627_u0644_u0636_u0627_u0631_u0629 u0020 u0627_u0644_u0623_u062e_u0631_u0649_u0029_u0020", 
        "u062b_u063a_u0631_u0627_u062a u0020 u0627_u0644_u0628_u0631_u0646_u0627_u0645_u062c u0020 u0641_u064a u0020 u0623_u0646_u0638_u0645_u0629 u0020 u0627_u0644_u062a_u0634_u063a_u064a_u0644 u0020 u0648_u062a_u0637_u0628_u064a_u0642_u0627_u062a u0020 u0627_u0644_u0628_u0631_u0627_u0645_u062c u0020 u0628_u0627_u0639_u062a_u0628_u0627_u0631_u0647_u0627 u0020 u0648_u0633_u064a_u0644_u0629_u0020", 
        "u0644_u0625_u0635_u0627_u0628_u0629 u0020 u0623_u062c_u0647_u0632_u0629 u0020 u0627_u0644_u0643_u0645_u0628_u064a_u0648_u062a_u0631 u0020 u0648 u0020 u0623_u0648 u0020 u0646_u0634_u0631_u0647_u0627 u0020 u0639_u0644_u0649 u0020 u0627_u0644_u0623_u0646_u0638_u0645_u0629 u0020 u0627_u0644_u0623_u062e_u0631_u0649_u002e u0020 u0648_u0644_u0647_u0630_u0647_u0020", 
        "u0627_u0644_u0623_u0633_u0628_u0627_u0628_u060c u0020 u0641_u0625_u0646_u0647 u0020 u0645_u0646 u0020 u0627_u0644_u0645_u0647_u0645 u0020 u0627_u0644_u062d_u0641_u0627_u0638 u0020 u0639_u0644_u0649 u0020 u062a_u062d_u062f_u064a_u062b u0020 u0643_u0627_u0641_u0629 u0020 u0628_u0631_u0627_u0645_u062c u0020 u0627_u0644_u0643_u0645_u0628_u064a_u0648_u062a_u0631 u0020 u0627_u0644_u062e_u0627_u0635_u0629_u0020", 
        "u0628_u0643_u002e u0020 u0625_u0630_u0627 u0020 u062a_u0645 u0020 u0625_u0635_u062f_u0627_u0631 u0020 u062a_u0635_u062d_u064a_u062d_u0627_u062a u0020 u0623_u0648 u0020 u062a_u062d_u062f_u064a_u062b_u0627_u062a u0020 u0627_u0644_u0628_u0631_u0646_u0627_u0645_u062c u0020 u0644_u0628_u0631_u0627_u0645_u062c u0020 u0627_u0644_u062a_u0637_u0628_u064a_u0642_u0020", 
        "u0627_u0644_u062e_u0627_u0635_u0629 u0020 u0628_u0643_u060c u0020 u0648_u062e_u0627_u0635_u0629 u0020 u0646_u0638_u0627_u0645 u0020 u0627_u0644_u062a_u0634_u063a_u064a_u0644 u0020 u0627_u0644_u062e_u0627_u0635 u0020 u0628_u0643_u060c u0020 u0644_u0630_u0644_u0643 u0020 u064a_u062c_u0628 u0020 u0639_u0644_u064a_u0643 u0020 u062a_u062d_u0645_u064a_u0644_u0020", 
        "u0648_u062a_u062b_u0628_u064a_u062a u0020 u0627_u0644_u062d_u0632_u0645 u0020 u0645_u0646 u0020 u0627_u0644_u0645_u0648_u0642_u0639 u0020 u0627_u0644_u0625_u0644_u0643_u062a_u0631_u0648_u0646_u064a u0020 u0644_u062a_u0635_u0646_u064a_u0639 u0020 u0647_u0630_u0647 u0020 u0627_u0644_u0628_u0631_u0645_u062c_u064a_u0627_u062a u0020 u0628_u0647_u062f_u0641 u0020 u062a_u0641_u0627_u062f_u064a_u0020", 
        "u0623_u064a u0020 u0646_u0642_u0627_u0637 u0020 u0636_u0639_u0641 u0020 u0623_u0648 u0020 u062b_u063a_u0631_u0627_u062a u0020 u0623_u0645_u0646_u064a_u0629_u002e u0020 u0648_u063a_u0627_u0644_u0628_u0627 u0020 u062a_u062a_u0648_u0641_u0631 u0020 u0647_u0630_u0647 u0020 u0627_u0644_u062d_u0632_u0645 u0020 u0648_u0627_u0644_u062a_u062d_u062f_u064a_u062b_u0627_u062a_u0020", 
        "u0645_u062c_u0627_u0646_u0627_u060c u0020 u0648_u0641_u064a u0020 u0628_u0639_u0636 u0020 u0627_u0644_u062d_u0627_u0644_u0627_u062a_u060c u0020 u064a_u062a_u0645 u0020 u062a_u062d_u0645_u064a_u0644_u0647_u0627 u0020 u0648_u062a_u062b_u0628_u064a_u062a_u0647_u0627 u0020 u062a_u0644_u0642_u0627_u0626_u064a_u0627 u0020 u0648_u0641_u0642_u0627 u0020 u0644_u062a_u0642_u062f_u064a_u0631_u0020", 
        "u0627_u0644_u0645_u0633_u062a_u062e_u062f_u0645_u002e"
    ]
}