{
    "bounding_box": [
        [
            228, 
            32, 
            249, 
            41
        ], 
        [
            64, 
            126, 
            600, 
            30
        ], 
        [
            36, 
            160, 
            628, 
            30
        ], 
        [
            71, 
            194, 
            593, 
            30
        ], 
        [
            378, 
            230, 
            285, 
            27
        ], 
        [
            84, 
            268, 
            580, 
            29
        ], 
        [
            56, 
            301, 
            607, 
            30
        ], 
        [
            361, 
            335, 
            303, 
            29
        ]
    ], 
    "image_height": 540, 
    "image_width": 720, 
    "transcription": [
        "u062d_u0643_u0645 u0020 u062a_u0627_u0631_u0643 u0020 u0627_u0644_u0635_u0644_u0627_u0629_u0020", 
        "u0627_u0646 u0020 u062a_u0631_u0643_u0647_u0627 u0020 u062c_u0627_u062d_u062f u0020 u0644_u0648_u062c_u0648_u0628_u0647_u0627 u0020 u002c u0020 u0627_u0648 u0020 u0645_u0633_u062a_u0647_u0632_u0626_u0627 u0020 u0628_u0647_u0627 u0020 u0641_u0627_u0646_u0647 u0020 u064a_u0643_u0641_u0631 u0020 u0628_u0630_u0644_u0643 u0020 u0648_u064a_u0631_u062a_u062f u0020 u0639_u0646_u0020", 
        "u0627_u0644_u0627_u0633_u0644_u0627_u0645 u0020 u002e_u0641_u064a_u062c_u0628 u0020 u0639_u0644_u0649 u0020 u0627_u0644_u062d_u0627_u0643_u0645 u0020 u0627_u0646 u0020 u064a_u0623_u0645_u0631_u0647 u0020 u0628_u0627_u0644_u062a_u0648_u0628_u0629 u0020 u0641_u0627_u0646 u0020 u062a_u0627_u0628 u0020 u0648_u0627_u0642_u0627_u0645_u0647_u0627 u0020 u0641_u0630_u0627_u0644_u0643 u0020 u0648_u0627_u0644_u0627_u0020", 
        "u0642_u062a_u0644 u0020 u0645_u0631_u062a_u062f u0020 u0648_u0644_u0627 u0020 u064a_u062c_u0648_u0632 u0020 u063a_u0633_u0644_u0647 u0020 u0648_u0644_u0627 u0020 u062a_u0643_u0641_u064a_u0646_u0647 u0020 u0648_u0644_u0627 u0020 u0627_u0644_u0635_u0644_u0627_u0629 u0020 u0639_u0644_u064a_u0647 u0020 u002c u0020 u0648_u0644_u0627 u0020 u062f_u0641_u0646_u0647 u0020 u0641_u064a_u0020", 
        "u0645_u0642_u0627_u0628_u0631 u0020 u0627_u0644_u0645_u0633_u0644_u0645_u064a_u0646 u0020 u0644_u0627_u0646_u0647 u0020 u0644_u064a_u0633 u0020 u0645_u0646_u0647_u0645_u002e_u000d", 
        "u0648_u0627_u0645_u0627 u0020 u0627_u0646 u0020 u062a_u0631_u0643_u0647_u0627 u0020 u0643_u0633_u0644_u0627 u0020 u0648_u0647_u0648 u0020 u064a_u0639_u062a_u0642_u062f u0020 u0628_u0648_u062c_u0648_u0628_u0647_u0627 u0020 u0641_u0627_u0646_u0647 u0020 u064a_u0643_u0644_u0641 u0020 u0645_u0646 u0020 u0642_u0628_u0644 u0020 u0627_u0644_u062d_u0627_u0643_u0645_u0020", 
        "u0628_u0642_u0636_u0627_u0626_u0647_u0627 u0020 u0648_u0627_u0644_u062a_u0648_u0628_u0629 u0020 u0639_u0646 u0020 u0645_u0639_u0635_u064a_u0629 u0020 u0627_u0644_u062a_u0631_u0643 u0020 u002e u0020 u0641_u0627_u0646 u0020 u0644_u0645 u0020 u064a_u0641_u0639_u0644 u0020 u0648_u062c_u0628 u0020 u0642_u062a_u0644_u0647 u0020 u062d_u062f_u0627 u0020 u0644_u0643_u0646_u0647_u0020", 
        "u064a_u062f_u0641_u0646 u0020 u0648_u064a_u062c_u0647_u0632 u0020 u0643_u0627_u0644_u0645_u0633_u0644_u0645_u064a_u0646 u0020 u0644_u0627_u0646_u0647 u0020 u0645_u0646_u0647_u0645_u002e"
    ]
}