{
    "bounding_box": [
        [
            43, 
            44, 
            551, 
            44
        ], 
        [
            11, 
            137, 
            629, 
            34
        ], 
        [
            11, 
            173, 
            629, 
            31
        ], 
        [
            595, 
            211, 
            45, 
            21
        ], 
        [
            11, 
            246, 
            629, 
            37
        ], 
        [
            201, 
            286, 
            439, 
            30
        ], 
        [
            11, 
            327, 
            629, 
            37
        ], 
        [
            294, 
            366, 
            346, 
            27
        ], 
        [
            691, 
            520, 
            11, 
            7
        ]
    ], 
    "image_height": 540, 
    "image_width": 720, 
    "transcription": [
        "u0645_u0628_u0627_u062f_u0626 u0020 u0627_u0644_u062d_u0643_u0645 u0020 u0627_u0644_u062f_u064a_u0645_u0642_u0631_u0627_u0637_u064a u0020 u0641_u064a u0020 u0627_u0644_u062f_u0648_u0627_u0626_u0631 u0020 u0627_u0644_u0639_u0627_u0645_u0629", 
        "u0029 u0020 u0648_u0636_u0648_u062d u0020 u0627_u0644_u0647_u062f_u0641_u003a u0020 u064a_u0639_u0646_u064a u0020 u0627_u0646 u0020 u062a_u0643_u0648_u0646 u0020 u0644_u062f_u0649 u0020 u0627_u0644_u062f_u0627_u0626_u0631_u0629 u0020 u0631_u0624_u064a_u0629 u0020 u0648_u0631_u0633_u0627_u0644_u0629_u0020", 
        "u0648_u0623_u0647_u062f_u0627_u0641 u0020 u0648_u0627_u0636_u062d_u0629_u002e u0020 u0648_u0627_u0646 u0020 u064a_u0643_u0648_u0646 u0020 u0647_u0646_u0627_u0643 u0020 u0627_u064a_u0645_u0627_u0646 u0020 u062a_u0627_u0645 u0020 u0628_u0630_u0644_u0643 u0020 u0648_u062d_u0635_u0648_u0644 u0020 u062a_u0648_u0627_u0641_u0642 u0020 u0641_u064a_u0020", 
        "u0630_u0644_u0643_u002e_u000d", 
        "u0029 u0020 u0627_u0644_u0645_u0633_u0627_u0621_u0644_u0629_u003a u0020 u062a_u0639_u0646_u064a u0020 u0627_u0644_u062a_u0632_u0627_u0645 u0020 u0627_u0644_u062f_u0627_u0626_u0631_u0629 u0020 u0628_u062a_u0642_u062f_u064a_u0645 u0020 u062d_u0633_u0627_u0628 u0020 u0639_u0646 u0020 u0637_u0628_u064a_u0639_u064a_u0629 u0020 u0645_u0645_u0627_u0631_u0633_u0627_u062a_u0647_u0627_u0020", 
        "u0644_u0644_u0648_u0627_u062c_u0628_u0627_u062a u0020 u0627_u0644_u0645_u0646_u0627_u0637_u0629 u0020 u0628_u0647_u0627 u0020 u0628_u0647_u062f_u0641 u0020 u0631_u0641_u0639 u0020 u0627_u0644_u0643_u0641_u0627_u0621_u0629 u0020 u0648_u0627_u0644_u0641_u0639_u0627_u0644_u064a_u0629_u002e_u000d", 
        "u0029 u0020 u0627_u0644_u0634_u0641_u0627_u0641_u064a_u0629_u003a u0020 u062a_u0639_u0646_u064a u0020 u0643_u0634_u0641 u0020 u0627_u0644_u062d_u0642_u0627_u0626_u0642 u0020 u0648_u0627_u0644_u0646_u0642_u0627_u0634 u0020 u0627_u0644_u0639_u0627_u0645 u0020 u0627_u0644_u062d_u0631 u0020 u062d_u0648_u0644 u0020 u062a_u0644_u0643_u0020", 
        "u0627_u0644_u062d_u0642_u0627_u0626_u0642 u0020 u0628_u0635_u0648_u0631_u0629 u0020 u062a_u0641_u0635_u064a_u0644_u064a_u0629 u0020 u0648_u0646_u0642_u0627_u0634_u064a_u0629 u0020 u0628_u0646_u0627_u0621_u0629_u002e", 
        "u0038_u0036"
    ]
}