{
    "bounding_box": [
        [
            36, 
            19, 
            649, 
            33
        ], 
        [
            372, 
            56, 
            313, 
            31
        ], 
        [
            14, 
            95, 
            671, 
            34
        ], 
        [
            449, 
            131, 
            236, 
            30
        ], 
        [
            6, 
            169, 
            679, 
            37
        ], 
        [
            456, 
            207, 
            228, 
            33
        ], 
        [
            70, 
            249, 
            614, 
            34
        ], 
        [
            190, 
            284, 
            494, 
            33
        ], 
        [
            12, 
            318, 
            672, 
            41
        ], 
        [
            56, 
            385, 
            629, 
            34
        ], 
        [
            58, 
            420, 
            627, 
            33
        ], 
        [
            27, 
            455, 
            658, 
            33
        ], 
        [
            581, 
            489, 
            104, 
            31
        ]
    ], 
    "image_height": 540, 
    "image_width": 720, 
    "transcription": [
        "u0627_u0644_u062a_u0642_u0644_u064a_u0644 u0020 u0645_u0646 u0020 u062f_u0631_u062c_u0629 u0020 u0627_u0644_u0627_u0639_u062a_u0645_u0627_u062f u0020 u0639_u0644_u0649 u0020 u0627_u0644_u0623_u0633_u0648_u0627_u0642 u0020 u0627_u0644_u0639_u0627_u0644_u0645_u064a_u0629 u0020 u0020_u0644_u062a_u062f_u0628_u064a_u0631 u0020 u062c_u0632_u0621 u0020 u0645_u0646_u0020", 
        "u0627_u0644_u0627_u062d_u062a_u064a_u0627_u062c_u0627_u062a u0020 u0627_u0644_u0645_u062d_u0644_u064a_u0629 u0020 u0645_u0646 u0020 u0627_u0644_u0633_u0643_u0631 u0020 u000d", 
        "u062e_u0641_u0636 u0020 u0627_u0644_u0639_u062c_u0632 u0020 u0641_u064a u0020 u0645_u064a_u0632_u0627_u0646 u0020 u0627_u0644_u0645_u062f_u0641_u0648_u0639_u0627_u062a u0020 u0641_u0636_u0644_u0627 u0020 u0639_u0646 u0020 u062e_u0641_u0636 u0020 u062d_u062f_u0629 u0020 u0627_u0644_u0645_u062e_u0627_u0637_u0631_u0020", 
        "u0627_u0644_u0645_u0631_u062a_u0628_u0637_u0629 u0020 u0628_u062a_u0644_u0643 u0020 u0627_u0644_u0623_u0633_u0648_u0627_u0642_u000d", 
        "u0648_u0625_u0645_u0643_u0627_u0646_u064a_u0629 u0020 u0645_u0648_u0627_u062c_u0647_u0629 u0020 u0627_u0644_u0645_u0646_u0627_u0641_u0633_u0629 u0020 u0627_u0644_u0634_u0631_u0633_u0629 u0020 u0627_u0644_u0646_u0627_u062a_u062c_u0629 u0020 u0645_u0646 u0020 u0625_u063a_u0631_u0627_u0642 u0020 u0627_u0644_u0633_u0648_u0642 u0020 u0627_u0644_u0645_u062d_u0644_u064a_u0020", 
        "u0628_u0627_u0644_u0633_u0643_u0631 u0020 u0627_u0644_u0623_u0628_u064a_u0636 u0020 u0627_u0644_u0648_u0627_u0631_u062f_u000d", 
        "u062a_u0647_u062f_u0641 u0020 u0627_u0633_u062a_u0631_u0627_u062a_u064a_u062c_u064a_u0629 u0020 u062c_u0645_u0647_u0648_u0631_u064a_u0629 u0020 u0645_u0635_u0631 u0020 u0627_u0644_u0639_u0631_u0628_u064a_u0629 u0020 u0627_u0644_u0649 u0020 u0645_u0639_u0627_u0644_u062c_u0629 u0020 u0646_u0648_u0627_u062d_u0649_u0020", 
        "u0627_u0644_u0642_u0635_u0648_u0631 u0020 u0627_u0644_u0646_u0627_u0634_u0626_u0629 u0020 u0639_u0646 u0020 u062a_u0634_u0648_u0647 u0020 u0627_u0644_u0627_u0633_u0639_u0627_u0631 u0020 u0627_u0644_u0639_u0627_u0644_u0645_u064a_u0629 u0020 u0644_u0644_u0633_u0643_u0631_u000d", 
        "u062d_u0645_u0627_u064a_u0629 u0020 u0627_u0644_u0635_u0646_u0627_u0639_u0629 u0020 u0627_u0644_u0645_u062d_u0644_u064a_u0629 u0020 u0639_u0646 u0020 u0637_u0631_u064a_u0642 u0020 u0627_u0644_u062a_u0639_u0631_u064a_u0641_u0627_u062a u0020 u0627_u0644_u062c_u0645_u0631_u0643_u064a_u0629 u0020 u0648_u0627_u0644_u062d_u0645_u0627_u0626_u064a_u0629 u0020 u002e_u000d", 
        "u0627_u0644_u0639_u0645_u0644 u0020 u0628_u0646_u0638_u0627_u0645 u0020 u0627_u0644_u062d_u0635_u0635 u0020 u0627_u0644_u0627_u0633_u062a_u064a_u0631_u0627_u062f_u064a_u0629 u0020 u0648_u062a_u062d_u062f_u064a_u062f u0020 u0643_u0645_u064a_u0627_u062a u0020 u0627_u0644_u0627_u0633_u062a_u064a_u0631_u0627_u062f u0020 u0641_u0649_u0020", 
        "u0636_u0648_u0621 u0020 u0627_u0644_u0645_u0624_u0634_u0631_u0627_u062a u0020 u0627_u0644_u062e_u0627_u0635_u0629 u0020 u0628_u0627_u0644_u0633_u064a_u0627_u0633_u0627_u062a u0020 u0627_u0644_u0645_u062a_u0639_u0644_u0642_u0629 u0020 u0628_u062a_u0646_u0645_u064a_u0629 u0020 u0627_u0644_u0645_u062d_u0627_u0635_u064a_u0644_u0020", 
        "u0627_u0644_u0633_u0643_u0631_u064a_u0629 u0020 u0648_u0635_u0646_u0627_u0639_u0629 u0020 u0627_u0644_u0633_u0643_u0631 u0020 u0648_u0641_u0649 u0020 u0636_u0648_u0621 u0020 u0627_u0644_u0645_u062a_u063a_u064a_u0631_u0627_u062a u0020 u0648_u0627_u0644_u062a_u062d_u062f_u064a_u0627_u062a u0020 u0627_u0644_u0645_u062d_u0644_u064a_u0629_u0020", 
        "u0648_u0627_u0644_u0639_u0627_u0644_u0645_u064a_u0629 u0020 u000d"
    ]
}