{
    "bounding_box": [
        [
            303, 
            86, 
            362, 
            22
        ], 
        [
            74, 
            109, 
            591, 
            22
        ], 
        [
            419, 
            132, 
            213, 
            18
        ], 
        [
            66, 
            175, 
            599, 
            20
        ], 
        [
            534, 
            198, 
            98, 
            17
        ]
    ], 
    "image_height": 540, 
    "image_width": 720, 
    "transcription": [
        "u0648 u0020 u0642_u062f u0020 u0634_u0647_u062f u0020 u0627_u0644_u0623_u0631_u062f_u0646 u0020 u0632_u064a_u0627_u062f_u0629 u0020 u0645_u0644_u062d_u0648_u0638_u0629 u0020 u0641_u064a u0020 u0623_u0639_u062f_u0627_u062f u0020 u0645_u0637_u0627_u0639_u0645 u0020 u0627_u0644_u062f_u0631_u062c_u0629 u0020 u0627_u0644_u0645_u0645_u062a_u0627_u0632_u0629 u0020 u0648 u0020 u0628_u0645_u0627_u000d", 
        "u0633_u0627_u0647_u0645 u0020 u0641_u064a u0020 u0632_u064a_u0627_u062f_u0629 u0020 u062d_u062f_u0629 u0020 u0627_u0644_u0645_u0646_u0627_u0641_u0633_u0629 u0020 u0628_u064a_u0646_u0647_u0627 u0020 u0644_u062c_u0630_u0628 u0020 u0627_u0644_u0632_u0628_u0648_u0646 u0020 u060c u0020 u0648_u0644_u0639_u0644 u0020 u0627_u0644_u062e_u062f_u0645_u0629 u0020 u0627_u0644_u0645_u0642_u062f_u0645_u0629 u0020 u0645_u0646 u0020 u0623_u0628_u0631_u0632 u0020 u0627_u0644_u0645_u0639_u0627_u064a_u064a_u0631 u0020 u0627_u0644_u062a_u064a u0020 u062a_u0624_u062e_u0630 u0020 u0641_u064a u0020 u0627_u0644_u0627_u0639_u062a_u0628_u0627_u0631 u0020 u0639_u0646_u062f_u0020", 
        "u062a_u0641_u0636_u064a_u0644 u0020 u0627_u0644_u062a_u0639_u0627_u0645_u0644 u0020 u0645_u0639 u0020 u0645_u0637_u0639_u0645 u0020 u0628_u0639_u064a_u0646_u0647 u0020 u062f_u0648_u0646 u0020 u063a_u064a_u0631_u0647_u002e_u000d", 
        "u0648_u0644_u0647_u0630_u0627 u0020 u0641_u0642_u062f u0020 u062c_u0627_u0621_u062a u0020 u0647_u0630_u0647 u0020 u0627_u0644_u062f_u0631_u0627_u0633_u0629 u0020 u0644_u062a_u0642_u064a_u064a_u0645 u0020 u0623_u062b_u0631 u0020 u0623_u0633_u0639_u0627_u0631 u0020 u0642_u0627_u0626_u0645_u0629 u0020 u0627_u0644_u0637_u0639_u0627_u0645 u0020 u0028 u0020 u004d_u0045_u004e_u0055_u0029_u0639_u0644_u0649 u0020 u0631_u0636_u0627 u0020 u0648_u0642_u0646_u0627_u0639_u0629 u0020 u0627_u0644_u0636_u064a_u0648_u0641 u0020 u0641_u064a u0020 u0645_u0637_u0627_u0639_u0645 u0020 u0627_u0644_u062f_u0631_u062c_u0629_u0020", 
        "u0627_u0644_u0645_u0645_u062a_u0627_u0632_u0629 u0020 u0641_u064a u0020 u0639_u0645_u0627_u0646_u002e_u000d"
    ]
}