{
    "bounding_box": [
        [
            51, 
            75, 
            629, 
            18
        ], 
        [
            51, 
            101, 
            624, 
            15
        ], 
        [
            51, 
            127, 
            629, 
            18
        ], 
        [
            51, 
            152, 
            137, 
            15
        ], 
        [
            51, 
            181, 
            535, 
            17
        ], 
        [
            51, 
            239, 
            630, 
            18
        ], 
        [
            51, 
            265, 
            630, 
            18
        ], 
        [
            51, 
            290, 
            483, 
            18
        ], 
        [
            51, 
            318, 
            545, 
            19
        ], 
        [
            51, 
            377, 
            630, 
            18
        ], 
        [
            51, 
            402, 
            630, 
            19
        ], 
        [
            51, 
            427, 
            636, 
            19
        ], 
        [
            51, 
            452, 
            282, 
            19
        ], 
        [
            689, 
            520, 
            12, 
            7
        ], 
        [
            569, 
            22, 
            107, 
            23
        ]
    ], 
    "image_height": 540, 
    "image_width": 720, 
    "transcription": [
        "u0031_u0035_u002d u0020 u004b_u0072_u0061_u006d_u0065_u0072_u002c u0020 u004b_u0065_u006e_u006e_u0065_u0074_u0068 u0020 u006c_u002e u0020 u0022 u0020 u0020_u0049_u004e_u0046_u004f_u0052_u004d_u0041_u0054_u0049_u004f_u004e u0020 u0054_u0045_u0043_u0048_u004e_u004f_u004c_u004f_u0047_u0059 u0020 u0041_u004e_u0044_u0020", 
        "u0041_u0044_u004d_u0049_u004e_u0049_u0053_u0054_u0052_u0041_u0054_u0049_u0056_u0045 u0020 u0052_u0045_u0046_u004f_u0052_u004d u0020 u0057_u0049_u004c_u004c u0020 u0054_u0048_u0045 u0020 u0054_u0049_u004d_u0045 u0020 u0041_u0046_u0054_u0045_u0052 u0020 u0045_u002d", 
        "u0047_u004f_u0056_u0045_u0052_u004e_u004d_u0045_u004e_u0054 u0020 u0042_u0045 u0020 u0044_u0049_u0046_u0046_u0045_u0052_u0045_u004e_u0054_u003f u0020 u0022_u002c u0020 u0041_u0063_u0063_u0065_u0073_u0073_u0065_u0064 u0020 u0028_u0031_u0035 u0020 u004d_u0061_u0079 u0020 u0032_u0030_u0031_u0031_u0029_u0020", 
        "u0041_u0076_u0061_u0069_u006c_u0061_u0062_u006c_u0065 u0020 u0066_u0072_u006f_u006d_u000d", 
        "u0020 u0020 u0020 u0020 u0020 u0020 u0020 u0020 u0020 u0020 u0020 u0020 u0068_u0074_u0074_u0070_u003a_u002f_u002f_u0063_u0069_u0074_u0065_u0073_u0065_u0065_u0072_u0078_u002e_u0069_u0073_u0074_u002e_u0070_u0073_u0075_u002e_u0065_u0064_u0075_u002f_u0076_u0069_u0065_u0077_u0064_u006f_u0063_u002f_u0064_u006f_u0077_u006e_u006c_u006f_u0061_u0064_u003f_u2026 u0020 u000d", 
        "u0031_u0036_u002d u0020 u005a_u0065_u006c_u0065_u006e_u006b_u0061_u002c u0020 u004a_u006f_u0073_u0065_u0066 u0020 u201c_u0049_u004e_u0046_u004f_u0052_u004d_u0041_u0054_u0049_u004f_u004e u0020 u0041_u004e_u0044 u0020 u0043_u004f_u004d_u004d_u0055_u004e_u0049_u0043_u0041_u0054_u0049_u004f_u004e_u0020", 
        "u0054_u0045_u0043_u0048_u004e_u004f_u004c_u004f_u0047_u0049_u0045_u0053 u0020 u0049_u004e u0020 u0054_u004f_u0055_u0052_u0049_u0053_u004d u0020 u002d u0020 u0049_u004e_u0046_u004c_u0055_u0045_u004e_u0043_u0045_u002c u0020 u0044_u0059_u004e_u0041_u004d_u0049_u0043_u0053_u002c_u0020", 
        "u0054_u0052_u0045_u004e_u0044_u0053_u201d u0020 u0041_u0063_u0063_u0065_u0073_u0073_u0065_u0064 u0020 u0028_u0032_u0032 u0020 u0041_u0070_u0072_u0069_u006c u0020 u0032_u0030_u0031_u0031_u0029_u002c u0020 u0041_u0076_u0061_u0069_u006c_u0061_u0062_u006c_u0065 u0020 u0066_u0072_u006f_u006d_u003a_u000d", 
        "u0020 u0020 u0020 u0020 u0020_u0068_u0074_u0074_u0070_u003a_u002f_u002f_u0063_u0075_u0073_u0074_u006f_u006d_u002e_u006b_u0062_u0062_u0061_u0072_u006b_u006f_u002e_u0063_u007a_u002f_u0065_u002b_u006d_u002f_u0030_u0031_u005f_u0032_u0030_u0030_u0039_u002f_u0031_u0032_u005f_u007a_u0065_u006c_u0065_u006e_u006b_u0061_u002e_u0070_u0064_u0066_u000d", 
        "u0031_u0037_u002d u0020 u0053_u006f_u006d_u0061_u0073_u0068_u006b_u0061_u0072_u002c u0020 u0053_u0061_u006d u0020 u0028_u0032_u0030_u0031_u0030_u0029 u0020 u002e u0020 u0022 u0020 u004f_u0070_u0070_u006f_u0072_u0074_u0075_u006e_u0069_u0074_u0069_u0065_u0073 u0020 u0066_u006f_u0072 u0020 u0074_u0068_u0065 u0020 u0063_u006c_u006f_u0075_u0064 u0020 u0069_u006e_u0020", 
        "u0074_u0068_u0065 u0020 u0065_u006e_u0074_u0065_u0072_u0070_u0072_u0069_u0073_u0065_u0022 u0020 u0020_u002c u0020 u0044_u0061_u0074_u0061_u0062_u0061_u0073_u0065 u0020 u0061_u006e_u0064 u0020 u006e_u0065_u0074_u0077_u006f_u0072_u006b u0020 u006a_u006f_u0075_u0072_u006e_u0061_u006c u0020 u0061_u006e u0020 u0069_u006e_u0074_u0065_u0072_u006e_u0061_u0074_u0069_u006f_u006e_u0061_u006c_u0020", 
        "u006a_u006f_u0075_u0072_u006e_u0061_u006c u0020 u006f_u0066 u0020 u0064_u0061_u0074_u0061_u0062_u0061_u0073_u0065 u0020 u0026 u0020 u006e_u0065_u0074_u0077_u006f_u0072_u006b u0020 u0070_u0072_u0061_u0063_u0074_u0069_u0063_u0065 u0020 u002c u0020 u0076_u006f_u006c_u0075_u006d_u0065 u0020 u0034_u0030_u002c u0020 u004e_u0075_u006d_u0062_u0065_u0072_u0032_u002c u0020 u0020", 
        "u004c_u006f_u006e_u0064_u006f_u006e_u003a u0020 u0041_u002e_u0050_u002e u0020 u0050_u0075_u0062_u006c_u0069_u0063_u0061_u0074_u0069_u006f_u006e_u0073 u0020 u004c_u0074_u0064 u0020 u002e", 
        "u0033_u0031", 
        "u0623_u0647_u0645 u0020 u0627_u0644_u0645_u0631_u0627_u062c_u0639"
    ]
}