{
    "bounding_box": [
        [
            571, 
            38, 
            87, 
            24
        ], 
        [
            86, 
            93, 
            569, 
            26
        ], 
        [
            98, 
            124, 
            557, 
            28
        ], 
        [
            137, 
            159, 
            519, 
            25
        ], 
        [
            487, 
            187, 
            168, 
            27
        ]
    ], 
    "image_height": 540, 
    "image_width": 720, 
    "transcription": [
        "u0641_u0631_u0632 u0020 u0627_u0644_u0631_u0645_u0648_u0632", 
        "u0625_u0630_u0627 u0020 u0643_u0646_u062a u0020 u062a_u0633_u062a_u062e_u062f_u0645 u0020 u0633_u0637_u062d u0020 u0627_u0644_u0645_u0643_u062a_u0628 u0020 u0644_u062f_u064a_u0643 u0020 u0022_u0644_u0625_u0644_u0642_u0627_u0621_u0022 u0020 u0627_u0644_u0645_u0644_u0641_u0627_u062a u0020 u0648_u0627_u0644_u062a_u0639_u0627_u0645_u0644 u0020 u0644_u0627_u062d_u0642_u0627_u0020", 
        "u0028_u0643_u0645_u0627 u0020 u0623_u0641_u0639_u0644 u0020 u0623_u0646_u0627_u0029_u060c u0020 u0020_u0641_u0625_u0646_u0647 u0020 u064a_u0635_u0628_u062d u0020 u0645_u0646 u0020 u0627_u0644_u0645_u0641_u064a_u062f u0020 u0623_u062d_u064a_u0627_u0646_u0627 u0020 u0623_u0646 u0020 u062a_u0642_u0648_u0645 u0020 u0628_u0641_u0631_u0632 u0020 u0627_u0644_u0631_u0645_u0648_u0632_u0020", 
        "u0628_u0637_u0631_u0642 u0020 u0645_u062e_u062a_u0644_u0641_u0629_u002e u0020 u0642_u0645 u0020 u0628_u062f_u0631_u0627_u0633_u0629 u0020 u0627_u0644_u0631_u0645_u0648_u0632 u0020 u0627_u0644_u062a_u0627_u0644_u064a_u0629 u0020 u0627_u0644_u0645_u0648_u062c_u0648_u062f_u0629 u0020 u0639_u0644_u0649 u0020 u0633_u0637_u062d_u0020", 
        "u0645_u0643_u062a_u0628_u064a u0020 u0627_u0644_u062e_u0627_u0635 u0020 u0627_u0644_u0622_u0646_u003a"
    ]
}