{
    "bounding_box": [
        [
            540, 
            26, 
            118, 
            28
        ], 
        [
            154, 
            88, 
            502, 
            25
        ], 
        [
            125, 
            118, 
            530, 
            28
        ], 
        [
            146, 
            150, 
            509, 
            28
        ], 
        [
            215, 
            179, 
            440, 
            29
        ]
    ], 
    "image_height": 540, 
    "image_width": 720, 
    "transcription": [
        "u0641_u0647_u0645 u0020 u0627_u0644_u0645_u062c_u0644_u062f_u0627_u062a", 
        "u0644_u0646_u062a_u0627_u0628_u0639 u0020 u0645_u0639 u0020 u0645_u062b_u0627_u0644_u0646_u0627 u0020 u0639_u0646 u0020 u062e_u0632_u0627_u0646_u0629 u0020 u0627_u0644_u0625_u064a_u062f_u0627_u0639_u060c u0020 u064a_u0639_u062a_u0628_u0631 u0020 u0627_u0644_u0645_u062c_u0644_u062f u0020 u0641_u064a u0020 u0628_u0631_u0646_u0627_u0645_u062c_u0020", 
        "u0648_u064a_u0646_u062f_u0648_u0632 u0020 u0645_u0637_u0627_u0628_u0642_u0627 u0020 u062a_u0645_u0627_u0645_u0627 u0020 u0644_u0644_u0645_u062c_u0644_u062f u0020 u0627_u0644_u0630_u064a u0020 u062a_u062d_u0641_u0638 u0020 u0641_u064a_u0647 u0020 u0627_u0644_u0623_u0648_u0631_u0627_u0642_u002e u0020 u0648_u064a_u0645_u0643_u0646 u0020 u0623_u0646_u0020", 
        "u064a_u062a_u0633_u0639 u0020 u0627_u0644_u0645_u062c_u0644_u062f u0020 u0644_u0644_u0639_u062f_u064a_u062f u0020 u0645_u0646 u0020 u0627_u0644_u0645_u0644_u0641_u0627_u062a u0020 u0648_u064a_u0645_u0643_u0646 u0020 u062a_u0633_u0645_u064a_u0629 u0020 u0627_u0644_u0645_u062c_u0644_u062f u0020 u0628_u0623_u064a u0020 u0627_u0633_u0645_u0020", 
        "u0648_u064a_u0645_u0643_u0646 u0020 u0623_u064a_u0636_u0627_u064b u0020 u0623_u0646 u0020 u064a_u062d_u062a_u0648_u064a u0020 u0627_u0644_u0645_u062c_u0644_u062f u0020 u0639_u0644_u0649 u0020 u0645_u062c_u0644_u062f_u0627_u062a u0020 u0623_u062e_u0631_u0649_u002e_u0020"
    ]
}