{
    "bounding_box": [
        [
            37, 
            80, 
            630, 
            21
        ], 
        [
            37, 
            115, 
            610, 
            22
        ], 
        [
            37, 
            151, 
            610, 
            22
        ], 
        [
            37, 
            188, 
            610, 
            21
        ], 
        [
            37, 
            223, 
            610, 
            22
        ], 
        [
            37, 
            259, 
            610, 
            22
        ], 
        [
            37, 
            298, 
            610, 
            19
        ], 
        [
            37, 
            331, 
            610, 
            22
        ], 
        [
            37, 
            369, 
            610, 
            20
        ], 
        [
            37, 
            403, 
            610, 
            22
        ], 
        [
            485, 
            446, 
            162, 
            22
        ]
    ], 
    "image_height": 540, 
    "image_width": 720, 
    "transcription": [
        "u0020 u0020 u0020 u0020 u0627_u062d_u062a_u0645_u0627_u0644 u0020 u0645_u064a u0020 u0631_u0648_u062f u0020 u0643_u0647 u0020 u0633_u0627_u062e_u062a_u0646 u0020 u0645_u062d_u0631_u0627_u0628 u0020 u062f_u0631 u0020 u0645_u0633_u062c_u062f u0020 u0643_u0648_u0641_u0647 u0020 u0642_u0628_u0644 u0020 u0627_u0632 u0020 u0645_u062d_u0631_u0627_u0628 u0020 u0645_u0633_u062c_u062f u0020 u0645_u062f_u064a_u0646_u0647 u0020 u0628_u0627_u0634_u062f u0020 u002e u0020 u0632_u064a_u0631_u0627 u0020 u0622_u0646_u062c_u0627_u0020", 
        "u0633_u0631_u0632_u0645_u064a_u0646_u064a u0020 u0628_u0648_u062f u0020 u0643_u0647 u0020 u0642_u0628_u0644 u0020 u0627_u0632 u0020 u0627_u0633_u0644_u0627_u0645 u0020 u0645_u0630_u0647_u0628 u0020 u0632_u0631_u062a_u0634_u062a u0020 u062d_u0627_u0643_u0645_u064a_u062a u0020 u062f_u0627_u0634_u062a u0020 u0648 u0020 u062f_u0631 u0020 u0645_u0639_u0627_u0628_u062f u0020 u0632_u0631_u062a_u0634_u062a u0020 u0622_u062a_u0634_u06af_u0627_u0647 u0020 u0645_u0643_u0627_u0646_u0020", 
        "u0645_u0642_u062f_u0633_u064a u0020 u0628_u0648_u062f u0020 u0643_u0647 u0020 u0647_u0646_u06af_u0627_u0645 u0020 u062f_u0639_u0627 u0020 u0648 u0020 u0646_u064a_u0627_u064a_u0634 u0020 u0628_u0647 u0020 u06af_u0631_u062f u0020 u0622_u0646 u0020 u062c_u0645_u0639 u0020 u0645_u064a u0020 u0634_u062f_u0646_u062f_u002e u0020 u0628_u0627 u0020 u062a_u0648_u062c_u0647 u0020 u0628_u0647 u0020 u0627_u064a_u0646_u0643_u0647 u0020 u0645_u0633_u0644_u0645_u0627_u0646_u0627_u0646 u0020 u0647_u0646_u06af_u0627_u0645_u0020", 
        "u0641_u062a_u062d u0020 u0647_u0631 u0020 u0633_u0631 u0020 u0632_u0645_u064a_u0646 u0020 u0645_u0639_u0627_u0628_u0640_u062f u0020 u062f_u064a_u0646 u0020 u0642_u062f_u064a_u0640_u0645_u064a u0020 u0622_u0646_u0647_u0627 u0020 u0631_u0627 u0020 u0628_u0627 u0020 u062a_u063a_u064a_u0640_u064a_u0631_u0627_u062a_u064a u0020 u062a_u0628_u062f_u064a_u0644 u0020 u0628_u0647 u0020 u0645_u0633_u062c_u0640_u062f u0020 u0645_u064a u0020 u0643_u0631_u062f_u0646_u062f u0020 u060c u0020 u0622_u062a_u0634_u0640_u062f_u0627_u0646_u0020", 
        "u0622_u062a_u0634_u0640_u0643_u062f_u0647 u0020 u0647_u0627 u0020 u0648 u0020 u0642_u0631_u0628_u0627_u0646_u06af_u0627_u0647 u0020 u0645_u0633_u064a_u062d_u064a u0020 u0631_u0627_u0627_u0632 u0020 u0628_u064a_u0646 u0020 u0645_u064a u0020 u0628_u0631_u062f_u0646_u062f u0020 u0648_u0628_u0647 u0020 u062c_u0627_u064a u0020 u0622_u0646 u0020 u0645_u062d_u0631_u0627_u0628_u064a u0020 u062f_u0631 u0020 u062f_u064a_u0648_u0627_u0631 u0020 u0642_u0628_u0644_u0647 u0020 u0645_u064a u0020 u0633_u0627_u062e_u062a_u0646_u062f_u0020", 
        "u062a_u0627 u0020 u0647_u0645 u0020 u062c_u0647_u062a u0020 u0642_u0628_u0644_u0647 u0020 u0648_u0643_u0639_u0628_u0647 u0020 u0645_u0634_u062e_u0635 u0020 u0634_u0648_u062f_u0648 u0020 u0647_u0645 u0020 u0647_u0646_u06af_u0627_u0645 u0020 u062f_u0639_u0627 u0020 u0648 u0020 u0646_u0645_u0627_u0632 u0020 u0631_u0648_u064a u0020 u0628_u062f_u0627_u0646 u0020 u0628_u0627_u064a_u0633_u062a_u0646_u062f u0020 u002e u0020 u0628_u0647 u0020 u0647_u0645_u064a_u0646_u0020", 
        "u0645_u0646_u0627_u0633_u0628_u062a u0020 u0628_u0639_u064a_u062f u0020 u0646_u064a_u0633_u062a u0020 u0643_u0647 u0020 u0645_u0633_u0644_u0645_u0627_u0646_u0627_u0646 u0020 u062f_u0631 u0020 u0645_u0633_u062c_u062f u0020 u0646_u0648_u0628_u0646_u064a_u0627_u062f u0020 u0627_u0632 u0020 u0627_u0628_u062a_u062f_u0627 u0020 u0645_u062d_u0631_u0627_u0628 u0020 u0642_u0628_u0644_u0647 u0020 u0646_u0645_u0627 u0020 u0627_u064a_u062c_u0627_u062f u0020 u0645_u064a u0020 u0646_u0645_u0648_u062f_u0646_u062f u0020 u002e_u0020", 
        "u0622_u0646_u062f_u0631_u0647 u0020 u06af_u062f_u0627_u0631 u0020 u0628_u0627_u0633_u062a_u0627_u0646 u0020 u0634_u0646_u0627_u0633 u0020 u0645_u0639_u0631_u0648_u0641 u0020 u0641_u0631_u0627_u0646_u0633_u0648_u064a u0020 u0645_u0639_u062a_u0642_u062f u0020 u0627_u0633_u062a u0020 u0645_u0633_u0627_u062c_u062f_u064a u0020 u06a9_u0647 u0020 u062f_u0631 u0020 u0627_u064a_u0631_u0627_u0646 u0020 u0633_u0627_u062e_u062a_u0647 u0020 u0645_u064a u0020 u0634_u062f u0020 u0627_u0632_u0020", 
        "u0647_u0645_u0627_u0646 u0020 u0627_u0628_u062a_u062f_u0627 u0020 u062f_u0627_u0631_u0627_u064a u0020 u0645_u062d_u0631_u0627_u0628 u0020 u0628_u0648_u062f_u0646_u062f u0020 u002e u0020 u0627_u0632 u0020 u0647_u0645_u0627_u0646 u0020 u0627_u0648_u0627_u064a_u0644 u0020 u062a_u0633_u0644_u0637 u0020 u0645_u0633_u0644_u0645_u064a_u0646 u0020 u0628_u0631 u0020 u0627_u064a_u0631_u0627_u0646 u0020 u060c u0020 u0627_u0647_u0627_u0644_u064a u0020 u0645_u063a_u0631_u0628 u0020 u0627_u064a_u0631_u0627_u0646 u0020 u060c_u0020", 
        "u0645_u0633_u0627_u062c_u062f_u06cc u0020 u0628_u0631_u0627_u064a u0020 u062e_u0648_u062f u0020 u0633_u0627_u062e_u062a_u0646_u062f u0020 u002e u0020 u0627_u064a_u0646 u0020 u0645_u0633_u0627_u062c_u062f u0020 u0647_u0645_u0627_u0646 u0020 u0633_u0627_u062e_u062a_u0645_u0627_u0646 u0020 u0645_u0639_u0627_u0628_u062f u0020 u0633_u0627_u0633_u0627_u0646_u064a u0020 u0628_u0648_u062f u0020 u0643_u0647 u0020 u0638_u0627_u0647_u0631_u0627_u064b u0020 u0622_u0646 u0020 u0631_u0627 u0020 u0628_u0647_u0020", 
        "u0635_u0648_u0631_u062a u0020 u062f_u064a_u06af_u0631_u064a u0020 u0622_u0631_u0627_u0633_u062a_u0646_u062f u0020 u002e"
    ]
}