{
    "bounding_box": [
        [
            68, 
            69, 
            583, 
            42
        ], 
        [
            118, 
            157, 
            482, 
            29
        ], 
        [
            262, 
            198, 
            187, 
            26
        ]
    ], 
    "image_height": 540, 
    "image_width": 720, 
    "transcription": [
        "u0633_u0644_u0633_u0644_u0629 u0020 u0633_u064a_u062f u0020 u0627_u0644_u0645_u0631_u0633_u0644_u064a_u0646 u0020 u0635_u0644_u062d u0020 u0627_u0644_u062d_u062f_u064a_u0628_u064a_u0629 u0020 u0031_u0030_u003a_u0033_u0031", 
        "u0068_u0074_u0074_u0070_u0073_u003a_u002f_u002f_u0077_u0077_u0077_u002e_u0079_u006f_u0075_u0074_u0075_u0062_u0065_u002e_u0063_u006f_u006d_u002f_u0077_u0061_u0074_u0063_u0068_u003f_u0076_u003d", 
        "u0043_u0039_u0072_u0055_u004c_u0053_u004e_u0052_u0067_u0052_u0038_u000d"
    ]
}