{
    "bounding_box": [
        [
            492, 
            42, 
            184, 
            40
        ], 
        [
            313, 
            100, 
            363, 
            19
        ], 
        [
            285, 
            132, 
            364, 
            18
        ], 
        [
            287, 
            163, 
            362, 
            19
        ], 
        [
            293, 
            194, 
            356, 
            21
        ], 
        [
            302, 
            227, 
            347, 
            20
        ], 
        [
            309, 
            259, 
            340, 
            18
        ], 
        [
            326, 
            291, 
            323, 
            20
        ], 
        [
            300, 
            321, 
            349, 
            22
        ], 
        [
            316, 
            356, 
            333, 
            19
        ], 
        [
            283, 
            387, 
            366, 
            20
        ], 
        [
            318, 
            418, 
            331, 
            19
        ], 
        [
            285, 
            451, 
            364, 
            19
        ]
    ], 
    "image_height": 540, 
    "image_width": 720, 
    "transcription": [
        "u0634_u0648_u0637 u0020 u0627_u0644_u0642_u062f_u0631_u0629_u000d", 
        "u0020 u0020 u0020 u0020 u0020_u0639_u0646_u062f u0020 u0648_u0635_u0648_u0644 u0020 u0627_u0644_u0645_u0643_u0628_u0633 u0020 u0625_u0644_u0649 u0020 u0627_u0644_u0646_u0642_u0637_u0629 u0020 u0627_u0644_u0645_u064a_u062a_u0629 u0020 u0627_u0644_u0639_u0644_u064a_u0627 u0020 u062a_u0642_u0648_u0645 u0020 u0634_u0645_u0639_u0629_u0020", 
        "u0627_u0644_u0627_u0634_u0639_u0627_u0644 u0020 u0628_u0625_u0631_u0633_u0627_u0644 u0020 u0627_u0644_u0634_u0631_u0627_u0631_u0629_u002c u0020 u0628_u062a_u0648_u0642_u064a_u062a u0020 u0648_u0642_u0648_u0629 u0020 u0645_u0639_u064a_u0646_u062a_u064a_u0646 u0020 u0645_u0641_u062c_u0631_u0629 u0020 u0628_u0630_u0644_u0643_u0020", 
        "u0627_u0644_u062e_u0644_u064a_u0637 u0020 u0627_u0644_u0645_u0643_u0648_u0646 u0020 u0645_u0646 u0020 u0627_u0644_u0628_u0646_u0632_u064a_u0646 u0020 u0648_u0627_u0644_u0647_u0648_u0627_u0621_u002c u0020 u0648_u0627_u0644_u0630_u064a u0020 u0642_u062f u0020 u0636_u063a_u0637 u0020 u0648_u0631_u0641_u0639_u062a_u0020", 
        "u062f_u0631_u062c_u0629 u0020 u062d_u0631_u0627_u0631_u062a_u0647 u0020 u0646_u062a_u064a_u062c_u0629 u0020 u0644_u062d_u0631_u0643_u0629 u0020 u0627_u0644_u0645_u0643_u0628_u0633 u0020 u0641_u064a u0020 u0645_u0634_u0648_u0627_u0631 u0020 u0627_u0644_u0636_u063a_u0637 u0020 u0643_u0645_u0627_u0020", 
        "u0623_u0633_u0644_u0641_u0646_u0627 u0020 u0633_u0627_u0628_u0642_u0627_u002e_u0645_u0639 u0020 u0627_u0644_u0645_u0644_u0627_u062d_u0638_u0629 u0020 u0628_u0623_u0646 u0020 u0627_u0644_u0635_u0645_u0627_u0645_u0627_u0646 u0020 u0641_u064a u0020 u0634_u0648_u0637 u0020 u0627_u0644_u0642_u062f_u0631_u0629_u0020", 
        "u064a_u0643_u0648_u0646_u0627 u0020 u0645_u063a_u0644_u0642_u064a_u0646 u0020 u0623_u064a_u0636_u0627 u0020 u0648_u0646_u062a_u064a_u062c_u0629 u0020 u0644_u0644_u0636_u063a_u0637 u0020 u0648_u062a_u0648_u0641_u0631 u0020 u0627_u0644_u0639_u0648_u0627_u0645_u0644 u0020 u0627_u0644_u062a_u0627_u0644_u064a_u0629_u0020", 
        "u0028_u0647_u0648_u0627_u0621 u0020 u002b u0020 u0628_u062a_u0631_u0648_u0644 u0020 u002b u0020 u0636_u063a_u0637 u0020 u0648_u0641_u064a u0020 u0627_u0644_u0646_u0647_u0627_u064a_u0629 u0020 u0634_u0631_u0627_u0631_u0629_u0029 u0020 u0641_u064a_u062d_u062f_u062b_u0020", 
        "u0627_u0644_u0627_u0634_u0639_u0627_u0644 u0020 u0627_u0644_u0630_u064a u0020 u064a_u0646_u062a_u0642_u0644 u0020 u0628_u0633_u0631_u0639_u0629 u0020 u0628_u064a_u0646 u0020 u062c_u0632_u064a_u0626_u0627_u062a u0020 u0627_u0644_u062e_u0644_u064a_u0637 u0020 u0645_u0648_u0644_u062f_u0627_u064b u0020 u0642_u0648_u0629_u0020", 
        "u0636_u063a_u0637 u0020 u0643_u0628_u064a_u0631_u0629 u0020 u0645_u0624_u062b_u0631_u0629 u0020 u0639_u0644_u0649 u0020 u0633_u0637_u062d u0020 u0627_u0644_u0645_u0643_u0628_u0633 u0020 u0641_u062a_u0642_u0648_u0645 u0020 u0628_u062f_u0641_u0639_u0647 u0020 u0625_u0644_u0649_u0020", 
        "u0627_u0644_u0623_u0633_u0641_u0644 u0020 u0623_u064a u0020 u0645_u0646 u0020 u0627_u0644_u0646_u0642_u0637_u0629 u0020 u0627_u0644_u0645_u064a_u062a_u0629 u0020 u0627_u0644_u0639_u0644_u064a_u0627 u0020 u0625_u0644_u0649 u0020 u0627_u0644_u0646_u0642_u0637_u0629 u0020 u0627_u0644_u0645_u064a_u062a_u0629 u0020 u0627_u0644_u0633_u0641_u0644_u0649_u002c_u0020", 
        "u0648_u0647_u0630_u0627 u0020 u0627_u0644_u0634_u0648_u0637 u0020 u064a_u0633_u0645_u0649 u0020 u0628_u0627_u0644_u0634_u0648_u0637 u0020 u0627_u0644_u0641_u0639_u0627_u0644_u002c u0020 u0623_u0648 u0020 u0634_u0648_u0637 u0020 u0627_u0644_u0642_u062f_u0631_u0629 u0020 u0644_u0623_u0646_u0020", 
        "u0627_u0644_u0645_u062d_u0631_u0643 u0020 u064a_u0639_u062a_u0645_u062f u0020 u0641_u064a u0020 u0639_u0645_u0644_u0647 u0020 u0639_u0644_u0649 u0020 u0627_u0644_u0642_u0648_u0629 u0020 u0627_u0644_u062a_u064a u0020 u064a_u0648_u0644_u062f_u0647_u0627 u0020 u0634_u0648_u0637 u0020 u0627_u0644_u0642_u062f_u0631_u0629_u002e_u000d"
    ]
}