{
    "bounding_box": [
        [
            70, 
            38, 
            579, 
            30
        ], 
        [
            532, 
            82, 
            122, 
            29
        ], 
        [
            70, 
            180, 
            579, 
            33
        ], 
        [
            243, 
            218, 
            411, 
            39
        ], 
        [
            70, 
            320, 
            579, 
            35
        ], 
        [
            364, 
            362, 
            290, 
            30
        ], 
        [
            21, 
            503, 
            15, 
            11
        ]
    ], 
    "image_height": 540, 
    "image_width": 720, 
    "transcription": [
        "u0625_u062c_u0631_u0627_u0621 u0020 u0627_u0644_u0628_u062d_u0648_u062b u0020 u0630_u0627_u062a u0020 u0627_u0644_u0639_u0644_u0627_u0642_u0629 u0020 u0628_u0636_u0645_u0627_u0646 u0020 u0627_u0644_u062c_u0648_u062f_u0629_u0020", 
        "u0648_u0627_u0644_u0627_u0639_u062a_u0645_u0627_u062f_u002e_u000d", 
        "u0625_u062c_u0631_u0627_u0621 u0020 u0639_u0645_u0644_u064a_u0627_u062a u0020 u0627_u0644_u0627_u0639_u062a_u0645_u0627_u062f u0020 u0627_u0644_u0645_u0624_u0633_u0633_u064a u0020 u0648_u0627_u0644_u0628_u0631_u0627_u0645_u062c_u064a_u0020", 
        "u0644_u0644_u062c_u0627_u0645_u0639_u0627_u062a u0020 u0627_u0644_u0623_u0639_u0636_u0627_u0621 u0020 u0627_u0644_u0631_u0627_u063a_u0628_u0629 u0020 u0641_u064a u0020 u0630_u0644_u0643_u002e_u000d", 
        "u0627_u0644_u062a_u0639_u0627_u0648_u0646 u0020 u0645_u0639 u0020 u0627_u0644_u0645_u0624_u0633_u0633_u0627_u062a u0020 u0648_u0627_u0644_u0647_u064a_u0626_u0627_u062a u0020 u0648_u0627_u0644_u0645_u0646_u0638_u0645_u0627_u062a u0020 u0627_u0644_u0645_u062d_u0644_u064a_u0629_u0020", 
        "u0648_u0627_u0644_u0639_u0631_u0628_u064a_u0629 u0020 u0648_u0627_u0644_u062f_u0648_u0644_u064a_u0629 u0020 u0627_u0644_u0645_u0639_u0646_u064a_u0629_u002e_u000d", 
        "u0032_u0037"
    ]
}