{
    "bounding_box": [
        [
            460, 
            43, 
            215, 
            45
        ], 
        [
            35, 
            130, 
            641, 
            32
        ], 
        [
            35, 
            165, 
            614, 
            31
        ], 
        [
            546, 
            200, 
            103, 
            26
        ], 
        [
            35, 
            238, 
            641, 
            32
        ], 
        [
            43, 
            271, 
            606, 
            32
        ], 
        [
            595, 
            313, 
            54, 
            19
        ], 
        [
            35, 
            342, 
            641, 
            35
        ], 
        [
            35, 
            379, 
            614, 
            31
        ], 
        [
            35, 
            413, 
            614, 
            31
        ], 
        [
            529, 
            453, 
            120, 
            20
        ], 
        [
            35, 
            491, 
            641, 
            27
        ], 
        [
            422, 
            523, 
            227, 
            29
        ]
    ], 
    "image_height": 540, 
    "image_width": 720, 
    "transcription": [
        "u0628_u064a_u0646_u0627_u062a u0020 u0627_u0644_u0623_u0646_u0628_u064a_u0627_u0621_u003a", 
        "u0628_u064a_u0646_u0627_u062a u0020 u0627_u0644_u0623_u0646_u0628_u064a_u0627_u0621 u0020 u0623_u0646_u0648_u0627_u0639 u0020 u0020_u0645_u0646_u0647_u0627 u0020 u0627_u0644_u062e_u0648_u0627_u0631_u0642 u0020 u0627_u0644_u062a_u064a u0020 u064a_u062c_u0631_u064a_u0647_u0627 u0020 u0627_u0644_u0644_u0647 u0020 u0639_u0644_u0649 u0020 u0623_u064a_u062f_u064a_u0647_u0645_u0020", 
        "u0648_u064a_u0633_u0645_u0649 u0020 u0639_u0646_u062f u0020 u0623_u0647_u0644 u0020 u0627_u0644_u0643_u0644_u0627_u0645 u0020 u0628_u0627_u0644_u0645_u0639_u062c_u0632_u0627_u062a u0020 u0648_u062a_u062a_u0648_u0642_u0641 u0020 u0627_u0644_u0646_u0628_u0648_u0629 u0020 u0639_u0644_u064a_u0647_u0627 u0020 u0639_u0646_u062f_u0020", 
        "u0627_u0644_u0645_u0639_u062a_u0632_u0644_u0629 u0020 u0020_u002e_u000d", 
        "u0645_u0646 u0020 u0627_u0644_u0645_u0639_u062c_u0632_u0627_u062a u0020 u0645_u0627 u0020 u0623_u062c_u0631_u0627_u0647 u0020 u0627_u0644_u0644_u0647 u0020 u0639_u0644_u0649 u0020 u064a_u062f u0020 u0645_u0648_u0633_u0649 u0020 u0642_u0627_u0644 u0020 u062a_u0639_u0627_u0644_u0649 u0020 u003a u0020 ufd3f_u0641_u064e_u0623_u064e_u0644_u0652_u0642_u064e_u0649 u0020 u0639_u064e_u0635_u064e_u0627_u0647_u064f_u0020", 
        "u0641_u064e_u0625_u0650_u0630_u064e_u0627 u0020 u0647_u0650_u064a_u064e u0020 u062b_u064f_u0639_u0652_u0628_u064e_u0627_u0646_u064c u0020 u0645_u064f_u0628_u0650_u064a_u0646_u064c_u060c u0020 u0648_u064e_u0646_u064e_u0632_u064e_u0639_u064e u0020 u064a_u064e_u062f_u064e_u0647_u064f u0020 u0641_u064e_u0625_u0650_u0630_u064e_u0627 u0020 u0647_u0650_u064a_u064e u0020 u0628_u064e_u064a_u0652_u0636_u064e_u0627_u0621_u064f_ufd3e u0020 u0627_u0644_u0623_u0639_u0631_u0627_u0641 u0020 u003a_u0031_u0030_u0037_u002d", 
        "u0031_u0030_u0038_u000d", 
        "u0648_u0642_u0635_u0629 u0020 u0646_u0628_u064a u0020 u0627_u0644_u0644_u0647 u0020 u0635_u0627_u0644_u062d u0020 u0642_u0627_u0644 u0020 u062a_u0639_u0627_u0644_u0649 u0020 u003a_ufd3f_u0645_u064e_u0627 u0020 u0623_u064e_u0646_u062a_u064e u0020 u0625_u0650_u0644_u0627 u0020 u0628_u064e_u0634_u064e_u0631_u064c u0020 u0645_u0651_u0650_u062b_u0652_u0644_u064f_u0646_u064e_u0627 u0020 u0641_u064e_u0623_u0652_u062a_u0650 u0020 u0628_u0650_u0622_u064a_u064e_u0629_u064d u0020 u0625_u0650_u0646 u0020 u0643_u064f_u0646_u062a_u064e_u0020", 
        "u0645_u0650_u0646_u064e u0020 u0627_u0644_u0635_u0651_u064e_u0627_u062f_u0650_u0642_u0650_u064a_u0646_u064e u0020 u002a u0020 u0642_u064e_u0627_u0644_u064e u0020 u0647_u064e_u0630_u0650_u0647_u0650 u0020 u0646_u064e_u0627_u0642_u064e_u0629_u064c u0020 u0644_u0651_u064e_u0647_u064e_u0627 u0020 u0634_u0650_u0631_u0652_u0628_u064c u0020 u0648_u064e_u0644_u064e_u0643_u064f_u0645_u0652 u0020 u0634_u0650_u0631_u0652_u0628_u064f u0020 u064a_u064e_u0648_u0652_u0645_u064d u0020 u0645_u0651_u064e_u0639_u0652_u0644_u064f_u0648_u0645_u064d_u0020", 
        "u0028_u0031_u0035_u0035_u0029 u0020 u0648_u064e_u0644_u0627 u0020 u062a_u064e_u0645_u064e_u0633_u0651_u064f_u0648_u0647_u064e_u0627 u0020 u0628_u0650_u0633_u064f_u0648_u0621_u064d u0020 u0641_u064e_u064a_u064e_u0623_u0652_u062e_u064f_u0630_u064e_u0643_u064f_u0645_u0652 u0020 u0639_u064e_u0630_u064e_u0627_u0628_u064f u0020 u064a_u064e_u0648_u0652_u0645_u064d u0020 u0639_u064e_u0638_u0650_u064a_u0645_u064d u0020 ufd3e_u0627_u0644_u0634_u0639_u0631_u0627_u0621_u0020", 
        "u003a_u0031_u0035_u0034_u002d_u0031_u0035_u0036_u000d", 
        "u0648_u0645_u0646 u0020 u0645_u0639_u062c_u0632_u0627_u062a u0020 u0646_u0628_u064a_u0646_u0627 u0020 u0627_u0646_u0634_u0642_u0627_u0642 u0020 u0627_u0644_u0642_u0645_u0631 u0020 u0648_u062a_u0643_u062b_u064a_u0631 u0020 u0627_u0644_u0637_u0639_u0627_u0645 u0020 u0648_u0627_u0644_u0634_u0631_u0627_u0628 u0020 u0648_u0627_u0644_u0625_u062e_u0628_u0627_u0631_u0020", 
        "u0628_u0627_u0644_u0645_u063a_u064a_u0628_u0627_u062a u0020 u0648_u0627_u0644_u0642_u0631_u0622_u0646 u0020 u0627_u0644_u0643_u0631_u064a_u0645_u002e"
    ]
}