{
    "bounding_box": [
        [
            147, 
            46, 
            413, 
            44
        ], 
        [
            93, 
            135, 
            583, 
            28
        ], 
        [
            389, 
            180, 
            287, 
            34
        ], 
        [
            412, 
            227, 
            263, 
            33
        ], 
        [
            113, 
            272, 
            563, 
            34
        ], 
        [
            421, 
            312, 
            228, 
            32
        ], 
        [
            53, 
            356, 
            622, 
            34
        ], 
        [
            263, 
            401, 
            413, 
            34
        ]
    ], 
    "image_height": 540, 
    "image_width": 720, 
    "transcription": [
        "u062a_u0627_u0631_u064a_u062e u0020 u0642_u0637_u0631 u0020 u0627_u0644_u062d_u062f_u064a_u062b u0020 u0648_u0627_u0644_u0645_u0639_u0627_u0635_u0631_u0020", 
        "u0031 u0020 u0640_u0640 u0020 u0642_u0637_u0631 u0020 u0628_u064a_u0646 u0020 u0627_u0644_u0642_u0631_u0646 u0020 u0627_u0644_u0633_u0627_u062f_u0633 u0020 u0639_u0634_u0631 u0020 u0648_u0627_u0644_u0642_u0631_u0646 u0020 u0627_u0644_u062b_u0627_u0645_u0646 u0020 u0639_u0634_u0631 u0020 u002e_u000d", 
        "u0623 u0020 u0029 u0020 u0642_u0637_u0631 u0020 u0648_u0641_u062a_u0631_u0629 u0020 u0627_u0644_u0628_u0631_u062a_u063a_u0627_u0644_u064a_u064a_u0646 u0020 u003a_u000d", 
        "u0628 u0020 u0029 u0020 u0642_u0637_u0631 u0020 u0648_u0627_u0644_u0628_u0631_u064a_u0637_u0627_u0646_u064a_u064a_u0646 u0020 u003a u0020 u000d", 
        "u0640_u0640 u0020 u0623_u0633_u0633_u062a u0020 u0628_u0631_u064a_u0637_u0627_u0646_u064a_u0627 u0020 u0020_u0634_u0631_u0643_u0629 u0020 u0627_u0644_u0647_u0646_u062f u0020 u0627_u0644_u0634_u0631_u0642_u064a_u0629 u0020 u0627_u0644_u0627_u0646_u062c_u0644_u064a_u0632_u064a_u0629 u0020 u0639_u0627_u0645_u0020", 
        "u0031_u0036_u0033_u0035_u0645 u0020 u0641_u064a u0020 u0627_u0644_u0628_u0635_u0631_u0629 u0020 u002e_u000d", 
        "u0640_u0640 u0020 u0623_u0646_u0634_u0623_u062a u0020 u0628_u0631_u064a_u0637_u0627_u0646_u064a_u0627 u0020 u0627_u062a_u0641_u0627_u0642_u064a_u0629 u0020 u0028 u0020 u0627_u0644_u0645_u0639_u0627_u0647_u062f_u0629 u0020 u0627_u0644_u0639_u0627_u0645_u0629 u0020 u0644_u0644_u0633_u0644_u0627_u0645 u0020 u0627_u0644_u0628_u062d_u0631_u064a u0020 u0029 u0020 u000d", 
        "u0020 u0020 u0020_u0648_u0641_u0631_u0636_u062a u0020 u0639_u0644_u0649 u0020 u0642_u0637_u0631 u0020 u0627_u0644_u0627_u0644_u062a_u0632_u0627_u0645 u0020 u0628_u0634_u0631_u0648_u0637_u0647_u0627 u0020 u002e"
    ]
}