{
    "bounding_box": [
        [
            297, 
            36, 
            202, 
            28
        ], 
        [
            58, 
            105, 
            610, 
            18
        ], 
        [
            58, 
            129, 
            611, 
            18
        ], 
        [
            58, 
            159, 
            563, 
            18
        ], 
        [
            58, 
            183, 
            147, 
            14
        ], 
        [
            58, 
            213, 
            624, 
            18
        ], 
        [
            58, 
            237, 
            179, 
            18
        ], 
        [
            58, 
            267, 
            458, 
            18
        ], 
        [
            58, 
            297, 
            281, 
            18
        ], 
        [
            89, 
            326, 
            584, 
            17
        ], 
        [
            58, 
            356, 
            585, 
            18
        ], 
        [
            58, 
            380, 
            478, 
            18
        ], 
        [
            58, 
            410, 
            536, 
            17
        ], 
        [
            58, 
            440, 
            594, 
            18
        ], 
        [
            58, 
            464, 
            617, 
            16
        ], 
        [
            58, 
            488, 
            222, 
            18
        ], 
        [
            306, 
            514, 
            106, 
            7
        ], 
        [
            664, 
            513, 
            12, 
            6
        ]
    ], 
    "image_height": 540, 
    "image_width": 720, 
    "transcription": [
        "u004b_u0065_u0079 u0020 u006d_u0065_u0073_u0073_u0061_u0067_u0065_u0073", 
        "u004d_u006f_u0048 u0020 u0069_u006e u0020 u0063_u006f_u006c_u006c_u0061_u0062_u006f_u0072_u0061_u0074_u0069_u006f_u006e u0020 u0077_u0069_u0074_u0068 u0020 u0063_u006f_u006e_u0063_u0065_u0072_u006e_u0065_u0064 u0020 u0070_u0061_u0072_u0074_u006e_u0065_u0072_u0073 u0020 u0068_u0061_u0073 u0020 u0064_u0065_u0076_u0065_u006c_u006f_u0070_u0065_u0064 u0020 u0073_u0074_u0072_u0061_u0074_u0065_u0067_u0079 u0020 u0074_u0068_u0061_u0074_u0020", 
        "u0070_u0072_u006f_u006d_u006f_u0074_u0065 u0020 u0072_u0061_u0074_u0069_u006f_u006e_u0061_u006c u0020 u0070_u0072_u0065_u0073_u0063_u0072_u0069_u0062_u0069_u006e_u0067 u0020 u0061_u006e_u0064 u0020 u0075_u0073_u0065 u0020 u006f_u0066 u0020 u0064_u0072_u0075_u0067_u0073 u0020 u0061_u006e_u0064 u0020 u0070_u0072_u006f_u006d_u006f_u0074_u0065 u0020 u0068_u0065_u0061_u006c_u0074_u0068 u0020 u0073_u0065_u0063_u0075_u0072_u0069_u0074_u0079_u000d", 
        "u0050_u0068_u0061_u0072_u006d_u0061_u0063_u0069_u0073_u0074 u0020 u0068_u0061_u0073 u0020 u0061_u006e u0020 u0069_u006d_u0070_u006f_u0072_u0074_u0061_u006e_u0074 u0020 u0072_u006f_u006c_u0065 u0020 u0069_u006e u0020 u0070_u0072_u006f_u006d_u006f_u0074_u0069_u006e_u0067 u0020 u0070_u0075_u0062_u006c_u0069_u0063 u0020 u0061_u0077_u0061_u0072_u0065_u006e_u0065_u0073_u0073 u0020 u0061_u006e_u0064_u0020", 
        "u0065_u0064_u0075_u0063_u0061_u0074_u0069_u006f_u006e u0020 u0061_u0062_u006f_u0075_u0074_u003a u0020 u000d", 
        "u0050_u0072_u0065_u0073_u0063_u0072_u0069_u0070_u0074_u0069_u006f_u006e u0020 u006d_u0065_u0064_u0069_u0063_u0061_u0074_u0069_u006f_u006e_u0073 u0020 u006d_u0075_u0073_u0074 u0020 u0062_u0065 u0020 u0075_u0073_u0065_u0064 u0020 u006f_u006e_u006c_u0079 u0020 u0061_u0073 u0020 u0070_u0072_u0065_u0073_u0063_u0072_u0069_u0062_u0065_u0064_u002c u0020 u0073_u0061_u0066_u0065_u006c_u0079 u0020 u0073_u0074_u006f_u0072_u0065_u0064_u002c u0020 u0061_u006e_u0064_u0020", 
        "u0070_u0072_u006f_u0070_u0065_u0072_u006c_u0079 u0020 u0064_u0069_u0073_u0070_u006f_u0073_u0065_u0064 u0020 u006f_u0066_u002e u0020 u000d", 
        "u0050_u006f_u0073_u0073_u0069_u0062_u0069_u006c_u0069_u0074_u0079 u0020 u006f_u0066 u0020 u0064_u0072_u0075_u0067 u0020 u0061_u0062_u0075_u0073_u0065 u0020 u0062_u0079 u0020 u0066_u0061_u006d_u0069_u006c_u0079 u0020 u006d_u0065_u006d_u0062_u0065_u0072_u0073 u0020 u0061_u006e_u0064 u0020 u0076_u0069_u0073_u0069_u0074_u006f_u0072_u0073_u000d", 
        "u004d_u0075_u0073_u0074 u0020 u0065_u006d_u0070_u006c_u006f_u0079 u0020 u0070_u0072_u0065_u0063_u0061_u0075_u0074_u0069_u006f_u006e_u0073 u0020 u0073_u0075_u0063_u0068 u0020 u0061_u0073_u003a_u000d", 
        "u0054_u0061_u006b_u0069_u006e_u0067 u0020 u0072_u0065_u0067_u0075_u006c_u0061_u0072 u0020 u0069_u006e_u0076_u0065_u006e_u0074_u006f_u0072_u0079 u0020 u006f_u0066 u0020 u0074_u0068_u0065_u0069_u0072 u0020 u0070_u0069_u006c_u006c_u0073 u0020 u0026 u0020 u004c_u006f_u0063_u006b_u0069_u006e_u0067 u0020 u0074_u0068_u0065_u0069_u0072 u0020 u006d_u0065_u0064_u0069_u0063_u0069_u006e_u0065 u0020 u0063_u0061_u0062_u0069_u006e_u0065_u0074_u0073_u002e_u000d", 
        "u0050_u0068_u0061_u0072_u006d_u0061_u0063_u0069_u0073_u0074_u0073 u0020 u0061_u006e_u0064 u0020 u0050_u0068_u0079_u0073_u0069_u0063_u0069_u0061_u006e_u0073 u0020 u0073_u0068_u006f_u0075_u006c_u0064 u0020 u0072_u0065_u0069_u006e_u0066_u006f_u0072_u0063_u0065 u0020 u0074_u0068_u0065_u0073_u0065 u0020 u006d_u0065_u0073_u0073_u0061_u0067_u0065_u0073 u0020 u0077_u0068_u0065_u006e u0020 u0074_u0068_u0065_u0079_u0020", 
        "u0069_u006e_u0074_u0065_u0072_u0061_u0063_u0074 u0020 u0064_u0069_u0072_u0065_u0063_u0074_u006c_u0079 u0020 u0077_u0069_u0074_u0068 u0020 u0070_u0061_u0074_u0069_u0065_u006e_u0074_u0073 u0020 u0074_u006f u0020 u0077_u0072_u0069_u0074_u0065 u0020 u006f_u0072 u0020 u0066_u0069_u006c_u006c u0020 u0070_u0072_u0065_u0073_u0063_u0072_u0069_u0070_u0074_u0069_u006f_u006e_u0073_u002e u0020 u000d", 
        "u0041_u0076_u006f_u0069_u0064 u0020 u0062_u0075_u0079_u0069_u006e_u0067 u0020 u006d_u0065_u0064_u0069_u0063_u0069_u006e_u0065 u0020 u0077_u0069_u0074_u0068_u006f_u0075_u0074 u0020 u0070_u0072_u0065_u0073_u0063_u0072_u0069_u0070_u0074_u0069_u006f_u006e u0020 u0066_u0072_u006f_u006d u0020 u0064_u0065_u0061_u006c_u0065_u0072 u0020 u006f_u0072 u0020 u006f_u006e_u006c_u0069_u006e_u0065_u000d", 
        "u0045_u006e_u0063_u006f_u0075_u0072_u0061_u0067_u0065 u0020 u0070_u0075_u0062_u006c_u0069_u0063 u0020 u0061_u006e_u0064 u0020 u0048_u0043_u0050_u0073 u0020 u0074_u006f u0020 u0052_u0065_u0070_u006f_u0072_u0074 u0020 u0069_u006d_u006d_u0065_u0064_u0069_u0061_u0074_u0065_u006c_u0079 u0020 u0061_u006e_u0079 u0020 u0073_u0075_u0073_u0070_u0069_u0063_u0069_u006f_u0075_u0073 u0020 u0063_u0061_u0073_u0065 u0020 u006f_u0072_u0020", 
        "u006d_u0061_u006c_u0070_u0072_u0061_u0063_u0074_u0069_u0063_u0065 u0020 u0028_u0069_u006c_u006c_u0065_u0067_u0061_u006c u0020 u0073_u0061_u006c_u0065_u002c u0020 u0061_u0062_u0075_u0073_u0065 u0020 u006f_u0066 u0020 u0070_u0068_u0061_u0072_u006d_u0061_u0063_u0065_u0075_u0074_u0069_u0063_u0061_u006c u0020 u0064_u0072_u0075_u0067_u0073_u002c u0020 u0073_u0075_u0073_u0070_u0069_u0063_u0069_u006f_u0075_u0073 u0020 u0049_u006e_u0074_u0065_u0072_u006e_u0065_u0074_u0020", 
        "u0070_u0068_u0061_u0072_u006d_u0061_u0063_u0069_u0065_u0073_u002c u0020 u0064_u0069_u0076_u0065_u0072_u0073_u0069_u006f_u006e_u002c u0020 u0065_u0074_u0063_u0029_u000d", 
        "u0645_u0624_u062a_u0645_u0631 u0020 u0627_u0644_u062a_u0646_u0638_u064a_u0645 u0020 u0627_u0644_u0635_u062d_u064a u0020 u0627_u0644_u0627_u0648_u0644", 
        "u0032_u0031"
    ]
}