{
    "bounding_box": [
        [
            125, 
            35, 
            564, 
            32
        ], 
        [
            88, 
            93, 
            601, 
            32
        ], 
        [
            23, 
            147, 
            668, 
            31
        ], 
        [
            251, 
            201, 
            440, 
            28
        ], 
        [
            85, 
            259, 
            604, 
            32
        ], 
        [
            51, 
            311, 
            639, 
            34
        ], 
        [
            83, 
            366, 
            608, 
            33
        ], 
        [
            25, 
            421, 
            665, 
            31
        ], 
        [
            33, 
            468, 
            657, 
            44
        ], 
        [
            502, 
            529, 
            188, 
            37
        ]
    ], 
    "image_height": 540, 
    "image_width": 720, 
    "transcription": [
        "u0033_u002d u0020 u0020_u0648_u0645_u0627 u0020 u0627_u0644_u062d_u0643_u0645_u0629 u0020 u0641_u064a u0020 u062a_u062e_u0635_u064a_u0635 u0020 u0627_u0644_u0622_u064a_u0629 u0020 u0628_u0630_u0644_u0643 u0020 u062f_u0648_u0646 u0020 u0627_u0644_u0622_u064a_u0629 u0020 u0627_u0644_u0623_u062e_u0631_u0649_u002e_u000d", 
        "u0034_u002d u0020 u0648_u0647_u0644 u0020 u0643_u0627_u0646 u0020 u064a_u0635_u0644_u062d u0020 u0645_u0627 u0020 u0641_u064a u0020 u0647_u0630_u0647 u0020 u0627_u0644_u0633_u0648_u0631_u0629 u0020 u0645_u0643_u0627_u0646 u0020 u0645_u0627 u0020 u0641_u064a u0020 u0627_u0644_u0633_u0648_u0631_u0629 u0020 u0627_u0644_u062a_u064a_u0020", 
        "u062a_u0634_u0627_u0643_u0644_u0647_u0627 u0020 u0623_u0645 u0020 u0644_u0627_u060c u0020 u0644_u064a_u062c_u0631_u064a u0020 u0630_u0644_u0643 u0020 u0645_u062c_u0631_u0649 u0020 u0639_u0644_u0627_u0645_u0627_u062a u0020 u062a_u0632_u064a_u0644 u0020 u0625_u0634_u0643_u0627_u0644_u0647_u0627 u0020 u0648_u062a_u0645_u062a_u0627_u0632 u0020 u0628_u0647_u0627 u0020 u0639_u0646_u0020", 
        "u0623_u0634_u0643_u0627_u0644_u0647_u0627 u0020 u0645_u0646 u0020 u063a_u064a_u0631 u0020 u0623_u0646 u0020 u0623_u0634_u062a_u063a_u0644 u0020 u0628_u062a_u0641_u0633_u064a_u0631_u0647_u0627 u0020 u0648_u062a_u0623_u0648_u064a_u0644_u0647_u0627_u002e_u000d", 
        "u0020_u0641_u0625_u0646_u064a u0020 u0628_u062d_u0645_u062f u0020 u0627_u0644_u0644_u0647 u0020 u0642_u062f u0020 u0628_u064a_u0646_u062a u0020 u0630_u0644_u0643 u0020 u0643_u0644_u0647 u0020 u0628_u0634_u0631_u0627_u0626_u0637_u0647 u0020 u0641_u064a u0020 u0643_u062a_u0627_u0628 u0020 u0644_u0628_u0627_u0628 u0020 u0627_u0644_u062a_u0641_u0633_u064a_u0631_u0020", 
        "u0648_u0639_u062c_u0627_u0626_u0628 u0020 u0627_u0644_u062a_u0623_u0648_u064a_u0644 u0020 u0645_u0634_u062a_u0645_u0644_u0627_u064b u0020 u0639_u0644_u0649 u0020 u0623_u0643_u062b_u0631 u0020 u0645_u0627 u0020 u0646_u062d_u0646 u0020 u0628_u0635_u062f_u062f_u0647 u0020 u0648_u0644_u0643_u0646_u064a u0020 u0623_u0641_u0631_u062f_u062a u0020 u0647_u0630_u0627_u0020", 
        "u0627_u0644_u0643_u062a_u0627_u0628 u0020 u0644_u0628_u064a_u0627_u0646 u0020 u0627_u0644_u0645_u062a_u0634_u0627_u0628_u0647 u0020 u0641_u0625_u0646 u0020 u0627_u0644_u0623_u0626_u0645_u0629 u0020 u0631_u062d_u0645_u0647_u0645 u0020 u0627_u0644_u0644_u0647 u0020 u062a_u0639_u0627_u0644_u0649 u0020 u0642_u062f u0020 u0634_u0631_u0639_u0648_u0627 u0020 u0641_u064a_u0020", 
        "u062a_u0635_u0646_u064a_u0641_u0647 u0020 u0648_u0627_u0642_u062a_u0635_u0631_u0648_u0627 u0020 u0639_u0644_u0649 u0020 u0630_u0643_u0631 u0020 u0627_u0644_u0622_u064a_u0629 u0020 u0648_u0646_u0638_u064a_u0631_u062a_u0647_u0627 u0020 u0648_u0644_u0645 u0020 u064a_u0634_u062a_u063a_u0644_u0648_u0627 u0020 u0628_u0630_u0643_u0631 u0020 u0648_u062c_u0648_u0647_u0647_u0627_u0020", 
        "u0648_u0639_u0644_u0644_u0647_u0627 u0020 u0648_u0627_u0644_u0641_u0631_u0642 u0020 u0628_u064a_u0646 u0020 u0627_u0644_u0622_u064a_u0629 u0020 u0648_u0645_u062b_u0644_u0647_u0627 u0020 u0648_u0647_u0648 u0020 u0627_u0644_u0645_u0634_u0643_u0644 u0020 u0627_u0644_u0630_u064a u0020 u0644_u0627 u0020 u064a_u0642_u0648_u0645 u0020 u0628_u0623_u0639_u0628_u0627_u0626_u0647 u0020 u0625_u0644_u0627_u0020", 
        "u0645_u0646 u0020 u0648_u0641_u0642_u0647 u0020 u0627_u0644_u0644_u0647 u0020 u0644_u0623_u062f_u0627_u0626_u0647 u0020 u002e"
    ]
}