{
    "bounding_box": [
        [
            67, 
            44, 
            597, 
            56
        ], 
        [
            40, 
            111, 
            644, 
            18
        ], 
        [
            460, 
            130, 
            225, 
            18
        ], 
        [
            36, 
            150, 
            649, 
            22
        ], 
        [
            520, 
            173, 
            164, 
            17
        ], 
        [
            13, 
            195, 
            672, 
            21
        ], 
        [
            196, 
            217, 
            489, 
            17
        ], 
        [
            87, 
            237, 
            598, 
            22
        ], 
        [
            45, 
            262, 
            639, 
            21
        ], 
        [
            467, 
            284, 
            218, 
            17
        ], 
        [
            539, 
            305, 
            146, 
            19
        ], 
        [
            575, 
            329, 
            109, 
            20
        ], 
        [
            456, 
            356, 
            229, 
            17
        ], 
        [
            527, 
            377, 
            158, 
            20
        ], 
        [
            64, 
            401, 
            621, 
            21
        ], 
        [
            31, 
            424, 
            654, 
            22
        ], 
        [
            43, 
            447, 
            642, 
            18
        ], 
        [
            480, 
            466, 
            205, 
            18
        ], 
        [
            10, 
            486, 
            675, 
            22
        ], 
        [
            634, 
            510, 
            51, 
            16
        ]
    ], 
    "image_height": 540, 
    "image_width": 720, 
    "transcription": [
        "u062a_u0627_u0628_u0639 u0020 u0625_u0645_u0633_u0627_u0643 u0020 u0627_u0644_u0645_u0644_u0641 u0020 u0627_u0644_u0645_u062f_u0631_u0633_u064a u0020 u0644_u0644_u062a_u0644_u0645_u064a_u0630", 
        "u0627_u0644_u0645_u0627_u062f_u0629 u0020 u0037 u0020 u003a u0020 u064a_u062c_u0628 u0020 u0623_u0644_u0627 u0020 u064a_u062a_u0636_u0645_u0646 u0020 u0627_u0644_u0645_u0644_u0641 u0020 u0627_u0644_u0645_u062f_u0631_u0633_u064a u0020 u0644_u0644_u062a_u0644_u0645_u064a_u0630 u0020 u0645_u0639_u0644_u0648_u0645_u0627_u062a u0020 u0630_u0627_u062a u0020 u0637_u0627_u0628_u0639 u0020 u062e_u0627_u0635 u0020 u062a_u062a_u0639_u0644_u0642 u0020 u0628_u0623_u0648_u0644_u064a_u0627_u0626_u0647 u0020 u064a_u0645_u0643_u0646 u0020 u0623_u0646_u0020", 
        "u062a_u0633_u064a_u0621 u0020 u0625_u0644_u064a_u0647 u0020 u0623_u0648 u0020 u062a_u0645_u0633 u0020 u0628_u0633_u0645_u0639_u0629 u0020 u0639_u0627_u0626_u0644_u062a_u0647_u002e_u000d", 
        "u0627_u0644_u0645_u0627_u062f_u0629 u0020 u0038 u0020 u003a u0020 u064a_u062a_u0648_u0644_u0649 u0020 u0645_u062f_u064a_u0631 u0020 u0627_u0644_u0645_u0624_u0633_u0633_u0629 u0020 u062a_u0633_u064a_u064a_u0631 u0020 u0627_u0644_u0645_u0644_u0641 u0020 u0627_u0644_u0645_u062f_u0631_u0633_u064a u0020 u0644_u0644_u062a_u0644_u0645_u064a_u0630 u0020 u0628_u0635_u0641_u0629 u0020 u0645_u0628_u0627_u0634_u0631_u0629 u0020 u0648_u064a_u0645_u0643_u0646 u0020 u0623_u0646 u0020 u064a_u0642_u0648_u0645 u0020 u0628_u0647 u0020 u062a_u062d_u062a_u0020", 
        "u0625_u0634_u0631_u0627_u0641_u0647 u0020 u0645_u0633_u062a_u0634_u0627_u0631 u0020 u0627_u0644_u062a_u0631_u0628_u064a_u0629 u0020 u002e_u000d", 
        "u0627_u0644_u0645_u0627_u062f_u0629 u0020 u0039 u0020 u003a u0020 u064a_u0642_u0648_u0645 u0020 u0645_u062f_u064a_u0631 u0020 u0627_u0644_u0645_u0624_u0633_u0633_u0629 u0020 u0641_u064a u0020 u062d_u0627_u0644_u0629 u0020 u0627_u0646_u062a_u0642_u0627_u0644 u0020 u062a_u0644_u0645_u064a_u0630 u0020 u0625_u0644_u0649 u0020 u0645_u0624_u0633_u0633_u0629 u0020 u0623_u062e_u0631_u0649 u0020 u0648_u0628_u0646_u0627_u0621 u0020 u0639_u0644_u0649 u0020 u0637_u0644_u0628 u0020 u0645_u0643_u062a_u0648_u0628 u0020 u0645_u0646 u0020 u0645_u062f_u064a_u0631_u0020", 
        "u0627_u0644_u0645_u0624_u0633_u0633_u0629 u0020 u0627_u0644_u0645_u0633_u062a_u0642_u0628_u0644_u0629 u0020 u0628_u0625_u0631_u0633_u0627_u0644 u0020 u0645_u0644_u0641 u0020 u0627_u0644_u062a_u0644_u0645_u064a_u0630 u0020 u0627_u0644_u0645_u062d_u0648_u0644 u0020 u0641_u064a u0020 u0638_u0631_u0641 u0020 u0633_u0631_u064a u0020 u0648_u0645_u0636_u0645_u0648_u0646 u0020 u002e_u000d", 
        "u0627_u0644_u0645_u0627_u062f_u0629 u0020 u0031_u0030 u0020 u003a u0020 u064a_u062a_u0641_u0642_u062f u0020 u0645_u0648_u0638_u0641_u0648 u0020 u0627_u0644_u062a_u0631_u0628_u064a_u0629 u0020 u0627_u0644_u0645_u0643_u0644_u0641_u0648_u0646 u0020 u0628_u0645_u0647_u0627_u0645 u0020 u0627_u0644_u062a_u0641_u062a_u064a_u0634 u0020 u0648_u0627_u0644_u0645_u0631_u0627_u0642_u0628_u0629 u0020 u0648_u0627_u0644_u062a_u062d_u0642_u064a_u0642 u0020 u0645_u0644_u0641_u0627_u062a u0020 u0627_u0644_u062a_u0644_u0627_u0645_u064a_u0630_u002e_u000d", 
        "u0627_u0644_u0645_u0627_u062f_u0629 u0020 u0031_u0031 u0020 u003a u0020 u064a_u0633_u0645_u062d u0020 u0628_u0627_u0644_u0627_u0637_u0644_u0627_u0639 u0020 u0639_u0644_u0649 u0020 u0627_u0644_u0645_u0644_u0641 u0020 u0627_u0644_u0645_u062f_u0631_u0633_u064a u0020 u0644_u0644_u062a_u0644_u0645_u064a_u0630 u0020 u0641_u064a u0020 u0625_u0637_u0627_u0631 u0020 u0627_u0644_u0639_u0645_u0644 u0020 u0648_u0628_u0639_u062f u0020 u0645_u0648_u0627_u0641_u0642_u0629 u0020 u0645_u062f_u064a_u0631 u0020 u0627_u0644_u0645_u0624_u0633_u0633_u0629_u0020", 
        "u0627_u0644_u0645_u0648_u0638_u0641_u064a_u0646 u0020 u0627_u0644_u0645_u0630_u0643_u0648_u0631_u064a_u0646 u0020 u0623_u062f_u0646_u0627_u0647 u0020 u0648_u0647_u0645 u0020 u003a u0020 u000d", 
        "u0627_u0644_u0645_u062f_u0631_u0633_u0648_u0646 u0020 u0648_u0627_u0644_u0623_u0633_u0627_u062a_u0630_u0629 u0020 u002e_u000d", 
        "u0645_u0633_u062a_u0634_u0627_u0631 u0020 u0627_u0644_u062a_u0631_u0628_u064a_u0629 u0020 u000d", 
        "u0645_u0633_u062a_u0634_u0627_u0631 u0020 u0627_u0644_u062a_u0648_u062c_u064a_u0647 u0020 u0627_u0644_u0645_u062f_u0631_u0633_u064a u0020 u0648_u0627_u0644_u0645_u0647_u0646_u064a_u000d", 
        "u0637_u0628_u064a_u0628 u0020 u0627_u0644_u0635_u062d_u0629 u0020 u0627_u0644_u0645_u062f_u0631_u0633_u064a_u0629 u0020 u000d", 
        "u0627_u0644_u0645_u0627_u062f_u0629 u0020 u0031_u0032 u0020 u003a u0020 u062a_u062e_u0636_u0639 u0020 u0627_u0644_u0645_u0644_u0641_u0627_u062a u0020 u0627_u0644_u0645_u062f_u0631_u0633_u064a_u0629 u0020 u0625_u0644_u0649 u0020 u0642_u0648_u0627_u0639_u062f u0020 u0627_u0644_u0633_u0631 u0020 u0627_u0644_u0645_u0647_u0646_u064a u0020 u0648_u064a_u0645_u0646_u0639 u0020 u0625_u0641_u0634_u0627_u0621 u0020 u0623_u0633_u0631_u0627_u0631_u0647_u0627 u0020 u0648_u0645_u062d_u062a_u0648_u064a_u0627_u062a_u0647_u0627_u002e_u000d", 
        "u0627_u0644_u0645_u0627_u062f_u0629 u0020 u0031_u0033 u0020 u003a u0020 u0644_u0627 u0020 u064a_u0645_u0643_u0646 u0020 u0627_u0633_u062a_u062e_u0631_u0627_u062c u0020 u0648_u062b_u064a_u0642_u0629 u0020 u062b_u0645 u0020 u0625_u062f_u0631_u0627_u062c_u0647_u0627 u0020 u0641_u064a u0020 u0627_u0644_u0645_u0644_u0641 u0020 u0627_u0644_u0645_u062f_u0631_u0633_u064a u0020 u0644_u0644_u062a_u0644_u0645_u064a_u0630 u0020 u0623_u0648 u0020 u0625_u062a_u0644_u0627_u0641_u0647_u0627 u0020 u002e u0020 u063a_u064a_u0631 u0020 u0623_u0646_u0647 u0020 u064a_u0646_u0645_u0643_u0646_u0020", 
        "u0645_u062f_u064a_u0631 u0020 u0627_u0644_u0645_u0624_u0633_u0633_u0629 u0020 u0627_u0633_u062a_u0646_u062a_u0627_u062c u0020 u0628_u0639_u0636 u0020 u0627_u0644_u0648_u062b_u0627_u0626_u0642 u0020 u0627_u0644_u0645_u0635_u0646_u0641_u0629 u0020 u0641_u064a u0020 u0645_u0644_u0641 u0020 u0627_u0644_u062a_u0644_u0645_u064a_u0630 u0020 u0644_u0627_u0633_u062a_u0639_u0645_u0627_u0644_u0647_u0627 u0020 u0641_u064a u0020 u0627_u0644_u0645_u0639_u0627_u0645_u0644_u0627_u062a u0020 u0627_u0644_u0625_u062f_u0627_u0631_u064a_u0629 u0020 u0645_u0639_u0020", 
        "u0627_u0644_u0645_u0635_u0627_u0644_u062d u0020 u0627_u0644_u062a_u0627_u0628_u0639_u0629 u0020 u0644_u0648_u0632_u0627_u0631_u0629 u0020 u0627_u0644_u062a_u0631_u0628_u064a_u0629_u002e_u000d", 
        "u0627_u0644_u0645_u0627_u062f_u0629 u0020 u0031_u0034 u0020 u003a u0020 u062a_u062d_u0641_u0638 u0020 u0645_u0644_u0641_u0627_u062a u0020 u0627_u0644_u062a_u0644_u0627_u0645_u064a_u0630 u0020 u0627_u0644_u0630_u064a_u0646 u0020 u0623_u0646_u0647_u0648_u0627 u0020 u062f_u0631_u0627_u0633_u062a_u0647_u0645 u0020 u0641_u064a u0020 u0623_u0631_u0634_u064a_u0641 u0020 u0627_u0644_u0645_u0624_u0633_u0633_u0629 u0020 u0648_u064a_u0633_u0647_u0631 u0020 u0627_u0644_u0645_u062f_u064a_u0631 u0020 u0639_u0644_u0649 u0020 u0627_u0644_u0645_u062d_u0627_u0641_u0638_u0629_u0020", 
        "u0639_u0644_u064a_u0647_u0627_u002e u0020 u000d"
    ]
}