{
    "bounding_box": [
        [
            270, 
            49, 
            179, 
            36
        ], 
        [
            56, 
            131, 
            593, 
            22
        ], 
        [
            552, 
            157, 
            97, 
            20
        ], 
        [
            37, 
            214, 
            612, 
            25
        ], 
        [
            586, 
            241, 
            63, 
            20
        ], 
        [
            483, 
            298, 
            166, 
            22
        ], 
        [
            225, 
            352, 
            423, 
            29
        ], 
        [
            59, 
            414, 
            589, 
            26
        ], 
        [
            523, 
            441, 
            125, 
            21
        ]
    ], 
    "image_height": 540, 
    "image_width": 720, 
    "transcription": [
        "u062e_u0628_u0631_u0627_u062a u0020 u0633_u0627_u0628_u0642_u0629", 
        "u0627_u0644_u064a_u0627_u0628_u0627_u0646 u0020 u062a_u062d_u062a u0020 u0645_u0643_u062a_u0628 u0020 u0631_u0626_u064a_u0633 u0020 u0627_u0644_u0648_u0632_u0631_u0627_u0621_u060c u0020 u0648_u062a_u0645 u0020 u062a_u062e_u0641_u064a_u0636 u0020 u0627_u0644_u0648_u0641_u064a_u0627_u062a u0020 u0628_u0646_u0633_u0628_u0629 u0020 u0035_u0030_u066a u0020 u0641_u064a_u0020", 
        "u0031_u0030 u0020 u0633_u0646_u0648_u0627_u062a_u000b", 
        "u0641_u0631_u0646_u0633_u0627 u0020 u0627_u0644_u0631_u0626_u064a_u0633 u0020 u0028 u0020 u0645_u0643_u062a_u0628 u0020 u0631_u0626_u064a_u0633 u0020 u0627_u0644_u0648_u0632_u0631_u0627_u0621 u0020 u0028_u062a_u062e_u0641_u064a_u0636 u0020 u0627_u0644_u0648_u0641_u064a_u0627_u062a_u0034_u0033_u0025 u0020 u0020 u0020 u0020_u0641_u064a u0020 u062e_u0645_u0633_u0020", 
        "u0633_u0646_u0648_u0627_u062a_u000b", 
        "u0631_u0648_u0633_u064a_u0627 u0020 u0645_u0643_u062a_u0628 u0020 u0631_u0626_u064a_u0633_u000b", 
        "u0623_u0633_u062a_u0631_u0627_u0644_u064a_u0627 u0020 u0644_u062c_u0646_u0629 u0020 u0648_u0632_u0627_u0631_u064a_u0629 u0020 u062a_u062e_u0641_u064a_u0636 u0020 u0034_u0039_u066a u0020 u0020_u0641_u064a u0020 u0034 u0020 u0020_u0633_u0646_u0648_u0627_u062a_u000b", 
        "u0645_u0627_u0644_u064a_u0632_u064a_u0627 u0020 u0645_u0643_u062a_u0628 u0020 u0631_u0626_u064a_u0633 u0020 u0627_u0644_u0648_u0632_u0631_u0627_u0621_u0648 u0020 u0627_u0644_u0639_u0645_u0644 u0020 u062c_u0627_u0631_u064a u0020 u0641_u064a u0020 u0645_u0631_u062d_u0644_u0629 u0020 u0627_u0646_u062a_u0642_u0627_u0644_u064a_u0629 u0020 u0644_u0644_u0648_u0635_u0648_u0644_u0020", 
        "u0627_u0644_u0649 u0020 u0648_u0643_u0627_u0644_u0629 u0020 u0631_u0627_u0626_u062f_u0629"
    ]
}