{
    "bounding_box": [
        [
            304, 
            52, 
            324, 
            42
        ], 
        [
            525, 
            132, 
            76, 
            23
        ], 
        [
            454, 
            167, 
            147, 
            20
        ], 
        [
            37, 
            198, 
            564, 
            20
        ], 
        [
            297, 
            224, 
            303, 
            21
        ], 
        [
            342, 
            253, 
            258, 
            22
        ], 
        [
            550, 
            290, 
            51, 
            17
        ], 
        [
            536, 
            322, 
            64, 
            16
        ], 
        [
            566, 
            353, 
            35, 
            14
        ], 
        [
            510, 
            386, 
            91, 
            16
        ], 
        [
            308, 
            413, 
            293, 
            20
        ]
    ], 
    "image_height": 540, 
    "image_width": 720, 
    "transcription": [
        "u062a_u0634_u062e_u064a_u0635 u0020 u0627_u0641_u062a_u0631_u0627_u0642_u064a_u004e_u0049_u0048_u004c", 
        "u067e_u064a_u0631 u0020 u06af_u0648_u0634_u064a_u000d", 
        "u0627_u062e_u062a_u0644_u0627_u0644 u0020 u0634_u0646_u0648_u0627_u064a_u064a u0020 u0627_u0631_u062b_u064a_u000d", 
        "u0627_u062e_u062a_u0644_u0627_u0644_u0627_u062a u0020 u0645_u062a_u0627_u0628_u0648_u0644_u064a_u0643 u0020 u0645_u0627_u0646_u0646_u062f u0020 u062f_u064a_u0627_u0628_u062a_u060c u0020 u0647_u064a_u067e_u0648_u062a_u064a_u0631_u0648_u0626_u064a_u062f_u064a_u060c u0020 u0646_u0627_u0631_u0633_u0627_u064a_u064a u0020 u0643_u0644_u064a_u0647_u060c_u0627_u0641_u0632_u0627_u064a_u0634 u0020 u0686_u0631_u0628_u064a u0020 u0648_u0020", 
        "u06a9_u0644_u0633_u062a_u0631_u0648_u0644 u0020 u062e_u0648_u0646 u0020 u0648 u0020 u0645_u0635_u0631_u0641 u0020 u062f_u0627_u0631_u0648 u0020 u0647_u0627_u064a u0020 u062e_u0627_u0635_u000d", 
        "u06a9_u0627_u0647_u0634 u0020 u0634_u0646_u0648_u0627_u0626_u06cc u0020 u062d_u0633_u06cc_u002d_u0639_u0635_u0628_u06cc u0020 u0646_u0627_u06af_u0647_u0627_u0646_u06cc_u000d", 
        "u0639_u0641_u0648_u0646_u06cc_u000d", 
        "u062a_u0648_u0645_u0648_u0631_u0647_u0627_u000d", 
        "u004d_u0053_u000d", 
        "u0628_u06cc_u0645_u0627_u0631_u06cc u0020 u0645_u0646_u06cc_u0631_u000d", 
        "u06a9_u0627_u0647_u0634 u0020 u0634_u0646_u0648_u0627_u0626_u06cc u0020 u063a_u06cc_u0631 u0020 u0627_u0631_u06af_u0627_u0646_u06cc_u06a9 u0020 u06cc_u0627 u0020 u0639_u0645_u0644_u06a9_u0631_u062f_u06cc_u000d"
    ]
}