{
    "bounding_box": [
        [
            18, 
            25, 
            687, 
            34
        ], 
        [
            18, 
            63, 
            687, 
            35
        ], 
        [
            18, 
            102, 
            687, 
            34
        ], 
        [
            18, 
            139, 
            687, 
            35
        ], 
        [
            18, 
            179, 
            687, 
            34
        ], 
        [
            18, 
            215, 
            687, 
            36
        ], 
        [
            18, 
            257, 
            687, 
            33
        ], 
        [
            18, 
            292, 
            687, 
            36
        ], 
        [
            18, 
            329, 
            687, 
            37
        ], 
        [
            18, 
            368, 
            687, 
            37
        ], 
        [
            18, 
            406, 
            687, 
            36
        ], 
        [
            18, 
            445, 
            687, 
            36
        ], 
        [
            439, 
            489, 
            267, 
            31
        ]
    ], 
    "image_height": 540, 
    "image_width": 720, 
    "transcription": [
        "u0623_u0646_u0634_u0623_u062a u0020 u0644_u062c_u0646_u0629 u0020 u062d_u0642_u0648_u0642 u0020 u0627_u0644_u0637_u0641_u0644 u0020 u0628_u0645_u0648_u062c_u0628 u0020 u0627_u0644_u0645_u0627_u062f_u0629 u0020 u0034_u0033 u0020 u0645_u0646 u0020 u0627_u0644_u0627_u062a_u0641_u0627_u0642_u064a_u0629_u060c u0020 u0648_u0647_u064a_u0020", 
        "u062a_u062a_u0634_u0643_u0644 u0020 u0645_u0646 u0020 u0031_u0038 u0020 u062e_u0628_u064a_u0631_u0627 u0020 u0645_u0646 u0020 u0630_u0648_u064a u0020 u0627_u0644_u0645_u0643_u0627_u0646_u0629 u0020 u0627_u0644_u062e_u0644_u0642_u064a_u0629 u0020 u0627_u0644_u0631_u0641_u064a_u0639_u0629 u0020 u0648_u0627_u0644_u0643_u0641_u0627_u0621_u0629_u0020", 
        "u0627_u0644_u0645_u0639_u062a_u0631_u0641 u0020 u0628_u0647_u0627 u0020 u0641_u064a u0020 u0645_u064a_u062f_u0627_u0646 u0020 u062d_u0642_u0648_u0642 u0020 u0627_u0644_u0637_u0641_u0644_u060c u0020 u0648_u062a_u0646_u062a_u062e_u0628_u0647_u0645 u0020 u0627_u0644_u062f_u0648_u0644 u0020 u0627_u0644_u0623_u0637_u0631_u0627_u0641 u0020 u0641_u064a_u0020", 
        "u0627_u0644_u0627_u062a_u0641_u0627_u0642_u064a_u0629 u0020 u0645_u0646 u0020 u0628_u064a_u0646 u0020 u0631_u0639_u0627_u064a_u0627_u0647_u0627 u0020 u0648_u064a_u0639_u0645_u0644_u0648_u0646 u0020 u0641_u064a u0020 u0627_u0644_u0644_u062c_u0646_u0629 u0020 u0628_u0635_u0641_u062a_u0647_u0645 u0020 u0627_u0644_u0634_u062e_u0635_u064a_u0629_u060c_u0020", 
        "u0648_u064a_u0648_u0644_u0649 u0020 u0627_u0644_u0627_u0639_u062a_u0628_u0627_u0631 u0020 u0641_u064a u0020 u0627_u062e_u062a_u064a_u0627_u0631_u0647_u0645 u0020 u0644_u0644_u062a_u0648_u0632_u064a_u0639 u0020 u0627_u0644_u062c_u063a_u0631_u0627_u0641_u064a u0020 u0627_u0644_u0639_u0627_u062f_u0644 u0020 u0648_u0643_u0630_u0644_u0643 u0020 u0644_u0644_u0646_u0638_u0645_u0020", 
        "u0627_u0644_u0642_u0627_u0646_u0648_u0646_u064a_u0629 u0020 u0627_u0644_u0631_u0626_u064a_u0633_u064a_u0629_u002e u0020 u0648_u062a_u062a_u0648_u0644_u0649 u0020 u0627_u0644_u0644_u062c_u0646_u0629 u0020 u0645_u0647_u0645_u0629 u0020 u0631_u0635_u062f u0020 u0645_u062f_u0649 u0020 u0648_u0641_u0627_u0621 u0020 u0627_u0644_u062f_u0648_u0644_u0020", 
        "u0627_u0644_u0623_u0637_u0631_u0627_u0641 u0020 u0641_u064a u0020 u0627_u0644_u0627_u062a_u0641_u0627_u0642_u064a_u0629 u0020 u0648_u0627_u0644_u0628_u0631_u0648_u062a_u0648_u0643_u0648_u0644_u064a_u064a_u0646 u0020 u0627_u0644_u0645_u0644_u062d_u0642_u064a_u0646 u0020 u0628_u0647_u0627 u0020 u0628_u0627_u0644_u062a_u0632_u0627_u0645_u0627_u062a_u0647_u0645_u0020", 
        "u0648_u0630_u0644_u0643 u0020 u0639_u0628_u0631 u0020 u0622_u0644_u064a_u0629 u0020 u0627_u0644_u062a_u0642_u0627_u0631_u064a_u0631 u0020 u062d_u064a_u062b u0020 u064a_u062c_u0628 u0020 u0639_u0644_u0649 u0020 u0627_u0644_u062f_u0648_u0644 u0020 u0627_u0644_u0623_u0637_u0631_u0627_u0641 u0020 u0628_u0645_u0648_u062c_u0628_u0020", 
        "u0627_u0644_u0645_u0627_u062f_u0629 u0020 u0034_u0034 u0020 u0645_u0646 u0020 u0627_u0644_u0627_u062a_u0641_u0627_u0642_u064a_u0629 u0020 u0623_u0646 u0020 u062a_u0642_u062f_u0645 u0020 u0625_u0644_u0649 u0020 u0627_u0644_u0644_u062c_u0646_u0629_u060c u0020 u062a_u0642_u0627_u0631_u064a_u0631 u0020 u0639_u0646 u0020 u0627_u0644_u062a_u062f_u0627_u0628_u064a_u0631_u0020", 
        "u0627_u0644_u062a_u064a u0020 u0627_u0639_u062a_u0645_u062f_u062a_u0647_u0627 u0020 u0644_u0625_u0646_u0641_u0627_u0630 u0020 u0627_u0644_u062d_u0642_u0648_u0642 u0020 u0627_u0644_u0645_u0639_u062a_u0631_u0641 u0020 u0628_u0647_u0627 u0020 u0641_u064a u0020 u0647_u0630_u0647 u0020 u0627_u0644_u0627_u062a_u0641_u0627_u0642_u064a_u0629 u0020 u0648_u0639_u0646_u0020", 
        "u0627_u0644_u062a_u0642_u062f_u0645 u0020 u0627_u0644_u0645_u062d_u0631_u0632 u0020 u0641_u064a u0020 u0627_u0644_u062a_u0645_u062a_u0639 u0020 u0628_u062a_u0644_u0643 u0020 u0627_u0644_u062d_u0642_u0648_u0642_u060c u0020 u0630_u0644_u0643 u0020 u0641_u064a u0020 u063a_u0636_u0648_u0646 u0020 u0633_u0646_u062a_u064a_u0646 u0020 u0645_u0646_u0020", 
        "u0628_u062f_u0621 u0020 u0646_u0641_u0627_u0630 u0020 u0647_u0630_u0647 u0020 u0627_u0644_u0627_u062a_u0641_u0627_u0642_u064a_u0629 u0020 u0628_u0627_u0644_u0646_u0633_u0628_u0629 u0020 u0644_u0644_u062f_u0648_u0644_u0629 u0020 u0627_u0644_u0637_u0631_u0641 u0020 u0627_u0644_u0645_u0639_u0646_u064a_u0629_u060c u0020 u062b_u0645 u0020 u062a_u0642_u0631_u064a_u0631_u0020", 
        "u062f_u0648_u0631_u064a u0020 u0643_u0644 u0020 u062e_u0645_u0633 u0020 u0633_u0646_u0648_u0627_u062a_u002e u0020 u000d"
    ]
}