{
    "bounding_box": [
        [
            36, 
            97, 
            104, 
            42
        ], 
        [
            118, 
            165, 
            537, 
            33
        ], 
        [
            81, 
            207, 
            580, 
            33
        ], 
        [
            509, 
            248, 
            145, 
            30
        ], 
        [
            72, 
            289, 
            582, 
            35
        ], 
        [
            434, 
            332, 
            220, 
            30
        ]
    ], 
    "image_height": 540, 
    "image_width": 720, 
    "transcription": [
        "u062a_u0639_u0631_u064a_u0641", 
        "u0047_u004d_u0050 u0020 u0069_u0073 u0020 u0061 u0020 u0070_u0072_u006f_u0064_u0075_u0063_u0074_u0069_u006f_u006e u0020 u0061_u006e_u0064 u0020 u0074_u0065_u0073_u0074_u0069_u006e_u0067_u0020", 
        "u0070_u0072_u0061_u0063_u0074_u0069_u0063_u0065 u0020 u0074_u0068_u0061_u0074 u0020 u0068_u0065_u006c_u0070_u0073 u0020 u0074_u006f u0020 u0065_u006e_u0073_u0075_u0072_u0065 u0020 u0061 u0020 u0071_u0075_u0061_u006c_u0069_u0074_u0079_u0020", 
        "u0070_u0072_u006f_u0064_u0075_u0063_u0074_u002e u0020 u000d", 
        "u0647_u064a u0020 u0645_u0645_u0627_u0631_u0633_u0629 u0020 u062a_u0635_u0646_u064a_u0639 u0020 u0648_u0625_u062e_u062a_u0628_u0627_u0631 u0020 u062a_u0633_u0627_u0639_u062f u0020 u0639_u0644_u0649 u0020 u0636_u0645_u0627_u0646 u0020 u0627_u0644_u062d_u0635_u0648_u0644_u0020", 
        "u0639_u0644_u0649 u0020 u0645_u0646_u062a_u062c_u0627_u062a u0020 u0645_u062c_u0648_u062f_u0629_u002e_u000d"
    ]
}