{
    "bounding_box": [
        [
            29, 
            75, 
            630, 
            51
        ], 
        [
            29, 
            132, 
            646, 
            51
        ], 
        [
            29, 
            190, 
            646, 
            48
        ], 
        [
            29, 
            249, 
            646, 
            45
        ], 
        [
            29, 
            306, 
            646, 
            51
        ], 
        [
            107, 
            363, 
            569, 
            51
        ]
    ], 
    "image_height": 540, 
    "image_width": 720, 
    "transcription": [
        "u0641_u0628_u0639_u062b u0020 u0646_u0648_u062d u0020 u0639_u0644_u064a_u0647 u0020 u0627_u0644_u0633_u0644_u0627_u0645 u0020 u0627_u0644_u063a_u0631_u0627_u0628_u060c u0020 u0644_u064a_u0623_u062a_u064a_u0647_u0020", 
        "u0628_u062e_u0628_u0631 u0020 u0627_u0644_u0623_u0631_u0636_u060c u0020 u0641_u0630_u0647_u0628 u0020 u0641_u0648_u0642_u0639 u0020 u0639_u0644_u0649 u0020 u0627_u0644_u062c_u064a_u0641_u0020", 
        "u0641_u0623_u0628_u0637_u0623 u0020 u0639_u0644_u064a_u0647_u002e u0020 u0641_u0628_u0639_u062b u0020 u0627_u0644_u062d_u0645_u0627_u0645_u0629 u0020 u0641_u0623_u062a_u062a_u0647 u0020 u0628_u0648_u0631_u0642_u0020", 
        "u0627_u0644_u0632_u064a_u062a_u0648_u0646_u060c u0020 u0648_u0644_u0637_u062e_u062a u0020 u0631_u062c_u0644_u064a_u0647_u0627 u0020 u0628_u0627_u0644_u0637_u064a_u0646_u060c u0020 u0641_u0639_u0631_u0641_u0020", 
        "u0646_u0648_u062d u0020 u0623_u0646 u0020 u0627_u0644_u0645_u0627_u0621 u0020 u0642_u062f u0020 u0646_u0636_u0628_u060c u0020 u0641_u0647_u0628_u0637 u0020 u0625_u0644_u0649 u0020 u0623_u0633_u0641_u0644_u0020", 
        "u0627_u0644_u062c_u0648_u062f_u064a_u060c u0020 u0641_u0627_u0628_u062a_u0646_u0649 u0020 u0642_u0631_u064a_u0629 u0020 u0648_u0633_u0645_u0627_u0647_u0627 u0020 u062b_u0645_u0627_u0646_u064a_u0646_u002e"
    ]
}