{
    "bounding_box": [
        [
            185, 
            29, 
            359, 
            68
        ], 
        [
            154, 
            320, 
            118, 
            48
        ], 
        [
            291, 
            168, 
            111, 
            22
        ]
    ], 
    "image_height": 540, 
    "image_width": 720, 
    "transcription": [
        "u062f_u0627_u0641_u0639_u0629 u0020 u0623_u0631_u062e_u0645_u064a_u062f_u0633", 
        "u0627_u0644_u0639_u0645_u0642_u061f", 
        "u0627_u0644_u0641_u0631_u0636_u064a_u0629 u0020 u0031"
    ]
}