{
    "bounding_box": [
        [
            455, 
            50, 
            221, 
            41
        ], 
        [
            109, 
            133, 
            540, 
            25
        ], 
        [
            567, 
            166, 
            82, 
            25
        ], 
        [
            58, 
            241, 
            591, 
            32
        ], 
        [
            491, 
            277, 
            157, 
            23
        ], 
        [
            48, 
            356, 
            600, 
            28
        ], 
        [
            367, 
            389, 
            281, 
            25
        ], 
        [
            43, 
            511, 
            13, 
            8
        ]
    ], 
    "image_height": 540, 
    "image_width": 720, 
    "transcription": [
        "u0627_u0644_u062f_u0639_u0645 u0020 u0627_u0644_u0645_u0633_u062a_u0642_u0628_u0644_u064a_u003a", 
        "u0627_u0637_u0644_u0627_u0642 u0020 u0644_u062c_u0646_u0629 u0020 u0628_u0645_u062c_u0644_u0633 u0020 u0627_u0644_u063a_u0631_u0641 u0020 u0627_u0644_u0633_u0639_u0648_u062f_u064a_u0629 u0020 u0645_u062a_u062e_u0635_u0635_u0629 u0020 u0628_u0627_u0644_u062d_u0645_u0627_u064a_u0629_u0020", 
        "u0627_u0644_u0641_u0643_u0631_u064a_u0629_u002e_u000d", 
        "u062a_u0639_u0632_u064a_u0632 u0020 u0627_u0644_u062a_u062c_u062f_u064a_u062f u0020 u0648_u0627_u0644_u0627_u0628_u062a_u0643_u0627_u0631 u0020 u0641_u064a u0020 u0645_u0646_u0634_u0622_u062a u0020 u0627_u0644_u0623_u0639_u0645_u0627_u0644 u0020 u0643_u0623_u062f_u0627_u0629 u0020 u0641_u0639_u0627_u0644_u0629 u0020 u0631_u0626_u064a_u0633_u064a_u0629_u0020", 
        "u0644_u0644_u0645_u0646_u0627_u0641_u0633_u0629 u0020 u0627_u0644_u0639_u0627_u062f_u0644_u0629_u002e_u000d", 
        "u062a_u0637_u0648_u064a_u0631 u0020 u0627_u0633_u062a_u0631_u0627_u062a_u064a_u062c_u064a_u0629 u0020 u0627_u062a_u0635_u0627_u0644 u0020 u0641_u0639_u0627_u0644_u0629 u0020 u0644_u062f_u0639_u0645 u0020 u0648_u062d_u0645_u0627_u064a_u0629 u0020 u0627_u0644_u0645_u0644_u0643_u064a_u0629 u0020 u0627_u0644_u0641_u0643_u0631_u064a_u0629 u0020 u0645_u0639_u0020", 
        "u0627_u0644_u062a_u0631_u0643_u064a_u0632 u0020 u0639_u0644_u0649 u0020 u0627_u0644_u062a_u0646_u0641_u064a_u0630 u0020 u0627_u0644_u0641_u0639_u0627_u0644 u0020 u0644_u0647_u0627_u002e", 
        "u0032_u0031"
    ]
}