{
    "bounding_box": [
        [
            198, 
            54, 
            478, 
            28
        ], 
        [
            335, 
            142, 
            320, 
            21
        ], 
        [
            270, 
            192, 
            385, 
            23
        ], 
        [
            338, 
            247, 
            317, 
            21
        ], 
        [
            335, 
            298, 
            320, 
            23
        ], 
        [
            394, 
            353, 
            260, 
            20
        ]
    ], 
    "image_height": 540, 
    "image_width": 720, 
    "transcription": [
        "u0627_u0633_u062a_u0631_u0627_u062a_u064a_u062c_u064a_u0629 u0020 u062a_u0646_u0641_u064a_u0630 u0020 u0645_u0634_u0631_u0648_u0639 u0020 u0633_u0643_u0629 u0020 u0627_u0644_u062d_u062f_u064a_u062f u0020 u0628_u0633_u0644_u0637_u0646_u0629 u0020 u0639_u0645_u0627_u0646_u003a_u0020", 
        "u0645_u0646_u0627_u0642_u0635_u0629 u0020 u0627_u0644_u062a_u0635_u0645_u064a_u0645 u0020 u0627_u0644_u0625_u0628_u062a_u062f_u0627_u0626_u064a u0020 u0644_u0644_u0645_u0634_u0631_u0648_u0639 u0020 u0028_u0050_u0044_u0043_u0029_u002e_u000d", 
        "u0645_u0646_u0627_u0642_u0635_u0629 u0020 u0627_u0644_u0623_u0639_u0645_u0627_u0644 u0020 u0627_u0644_u0625_u0633_u062a_u0634_u0627_u0631_u064a_u0629 u0020 u0644_u0625_u062f_u0627_u0631_u0629 u0020 u0627_u0644_u0645_u0634_u0631_u0648_u0639 u0020 u0028_u0050_u004d_u0043_u0029_u002e_u000d", 
        "u0645_u0646_u0627_u0642_u0635_u0629 u0020 u0627_u0644_u062a_u0635_u0645_u064a_u0645 u0020 u0627_u0644_u062a_u0641_u0635_u064a_u0644_u064a u0020 u0648_u0627_u0644_u062a_u0646_u0641_u064a_u0630 u0020 u0028_u0044_u0026_u0042_u0029_u002e u0020 u000d", 
        "u0645_u0646_u0627_u0642_u0635_u0629 u0020 u0627_u0644_u0623_u0639_u0645_u0627_u0644 u0020 u0627_u0644_u0625_u0633_u062a_u0634_u0627_u0631_u064a u0020 u0644_u0644_u0625_u0634_u0631_u0627_u0641 u0020 u0028_u0053_u0043_u0029_u002e_u000d", 
        "u0645_u0646_u0627_u0642_u0635_u0629 u0020 u0627_u0644_u062a_u0634_u063a_u064a_u0644 u0020 u0648_u0627_u0644_u0635_u064a_u0627_u0646_u0629 u0020 u0028_u004f_u0026_u004d_u0029_u002e_u0020"
    ]
}