{
    "bounding_box": [
        [
            241, 
            228, 
            230, 
            41
        ], 
        [
            302, 
            284, 
            132, 
            43
        ], 
        [
            306, 
            34, 
            109, 
            32
        ], 
        [
            326, 
            76, 
            77, 
            31
        ], 
        [
            570, 
            231, 
            97, 
            34
        ], 
        [
            571, 
            274, 
            104, 
            34
        ], 
        [
            40, 
            232, 
            110, 
            38
        ], 
        [
            56, 
            280, 
            89, 
            38
        ], 
        [
            488, 
            69, 
            103, 
            33
        ], 
        [
            497, 
            111, 
            95, 
            34
        ], 
        [
            502, 
            395, 
            96, 
            34
        ], 
        [
            502, 
            438, 
            97, 
            34
        ], 
        [
            309, 
            446, 
            101, 
            38
        ], 
        [
            121, 
            90, 
            97, 
            41
        ], 
        [
            124, 
            418, 
            100, 
            40
        ]
    ], 
    "image_height": 540, 
    "image_width": 720, 
    "transcription": [
        "u0623_u062f_u0648_u0627_u0631 u0020 u0627_u0644_u0645_u0633_u062a_u0634_u0627_u0631_u0020", 
        "u0627_u0644_u062c_u0645_u0627_u0639_u064a_u000d", 
        "u0627_u0642_u062a_u0631_u0627_u062d_u064a_u0629_u002f_u0020", 
        "u062a_u0631_u0627_u0641_u0639_u064a_u0629", 
        "u062a_u0623_u0637_u064a_u0631_u064a_u0629_u0020", 
        "u002f_u062a_u0648_u0627_u0635_u0644_u064a_u0629", 
        "u0631_u0642_u0627_u0628_u064a_u0629 u0020 u002f_u0020", 
        "u062a_u0642_u064a_u064a_u0645_u064a_u0629", 
        "u062a_u0634_u0627_u0631_u0643_u064a_u0629_u0020", 
        "u002f u0020 u062a_u0646_u0645_u0648_u064a_u0629", 
        "u062a_u0634_u0627_u0648_u0631_u064a_u0629", 
        "u002f_u062a_u0642_u0631_u064a_u0631_u064a_u0629", 
        "u0633_u064a_u0627_u0633_u064a_u0629", 
        "u062a_u062f_u0627_u0648_u0644_u064a_u0629", 
        "u062a_u062f_u0628_u064a_u0631_u064a_u0629"
    ]
}