{
    "bounding_box": [
        [
            274, 
            55, 
            182, 
            46
        ], 
        [
            47, 
            127, 
            619, 
            33
        ], 
        [
            69, 
            167, 
            597, 
            30
        ], 
        [
            50, 
            213, 
            617, 
            33
        ], 
        [
            43, 
            258, 
            624, 
            34
        ], 
        [
            40, 
            304, 
            627, 
            34
        ], 
        [
            50, 
            351, 
            617, 
            33
        ], 
        [
            606, 
            391, 
            61, 
            31
        ], 
        [
            82, 
            435, 
            585, 
            33
        ]
    ], 
    "image_height": 540, 
    "image_width": 720, 
    "transcription": [
        "u062d_u062c_u0645 u0020 u0627_u0644_u0645_u0634_u0643_u0644_u0629", 
        "u0627_u0644_u0627_u062d_u0635_u0627_u0626_u064a_u0627_u062a u0020 u0627_u0644_u0639_u0627_u0644_u0645_u064a_u0629 u0020 u062a_u0634_u064a_u0631 u0020 u0627_u0644_u0649 u0020 u0627_u0646 u0020 u0633_u064a_u062f_u0629 u0020 u0645_u0646 u0020 u0643_u0644 u0020 u062b_u0645_u0627_u0646_u0649 u0020 u0633_u064a_u062f_u0627_u062a_u0020", 
        "u0645_u0639_u0631_u0636_u0629 u0020 u0644_u062d_u062f_u0648_u062b u0020 u0633_u0631_u0637_u0627_u0646 u0020 u0627_u0644_u062b_u062f_u0649 u0020 u0623_u062b_u0646_u0627_u0621 u0020 u0645_u0631_u0627_u062d_u0644 u0020 u0627_u0644_u0639_u0645_u0631 u0020 u0627_u0644_u0645_u062e_u062a_u0644_u0641_u0629_u000d", 
        "u0633_u0631_u0637_u0627_u0646 u0020 u0627_u0644_u062b_u062f_u0649 u0020 u064a_u0645_u062b_u0644 u0020 u0627_u0643_u062b_u0631 u0020 u0623_u0646_u0648_u0627_u0639 u0020 u0627_u0644_u0633_u0631_u0637_u0627_u0646 u0020 u062d_u062f_u0648_u062b_u0627 u0020 u0639_u0646_u062f u0020 u0627_u0644_u0633_u064a_u062f_u0627_u062a_u000d", 
        "u0643_u0645_u0627 u0020 u0627_u0646_u0647 u0020 u064a_u0639_u062f u0020 u0623_u0643_u0628_u0631 u0020 u0645_u0633_u0628_u0628 u0020 u0644_u0644_u0648_u0641_u064a_u0627_u062a u0020 u0628_u064a_u0646 u0020 u0623_u0646_u0648_u0627_u0639 u0020 u0627_u0644_u0633_u0631_u0637_u0627_u0646 u0020 u0627_u0644_u0645_u062e_u062a_u0644_u0641_u0629_u000d", 
        "u0633_u0631_u0637_u0627_u0646 u0020 u0627_u0644_u062b_u062f_u0649 u0020 u064a_u062a_u062c_u0627_u0648_u0632 u0020 u0032_u0035_u0025 u0020 u0645_u0646 u0020 u0643_u0644 u0020 u0627_u0646_u0648_u0627_u0639 u0020 u0627_u0644_u0633_u0631_u0637_u0627_u0646 u0020 u0628_u0627_u0644_u0645_u0645_u0644_u0643_u0629_u000d", 
        "u0645_u0639_u062f_u0644_u0627_u062a u0020 u062d_u062f_u0648_u062b u0020 u0633_u0631_u0637_u0627_u0646 u0020 u0627_u0644_u062b_u062f_u0649 u0020 u0641_u0649 u0020 u0627_u0631_u062a_u0641_u0627_u0639 u0020 u0645_u062a_u0632_u0627_u064a_u062f u0020 u0641_u0649 u0020 u0643_u0644 u0020 u0627_u0646_u062d_u0627_u0621_u0020", 
        "u0627_u0644_u0639_u0627_u0644_u0645_u000d", 
        "u0645_u0639_u062f_u0644_u0627_u062a u0020 u0627_u0644_u0648_u0641_u064a_u0627_u062a u0020 u0641_u0649 u0020 u062a_u0646_u0627_u0642_u0635 u0020 u0645_u0633_u062a_u0645_u0631 u0020 u062e_u0627_u0635_u0629 u0020 u0628_u0627_u0644_u062f_u0648_u0644 u0020 u0627_u0644_u0645_u062a_u0642_u062f_u0645_u0629"
    ]
}