{
    "bounding_box": [
        [
            373, 
            108, 
            259, 
            46
        ], 
        [
            109, 
            160, 
            524, 
            52
        ], 
        [
            37, 
            224, 
            595, 
            46
        ], 
        [
            86, 
            279, 
            546, 
            48
        ], 
        [
            159, 
            339, 
            473, 
            46
        ], 
        [
            445, 
            398, 
            187, 
            40
        ]
    ], 
    "image_height": 540, 
    "image_width": 720, 
    "transcription": [
        "u0627_u0644_u0639_u0645_u0644 u0020 u0627_u0644_u0639_u0633_u0643_u0631_u064a_u003a_u000d", 
        "u064a_u0645_u0643_u0646 u0020 u0627_u0644_u0642_u0648_u0644 u0020 u0623_u0646 u0020 u0627_u0644_u062a_u0637_u0648_u0631 u0020 u0627_u0644_u0630_u064a u0020 u0645_u0631 u0020 u0628_u0647_u0020", 
        "u0627_u0644_u0639_u0645_u0644 u0020 u0644_u062d_u0631_u0643_u0629 u0020 u0627_u0644_u062c_u0647_u0627_u062f u0020 u0627_u0644_u0625_u0633_u0644_u0627_u0645_u064a u0020 u0634_u0628_u064a_u0647 u0020 u0628_u0645_u0627_u0020", 
        "u0639_u0631_u0636_u0646_u0627_u0647 u0020 u0639_u0646 u0020 u062a_u0637_u0648_u0631 u0020 u0627_u0644_u0639_u0645_u0644 u0020 u0627_u0644_u0639_u0633_u0643_u0631_u064a_u0020", 
        "u0644_u062d_u0631_u0643_u0629 u0020 u062d_u0645_u0627_u0633_u002c u0020 u0645_u0639 u0020 u0641_u0627_u0631_u0642 u0020 u0627_u0644_u062d_u062c_u0645_u0020", 
        "u0648_u0627_u0644_u0625_u0645_u0643_u0627_u0646_u064a_u0627_u062a_u002e"
    ]
}