{
    "bounding_box": [
        [
            472, 
            32, 
            192, 
            28
        ], 
        [
            90, 
            90, 
            571, 
            26
        ], 
        [
            98, 
            128, 
            564, 
            24
        ], 
        [
            76, 
            155, 
            585, 
            29
        ], 
        [
            88, 
            187, 
            573, 
            29
        ], 
        [
            83, 
            221, 
            578, 
            28
        ], 
        [
            561, 
            254, 
            100, 
            24
        ]
    ], 
    "image_height": 540, 
    "image_width": 720, 
    "transcription": [
        "u0625_u0646_u0647_u0627_u0621 u0020 u0628_u0631_u0646_u0627_u0645_u062c u0020 u0645_u062a_u0648_u0642_u0641_u0020", 
        "u0645_u0646 u0020 u0625_u062d_u062f_u0649 u0020 u0627_u0644_u0648_u0638_u0627_u0626_u0641 u0020 u0627_u0644_u0623_u0633_u0627_u0633_u064a_u0629 u0020 u0644_u0646_u0638_u0627_u0645 u0020 u0627_u0644_u062a_u0634_u063a_u064a_u0644 u0020 u0647_u0648 u0020 u0636_u0645_u0627_u0646 u0020 u062d_u0635_u0648_u0644 u0020 u0643_u0627_u0641_u0629_u0020", 
        "u0627_u0644_u0628_u0631_u0627_u0645_u062c u0020 u0639_u0644_u0649 u0020 u0627_u0644_u0645_u0648_u0627_u0631_u062f u0020 u0627_u0644_u062a_u064a u0020 u062a_u062d_u062a_u0627_u062c_u0647_u0627 u0020 u0644_u0644_u0642_u064a_u0627_u0645 u0020 u0628_u0639_u0645_u0644_u064a_u0627_u062a_u0647_u0627 u0020 u0644_u0636_u0645_u0627_u0646 u0020 u0627_u0633_u062a_u0645_u0631_u0627_u0631_u0020", 
        "u0639_u0645_u0644_u0647_u0627 u0020 u0648_u0627_u0644_u0645_u062d_u0627_u0641_u0638_u0629 u0020 u0639_u0644_u0649 u0020 u0627_u0633_u062a_u0645_u0631_u0627_u0631 u0020 u0628_u0627_u0642_u064a u0020 u0627_u0644_u0623_u0639_u0645_u0627_u0644_u002e u0020 u0648_u0644_u0643_u0646 u0020 u0644_u0633_u0648_u0621 u0020 u0627_u0644_u062d_u0638_u060c u0020 u0641_u0625_u0646_u0020", 
        "u0628_u0631_u0646_u0627_u0645_u062c_u0627 u0020 u0645_u0639_u064a_u0646_u0627 u0020 u0642_u062f u0020 u064a_u0639_u0627_u0646_u064a u0020 u0645_u0646 u0020 u062e_u0637_u0623 u0020 u0645_u0627 u0020 u0623_u0648 u0020 u064a_u062a_u0639_u0627_u0631_u0636 u0020 u0645_u0639 u0020 u0628_u0631_u0646_u0627_u0645_u062c u0020 u0622_u062e_u0631 u0020 u0645_u0645_u0627_u0020", 
        "u064a_u0641_u0636_u064a u0020 u0625_u0644_u0649 u0020 u0639_u062f_u0645 u0020 u0627_u0633_u062a_u062c_u0627_u0628_u0629 u0020 u0627_u0644_u0628_u0631_u0646_u0627_u0645_u062c u0020 u0623_u0648 u0020 u062a_u0639_u0637_u0644_u0647 u0020 u0028_u064a_u0633_u0645_u0649 u0020 u0623_u062d_u064a_u0627_u0646_u0627 u0020 u0022_u062a_u0648_u0642_u0641_u0022 u0020 u0623_u0648_u0020", 
        "u0022_u0627_u0646_u0647_u064a_u0627_u0631_u0022_u0029_u002e u0020 u000d"
    ]
}