{
    "bounding_box": [
        [
            117, 
            95, 
            562, 
            45
        ], 
        [
            155, 
            186, 
            487, 
            34
        ], 
        [
            253, 
            226, 
            299, 
            31
        ]
    ], 
    "image_height": 540, 
    "image_width": 720, 
    "transcription": [
        "u062d_u064a_u062b u0020 u0623_u0646 u0020 u0627_u0644_u0645_u0645_u0627_u0631_u0633_u0629 u0020 u0028_u0627_u0644_u0645_u0639_u0631_u0641_u0629 u0020 u0627_u0644_u0639_u0627_u0645_u0629_u0029 u0020 u0020_u0647_u0649_u0020", 
        "u0625_u0645_u0628_u0631_u064a_u0642_u064a_u0629 u0020 u0623_u0649 u0020 u0642_u0627_u0628_u0644_u0629 u0020 u0644_u0644_u0642_u064a_u0627_u0633 u0020 u0648_u0627_u0644_u062a_u0637_u0628_u064a_u0642 u0020 u0648_u062a_u062d_u062a_u0643_u0645 u0020 u0627_u0644_u064a_u0020", 
        "u0627_u0644_u0645_u0645_u0627_u0631_u0633_u0629 u0020 u0648_u0627_u0644_u062a_u0637_u0628_u064a_u0642 u0020 u0020_u0627_u0644_u0645_u0628_u0627_u0634_u0631_u002c"
    ]
}