{
    "bounding_box": [
        [
            358, 
            221, 
            99, 
            25
        ], 
        [
            309, 
            269, 
            153, 
            32
        ], 
        [
            252, 
            442, 
            205, 
            29
        ], 
        [
            312, 
            68, 
            297, 
            59
        ]
    ], 
    "image_height": 540, 
    "image_width": 720, 
    "transcription": [
        "u0627_u0644_u0645_u0633_u0627_u0641_u0629_u0020", 
        "u0627_u0644_u0627_u062c_u062a_u0645_u0627_u0639_u064a_u0629_u002e_u000d", 
        "u0020 u0020 u0627_u0644_u0645_u0633_u0627_u0641_u0629 u0020 u0627_u0644_u0639_u0627_u0645_u0629_u002e", 
        "u0644_u063a_u0629 u0020 u0627_u0644_u0645_u0633_u0627_u0641_u0629"
    ]
}