{
    "bounding_box": [
        [
            373, 
            39, 
            246, 
            43
        ], 
        [
            355, 
            83, 
            265, 
            23
        ], 
        [
            410, 
            131, 
            173, 
            11
        ], 
        [
            175, 
            144, 
            384, 
            13
        ], 
        [
            461, 
            161, 
            98, 
            10
        ], 
        [
            442, 
            174, 
            116, 
            11
        ], 
        [
            493, 
            191, 
            90, 
            11
        ], 
        [
            485, 
            204, 
            74, 
            13
        ], 
        [
            313, 
            221, 
            245, 
            10
        ], 
        [
            446, 
            234, 
            113, 
            11
        ], 
        [
            507, 
            251, 
            76, 
            11
        ], 
        [
            381, 
            264, 
            178, 
            13
        ], 
        [
            487, 
            282, 
            72, 
            9
        ], 
        [
            439, 
            295, 
            120, 
            10
        ], 
        [
            421, 
            311, 
            138, 
            9
        ], 
        [
            386, 
            323, 
            173, 
            11
        ], 
        [
            518, 
            339, 
            41, 
            10
        ], 
        [
            484, 
            354, 
            99, 
            11
        ], 
        [
            439, 
            367, 
            120, 
            13
        ], 
        [
            521, 
            384, 
            38, 
            10
        ], 
        [
            514, 
            399, 
            45, 
            10
        ], 
        [
            499, 
            414, 
            60, 
            9
        ], 
        [
            514, 
            427, 
            45, 
            10
        ], 
        [
            520, 
            443, 
            38, 
            9
        ], 
        [
            409, 
            455, 
            150, 
            11
        ]
    ], 
    "image_height": 540, 
    "image_width": 720, 
    "transcription": [
        "u062a_u0642_u064a_u064a_u0645 u0020 u0627_u0644_u0645_u0648_u0642_u0639_u000b", 
        "u0020_u0028_u0631_u0627_u062c_u0639 u0020 u0627_u0644_u062c_u0632_u0621 u0020 u0627_u0644_u062b_u0627_u0646_u064a u0020 u0645_u0646 u0020 u0627_u0644_u0645_u0633_u0627_u0642_u0029", 
        "u0633_u0647_u0648_u0644_u0629 u0020 u0627_u0644_u0648_u0635_u0648_u0644 u0020 u0648_u0639_u0646_u0627_u0635_u0631 u0020 u0627_u0644_u062d_u0631_u0643_u0629_u000d", 
        "u0633_u0647_u0648_u0644_u0629 u0020 u0627_u0644_u0648_u0635_u0648_u0644 u0020 u0627_u0644_u0649 u0020 u0627_u0644_u0648_u062d_u062f_u0627_u062a u0020 u0627_u0644_u0633_u0643_u0646_u064a_u0629 u0020 u0648_u0633_u0647_u0648_u0644_u0629 u0020 u0627_u0644_u062a_u062e_u062f_u064a_u0645 u0020 u0648_u062c_u0645_u0639 u0020 u0627_u0644_u0642_u0645_u0627_u0645_u0629 u0020 u0648_u0627_u0644_u0637_u0648_u0627_u0631_u0626_u000d", 
        "u0643_u0641_u0627_u0621_u0629 u0020 u0634_u0628_u0643_u0629 u0020 u0627_u0644_u062d_u0631_u0643_u0629_u000d", 
        "u0627_u0637_u0648_u0627_u0644 u0020 u0648_u0645_u0633_u0627_u062d_u0627_u062a u0020 u0627_u0644_u0637_u0631_u0642_u000d", 
        "u0627_u0644_u0645_u0631_u0648_u0646_u0629 u0020 u0648_u0627_u0644_u062a_u0644_u0627_u0624_u0645_u000d", 
        "u0637_u0631_u064a_u0642_u0629 u0020 u0627_u0644_u062a_u062c_u0645_u064a_u0639_u000d", 
        "u0627_u0645_u0643_u0627_u0646_u064a_u0629 u0020 u0627_u0644_u0646_u0645_u0648 u0020 u0645_u0633_u062a_u0642_u0628_u0644_u0627 u0020 u0627_u0648 u0020 u062a_u0639_u062f_u064a_u0644 u0020 u0628_u0639_u0636 u0020 u062a_u0641_u0627_u0635_u064a_u0644_u0627_u0644_u0645_u0648_u0642_u0639_u000d", 
        "u0627_u0644_u062a_u0644_u0627_u0624_u0645 u0020 u0645_u0639 u0020 u0638_u0631_u0648_u0641_u0627 u0020 u0644_u0645_u0648_u0642_u0639_u000d", 
        "u0627_u0644_u0627_u0645_u0646 u0020 u0648_u0627_u0644_u0627_u0645_u0627_u0646_u000d", 
        "u0627_u0644_u0639_u0644_u0627_u0642_u0629 u0020 u0628_u064a_u0646 u0020 u0627_u0644_u0648_u062d_u062f_u0627_u062a u0020 u0648_u0627_u0644_u0628_u064a_u0626_u0629 u0020 u0627_u0644_u0645_u062d_u064a_u0637_u0629_u000d", 
        "u0627_u0644_u0627_u0646_u062a_u0645_u0627_u0621 u0020 u0627_u0644_u0648_u0627_u0636_u062d_u000d", 
        "u0639_u062f_u0645 u0020 u0648_u062c_u0648_u062f u0020 u0627_u0631_u0627_u0636_u064a u0020 u0645_u0634_u0627_u0639_u000d", 
        "u0639_u062f_u0645 u0020 u062a_u0634_u062c_u064a_u0639 u0020 u0627_u0644_u0645_u0634_u0631_u0648_u0639 u0020 u0627_u0644_u0639_u0627_u0628_u0631_u000d", 
        "u0627_u0644_u0639_u0644_u0627_u0642_u0629 u0020 u0627_u0644_u0628_u0635_u0631_u064a_u0629 u0020 u0628_u064a_u0646 u0020 u0627_u0644_u0648_u062d_u062f_u0627_u062a u0020 u0648_u0627_u0644_u0641_u0631_u0627_u063a_u000d", 
        "u0627_u0644_u0645_u0631_u0627_u0642_u0628_u0629_u000d", 
        "u0627_u0644_u062a_u0634_u0643_u064a_u0644 u0020 u0627_u0644_u0628_u0635_u0631_u064a_u000d", 
        "u0628_u0633_u0627_u0637_u0629 u0020 u0648_u0648_u0636_u0648_u062d u0020 u0627_u0644_u062a_u0634_u0643_u064a_u0644_u000d", 
        "u0627_u0644_u0646_u0633_u0628_u000d", 
        "u0627_u0644_u0645_u0642_u064a_u0627_u0633_u000d", 
        "u062e_u0637_u0648_u0637 u0020 u0627_u0644_u0628_u0646_u0627_u0621_u000d", 
        "u0627_u0644_u062a_u0641_u0627_u0635_u064a_u0644_u000d", 
        "u0627_u0644_u0627_u062d_u062a_u0648_u0627_u0621_u000d", 
        "u0637_u0631_u064a_u0642_u0629 u0020 u0627_u0644_u0648_u0635_u0648_u0644 u0020 u0648_u0645_u0633_u0627_u0631_u0627_u062a u0020 u0627_u0644_u062d_u0631_u0643_u0629"
    ]
}