{
    "bounding_box": [
        [
            80, 
            17, 
            547, 
            41
        ], 
        [
            530, 
            72, 
            97, 
            42
        ], 
        [
            381, 
            131, 
            219, 
            22
        ]
    ], 
    "image_height": 540, 
    "image_width": 720, 
    "transcription": [
        "u062f_u0627_u062e_u0644 u0020 u0642_u0627_u0639_u0629 u0020 u0627_u0644_u0635_u0641 u0020 u002e_u002e u0020 u0644_u062a_u0643_u0646 u0020 u0644_u063a_u062a_u0643 u0020 u0627_u0644_u062c_u0633_u062f_u064a_u0629_u0020", 
        "u0625_u0628_u062f_u0627_u0639_u064a_u0629", 
        "u0033_u002d_u0639_u0644_u064a_u0643 u0020 u0628_u0627_u0644_u0648_u0642_u0641_u0627_u062a u0020 u0623_u062b_u0646_u0627_u0621 u0020 u0627_u0644_u062d_u062f_u064a_u062b_u002e"
    ]
}