{
    "bounding_box": [
        [
            36, 
            100, 
            265, 
            34
        ], 
        [
            47, 
            159, 
            607, 
            30
        ], 
        [
            66, 
            193, 
            589, 
            29
        ], 
        [
            76, 
            234, 
            578, 
            29
        ], 
        [
            393, 
            267, 
            261, 
            20
        ], 
        [
            107, 
            295, 
            547, 
            32
        ], 
        [
            133, 
            338, 
            521, 
            29
        ], 
        [
            151, 
            379, 
            503, 
            29
        ]
    ], 
    "image_height": 540, 
    "image_width": 720, 
    "transcription": [
        "u0045_u006e_u0066_u006f_u0072_u0063_u0065_u006d_u0065_u006e_u0074", 
        "u0641_u064a u0020 u062f_u0627_u062e_u0644 u0020 u0627_u0644_u0625_u062a_u062d_u0627_u062f u0020 u0627_u0644_u0623_u0648_u0631_u0628_u064a u0020 u062a_u062a_u0648_u0644_u0649 u0020 u0627_u0644_u062a_u062f_u0642_u064a_u0642 u0020 u0639_u0644_u0649 u0020 u0645_u0645_u0627_u0631_u0633_u0629 u0020 u0627_u0644_u062a_u0635_u0646_u064a_u0639 u0020 u0627_u0644_u062c_u064a_u062f_u0020", 
        "u0028_u0047_u004d_u0050 u0020 u0029 u0020 u0648_u0643_u0627_u0644_u0627_u062a u0020 u0627_u0644_u062a_u0634_u0631_u064a_u0639 u0020 u0627_u0644_u0648_u0637_u0646_u064a_u0629_u004e_u0061_u0074_u0069_u006f_u006e_u0061_u006c u0020 u0052_u0065_u0067_u0075_u006c_u0061_u0074_u006f_u0072_u0079 u0020 u0041_u0067_u0065_u006e_u0063_u0069_u0065_u0073 u0020 u0020 u0020 u000d", 
        "u0641_u064a u0020 u0628_u0631_u064a_u0637_u0627_u0646_u064a_u0627 u0020 u062a_u062a_u0648_u0644_u0649 u0020 u0627_u0644_u062a_u062f_u0642_u064a_u0642 u0020 u004d_u0065_u0064_u0069_u0063_u0069_u006e_u0065_u0073 u0020 u0061_u006e_u0064 u0020 u0048_u0065_u0061_u006c_u0074_u0068_u0063_u0061_u0072_u0065 u0020 u0050_u0072_u006f_u0064_u0075_u0063_u0074_u0073_u0020", 
        "u0052_u0065_u0067_u0075_u006c_u0061_u0074_u006f_u0072_u0079 u0020 u0041_u0067_u0065_u006e_u0063_u0079 u0020 u2013 u0020 u004d_u0048_u0052_u0041_u000d", 
        "u0641_u064a u0020 u0623_u0633_u062a_u0631_u0627_u0644_u064a_u0627 u0020 u2013 u0020 u0054_u0068_u0065_u0072_u0061_u0070_u0065_u0075_u0074_u0069_u0063_u0061_u006c u0020 u0047_u006f_u006f_u0064_u0073 u0020 u0041_u0064_u006d_u0069_u006e_u0069_u0073_u0074_u0072_u0061_u0074_u0069_u006f_u006e u0020 u0028_u0054_u0047_u0041_u0029 u0020 u000d", 
        "u0641_u064a u0020 u0643_u0648_u0631_u064a_u0627 u0020 u2013 u0020 u0020_u004b_u006f_u0072_u0065_u0061 u0020 u0046_u006f_u006f_u0064 u0020 u0026 u0020 u0044_u0072_u0075_u0067 u0020 u0041_u0064_u006d_u0069_u006e_u0069_u0073_u0074_u0072_u0061_u0074_u0069_u006f_u006e u0020 u002d u0020 u004b_u0046_u0044_u0041_u000d", 
        "u0641_u064a u0020 u062c_u0646_u0648_u0628 u0020 u0625_u0641_u0631_u064a_u0642_u064a_u0627 u0020 u2013 u0020 u0020_u004d_u0065_u0064_u0069_u0063_u0069_u006e_u0065_u0073 u0020 u0043_u006f_u006e_u0074_u0072_u006f_u006c u0020 u0043_u006f_u0075_u006e_u0063_u0069_u006c u0020 u0028_u004d_u0043_u0043_u0029"
    ]
}