{
    "bounding_box": [
        [
            71, 
            95, 
            541, 
            34
        ], 
        [
            41, 
            136, 
            572, 
            36
        ], 
        [
            303, 
            180, 
            310, 
            31
        ], 
        [
            421, 
            233, 
            192, 
            30
        ], 
        [
            513, 
            283, 
            100, 
            28
        ], 
        [
            206, 
            336, 
            407, 
            34
        ], 
        [
            386, 
            384, 
            227, 
            22
        ]
    ], 
    "image_height": 540, 
    "image_width": 720, 
    "transcription": [
        "u062a_u062e_u0636_u0639 u0020 u0627_u0644_u0645_u0624_u0633_u0633_u0627_u062a u0020 u0627_u0644_u062a_u0639_u0644_u064a_u0645_u064a_u0629 u0020 u0627_u0644_u062a_u0627_u0628_u0639_u0629 u0020 u0644_u0625_u062f_u0627_u0631_u0629 u0020 u0627_u0644_u062f_u0641_u0627_u0639_u0020", 
        "u0627_u0644_u0648_u0637_u0646_u064a u0020 u0644_u0646_u0641_u0633 u0020 u0627_u0644_u0646_u0638_u0627_u0645 u0020 u0627_u0644_u0645_u062a_u0628_u0639 u0020 u0641_u064a u0020 u0627_u0644_u0645_u0624_u0633_u0633_u0627_u062a u0020 u0627_u0644_u062a_u0639_u0644_u064a_u0645_u064a_u0629_u0020", 
        "u0627_u0644_u0639_u0645_u0648_u0645_u064a_u0629 u0020 u0648_u0630_u0644_u0643 u0020 u0641_u064a_u0645_u0627 u0020 u064a_u062e_u0635_u003a_u000d", 
        "u0020_u0645_u0633_u0637_u0631_u0629 u0020 u0627_u0644_u062a_u0648_u062c_u064a_u0647_u000d", 
        "u0627_u0644_u0627_u0646_u062a_u0642_u0627_u0644 u0020 u000d", 
        "u0639_u062f_u062f u0020 u0627_u0644_u0633_u0646_u0648_u0627_u062a u0020 u0627_u0644_u062f_u0631_u0627_u0633_u064a_u0629 u0020 u0627_u0644_u0645_u0633_u0645_u0648_u062d u0020 u0628_u0647_u0627_u000d", 
        "u0627_u0644_u0645_u0642_u0631_u0631_u0627_u062a u0020 u0627_u0644_u0645_u062f_u0631_u0633_u064a_u0629_u000d"
    ]
}