{
    "bounding_box": [
        [
            393, 
            48, 
            260, 
            39
        ], 
        [
            354, 
            138, 
            320, 
            28
        ], 
        [
            452, 
            185, 
            193, 
            26
        ], 
        [
            499, 
            227, 
            146, 
            28
        ], 
        [
            482, 
            274, 
            164, 
            26
        ], 
        [
            438, 
            317, 
            207, 
            28
        ], 
        [
            273, 
            362, 
            373, 
            28
        ]
    ], 
    "image_height": 540, 
    "image_width": 720, 
    "transcription": [
        "u062e_u0637_u0629 u0020 u0645_u0631_u062d_u0644_u0629 u0020 u0627_u0644_u062a_u062f_u0642_u064a_u0642", 
        "u062e_u0637_u0629 u0020 u0627_u0644_u062a_u062f_u0642_u064a_u0642 u0020 u064a_u062c_u0628 u0020 u0627_u0646 u0020 u062a_u062a_u0636_u0645_u0646 u0020 u003a_u000d", 
        "u0627_u0644_u0647_u062f_u0641 u0020 u0645_u0646 u0020 u0627_u0644_u062a_u062f_u0642_u064a_u0642 u0020 u000d", 
        "u0645_u062c_u0627_u0644 u0020 u0627_u0644_u062a_u062f_u0642_u064a_u0642 u0020 u000d", 
        "u0645_u0642_u0627_u064a_u064a_u0633 u0020 u0627_u0644_u062a_u062f_u0642_u064a_u0642 u0020 u000d", 
        "u062a_u062d_u062f_u064a_u062f u0020 u0641_u0631_u064a_u0642 u0020 u0627_u0644_u062a_u062f_u0642_u064a_u0642 u0020 u000d", 
        "u0645_u0648_u0627_u0639_u064a_u062f u0020 u0627_u0644_u062a_u062f_u0642_u064a_u0642_u002c u0020 u0627_u0644_u0627_u0646_u0634_u0637_u0629 u0020 u0645_u0642_u0627_u0628_u0644_u0629 u0020 u0644_u0644_u0648_u0642_u062a"
    ]
}