{
    "bounding_box": [
        [
            218, 
            84, 
            282, 
            40
        ], 
        [
            398, 
            137, 
            269, 
            30
        ], 
        [
            379, 
            202, 
            288, 
            20
        ], 
        [
            379, 
            227, 
            268, 
            19
        ], 
        [
            379, 
            250, 
            268, 
            19
        ], 
        [
            379, 
            274, 
            268, 
            20
        ], 
        [
            379, 
            298, 
            268, 
            19
        ], 
        [
            379, 
            325, 
            268, 
            17
        ], 
        [
            379, 
            346, 
            268, 
            20
        ], 
        [
            379, 
            370, 
            268, 
            20
        ], 
        [
            379, 
            394, 
            268, 
            20
        ], 
        [
            379, 
            418, 
            268, 
            19
        ], 
        [
            542, 
            443, 
            105, 
            19
        ]
    ], 
    "image_height": 540, 
    "image_width": 720, 
    "transcription": [
        "u0633_u064a_u0631 u0020 u062a_u0627_u0631_u064a_u062e_u064a u0020 u0645_u062d_u0631_u0627_u0628", 
        "u0020 u0020 u0020_u0645_u062d_u0631_u0627_u0628 u0020 u062f_u0631 u0020 u0632_u0645_u0627_u0646 u0020 u067e_u064a_u0627_u0645_u0628_u0631_u000d", 
        "u0020 u0020 u0020 u0020 u0627_u064a_u0646_u0643_u0647 u0020 u062f_u0631 u0020 u0632_u0645_u0627_u0646 u0020 u062e_u0648_u062f u0020 u067e_u064a_u0627_u0645_u0628_u0631 u0020 u0622_u064a_u0627 u0020 u0645_u0633_u062c_u062f_u0020", 
        "u0645_u062f_u064a_u0646_u0647 u0020 u0645_u062d_u0631_u0627_u0628_u064a u0020 u062f_u0627_u0634_u062a_u0647 u0020 u064a_u0627 u0020 u0646_u0647 u0020 u0627_u0642_u0648_u0627_u0644 u0020 u0645_u062e_u062a_u0644_u0641_u0020", 
        "u0627_u0633_u062a u0020 u0628_u0639_u0636_u064a u0020 u0627_u0632 u0020 u0645_u0648_u0631_u062e_u064a_u0646 u0020 u0627_u0632 u0020 u062c_u0645_u0644_u0647 u0020 u0648_u0627_u0642_u062f_u064a_u0020", 
        "u0648_u0639_u0644_u0627_u0645_u0629 u0020 u0645_u062c_u0644_u0633_u064a u0020 u0645_u0639_u062a_u0642_u062f_u0646_u062f u0020 u062f_u0631 u0020 u0632_u0645_u0627_u0646 u0020 u062e_u0648_u062f_u0020", 
        "u0631_u0633_u0648_u0644 u0020 u0627_u0644_u0644_u0647 u0020 u0645_u062d_u0631_u0627_u0628 u0020 u0648_u062c_u0648_u062f u0020 u062f_u0627_u0634_u062a_u0647 u0020 u0627_u0645_u0627_u0020", 
        "u0633_u0645_u0647_u0648_u062f_u064a u0020 u0628_u0627 u0020 u0635_u0631_u0627_u062d_u062a u0020 u0648_u062c_u0648_u062f u0020 u0645_u062d_u0631_u0627_u0628 u0020 u0631_u0627_u0627_u0632_u0020", 
        "u0632_u0645_u0627_u0646 u0020 u0631_u0633_u0648_u0644 u0020 u062e_u062f_u0627 u0020 u0627_u0646_u0643_u0627_u0631 u0020 u0645_u064a u0020 u0643_u0646_u062f u0020 u0627_u0645_u0627 u0020 u0628_u0627_u062a_u0648_u062c_u0647_u0020", 
        "u0628_u0647 u0020 u0627_u064a_u0646_u0643_u0647 u0020 u062f_u0631 u0020 u0639_u0647_u062f u0020 u062e_u0644_u0641_u0627_u064a u0020 u0631_u0627_u0634_u062f_u064a_u0646 u0020 u0643_u0645_u062a_u0631 u0020 u0628_u0647_u0020", 
        "u0645_u0633_u0627_u062c_u062f u0020 u0645_u062d_u0631_u0627_u0628_u062f_u0627_u0631 u0020 u0628_u0631 u0020 u0645_u064a u0020 u062e_u0648_u0631_u062f_u0646_u062f u0020 u0627_u062d_u062a_u0645_u0627_u0644_u0020", 
        "u0646_u0628_u0648_u062f_u0646 u0020 u0645_u062d_u0631_u0627_u0628 u0020 u062f_u0631 u0020 u0632_u0645_u0627_u0646 u0020 u0631_u0633_u0648_u0644 u0020 u062e_u062f_u0627_u0020", 
        "u062a_u0642_u0648_u064a_u062a u0020 u0645_u064a u0020 u0634_u0648_u062f_u002e_u000d"
    ]
}