{
    "bounding_box": [
        [
            66, 
            20, 
            618, 
            37
        ], 
        [
            300, 
            147, 
            99, 
            21
        ], 
        [
            231, 
            171, 
            237, 
            20
        ], 
        [
            564, 
            219, 
            103, 
            23
        ], 
        [
            52, 
            243, 
            615, 
            25
        ], 
        [
            41, 
            270, 
            625, 
            23
        ], 
        [
            65, 
            294, 
            602, 
            23
        ], 
        [
            607, 
            319, 
            60, 
            22
        ], 
        [
            557, 
            342, 
            110, 
            23
        ], 
        [
            42, 
            367, 
            624, 
            24
        ], 
        [
            74, 
            393, 
            592, 
            25
        ], 
        [
            74, 
            420, 
            592, 
            23
        ], 
        [
            93, 
            444, 
            574, 
            23
        ], 
        [
            612, 
            468, 
            54, 
            20
        ]
    ], 
    "image_height": 540, 
    "image_width": 720, 
    "transcription": [
        "u0627_u0644_u0645_u064a_u062b_u0627_u0642 u0020 u0627_u0644_u0625_u0633_u0644_u0627_u0645_u064a u0020 u0627_u0644_u0639_u0627_u0644_u0645_u064a u0020 u0644_u0644_u0623_u062e_u0644_u0627_u0642_u064a_u0627_u062a u0020 u0627_u0644_u0637_u0628_u064a_u0629 u0020 u0648_u0627_u0644_u0635_u062d_u064a_u0629_u000b", 
        "u0627_u0644_u0628_u0627_u0628 u0020 u0627_u0644_u062b_u0627_u0646_u064a_u000d", 
        "u0648_u0627_u062c_u0628_u0627_u062a u0020 u0627_u0644_u0637_u0628_u064a_u0628 u0020 u0646_u062d_u0648 u0020 u0627_u0644_u0645_u0631_u064a_u0636_u000d", 
        "u0627_u0644_u0645_u0627_u062f_u0629 u0020 u0028_u0031_u0038_u0028_u000d", 
        "u0639_u0644_u0649 u0020 u0627_u0644_u0637_u0628_u064a_u0628 u0020 u062a_u0628_u0635_u064a_u0631 u0020 u0627_u0644_u0645_u0631_u064a_u0636 u0020 u0628_u062d_u0627_u0644_u062a_u0647 u0020 u0627_u0644_u0635_u062d_u064a_u0629 u0020 u0648_u0627_u0644_u0628_u062f_u0627_u0626_u0644 u0020 u0627_u0644_u0645_u062a_u0627_u062d_u0629 u0020 u0644_u0644_u0639_u0644_u0627_u062c u0020 u0625_u0630_u0627_u0020", 
        "u0643_u0627_u0646 u0020 u0627_u0644_u0645_u0631_u064a_u0636 u0020 u0645_u062f_u0631_u0643_u0627_u060c u0020 u0648_u0644_u0627 u0020 u064a_u062c_u0648_u0632 u0020 u0644_u0644_u0637_u0628_u064a_u0628 u0020 u0625_u0631_u063a_u0627_u0645 u0020 u0627_u0644_u0645_u0631_u064a_u0636 u0020 u0639_u0644_u0649 u0020 u0645_u0639_u0627_u0644_u062c_u0629 u0020 u0645_u0639_u064a_u0646_u0629_u002e u0020 u0643_u0645_u0627_u0020", 
        "u0644_u0627 u0020 u064a_u062c_u0648_u0632 u0020 u0644_u0647 u0020 u0623_u0646 u0020 u064a_u0631_u063a_u0645 u0020 u0627_u0644_u0645_u0631_u064a_u0636 u0020 u0639_u0644_u0649 u0020 u0627_u0644_u062a_u0648_u0642_u064a_u0639 u0020 u0639_u0644_u0649 u0020 u0628_u064a_u0627_u0646_u0627_u062a u0020 u0641_u064a u0020 u0627_u0644_u0645_u0644_u0641 u0020 u0627_u0644_u0637_u0628_u064a u0020 u062f_u0648_u0646_u0020", 
        "u0631_u0636_u0627_u0647_u002e_u000d", 
        "u0627_u0644_u0645_u0627_u062f_u0629 u0020 u0028_u0031_u0039_u0028 u0020 u000d", 
        "u0639_u0644_u0649 u0020 u0627_u0644_u0637_u0628_u064a_u0628 u0020 u0641_u064a u0020 u062d_u0627_u0644_u0629 u0020 u0631_u0641_u0636 u0020 u0627_u0644_u0645_u0631_u064a_u0636 u0020 u0644_u0644_u0639_u0644_u0627_u062c u0020 u0623_u0646 u0020 u064a_u0634_u0631_u062d u0020 u0644_u0647 u0020 u0627_u0644_u0622_u062b_u0627_u0631 u0020 u0627_u0644_u0645_u062a_u0631_u062a_u0628_u0629_u0020", 
        "u0639_u0644_u0649 u0020 u0639_u062f_u0645 u0020 u062a_u0639_u0627_u0637_u064a_u0647 u0020 u0644_u0644_u0639_u0644_u0627_u062c_u060c u0020 u0648_u0627_u0644_u062a_u0637_u0648_u0631_u0627_u062a u0020 u0627_u0644_u0645_u0631_u0636_u064a_u0629 u0020 u0627_u0644_u0645_u062a_u0631_u062a_u0628_u0629 u0020 u0639_u0644_u0649 u0020 u0630_u0644_u0643 u0020 u0628_u0635_u062f_u0642_u0020", 
        "u0648_u0639_u062f_u0645 u0020 u0645_u0628_u0627_u0644_u063a_u0629_u060c u0020 u0643_u0645_u0627 u0020 u0623_u0646_u0651_u064e u0020 u0639_u0644_u064a_u0647 u0020 u0623_u0646 u0020 u064a_u0633_u062c_u0651_u0650_u0644 u0020 u0625_u0642_u0631_u0627_u0631 u0020 u0627_u0644_u0645_u0631_u064a_u0636_u060c u0020 u0648_u0641_u064a u0020 u062d_u0627_u0644_u0629 u0020 u0631_u0641_u0636_u0647 u0020 u064a_u0648_u0642_u0651_u0650_u0639_u0020", 
        "u0627_u0644_u0637_u0628_u064a_u0628 u0020 u0648_u0623_u062d_u062f u0020 u0623_u0641_u0631_u0627_u062f u0020 u0647_u064a_u0626_u0629 u0020 u0627_u0644_u062a_u0645_u0631_u064a_u0636 u0020 u0639_u0644_u0649 u0020 u0630_u0644_u0643 u0020 u0641_u064a u0020 u0627_u0644_u0645_u0644_u0641 u0020 u0627_u0644_u0637_u0628_u064a_u060c u0020 u062d_u062a_u0649 u0020 u064a_u064f_u062e_u0644_u064a_u0020", 
        "u0627_u0644_u0637_u0628_u064a_u0628"
    ]
}