{
    "bounding_box": [
        [
            385, 
            37, 
            289, 
            40
        ], 
        [
            489, 
            111, 
            186, 
            32
        ], 
        [
            355, 
            160, 
            320, 
            33
        ], 
        [
            354, 
            194, 
            322, 
            33
        ], 
        [
            292, 
            229, 
            384, 
            33
        ], 
        [
            356, 
            263, 
            320, 
            33
        ], 
        [
            525, 
            332, 
            151, 
            32
        ], 
        [
            451, 
            387, 
            225, 
            30
        ], 
        [
            432, 
            422, 
            243, 
            29
        ], 
        [
            267, 
            457, 
            409, 
            29
        ]
    ], 
    "image_height": 540, 
    "image_width": 720, 
    "transcription": [
        "u0645_u062d_u0627_u0648_u0631 u0020 u0648_u0623_u0648_u062c_u0647 u0020 u0627_u0644_u062d_u0648_u0643_u0645_u0629", 
        "u00a0 u0020 u0020 u0020 u0623_u0631_u0628_u0639_u0629 u0020 u0645_u062d_u0627_u0648_u0631 u0020 u003a_u000d", 
        "u0031_u002d u0020 u0645_u062d_u0648_u0631 u0020 u0627_u0644_u062d_u0643_u0648_u0645_u0629 u0020 u0645_u0639 u0020 u0627_u0644_u062d_u0643_u0648_u0645_u0629_u000d", 
        "u0032_u002d u0020 u0645_u062d_u0648_u0631 u0020 u0627_u0644_u062d_u0643_u0648_u0645_u0629 u0020 u0645_u0639 u0020 u0645_u0648_u0638_u0641_u064a_u0647_u0627_u000d", 
        "u0033_u002d u0020 u0645_u062d_u0648_u0631 u0020 u0627_u0644_u062d_u0643_u0648_u0645_u0629 u0020 u0645_u0639 u0020 u0627_u0644_u0642_u0637_u0627_u0639 u0020 u0627_u0644_u062e_u0627_u0635_u000d", 
        "u0034_u002d u0020 u0645_u062d_u0648_u0631 u0020 u0627_u0644_u062d_u0643_u0648_u0645_u0629 u0020 u0645_u0639 u0020 u0627_u0644_u0645_u0648_u0627_u0637_u0646_u000d", 
        "u0623_u0648_u062c_u0647 u0020 u0627_u0644_u062d_u0648_u0643_u0645_u0629_u000d", 
        "u0031_u002d u0020 u0627_u0644_u0625_u062f_u0627_u0631_u0629 u0020 u0627_u0644_u0627_u0644_u0643_u062a_u0631_u0648_u0646_u064a_u0629_u000d", 
        "u0032_u002d u0020 u0627_u0644_u062e_u062f_u0645_u0627_u062a u0020 u0627_u0644_u0627_u0644_u0643_u062a_u0631_u0648_u0646_u064a_u0629_u000d", 
        "u0033_u002d u0020 u0627_u0644_u062f_u064a_u0645_u0642_u0631_u0627_u0637_u064a_u0629 u0020 u0627_u0644_u0627_u0644_u0643_u062a_u0631_u0648_u0646_u064a_u0629 u0020 u0648 u0020 u0627_u0644_u0645_u0634_u0627_u0631_u0643_u0629 u0020 u000d"
    ]
}