{
    "bounding_box": [
        [
            380, 
            17, 
            205, 
            43
        ], 
        [
            277, 
            91, 
            588, 
            32
        ], 
        [
            83, 
            127, 
            783, 
            41
        ], 
        [
            35, 
            174, 
            831, 
            39
        ], 
        [
            352, 
            215, 
            514, 
            31
        ], 
        [
            113, 
            247, 
            753, 
            44
        ], 
        [
            584, 
            299, 
            291, 
            34
        ], 
        [
            598, 
            342, 
            282, 
            26
        ], 
        [
            648, 
            375, 
            231, 
            26
        ], 
        [
            591, 
            409, 
            288, 
            25
        ], 
        [
            35, 
            438, 
            844, 
            31
        ], 
        [
            713, 
            474, 
            167, 
            22
        ]
    ], 
    "image_height": 540, 
    "image_width": 960, 
    "transcription": [
        "u0627_u0644_u0642_u0637_u0627_u0639 u0020 u0627_u0644_u0639_u0627_u0645 u0020 u0028_u0032_u0029", 
        "u0625_u0639_u0627_u062f_u0629 u0020 u0627_u0644_u0646_u0638_u0631 u0020 u0641_u064a u0020 u0642_u0627_u0646_u0648_u0646 u0020 u0627_u0644_u0645_u062d_u0627_u0633_u0628_u0629 u0020 u0627_u0644_u0639_u0645_u0648_u0645_u064a_u0629 u0020 u0648_u062a_u062d_u062f_u064a_u062b_u0647_u0627 u0020 u0639_u0644_u0649 u0020 u0623_u0633_u0633 u0020 u0020_u0627_u0644_u0645_u062d_u0627_u0633_u0628_u0629 u0020 u0627_u0644_u062f_u0648_u0644_u064a_u0629_u000d", 
        "u0645_u0643_u0646_u0646_u0629 u0020 u0627_u0644_u0639_u0645_u0644_u064a_u0627_u062a u0020 u0648_u062e_u0644_u0642 u0020 u0642_u0627_u0639_u062f_u0629 u0020 u0645_u0639_u0644_u0648_u0645_u0627_u062a u0020 u0645_u062d_u0627_u0633_u0628_u064a_u0629 u0020 u0634_u0627_u0645_u0644_u0629 u0020 u0644_u062c_u0645_u064a_u0639 u0020 u0639_u0645_u0644_u064a_u0627_u062a u0020 u0020_u0627_u0644_u0642_u0637_u0627_u0639 u0020 u0627_u0644_u0639_u0627_u0645 u0020 u0648_u0627_u0644_u0645_u062d_u0627_u0641_u0638_u0627_u062a u0020 u0648_u0627_u0644_u0628_u0644_u062f_u064a_u0627_u062a_u002e_u000d", 
        "u0625_u0639_u0627_u062f_u0629 u0020 u0627_u0644_u0646_u0638_u0631 u0020 u0641_u064a u0020 u0627_u0644_u0645_u0648_u0627_u0632_u0646_u0629 u0020 u0627_u0644_u0639_u0627_u0645_u0629 u0020 u0644_u062a_u062d_u062f_u064a_u062b_u0647_u0627 u0020 u0648_u062a_u0637_u0648_u064a_u0631_u0647_u0627 u0020 u0644_u062a_u0635_u0628_u062d u0020 u0645_u0648_u0627_u0632_u0646_u0629 u0020 u0628_u0631_u0627_u0645_u062c u0020 u0020_u0627_u0644_u0642_u0637_u0627_u0639 u0020 u0627_u0644_u0639_u0627_u0645 u0020 u0648_u062a_u062d_u062f_u064a_u062b u0020 u0627_u0644_u0642_u0648_u0627_u0646_u064a_u0646_u0020", 
        "u0627_u0644_u0645_u062a_u0639_u0644_u0642_u0629 u0020 u0628_u0627_u0644_u0645_u0648_u0638_u0641_u064a_u0646 u0020 u0648_u0623_u0633_u0633 u0020 u0627_u0644_u062a_u0648_u0638_u064a_u0641 u0020 u0641_u064a u0020 u0627_u0644_u0625_u062f_u0627_u0631_u0627_u062a u0020 u0648_u0627_u0644_u0645_u0624_u0633_u0633_u0627_u062a u0020 u0627_u0644_u0639_u0627_u0645_u0629_u002e_u000d", 
        "u0648_u0636_u0639 u0020 u0645_u062e_u0637_u0637 u0020 u0644_u062a_u062f_u0631_u064a_u0628 u0020 u0627_u0644_u0645_u062f_u0631_u0628_u064a_u0646 u0020 u0644_u062a_u0637_u0628_u064a_u0642 u0020 u0627_u0644_u062e_u0637_u0629 u0020 u0627_u0644_u0634_u0627_u0645_u0644_u0629 u0020 u0644_u0644_u0625_u0635_u0644_u0627_u062d u0020 u0648_u0627_u0644_u062a_u0646_u0645_u064a_u0629 u0020 u0627_u0644_u0645_u0627_u0644_u064a_u0629 u0020 u0648_u0627_u0644_u0645_u062d_u0627_u0633_u0628_u064a_u0629 u0020 u0648_u0627_u0644_u062a_u062f_u0642_u064a_u0642_u064a_u0629_u002e_u000d", 
        "u0648_u0636_u0639 u0020 u0642_u0627_u0646_u0648_u0646 u0020 u062d_u062f_u064a_u062b u0020 u0644_u0644_u0635_u0641_u0642_u0627_u062a u0020 u0627_u0644_u0639_u0645_u0648_u0645_u064a_u0629_u002e_u000d", 
        "u0020_u0648_u0636_u0639 u0020 u0642_u0627_u0646_u0648_u0646 u0020 u062d_u062f_u064a_u062b u0020 u0644_u0644_u0634_u0624_u0648_u0646 u0020 u0627_u0644_u0639_u0642_u0627_u0631_u064a_u0629_u002e_u000d", 
        "u0020_u0648_u0636_u0639 u0020 u0642_u0627_u0646_u0648_u0646 u0020 u062d_u062f_u064a_u062b u0020 u0644_u0644_u062c_u0645_u0627_u0631_u0643_u002e u0020 u000d", 
        "u0020_u0648_u0636_u0639 u0020 u0642_u0627_u0646_u0648_u0646 u0020 u062d_u062f_u064a_u062b u0020 u0644_u0625_u062f_u0627_u0631_u0629 u0020 u0627_u0644_u062f_u064a_u0646 u0020 u0627_u0644_u0639_u0627_u0645_u002e_u000d", 
        "u0020_u0625_u0639_u0627_u062f_u0629 u0020 u0627_u0644_u0646_u0638_u0631 u0020 u0641_u064a u0020 u0647_u064a_u0643_u0644_u064a_u0629 u0020 u062f_u064a_u0648_u0627_u0646 u0020 u0627_u0644_u0645_u062d_u0627_u0633_u0628_u0629 u0020 u0648_u062a_u0646_u0638_u064a_u0645_u0647 u0020 u0628_u062d_u064a_u062b u0020 u064a_u063a_u0637_u064a u0020 u062c_u0645_u064a_u0639 u0020 u0625_u062f_u0627_u0631_u0627_u062a u0020 u0648_u0645_u0624_u0633_u0633_u0627_u062a u0020 u0627_u0644_u0642_u0637_u0627_u0639 u0020 u0627_u0644_u0639_u0627_u0645 u0020 u0648_u0627_u0644_u0645_u062d_u0627_u0641_u0638_u0627_u062a_u0020", 
        "u0648_u0627_u0644_u0623_u0642_u0636_u064a_u0629 u0020 u0648_u0627_u0644_u0628_u0644_u062f_u064a_u0627_u062a_u002e u0020 u0020_u000d"
    ]
}