{
    "bounding_box": [
        [
            288, 
            49, 
            143, 
            42
        ], 
        [
            39, 
            134, 
            637, 
            43
        ], 
        [
            99, 
            188, 
            576, 
            46
        ], 
        [
            117, 
            239, 
            558, 
            48
        ], 
        [
            95, 
            293, 
            581, 
            47
        ], 
        [
            132, 
            349, 
            543, 
            38
        ], 
        [
            460, 
            403, 
            216, 
            37
        ]
    ], 
    "image_height": 540, 
    "image_width": 720, 
    "transcription": [
        "u062a_u0627_u0628_u0639_u002d_u0646_u0645_u0627_u0630_u062c", 
        "u0020 u0020 u0020_u002a u0020 u0627_u0644_u0645_u0646_u0645_u0646_u0645_u0627_u062a u0020 u0020_u0623_u0648 u0020 u0645_u0627 u0020 u064a_u0645_u0643_u0646 u0020 u0623_u0646 u0020 u0646_u0633_u0645_u064a_u0647_u0627 u0020 u0628_u0627_u0644_u0635_u0648_u0631_u0020", 
        "u0627_u0644_u0625_u064a_u0636_u0627_u062d_u064a_u0629 u0020 u0648_u062a_u0638_u0647_u0631 u0020 u0641_u064a u0020 u0643_u062a_u0627_u0628 u0020 u0627_u0644_u0623_u063a_u0627_u0646_u064a u0020 u0644_u0623_u0628_u064a_u0020", 
        "u0627_u0644_u0641_u0631_u062c u0020 u0627_u0644_u0623_u0635_u0641_u0647_u0627_u0646_u064a u0020 u0648_u0627_u0644_u0630_u064a u0020 u064a_u0628_u062f_u0648 u0020 u0641_u064a u0020 u0635_u0648_u0631_u0647_u0020", 
        "u062a_u0623_u062b_u0631_u0627 u0020 u0648_u0627_u0636_u062d_u0627 u0020 u0628_u0627_u0644_u0641_u0646 u0020 u0627_u0644_u0635_u064a_u0646_u064a u0020 u0627_u0644_u0630_u064a u0020 u0648_u0631_u062f u0020 u0625_u0644_u064a_u0020", 
        "u0627_u0644_u0645_u0646_u0637_u0642_u0629 u0020 u0639_u0646 u0020 u0637_u0631_u064a_u0642 u0020 u062a_u062c_u0627_u0631_u0629 u0020 u0627_u0644_u062d_u0631_u064a_u0631 u0020 u0627_u0644_u0645_u0627_u0631_u0020", 
        "u0628_u0645_u062f_u064a_u0646_u0629 u0020 u0627_u0644_u0645_u0648_u0635_u0644_u002e"
    ]
}