{
    "bounding_box": [
        [
            92, 
            13, 
            559, 
            52
        ], 
        [
            132, 
            110, 
            532, 
            37
        ], 
        [
            55, 
            158, 
            608, 
            42
        ], 
        [
            97, 
            209, 
            567, 
            38
        ], 
        [
            54, 
            254, 
            610, 
            39
        ], 
        [
            296, 
            305, 
            367, 
            39
        ]
    ], 
    "image_height": 540, 
    "image_width": 720, 
    "transcription": [
        "u004d_u0041_u0043 u0020 u0041_u0064_u0064_u0072_u0065_u0073_u0073 u0020 u0046_u0069_u006c_u0074_u0065_u0072_u0069_u006e_u0067_u0020", 
        "u0647_u0630_u0647 u0020 u0627_u0644_u0642_u0627_u0626_u0645_u0629 u0020 u0628_u0639_u0646_u0627_u0648_u064a_u0646 u0020 u004d_u0041_u0043 u0020 u0041_u0064_u0064_u0072_u0065_u0073_u0073_u0020", 
        "u0627_u0644_u0645_u0642_u0628_u0648_u0644_u0629 u0020 u064a_u0642_u0648_u0645 u0020 u0645_u062f_u064a_u0631 u0020 u0627_u0644_u0646_u0638_u0627_u0645 u0020 u0041_u0064_u006d_u0069_u006e_u0069_u0073_u0074_u0072_u0061_u0074_u006f_u0072_u0020", 
        "u0628_u0625_u062f_u062e_u0627_u0644_u0647_u0627 u0020 u064a_u062f_u0648_u064a_u0627 u0020 u0625_u0644_u0649 u0020 u062c_u0647_u0627_u0632 u0020 u0627_u0644 u0020 u0052_u006f_u0075_u0074_u0065_u0072 u0020 u0627_u0648 u0020 u0627_u0644_u0020", 
        "u0041_u0063_u0063_u0065_u0073_u0073 u0020 u0050_u006f_u0069_u006e_u0074 u0020 u0639_u0646 u0020 u0637_u0631_u064a_u0642 u0020 u0634_u0627_u0634_u0649_u0629 u0020 u0625_u0639_u062f_u0627_u062f_u0627_u062a_u0020", 
        "u0627_u0644_u062c_u0647_u0627_u0632 u0020 u0043_u006f_u006e_u0066_u0069_u0067_u0075_u0072_u0061_u0074_u0069_u006f_u006e_u002e"
    ]
}