{
    "bounding_box": [
        [
            347, 
            44, 
            305, 
            28
        ], 
        [
            84, 
            112, 
            559, 
            23
        ], 
        [
            67, 
            145, 
            576, 
            24
        ], 
        [
            68, 
            173, 
            575, 
            26
        ], 
        [
            62, 
            208, 
            581, 
            26
        ], 
        [
            70, 
            242, 
            573, 
            22
        ], 
        [
            563, 
            272, 
            81, 
            22
        ], 
        [
            117, 
            308, 
            527, 
            28
        ], 
        [
            66, 
            342, 
            578, 
            26
        ], 
        [
            249, 
            375, 
            394, 
            22
        ]
    ], 
    "image_height": 540, 
    "image_width": 720, 
    "transcription": [
        "u0630_u0627_u0643_u0631_u0629 u0020 u0627_u0644_u0648_u0635_u0648_u0644 u0020 u0627_u0644_u0639_u0634_u0648_u0627_u0626_u064a_u0028_u0052_u0041_u004d_u0029_u0020", 
        "u0644_u062a_u0646_u0641_u064a_u0630 u0020 u0627_u0644_u0628_u0631_u0645_u062c_u064a_u0627_u062a_u060c u0020 u064a_u062c_u0628 u0020 u0627_u0646 u0020 u064a_u0643_u0648_u0646 u0020 u0627_u0644_u0643_u0645_u0628_u064a_u0648_u062a_u0631 u0020 u0642_u0627_u062f_u0631_u0627 u0020 u0639_u0644_u0649 u0020 u062d_u0633_u0627_u0628 u0020 u0627_u0644_u0642_u064a_u0645_u0020", 
        "u0648_u0627_u062f_u0627_u0621 u0020 u0627_u0644_u0639_u0645_u0644_u064a_u0627_u062a u0020 u0627_u0644_u0645_u0646_u0637_u0642_u064a_u0629 u0020 u0648_u062a_u062e_u0632_u064a_u0646 u0020 u0028_u062a_u0630_u0643_u0631_u0029 u0020 u0627_u0644_u062a_u0639_u0644_u064a_u0645_u0627_u062a u0020 u0627_u0648 u0020 u0627_u0644_u0628_u064a_u0627_u0646_u0627_u062a_u002e u0020 u0648_u0643_u0645_u0627_u0020", 
        "u0631_u0623_u064a_u062a_u060c u0020 u062a_u0633_u062a_u062e_u062f_u0645 u0020 u0648_u062d_u062f_u0629 u0020 u0627_u0644_u0645_u0639_u0627_u0644_u062c_u0629 u0020 u0627_u0644_u0645_u0631_u0643_u0632_u064a_u0629 u0020 u0644_u062d_u0633_u0627_u0628 u0020 u0627_u0644_u0642_u064a_u0645 u0020 u0648_u0627_u062f_u0627_u0621 u0020 u0627_u0644_u0639_u0645_u0644_u064a_u0627_u062a_u0020", 
        "u0627_u0644_u0645_u0646_u0637_u0642_u064a_u0629_u002e u0020 u0648_u064a_u0645_u0643_u0646 u0020 u0644_u0648_u062d_u062f_u0629 u0020 u0627_u0644_u0645_u0639_u0627_u0644_u062c_u0629 u0020 u0627_u0644_u0645_u0631_u0643_u0632_u064a_u0629 u0020 u0646_u0648_u0639_u0627 u0020 u0645_u0627 u0020 u0627_u0644_u062a_u0639_u0627_u0645_u0644 u0020 u0645_u0639 u0020 u0628_u0639_u0636_u0020", 
        "u0645_u0647_u0627_u0645 u0020 u0627_u0644_u062a_u062e_u0632_u064a_u0646 u0020 u0627_u0644_u0645_u0624_u0642_u062a_u0629 u0020 u0645_u0646 u0020 u062e_u0644_u0627_u0644 u0020 u0627_u0633_u062a_u062e_u062f_u0627_u0645 u0020 u0645_u0633_u062c_u0644_u0627_u062a_u0647_u0627 u0020 u0627_u0644_u0631_u0642_u0645_u064a_u0629 u0020 u0648_u0630_u0627_u0643_u0631_u062a_u0647_u0627_u0020", 
        "u0627_u0644_u0645_u0624_u0642_u062a_u0629_u002e u0020 u000d", 
        "u0627_u0644_u0645_u0634_u0643_u0644_u0629 u0020 u0627_u0646 u0020 u0623_u062c_u0647_u0632_u0629 u0020 u0627_u0644_u0643_u0645_u0628_u064a_u0648_u062a_u0631 u0020 u0627_u0644_u062d_u062f_u064a_u062b_u0629 u0020 u064a_u062a_u0639_u064a_u0646 u0020 u0639_u0644_u064a_u0647_u0627 u0020 u062a_u0634_u063a_u064a_u0644 u0020 u0628_u0631_u0627_u0645_u062c_u0020", 
        "u0628_u0631_u0645_u062c_u064a_u0627_u062a u0020 u0643_u0628_u064a_u0631_u0629 u0020 u0648_u0627_u0644_u062a_u0639_u0627_u0645_u0644 u0020 u0645_u0639 u0020 u0643_u0645_u064a_u0627_u062a u0020 u0636_u062e_u0645_u0629 u0020 u0645_u0646 u0020 u0627_u0644_u0628_u064a_u0627_u0646_u0627_u062a_u002e u0020 u0648_u0644_u062a_u0644_u0628_u064a_u0629 u0020 u0647_u0630_u0647_u0020", 
        "u0627_u0644_u0645_u062a_u0637_u0644_u0628_u0627_u062a_u060c u0020 u064a_u062a_u0639_u064a_u0646 u0020 u0648_u062c_u0648_u062f u0020 u0630_u0627_u0643_u0631_u0629 u0020 u062a_u062e_u0632_u064a_u0646 u0020 u0627_u0636_u0627_u0641_u064a_u0629_u002e_u0020"
    ]
}