{
    "bounding_box": [
        [
            70, 
            44, 
            606, 
            33
        ], 
        [
            70, 
            82, 
            585, 
            39
        ], 
        [
            510, 
            122, 
            145, 
            38
        ], 
        [
            70, 
            178, 
            579, 
            36
        ], 
        [
            113, 
            220, 
            541, 
            35
        ], 
        [
            321, 
            269, 
            328, 
            33
        ], 
        [
            70, 
            321, 
            579, 
            30
        ], 
        [
            524, 
            362, 
            130, 
            28
        ], 
        [
            71, 
            413, 
            581, 
            29
        ], 
        [
            305, 
            447, 
            349, 
            31
        ], 
        [
            21, 
            503, 
            15, 
            11
        ]
    ], 
    "image_height": 540, 
    "image_width": 720, 
    "transcription": [
        "u0009_u0642_u0627_u0645 u0020 u0627_u062a_u062d_u0627_u062f u0020 u0627_u0644_u062c_u0627_u0645_u0639_u0627_u062a u0020 u0627_u0644_u0639_u0631_u0628_u064a_u0629 u0020 u0628_u0627_u0646_u0634_u0627_u0621 u0020 u0645_u062c_u0644_u0633 u0020 u0636_u0645_u0627_u0646_u0020", 
        "u0627_u0644_u062c_u0648_u062f_u0629 u0020 u0648_u0627_u0644_u0627_u0639_u062a_u0645_u0627_u062f u0020 u0641_u064a u0020 u0645_u0642_u0631 u0020 u0627_u0644_u0623_u0645_u0627_u0646_u0629 u0020 u0627_u0644_u0639_u0627_u0645_u0629 u0020 u0644_u0644_u0627_u062a_u062d_u0627_u062f u0020 u060c_u0020", 
        "u0648_u0623_u0647_u0645 u0020 u0623_u0647_u062f_u0627_u0641_u0647_u003a_u000d", 
        "u0627_u0644_u0645_u0633_u0627_u0647_u0645_u0629 u0020 u0641_u064a u0020 u062a_u0637_u0648_u064a_u0631 u0020 u0645_u0646_u0638_u0648_u0645_u0629 u0020 u0627_u0644_u062a_u0639_u0644_u064a_u0645 u0020 u0627_u0644_u062c_u0627_u0645_u0639_u064a_u0020", 
        "u0648_u0627_u0644_u0639_u0627_u0644_u064a u0020 u0641_u064a u0020 u0627_u0644_u0648_u0637_u0646 u0020 u0627_u0644_u0639_u0631_u0628_u064a u0020 u060c u0020 u0648_u0641_u0642 u0020 u0645_u0639_u0627_u064a_u064a_u0631 u0020 u0645_u0639_u062a_u0645_u062f_u0629_u002e_u000d", 
        "u062a_u0639_u0645_u064a_u0645 u0020 u062b_u0642_u0627_u0641_u0629 u0020 u0627_u0644_u062c_u0648_u062f_u0629 u0020 u0648_u0627_u0644_u0627_u0639_u062a_u0645_u0627_u062f_u002e_u000d", 
        "u0625_u0639_u062f_u0627_u062f u0020 u0645_u0639_u0627_u064a_u064a_u0631 u0020 u0648_u0645_u0631_u062c_u0639_u064a_u0627_u062a u0020 u0648_u0645_u0624_u0634_u0631_u0627_u062a u0020 u0644_u0636_u0645_u0627_u0646 u0020 u0627_u0644_u062c_u0648_u062f_u0629_u0020", 
        "u0648_u0627_u0644_u0627_u0639_u062a_u0645_u0627_u062f_u002e u0020 u000d", 
        "u0645_u0633_u0627_u0639_u062f_u0629 u0020 u0627_u0644_u062c_u0627_u0645_u0639_u0627_u062a u0020 u0641_u064a u0020 u0628_u0646_u0627_u0621 u0020 u0642_u062f_u0631_u0627_u062a_u0647_u0627 u0020 u0627_u0644_u0645_u0624_u0633_u0633_u064a_u0629 u0020 u0648_u062a_u0637_u0648_u064a_u0631_u0647_u0627_u0020", 
        "u0641_u064a u0020 u0645_u062c_u0627_u0644 u0020 u0636_u0645_u0627_u0646 u0020 u0627_u0644_u062c_u0648_u062f_u0629 u0020 u0648_u0627_u0644_u0627_u0639_u062a_u0645_u0627_u062f_u002e_u000d", 
        "u0032_u0036"
    ]
}