{
    "bounding_box": [
        [
            647, 
            62, 
            239, 
            36
        ], 
        [
            291, 
            136, 
            577, 
            32
        ], 
        [
            199, 
            180, 
            669, 
            37
        ], 
        [
            172, 
            229, 
            696, 
            38
        ], 
        [
            130, 
            278, 
            738, 
            38
        ], 
        [
            499, 
            332, 
            368, 
            29
        ], 
        [
            115, 
            379, 
            753, 
            35
        ], 
        [
            703, 
            415, 
            164, 
            32
        ]
    ], 
    "image_height": 540, 
    "image_width": 960, 
    "transcription": [
        "u0628_u064a_u0646 u0020 u0627_u0644_u0634_u0639_u0631 u0020 u0648_u0627_u0644_u0646_u062b_u0631_u003a", 
        "u064a_u0641_u0631_u0642 u0020 u0627_u0644_u062f_u0643_u062a_u0648_u0631 u0020 u0645_u062d_u0645_u062f u0020 u0639_u0628_u062f u0020 u0627_u0644_u0639_u0627_u0644 u0020 u0628_u064a_u0646 u0020 u0627_u0644_u0634_u0639_u0631 u0020 u0648_u0627_u0644_u0646_u062b_u0631 u0020 u0641_u064a u0020 u003a_u000d", 
        "u0031_u002d u0020 u0625_u0646 u0020 u0627_u0644_u0646_u062b_u0631 u0020 u062a_u0641_u0643_u064a_u0631 u0020 u062a_u0644_u0632_u0645_u0647 u0020 u0644_u063a_u0629 u0020 u062a_u062d_u0644_u064a_u0644_u064a_u0629_u002c u0020 u0623_u0645_u0627 u0020 u0627_u0644_u0634_u0639_u0631 u0020 u0641_u0647_u0648 u0020 u0627_u0646_u0641_u0639_u0627_u0644 u0020 u000d", 
        "u0032_u002d u0020 u0625_u0646 u0020 u0627_u0644_u0646_u062b_u0631 u0020 u0646_u0641_u0639_u064a u0020 u002e u0020 u0623_u0645_u0627 u0020 u0627_u0644_u0634_u0639_u0631 u0020 u0641_u0627_u0644_u0623_u0644_u0641_u0627_u0638 u0020 u0641_u064a_u0647 u0020 u0645_u0646_u0632_u0647_u0629 u0020 u0639_u0646 u0020 u0627_u0644_u0645_u0646_u0641_u0639_u0629_u002e_u000d", 
        "u0033_u002d u0020 u0627_u0644_u0646_u062b_u0631 u0020 u0623_u0643_u062b_u0631 u0020 u0645_u064a_u0644_u0627 u0020 u0625_u0644_u064a u0020 u0627_u0644_u062a_u0639_u0628_u064a_u0631_u0627_u062a u0020 u0627_u0644_u0644_u063a_u0648_u064a_u0629 u0020 u0627_u0644_u062f_u0642_u064a_u0642_u0629 u0020 u0627_u0644_u0648_u0627_u0636_u062d_u0629 u0020 u0644_u0644_u062f_u0644_u0627_u0644_u0629_u002e_u000d", 
        "u0034_u002d_u0627_u0644_u0648_u0632_u0646_u003a_u0627_u062e_u0635 u0020 u0645_u0645_u064a_u0632_u0627_u062a u0020 u0627_u0644_u0634_u0639_u0631_u002e_u000d", 
        "u0035_u002d u0020 u0627_u0644_u0642_u0627_u0641_u064a_u0629_u003a u0020 u0648_u0647_u064a u0020 u0643_u0630_u0644_u0643 u0020 u0638_u0627_u0647_u0631_u0629 u0020 u0634_u0639_u0631_u064a_u0629 u0020 u062a_u0635_u0648_u0631 u0020 u0627_u0644_u0645_u0642_u0637_u0639 u0020 u0627_u0644_u0630_u064a u0020 u062a_u0646_u062a_u0647_u064a u0020 u0628_u0647_u0020", 
        "u0623_u0628_u064a_u0627_u062a u0020 u0627_u0644_u0642_u0635_u064a_u062f_u0629_u002e"
    ]
}