{
    "bounding_box": [
        [
            36, 
            524, 
            106, 
            3
        ], 
        [
            664, 
            518, 
            12, 
            1
        ], 
        [
            25, 
            126, 
            668, 
            18
        ], 
        [
            25, 
            150, 
            577, 
            18
        ], 
        [
            25, 
            198, 
            668, 
            18
        ], 
        [
            25, 
            222, 
            183, 
            18
        ], 
        [
            25, 
            246, 
            618, 
            18
        ], 
        [
            25, 
            270, 
            668, 
            18
        ], 
        [
            25, 
            294, 
            250, 
            18
        ], 
        [
            25, 
            318, 
            652, 
            18
        ], 
        [
            25, 
            342, 
            668, 
            18
        ], 
        [
            25, 
            366, 
            186, 
            18
        ], 
        [
            25, 
            390, 
            668, 
            18
        ], 
        [
            25, 
            414, 
            507, 
            18
        ], 
        [
            25, 
            438, 
            459, 
            18
        ], 
        [
            25, 
            462, 
            668, 
            18
        ], 
        [
            25, 
            486, 
            135, 
            18
        ], 
        [
            132, 
            30, 
            563, 
            28
        ], 
        [
            229, 
            70, 
            362, 
            22
        ]
    ], 
    "image_height": 540, 
    "image_width": 720, 
    "transcription": [
        "u0645_u0624_u062a_u0645_u0631 u0020 u0627_u0644_u062a_u0646_u0638_u064a_u0645 u0020 u0627_u0644_u0635_u062d_u064a u0020 u0627_u0644_u0627_u0648_u0644", 
        "u0031_u0033", 
        "u0041 u0020 u0070_u006f_u0073_u0069_u0074_u0069_u0076_u0065 u0020 u0069_u006d_u0070_u0061_u0063_u0074_u003a u0020 u0055_u006e_u0064_u0065_u0072 u0020 u006d_u0065_u0064_u0069_u0063_u0061_u006c u0020 u0073_u0075_u0070_u0065_u0072_u0076_u0069_u0073_u0069_u006f_u006e_u002c u0020 u0061_u006c_u0074_u0068_u006f_u0075_u0067_u0068 u0020 u0073_u006f_u006d_u0065 u0020 u006d_u0065_u0064_u0069_u0063_u0069_u006e_u0065_u0073 u0020 u0061_u0072_u0065 u0020 u0064_u0072_u0075_u0067_u0020", 
        "u0073_u0075_u0062_u0073_u0074_u0061_u006e_u0063_u0065_u002c u0020 u0062_u0075_u0074 u0020 u0069_u0074 u0020 u0069_u0073 u0020 u006e_u006f_u0074 u0020 u0042_u006f_u0064_u0069_u006c_u0079 u0020 u006f_u0072 u0020 u0070_u0073_u0079_u0063_u0068_u006f_u006c_u006f_u0067_u0069_u0073_u0074 u0020 u0068_u0061_u0072_u006d u0020 u0077_u0069_u0074_u0068 u0020 u0063_u006f_u0072_u0072_u0065_u0063_u0074 u0020 u0075_u0073_u0061_u0067_u0065_u002e u0020 u000d", 
        "u004e_u0065_u0067_u0061_u0074_u0069_u0076_u0065 u0020 u0069_u006d_u0070_u0061_u0063_u0074_u003a u0020 u0044_u0072_u0075_u0067_u0073 u0020 u0062_u0065_u0065_u006e u0020 u006d_u0069_u0073_u0073 u0020 u0075_u0073_u0065_u0064 u0020 u006f_u0072 u0020 u0061_u0062_u0075_u0073_u0065_u0064 u0020 u0077_u0069_u0074_u0068_u006f_u0075_u0074 u0020 u0063_u006c_u0069_u006e_u0069_u0063_u0061_u006c u0020 u006e_u0065_u0065_u0064 u0020 u0061_u006e_u0064_u0020", 
        "u0073_u0075_u0070_u0065_u0072_u0076_u0069_u0073_u0069_u006f_u006e u0020 u0020_u0072_u0065_u0073_u0075_u006c_u0074 u0020 u006f_u0066_u003a u0020 u000d", 
        "u004f_u0076_u0065_u0072_u006c_u0061_u0070 u0020 u0062_u0065_u0074_u0077_u0065_u0065_u006e u0020 u0074_u0068_u0065 u0020 u006e_u0061_u0072_u0063_u006f_u0074_u0069_u0063 u0020 u0063_u0068_u0065_u006d_u0069_u0063_u0061_u006c_u0073 u0020 u0061_u006e_u0064 u0020 u0074_u0068_u0065 u0020 u0072_u0065_u0073_u0070_u006f_u006e_u0073_u0069_u0062_u006c_u0065 u0020 u006e_u0065_u0072_u0076_u0065 u0020 u0063_u006f_u006d_u006d_u0075_u0074_u0065_u0072_u000d", 
        "u0053_u006c_u006f_u0077_u0069_u006e_u0067 u0020 u0064_u0069_u0066_u0066_u0065_u0072_u0065_u006e_u0074 u0020 u0062_u0072_u0061_u0069_u006e u0020 u0061_u0072_u0065_u0061_u0073 u0020 u006f_u006e u0020 u0074_u0068_u0065 u0020 u0070_u0065_u0072_u0066_u006f_u0072_u006d_u0061_u006e_u0063_u0065 u0020 u006f_u0066 u0020 u0069_u0074_u0073 u0020 u0066_u0075_u006e_u0063_u0074_u0069_u006f_u006e_u0073_u002c u0020 u0065_u0073_u0070_u0065_u0063_u0069_u0061_u006c_u006c_u0079 u0020 u0074_u0068_u0065_u0020", 
        "u0061_u0062_u0069_u006c_u0069_u0074_u0079 u0020 u0074_u006f u0020 u0070_u0072_u006f_u0063_u0065_u0073_u0073 u0020 u0069_u006e_u0066_u006f_u0072_u006d_u0061_u0074_u0069_u006f_u006e_u002e u0020 u000d", 
        "u0054_u0068_u0065 u0020 u0065_u006d_u0065_u0072_u0067_u0065_u006e_u0063_u0065 u0020 u006f_u0066 u0020 u0073_u0065_u0076_u0065_u0072_u0065 u0020 u0069_u006d_u0070_u0061_u0063_u0074_u0073 u0020 u0069_u006e u0020 u0074_u0068_u0065 u0020 u0076_u0069_u0067_u0069_u006c_u0061_u006e_u0063_u0065_u002c u0020 u0061_u006c_u0065_u0072_u0074 u0020 u0020_u0061_u006e_u0064 u0020 u006d_u006f_u0074_u006f_u0072 u0020 u0070_u0065_u0072_u0066_u006f_u0072_u006d_u0061_u006e_u0063_u0065_u002e u0020 u000d", 
        "u0054_u0068_u0065 u0020 u0065_u006d_u0065_u0072_u0067_u0065_u006e_u0063_u0065 u0020 u006f_u0066 u0020 u0061 u0020 u0066_u0061_u006c_u0073_u0065 u0020 u0073_u0065_u006e_u0073_u0065 u0020 u006f_u0066 u0020 u0068_u0061_u0070_u0070_u0069_u006e_u0065_u0073_u0073 u0020 u0077_u0069_u0074_u0068 u0020 u0074_u0065_u006d_u0070_u006f_u0072_u0061_u0072_u0079 u0020 u0066_u0061_u0064_u0069_u006e_u0067 u0020 u0020_u006f_u0066_u0020", 
        "u0075_u006e_u0068_u0061_u0070_u0070_u0069_u006e_u0065_u0073_u0073 u0020 u0020_u0066_u0065_u0065_u006c_u0069_u006e_u0067_u0073_u002e u0020 u000d", 
        "u0054_u0068_u0065 u0020 u0063_u006f_u006e_u0074_u0069_u006e_u0075_u0065_u0064 u0020 u0064_u0072_u0075_u0067 u0020 u0061_u0062_u0075_u0073_u0065 u0020 u006c_u0065_u0061_u0064 u0020 u0074_u006f u0020 u0070_u0068_u0079_u0073_u0069_u0063_u0061_u006c u0020 u0061_u006e_u0064 u0020 u006d_u0065_u006e_u0074_u0061_u006c u0020 u0069_u006d_u0062_u0061_u006c_u0061_u006e_u0063_u0065_u002c u0020 u0061_u006e_u0064 u0020 u0074_u0068_u0065 u0020 u0073_u0075_u0064_u0064_u0065_u006e_u0020", 
        "u0073_u0074_u006f_u0070 u0020 u0077_u0069_u006c_u006c u0020 u0063_u0061_u0075_u0073_u0065 u0020 u0061 u0020 u0077_u0069_u0074_u0068_u0064_u0072_u0061_u0077_u0061_u006c u0020 u0073_u0079_u006d_u0070_u0074_u006f_u006d_u0073 u0020 u006f_u0066 u0020 u006d_u006f_u0064_u0065_u0072_u0061_u0074_u0065 u0020 u006f_u0072 u0020 u0073_u0065_u0076_u0065_u0072_u0065_u002e u0020 u000d", 
        "u0044_u0069_u0073_u0072_u0075_u0070_u0074_u0069_u006f_u006e u0020 u006f_u0066 u0020 u0074_u0068_u0065 u0020 u0063_u0065_u006e_u0074_u0072_u0061_u006c u0020 u006e_u0065_u0072_u0076_u006f_u0075_u0073 u0020 u0073_u0079_u0073_u0074_u0065_u006d u0020 u0061_u006e_u0064 u0020 u0070_u0065_u0072_u0069_u0070_u0068_u0065_u0072_u0061_u006c_u002e u0020 u000d", 
        "u004c_u0065_u0061_u0064 u0020 u0074_u006f u0020 u0074_u0068_u0065 u0020 u0061_u0064_u0064_u0069_u0063_u0074_u0069_u006f_u006e u0020 u0074_u006f u0020 u0074_u0068_u0065_u0073_u0065 u0020 u006b_u0069_u006e_u0064_u0073 u0020 u006f_u0066 u0020 u006e_u0061_u0072_u0063_u006f_u0074_u0069_u0063 u0020 u0064_u0072_u0075_u0067_u0073 u0020 u006f_u0072 u0020 u0063_u006f_u006e_u0074_u0072_u006f_u006c_u006c_u0065_u0064 u0020 u006f_u0072 u0020 u0073_u0065_u006d_u0069_u0020", 
        "u0063_u006f_u006e_u0074_u0072_u006f_u006c_u006c_u0065_u0064 u0020 u0064_u0072_u0075_u0067_u0073_u0020", 
        "u0049_u006d_u0070_u006c_u0069_u0063_u0061_u0074_u0069_u006f_u006e_u0073 u0020 u004f_u006e u0020 u0054_u0068_u0065 u0020 u0055_u0073_u0065 u0020 u004f_u0066 u0020 u0043_u006f_u006e_u0074_u0072_u006f_u006c_u006c_u0065_u0064 u0020 u0041_u006e_u0064_u0020", 
        "u0053_u0065_u006d_u0069 u0020 u0020_u0043_u006f_u006e_u0074_u0072_u006f_u006c_u006c_u0065_u0064 u0020 u004d_u0065_u0064_u0069_u0063_u0069_u006e_u0065_u0073_u0020"
    ]
}