{
    "bounding_box": [
        [
            125, 
            303, 
            480, 
            37
        ]
    ], 
    "image_height": 540, 
    "image_width": 720, 
    "transcription": [
        "u0645_u0627 u0020 u0647_u064a u0020 u0627_u0644_u0641_u0624_u0648_u0633 u0020 u0627_u0644_u062a_u064a u0020 u0639_u0644_u064a_u0646_u0627 u0020 u062a_u0633_u062e_u064a_u0631_u0647_u0627 u0020 u0644_u0642_u0637_u0639 u0020 u0627_u0644_u0633_u0627_u0642_u061f"
    ]
}