{
    "bounding_box": [
        [
            136, 
            17, 
            436, 
            26
        ], 
        [
            319, 
            69, 
            331, 
            24
        ], 
        [
            90, 
            102, 
            560, 
            27
        ], 
        [
            96, 
            137, 
            554, 
            24
        ], 
        [
            91, 
            166, 
            559, 
            26
        ], 
        [
            359, 
            200, 
            291, 
            23
        ], 
        [
            404, 
            269, 
            245, 
            26
        ], 
        [
            136, 
            307, 
            513, 
            26
        ], 
        [
            106, 
            337, 
            544, 
            27
        ], 
        [
            116, 
            373, 
            533, 
            25
        ], 
        [
            384, 
            402, 
            266, 
            26
        ]
    ], 
    "image_height": 540, 
    "image_width": 720, 
    "transcription": [
        "u0627_u0644_u062f_u0631_u0633 u0020 u0031_u002d_u0034_u003a u0020 u062a_u062d_u0631_u064a_u0631 u0020 u0627_u0644_u0639_u0631_u0636 u0020 u0627_u0644_u062a_u0642_u062f_u064a_u0645_u064a u0020 u0627_u0644_u062e_u0627_u0635 u0020 u0628_u0643", 
        "u0627_u0633_u062a_u062e_u062f_u0627_u0645 u0020 u062c_u0632_u0621 u0020 u0627_u0644_u0634_u0631_u0627_u0626_u062d_u002f_u0627_u0644_u0645_u062e_u0637_u0637 u0020 u0627_u0644_u062a_u0641_u0635_u064a_u0644_u064a_u000d", 
        "u0644_u0642_u062f u0020 u0627_u0633_u062a_u062e_u062f_u0645_u0646_u0627 u0020 u062d_u062a_u0649 u0020 u0627_u0644_u0622_u0646 u0020 u062c_u0632_u0621 u0020 u0627_u0644_u0634_u0631_u0627_u0626_u062d_u002e u0020 u0648_u0647_u0630_u0627 u0020 u064a_u0639_u0637_u064a_u0643 u0020 u0639_u0631_u0636 u0020 u0635_u0648_u0631_u0629_u0020", 
        "u0645_u0635_u063a_u0631_u0629 u0020 u0644_u0643_u0644 u0020 u0634_u0631_u064a_u062d_u0629_u002e u0020 u0648_u0644_u0644_u0639_u0645_u0644 u0020 u0639_u0644_u0649 u0020 u0634_u0631_u064a_u062d_u0629 u0020 u0645_u062e_u062a_u0644_u0641_u0629_u060c u0020 u064a_u0645_u0643_u0646_u0643 u0020 u0628_u0628_u0633_u0627_u0637_u0629_u0020", 
        "u0627_u0644_u0646_u0642_u0631 u0020 u0639_u0644_u0649 u0020 u0635_u0648_u0631_u062a_u0647_u0627 u0020 u0627_u0644_u0635_u063a_u064a_u0631_u0629_u060c u0020 u0623_u0648 u0020 u0627_u0644_u0646_u0642_u0631 u0020 u0628_u0627_u0644_u0632_u0631 u0020 u0627_u0644_u0623_u064a_u0645_u0646 u0020 u0639_u0644_u0649 u0020 u0627_u0644_u0634_u0631_u064a_u062d_u0629_u0020", 
        "u0644_u0631_u0624_u064a_u0629 u0020 u0627_u0644_u0645_u0632_u064a_u062f u0020 u0645_u0646 u0020 u062e_u064a_u0627_u0631_u0627_u062a u0020 u0627_u0644_u062a_u062d_u0631_u064a_u0631_u000d", 
        "u0627_u0644_u062a_u0646_u0642_u0644 u0020 u0641_u064a u0020 u0627_u0644_u0634_u0631_u0627_u0626_u062d u0020 u0627_u0644_u062e_u0627_u0635_u0629 u0020 u0628_u0643_u000d", 
        "u064a_u0648_u062c_u062f u0020 u0637_u0631_u0642 u0020 u0645_u062e_u062a_u0644_u0641_u0629 u0020 u0642_u0644_u064a_u0644_u0629 u0020 u064a_u0645_u0643_u0646_u0643 u0020 u0645_u0646 u0020 u062e_u0644_u0627_u0644_u0647_u0627 u0020 u0627_u0644_u062a_u0646_u0642_u0644 u0020 u0641_u064a u0020 u0627_u0644_u0634_u0631_u0627_u0626_u062d_u0020", 
        "u0627_u0644_u062e_u0627_u0635_u0629 u0020 u0628_u0643_u002e u0020 u0648_u0623_u0633_u0647_u0644 u0020 u0637_u0631_u064a_u0642_u0629 u0020 u0647_u064a u0020 u0627_u0633_u062a_u062e_u062f_u0627_u0645 u0020 u062c_u0632_u0621 u0020 u0627_u0644_u0634_u0631_u0627_u0626_u062d u0020 u2013 u0020 u0641_u0642_u0637 u0020 u0642_u0645_u0020", 
        "u0628_u0627_u0644_u0646_u0642_u0631 u0020 u0639_u0644_u0649 u0020 u0627_u0644_u0634_u0631_u064a_u062d_u0629 u0020 u0627_u0644_u062a_u064a u0020 u062a_u0631_u064a_u062f u0020 u062a_u062d_u0631_u064a_u0631_u0647_u0627_u002e u0020 u064a_u0645_u0643_u0646_u0643 u0020 u0627_u0633_u062a_u062e_u062f_u0627_u0645 u0020 u0634_u0631_u064a_u0637_u0020", 
        "u0627_u0644_u062a_u0645_u0631_u064a_u0631 u0020 u0644_u0644_u062a_u0646_u0642_u0644 u0020 u0641_u064a u0020 u0642_u0627_u0626_u0645_u0629 u0020 u0627_u0644_u0634_u0631_u0627_u0626_u062d"
    ]
}