{
    "bounding_box": [
        [
            261, 
            34, 
            207, 
            29
        ], 
        [
            389, 
            135, 
            260, 
            26
        ], 
        [
            468, 
            172, 
            181, 
            23
        ], 
        [
            366, 
            211, 
            283, 
            23
        ], 
        [
            387, 
            246, 
            261, 
            23
        ], 
        [
            468, 
            280, 
            181, 
            23
        ], 
        [
            388, 
            315, 
            261, 
            27
        ], 
        [
            482, 
            348, 
            166, 
            28
        ], 
        [
            383, 
            388, 
            266, 
            28
        ], 
        [
            562, 
            427, 
            87, 
            23
        ]
    ], 
    "image_height": 540, 
    "image_width": 720, 
    "transcription": [
        "u0634_u0631_u0648_u0637 u0020 u0627_u0644_u062a_u0642_u062f_u064a_u0645", 
        "u0645_u0646 u0020 u0645_u0648_u0627_u0637_u0646_u064a u0020 u0633_u0644_u0637_u0646_u0629 u0020 u0639_u064f_u0645_u0627_u0646_u0020", 
        "u0639_u0646_u062f u0020 u062a_u0642_u062f_u064a_u0645 u0020 u0627_u0644_u0637_u0644_u0628_u002e_u000d", 
        "u0645_u0633_u062c_u0644 u0020 u0641_u064a u0020 u0627_u0644_u0641_u0635_u0644 u0020 u0627_u0644_u062f_u0631_u0627_u0633_u064a_u0020", 
        "u0627_u0644_u062b_u0627_u0646_u064a u0020 u0644_u0644_u0635_u0641 u0020 u0627_u0644_u062d_u0627_u062f_u064a u0020 u0639_u0634_u0631_u0020", 
        "u0639_u0646_u062f u0020 u062a_u0642_u062f_u064a_u0645 u0020 u0627_u0644_u0637_u0644_u0628_u002e_u000d", 
        "u0627_u0633_u062a_u064a_u0641_u0627_u0621 u0020 u0627_u0644_u0645_u0639_u0627_u064a_u064a_u0631 u0020 u0627_u0644_u0623_u0643_u0627_u062f_u064a_u0645_u064a_u0629_u0020", 
        "u0627_u0644_u0645_u062d_u062f_u062f_u0629 u0020 u0645_u0633_u0628_u0642_u0627_u064b_u002e_u000d", 
        "u0645_u0648_u0627_u0641_u0642_u0629 u0020 u0648_u0644_u064a u0020 u0627_u0644_u0623_u0645_u0631 u0020 u0623_u0648 u0020 u0627_u0644_u0648_u0635_u064a_u0020", 
        "u0627_u0644_u0642_u0627_u0646_u0648_u0646_u064a_u002e"
    ]
}