{
    "bounding_box": [
        [
            644, 
            500, 
            14, 
            10
        ], 
        [
            299, 
            5, 
            132, 
            21
        ], 
        [
            21, 
            34, 
            691, 
            16
        ], 
        [
            26, 
            51, 
            638, 
            16
        ], 
        [
            6, 
            69, 
            658, 
            16
        ], 
        [
            637, 
            86, 
            27, 
            15
        ], 
        [
            543, 
            105, 
            121, 
            18
        ], 
        [
            528, 
            126, 
            135, 
            19
        ], 
        [
            495, 
            147, 
            169, 
            19
        ], 
        [
            522, 
            168, 
            142, 
            20
        ], 
        [
            508, 
            191, 
            155, 
            19
        ], 
        [
            15, 
            235, 
            649, 
            18
        ], 
        [
            15, 
            254, 
            648, 
            16
        ], 
        [
            41, 
            272, 
            623, 
            16
        ], 
        [
            554, 
            289, 
            110, 
            15
        ], 
        [
            232, 
            308, 
            432, 
            18
        ], 
        [
            214, 
            330, 
            420, 
            21
        ], 
        [
            162, 
            354, 
            472, 
            20
        ], 
        [
            110, 
            379, 
            524, 
            20
        ], 
        [
            80, 
            402, 
            554, 
            21
        ], 
        [
            119, 
            426, 
            515, 
            21
        ], 
        [
            64, 
            450, 
            570, 
            21
        ], 
        [
            70, 
            474, 
            564, 
            21
        ], 
        [
            503, 
            496, 
            131, 
            18
        ], 
        [
            36, 
            517, 
            597, 
            21
        ], 
        [
            42, 
            539, 
            592, 
            23
        ]
    ], 
    "image_height": 540, 
    "image_width": 720, 
    "transcription": [
        "u0032_u0030", 
        "u0645_u0639_u0648_u0642_u0627_u062a u0020 u0627_u0644_u0627_u062a_u0635_u0627_u0644_u003a", 
        "u0647_u0646_u0627_u0643 u0020 u0645_u062c_u0645_u0648_u0639_u0629 u0020 u0645_u0646 u0020 u0627_u0644_u0639_u0648_u0627_u0645_u0644 u0020 u0627_u0644_u062a_u064a u0020 u062a_u0639_u0645_u0644 u0020 u0643_u0645_u0639_u0648_u0642_u0627_u062a u0020 u0644_u0644_u0627_u062a_u0635_u0627_u0644_u060c u0020 u0648_u062a_u0624_u062f_u064a u0020 u0647_u0630_u0647 u0020 u0627_u0644_u0645_u0639_u0648_u0642_u0627_u062a u0020 u0625_u0644_u0649 u0020 u0627_u0644_u062a_u0634_u0648_u064a_u0634 u0020 u0639_u0644_u0649 u0020 u0639_u0645_u0644_u064a_u0629 u0020 u0627_u0644_u0627_u062a_u0635_u0627_u0644_u002e u0020 u0648_u064a_u062a_u0645 u0020 u0647_u0630_u0627_u0020", 
        "u0627_u0644_u062a_u0634_u0648_u064a_u0634 u0020 u0641_u064a u0020 u0623_u064a u0020 u062e_u0637_u0648_u0629 u0020 u0645_u0646 u0020 u062e_u0637_u0648_u0627_u062a u0020 u0627_u0644_u0627_u062a_u0635_u0627_u0644_u060c u0020 u0623_u064a u0020 u0623_u0646 u0020 u0623_u064a u0020 u0639_u0646_u0635_u0631 u0020 u0645_u0646 u0020 u0639_u0646_u0627_u0635_u0631 u0020 u0627_u0644_u0627_u062a_u0635_u0627_u0644 u0020 u0627_u0644_u0633_u0627_u0628_u0642 u0020 u0627_u0644_u0625_u0634_u0627_u0631_u0629 u0020 u0625_u0644_u064a_u0647_u0627 u0020 u064a_u0645_u0643_u0646 u0020 u0623_u0646_u0020", 
        "u062a_u062a_u0636_u0645_u0646 u0020 u0623_u0648 u0020 u062a_u062a_u0639_u0631_u0636 u0020 u0644_u0645_u062c_u0645_u0648_u0639_u0629 u0020 u0645_u0646 u0020 u0627_u0644_u0645_u0639_u0648_u0642_u0627_u062a u0020 u0627_u0644_u062a_u064a u0020 u062a_u062e_u0641_u0636 u0020 u0645_u0646 u0020 u0641_u0639_u0627_u0644_u064a_u0629 u0020 u0627_u0644_u0627_u062a_u0635_u0627_u0644_u002e u0020 u0648_u0644_u0647_u0630_u0627 u0020 u0641_u0625_u0646_u0646_u0627 u0020 u0633_u0646_u0642_u0648_u0645 u0020 u0628_u062a_u0642_u0633_u064a_u0645 u0020 u0645_u0639_u0648_u0642_u0627_u062a u0020 u0627_u0644_u0627_u062a_u0635_u0627_u0644_u0020", 
        "u0625_u0644_u0649_u003a_u000d", 
        "u0645_u0639_u0648_u0642_u0627_u062a u0020 u0641_u064a u0020 u0627_u0644_u0645_u0631_u0633_u0644_u060c_u000d", 
        "u0020_u0648_u0645_u0639_u0648_u0642_u0627_u062a u0020 u0641_u064a u0020 u0627_u0644_u0631_u0633_u0627_u0644_u0629_u060c u0020 u000d", 
        "u0648_u0645_u0639_u0648_u0642_u0627_u062a u0020 u0641_u064a u0020 u0648_u0633_u064a_u0644_u0629 u0020 u0627_u0644_u0627_u062a_u0635_u0627_u0644_u060c_u000d", 
        "u0020_u0648_u0645_u0639_u0648_u0642_u0627_u062a u0020 u0641_u064a u0020 u0627_u0644_u0645_u0633_u062a_u0642_u0628_u0644_u060c u0020 u000d", 
        "u0648_u0645_u0639_u0648_u0642_u0627_u062a u0020 u0641_u064a u0020 u0628_u064a_u0626_u0629 u0020 u0627_u0644_u0627_u062a_u0635_u0627_u0644 u0020 u000d", 
        "u0645_u0639_u0648_u0642_u0627_u062a u0020 u0641_u064a u0020 u0627_u0644_u0631_u0627_u0633_u0644_u003a u0020 u064a_u0642_u0639 u0020 u0627_u0644_u0631_u0627_u0633_u0644 u0020 u0641_u064a u0020 u0623_u062e_u0637_u0627_u0621 u0020 u0639_u0646_u062f u0020 u0627_u0639_u062a_u0632_u0627_u0645_u0647 u0020 u0627_u0644_u0627_u062a_u0635_u0627_u0644 u0020 u0628_u0627_u0644_u0622_u062e_u0631_u064a_u0646_u060c u0020 u0648_u0647_u0630_u0647 u0020 u0627_u0644_u0623_u062e_u0637_u0627_u0621 u0020 u062a_u0646_u062d_u0635_u0631 u0020 u0641_u064a u0020 u0639_u062f_u0645 u0020 u0627_u0644_u062a_u0628_u0635_u064a_u0631_u0020", 
        "u0628_u0627_u0644_u0639_u0648_u0627_u0645_u0644 u0020 u0627_u0644_u0641_u0631_u062f_u064a_u0629 u0020 u0623_u0648 u0020 u0627_u0644_u0646_u0641_u0633_u064a_u0629 u0020 u0627_u0644_u062a_u064a u0020 u062a_u0639_u062a_u0645_u0644 u0020 u0628_u062f_u0627_u062e_u0644_u0647_u060c u0020 u0648_u0627_u0644_u062a_u064a u0020 u064a_u0645_u0643_u0646_u0647_u0627 u0020 u0623_u0646 u0020 u062a_u0624_u062b_u0631 u0020 u0641_u064a u0020 u0634_u0643_u0644 u0020 u0648_u062d_u062c_u0645 u0020 u0627_u0644_u0623_u0641_u0643_u0627_u0631 u0020 u0648_u0627_u0644_u0645_u0639_u0644_u0648_u0645_u0627_u062a u0020 u0627_u0644_u062a_u064a u0020 u064a_u0648_u062f u0020 u0623_u0646_u0020", 
        "u064a_u0646_u0642_u0644_u0647_u0627 u0020 u0627_u0644_u0631_u0627_u0633_u0644 u0020 u0625_u0644_u0649 u0020 u0627_u0644_u0645_u0631_u0633_u0644 u0020 u0625_u0644_u064a_u0647 u0020 u0645_u0646 u0020 u0647_u0630_u0647 u0020 u0627_u0644_u0639_u0648_u0627_u0645_u0644_u003a u0020 u0627_u0644_u062f_u0627_u0641_u0639_u060c u0020 u0648_u0627_u0644_u062e_u0628_u0631_u0629 u0020 u0648_u0627_u0644_u062a_u0639_u0644_u0645_u060c u0020 u0648_u0627_u0644_u0641_u0647_u0645 u0020 u0648_u0627_u0644_u0625_u062f_u0631_u0627_u0643 u0020 u0648_u0627_u0644_u0634_u062e_u0635_u064a_u0629_u060c u0020 u0648_u0627_u0644_u0639_u0645_u0644_u064a_u0627_u062a_u0020", 
        "u0627_u0644_u0648_u062c_u062f_u0627_u0646_u064a_u0629 u0020 u0648_u0627_u0644_u0639_u0642_u0644_u064a_u0629_u002e u0020 u000d", 
        "u0020_u002d_u064a_u062e_u0637_u0626 u0020 u0627_u0644_u0631_u0627_u0633_u0644 u0020 u0639_u0646_u062f_u0645_u0627 u0020 u064a_u0639_u062a_u0642_u062f u0020 u0623_u0646 u0020 u062f_u0648_u0627_u0641_u0639_u0647 u0020 u0644_u0627 u0020 u062a_u0624_u062b_u0631 u0020 u0639_u0644_u0649 u0020 u0637_u0628_u064a_u0639_u0629 u0020 u0648_u062d_u062c_u0645 u0020 u0627_u0644_u0645_u0639_u0644_u0648_u0645_u0627_u062a_u002e_u000d", 
        "u064a_u062e_u0637_u0626 u0020 u0627_u0644_u0631_u0627_u0633_u0644 u0020 u0639_u0646_u062f_u0645_u0627 u0020 u064a_u0639_u062a_u0642_u062f u0020 u0623_u0646 u0020 u0633_u0644_u0648_u0643_u0647 u0020 u0641_u064a u0020 u0643_u0627_u0645_u0644 u0020 u0627_u0644_u062a_u0639_u0642_u0644 u0020 u0648_u0627_u0644_u0645_u0648_u0636_u0648_u0639_u064a_u0629_u002e_u000d", 
        "u064a_u062e_u0637_u0626 u0020 u0627_u0644_u0631_u0627_u0633_u0644 u0020 u0639_u0646_u062f_u0645_u0627 u0020 u064a_u0639_u062a_u0642_u062f u0020 u0623_u0646_u0647 u0020 u064a_u062a_u0635_u0631_u0641 u0020 u0641_u0642_u0637 u0020 u0644_u0645_u0635_u0644_u062d_u0629 u0020 u0627_u0644_u0639_u0645_u0644 u0020 u0648_u0644_u064a_u0633 u0020 u0644_u0645_u0635_u0644_u062d_u062a_u0647_u002e_u000d", 
        "u064a_u062e_u0637_u0626 u0020 u0627_u0644_u0631_u0627_u0633_u0644 u0020 u0639_u0646_u062f_u0645_u0627 u0020 u064a_u0639_u062a_u0642_u062f u0020 u0623_u0646_u0647 u0020 u064a_u0641_u0647_u0645 u0020 u0648_u064a_u062f_u0631_u0643 u0020 u0627_u0644_u0645_u0639_u0644_u0648_u0645_u0627_u062a u0020 u0627_u0644_u062a_u064a u0020 u0644_u062f_u064a_u0647 u0020 u0643_u0645_u0627 u0020 u064a_u0641_u0647_u0645_u0647_u0627 u0020 u0627_u0644_u0622_u062e_u0631_u0648_u0646_u002e_u000d", 
        "u064a_u062e_u0637_u0626 u0020 u0627_u0644_u0631_u0627_u0633_u0644 u0020 u0639_u0646_u062f_u0645_u0627 u0020 u064a_u0639_u062a_u0642_u062f u0020 u0623_u0646 u0020 u062d_u0627_u0644_u062a_u0647 u0020 u062d_u0627_u0644_u062a_u0647 u0020 u0627_u0644_u0627_u0646_u0641_u0639_u0627_u0644_u064a_u0629 u0020 u0644_u0627 u0020 u062a_u0624_u062b_u0631 u0020 u0641_u064a u0020 u0634_u0643_u0644 u0020 u0627_u0644_u0645_u0639_u0644_u0648_u0645_u0627_u062a u0020 u0627_u0644_u062a_u064a u0020 u0644_u062f_u064a_u0647_u002e_u000d", 
        "u064a_u062e_u0637_u0626 u0020 u0627_u0644_u0631_u0627_u0633_u0644 u0020 u0639_u0646_u062f_u0645_u0627 u0020 u064a_u0639_u062a_u0642_u062f u0020 u0623_u0646 u0020 u0642_u064a_u0645_u0647 u0020 u0648_u0645_u0639_u062a_u0642_u062f_u0627_u062a_u0647 u0020 u0644_u0627 u0020 u062a_u0624_u062b_u0631 u0020 u0641_u064a u0020 u0634_u0643_u0644 u0020 u0627_u0644_u0645_u0639_u0644_u0648_u0645_u0627_u062a u0020 u0627_u0644_u062a_u064a u0020 u0644_u062f_u064a_u0647_u002e_u000d", 
        "u064a_u062e_u0637_u0626 u0020 u0627_u0644_u0631_u0627_u0633_u0644 u0020 u0639_u0646_u062f_u0645_u0627 u0020 u064a_u0639_u062a_u0642_u062f u0020 u0623_u0646 u0020 u0645_u064a_u0648_u0644_u0647 u0020 u0648_u0627_u062a_u062c_u0627_u0647_u0627_u062a_u0647 u0020 u0627_u0644_u0646_u0641_u0633_u064a_u0629 u0020 u0644_u0627 u0020 u062a_u0624_u062b_u0631 u0020 u0641_u064a u0020 u0634_u0643_u0644 u0020 u0627_u0644_u0645_u0639_u0644_u0648_u0645_u0627_u062a u0020 u0627_u0644_u062a_u064a u0020 u0644_u062f_u064a_u0647_u002e_u000d", 
        "u064a_u062e_u0637_u0626 u0020 u0627_u0644_u0631_u0627_u0633_u0644 u0020 u0639_u0646_u062f_u0645_u0627 u0020 u064a_u0639_u062a_u0642_u062f u0020 u0623_u0646_u0647 u0020 u0644_u0627 u0020 u064a_u0642_u0648_u0645 u0020 u0628_u0639_u0645_u0644_u064a_u0627_u062a u0020 u0627_u0644_u062d_u0643_u0645_u060c u0020 u0648_u0627_u0644_u062a_u0642_u062f_u064a_u0631 u0020 u0648_u0627_u0644_u0625_u0636_u0627_u0641_u0629 u0020 u0648_u0627_u0644_u062d_u0630_u0641_u060c u0020 u0648_u0627_u0644_u062a_u063a_u064a_u064a_u0631_u0020", 
        "u0644_u0644_u0645_u0639_u0644_u0648_u0645_u0627_u062a u0020 u0627_u0644_u062a_u064a u0020 u0644_u062f_u064a_u0647_u002e_u000d", 
        "u064a_u062e_u0637_u0626 u0020 u0627_u0644_u0631_u0627_u0633_u0644 u0020 u0639_u0646_u062f_u0645_u0627 u0020 u064a_u0639_u062a_u0642_u062f u0020 u0623_u0646 u0020 u0627_u0644_u0645_u0631_u0633_u0644 u0020 u0625_u0644_u064a_u0647 u0020 u064a_u0646_u0638_u0631 u0020 u0625_u0644_u0649 u0020 u0627_u0644_u0645_u0639_u0644_u0648_u0645_u0627_u062a u0020 u0628_u0646_u0641_u0633 u0020 u0627_u0644_u0634_u0643_u0644 u0020 u0627_u0644_u0630_u064a u0020 u064a_u0646_u0638_u0631 u0020 u0647_u0648 u0020 u0625_u0644_u064a_u0647_u0627_u002e_u000d", 
        "u064a_u062e_u0637_u0626 u0020 u0627_u0644_u0631_u0627_u0633_u0644 u0020 u0639_u0646_u062f_u0645_u0627 u0020 u064a_u062a_u062d_u064a_u0632 u0020 u0644_u0637_u0628_u064a_u0639_u0629 u0020 u0627_u0644_u0623_u0645_u0648_u0631 u0020 u0648_u0627_u0644_u0623_u062d_u062f_u0627_u062b_u060c u0020 u0641_u0647_u064a u0020 u0625_u0645_u0627 u0020 u062d_u0633_u0646_u0629 u0020 u0623_u0648 u0020 u0633_u064a_u0626_u0629_u060c u0020 u0628_u064a_u0636_u0627_u0621 u0020 u0623_u0648 u0020 u0633_u0648_u062f_u0627_u0621_u002e_u000d"
    ]
}