{
    "bounding_box": [
        [
            355, 
            99, 
            86, 
            36
        ], 
        [
            187, 
            150, 
            421, 
            38
        ]
    ], 
    "image_height": 540, 
    "image_width": 720, 
    "transcription": [
        "u0633_u0624_u0627_u0644_u0020", 
        "u0645_u0627 u0020 u0627_u0644_u0639_u0644_u0627_u0642_u0629 u0020 u0625_u0630_u0646 u0020 u0628_u064a_u0646 u0020 u0627_u0644_u0646_u0638_u0631_u064a_u0629 u0020 u0648_u0627_u0644_u062a_u0639_u0644_u0645 u0020 u061f_u0020"
    ]
}