{
    "bounding_box": [
        [
            128, 
            42, 
            462, 
            60
        ], 
        [
            105, 
            134, 
            544, 
            35
        ], 
        [
            60, 
            173, 
            589, 
            37
        ], 
        [
            106, 
            221, 
            542, 
            38
        ], 
        [
            119, 
            273, 
            530, 
            37
        ], 
        [
            530, 
            318, 
            118, 
            31
        ], 
        [
            83, 
            368, 
            565, 
            34
        ], 
        [
            459, 
            410, 
            190, 
            34
        ]
    ], 
    "image_height": 540, 
    "image_width": 720, 
    "transcription": [
        "u062a_u0631_u0643_u064a_u0632 u0020 u0627_u0644_u0645_u0627_u062f_u0629 u0020 u0627_u0644_u0645_u0633_u062a_u0646_u0634_u0642_u0629", 
        "u0627_u0644_u062a_u0639_u0631_u0636 u0020 u0645_u0646_u062e_u0641_u0636 u0020 u0627_u0644_u062c_u0631_u0639_u0629 u0020 u0644_u0644_u0645_u0648_u0627_u062f u0020 u0627_u0644_u0630_u0648_u0627_u0628_u0629 u0020 u0628_u0627_u0644_u0645_u0627_u0621_u0020", 
        "u0643_u0627_u0644_u0623_u0645_u0648_u0646_u064a_u0627 u0020 u0648_u0627_u0644_u0643_u0644_u0648_u0631_u060c u0020 u062a_u0633_u0628_u0628 u0020 u062a_u062e_u0631_u064a_u0634_u0627_u064b u0020 u0645_u0648_u0636_u0639_u064a_u0627_u064b u0020 u0644_u0644_u0623_u063a_u0634_u064a_u0629_u0020", 
        "u0627_u0644_u0645_u062e_u0627_u0637_u064a_u0629 u0020 u0641_u064a u0020 u0627_u0644_u0645_u0644_u062a_u062d_u0645_u0629 u0020 u0648_u0627_u0644_u0637_u0631_u0642 u0020 u0627_u0644_u062a_u0646_u0641_u0633_u064a_u0629 u0020 u0627_u0644_u0639_u0644_u064a_u0627_u060c_u000d", 
        "u0627_u0644_u062a_u0639_u0631_u0636 u0020 u0627_u0644_u0645_u0639_u062a_u062f_u0644 u0020 u064a_u0633_u0628_u0628 u0020 u0627_u0644_u0628_u062d_u0629 u0020 u0648_u0627_u0644_u0633_u0639_u0627_u0644 u0020 u0648_u062a_u0634_u0646_u062c_u0020", 
        "u0627_u0644_u0642_u0635_u0628_u0627_u062a_u060c_u000d", 
        "u0627_u0644_u062a_u0639_u0631_u0636 u0020 u0627_u0644_u0639_u0627_u0644_u064a u0020 u0627_u0644_u0645_u0633_u062a_u0648_u0649 u0020 u064a_u0633_u0628_u0628 u0020 u0645_u062a_u0644_u0627_u0632_u0645_u0629 u0020 u0627_u0644_u0636_u0627_u0626_u0642_u0629_u0020", 
        "u0627_u0644_u062a_u0646_u0641_u0633_u064a_u0629 u0020 u0644_u0644_u0628_u0627_u0644_u063a_u064a_u0646"
    ]
}