{
    "bounding_box": [
        [
            52, 
            26, 
            625, 
            35
        ], 
        [
            52, 
            69, 
            625, 
            35
        ], 
        [
            52, 
            108, 
            625, 
            39
        ], 
        [
            52, 
            152, 
            625, 
            39
        ], 
        [
            52, 
            196, 
            625, 
            35
        ], 
        [
            52, 
            243, 
            625, 
            34
        ], 
        [
            52, 
            285, 
            625, 
            35
        ], 
        [
            52, 
            328, 
            625, 
            35
        ], 
        [
            52, 
            369, 
            625, 
            36
        ], 
        [
            52, 
            412, 
            625, 
            35
        ], 
        [
            52, 
            458, 
            625, 
            35
        ], 
        [
            583, 
            498, 
            93, 
            36
        ], 
        [
            9, 
            491, 
            39, 
            37
        ]
    ], 
    "image_height": 540, 
    "image_width": 720, 
    "transcription": [
        "u0625_u0646 u0020 u0646_u0645_u0648_u0630_u062c u0020 u0627_u0644_u062c_u0627_u0645_u0639_u0627_u062a u0020 u0627_u0644_u062e_u0627_u0635_u0629 u0020 u0627_u0644_u0631_u0628_u062d_u064a_u0629 u0020 u0641_u064a u0020 u0627_u0644_u0648_u0637_u0646 u0020 u0627_u0644_u0639_u0631_u0628_u064a_u0020", 
        "u064a_u0624_u062b_u0631 u0020 u0633_u0644_u0628_u0627 u0020 u0641_u064a u0020 u0628_u0639_u0636 u0020 u0627_u0644_u0627_u062d_u064a_u0627_u0646 u0020 u0639_u0644_u0649 u0020 u0645_u062e_u0631_u062c_u0627_u062a u0020 u0627_u0644_u062a_u0639_u0644_u064a_u0645_u0020", 
        "u0648_u0645_u0633_u062a_u0648_u0649 u0020 u0627_u0644_u062e_u0631_u064a_u062c_u064a_u0646 u0020 u0648_u0646_u062d_u0646 u0020 u0646_u0637_u0645_u062d u0020 u0623_u0646 u0020 u062a_u0643_u0648_u0646 u0020 u0647_u0630_u0647_u0020", 
        "u0627_u0644_u062c_u0627_u0645_u0639_u0627_u062a u0020 u063a_u064a_u0631 u0020 u0631_u0628_u062d_u064a_u0629 u0020 u0623_u0648 u0020 u0648_u0642_u0641_u064a_u0629 u0020 u0643_u062a_u0644_u0643 u0020 u0627_u0644_u0645_u0648_u062c_u0648_u062f_u0629 u0020 u0641_u064a u0020 u0628_u0639_u0636_u0020", 
        "u0627_u0644_u062f_u0648_u0644 u0020 u0627_u0644_u0625_u0633_u0644_u0627_u0645_u064a_u0629 u0020 u0643_u0627_u0644_u062c_u0627_u0645_u0639_u0627_u062a u0020 u0627_u0644_u062a_u0631_u0643_u064a_u0629 u0020 u0623_u0648 u0020 u0627_u0644_u0645_u0627_u0644_u064a_u0632_u064a_u0629 u0020 u060c u0020 u0625_u0630_u0020", 
        "u0627_u0646_u0647_u0627 u0020 u062a_u0631_u0643_u0632 u0020 u0639_u0644_u0649 u0020 u0641_u0643_u0631_u0629 u0020 u062a_u062f_u0648_u064a_u0631 u0020 u0627_u0644_u0631_u0628_u062d u0020 u0641_u064a u0020 u0627_u0644_u0639_u0645_u0644_u064a_u0629 u0020 u0627_u0644_u062a_u0639_u0644_u064a_u0645_u064a_u0629_u0020", 
        "u0641_u0647_u064a u0020 u062a_u0642_u0648_u0645 u0020 u0628_u0627_u064a_u0641_u0627_u062f u0020 u062e_u0631_u064a_u062c_u064a_u0647_u0627 u0020 u0644_u0627_u0633_u062a_u0643_u0645_u0627_u0644 u0020 u062f_u0631_u0627_u0633_u0627_u062a_u0647_u0645 u0020 u0627_u0644_u0639_u0644_u064a_u0627 u0020 u0641_u064a_u0020", 
        "u062c_u0627_u0645_u0639_u0627_u062a u0020 u0639_u0631_u064a_u0642_u0629 u0020 u0644_u064a_u0639_u0648_u062f_u0648_u0627 u0020 u0644_u0644_u0639_u0645_u0644 u0020 u0641_u064a u0020 u062c_u0627_u0645_u0639_u062a_u0647_u0645 u0020 u0627_u0644_u0627_u0645 u0020 u0648_u062a_u0642_u0648_u0645_u0020", 
        "u0628_u0627_u0633_u062a_u062b_u0645_u0627_u0631 u0020 u0627_u0631_u0628_u0627_u062d_u0647_u0627 u0020 u0641_u064a u0020 u062a_u0637_u0648_u064a_u0631 u0020 u0648_u062a_u062d_u062f_u064a_u062b u0020 u0645_u062e_u062a_u0628_u0631_u0627_u062a_u0647_u0627_u0020", 
        "u0648_u062a_u062c_u0647_u064a_u0632_u0627_u062a_u0647_u0627 u0020 u0627_u0644_u0645_u062e_u062a_u0644_u0641_u0629_u060c u0020 u0648_u0623_u0646 u0020 u064a_u0643_u0648_u0646 u0020 u0647_u0646_u0627_u0643 u0020 u0627_u0646_u062c_u0627_u0632_u0627_u062a u0020 u0628_u062d_u062b_u064a_u0629_u0020", 
        "u0648_u0639_u0644_u0645_u064a_u0629 u0020 u062a_u0646_u0639_u0643_u0633 u0020 u0627_u064a_u062c_u0627_u0628_u064a_u0627 u0020 u0639_u0644_u0649 u0020 u0627_u0644_u062a_u0646_u0645_u064a_u0629 u0020 u0627_u0644_u0634_u0627_u0645_u0644_u0629 u0020 u0641_u064a u0020 u0627_u0644_u0648_u0637_u0646_u0020", 
        "u0627_u0644_u0639_u0631_u0628_u064a_u002e_u000d", 
        "u0032_u0030"
    ]
}