{
    "bounding_box": [
        [
            161, 
            79, 
            389, 
            42
        ], 
        [
            141, 
            138, 
            504, 
            26
        ], 
        [
            535, 
            200, 
            135, 
            37
        ], 
        [
            92, 
            238, 
            590, 
            37
        ], 
        [
            141, 
            277, 
            541, 
            35
        ], 
        [
            460, 
            318, 
            231, 
            34
        ], 
        [
            19, 
            356, 
            663, 
            35
        ], 
        [
            29, 
            394, 
            663, 
            32
        ]
    ], 
    "image_height": 540, 
    "image_width": 720, 
    "transcription": [
        "u0645_u0648_u0627_u0646_u0639 u0020 u0627_u0644_u062a_u0639_u0644_u0645 u0020 u0641_u064a u0020 u0628_u064a_u0626_u0629 u0020 u0627_u0644_u062a_u062f_u0631_u064a_u0628", 
        "u0644_u0627_u0628_u062f u0020 u0645_u0646 u0020 u0627_u0644_u0627_u0646_u062a_u0628_u0627_u0647 u0020 u0625_u0644_u0649 u0020 u0647_u0630_u0647 u0020 u0627_u0644_u0645_u0648_u0627_u0646_u0639 u0020 u0648 u0020 u0625_u0632_u0627_u0644_u062a_u0647_u0627 u0020 u0639_u0646 u0020 u0627_u0644_u0645_u062a_u062f_u0631_u0628 u0020 u0642_u062f_u0631 u0020 u0627_u0644_u0625_u0645_u0643_u0627_u0646_u000d", 
        "u0020_u0627_u0644_u062a_u0634_u0627_u0628_u0647 u0020 u0020 u0020 u003a u0020 u000d", 
        "u0641_u0631_u0651_u0650_u0642 u0020 u0628_u064a_u0646 u0020 u0627_u0644_u0645_u0639_u0644_u0648_u0645_u0627_u062a u0020 u0648_u0644_u0627 u0020 u062a_u062c_u0639_u0644_u0647_u0627 u0020 u0645_u062a_u0634_u0627_u0628_u0647_u0629 u0020 u0644_u0643_u064a u0020 u0644_u0627 u0020 u062a_u062e_u062a_u0644_u0637 u0020 u0644_u062f_u0649_u0020", 
        "u0627_u0644_u0645_u062a_u062f_u0631_u0628 u0020 u0020_u0627_u0644_u0645_u0639_u0644_u0648_u0645_u0629 u0020 u0648_u0627_u0637_u0644_u0628 u0020 u0645_u0646 u0020 u0627_u0644_u0645_u062a_u062f_u0631_u0628 u0020 u0020_u0623_u0646 u0020 u064a_u0641_u0639_u0644 u0020 u0630_u0644_u0643_u000d", 
        "u0627_u0644_u0645_u0642_u0627_u0631_u0646_u0627_u062a u0020 u0627_u0644_u0634_u062e_u0635_u064a_u0629_u003a u0020 u000d", 
        "u0627_u0637_u0644_u0628 u0020 u0645_u0646 u0020 u0627_u0644_u0645_u062a_u0639_u0644_u0645 u0020 u0623_u0646 u0020 u0644_u0627 u0020 u064a_u0642_u0627_u0631_u0646 u0020 u0646_u0641_u0633_u0647 u0020 u0628_u063a_u064a_u0631_u0647 u0020 u0648_u0644_u0627 u0020 u0645_u062f_u0631_u0628 u0020 u0623_u0648 u0020 u0645_u0639_u0644_u0645 u0020 u0628_u0622_u062e_u0631_u0020", 
        "u0648_u0625_u0630_u0627 u0020 u0627_u0631_u0627_u062f u0020 u0020_u0623_u0646 u0020 u064a_u0642_u0627_u0631_u0646 u0020 u0641_u0644_u064a_u0642_u0627_u0631_u0646 u0020 u0646_u0641_u0633_u0647 u0020 u0628_u0646_u0641_u0633_u0647 u0020 u0643_u064a_u0641 u0020 u0643_u0627_u0646 u0020 u0648_u0643_u064a_u0641 u0020 u0647_u0648 u0020 u0627_u0644_u0622_u0646 u0020 u000d"
    ]
}