{
    "bounding_box": [
        [
            36, 
            127, 
            627, 
            27
        ], 
        [
            521, 
            163, 
            142, 
            25
        ], 
        [
            464, 
            202, 
            200, 
            29
        ], 
        [
            526, 
            244, 
            138, 
            23
        ], 
        [
            498, 
            282, 
            165, 
            27
        ]
    ], 
    "image_height": 540, 
    "image_width": 720, 
    "transcription": [
        "u0031_u002d u0020 u0627_u0644_u0637_u0647_u0627_u0631_u0629 u0020 u0645_u0646 u0020 u0627_u0644_u062d_u062f_u062b u0020 u0627_u0644_u0627_u0643_u0628_u0631 u0020 u0648_u0627_u0644_u0627_u0635_u063a_u0631 u0020 u0648_u0637_u0647_u0627_u0631_u0629 u0020 u0627_u0644_u0628_u062f_u0646 u0020 u0645_u0646 u0020 u0627_u0644_u0646_u062c_u0627_u0633_u0629 u0020 u0643_u0630_u0644_u0643_u0020", 
        "u0627_u0644_u062b_u064a_u0627_u0628 u0020 u0648_u0627_u0644_u0645_u0643_u0627_u0646_u002e_u000d", 
        "u0032_u002d_u0627_u0644_u0639_u0644_u0645 u0020 u0628_u062f_u062e_u0648_u0644 u0020 u0627_u0644_u0648_u0642_u062a_u002e_u000d", 
        "u0033_u002d_u0633_u062a_u0631 u0020 u0627_u0644_u0639_u0648_u0631_u0629_u002e_u000d", 
        "u0034_u002d u0020 u0627_u0633_u062a_u0642_u0628_u0627_u0644 u0020 u0627_u0644_u0642_u0628_u0644_u0629 u0020 u002e"
    ]
}