{
    "bounding_box": [
        [
            81, 
            150, 
            787, 
            35
        ], 
        [
            131, 
            189, 
            737, 
            35
        ], 
        [
            126, 
            226, 
            742, 
            37
        ], 
        [
            104, 
            267, 
            763, 
            34
        ], 
        [
            623, 
            306, 
            245, 
            30
        ]
    ], 
    "image_height": 540, 
    "image_width": 960, 
    "transcription": [
        "u0648_u0639_u0644_u0649 u0020 u0647_u0630_u0627 u0020 u0644_u0627 u0020 u064a_u063a_u062f_u0648 u0020 u062f_u0648_u0631 u0020 u0627_u0644_u0635_u0648_u0631_u0629 u0020 u0627_u0644_u0634_u0639_u0631_u064a_u0629 u0020 u0623_u062f_u0627_u0629 u0020 u0644_u0644_u0634_u0631_u062d u0020 u0648_u0627_u0644_u062a_u0648_u0636_u064a_u062d_u002c u0020 u0648_u0625_u0646_u0645_u0627_u0020", 
        "u062a_u062d_u0648_u0644 u0020 u0627_u0644_u0634_u064a_u0621 u0020 u0627_u0644_u0645_u0639_u062a_u0627_u062f u0020 u0625_u0644_u064a u0020 u0623_u0645_u0631 u0020 u063a_u0631_u064a_u0628_u002c u0020 u0641_u062f_u0648_u0631 u0020 u0627_u0644_u0635_u0648_u0631_u0629 u0020 u064a_u0646_u0647_u0636 u0020 u0628_u062a_u0639_u0642_u064a_u062f_u0020", 
        "u0648_u0625_u062b_u0631_u0627_u0621 u0020 u0627_u0644_u0645_u0639_u0646_u064a u0020 u0648_u0643_u0633_u0631 u0020 u0627_u0644_u0631_u062a_u0627_u0628_u0629 u0020 u0627_u0644_u0630_u0647_u0646_u064a_u0629 u0020 u0627_u0644_u0645_u062a_u0648_u0644_u062f_u0629 u0020 u0639_u0646 u0020 u0623_u0644_u0641_u0629 u0020 u0647_u0630_u0627 u0020 u0627_u0644_u0634_u064a_u0621 u0020 u002c_u0020", 
        "u0641_u0627_u0644_u0635_u0648_u0631_u0629 u0020 u0627_u0644_u0634_u0639_u0631_u064a_u0629 u0020 u0644_u0645 u0020 u062a_u0639_u062f u0020 u062a_u0639_u0631_u0641_u0627 u0020 u0639_u0644_u0649 u0020 u0627_u0644_u0634_u064a_u0621 u0020 u0648_u0644_u0627 u0020 u062a_u0642_u0631_u064a_u0628_u0627 u0020 u0630_u0647_u0646_u064a_u0627 u0020 u0644_u0647 u0020 u0648_u0625_u0646_u0645_u0627_u0020", 
        "u062e_u0644_u0642 u0020 u0631_u0624_u064a_u0629 u0020 u062e_u0627_u0635_u0629 u0020 u0644_u0647_u002e_u000d"
    ]
}