{
    "bounding_box": [
        [
            207, 
            35, 
            336, 
            37
        ], 
        [
            22, 
            155, 
            358, 
            43
        ], 
        [
            36, 
            200, 
            345, 
            46
        ], 
        [
            32, 
            255, 
            348, 
            35
        ], 
        [
            46, 
            301, 
            334, 
            41
        ], 
        [
            30, 
            343, 
            350, 
            47
        ]
    ], 
    "image_height": 540, 
    "image_width": 720, 
    "transcription": [
        "u0044_u0065_u006c_u0065_u0074_u0065_u0064 u0020 u0052_u0065_u0063_u006f_u0076_u0065_u0072_u0079", 
        "u0647_u064a u0020 u0627_u0644_u0637_u0631_u064a_u0642_u0629 u0020 u0627_u0644_u062a_u064a u0020 u062a_u0645_u0643_u0646_u0643 u0020 u0645_u0646_u0020", 
        "u0627_u0633_u062a_u0631_u062c_u0627_u0639 u0020 u0627_u0644_u0645_u0644_u0641_u0627_u062a u0020 u0627_u0644_u0645_u0641_u0642_u0648_u062f_u0629_u0020", 
        "u0645_u0646 u0020 u0627_u0644_u0642_u0631_u0635 u0020 u0627_u0644_u0635_u0644_u0628 u0020 u0627_u0644_u062e_u0627_u0635_u0020", 
        "u0628_u062c_u0647_u0627_u0632 u0020 u004d_u0061_u0063 u0020 u0648_u0627_u0644_u0630_u064a u0020 u064a_u0639_u0645_u0644_u0020", 
        "u0648_u0641_u0642 u0020 u0646_u0638_u0627_u0645 u0020 u0627_u0644_u0645_u0644_u0641_u0627_u062a u0020 u0048_u0046_u0053_u002b_u000d"
    ]
}