{
    "bounding_box": [
        [
            140, 
            13, 
            562, 
            25
        ], 
        [
            185, 
            42, 
            517, 
            25
        ], 
        [
            197, 
            95, 
            470, 
            46
        ], 
        [
            170, 
            150, 
            497, 
            46
        ], 
        [
            211, 
            201, 
            456, 
            45
        ], 
        [
            243, 
            262, 
            425, 
            36
        ], 
        [
            133, 
            311, 
            534, 
            49
        ]
    ], 
    "image_height": 540, 
    "image_width": 720, 
    "transcription": [
        "u0032_u002e u0020 u0623_u0633_u062a_u0645_u0639 u0020 u0625_u0644_u064a u0020 u0627_u0644_u0625_u0639_u0644_u0627_u0646 u0020 u0639_u0646 u0020 u0627_u0644_u0646_u0627_u062f_u064a u0020 u0627_u0644_u0635_u064a_u0641_u064a u0020 u002e u0020 u062b_u0645 u0020 u0623_u0642_u0631_u0623 u0020 u0627_u0644_u062c_u0645_u0644 u0020 u0627_u0644_u062a_u0627_u0644_u064a_u0629 u0020 u002c u0020 u0648_u0623_u062d_u062f_u062f_u0020", 
        "u0645_u062f_u064a u0020 u0635_u062d_u0629 u0020 u0648_u0631_u0648_u062f_u0647_u0627 u0020 u0641_u064a u0020 u0627_u0644_u0646_u0635 u0020 u0628_u0648_u0636_u0639 u0020 u062f_u0627_u0626_u0631_u0629 u0020 u062d_u0648_u0644 u0020 u0627_u0644_u0625_u0634_u0627_u0631_u0629 u0020 u0627_u0644_u0645_u0646_u0627_u0633_u0628_u0629 u0020 u003a_u0020", 
        "u0627_u0644_u0645_u062f_u0631_u0628_u0648_u0646 u0020 u0645_u062a_u062d_u0645_u0633_u0648_u0646 u0020 u0648 u0020 u0639_u0646_u062f_u0647_u0645 u0020 u062e_u0628_u0631_u0629 u0020 u0648_u0627_u0633_u0639_u0629 u0020 u002e u0020 u0020 u0020 u0020 u0020 u0020 u0020 u221a u0020 u0020 u0020 u00d7_u000d", 
        "u062a_u0648_u062c_u062f u0020 u0627_u0644_u0639_u062f_u064a_u062f u0020 u0645_u0646 u0020 u0627_u0644_u0646_u0634_u0627_u0637_u0627_u062a u0020 u0644_u0644_u0623_u0637_u0641_u0627_u0644 u0020 u0641_u064a u0020 u0647_u0630_u0627 u0020 u0627_u0644_u0646_u0627_u062f_u064a u0020 u002e u0020 u0020 u0020 u0020_u221a u0020 u0020 u0020 u00d7_u000d", 
        "u0646_u0644_u062a_u0632_u0645 u0020 u0627_u0644_u0622_u062f_u0627_u0628 u0020 u0627_u0644_u0625_u0633_u0644_u0627_u0645_u064a_u0629 u0020 u0641_u064a u0020 u0627_u0644_u062a_u0639_u0627_u0645_u0644 u0020 u0648 u0020 u0627_u0644_u0644_u0628_u0627_u0633 u0020 u002e u0020 u0020 u0020 u0020_u221a u0020 u0020 u0020 u00d7_u000d", 
        "u062a_u0648_u062c_u062f u0020 u062b_u0644_u0627_u062b_u0629 u0020 u0645_u0644_u0627_u0639_u0628 u0020 u0644_u0643_u0631_u0629 u0020 u0627_u0644_u0633_u0644_u0629 u0020 u0641_u064a u0020 u0627_u0644_u0646_u0627_u062f_u064a u0020 u0020_u002e u0020 u0020_u221a u0020 u0020 u0020 u00d7_u000d", 
        "u064a_u062a_u0648_u0627_u0641_u0631 u0020 u0641_u064a u0020 u0627_u0644_u0646_u0627_u062f_u064a u0020 u0631_u0643_u0648_u0628 u0020 u0627_u0644_u0632_u0648_u0627_u0631_u0642 u0020 u0627_u0644_u0635_u063a_u064a_u0631_u0629 u0020 u0644_u0645_u062d_u0628_u064a u0020 u0627_u0644_u0645_u063a_u0627_u0645_u0631_u0629 u0020 u002e u0020 u221a u0020 u0020_u00d7"
    ]
}