{
    "bounding_box": [
        [
            59, 
            36, 
            594, 
            25
        ], 
        [
            212, 
            63, 
            262, 
            25
        ], 
        [
            59, 
            126, 
            591, 
            24
        ], 
        [
            93, 
            152, 
            557, 
            22
        ], 
        [
            237, 
            175, 
            413, 
            22
        ], 
        [
            51, 
            201, 
            599, 
            24
        ], 
        [
            96, 
            227, 
            553, 
            22
        ], 
        [
            49, 
            254, 
            601, 
            23
        ], 
        [
            62, 
            279, 
            588, 
            22
        ], 
        [
            91, 
            302, 
            558, 
            22
        ], 
        [
            219, 
            325, 
            430, 
            21
        ]
    ], 
    "image_height": 540, 
    "image_width": 720, 
    "transcription": [
        "u0627_u0644_u0645_u0639_u064a_u0627_u0631 u0020 u0627_u0644_u062b_u0627_u0646_u064a_u003a u0020 u0627_u0644_u0645_u0639_u0627_u064a_u064a_u0631 u0020 u0627_u0644_u0623_u0643_u0627_u062f_u064a_u0645_u064a_u0629 u0020 u0648_u0645_u0639_u0627_u064a_u064a_u0631 u0020 u0627_u0644_u062c_u0648_u062f_u0629 u0020 u0641_u064a u0020 u0645_u0631_u0627_u062d_u0644 u0020 u062a_u0635_u0645_u064a_u0645_u0020", 
        "u0627_u0644_u0628_u0631_u0627_u0645_u062c u0020 u0648_u0627_u0639_u062a_u0645_u0627_u062f_u0647_u0627 u0020 u0648_u0645_u0631_u0627_u062c_u0639_u062a_u0647_u0627_u000d", 
        "u062a_u062d_u0631_u0635 u0020 u0627_u0644_u0645_u0624_u0633_u0633_u0629 u0020 u0627_u0644_u062a_u0639_u0644_u064a_u0645_u064a_u0629 u0020 u0639_u0644_u0649 u0020 u0627_u0646 u0020 u062a_u0643_u0648_u0646 u0020 u0627_u0644_u0645_u0639_u0627_u064a_u064a_u0631 u0020 u0627_u0644_u0623_u0643_u0627_u062f_u064a_u0645_u064a_u0629 u0020 u0644_u0644_u062f_u0631_u062c_u0627_u062a u0020 u0627_u0644_u0645_u0645_u0646_u0648_u062d_u0629_u0020", 
        "u0644_u0628_u0631_u0646_u0627_u0645_u062c u0020 u0627_u0644_u062a_u0639_u0644_u064a_u0645 u0020 u0627_u0644_u0627_u0644_u0643_u062a_u0631_u0648_u0646_u064a u0020 u002c u0020 u0645_u0643_u0627_u0641_u0626_u0629 u0020 u0644_u0644_u062f_u0631_u062c_u0627_u062a u0020 u0627_u0644_u062a_u064a u0020 u062a_u0645_u0646_u062d_u0647_u0627 u0020 u0627_u0644_u0645_u0624_u0633_u0633_u0629 u0020 u0628_u0627_u0644_u0637_u0631_u0642_u0020", 
        "u0627_u0644_u0645_u0639_u062a_u0627_u062f_u0629 u0020 u0648_u0645_u0644_u062a_u0632_u0645_u0629 u0020 u0628_u0627_u0644_u0636_u0648_u0627_u0628_u0637 u0020 u0648_u0627_u0644_u0645_u0639_u0627_u064a_u064a_u0631 u0020 u0627_u0644_u0645_u0639_u062a_u0645_u062f_u0629 u0020 u0641_u064a u0020 u0627_u0644_u0628_u0644_u062f_u002e_u000d", 
        "u062a_u062d_u0631_u0635 u0020 u0627_u0644_u0645_u0624_u0633_u0633_u0629 u0020 u0627_u0644_u062a_u0639_u0644_u064a_u0645_u064a_u0629 u0020 u0639_u0644_u0649 u0020 u0627_u0646_u0627 u0020 u062a_u0648_u0641_u0631 u0020 u0628_u0631_u0627_u0645_u062c u0020 u0627_u0644_u062a_u0639_u0644_u064a_u0645 u0020 u0627_u0644_u0627_u0644_u0643_u062a_u0631_u0648_u0646_u064a u0020 u0644_u0644_u0637_u0644_u0627_u0628 u0020 u0641_u0631_u0635_u0627_u0020", 
        "u0639_u0627_u062f_u0644_u0629 u0020 u0648_u0645_u0639_u0642_u0648_u0644_u0629 u0020 u0644_u0644_u0648_u0635_u0648_u0644 u0020 u0627_u0644_u0649 u0020 u0627_u0644_u0645_u0633_u062a_u0648_u064a_u0627_u062a u0020 u0627_u0644_u0645_u0637_u0644_u0648_u0628_u0629 u0020 u0644_u0627_u0646_u062c_u0627_u0632 u0020 u0645_u062a_u0637_u0644_u0628_u0627_u062a u0020 u0627_u0644_u062a_u062e_u0631_u062c_u002e_u000d", 
        "u062a_u062e_u0636_u0639 u0020 u0628_u0631_u0627_u0645_u062c u0020 u0627_u0644_u062a_u0639_u0644_u064a_u0645 u0020 u0627_u0644_u0627_u0644_u0643_u062a_u0631_u0648_u0646_u064a u0020 u0627_u0644_u0645_u0639_u062a_u0645_u062f_u0629 u0020 u0648_u0627_u0644_u0645_u0637_u0628_u0642_u0629 u0020 u0641_u064a u0020 u0627_u0644_u0645_u0624_u0633_u0633_u0629 u0020 u0644_u0639_u0645_u0644_u064a_u0627_u062a u0020 u0627_u0644_u0641_u062d_u0635_u0020", 
        "u0648_u0627_u0644_u0645_u0631_u0627_u062c_u0639_u0629 u0020 u0648_u0625_u0639_u0627_u062f_u0629 u0020 u0627_u0644_u0627_u0639_u062a_u0645_u0627_u062f u0020 u0628_u0634_u0643_u0644 u0020 u062f_u0648_u0631_u064a_u002e u0020 u0648_u0639_u0644_u0649 u0020 u0648_u062c_u0647 u0020 u0627_u0644_u062e_u0635_u0648_u0635 u0020 u064a_u062c_u0628 u0020 u0627_u0644_u062d_u0631_u0635_u0020", 
        "u0639_u0644_u0649 u0020 u0627_u0646_u0627 u0020 u062a_u0638_u0644 u0020 u0627_u0644_u0645_u0648_u0627_u062f u0020 u0627_u0644_u0639_u0644_u0645_u064a_u0629 u0020 u062d_u062f_u064a_u062b_u0629 u0020 u0648_u0630_u0627_u062a u0020 u0623_u0647_u0645_u064a_u0629 u0020 u0648_u0627_u0646 u0020 u064a_u062a_u0645 u0020 u062a_u062d_u0633_u064a_u0646 u0020 u0627_u0644_u0645_u0627_u062f_u0629 u0020 u0627_u0644_u0639_u0644_u0645_u064a_u0629_u0020", 
        "u0648_u0627_u0633_u062a_u0631_u0627_u062a_u064a_u062c_u064a_u0627_u062a u0020 u0627_u0644_u062a_u062f_u0631_u064a_u0633 u0020 u0648_u0627_u0644_u062a_u0642_u064a_u064a_u0645 u0020 u0628_u0646_u0627_u0621 u0020 u0639_u0644_u0649 u0020 u0627_u0644_u062a_u063a_u0630_u064a_u0647 u0020 u0627_u0644_u0631_u0627_u062c_u0639_u0629_u002e_u000d"
    ]
}