{
    "bounding_box": [
        [
            249, 
            40, 
            215, 
            15
        ], 
        [
            57, 
            56, 
            599, 
            20
        ], 
        [
            350, 
            90, 
            18, 
            2
        ], 
        [
            189, 
            293, 
            341, 
            69
        ]
    ], 
    "image_height": 540, 
    "image_width": 720, 
    "transcription": [
        "u0627_u0627_u0644_u0639_u062f_u0648_u0627_u0646 u0020 u0627_u0644_u0628_u064a_u0626_u064a u0020 u0627_u0644_u0625_u0633_u0631_u0627_u0626_u064a_u0644_u064a u0020 u0639_u0644_u0649 u0020 u0644_u0628_u0646_u0627_u0646_u000b", 
        "u0645_u0624_u062a_u0645_u0631 u0020 u0627_u0644_u062c_u0646_u0648_u0628 u0020 u0627_u0644_u0623_u0648_u0644_u003a u0020 u201d_u0627_u0644_u0627_u0639_u062a_u062f_u0627_u0621_u0627_u062a u0020 u0648_u0627_u0644_u062d_u0631_u0648_u0628 u0020 u0627_u0644_u0627_u0633_u0631_u0627_u0626_u064a_u0644_u064a_u0629 u0020 u0639_u0644_u0649 u0020 u0644_u0628_u0646_u0627_u0646 u0020 u0648_u0622_u062b_u0627_u0631_u0647_u0627 u0020 u0639_u0644_u0649 u0020 u0628_u0646_u064a_u0629 u0020 u0627_u0644_u0645_u062c_u062a_u0645_u0639 u0020 u0627_u0644_u0644_u0628_u0646_u0627_u0646_u064a_u201c_u000b", 
        "u002d_u002d_u002d", 
        "u0634_u0643_u0631_u0627 u0020 u0644_u0625_u0635_u063a_u0627_u0626_u0643_u0645"
    ]
}