{
    "bounding_box": [
        [
            275, 
            97, 
            245, 
            38
        ], 
        [
            250, 
            191, 
            283, 
            35
        ], 
        [
            174, 
            241, 
            436, 
            38
        ], 
        [
            248, 
            295, 
            297, 
            38
        ]
    ], 
    "image_height": 540, 
    "image_width": 720, 
    "transcription": [
        "u0648_u062a_u062a_u0628_u0627_u064a_u0646 u0020 u0627_u0644_u0646_u0638_u0631_u064a_u0627_u062a_u0020", 
        "u0628_u0627_u062e_u062a_u0644_u0627_u0641 u0020 u0627_u0644_u0647_u062f_u0641 u0020 u0645_u0646_u0647_u0627 u0020 u000d", 
        "u0643_u0627_u0644_u0646_u0638_u0631_u064a_u0627_u062a u0020 u0020_u0627_u0644_u0648_u0635_u0641_u064a_u0629 u0020 u0623_u0648 u0020 u0627_u0644_u062a_u062d_u0644_u064a_u0644_u064a_u0629 u0020 u000d", 
        "u0623_u0648 u0020 u0627_u0644_u0645_u0639_u064a_u0627_u0631_u064a_u0629 u0020 u0627_u0648 u0020 u0627_u0644_u0639_u0644_u0645_u064a_u0629_u0020"
    ]
}