{
    "bounding_box": [
        [
            182, 
            18, 
            354, 
            40
        ], 
        [
            569, 
            286, 
            105, 
            57
        ], 
        [
            569, 
            286, 
            105, 
            57
        ], 
        [
            569, 
            286, 
            105, 
            57
        ], 
        [
            569, 
            286, 
            105, 
            57
        ], 
        [
            453, 
            282, 
            88, 
            55
        ], 
        [
            453, 
            282, 
            88, 
            55
        ], 
        [
            453, 
            282, 
            88, 
            55
        ], 
        [
            328, 
            281, 
            85, 
            56
        ], 
        [
            328, 
            281, 
            85, 
            56
        ], 
        [
            328, 
            281, 
            85, 
            56
        ], 
        [
            200, 
            280, 
            81, 
            63
        ], 
        [
            200, 
            280, 
            81, 
            63
        ], 
        [
            200, 
            280, 
            81, 
            63
        ], 
        [
            77, 
            280, 
            71, 
            63
        ], 
        [
            77, 
            280, 
            71, 
            63
        ], 
        [
            77, 
            280, 
            71, 
            63
        ], 
        [
            184, 
            83, 
            468, 
            18
        ], 
        [
            42, 
            103, 
            610, 
            20
        ], 
        [
            351, 
            125, 
            302, 
            18
        ]
    ], 
    "image_height": 540, 
    "image_width": 720, 
    "transcription": [
        "u0642_u0648_u0627_u0639_u062f u0020 u062e_u0637_u0629 u0020 u0627_u0644_u0639_u0642_u062f u0020 u0627_u0644_u062e_u0645_u0633_u00a0", 
        "u0627_u0644_u0642_u0627_u0639_u062f_u0629 u0020 u0031_u003a u0020 u000d_u0625_u062f_u0627_u0631_u0629 u0020 u0634_u0624_u0648_u0646 u0020 u0627_u0644_u0633_u0644_u0627_u0645_u0629 u0020 u0639_u0644_u0649 u0020 u0627_u0644_u0637_u0631_u0642_u000d_u00a0", 
        "u0627_u0644_u0642_u0627_u0639_u062f_u0629 u0020 u0031_u003a u0020 u000d_u0625_u062f_u0627_u0631_u0629 u0020 u0634_u0624_u0648_u0646 u0020 u0627_u0644_u0633_u0644_u0627_u0645_u0629 u0020 u0639_u0644_u0649 u0020 u0627_u0644_u0637_u0631_u0642_u000d_u00a0", 
        "u0627_u0644_u0642_u0627_u0639_u062f_u0629 u0020 u0031_u003a u0020 u000d_u0625_u062f_u0627_u0631_u0629 u0020 u0634_u0624_u0648_u0646 u0020 u0627_u0644_u0633_u0644_u0627_u0645_u0629 u0020 u0639_u0644_u0649 u0020 u0627_u0644_u0637_u0631_u0642_u000d_u00a0", 
        "u0627_u0644_u0642_u0627_u0639_u062f_u0629 u0020 u0031_u003a u0020 u000d_u0625_u062f_u0627_u0631_u0629 u0020 u0634_u0624_u0648_u0646 u0020 u0627_u0644_u0633_u0644_u0627_u0645_u0629 u0020 u0639_u0644_u0649 u0020 u0627_u0644_u0637_u0631_u0642_u000d_u00a0", 
        "u0627_u0644_u0642_u0627_u0639_u062f_u0629 u0020 u0032_u003a u0020 u000d_u0637_u0631_u0642 u0020 u0648_u062a_u0646_u0642_u0651_u064f_u0644 u0020 u0623_u0643_u062b_u0631 u0020 u0623_u0645_u0646_u0627_u064b", 
        "u0627_u0644_u0642_u0627_u0639_u062f_u0629 u0020 u0032_u003a u0020 u000d_u0637_u0631_u0642 u0020 u0648_u062a_u0646_u0642_u0651_u064f_u0644 u0020 u0623_u0643_u062b_u0631 u0020 u0623_u0645_u0646_u0627_u064b", 
        "u0627_u0644_u0642_u0627_u0639_u062f_u0629 u0020 u0032_u003a u0020 u000d_u0637_u0631_u0642 u0020 u0648_u062a_u0646_u0642_u0651_u064f_u0644 u0020 u0623_u0643_u062b_u0631 u0020 u0623_u0645_u0646_u0627_u064b", 
        "u0627_u0644_u0642_u0627_u0639_u062f_u0629 u0020 u003a u0020 u0033 u0020 u0627_u0644_u0645_u0631_u0643_u0628_u0627_u062a u0020 u0627_u0644_u0623_u0643_u062b_u0631 u0020 u0623_u0645_u0646_u0627_u064b", 
        "u0627_u0644_u0642_u0627_u0639_u062f_u0629 u0020 u003a u0020 u0033 u0020 u0627_u0644_u0645_u0631_u0643_u0628_u0627_u062a u0020 u0627_u0644_u0623_u0643_u062b_u0631 u0020 u0623_u0645_u0646_u0627_u064b", 
        "u0627_u0644_u0642_u0627_u0639_u062f_u0629 u0020 u003a u0020 u0033 u0020 u0627_u0644_u0645_u0631_u0643_u0628_u0627_u062a u0020 u0627_u0644_u0623_u0643_u062b_u0631 u0020 u0623_u0645_u0646_u0627_u064b", 
        "u0627_u0644_u0642_u0627_u0639_u062f_u0629 u0020 u0034_u003a u0020 u0645_u0633_u062a_u062e_u062f_u0645_u0648 u0020 u0637_u0631_u0642 u0020 u0623_u0643_u062b_u0631 u0020 u0623_u0645_u0646_u0627_u064b", 
        "u0627_u0644_u0642_u0627_u0639_u062f_u0629 u0020 u0034_u003a u0020 u0645_u0633_u062a_u062e_u062f_u0645_u0648 u0020 u0637_u0631_u0642 u0020 u0623_u0643_u062b_u0631 u0020 u0623_u0645_u0646_u0627_u064b", 
        "u0627_u0644_u0642_u0627_u0639_u062f_u0629 u0020 u0034_u003a u0020 u0645_u0633_u062a_u062e_u062f_u0645_u0648 u0020 u0637_u0631_u0642 u0020 u0623_u0643_u062b_u0631 u0020 u0623_u0645_u0646_u0627_u064b", 
        "u0627_u0644_u0642_u0627_u0639_u062f_u0629 u0020 u0035_u003a u0020 u0627_u0644_u0627_u0633_u062a_u062c_u0627_u0628_u0629 u0020 u0628_u0639_u062f u0020 u0627_u0644_u062a_u0635_u0627_u062f_u0645", 
        "u0627_u0644_u0642_u0627_u0639_u062f_u0629 u0020 u0035_u003a u0020 u0627_u0644_u0627_u0633_u062a_u062c_u0627_u0628_u0629 u0020 u0628_u0639_u062f u0020 u0627_u0644_u062a_u0635_u0627_u062f_u0645", 
        "u0627_u0644_u0642_u0627_u0639_u062f_u0629 u0020 u0035_u003a u0020 u0627_u0644_u0627_u0633_u062a_u062c_u0627_u0628_u0629 u0020 u0628_u0639_u062f u0020 u0627_u0644_u062a_u0635_u0627_u062f_u0645", 
        "u0633_u062a_u0643_u0648_u0646 u0020 u0627_u0644_u0623_u0646_u0634_u0637_u0629 u0020 u0020_u0627_u0644_u0645_u0642_u062a_u0631_u062d_u0629 u0020 u0639_u0644_u0649 u0020 u0645_u062f_u0649 u0020 u0627_u0644_u0639_u0642_u062f u0020 u0639_u0644_u0649 u0020 u0627_u0644_u0635_u0639_u064a_u062f u0020 u0627_u0644_u0645_u062d_u0644_u064a u0020 u0648_u0627_u0644_u0625_u0642_u0644_u064a_u0645_u064a u0020 u0648_u0627_u0644_u0639_u0627_u0644_u0645_u064a_u000d", 
        "u064a_u062c_u0628 u0020 u0627_u062a_u062e_u0627_u0630 u0020 u0627_u0644_u062a_u062f_u0627_u0628_u064a_u0631 u0020 u0639_u0644_u0649 u0020 u0627_u0644_u0645_u0633_u062a_u0648_u0649 u0020 u0627_u0644_u0645_u062d_u0644_u064a u0020 u0648_u0627_u0644_u0648_u0637_u0646_u064a u0020 u0648_u0641_u064a u0020 u0633_u064a_u0627_u0642 u0020 u0627_u0644_u062a_u0631_u0643_u064a_u0628_u0629 u0020 u0627_u0644_u0642_u0627_u0646_u0648_u0646_u064a_u0629 u0020 u0644_u0644_u062d_u0643_u0648_u0645_u0627_u062a u0020 u0627_u0644_u0648_u0637_u0646_u064a_u0629 u0020 u0648_u0627_u0644_u0645_u062d_u0644_u064a_u0629 u0020 u000d", 
        "u064a_u0645_u0643_u0646 u0020 u0644_u0644_u0628_u0644_u062f_u0627_u0646 u0020 u062a_u0646_u0641_u064a_u0630 u0020 u0627_u0644_u0627_u0646_u0634_u0637_u0629 u0020 u0648_u0641_u0642_u0627_u064b u0020 u0644_u0644_u0642_u0648_u0627_u0639_u062f u0020 u0627_u0644_u062e_u0645_u0633 u0020 u0627_u0644_u062a_u0627_u0644_u064a_u0629_u002e"
    ]
}