{
    "bounding_box": [
        [
            233, 
            104, 
            425, 
            34
        ], 
        [
            389, 
            200, 
            300, 
            28
        ], 
        [
            379, 
            233, 
            310, 
            29
        ], 
        [
            88, 
            266, 
            593, 
            29
        ], 
        [
            545, 
            302, 
            144, 
            24
        ], 
        [
            156, 
            336, 
            526, 
            27
        ]
    ], 
    "image_height": 540, 
    "image_width": 720, 
    "transcription": [
        "u0642_u064a_u0627_u062f_u0629 u0020 u0637_u0627_u0644_u0648_u062a u0020 u0644_u0628_u0646_u064a u0020 u0625_u0633_u0631_u0627_u0626_u064a_u0644 u0020 u0031_u0030_u0032_u0035 u0020 u0642_u002e_u0645_u003a_u0020", 
        "u002d u0020 u0627_u062e_u062a_u0628_u0627_u0631_u0627_u062a u0020 u0637_u0627_u0644_u0648_u062a u0020 u0644_u0628_u0646_u064a u0020 u0625_u0633_u0631_u0627_u0626_u064a_u0644_u002e_u000d", 
        "u002d u0020 u062f_u0627_u0648_u0648_u062f u0020 u064a_u0642_u062a_u0644 u0020 u062c_u0627_u0644_u0648_u062a u0020 u0641_u064a u0020 u0627_u0644_u0645_u0639_u0631_u0643_u0629_u002e u0020 u000d", 
        "u002d u0020 u0648_u0641_u0627_u0629 u0020 u0637_u0627_u0644_u0648_u062a u0020 u0648_u062a_u0641_u0631_u0642 u0020 u0628_u0646_u064a u0020 u0625_u0633_u0631_u0627_u0626_u064a_u0644 u0020 u0648_u0627_u0646_u0643_u0627_u0631_u0647_u0645 u0020 u0644_u0645_u064a_u062b_u0627_u0642 u0020 u0637_u0627_u0644_u0648_u062a u0020 u0644_u062f_u0627_u0648_u0648_u062f_u0020", 
        "u0641_u0627_u0646_u0642_u0633_u0645_u0648_u0627 u0020 u0639_u0646_u0647_u002e u0020 u000d", 
        "u002d u0020 u0039_u0039_u0035 u0020 u0642_u002e_u0645 u0020 u062e_u0631_u062c u0020 u062f_u0627_u0648_u0648_u062f u0020 u0645_u0646 u0020 u0639_u0627_u0635_u0645_u062a_u0647 u0020 u0627_u0644_u062e_u0644_u064a_u0644 u0020 u0648_u0641_u062a_u062d u0020 u0627_u0644_u0642_u062f_u0633_u002e_u0020"
    ]
}