{
    "bounding_box": [
        [
            80, 
            167, 
            548, 
            169
        ]
    ], 
    "image_height": 540, 
    "image_width": 720, 
    "transcription": [
        "u0642_u0631_u0622_u0646 u0020 u0648 u0020 u0639_u0644_u0645"
    ]
}