{
    "bounding_box": [
        [
            165, 
            27, 
            372, 
            30
        ], 
        [
            97, 
            110, 
            549, 
            23
        ], 
        [
            101, 
            139, 
            545, 
            23
        ], 
        [
            459, 
            168, 
            187, 
            23
        ], 
        [
            422, 
            195, 
            188, 
            27
        ], 
        [
            338, 
            229, 
            272, 
            27
        ], 
        [
            200, 
            264, 
            409, 
            26
        ], 
        [
            288, 
            296, 
            322, 
            27
        ], 
        [
            249, 
            331, 
            361, 
            26
        ], 
        [
            413, 
            364, 
            197, 
            29
        ], 
        [
            403, 
            397, 
            206, 
            27
        ]
    ], 
    "image_height": 540, 
    "image_width": 720, 
    "transcription": [
        "u0647_u064a_u0643_u0644 u0020 u0627_u0644_u0647_u064a_u0626_u0629 u0020 u0627_u0644_u0642_u0648_u0645_u064a_u0629 u0020 u0644_u0644_u0643_u0647_u0631_u0628_u0627_u0621 u0020 u0032_u0030_u0030_u0033_u0645", 
        "u0628_u0639_u062f u0020 u062f_u0631_u0627_u0633_u0627_u062a u0020 u0648_u0644_u062c_u0627_u0646 u0020 u0648_u0648_u0636_u0639 u0020 u062a_u0648_u0635_u064a_u0627_u062a u0020 u0628_u0631_u0646_u0627_u0645_u062c u0020 u0627_u0644_u062a_u0637_u0648_u064a_u0631 u0020 u0627_u0644_u0639_u0627_u0645 u0020 u0641_u064a u0020 u0627_u0644_u0627_u0639_u062a_u0628_u0627_u0631_u062a_u0645_u0020", 
        "u0627_u0644_u062a_u0635_u062f_u064a_u0642 u0020 u0639_u0644_u064a u0020 u062a_u0639_u062f_u064a_u0644 u0020 u0647_u064a_u0643_u0644 u0020 u0627_u0644_u0647_u0626_u064a_u0629 u0020 u0627_u0644_u0642_u0648_u0645_u064a_u0629 u0020 u0644_u0644_u0643_u0647_u0631_u0628_u0627_u0621 u0020 u0644_u064a_u0643_u0648_u0646 u0020 u0645_u0646 u0020 u0627_u0644_u0645_u062f_u064a_u0631 u0020 u0627_u0644_u0639_u0627_u0645_u0020", 
        "u0648_u0633_u0628_u0639_u0629 u0020 u0627_u062f_u0627_u0631_u0627_u062a u0020 u0639_u0627_u0645_u0629 u0020 u0647_u064a_u000d", 
        "u0627_u0644_u0627_u062f_u0627_u0631_u0629 u0020 u0627_u0644_u0639_u0627_u0645_u0629 u0020 u0644_u0644_u062a_u0648_u0644_u064a_u062f_u000d", 
        "u0627_u0644_u0627_u062f_u0627_u0631_u0629 u0020 u0627_u0644_u0639_u0627_u0645_u0629 u0020 u0644_u0644_u0645_u0648_u0627_u0631_u062f u0020 u0627_u0644_u0628_u0634_u0631_u064a_u0629_u000d", 
        "u0627_u0644_u0627_u062f_u0627_u0631_u0629 u0020 u0627_u0644_u0639_u0627_u0645_u0629 u0020 u0644_u0644_u0646_u0642_u0644 u0020 u0648_u0627_u0644_u062a_u0634_u063a_u064a_u0644 u0020 u0648_u0627_u0644_u062e_u062f_u0645_u0627_u062a u0020 u0627_u0644_u0641_u0646_u064a_u0629_u000d", 
        "u0627_u0644_u0627_u062f_u0627_u0631_u0629 u0020 u0627_u0644_u0639_u0627_u0645_u0629_u0644_u0644_u062a_u062e_u0637_u064a_u0637 u0020 u0648_u0627_u0644_u0645_u0634_u0631_u0648_u0639_u0627_u062a_u000d", 
        "u0627_u0644_u0627_u062f_u0627_u0631_u0629 u0020 u0627_u0644_u0639_u0627_u0645_u0629 u0020 u0644_u0644_u0634_u0626_u0648_u0646 u0020 u0627_u0644_u0645_u0627_u0644_u064a_u0629 u0020 u0648_u0627_u0644_u0627_u0645_u062f_u0627_u062f_u0627_u062a_u000d", 
        "u0627_u0644_u0627_u062f_u0627_u0631_u0629 u0020 u0627_u0644_u0639_u0627_u0645_u0629 u0020 u0644_u0644_u062a_u0648_u0632_u064a_u0639_u000d", 
        "u0627_u0644_u0627_u062f_u0627_u0631_u0629 u0020 u0627_u0644_u0639_u0627_u0645_u0629 u0020 u0644_u0644_u0645_u0628_u064a_u0639_u0627_u062a_u000b"
    ]
}