{
    "bounding_box": [
        [
            82, 
            53, 
            608, 
            37
        ], 
        [
            361, 
            93, 
            340, 
            35
        ], 
        [
            56, 
            140, 
            634, 
            35
        ], 
        [
            436, 
            182, 
            266, 
            31
        ], 
        [
            9, 
            223, 
            681, 
            36
        ], 
        [
            53, 
            262, 
            637, 
            43
        ], 
        [
            41, 
            306, 
            649, 
            45
        ], 
        [
            595, 
            352, 
            106, 
            37
        ]
    ], 
    "image_height": 540, 
    "image_width": 720, 
    "transcription": [
        "u0020 u0020 u064a_u0631_u0649 u0020 u0647_u0630_u0627 u0020 u0627_u0644_u0645_u0646_u0647_u062c u0020 u0623_u0646 u0020 u0627_u0644_u0639_u0627_u0645_u0644 u0020 u0627_u0644_u0627_u0642_u062a_u0635_u0627_u062f_u064a u0020 u0647_u0648 u0020 u0627_u0644_u0645_u062d_u0631_u0651_u0643 u0020 u0627_u0644_u0623_u0633_u0627_u0633_u0020", 
        "u0648_u0627_u0644_u062c_u0648_u0647_u0631_u064a u0020 u0644_u0644_u0623_u0641_u0631_u0627_u062f u0020 u0648_u0627_u0644_u062c_u0645_u0627_u0639_u0627_u062a u0020 u002e u0020 u000d", 
        "u0020_u0627_u0644_u062c_u0627_u0646_u0628 u0020 u0627_u0644_u0627_u0642_u062a_u0635_u0627_u062f_u064a u0020 u0645_u0646 u0020 u0627_u0644_u062d_u064a_u0627_u0629 u0020 u0627_u0644_u0645_u0627_u062f_u064a_u0629 u0020 u0644_u0647 u0020 u0623_u062b_u0631_u0647 u0020 u0627_u0644_u0643_u0628_u064a_u0631 u0020 u0641_u064a u0020 u0627_u0644_u062a_u0643_u0648_u064a_u0646_u0020", 
        "u0627_u0644_u0639_u0642_u0644_u064a u0020 u0648_u0627_u0644_u062e_u0644_u0642_u064a u0020 u0644_u0644_u0625_u0646_u0633_u0627_u0646 u0020 u002e u0020 u000d", 
        "u0020_u062a_u0631_u062a_u0642_u064a u0020 u0627_u0644_u0645_u0627_u062f_u0629 u0020 u0641_u064a u0020 u0645_u0641_u0647_u0648_u0645 u0020 u0627_u0644_u0641_u0643_u0631 u0020 u0627_u0644_u0645_u0627_u062f_u064a u0020 u0627_u0644_u0634_u064a_u0648_u0639_u064a u0020 u0625_u0644_u0649 u0020 u0645_u0631_u062a_u0628_u0629 u0020 u0627_u0644_u0623_u0644_u0648_u0647_u064a_u0629 u0020 u002e_u000d", 
        "u0020_u0627_u0644_u0645_u0627_u062f_u0629 u0020 u0647_u064a u0020 u0627_u0644_u0625_u0644_u0647 u0020 u002c u0020 u0648_u0647_u064a u0020 u062a_u062e_u0644_u0642 u0020 u0627_u0644_u0639_u0642_u0648_u0644 u0020 u0648_u0627_u0644_u0623_u062f_u064a_u0627_u0646 u0020 u0648_u0627_u0644_u0641_u0644_u0633_u0641_u0627_u062a u0020 u002e u0020 u0020 u0020 u0020 u0020 u0020_u000d", 
        "u0020_u064a_u062a_u0628_u0639 u0020 u0647_u0630_u0627 u0020 u0627_u0644_u0645_u0646_u0647_u062c u0020 u0641_u064a u0020 u0627_u0644_u062a_u0641_u0643_u064a_u0631 u0020 u0648_u0627_u0644_u062a_u062d_u0644_u064a_u0644 u0020 u0648_u0627_u0644_u0646_u0642_u062f u0020 u0627_u0644_u0645_u062f_u0631_u0633_u0629 u0020 u0627_u0644_u0627_u0633_u062a_u0634_u0631_u0627_u0642_u064a_u0629_u0020", 
        "u0627_u0644_u0634_u064a_u0648_u0639_u064a_u0629 u0020 u002e"
    ]
}