{
    "bounding_box": [
        [
            121, 
            157, 
            502, 
            43
        ], 
        [
            140, 
            214, 
            459, 
            29
        ], 
        [
            57, 
            253, 
            625, 
            30
        ]
    ], 
    "image_height": 540, 
    "image_width": 720, 
    "transcription": [
        "u0627_u0644_u062a_u062d_u0627_u0642 u0020 u0627_u0644_u0623_u062d_u062f_u0627_u062b u0020 u0648_u0627_u0644_u0634_u0628_u0627_u0646 u0020 u0627_u0644_u0645_u0646_u062d_u0631_u0641_u064a_u0646_u000d", 
        "u0645_u0630_u0643_u0631_u0629 u0020 u0631_u0642_u0645 u0020 u0020_u0030_u0039_u0627_u0644_u0635_u0627_u062f_u0631_u0629 u0020 u0628_u062a_u0627_u0631_u064a_u062e_u003a u0020 u0031_u0038 u0020 u064a_u0646_u0627_u064a_u0631 u0020 u0031_u0039_u0038_u0034 u0020 u000d", 
        "u0628_u0634_u0623_u0646 u0020 u0020_u0627_u0644_u062a_u062d_u0627_u0642 u0020 u0627_u0644_u0623_u062d_u062f_u0627_u062b u0020 u0648_u0627_u0644_u0634_u0628_u0627_u0646 u0020 u0627_u0644_u0645_u0646_u062d_u0631_u0641_u064a_u0646 u0020 u0628_u0645_u0624_u0633_u0633_u0627_u062a u0020 u0627_u0644_u062a_u0639_u0644_u064a_u0645 u0020 u0627_u0644_u0639_u0645_u0648_u0645_u064a_u000d"
    ]
}