{
    "bounding_box": [
        [
            32, 
            23, 
            670, 
            49
        ], 
        [
            26, 
            125, 
            672, 
            31
        ], 
        [
            26, 
            205, 
            672, 
            26
        ], 
        [
            26, 
            277, 
            672, 
            26
        ], 
        [
            32, 
            348, 
            672, 
            27
        ], 
        [
            209, 
            517, 
            36, 
            10
        ], 
        [
            678, 
            521, 
            5, 
            7
        ]
    ], 
    "image_height": 540, 
    "image_width": 720, 
    "transcription": [
        "u0645_u0627_u0645_u0639_u0646_u0649 u0020 u0644_u063a_u0629 u0020 u0627_u0644_u062c_u0633_u062f u0020 u061f u0020 u000b", 
        "u0644_u063a_u0629 u0020 u0627_u0644_u062c_u0633_u062f u0020 u064a_u0645_u0643_u0646 u0020 u0623_u0646 u0020 u062a_u0643_u0648_u0646 u0020 u0644_u063a_u0629 u0020 u0627_u0644_u062d_u0648_u0627_u0631 u0020 u0627_u0644_u0648_u062d_u064a_u062f_u0629 u0020 u0627_u0644_u062a_u064a u0020 u0645_u0646_u062d_u0647_u0627 u0020 u0627_u0644_u0644_u0647 u0020 u0633_u0628_u062d_u0627_u0646_u0647 u0020 u0648_u062a_u0639_u0627_u0644_u064a u0020 u0644_u0644_u0628_u0634_u0631_u0020", 
        "u0641_u0647_u0649 u0020 u0627_u0644_u0637_u0631_u064a_u0642_u0629 u0020 u0627_u0644_u0648_u062d_u064a_u062f_u0629 u0020 u0627_u0644_u062a_u064a u0020 u064a_u0645_u0643_u0646 u0020 u0623_u0646 u0020 u064a_u062a_u0641_u0627_u0647_u0645 u0020 u0628_u0647_u0627 u0020 u0634_u062e_u0635_u064a_u0646 u0020 u0645_u062e_u062a_u0644_u0641_u064a_u0646 u0020 u0627_u0644_u0644_u063a_u0629 u0020 u0641_u064a_u0633_u0647_u0644 u0020 u0639_u0644_u0649 u0020 u0643_u0644_u0020", 
        "u0645_u0646_u0647_u0645_u0627 u0020 u0641_u0647_u0645 u0020 u0627_u0644_u0623_u062e_u0631 u0020 u0628_u0627_u0644_u0623_u0634_u0627_u0631_u0627_u062a u0020 u0648_u062a_u0639_u0628_u064a_u0631 u0020 u0627_u0644_u0648_u062c_u0647_u002e u0020 u0641_u0623_u0646_u062a u0020 u062a_u0633_u062a_u0637_u064a_u0639 u0020 u0628_u0633_u0647_u0648_u0644_u0629 u0020 u0623_u0646 u0020 u062a_u0634_u0639_u0631 u0020 u0647_u0644 u0020 u0627_u0644_u0634_u062e_u0635_u0020", 
        "u0627_u0644_u0630_u064a u0020 u0623_u0645_u0627_u0645_u0643 u0020 u062d_u0632_u064a_u0646_u064b_u0627 u0020 u0623_u0645 u0020 u0633_u0639_u064a_u062f_u0623_u060c u0020 u062e_u0627_u0626_u0641_u064b_u0627 u0020 u0623_u0645 u0020 u063a_u0627_u0636_u0628_u064b_u0627 u0020 u000b", 
        "u0644_u063a_u0629 u0020 u0627_u0644_u062c_u0633_u062f", 
        "u0033"
    ]
}