{
    "bounding_box": [
        [
            218, 
            52, 
            223, 
            42
        ], 
        [
            80, 
            130, 
            533, 
            27
        ], 
        [
            72, 
            160, 
            511, 
            25
        ], 
        [
            71, 
            188, 
            512, 
            25
        ], 
        [
            384, 
            216, 
            199, 
            25
        ], 
        [
            57, 
            244, 
            526, 
            25
        ], 
        [
            394, 
            273, 
            189, 
            25
        ], 
        [
            38, 
            306, 
            575, 
            26
        ], 
        [
            418, 
            336, 
            164, 
            24
        ], 
        [
            58, 
            361, 
            555, 
            33
        ], 
        [
            509, 
            397, 
            74, 
            25
        ]
    ], 
    "image_height": 540, 
    "image_width": 720, 
    "transcription": [
        "u0641_u0648_u0627_u0626_u062f u0020 u0627_u0644_u0646_u062e_u064a_u0644", 
        "u0036_u002d_u0627_u0644_u0628_u0644_u062d u0020 u062c_u064a_u062f u0020 u0644_u0644_u062b_u0629 u0020 u0627_u0644_u0623_u0633_u0646_u0627_u0646 u0020 u0648_u0647_u0648 u0020 u0645_u062f_u0631_u0627_u0644_u0628_u0648_u0644 u0020 u0028_u0627_u0628_u0646 u0020 u0633_u064a_u0646_u0627_u0029_u0020", 
        "u0648_u0647_u0648 u0020 u0635_u0627_u0644_u062d u0020 u0644_u0644_u0635_u062f_u0631 u0020 u0648_u0627_u0644_u0631_u0626_u0629 u0020 u0648_u0627_u0644_u0645_u0639_u064a u0020 u0028_u0627_u0628_u0646 u0020 u0627_u0644_u0628_u064a_u0637_u0627_u0631_u0029_u062a_u0645_u062f u0020 u000b", 
        "u0037_u002d u0020 u0644_u0644_u062a_u0645_u0631 u0020 u0627_u0644_u0639_u062f_u064a_u062f u0020 u0645_u0646 u0020 u0627_u0644_u0645_u0646_u0627_u0641_u0639 u0020 u0648_u0627_u0644_u0627_u0633_u062a_u062e_u062f_u0627_u0645_u0627_u062a u0020 u0627_u0644_u0637_u0628_u064a_u0629_u0020", 
        "u0646_u0648_u062c_u0632_u0647_u0627 u0020 u0641_u064a_u0645_u0627 u0020 u064a_u0644_u064a_u003a u0020 u000b", 
        "u0031_u002e u0020 u0627_u0644_u0642_u0636_u0627_u0621 u0020 u0639_u0644_u0649 u0020 u0627_u0644_u0625_u0645_u0633_u0627_u0643 u0020 u2013_u0627_u0644_u0628_u0648_u0627_u0633_u064a_u0631_u002d_u0627_u0644_u062a_u0647_u0627_u0628 u0020 u0627_u0644_u0642_u0648_u0644_u0648_u0646_u002d", 
        "u0627_u0644_u062a_u0633_u0645_u0645 u0020 u0627_u0644_u063a_u0630_u0627_u0626_u064a_u002d_u000d", 
        "u0639_u0644_u0627_u062c u0020 u0627_u0644_u0628_u0637_u0646_u002d u0020 u0627_u0644_u062f_u0648_u0627_u0631_u002d_u064a_u0646_u0642_u064a u0020 u0627_u0644_u0643_u0628_u062f_u002d u0020 u0641_u064a u0020 u0627_u0631_u062a_u0641_u0627_u0639 u0020 u0636_u063a_u0637 u0020 u0627_u0644_u062f_u0645 u0020 u2013_u0020", 
        "u0645_u0631_u0636 u0020 u0627_u0644_u0633_u0631_u0637_u0627_u0646_u000d", 
        "u0038_u002d u0020 u0641_u064a u0020 u062a_u0633_u064a_u064a_u064a_u0631 u0020 u0639_u0645_u0644_u064a_u0629 u0020 u0627_u0644_u0648_u0644_u0627_u062f_u0629 u0020 u0644_u0644_u062d_u0648_u0627_u0645_u0644 u0020 u002e_u002e_u002e_u002e u0020 u0648_u063a_u064a_u0631_u0647_u0627 u0020 u0645_u0646_u0020", 
        "u0627_u0644_u0641_u0648_u0627_u0626_u062f_u000d"
    ]
}