{
    "bounding_box": [
        [
            37, 
            38, 
            639, 
            38
        ], 
        [
            36, 
            91, 
            640, 
            43
        ], 
        [
            335, 
            139, 
            340, 
            48
        ], 
        [
            56, 
            209, 
            620, 
            42
        ], 
        [
            271, 
            255, 
            405, 
            45
        ], 
        [
            94, 
            324, 
            582, 
            43
        ], 
        [
            475, 
            376, 
            201, 
            43
        ], 
        [
            32, 
            434, 
            644, 
            49
        ], 
        [
            49, 
            485, 
            627, 
            50
        ], 
        [
            43, 
            539, 
            632, 
            47
        ]
    ], 
    "image_height": 540, 
    "image_width": 720, 
    "transcription": [
        "u002a_u002a u0020 u0628_u0633_u0627_u062a_u064a_u0646 u0020 u0627_u0644_u0632_u064a_u062a_u0648_u0646 u0020 u003a u0020 u0632_u0631_u0627_u0639_u0629 u0020 u0627_u0644_u0632_u064a_u062a_u0648_u0646 u0020 u0628_u0627_u0644_u0645_u0646_u0627_u0637_u0642_u0020", 
        "u0627_u0644_u062a_u064a u0020 u0644_u0627 u0020 u064a_u0648_u062c_u062f u0020 u0628_u0647_u0627 u0020 u0645_u0646_u0627_u062e u0020 u0628_u062d_u0631 u0020 u0645_u062a_u0648_u0633_u0637_u002e u0020 u0028 u0020 u0627_u0644_u0645_u0648_u0637_u0646_u0020", 
        "u0627_u0644_u0623_u0635_u0644_u064a u0020 u0644_u0646_u0645_u0648 u0020 u0627_u0644_u0632_u064a_u062a_u0648_u0646_u0029 u0020 u002e_u000d", 
        "u002a_u002a u0020 u0632_u0631_u0627_u0639_u0647 u0020 u0627_u0644_u0641_u0644_u0641_u0644 u0020 u0648_u0627_u0644_u0628_u0646_u062f_u0648_u0631_u0647 u0020 u0628_u0627_u0644_u062f_u0641_u064a_u0626_u0627_u062a u0020 u003a u0020 u062a_u0632_u0631_u0639_u0020", 
        "u0628_u0627_u0644_u0639_u0631_u0628_u0627 u0020 u0648_u062a_u064f_u0633_u0642_u0649 u0020 u0628_u0645_u064a_u0627_u0647 u0020 u0645_u0643_u0631_u0631_u0647 u0020 u002e_u000d", 
        "u002a_u002a u0020 u0627_u0644_u062a_u0639_u0627_u0645_u0644 u0020 u0645_u0639 u0020 u0646_u0642_u0635 u0020 u0627_u0644_u0645_u064a_u0627_u0647 u0020 u0028 u0020 u0627_u0644_u062a_u0646_u0642_u064a_u0637 u0020 u002c u0020 u0645_u064a_u0627_u0647_u0020", 
        "u0645_u0633_u062a_u0635_u0644_u062d_u0647 u0020 u0029 u0020 u002e_u000d", 
        "u002a_u002a u0020 u062a_u0631_u0628_u064a_u0629 u0020 u0645_u0648_u0627_u0634_u064a u0020 u003a u0020 u0645_u0648_u0627_u0634_u064a u0020 u0623_u0644_u0623_u0628_u0627_u0646 u0020 u002c u0020 u0623_u0628_u0642_u0627_u0631 u0020 u0644_u0644_u062d_u0648_u0645_u0020", 
        "u002c u0020 u062f_u0648_u0627_u062c_u0646 u0020 u0648_u0643_u0627_u0626_u0646_u0627_u062a u0020 u0645_u0627_u0626_u064a_u0647 u0020 u0020_u0028 u0020 u0623_u0642_u064a_u0645_u062a u0020 u0628_u0631_u0643 u0020 u0627_u0633_u0645_u0627_u0643_u0020", 
        "u0628_u0645_u0646_u0637_u0642_u0629 u0020 u0627_u0644_u0639_u0631_u0628_u0627 u0020 u0648_u0623_u062f_u062e_u0644_u062a u0020 u0625_u0644_u064a_u0647_u0627 u0020 u0645_u064a_u0627_u0647 u0020 u0645_u0627_u0644_u062d_u0647 u0020 u0648_u062d_u0627_u0631_u0647_u0020"
    ]
}