{
    "bounding_box": [
        [
            686, 
            9, 
            10, 
            13
        ], 
        [
            370, 
            84, 
            312, 
            29
        ], 
        [
            442, 
            172, 
            151, 
            22
        ], 
        [
            391, 
            252, 
            252, 
            16
        ], 
        [
            337, 
            317, 
            306, 
            18
        ], 
        [
            213, 
            378, 
            431, 
            19
        ], 
        [
            308, 
            441, 
            335, 
            17
        ]
    ], 
    "image_height": 540, 
    "image_width": 720, 
    "transcription": [
        "u0031", 
        "u062a_u0627_u0631_u064a_u062e u0020 u0627_u0644_u0644_u063a_u0629 u0020 u0627_u0644_u0633_u0648_u0645_u0631_u064a_u0629 u0020 u0020_u0648 u0020 u0627_u0646_u062a_u0634_u0627_u0631_u0647_u0627_u0020", 
        "u0623_u0648_u0644_u0622 u0020 u003a u0020 u0627_u0644_u0639_u0635_u0631 u0020 u0627_u0644_u0633_u0648_u0645_u0631_u064a_u0020", 
        "u0031_u002e_u0627_u0644_u0645_u0631_u062d_u0644_u0629 u0020 u0627_u0644_u0627_u0631_u0643_u0627_u0626_u064a_u0629 u0020 u0028 u0020 u0033_u0030_u0030_u0030_u002d_u0032_u0036_u0030_u0030 u0020 u0642_u002e_u0645 u0020 u0029_u0020", 
        "u0032_u002e_u0627_u0644_u0645_u0631_u062d_u0644_u0629 u0020 u0627_u0644_u0633_u0648_u0645_u0631_u064a_u0629 u0020 u0627_u0644_u0642_u062f_u064a_u0645_u0629 u0020 u0028 u0020 u0032_u0036_u0030_u0030_u002d_u0032_u0033_u0035_u0030 u0020 u0642_u002e_u0645 u0020 u0029 u0020 u003a_u0020", 
        "u0033_u002e u0020 u0627_u0644_u0645_u0631_u062d_u0644_u0629 u0020 u0627_u0644_u0633_u0631_u062c_u0648_u0646_u064a_u0629 u0020 u0648 u0020 u062d_u0642_u0628_u0629 u0020 u0627_u0644_u0627_u062d_u062a_u0644_u0627_u0644 u0020 u0627_u0644_u0643_u0648_u062a_u064a u0020 u0028 u0020 u0032_u0033_u0035_u0030 u0020 u2013 u0020 u0032_u0031_u0034_u0030 u0020 u0642_u002e_u0645_u002e u0020 u0029 u0020 u002e", 
        "u0034_u002e u0020 u0627_u0644_u0645_u0631_u062d_u0644_u0629 u0020 u0627_u0644_u0633_u0648_u0645_u0631_u064a_u0629 u0020 u0627_u0644_u062d_u062f_u064a_u062b_u0629 u0020 u0028 u0020 u0032_u0031_u0034_u0030 u0020 u2013 u0020 u0032_u0030_u0032_u0030 u0020 u0642_u002e_u0645_u002e u0020 u0029 u0020 u003a_u0020"
    ]
}