{
    "bounding_box": [
        [
            65, 
            180, 
            630, 
            25
        ], 
        [
            181, 
            211, 
            514, 
            23
        ]
    ], 
    "image_height": 540, 
    "image_width": 720, 
    "transcription": [
        "u0020_u0625_u0646_u0647 u0020 u0635_u0644_u0649 u0020 u0627_u0644_u0644_u0647 u0020 u0639_u0644_u064a_u0647 u0020 u0648_u0633_u0644_u0645 u0020 u064a_u063a_u0644_u0642 u0020 u0020 u0020 u0020_u0623_u0628_u0648_u0627_u0628 u0020 u0627_u0644_u062a_u0637_u0631_u0641_u002e_u062d_u062a_u0649 u0020 u0648_u0644_u0648 u0020 u0643_u0627_u0646 u0020 u0627_u0644_u062a_u0637_u0631_u0641 u0020 u0641_u064a u0020 u0627_u0644_u0639_u0628_u0627_u062f_u0627_u062a_u060c_u0648_u0644_u0642_u062f u0020 u0639_u0644_u0645_u0647_u0645 u0020 u0623_u0646 u0020 u0627_u0644_u0644_u0647_u0020", 
        "u0633_u0628_u062d_u0627_u0646_u0647 u0020 u062d_u064a_u0646_u0645_u0627 u0020 u0634_u0631_u0639 u0020 u0627_u0644_u0639_u0628_u0627_u062f_u0627_u062a u0020 u062c_u0639_u0644_u0647_u0627 u0020 u0648_u0633_u0627_u0626_u0644 u0020 u0644_u062a_u0647_u0630_u064a_u0628 u0020 u0627_u0644_u0646_u0641_u0633_u060c_u0644_u0627 u0020 u0644_u062a_u0639_u0630_u064a_u0628_u0647_u0627 u0020 u002e_u0020"
    ]
}