{
    "bounding_box": [
        [
            235, 
            26, 
            274, 
            40
        ], 
        [
            425, 
            118, 
            261, 
            24
        ], 
        [
            426, 
            149, 
            260, 
            23
        ], 
        [
            322, 
            177, 
            364, 
            24
        ], 
        [
            496, 
            207, 
            190, 
            23
        ], 
        [
            314, 
            233, 
            373, 
            24
        ], 
        [
            435, 
            262, 
            252, 
            22
        ], 
        [
            158, 
            291, 
            529, 
            25
        ], 
        [
            219, 
            322, 
            468, 
            23
        ], 
        [
            101, 
            349, 
            586, 
            25
        ]
    ], 
    "image_height": 540, 
    "image_width": 720, 
    "transcription": [
        "u0646_u0638_u0627_u0645 u0020 u0627_u0644_u0645_u0644_u0641_u0627_u062a u0020 u004e_u0054_u0046_u0053", 
        "u0031_u002d u0020 u0020_u064a_u062f_u0639_u0645 u0020 u0623_u0633_u0645_u0627_u0621 u0020 u0627_u0644_u0645_u0644_u0641_u0627_u062a u0020 u0627_u0644_u0637_u0648_u064a_u0644_u0629 u0020 u000b", 
        "u0020_u0032_u002d u0020 u062d_u062c_u0645 u0020 u0627_u0644_u0640 u0020 u0043_u006c_u0075_u0073_u0074_u0065_u0072_u0635_u063a_u064a_u0631 u0020 u062c_u062f_u0627 u0020 u000b", 
        "u0020_u0033_u002d u0020 u0644_u0627 u0020 u064a_u062a_u0623_u062b_u0631 u0020 u0623_u062f_u0627_u0621 u0020 u0627_u0644_u0642_u0631_u0635 u0020 u0628_u062d_u062c_u0645 u0020 u0627_u0644_u0640 u0020 u0050_u0061_u0072_u0074_u0069_u0074_u0069_u006f_u006e u0020 u000b", 
        "u0020_u0034_u002d u0020 u064a_u062f_u0639_u0645 u0020 u0636_u063a_u0637 u0020 u0627_u0644_u0645_u0644_u0641_u0627_u062a u0020 u000b", 
        "u0020_u0034_u002d u0020 u064a_u062f_u0639_u0645 u0020 u0639_u0632_u0644 u0020 u0627_u0644_u0640 u0020 u0042_u0061_u0064 u0020 u0043_u006c_u0075_u0073_u0074_u0065_u0072_u0073 u0020 u0623_u0648_u062a_u0648_u0645_u0627_u062a_u064a_u0643_u064a_u0627_u064b u0020 u000b", 
        "u0648_u0644_u0643_u0646 u0020 u0627_u064a_u0636_u0627_u064b u0020 u0647_u0646_u0627_u0643 u0020 u0628_u0639_u0636 u0020 u0627_u0644_u0645_u0634_u0627_u0643_u0644_u0021_u000b", 
        "u0031_u002d u0020 u0020_u0627_u0646_u0647 u0020 u0644_u0627 u0020 u064a_u062f_u0639_u0645 u0020 u0633_u0648_u0649 u0020 u0627_u0646_u0638_u0645_u0629 u0020 u0627_u0644_u062a_u0634_u063a_u064a_u0644 u0020 u0057_u0069_u006e_u0064_u006f_u0077_u0073 u0020 u004e_u0054_u002c u0020 u0032_u0030_u0030_u0030_u002c u0020 u0058_u0050_u000b", 
        "u0032_u002d u0020 u0020_u0644_u0627 u0020 u064a_u0633_u062a_u062d_u0633_u0646 u0020 u0627_u0633_u062a_u062e_u062f_u0627_u0645_u0647 u0020 u0645_u0639 u0020 u0627_u0644_u0627_u0642_u0631_u0627_u0635 u0020 u0627_u0644_u062a_u064a u0020 u062a_u0642_u0644 u0020 u0034_u0030_u0030 u0020 u004d_u0042 u0020 u000b", 
        "u0033_u002d u0020 u0020_u0644_u0627 u0020 u064a_u0645_u0643_u0646 u0020 u0627_u0646 u0020 u064a_u062a_u0645 u0020 u0639_u0645_u0644 u0020 u0046_u006f_u0072_u006d_u0061_u0074 u0020 u0644_u0640 u0020 u0046_u006c_u006f_u0070_u0070_u0079 u0020 u0623_u0648 u0020 u005a_u0069_u0070 u0020 u0064_u0072_u0069_u0076_u0065 u0020 u0628_u0647_u0630_u0627 u0020 u0627_u0644_u0646_u0638_u0627_u0645 u0020 u002e"
    ]
}