{
    "bounding_box": [
        [
            316, 
            86, 
            378, 
            33
        ], 
        [
            521, 
            182, 
            133, 
            30
        ], 
        [
            480, 
            265, 
            175, 
            31
        ], 
        [
            482, 
            350, 
            172, 
            28
        ], 
        [
            21, 
            503, 
            15, 
            10
        ], 
        [
            198, 
            500, 
            58, 
            9
        ]
    ], 
    "image_height": 540, 
    "image_width": 720, 
    "transcription": [
        "u0645_u0647_u0645 u0020 u062a_u0631_u064a_u0646 u0020 u0627_u0647_u062f_u0627_u0641 u0020 u0646_u0638_u0627_u0645 u0020 u0628_u0627_u0632_u0627_u0631_u064a_u0627_u0628_u064a_u003a", 
        "u062c_u0630_u0628 u0020 u0645_u0634_u062a_u0631_u064a_u000d", 
        "u0646_u06af_u0647_u062f_u0627_u0631_u064a u0020 u0645_u0634_u062a_u0631_u064a_u000d", 
        "u0631_u0634_u062f u0020 u062f_u0627_u062f_u0646 u0020 u0645_u0634_u062a_u0631_u064a", 
        "u0033_u0030", 
        "u0041_u002e_u0045_u0062_u0072_u0061_u0068_u0069_u006d_u0069"
    ]
}