{
    "bounding_box": [
        [
            250, 
            116, 
            219, 
            30
        ], 
        [
            136, 
            207, 
            450, 
            25
        ], 
        [
            115, 
            253, 
            53, 
            21
        ]
    ], 
    "image_height": 540, 
    "image_width": 720, 
    "transcription": [
        "u0635_u0627_u062d_u0628 u0020 u0627_u0644_u062c_u0646_u062a_u064a_u0646_u0020", 
        "u0020_u0648_u0647_u0648 u0020 u0631_u062c_u0644 u0020 u0622_u062a_u0627_u0647 u0020 u0627_u0644_u0644_u0647 u0020 u0645_u0627_u0644_u0627 u0020 u0641_u0643_u0641_u0631 u0020 u0628_u0623_u0646_u0639_u0645 u0020 u0627_u0644_u0644_u0647 u0020 u0648_u0623_u0646_u0643_u0631 u0020 u0627_u0644_u0628_u0639_u062b u0020 u0641_u0623_u0647_u0644_u0643 u0020 u0627_u0644_u0644_u0647_u0020", 
        "u0627_u0644_u062c_u0646_u062a_u064a_u0646"
    ]
}