{
    "bounding_box": [
        [
            203, 
            51, 
            395, 
            65
        ], 
        [
            54, 
            102, 
            564, 
            32
        ], 
        [
            201, 
            139, 
            417, 
            29
        ], 
        [
            67, 
            218, 
            551, 
            30
        ], 
        [
            71, 
            255, 
            547, 
            27
        ], 
        [
            271, 
            288, 
            347, 
            27
        ], 
        [
            73, 
            364, 
            545, 
            32
        ], 
        [
            73, 
            401, 
            545, 
            29
        ], 
        [
            248, 
            436, 
            370, 
            27
        ]
    ], 
    "image_height": 540, 
    "image_width": 720, 
    "transcription": [
        "u0639_u0644_u0645 u0020 u0627_u0644_u0646_u0641_u0633 u0020 u0627_u0644_u0639_u0627_u0645 u0020 u003a_u002d", 
        "u0647_u0648 u0020 u0627_u0644_u0639_u0644_u0645 u0020 u0627_u0644_u0630_u064a u0020 u064a_u062e_u062a_u0635 u0020 u0628_u062f_u0631_u0627_u0633_u0629 u0020 u0627_u0644_u0633_u0644_u0648_u0643 u0020 u0627_u0644_u0625_u0646_u0633_u0627_u0646_u064a u0020 u0648_u0639_u0644_u0627_u0642_u062a_u0647 u0020 u0628_u0627_u0644_u0628_u064a_u0626_u0629_u0020", 
        "u0627_u0644_u0645_u062d_u064a_u0637_u0629 u0020 u0645_u0646 u0020 u062e_u0644_u0627_u0644 u0020 u0627_u0644_u0637_u0631_u064a_u0642_u0629 u0020 u0627_u0644_u0639_u0644_u0645_u064a_u0629 u0020 u0641_u064a u0020 u0627_u0644_u0628_u062d_u062b u0020 u002e_u000d", 
        "u0648_u062a_u062a_u0641_u0631_u0639 u0020 u0639_u0646 u0020 u0639_u0644_u0645 u0020 u0627_u0644_u0646_u0641_u0633 u0020 u0627_u0644_u0639_u0627_u0645 u0020 u0641_u0631_u0648_u0639 u0020 u0643_u062b_u064a_u0631_u0629 u0020 u062a_u0632_u064a_u062f u0020 u064a_u0648_u0645_u0627_u064b u0020 u0628_u0639_u062f u0020 u064a_u0648_u0645 u0020 u060c_u0020", 
        "u0643_u0639_u0644_u0645 u0020 u0627_u0644_u0646_u0641_u0633 u0020 u0627_u0644_u0627_u062c_u062a_u0645_u0627_u0639_u064a u0020 u060c u0020 u0648_u0639_u0644_u0645 u0020 u0627_u0644_u0646_u0641_u0633 u0020 u0627_u0644_u062a_u0631_u0628_u0648_u064a u0020 u060c u0020 u0648_u0639_u0644_u0645 u0020 u0627_u0644_u0646_u0641_u0633_u0020", 
        "u0627_u0644_u062d_u0631_u0628_u064a u0020 u0648_u0627_u0644_u0635_u0646_u0627_u0639_u064a u0020 u0648_u0627_u0644_u0625_u062f_u0627_u0631_u064a u0020 u0648_u063a_u064a_u0631_u0647_u0627 u0020 u002e_u000d", 
        "u0627_u062e_u062a_u0635_u0627_u0635 u0020 u0639_u0644_u0645 u0020 u0627_u0644_u0646_u0641_u0633 u0020 u0643_u0628_u064a_u0631 u0020 u0648_u0648_u0627_u0633_u0639 u0020 u0648 u0020 u0645_u0645_u0627 u0020 u064a_u062f_u0644 u0020 u0639_u0644_u0649 u0020 u0623_u0647_u0645_u064a_u062a_u0647 u0020 u0623_u0646_u0020", 
        "u0644_u0641_u0638 u0020 u00ab u0020 u0627_u0644_u0646_u0641_u0633 u0020 u00bb u0020 u0630_u064f_u0643_u0631_u062a u0020 u0641_u064a u0020 u0627_u0644_u0642_u0631_u0622_u0646 u0020 u0627_u0644_u0643_u0631_u064a_u0645 u0020 u0020_u0032_u0039_u0035 u0020 u0645_u0631_u0629 u0020 u060c u0020 u0645_u0627 u0020 u0628_u064a_u0646_u0020", 
        "u0627_u0644_u0645_u0639_u0631_u0641 u0020 u0648_u063a_u064a_u0631 u0020 u0627_u0644_u0645_u0639_u0631_u0641 u0020 u0648_u0627_u0644_u0645_u0641_u0631_u062f u0020 u0648_u0627_u0644_u062c_u0645_u0639 u0020 u002e_u000d"
    ]
}