{
    "bounding_box": [
        [
            642, 
            128, 
            51, 
            33
        ], 
        [
            192, 
            168, 
            501, 
            32
        ], 
        [
            63, 
            204, 
            621, 
            34
        ], 
        [
            616, 
            244, 
            77, 
            28
        ], 
        [
            46, 
            282, 
            638, 
            33
        ], 
        [
            592, 
            319, 
            101, 
            33
        ], 
        [
            149, 
            359, 
            544, 
            33
        ], 
        [
            232, 
            396, 
            452, 
            34
        ], 
        [
            634, 
            398, 
            59, 
            22
        ], 
        [
            259, 
            436, 
            425, 
            33
        ], 
        [
            224, 
            47, 
            288, 
            38
        ]
    ], 
    "image_height": 540, 
    "image_width": 720, 
    "transcription": [
        "u0627_u0641_u0647_u0645_u000d", 
        "u062a_u0642_u0641 u0020 u0644_u064a_u0644_u0649 u0020 u0648_u0646_u0648_u0627_u0644 u0020 u0648_u0647_u062f_u0649 u0020 u0641_u064a u0020 u0627_u0644_u0627_u0635_u0637_u0641_u0627_u0641 u0020 u0627_u0644_u0645_u062f_u0631_u0633_u064a u0020 u000d", 
        "u064a_u0632_u064a_u062f u0020 u0639_u062f_u062f u0020 u0627_u0644_u0637_u0627_u0644_u0628_u0627_u062a u0020 u0627_u0644_u0644_u0627_u062a_u064a u0020 u0623_u0645_u0627_u0645 u0020 u0644_u064a_u0644_u0649 u0020 u0639_u0644_u0649 u0020 u0627_u0644_u0644_u0627_u062a_u064a u0020 u0623_u0645_u0627_u0645 u0020 u0646_u0648_u0627_u0644 u0020 u0628_u0640_u0033_u0020", 
        "u0637_u0627_u0644_u0628_u0627_u062a_u000d", 
        "u064a_u0628_u0644_u063a u0020 u0639_u062f_u062f u0020 u0627_u0644_u0637_u0627_u0644_u0628_u0627_u062a u0020 u0627_u0644_u0644_u0627_u062a_u064a u0020 u0623_u0645_u0627_u0645 u0020 u0647_u062f_u0649 u0020 u0636_u0639_u0641 u0020 u0639_u062f_u062f u0020 u0627_u0644_u0637_u0627_u0644_u0628_u0627_u062a u0020 u0627_u0644_u0644_u0627_u062a_u064a_u0020", 
        "u0623_u0645_u0627_u0645 u0020 u0646_u0648_u0627_u0644_u000d", 
        "u0020_u0645_u062c_u0645_u0648_u0639 u0020 u0639_u062f_u062f u0020 u0627_u0644_u0637_u0627_u0644_u0628_u0627_u062a u0020 u0627_u0644_u0644_u0627_u062a_u064a u0020 u064a_u0642_u0641_u0646 u0020 u0623_u0645_u0627_u0645_u0647_u0646 u0020 u0031_u0031 u0020 u0637_u0627_u0644_u0628_u0629_u000d", 
        "u0627_u0644_u0645_u0637_u0644_u0648_u0628_u003a u0020 u0639_u062f_u062f u0020 u0627_u0644_u0637_u0627_u0644_u0628_u0627_u062a u0020 u0627_u0644_u0644_u0627_u062a_u064a u0020 u0623_u0645_u0627_u0645 u0020 u0643_u0644 u0020 u0645_u0646_u0647_u0646", 
        "u062e_u0637_u0637_u000d", 
        "u0623_u0645_u062b_u0644 u0020 u0627_u0644_u0645_u0633_u0623_u0644_u0629 u0020 u0628_u0627_u0633_u062a_u062e_u062f_u0627_u0645 u0020 u0627_u0644_u0637_u0627_u0644_u0628_u0627_u062a u0020 u0648_u0627_u0644_u0646_u0645_u0627_u0630_u062c_u0020", 
        "u062e_u0637_u0629_u0028_u0627_u0633_u062a_u0631_u0627_u062a_u064a_u062c_u064a_u0629_u0029 u0020 u0627_u0644_u062a_u0645_u062b_u064a_u0644"
    ]
}