{
    "bounding_box": [
        [
            437, 
            85, 
            433, 
            46
        ], 
        [
            470, 
            151, 
            387, 
            25
        ], 
        [
            445, 
            188, 
            413, 
            25
        ], 
        [
            426, 
            224, 
            432, 
            25
        ], 
        [
            497, 
            260, 
            361, 
            28
        ], 
        [
            355, 
            293, 
            503, 
            28
        ]
    ], 
    "image_height": 540, 
    "image_width": 960, 
    "transcription": [
        "u0627_u0644_u0633_u0648_u0642 u0020 u0627_u0644_u063a_u0631_u0628_u064a_u0629 u0020 u0644_u0644_u0645_u0637_u0648_u0631 u0020 u0627_u0644_u0639_u0631_u0628_u064a", 
        "u0625_u062a_u0627_u062d_u0629 u0020 u0627_u0644_u0633_u0648_u0642 u0020 u0627_u0644_u063a_u0631_u0628_u064a_u0629 u0020 u0646_u0639_u0645_u0629 u0020 u0644_u0644_u0645_u0637_u0648_u0631_u064a_u0646 u0020 u0627_u0644_u0639_u0631_u0628_u000d", 
        "u062a_u0637_u0648_u064a_u0631 u0020 u0627_u0644_u0642_u062f_u0631_u0627_u062a u0020 u0627_u0644_u0639_u0631_u0628_u064a_u0629 u0020 u0645_u0646 u0020 u062e_u0644_u0627_u0644 u0020 u0645_u0646_u0627_u0641_u0633_u0629 u0020 u0639_u0646_u064a_u0641_u0629_u000d", 
        "u0638_u0647_u0648_u0631 u0020 u0630_u0648_u064a u0020 u0627_u0644_u0642_u062f_u0631_u0627_u062a u0020 u0627_u0644_u0641_u0627_u0626_u0642_u0629 u0020 u0645_u0646 u0020 u0627_u0644_u0645_u0637_u0648_u0631_u064a_u0646 u0020 u0627_u0644_u0639_u0631_u0628_u000d", 
        "u0628_u0639_u0636_u0647_u0645 u0020 u062a_u0631_u0634_u062d u0020 u0644_u0646_u064a_u0644 u0020 u062c_u0648_u0627_u0626_u0632 u0020 u0641_u064a u0020 u0627_u0644_u0645_u0624_u062a_u0645_u0631_u0627_u062a_u000d", 
        "u0628_u0627_u0633_u062a_u062b_u0646_u0627_u0621 u0020 u062a_u062c_u0631_u0628_u0629 u0020 u0648_u0627_u062d_u062f_u0629_u002e_u002e_u002e u0020 u0627_u0644_u0623_u0644_u0639_u0627_u0628 u0020 u0627_u0644_u0639_u0631_u0628_u064a_u0629 u0020 u062a_u0639_u062a_u0628_u0631 u0020 u00ab_u0635_u063a_u064a_u0631_u0629_u00bb"
    ]
}