{
    "bounding_box": [
        [
            365, 
            497, 
            14, 
            8
        ], 
        [
            36, 
            62, 
            621, 
            23
        ], 
        [
            36, 
            89, 
            622, 
            24
        ], 
        [
            439, 
            118, 
            219, 
            22
        ], 
        [
            36, 
            194, 
            640, 
            24
        ], 
        [
            91, 
            222, 
            585, 
            25
        ], 
        [
            219, 
            260, 
            457, 
            22
        ], 
        [
            36, 
            335, 
            640, 
            25
        ], 
        [
            412, 
            364, 
            264, 
            24
        ]
    ], 
    "image_height": 540, 
    "image_width": 720, 
    "transcription": [
        "u0032_u0035", 
        "u002d u0020 u0644_u0642_u062f u0020 u062a_u0631_u062a_u0628 u0020 u0639_u0644_u0649 u0020 u0647_u0630_u0627 u0020 u0627_u0644_u0647_u064a_u0643_u0644 u0020 u0627_u0644_u062a_u0646_u0638_u064a_u0645_u0649 u0020 u0643_u062b_u064a_u0631 u0020 u0645_u0646 u0020 u0627_u0644_u0645_u0634_u0643_u0644_u0627_u062a u0020 u060c u0020 u0639_u0643_u0633_u062a u0020 u0646_u0641_u0633_u0647_u0627 u0020 u0641_u0649_u0020", 
        "u0627_u0644_u062f_u0631_u062c_u0629 u0020 u0627_u0644_u0645_u0637_u0644_u0648_u0628_u0629 u0020 u0645_u0646 u0020 u0641_u0627_u0639_u0644_u064a_u0629 u0020 u0627_u0644_u0623_u062f_u0627_u0621 u0020 u060c u0020 u0648_u062a_u0646_u0627_u0645_u0649 u0020 u0625_u062d_u0633_u0627_u0633 u0020 u0644_u062f_u0649 u0020 u0643_u062b_u064a_u0631 u0020 u0645_u0646 u0020 u0627_u0644_u0639_u0627_u0645_u0644_u064a_u0646 u0020 u0628_u0639_u062f_u0645_u0020", 
        "u0627_u0644_u0639_u062f_u0627_u0644_u0629 u0020 u0627_u0644_u0648_u0638_u064a_u0641_u064a_u0629 u0020 u0648_u0627_u0644_u0645_u0627_u0644_u064a_u0629 u0020 u002e u0020 u0020_u000d", 
        "u0020_u002d u0020 u0648_u0642_u062f u0020 u064a_u0641_u064a_u062f u0020 u0641_u0649 u0020 u0627_u0644_u0645_u0631_u062d_u0644_u0629 u0020 u0627_u0644_u062c_u062f_u064a_u062f_u0629 u0020 u0020_u002d u0020 u0625_u0630_u0627 u0020 u0643_u0646_u0627 u0020 u062c_u0627_u062f_u064a_u0646 u0020 u062d_u0642_u0627 u0020 u0641_u0649 u0020 u0645_u062d_u0627_u0631_u0628_u0629 u0020 u0627_u0644_u0641_u0633_u0627_u062f u0020 u0648_u0648_u0642_u0641_u0020", 
        "u0632_u062d_u0641_u0647 u0020 u0627_u0644_u0645_u062f_u0645_u0631 u0020 u002d u0020 u0020_u0623_u0646 u0020 u0646_u0639_u064a_u062f u0020 u0627_u0644_u0628_u0646_u0627_u0621 u0020 u0627_u0644_u062a_u0646_u0638_u064a_u0645_u0649 u0020 u0628_u0645_u0627 u0020 u064a_u0639_u0632_u0632 u0020 u0625_u0633_u062a_u0642_u0644_u0627_u0644_u064a_u0629 u0020 u0627_u0644_u062c_u0647_u0627_u0632 u0020 u0648_u064a_u062d_u0635_u0646 u0020 u000d", 
        "u0627_u0644_u0639_u0627_u0645_u0644_u064a_u0646 u0020 u0641_u064a_u0647 u0020 u0636_u062f u0020 u0645_u062d_u0627_u0648_u0644_u0627_u062a u0020 u0627_u0644_u0636_u063a_u0637 u0020 u0623_u0648 u0020 u0627_u0644_u062a_u0631_u0647_u064a_u0628 u0020 u0623_u0648 u0020 u0627_u0644_u0623_u063a_u0631_u0627_u0621 u0020 u002e u0020 u000d", 
        "u002d u0020 u0020_u0644_u0630_u0627 u0020 u0641_u0642_u062f u0020 u064a_u0643_u0648_u0646 u0020 u0645_u0646 u0020 u0627_u0644_u0645_u0646_u0627_u0633_u0628 u0020 u0627_u0644_u0628_u062f_u0627_u064a_u0629 u0020 u0645_u0646 u0020 u0628_u0646_u0627_u0621 u0020 u062c_u0645_u0639_u064a_u0629 u0020 u0639_u0645_u0648_u0645_u064a_u0629 u0020 u0642_u0627_u062f_u0631_u0629 u0020 u0639_u0644_u0649 u0020 u0627_u0644_u0635_u0645_u0648_u062f_u0020", 
        "u0623_u0645_u0627_u0645 u0020 u0627_u0644_u062a_u062d_u062f_u064a_u0627_u062a u0020 u0639_u0644_u0649 u0020 u0627_u0644_u0646_u062d_u0648 u0020 u0627_u0644_u062a_u0627_u0644_u0649 u0020 u003a u0020 u000d"
    ]
}