{
    "bounding_box": [
        [
            49, 
            248, 
            637, 
            34
        ], 
        [
            275, 
            298, 
            202, 
            34
        ]
    ], 
    "image_height": 540, 
    "image_width": 720, 
    "transcription": [
        "u0645_u0634_u0631_u0648_u0639 u0020 u0645_u062c_u0627_u0646_u0633_u0629 u0020 u0627_u0644_u062a_u0634_u0631_u064a_u0639_u0627_u062a u0020 u0627_u0644_u0633_u064a_u0628_u0631_u0627_u0646_u064a_u0629 u0020 u0644_u062a_u062d_u0641_u064a_u0632 u0020 u0645_u062c_u062a_u0645_u0639 u0020 u0627_u0644_u0645_u0639_u0631_u0641_u0629_u0020", 
        "u0641_u064a u0020 u0627_u0644_u0645_u0646_u0637_u0642_u0629 u0020 u0627_u0644_u0639_u0631_u0628_u064a_u0629_u000b"
    ]
}