{
    "bounding_box": [
        [
            169, 
            26, 
            416, 
            38
        ], 
        [
            19, 
            78, 
            660, 
            30
        ], 
        [
            25, 
            148, 
            640, 
            27
        ], 
        [
            25, 
            178, 
            640, 
            28
        ], 
        [
            177, 
            213, 
            487, 
            29
        ], 
        [
            25, 
            255, 
            640, 
            30
        ], 
        [
            25, 
            291, 
            640, 
            29
        ], 
        [
            25, 
            324, 
            640, 
            30
        ], 
        [
            25, 
            357, 
            640, 
            30
        ], 
        [
            25, 
            390, 
            640, 
            31
        ], 
        [
            85, 
            424, 
            580, 
            29
        ], 
        [
            21, 
            503, 
            15, 
            11
        ]
    ], 
    "image_height": 540, 
    "image_width": 720, 
    "transcription": [
        "u0628_u0639_u0636 u0020 u0627_u0644_u0645_u0628_u0627_u062f_u0631_u0627_u062a u0020 u0627_u0644_u0639_u0631_u0628_u064a_u0629", 
        "u002a u0020 u0627_u0644_u0633_u0639_u0648_u062f_u064a_u0629_u003a u0020 u062c_u0627_u0621_u062a u0020 u0627_u0644_u0633_u0639_u0648_u062f_u064a_u0629 u0020 u0641_u064a u0020 u0627_u0644_u0645_u0631_u062a_u0628_u0629 u0020 u0627_u0644_u0633_u0627_u0628_u0639_u0629 u0020 u0639_u0627_u0644_u0645_u064a_u0627 u0020 u0641_u064a u0020 u0627_u0644_u062a_u0639_u0644_u064a_u0645 u0020 u0627_u0644_u0639_u0627_u0644_u064a u0020 u000d", 
        "u0648_u0636_u0639_u062a u0020 u0645_u062c_u0644_u0629 u0020 u0627_u0644_u0627_u064a_u0643_u0648_u0646_u0648_u0645_u0633_u062a u0020 u0627_u0644_u0645_u0645_u0644_u0643_u0629 u0020 u0627_u0644_u0639_u0631_u0628_u064a_u0629 u0020 u0627_u0644_u0633_u0639_u0648_u062f_u064a_u0629 u0020 u0641_u064a u0020 u0627_u0644_u0645_u0631_u0643_u0632 u0020 u0627_u0644_u0633_u0627_u0628_u0639_u0020", 
        "u0645_u062a_u0642_u062f_u0645_u0629 u0020 u0639_u0644_u0649 u0020 u0641_u0631_u0646_u0633_u0627 u0020 u0648_u0631_u0648_u0633_u064a_u0627 u0020 u0648_u0627_u064a_u0637_u0627_u0644_u064a_u0627 u0020 u0648_u0627_u0633_u0628_u0627_u0646_u064a_u0627 u0020 u0648_u0645_u0627_u0644_u064a_u0632_u064a_u0627 u0020 u0648_u0628_u0644_u062f_u0627_u0646 u0020 u0623_u062e_u0631_u0649 u0020 u0643_u062b_u064a_u0631_u0629_u0020", 
        "u0641_u064a u0020 u0645_u062c_u0627_u0644 u0020 u0627_u0644_u062a_u0639_u0644_u064a_u0645 u0020 u0627_u0644_u0639_u0627_u0644_u064a u0020 u0648_u0627_u0644_u0628_u062d_u062b u0020 u0627_u0644_u0639_u0644_u0645_u064a u0020 u0648_u0647_u0630_u0627 u0020 u064a_u0631_u062c_u0639 u0020 u0625_u0644_u0649 u0020 u003a_u000d", 
        "u221a u0020 u0627_u0644_u0645_u0628_u0627_u0644_u063a u0020 u0627_u0644_u0645_u062e_u0635_u0635_u0629 u0020 u0644_u0644_u0625_u0646_u0641_u0627_u0642 u0020 u0639_u0644_u0649 u0020 u0627_u0644_u0637_u0644_u0627_u0628 u0020 u0641_u064a u0020 u0645_u062c_u0627_u0644 u0020 u0627_u0644_u062a_u0639_u0644_u064a_u0645 u0020 u0627_u0644_u0639_u0627_u0644_u064a_u002e_u000b", 
        "u221a_u0646_u0633_u0628_u0629 u0020 u0645_u062e_u0635_u0635_u0627_u062a u0020 u0627_u0644_u062a_u0639_u0644_u064a_u0645 u0020 u0627_u0644_u0639_u0627_u0644_u064a u0020 u0641_u064a u0020 u0627_u0644_u0645_u0648_u0627_u0632_u0646_u0629 u0020 u0627_u0644_u0639_u0627_u0645_u0629_u002e_u000b", 
        "u221a u0020 u0645_u062c_u0645_u0648_u0639 u0020 u0639_u062f_u062f u0020 u0627_u0644_u0637_u0644_u0627_u0628 u0020 u0627_u0644_u0645_u0628_u062a_u0639_u062b_u064a_u0646 u0020 u062e_u0627_u0631_u062c_u064a_u0627_u060c u0020 u0648_u0639_u062f_u062f u0020 u0645_u0639_u0627_u0647_u062f u0020 u0625_u062f_u0627_u0631_u0629 u0020 u0627_u0644_u0623_u0639_u0645_u0627_u0644_u002e_u000b", 
        "u221a u0020 u0625_u0637_u0644_u0627_u0642 u0020 u062c_u0627_u0645_u0639_u0629 u0020 u0627_u0644_u0645_u0644_u0643 u0020 u0639_u0628_u062f_u0627_u0644_u0644_u0647 u0020 u0644_u0644_u0639_u0644_u0648_u0645 u0020 u0648_u0627_u0644_u062a_u0643_u0646_u0648_u0644_u0648_u062c_u064a_u0627 u0020 u004b_u0041_u0055_u0053_u0054 u0020 u0020_u0641_u064a u0020 u0623_u064a_u0644_u0648_u0644_u002f_u0020", 
        "u0633_u0628_u062a_u0645_u0628_u0631 u0020 u0032_u0030_u0030_u0039 u0020 u0648_u0647_u064a u0020 u062c_u0627_u0645_u0639_u0629 u0020 u062f_u0648_u0644_u064a_u0629 u0020 u0644_u0644_u0623_u0628_u062d_u0627_u062b u0020 u0639_u0644_u0649 u0020 u0645_u0633_u062a_u0648_u0649 u0020 u0627_u0644_u062f_u0631_u0627_u0633_u0627_u062a u0020 u0627_u0644_u0639_u0644_u064a_u0627_u0020", 
        "u0641_u064a u0020 u0627_u0644_u0645_u0645_u0644_u0643_u0629 u0020 u0627_u0644_u0639_u0631_u0628_u064a_u0629 u0020 u0627_u0644_u0633_u0639_u0648_u062f_u064a_u0629_u060c u0020 u0648_u0628_u0648_u0642_u0641 u0020 u064a_u0628_u0644_u063a u0020 u0031_u0030 u0020 u0645_u0644_u064a_u0627_u0631 u0020 u062f_u0648_u0644_u0627_u0631 u0020 u0623_u0645_u0631_u064a_u0643_u064a_u002e", 
        "u0038_u0037"
    ]
}