{
    "bounding_box": [
        [
            60, 
            128, 
            607, 
            15
        ], 
        [
            68, 
            153, 
            579, 
            14
        ], 
        [
            46, 
            177, 
            601, 
            15
        ], 
        [
            54, 
            203, 
            593, 
            15
        ], 
        [
            536, 
            230, 
            111, 
            13
        ], 
        [
            593, 
            250, 
            74, 
            14
        ], 
        [
            60, 
            267, 
            607, 
            15
        ], 
        [
            54, 
            284, 
            593, 
            13
        ], 
        [
            48, 
            298, 
            599, 
            13
        ], 
        [
            53, 
            312, 
            594, 
            13
        ], 
        [
            54, 
            327, 
            593, 
            13
        ], 
        [
            347, 
            341, 
            300, 
            13
        ], 
        [
            423, 
            358, 
            244, 
            14
        ], 
        [
            65, 
            376, 
            602, 
            15
        ], 
        [
            78, 
            392, 
            569, 
            13
        ], 
        [
            66, 
            407, 
            581, 
            13
        ], 
        [
            70, 
            421, 
            577, 
            13
        ], 
        [
            569, 
            436, 
            78, 
            13
        ], 
        [
            219, 
            48, 
            281, 
            43
        ]
    ], 
    "image_height": 540, 
    "image_width": 720, 
    "transcription": [
        "u0643_u0627_u0646 u0020 u0627_u0644_u0639_u0631_u0628 u0020 u0645_u0646 u0020 u0627_u0633_u0628_u0642 u0020 u0627_u0644_u0634_u0639_u0648_u0628 u0020 u0641_u064a u0020 u0627_u0644_u0639_u0646_u0627_u064a_u0629 u0020 u0628_u0627_u0628_u0646_u0627_u0626_u0647_u0645 u0020 u0648_u062a_u0646_u0634_u0626_u062a_u0647_u0645 u0020 u0644_u064a_u0634_u0628_u0648_u0627 u0020 u0627_u0635_u062d_u0627_u0621 u0020 u0627_u0642_u0648_u064a_u0627_u0621 u0020 u0627_u0644_u0627_u062c_u0633_u0627_u0645 u0020 u0633_u0644_u064a_u0645_u064a u0020 u0627_u0644_u0628_u0646_u064a_u0629 u0020 u062d_u064a_u062b u0020 u0627_u0646 u0020 u0646_u0628_u064a_u0646_u0627 u0020 u0645_u062d_u0645_u062f u0020 u0635_u0644_u0649 u0020 u0627_u0644_u0644_u0644_u0647_u0020", 
        "u0639_u0644_u064a_u0647 u0020 u0648_u0627_u0644_u0647 u0020 u0648_u0633_u0644_u0645 u0020 u0642_u0636_u0649 u0020 u062d_u064a_u0627_u062a_u0647 u0020 u0627_u0644_u0627_u0648_u0644_u0649 u0020 u0641_u064a u0020 u0627_u0644_u0628_u0627_u062f_u064a_u0629 u0020 u0639_u0646_u062f u0020 u0645_u0631_u0636_u0639_u062a_u0647 u0020 u062d_u0644_u064a_u0645_u0629 u0020 u0627_u0644_u0633_u0639_u062f_u064a_u0629 u0020 u062d_u064a_u062b u0020 u0643_u0627_u0646_u062a u0020 u0627_u0644_u0639_u0627_u062f_u0629 u0020 u0639_u0646_u062f u0020 u0627_u0644_u0639_u0631_u0628 u0020 u0627_u0631_u0633_u0627_u0644 u0020 u0627_u0648_u0644_u0627_u062f_u0647_u0645 u0020 u0627_u0644_u0649_u0020", 
        "u0627_u0644_u0628_u0627_u062f_u064a_u0629 u0020 u0644_u062a_u0639_u0644_u0645 u0020 u0641_u0635_u0627_u062d_u0629 u0020 u0627_u0644_u0644_u063a_u0629 u0020 u0648_u0627_u0644_u0641_u0631_u0648_u0633_u064a_u0629 u0020 u0648_u0627_u0644_u0645_u0628_u0627_u0631_u0632_u0629 u0020 u0648_u0627_u0644_u0634_u062c_u0627_u0639_u0629 u0020 u0648_u0627_u0644_u0627_u0639_u062a_u0645_u0627_u062f u0020 u0639_u0644_u0649 u0020 u0627_u0644_u0646_u0641_u0633 u0020 u0644_u062a_u0642_u0648_u0649 u0020 u0627_u062c_u0633_u0627_u0645_u0647_u0645 u0020 u0648_u062a_u0634_u062a_u062f u0020 u0627_u0639_u0635_u0627_u0628_u0647_u0645 u0020 u0648_u0642_u062f u0020 u0628_u0631_u0639 u0020 u0627_u0644_u0639_u0631_u0628_u0020", 
        "u0641_u064a u0020 u0641_u0646 u0020 u0627_u0642_u062a_u0641_u0627_u0621 u0020 u0627_u0644_u0627_u062b_u0631 u0020 u0648_u0645_u0646 u0020 u0647_u0646_u0627 u0020 u0627_u0643_u062a_u0634_u0641 u0020 u0627_u0633_u0645 u0020 u0627_u0644_u0643_u0634_u0627_u0641_u0629 u0020 u0648_u0645_u0646_u0647_u0645 u0020 u0645_u0646 u0020 u0628_u0644_u063a u0020 u0641_u064a u0020 u0641_u0646 u0020 u0627_u0644_u0641_u0631_u0627_u0633_u0629 u0020 u0645_u0628_u0644_u063a_u0627 u0020 u0639_u0638_u064a_u0645_u0627 u0020 u0641_u0643_u0627_u0646 u0020 u0627_u062d_u062f_u0647_u0645 u0020 u064a_u0646_u0638_u0631 u0020 u0627_u0644_u0649 u0020 u0627_u0644_u0645_u0631_u0621 u0020 u0641_u064a_u0639_u0631_u0641_u0020", 
        "u0645_u0647_u0646_u062a_u0647 u0020 u0633_u064a_u0645_u0627_u0647 u0020 u0648_u0645_u0644_u0627_u0645_u062d_u0647 u0020 u002e_u000d", 
        "u0642_u0628_u0627_u0626_u0644 u0020 u0627_u0644_u0632_u0648_u0644_u0648 u0020 u003a u0020 u000d", 
        "u0648_u0642_u062f u0020 u0639_u0631_u0641_u062a u0020 u0642_u0628_u0627_u0626_u0644 u0020 u0627_u0644_u0632_u0648_u0644_u0648 u0020 u0628_u062c_u0646_u0648_u0628 u0020 u0627_u0641_u0631_u064a_u0642_u064a_u0627 u0020 u0634_u062f_u0629 u0020 u0639_u0646_u0627_u064a_u062a_u0647_u0645 u0020 u0628_u062a_u0631_u0628_u064a_u0629 u0020 u0627_u0628_u0646_u0627_u0626_u0647_u0645 u0020 u0627_u0646_u0647 u0020 u0645_u062a_u0649 u0020 u0628_u0644_u063a u0020 u0645_u0646_u0647_u0645 u0020 u0627_u0644_u062e_u0627_u0645_u0633_u0629 u0020 u0639_u0634_u0631 u0020 u062c_u0631_u062f_u0648_u0647 u0020 u0645_u0646 u0020 u0645_u0644_u0627_u0628_u0633_u0647 u0020 u0648_u0637_u0644_u0648 u0020 u062c_u0633_u0645_u0647_u0020", 
        "u0628_u0637_u0644_u0627_u0621 u0020 u0648_u062e_u0627_u0635 u0020 u0644_u0627_u064a_u0632_u0648_u0644 u0020 u0627_u0644_u0627 u0020 u0628_u0639_u062f u0020 u062b_u0644_u0627_u062b_u064a_u0646 u0020 u064a_u0648_u0645_u0627 u0020 u062b_u0645 u0020 u064a_u062c_u0647_u0632 u0020 u0628_u0641_u0631_u0633_u0627 u0020 u0648_u0631_u0645_u062d_u0627 u0020 u0648_u0633_u064a_u0641_u0627 u0020 u0648_u064a_u0624_u0645_u0631 u0020 u0628_u0645_u063a_u0627_u062f_u0631_u0629 u0020 u0627_u0644_u0642_u0631_u064a_u0629 u0020 u0627_u0644_u0649 u0020 u0627_u0644_u063a_u0627_u0628_u0629 u0020 u0648_u0644_u0627_u064a_u0639_u0648_u062f u0020 u0627_u0644_u0627 u0020 u0628_u0639_u062f u0020 u0645_u0636_u064a_u0020", 
        "u0647_u0630_u0627 u0020 u0627_u0644_u0634_u0647_u0631 u0020 u0648_u0647_u0643_u0630_u0627 u0020 u064a_u0642_u0636_u064a u0020 u0627_u0644_u0641_u062a_u0649 u0020 u062e_u0644_u0627_u0644 u0020 u0627_u0644_u0634_u0647_u0631 u0020 u0641_u064a u0020 u0627_u0644_u063a_u0627_u0628_u0629 u0020 u0648_u0643_u0644_u0646_u0627 u0020 u0646_u0639_u0631_u0641 u0020 u0645_u0627_u0645_u0648_u062c_u0648_u062f u0020 u0641_u064a u0020 u0627_u0644_u063a_u0627_u0628_u0629 u0020 u0645_u0646 u0020 u062d_u064a_u0648_u0627_u0646_u0627_u062a u0020 u0645_u062a_u0648_u062d_u0634_u0629 u0020 u0648_u0645_u0647_u0627_u0644_u0643 u0020 u0641_u0627_u0646 u0020 u0627_u0633_u062a_u0637_u0627_u0639_u0020", 
        "u0645_u063a_u0627_u0644_u0628_u0629 u0020 u0627_u0644_u0635_u0639_u0627_u0628 u0020 u0648_u0645_u0635_u0627_u0631_u0639_u0629 u0020 u0627_u0644_u0627_u0647_u0648_u0627_u0644 u0020 u0648_u0627_u0644_u0645_u0634_u0627_u0642 u0020 u0648_u0645_u0635_u0627_u0628_u0631_u0629 u0020 u0627_u0644_u062d_u064a_u0627_u0629 u0020 u0628_u064a_u0646 u0020 u0647_u0630_u0647 u0020 u0627_u0644_u0648_u062d_u0648_u0634 u0020 u0633_u0644_u0645 u0020 u0648_u0639_u0627_u062f u0020 u0627_u0644_u0649 u0020 u0642_u0631_u064a_u062a_u0647 u0020 u0628_u0639_u062f u0020 u0642_u0636_u0627_u0621 u0020 u0645_u062f_u062a_u0647 u0020 u0641_u0627_u0646_u0647_u0645 u0020 u062d_u064a_u0646_u0626_u0630_u0020", 
        "u064a_u0633_u062a_u0642_u0628_u0644_u0648_u0646_u0647 u0020 u0627_u0633_u062a_u0642_u0628_u0627_u0644 u0020 u0627_u0644_u0628_u0633_u0644_u0627_u0621 u0020 u0648_u064a_u0631_u062d_u0628_u0648_u0646 u0020 u0628_u0647 u0020 u062a_u0631_u062d_u064a_u0628 u0020 u0627_u0644_u0641_u0627_u0631_u0633 u0020 u0627_u0644_u0645_u0642_u062f_u0627_u0645 u0020 u0648_u064a_u0642_u064a_u0645_u0648_u0646 u0020 u0644_u0647 u0020 u062d_u0641_u0644_u0627 u0020 u064a_u0642_u0644_u062f_u0648_u0646_u0647 u0020 u0633_u064a_u0641 u0020 u0627_u0644_u062c_u0646_u062f_u064a_u0629 u0020 u0648_u064a_u0637_u0644_u0642_u0648_u0646 u0020 u0639_u0644_u064a_u0647 u0020 u0644_u0642_u0628_u0028_u0641_u0627_u0631_u0633_u0020", 
        "u0627_u0644_u0642_u0628_u064a_u0644_u0629_u0029_u0628_u064a_u0646 u0020 u0647_u0630_u0647 u0020 u0627_u0644_u0642_u0628_u0627_u0626_u0644 u0020 u0639_u0627_u0634 u0020 u0628_u0627_u062f_u0646 u0020 u0628_u0627_u0648_u0644 u0020 u0645_u0624_u0633_u0633 u0020 u0627_u0644_u062d_u0631_u0643_u0629 u0020 u0627_u0644_u0643_u0634_u0641_u064a_u0629 u0020 u002e_u000d", 
        "u0645_u0624_u0633_u0633 u0020 u0627_u0644_u062d_u0631_u0643_u0629 u0020 u0627_u0644_u0643_u0634_u0641_u064a_u0629 u0020 u0641_u064a u0020 u0643_u0646_u062f_u0627 u0020 u0645_u0639 u0020 u0627_u0644_u0647_u0646_u0648_u062f u0020 u0627_u0644_u062d_u0645_u0631_u003a_u000d", 
        "u0627_u062a_u064a_u062d u0020 u0644_u0628_u0627_u062f_u0646 u0020 u0628_u0627_u0648_u0644 u0020 u0627_u0646 u0020 u064a_u0631_u0649 u0020 u0646_u0638_u0627_u0645_u0627 u0020 u0648_u0647_u0648 u0020 u0627_u0644_u0627_u0642_u0631_u0628 u0020 u0627_u0644_u0649 u0020 u0646_u0638_u0627_u0645 u0020 u0627_u0644_u0643_u0634_u0627_u0641_u0629 u0020 u0627_u0644_u062d_u0627_u0644_u064a u0020 u0648_u0630_u0644_u0643 u0020 u0639_u0646_u062f_u0645_u0627 u0020 u0632_u0627_u0631_u0028_u0633_u064a_u0631 u0020 u062a_u0648_u0645_u0627_u0633 u0020 u0633_u062a_u0648_u0646_u0029_u0627_u0644_u0630_u064a u0020 u0643_u0627_u0646 u0020 u0645_u062f_u064a_u0631_u0627 u0020 u0644_u0627_u062d_u062f_u0649_u0020", 
        "u0634_u0631_u0643_u0627_u062a u0020 u0642_u0637_u0639 u0020 u0627_u0644_u0627_u062e_u0634_u0627_u0628 u0020 u0641_u064a u0020 u0643_u0646_u062f_u0627 u0020 u062d_u064a_u062b u0020 u0644_u0627_u062d_u0638 u0020 u0645_u0646 u0020 u062e_u0644_u0627_u0644 u0020 u0627_u0642_u0627_u0645_u062a_u0647 u0020 u0627_u0646 u0020 u0627_u0644_u0641_u0631_u0642 u0020 u0628_u064a_u0646 u0020 u0627_u0648_u0644_u0627_u062f u0020 u0627_u0644_u0647_u0646_u0648_u062f u0020 u0627_u0644_u062d_u0645_u0631 u0020 u0641_u064a u0020 u0627_u0645_u0631_u064a_u0643_u0627 u0020 u0648_u0628_u064a_u0646 u0020 u0627_u0648_u0644_u0627_u062f u0020 u0627_u0644_u062c_u0627_u0644_u064a_u0627_u0020", 
        "u0627_u0644_u0627_u062c_u0646_u0628_u064a_u0629 u0020 u0641_u0644_u0642_u062f u0020 u0643_u0627_u0646 u0020 u0627_u0644_u0647_u0646_u0648_u062f u0020 u0627_u0644_u062d_u0645_u0631 u0020 u064a_u062f_u0631_u0628_u0648_u0646 u0020 u0627_u0648_u0644_u0627_u062f_u0647_u0645 u0020 u0639_u0644_u0649 u0020 u062a_u062a_u0628_u0639 u0020 u0627_u062b_u0627_u0631 u0020 u0627_u0644_u0627_u0646_u0633_u0627_u0646 u0020 u0648_u0627_u0644_u062d_u064a_u0648_u0627_u0646 u0020 u0628_u063a_u0627_u064a_u0629 u0020 u0627_u0644_u062f_u0642_u0629 u0020 u0641_u0636_u0644_u0627 u0020 u0639_u0646 u0020 u0637_u0631_u0642 u0020 u0627_u0644_u062a_u0644_u0642_u064a_u0646 u0020 u0648_u0627_u0644_u0627_u0628_u062a_u0643_u0627_u0631_u0020", 
        "u0627_u0644_u0639_u062c_u064a_u0628_u0629 u0020 u0641_u064a u0020 u0627_u0644_u062a_u0633_u062a_u0631 u0020 u0648_u0627_u0644_u0627_u062e_u062a_u0641_u0627_u0621 u0020 u0628_u0639_u0643_u0633 u0020 u0627_u0648_u0644_u0627_u062f u0020 u0627_u0644_u062c_u0627_u0644_u064a_u0629 u0020 u0627_u0644_u0627_u062c_u0646_u0628_u064a_u0629 u0020 u064a_u062a_u0646_u0627_u0642_u0635_u0648_u0646 u0020 u0639_u0627_u0645_u0627 u0020 u0628_u0639_u062f u0020 u0639_u0627_u0645 u0020 u0628_u0633_u0628_u0628 u0020 u0643_u0627_u0646_u0648_u0627 u0020 u064a_u0636_u0644_u0648_u0627 u0020 u0627_u0644_u0637_u0631_u064a_u0642 u0020 u0020_u0641_u064a u0020 u0627_u0644_u063a_u0627_u0628_u0629 u0020 u0641_u0644_u0627_u0020", 
        "u064a_u0633_u062a_u0637_u064a_u0639 u0020 u0627_u0644_u0639_u0648_u062f_u0629 u0020 u002e_u000d", 
        "u062a_u0627_u0631_u064a_u062e u0020 u0627_u0644_u062a_u0631_u0628_u064a_u0629 u0020 u0627_u0644_u0643_u0634_u0641_u064a_u0629"
    ]
}