{
    "bounding_box": [
        [
            410, 
            126, 
            272, 
            25
        ], 
        [
            482, 
            163, 
            199, 
            25
        ], 
        [
            35, 
            202, 
            625, 
            27
        ], 
        [
            35, 
            232, 
            625, 
            28
        ], 
        [
            35, 
            264, 
            625, 
            27
        ], 
        [
            35, 
            295, 
            625, 
            27
        ], 
        [
            422, 
            325, 
            238, 
            26
        ]
    ], 
    "image_height": 540, 
    "image_width": 720, 
    "transcription": [
        "u002d u0020 u062a_u0627_u0633_u0639_u0627_u064b_u003a u0020 u0632_u064a_u0627_u0631_u0629 u0020 u0648_u0632_u0631_u0627_u0621 u0020 u0627_u0644_u062e_u0627_u0631_u062c_u064a_u0629_u003a_u000d", 
        "u0009_u0623_u0648_u0644_u0627_u064b_u003a u0020 u0627_u0644_u0627_u0639_u062f_u0627_u062f u0020 u0644_u0644_u0632_u064a_u0627_u0631_u0629_u003a_u000d", 
        "u0641_u064a u0020 u0627_u0644_u0639_u0631_u0641 u0020 u0627_u0644_u062f_u0648_u0644_u064a u0020 u0627_u0644_u0633_u0627_u0626_u062f u0020 u0645_u0646_u0630 u0020 u0642_u0631_u0646_u064a_u0646 u0020 u0623_u0648 u0020 u0623_u0643_u062b_u0631 u0020 u0645_u0646 u0020 u0627_u0644_u0632_u0645_u0646 u0020 u0641_u0625_u0646_u0647 u0020 u0623_u0635_u0628_u062d u0020 u0645_u0646 u0020 u062d_u064a_u062b_u0020", 
        "u0627_u0644_u0645_u0633_u0644_u0645 u0020 u0628_u0647 u0020 u0623_u0646_u0647 u0020 u0642_u0628_u0644 u0020 u0632_u064a_u0627_u0631_u0629 u0020 u0623_u064a u0020 u0634_u062e_u0635_u064a_u0629 u0020 u0631_u0633_u0645_u064a_u0629 u0020 u0623_u0648 u0020 u0648_u0641_u062f u0020 u0631_u0633_u0645_u064a u0020 u064a_u062a_u0645 u0020 u0627_u0644_u0627_u0639_u062f_u0627_u062f_u0020", 
        "u0644_u0644_u0632_u064a_u0627_u0631_u0629 u0020 u0628_u0634_u0643_u0644 u0020 u0645_u0633_u0628_u0642 u0020 u0648_u064a_u062a_u0645 u0020 u0630_u0644_u0643 u0020 u0645_u0646 u0020 u062e_u0644_u0627_u0644 u0020 u0627_u062a_u0641_u0627_u0642 u0020 u0628_u064a_u0646 u0020 u0627_u0644_u0637_u0631_u0641_u064a_u0646 u0020 u0028_u0623_u064a u0020 u0627_u0644_u0648_u0632_u064a_u0631_u064a_u0646 u0020 u0623_u0648_u0020", 
        "u0627_u0644_u0631_u0626_u064a_u0633_u064a_u0646 u0020 u002e_u002e_u002e u0020 u0627_u0644_u062e_u0029 u0020 u0627_u0644_u062f_u0627_u0639_u064a u0020 u0648_u0627_u0644_u0636_u064a_u0641 u0020 u0639_u0644_u0649 u0020 u0630_u0644_u0643 u0020 u0641_u064a u0020 u0644_u0642_u0627_u0621_u0627_u062a u0020 u0645_u0633_u0628_u0642_u0629 u0020 u0623_u0648 u0020 u0639_u0628_u0631_u0020", 
        "u0627_u0644_u0642_u0646_u0648_u0627_u062a u0020 u0627_u0644_u062f_u0628_u0644_u0648_u0645_u0627_u0633_u064a_u0629 u0020 u0627_u0644_u0623_u062e_u0631_u0649_u002e_u000d"
    ]
}