{
    "bounding_box": [
        [
            208, 
            71, 
            355, 
            29
        ], 
        [
            243, 
            156, 
            458, 
            25
        ], 
        [
            412, 
            186, 
            288, 
            23
        ], 
        [
            205, 
            214, 
            495, 
            25
        ], 
        [
            227, 
            243, 
            474, 
            25
        ], 
        [
            240, 
            271, 
            461, 
            24
        ], 
        [
            307, 
            299, 
            394, 
            26
        ], 
        [
            112, 
            331, 
            589, 
            23
        ], 
        [
            256, 
            359, 
            445, 
            24
        ], 
        [
            46, 
            388, 
            655, 
            24
        ], 
        [
            90, 
            416, 
            603, 
            24
        ], 
        [
            136, 
            443, 
            558, 
            26
        ]
    ], 
    "image_height": 540, 
    "image_width": 720, 
    "transcription": [
        "u0628_u0646_u0648 u0020 u0625_u0633_u0631_u0627_u0626_u064a_u0644 u0020 u0628_u0639_u062f u0020 u064a_u0639_u0642_u0648_u0628 u0020 u0648_u064a_u0648_u0633_u0641", 
        "u002d u0020 u0627_u0631_u062a_u062f_u0648_u0627 u0020 u0639_u0646 u0020 u0627_u0644_u062f_u064a_u0646 u0020 u0648_u0623_u0635_u0628_u062d_u0648 u0020 u064a_u0634_u0643_u0644_u0648_u0627 u0020 u0628_u0624_u0631_u0629 u0020 u0627_u0644_u0641_u0633_u0627_u062f u0020 u0641_u064a u0020 u0645_u0635_u0631_u002e u0020 u000d", 
        "u002d u0020 u0641_u0633_u0627_u062f u0020 u0623_u062e_u0644_u0627_u0642_u064a_u002c u0020 u062f_u064a_u0646_u064a_u002c u0020 u0631_u0628_u0627 u0020 u0648_u0641_u0648_u0627_u062d_u0634_u002e u0020 u000d", 
        "u002d u0020 u0627_u0644_u0644_u0647 u0020 u0633_u0644_u0637 u0020 u0639_u0644_u064a_u0647_u0645 u0020 u0627_u0644_u0641_u0631_u0627_u0639_u0646_u0629 u0020 u0641_u0623_u0630_u0644_u0648_u0647_u0645 u0020 u0648_u0627_u0633_u062a_u0639_u0628_u062f_u0648_u0647_u0645 u0020 u0641_u064a u0020 u0628_u0646_u0627_u0621 u0020 u0627_u0644_u0642_u0628_u0648_u0631_u002e u0020 u000d", 
        "u002d u0020 u0627_u0644_u0644_u0647 u0020 u0623_u0631_u0633_u0644 u0020 u0644_u0628_u0646_u064a u0020 u0625_u0633_u0631_u0627_u0626_u064a_u0644 u0020 u0646_u0628_u064a u0020 u062c_u062f_u064a_u062f u0020 u0648_u0647_u0648 u0020 u0645_u0648_u0633_u0649 u0020 u0639_u0644_u064a_u0647 u0020 u0627_u0644_u0633_u0644_u0627_u0645_u002e u0020 u000d", 
        "u002d u0020 u0648_u0639_u0627_u0634 u0020 u0641_u064a u0020 u0628_u064a_u062a u0020 u0641_u0631_u0639_u0648_u0646_u201c u0020 u0641_u0625_u0646 u0020 u062e_u0641_u062a u0020 u0639_u0644_u064a_u0647 u0020 u0641_u0623_u0644_u0642_u064a_u0647 u0020 u0641_u064a u0020 u0627_u0644_u064a_u0645 u0020 u201d u0020 u000d", 
        "u002d u0020 u0642_u0635_u0629 u0020 u0645_u0648_u0633_u0649 u0020 u0648_u0641_u0631_u0639_u0648_u0646 u0020 u0623_u0643_u062b_u0631 u0020 u0642_u0635_u0635 u0020 u0627_u0644_u0642_u0631_u0622_u0646 u0020 u062a_u0643_u0631_u0627_u0631_u0627_u002e_u000d", 
        "u002d u0020 u0642_u062f_u0645 u0020 u0645_u0648_u0633_u0649 u0020 u0645_u0639_u062c_u0632_u0627_u062a u0020 u0643_u062b_u064a_u0631_u0629 u0020 u0644_u0628_u0646_u064a u0020 u0625_u0633_u0631_u0627_u0626_u064a_u0644 u0020 u062d_u062a_u0649 u0020 u062d_u062f_u062b_u062a u0020 u0627_u0644_u0645_u0646_u0627_u0638_u0631_u0629 u0020 u062b_u0645 u0020 u0627_u0644_u0645_u0637_u0627_u0631_u062f_u0629_u002e u0020 u000d", 
        "u002d u0020 u0627_u0646_u0634_u0642 u0020 u0627_u0644_u0628_u062d_u0631 u0020 u0648_u063a_u0631_u0642 u0020 u0641_u0631_u0639_u0648_u0646 u0020 u0648_u0627_u0644_u0644_u0647 u0020 u0646_u062c_u0627 u0020 u0645_u0648_u0633_u0649 u0020 u0645_u0646 u0020 u0627_u0644_u063a_u0631_u0642_u002e u0020 u000d", 
        "u002d_u201c u0020 u0627_u0644_u064a_u0648_u0645 u0020 u0646_u0646_u062c_u064a_u0643 u0020 u0628_u0628_u062f_u0646_u0643 u0020 u0644_u062a_u0643_u0648_u0646 u0020 u0644_u0645_u0646 u0020 u062e_u0644_u0641_u0643 u0020 u0622_u064a_u0629 u0020 u0648_u0625_u0646 u0020 u0643_u062b_u064a_u0631_u0627 u0020 u0645_u0646 u0020 u0627_u0644_u0646_u0627_u0633 u0020 u0639_u0646 u0020 u0622_u064a_u0627_u062a_u0646_u0627 u0020 u0644_u063a_u0627_u0641_u0644_u0648_u0646_u002e u0020 u201d_u000d", 
        "u002d u0020 u064a_u0646_u0642_u0644 u0020 u0627_u0644_u0645_u0635_u0631_u064a_u0648_u0646 u0020 u062c_u062b_u0629 u0020 u0631_u0639_u0645_u0633_u064a_u0633 u0020 u0627_u0644_u062b_u0627_u0644_u062b u0020 u2018_u0644_u0649 u0020 u0645_u062a_u0627_u062d_u0641 u0020 u0623_u0648_u0631_u0648_u0628_u0627_u003a u0020 u0627_u0644_u0623_u0631_u0645_u064a_u062a_u0627_u062c u0020 u0648_u0627_u0644_u0644_u0648_u0641_u0631_u0020", 
        "u0648_u0627_u0644_u0645_u062a_u0631_u0648_u0628_u0648_u0644_u064a_u0627_u0646 u0020 u0648_u0627_u0644_u0645_u062a_u062d_u0641 u0020 u0627_u0644_u0628_u0631_u064a_u0637_u0627_u0646_u064a u0020 u0648_u0646_u0633_u0646_u0648_u0627 u0020 u062d_u0643_u0645_u0629 u0020 u0627_u0644_u0644_u0647 u0020 u0645_u0646 u0020 u0625_u063a_u0631_u0627_u0642 u0020 u0641_u0631_u0639_u0648_u0646_u002e_u0020"
    ]
}