{
    "bounding_box": [
        [
            139, 
            252, 
            389, 
            24
        ], 
        [
            139, 
            277, 
            331, 
            27
        ], 
        [
            139, 
            501, 
            60, 
            20
        ], 
        [
            174, 
            40, 
            413, 
            63
        ], 
        [
            150, 
            105, 
            448, 
            63
        ], 
        [
            499, 
            293, 
            167, 
            57
        ]
    ], 
    "image_height": 540, 
    "image_width": 720, 
    "transcription": [
        "u0068_u0074_u0074_u0070_u003a_u002f_u002f_u0077_u0077_u0077_u002e_u006b_u0061_u0072_u006d_u0065_u006c_u002e_u0063_u006f_u002e_u0069_u006c_u002f_u0069_u006e_u0064_u0065_u0078_u002e_u0070_u0068_u0070_u003f_u006f_u0070_u0074", 
        "u0069_u006f_u006e_u003d_u0063_u006f_u006d_u005f_u0063_u006f_u006e_u0074_u0065_u006e_u0074_u0026_u0074_u0061_u0073_u006b_u003d_u0076_u0069_u0065_u0077_u0026_u0069_u000d", 
        "u0064_u003d_u0035_u0034_u0033_u0038_u000d", 
        "u0645_u0642_u0637_u0639 u0020 u0645_u0646 u0020 u0639_u0631_u0633 u0020 u062f_u0631_u0632_u064a u0020 u000d", 
        "u0627_u062a_u0645_u0646_u0649 u0020 u0627_u0646 u0020 u064a_u0646_u0627_u0644 u0020 u0627_u0639_u062c_u0627_u0628_u0643_u0645_u0021_u0021_u0021_u0021", 
        "u0627_u0636_u063a_u0637 u0020 u0647_u0646_u0627"
    ]
}