{
    "bounding_box": [
        [
            72, 
            444, 
            644, 
            23
        ], 
        [
            27, 
            469, 
            689, 
            26
        ], 
        [
            283, 
            500, 
            433, 
            23
        ], 
        [
            62, 
            334, 
            652, 
            30
        ], 
        [
            42, 
            367, 
            673, 
            30
        ], 
        [
            11, 
            400, 
            704, 
            31
        ]
    ], 
    "image_height": 540, 
    "image_width": 720, 
    "transcription": [
        "u0644_u0627_u06cc_u062d_u0647_u003a_u067e_u06cc_u0634_u0646_u0647_u0627_u062f_u06cc u0020 u0627_u0633_u062a u0020 u06a9_u0647 u0020 u0627_u0632 u0020 u0633_u0648_u06cc u0020 u062f_u0648_u0644_u062a u0020 u0628_u0647 u0020 u0645_u062c_u0644_u0633 u0020 u0627_u0631_u0627_u0626_u0647 u0020 u0645_u06cc u0020 u0634_u0648_u062f_u002e u0020 u0627_u06cc_u0646 u0020 u067e_u06cc_u0634_u0646_u0647_u0627_u062f u0020 u062f_u0631_u0628_u0627_u0631_u0647_u0020", 
        "u0645_u0648_u0636_u0648_u0639_u06cc u0020 u0627_u0633_u062a u0020 u06a9_u0647 u0020 u0627_u0628_u062a_u062f_u0627 u0020 u062f_u0631 u0020 u0647_u06cc_u0626_u062a u0020 u062f_u0648_u0644_u062a u0020 u062a_u0635_u0648_u06cc_u0628 u0020 u0634_u062f_u0647 u0020 u0648 u0020 u0633_u067e_u0633 u0020 u0628_u0631_u0627_u06cc u0020 u062a_u0628_u062f_u06cc_u0644 u0020 u0634_u062f_u0646 u0020 u0628_u0647 u0020 u0642_u0627_u0646_u0648_u0646 u0020 u0628_u0647_u0020", 
        "u0645_u062c_u0644_u0633 u0020 u0627_u0631_u0627_u0626_u0647 u0020 u0645_u06cc u0020 u0634_u0648_u062f u0020 u062a_u0627 u0020 u0646_u0645_u0627_u06cc_u0646_u062f_u06af_u0627_u0646 u0020 u0645_u062c_u0644_u0633 u0020 u0622_u0646 u0020 u0631_u0627 u0020 u062a_u0623_u06cc_u06cc_u062f u0020 u06a9_u0646_u0646_u062f_u002e", 
        "u0627_u0633_u062a_u06cc_u0636_u0627_u062d_u003a u0020 u06cc_u0639_u0646_u06cc u0020 u062a_u0648_u0636_u06cc_u062d u0020 u062e_u0648_u0627_u0633_u062a_u0646_u002e u0020 u0648_u0642_u062a_u06cc u0020 u0646_u0645_u0627_u06cc_u0646_u062f_u06af_u0627_u0646_u060c u0020 u0648_u0632_u06cc_u0631_u06cc u0020 u0631_u0627 u0020 u0627_u0633_u062a_u06cc_u0636_u0627_u062d u0020 u0645_u0020", 
        "u06cc_u06a9_u0646_u0646_u062f_u060c u0020 u0627_u0648 u0020 u0628_u0627_u06cc_u062f u0020 u062f_u0631 u0020 u0645_u062c_u0644_u0633 u0020 u062d_u0627_u0636_u0631 u0020 u0634_u0648_u062f u0020 u0648_u062f_u0631_u0628_u0627_u0631_u0647 u0020 u0645_u0648_u0636_u0648_u0639 u0020 u0645_u0648_u0631_u062f u0020 u0646_u0638_u0631 u0020 u0646_u0645_u0627_u06cc_u0646_u062f_u06af_u0627_u0646_u0020", 
        "u062a_u0648_u0636_u06cc_u062d u0020 u062f_u0647_u062f_u002e u0020 u0633_u067e_u0633 u0020 u0628_u0627_u06cc_u062f u0020 u062f_u0648_u0628_u0627_u0631_u0647 u0020 u0628_u0631_u0627_u06cc u0020 u0627_u062f_u0627_u0645_u0647 u0020 u06cc u0020 u06a9_u0627_u0631 u0020 u0627_u0632 u0020 u0645_u062c_u0644_u0633_u060c u0020 u0631_u0623_u06cc u0020 u0627_u0639_u062a_u0645_u0627_u062f u0020 u0628_u06af_u06cc_u0631_u062f_u002e"
    ]
}