{
    "bounding_box": [
        [
            668, 
            510, 
            20, 
            19
        ], 
        [
            326, 
            9, 
            296, 
            43
        ], 
        [
            17, 
            107, 
            666, 
            21
        ], 
        [
            17, 
            134, 
            666, 
            20
        ], 
        [
            206, 
            159, 
            478, 
            21
        ], 
        [
            17, 
            185, 
            647, 
            22
        ], 
        [
            621, 
            212, 
            63, 
            19
        ], 
        [
            17, 
            237, 
            647, 
            23
        ], 
        [
            17, 
            266, 
            666, 
            20
        ], 
        [
            17, 
            289, 
            666, 
            23
        ], 
        [
            159, 
            319, 
            525, 
            18
        ], 
        [
            103, 
            344, 
            561, 
            21
        ], 
        [
            31, 
            371, 
            633, 
            21
        ], 
        [
            336, 
            398, 
            347, 
            20
        ], 
        [
            26, 
            519, 
            224, 
            15
        ]
    ], 
    "image_height": 540, 
    "image_width": 720, 
    "transcription": [
        "u0031_u0038", 
        "u0623_u0647_u0645 u0020 u062e_u0627_u0635_u064a_u0627_u062a u0020 u0648_u0644_u0627_u064a_u0629 u0020 u0646_u0627_u0628_u0644", 
        "u0627_u0644_u0645_u0648_u0642_u0639 u0020 u0627_u0644_u0627_u0633_u062a_u0631_u0627_u062a_u064a_u062c_u064a u0020 u0644_u0644_u0648_u0644_u0627_u064a_u0629 u0020 u062d_u064a_u062b u0020 u062a_u062a_u0645_u062a_u0639 u0020 u0628_u0645_u062d_u064a_u0637 u0020 u0637_u0628_u064a_u0639_u064a u0020 u062c_u0630_u0627_u0628 u0020 u0648_u0634_u0648_u0627_u0637_u0626 u0020 u0645_u0645_u062a_u062f_u0629 u0020 u0639_u0644_u0649 u0020 u0637_u0648_u0644 u0020 u0033_u0030_u0030 u0020 u0643_u0645_u0020", 
        "u0648_u0645_u0646_u0627_u062e u0020 u0645_u0644_u0627_u0626_u0645 u0020 u0020_u0648_u0645_u0648_u0627_u0642_u0639 u0020 u0637_u0628_u064a_u0639_u064a_u0629 u0020 u0639_u062f_u064a_u062f_u0629_u002e u0020 u0647_u0630_u0627 u0020 u0648_u0642_u062f u0020 u0644_u0639_u0628 u0020 u0627_u0644_u0634_u0631_u064a_u0637 u0020 u0627_u0644_u0633_u0627_u062d_u0644_u064a u0020 u0644_u0644_u0648_u0644_u0627_u064a_u0629 u0020 u062f_u0648_u0631_u0627 u0020 u0641_u0639_u0627_u0644_u0627 u0020 u0644_u062a_u0635_u0628_u062d_u0020", 
        "u0642_u0637_u0628_u0627 u0020 u0633_u064a_u0627_u062d_u064a_u0627 u0020 u0647_u0627_u0645_u0627 u0020 u0641_u064a u0020 u0645_u062c_u0627_u0644 u0020 u0627_u0644_u0633_u064a_u0627_u062d_u0629 u0020 u0627_u0644_u0634_u0627_u0637_u0626_u064a_u0629 u0020 u062e_u0627_u0635_u0629 u0020 u0628_u062e_u0644_u064a_u062c u0020 u0627_u0644_u062d_u0645_u0627_u0645_u0627_u062a_u002e_u000d", 
        "u0020_u0645_u0648_u0627_u062f u0020 u0623_u0648_u0644_u064a_u0629 u0020 u0630_u0627_u062a u0020 u062c_u0648_u062f_u0629 u0020 u0639_u0627_u0644_u064a_u0629 u0020 u0639_u0644_u0649 u0020 u063a_u0631_u0627_u0631 u0020 u0627_u0644_u0637_u064a_u0646_u060c u0020 u0627_u0644_u0642_u0635_u0628_u060c u0020 u0627_u0644_u0631_u062e_u0627_u0645_u002e_u002e_u002e_u060c u0020 u0645_u0648_u0638_u0641_u0629 u0020 u0641_u064a u0020 u0627_u0644_u0635_u0646_u0627_u0639_u0627_u062a_u0020", 
        "u0627_u0644_u062a_u0642_u0644_u064a_u062f_u064a_u0629_u002e_u000d", 
        "u0020_u062a_u0642_u0627_u0644_u064a_u062f u0020 u0641_u0644_u0627_u062d_u064a_u0629 u0020 u0639_u0631_u064a_u0642_u0629 u0020 u0648_u0642_u062f_u0631_u0629 u0020 u0639_u0644_u0649 u0020 u0627_u0644_u062a_u0623_u0642_u0644_u0645 u0020 u0645_u0639 u0020 u0627_u0644_u062a_u0637_u0648_u0631_u0627_u062a u0020 u0627_u0644_u062a_u0643_u0646_u0648_u0644_u0648_u062c_u064a_u0629_u002e u0020 u0641_u0631_u063a_u0645 u0020 u0645_u062d_u062f_u0648_u062f_u064a_u0629 u0020 u0623_u0631_u0627_u0636_u064a_u0647_u0627_u0020", 
        "u0627_u0644_u0635_u0627_u0644_u062d_u0629 u0020 u0644_u0644_u0641_u0644_u0627_u062d_u0629 u0020 u0627_u0644_u062a_u064a u0020 u0644_u0627 u0020 u062a_u062a_u062c_u0627_u0648_u0632 u0020 u0034 u0020 u0025 u0020 u0645_u0646 u0020 u0627_u0644_u0645_u0633_u0627_u062d_u0629 u0020 u0627_u0644_u0641_u0644_u0627_u062d_u064a_u0629 u0020 u0627_u0644_u062c_u0645_u0644_u064a_u0629 u0020 u0644_u0644_u0628_u0644_u0627_u062f_u060c u0020 u062a_u0633_u0627_u0647_u0645 u0020 u0648_u0644_u0627_u064a_u0629 u0020 u0646_u0627_u0628_u0644_u0020", 
        "u0628_u0646_u0633_u0628_u0629 u0020 u0031_u0035 u0020 u0025 u0020 u0641_u064a u0020 u0627_u0644_u0625_u0646_u062a_u0627_u062c u0020 u0627_u0644_u0648_u0637_u0646_u064a u0020 u0627_u0644_u0641_u0644_u0627_u062d_u064a u0020 u0648_u0645_u0646 u0020 u0623_u0647_u0645 u0020 u0627_u0644_u0645_u0646_u062a_u0648_u062c_u0627_u062a_u003a u0020 u0627_u0644_u0637_u0645_u0627_u0637_u0645 u0020 u0648_u0627_u0644_u0641_u0644_u0641_u0644 u0020 u0648_u0627_u0644_u0642_u0648_u0627_u0631_u0635_u0020", 
        "u0648_u0627_u0644_u062a_u0648_u0627_u0628_u0644 u0020 u0648_u0627_u0644_u0643_u0631_u0648_u0645 u0020 u0648 u0020 u0627_u0644_u0641_u0631_u0627_u0648_u0644_u0648 u0020 u0644_u062a_u0643_u0648_u0646 u0020 u0628_u0630_u0644_u0643 u0020 u0645_u0631_u0643_u0632_u0627 u0020 u0644_u0644_u0635_u0646_u0627_u0639_u0627_u062a u0020 u0627_u0644_u0641_u0644_u0627_u062d_u064a_u0629 u0020 u0627_u0644_u063a_u0630_u0627_u0626_u064a_u0629_u002e_u000d", 
        "u0627_u0644_u0642_u0631_u0628 u0020 u0645_u0646 u0020 u0645_u0637_u0627_u0631 u0020 u062a_u0648_u0646_u0633 u0020 u0642_u0631_u0637_u0627_u062c u0020 u0028_u0036_u0037 u0020 u0643_u0645_u0029 u0020 u0648_u0645_u0637_u0627_u0631 u0020 u0627_u0644_u0646_u0641_u064a_u0636_u0629 u0020 u0648_u0645_u064a_u0646_u0627_u0626_u064a u0020 u0631_u0627_u062f_u0633 u0020 u0648_u0633_u0648_u0633_u0629_u002e_u000d", 
        "u0634_u0628_u0643_u0629 u0020 u0647_u0627_u0645_u0629 u0020 u0645_u0646 u0020 u0627_u0644_u0637_u0631_u0642_u0627_u062a u0020 u0028 u0020 u0627_u0644_u0637_u0631_u064a_u0642 u0020 u0627_u0644_u0633_u064a_u0627_u0631_u0629 u0020 u062a_u0648_u0646_u0633_u002d u0020 u0627_u0644_u062d_u0645_u0627_u0645_u0627_u062a u0020 u0028_u0038_u0033_u002e_u0031 u0020 u0643_u0645_u0029_u060c u0020 u0637_u0631_u064a_u0642 u0020 u0648_u0637_u0646_u064a_u0629 u0020 u0631_u0642_u0645_u0020", 
        "u0031 u0020 u0028_u0034_u0034 u0020 u0643_u0645_u0029 u0020 u0648 u0020 u0637_u0631_u0642_u0627_u062a u0020 u062c_u0647_u0648_u064a_u0629 u0020 u062a_u0645_u062a_u062f u0020 u0639_u0644_u0649 u0020 u0034_u0030_u0037 u0020 u0643_u0645_u0029_u000d", 
        "u0627_u0644_u0645_u0635_u062f_u0631_u003a u0020 u0020_u0648_u0632_u0627_u0631_u0629 u0020 u0627_u0644_u062a_u0646_u0645_u064a_u0629 u0020 u0627_u0644_u062c_u0647_u0648_u064a_u0629 u0020 u0648_u0627_u0644_u062a_u062e_u0637_u064a_u0637_u000d"
    ]
}