{
    "bounding_box": [
        [
            212, 
            42, 
            277, 
            41
        ], 
        [
            624, 
            111, 
            55, 
            23
        ], 
        [
            46, 
            149, 
            633, 
            24
        ], 
        [
            51, 
            176, 
            628, 
            25
        ], 
        [
            345, 
            205, 
            334, 
            25
        ], 
        [
            623, 
            333, 
            40, 
            15
        ], 
        [
            260, 
            364, 
            404, 
            19
        ], 
        [
            81, 
            397, 
            583, 
            22
        ], 
        [
            278, 
            433, 
            385, 
            22
        ], 
        [
            254, 
            469, 
            409, 
            22
        ]
    ], 
    "image_height": 540, 
    "image_width": 720, 
    "transcription": [
        "u0627_u062e_u062a_u0628_u0627_u0631_u0627_u062a u0020 u0627_u0644_u062e_u0631_u0633_u0627_u0646_u0629_u0020", 
        "u0645_u062b_u0627_u0644_u003a_u000d", 
        "u0627_u062d_u0633_u0628 u0020 u062d_u0645_u0644 u0020 u0627_u0646_u0647_u064a_u0627_u0631 u0020 u0627_u0644_u062a_u0645_u0627_u0633_u0643 u0020 u0628_u064a_u0646 u0020 u0627_u0644_u062e_u0631_u0633_u0627_u0646_u0629 u0020 u0648 u0020 u0633_u064a_u062e u0020 u0645_u0646 u0020 u0627_u0644_u0635_u0644_u0628 u0020 u0627_u0644_u0623_u0645_u0644_u0633 u0020 u0642_u0637_u0631_u0647 u0020 u0031_u0032 u0020 u0645_u0645_u0020", 
        "u0625_u0630_u0627 u0020 u0643_u0627_u0646_u062a u0020 u0645_u0642_u0627_u0648_u0645_u0629 u0020 u0627_u0644_u062a_u0645_u0627_u0633_u0643 u0020 u003d u0020 u0032_u0030 u0020 u0643_u062c_u0645_u002f_u0633_u0645_u0032 u0020 u0648 u0020 u0637_u0648_u0644 u0020 u0627_u0644_u0633_u064a_u062e u0020 u0627_u0644_u0645_u062f_u0641_u0648_u0646 u0020 u0641_u0649 u0020 u0627_u0644_u062e_u0631_u0633_u0627_u0646_u0629 u0020 u003d_u0020", 
        "u0035_u0030 u0020 u0633_u0645_u002e u0020 u0645_u0627_u0647_u0649 u0020 u0642_u064a_u0645_u0629 u0020 u0625_u062c_u0647_u0627_u062f u0020 u0627_u0644_u0634_u062f u0020 u0641_u0649 u0020 u0627_u0644_u0633_u064a_u062e_u061f_u0020", 
        "u0627_u0644_u062d_u0644_u003a_u000d", 
        "u062d_u0645_u0644 u0020 u0627_u0646_u0647_u064a_u0627_u0631 u0020 u0627_u0644_u062a_u0645_u0627_u0633_u0643 u0020 u003d u0020 u0020_u0028_u0031_u002e_u0032_u00d7_uf070_u0029 u0020 u00d7_u0035_u0030 u0020 u00d7 u0020 u0032_u0030 u0020 u0020_u003d u0020 u0033_u0037_u0037_u0030_u0643_u062c_u0645_u000d", 
        "u0625_u062c_u0647_u0627_u062f u0020 u0627_u0644_u0634_u062f u0020 u0641_u0649 u0020 u0627_u0644_u0633_u064a_u062e u0020 u003d u0020 u062d_u0645_u0644 u0020 u0627_u0646_u0647_u064a_u0627_u0631 u0020 u0627_u0644_u062a_u0645_u0627_u0633_u0643 u0020 u002f u0020 u0645_u0633_u0627_u062d_u0629 u0020 u0642_u0637_u0627_u0639 u0020 u0627_u0644_u0633_u064a_u062e u0020 u003d u0020 u0033_u0033_u0033_u0033_u002e_u0033 u0020 u0643_u062c_u0645_u002f_u0633_u0645_u0032 u0020 u000d", 
        "u0627_u0644_u0633_u064a_u062e u0020 u0623_u0645_u0644_u0633 u0020 u0623_u0649 u0020 u0623_u0646 u0020 u0631_u062a_u0628_u0629 u0020 u0627_u0644_u0635_u0644_u0628 u0020 u0647_u0649 u0020 u0028_u0032_u0034_u002f_u0033_u0035_u0029 u0020 u0648_u0628_u0627_u0644_u062a_u0627_u0644_u0649 u0020 u0641_u0625_u0646_u000d", 
        "u0645_u0642_u0627_u0648_u0645_u0629 u0020 u0627_u0644_u0634_u062f u0020 u0644_u0644_u0633_u064a_u062e u0020 u003d u0020 u0033_u0035_u0030_u0030 u0020 u0643_u062c_u0645_u002f_u0633_u0645_u0032 u0020 u003e u0020 u0625_u062c_u0647_u0627_u062f u0020 u0627_u0644_u0634_u062f u0020 u0641_u0649 u0020 u0627_u0644_u0633_u064a_u062e"
    ]
}