{
    "bounding_box": [
        [
            244, 
            47, 
            231, 
            45
        ], 
        [
            73, 
            115, 
            630, 
            15
        ], 
        [
            88, 
            133, 
            616, 
            16
        ], 
        [
            573, 
            156, 
            131, 
            16
        ], 
        [
            82, 
            180, 
            621, 
            16
        ], 
        [
            95, 
            199, 
            608, 
            16
        ], 
        [
            580, 
            219, 
            123, 
            15
        ], 
        [
            88, 
            243, 
            615, 
            14
        ], 
        [
            545, 
            265, 
            158, 
            16
        ], 
        [
            443, 
            290, 
            260, 
            14
        ]
    ], 
    "image_height": 540, 
    "image_width": 720, 
    "transcription": [
        "u0627_u0644_u062a_u0631_u0628_u064a_u0629 u0020 u0627_u0644_u0643_u0634_u0641_u064a_u0629", 
        "u0647_u064a u0020 u062d_u0631_u0643_u0629 u0020 u062a_u0631_u0628_u0648_u064a_u0629 u0020 u0630_u0627_u062a u0020 u0637_u0627_u0628_u0639 u0020 u0648_u0637_u0646_u064a u0020 u0648_u0627_u0642_u0644_u064a_u0645_u064a u0020 u0648_u0639_u0627_u0644_u0645_u064a u0020 u0641_u0647_u064a u0020 u062d_u0631_u0643_u0629 u0020 u0642_u0648_u0645_u064a_u0629 u0020 u0644_u0627_u0646 u0020 u0645_u0628_u0627_u062f_u0626_u0647_u0627 u0020 u0648_u062a_u062f_u0631_u064a_u0628_u0627_u062a_u0647_u0627 u0020 u062a_u0639_u0645_u0644 u0020 u0627_u0644_u0649 u0020 u0627_u0639_u062f_u0627_u062f u0020 u0645_u0648_u0627_u0637_u0646_u064a_u0646 u0020 u0627_u0635_u062d_u0627_u0621_u0020", 
        "u0646_u064a_u0631_u064a u0020 u0627_u0644_u0639_u0642_u0648_u0644 u0020 u0646_u0627_u0641_u0639_u064a_u0646 u0020 u0644_u0628_u0644_u0627_u062f_u0647_u0645 u0020 u0648_u0647_u064a u0020 u0627_u0642_u0644_u064a_u0645_u064a_u0629 u0020 u0644_u0627_u0646_u0647_u0627 u0020 u0644_u0627_u062a_u0639_u062a_u0631_u0641 u0020 u0628_u0627_u064a u0020 u0646_u0648_u0639 u0020 u0645_u0646 u0020 u0627_u0644_u0645_u0648_u0627_u0642_u0639 u0020 u0627_u0644_u062a_u064a u0020 u062a_u0642_u0641 u0020 u0641_u064a u0020 u0633_u0628_u064a_u0644 u0020 u0627_u062e_u0627_u0621 u0020 u0627_u0644_u0643_u0634_u0627_u0641_u064a_u0646 u0020 u0648_u0635_u062f_u0627_u0641_u062a_u0647_u0645 u0020 u002e_u000d", 
        "u0641_u0644_u0633_u0641_u0629 u0020 u0627_u0644_u062a_u0631_u0628_u064a_u0629 u0020 u0627_u0644_u0643_u0634_u0641_u064a_u0629 u0020 u003a u0020 u000d", 
        "u062a_u0639_u062a_u0645_u062f u0020 u0627_u0644_u062a_u0631_u0628_u064a_u0629 u0020 u0627_u0644_u0643_u0634_u0641_u064a_u0629 u0020 u0641_u064a u0020 u0641_u0644_u0633_u0641_u062a_u0647_u0627 u0020 u0639_u0644_u0649 u0020 u0627_u0644_u0648_u0636_u0648_u062d u0020 u0627_u0644_u062a_u0627_u0645 u0020 u0641_u064a u0020 u0627_u0644_u0627_u0647_u062a_u0645_u0627_u0645 u0020 u0628_u062a_u0631_u0628_u064a_u0629 u0020 u0627_u0644_u0637_u0644_u0627_u0628 u0020 u0648_u0627_u0644_u0637_u0627_u0644_u0628_u0627_u062a u0020 u0648_u0637_u0646_u064a_u0627 u0020 u0648_u0642_u0648_u0645_u064a_u0627 u0020 u0648_u0627_u0639_u062f_u0627_u062f_u0647_u0645 u0020 u0628_u0645_u0627 u0020 u064a_u0646_u0633_u062c_u0645_u0020", 
        "u0648_u0627_u0644_u062a_u0642_u062f_u0645 u0020 u0627_u0644_u0639_u0644_u0645_u064a u0020 u0648_u0627_u0644_u062a_u0642_u0646_u064a u0020 u0648_u062a_u0631_u0643_u064a_u0632 u0020 u0627_u0644_u0642_u064a_u0645 u0020 u0648_u0627_u0644_u0645_u062b_u0644 u0020 u0627_u0644_u0631_u0648_u062d_u064a_u0629 u0020 u0648_u0627_u0644_u0642_u0648_u0645_u064a_u0629 u0020 u0639_u0646 u0020 u0648_u0639_u064a u0020 u0627_u062f_u0631_u0627_u0643 u0020 u0643_u0627_u0645_u0644 u0020 u0644_u0645_u0646_u0627_u0647_u062c_u0647_u0627 u0020 u0648_u062f_u0645_u062c u0020 u0627_u0644_u0641_u0631_u062f u0020 u0628_u0627_u0644_u0645_u062c_u062a_u0645_u0639 u0020 u0648_u0627_u0644_u0628_u064a_u0626_u0629_u0020", 
        "u0644_u063a_u0631_u0636 u0020 u0627_u0644_u062d_u0635_u0648_u0644 u0020 u0639_u0644_u0649_u003a_u002d_u000d", 
        "u0031_u002d u0020 u0645_u0648_u0627_u0637_u0646 u0020 u0627_u064a_u062c_u0627_u0628_u064a u0020 u0645_u0642_u062a_u062f_u0631 u0020 u0639_u0644_u0649 u0020 u0642_u064a_u0627_u062f_u0629 u0020 u0627_u0644_u062c_u0645_u0627_u0639_u0629 u0020 u0648_u0634_u0628_u0627_u0628 u0020 u0646_u064a_u0631 u0020 u0627_u0644_u0641_u0643_u0631 u0020 u0630_u064a u0020 u0627_u0644_u0627_u062a_u062c_u0627_u0647_u0627_u062a u0020 u0627_u0644_u0639_u0644_u0645_u064a_u0629 u0020 u0648_u0627_u0644_u062b_u0642_u0627_u0641_u064a_u0629 u0020 u0645_u062f_u0631_u0643 u0020 u0644_u0627_u0647_u062f_u0627_u0641 u0020 u0627_u0645_u062a_u0647 u0020 u0648_u062d_u0627_u062c_u0627_u062a_u0647_u0627_u000d", 
        "u0020_u0032_u002d u0020 u0628_u0646_u0627_u0621 u0020 u0645_u062c_u062a_u0645_u0639 u0020 u0645_u062a_u0642_u062f_u0645 u0020 u0648_u0645_u0632_u062f_u0647_u0631_u000d", 
        "u0033_u002d u0020 u062a_u0631_u0633_u064a_u062e u0020 u0627_u0644_u0642_u064a_u0645 u0020 u0627_u0644_u0627_u062c_u062a_u0645_u0627_u0639_u064a_u0629 u0020 u0648_u0627_u0644_u0627_u0646_u0633_u0627_u0646_u064a_u0629 u0020 u0639_u0646_u062f u0020 u0627_u0644_u0634_u0628_u0627_u0628 u0020 u002e_u000d"
    ]
}