{
    "bounding_box": [
        [
            228, 
            17, 
            261, 
            38
        ], 
        [
            317, 
            83, 
            343, 
            22
        ], 
        [
            19, 
            109, 
            642, 
            25
        ], 
        [
            55, 
            138, 
            606, 
            23
        ], 
        [
            512, 
            165, 
            148, 
            24
        ], 
        [
            39, 
            190, 
            621, 
            26
        ], 
        [
            521, 
            220, 
            139, 
            23
        ], 
        [
            30, 
            247, 
            631, 
            24
        ], 
        [
            271, 
            274, 
            390, 
            21
        ], 
        [
            43, 
            301, 
            624, 
            24
        ], 
        [
            6, 
            327, 
            661, 
            23
        ], 
        [
            607, 
            356, 
            59, 
            24
        ], 
        [
            328, 
            438, 
            72, 
            40
        ], 
        [
            328, 
            438, 
            72, 
            40
        ], 
        [
            328, 
            438, 
            72, 
            40
        ], 
        [
            328, 
            438, 
            72, 
            40
        ], 
        [
            254, 
            438, 
            60, 
            37
        ], 
        [
            254, 
            438, 
            60, 
            37
        ], 
        [
            254, 
            438, 
            60, 
            37
        ], 
        [
            191, 
            437, 
            39, 
            41
        ], 
        [
            191, 
            437, 
            39, 
            41
        ], 
        [
            191, 
            437, 
            39, 
            41
        ], 
        [
            92, 
            438, 
            55, 
            40
        ], 
        [
            92, 
            438, 
            55, 
            40
        ], 
        [
            92, 
            438, 
            55, 
            40
        ], 
        [
            14, 
            438, 
            48, 
            39
        ], 
        [
            14, 
            438, 
            48, 
            39
        ], 
        [
            14, 
            438, 
            48, 
            39
        ]
    ], 
    "image_height": 540, 
    "image_width": 720, 
    "transcription": [
        "u0627_u0644_u0645_u0631_u0643_u0628_u0627_u062a u0020 u0627_u0644_u0627_u0643_u062b_u0631 u0020 u0627_u0645_u0627_u0646_u0627_u064b", 
        "u0627_u0644_u0639_u0645_u0644 u0020 u0639_u0644_u0649 u0020 u0645_u0648_u0627_u0626_u0645_u0629 u0020 u0627_u0644_u0645_u0639_u0627_u064a_u064a_u0631 u0020 u0627_u0644_u0639_u0627_u0644_u0645_u064a_u0629 u0020 u0644_u0644_u0645_u0631_u0643_u0628_u0627_u062a_u000d", 
        "u062a_u0634_u062c_u064a_u0639 u0020 u0627_u0644_u062f_u0648_u0644 u0020 u0627_u0644_u0623_u0639_u0636_u0627_u0621 u0020 u0639_u0644_u0649 u0020 u0627_u0633_u062a_u062e_u062f_u0627_u0645 u0020 u0648_u0646_u0634_u0631 u0020 u0627_u0644_u062a_u0639_u0644_u064a_u0645_u0627_u062a u0020 u0627_u0644_u062e_u0627_u0635_u0629 u0020 u0628_u0633_u0644_u0627_u0645_u0629 u0020 u0627_u0644_u0645_u0631_u0643_u0628_u0627_u062a u0020 u0627_u0644_u0622_u0644_u064a_u0629_u000d", 
        "u062a_u0634_u062c_u064a_u0639 u0020 u062a_u0646_u0641_u064a_u0630 u0020 u0628_u0631_u0627_u0645_u062c u0020 u0644_u062a_u0642_u064a_u064a_u0645 u0020 u0627_u062f_u0627_u0621 u0020 u0627_u0644_u0633_u064a_u0627_u0631_u0627_u062a u0020 u0627_u0644_u062c_u062f_u064a_u062f_u0629 u0020 u0020_u0648_u062a_u0634_u062c_u064a_u0639 u0020 u0646_u0634_u0631 u0020 u062a_u0643_u0646_u0648_u0644_u0648_u062c_u064a_u0627 u0020 u0627_u0644_u062e_u0627_u0635_u0629_u0020", 
        "u0628_u062a_u0641_u0627_u062f_u064a u0020 u0627_u0644_u062a_u0635_u0627_u062f_u0645_u0627_u062a u0020 u000d", 
        "u062a_u0632_u0648_u064a_u062f u0020 u062c_u0645_u064a_u0639 u0020 u0627_u0644_u0645_u0631_u0643_u0628_u0627_u062a u0020 u0627_u0644_u0622_u0644_u064a_u0629 u0020 u0627_u0644_u062d_u062f_u064a_u062b_u0629 u0020 u0628_u0645_u062a_u0637_u0644_u0628_u0627_u062a u0020 u0627_u0644_u062d_u062f u0020 u0627_u0644_u0627_u062f_u0646_u0649 u0020 u0644_u0644_u0633_u0644_u0627_u0645_u0629 u0020 u0028_u0623_u062d_u0632_u0645_u0629 u0020 u0627_u0644_u0645_u0642_u0627_u0639_u062f_u0020", 
        "u0648_u0627_u0644_u0648_u0633_u0627_u0626_u062f u0020 u0627_u0644_u0647_u0648_u0627_u0626_u064a_u0629_u0029_u000d", 
        "u062a_u0634_u062c_u064a_u0639 u0020 u062a_u0637_u0628_u064a_u0642 u0020 u0646_u0638_u0645 u0020 u062d_u0645_u0627_u064a_u0629 u0020 u0627_u0644_u0645_u0634_u0627_u0629_u060c u0020 u0648_u0632_u064a_u0627_u062f_u0629 u0020 u0627_u0644_u0628_u062d_u0648_u062b u0020 u062d_u0648_u0644 u0020 u062a_u0643_u0646_u0648_u0644_u0648_u062c_u064a_u0627 u0020 u0627_u0644_u0633_u0644_u0627_u0645_u0629_u060c u0020 u0627_u0644_u0645_u0635_u0645_u0645_u0629_u0020", 
        "u0644_u062a_u0642_u0644_u064a_u0635 u0020 u0645_u0627 u0020 u064a_u062a_u0639_u0631_u0636 u0020 u0644_u0647 u0020 u0645_u0633_u062a_u062e_u062f_u0645_u0648 u0020 u0627_u0644_u0637_u0631_u0642 u0020 u0645_u0646 u0020 u0645_u062e_u0627_u0637_u0631_u000d", 
        "u062a_u0634_u062c_u064a_u0639 u0020 u0627_u0644_u0645_u062f_u064a_u0631_u064a_u0646 u0020 u0627_u0644_u0645_u0639_u0646_u064a_u064a_u0646 u0020 u0628_u0642_u0648_u0627_u0641_u0644 u0020 u0627_u0644_u0633_u064a_u0627_u0631_u0627_u062a u0020 u0641_u064a u0020 u0627_u0644_u062d_u0643_u0648_u0645_u0629 u0020 u0648_u0627_u0644_u0642_u0637_u0627_u0639 u0020 u0627_u0644_u062e_u0627_u0635 u0020 u0639_u0644_u0649 u0020 u0634_u0631_u0627_u0621_u0020", 
        "u0648_u062a_u0634_u063a_u064a_u0644 u0020 u0648_u0635_u064a_u0627_u0646_u0629 u0020 u0627_u0644_u0645_u0631_u0643_u0628_u0627_u062a u0020 u0627_u0644_u0645_u0632_u0648_u062f_u0629 u0020 u0628_u062a_u0643_u0646_u0648_u0644_u0648_u062c_u064a_u0627 u0020 u0645_u062a_u0642_u062f_u0645_u0629 u0020 u0644_u0644_u0623_u0645_u0627_u0646_u060c u0020 u0648_u0645_u0633_u062a_u0648_u0649 u0020 u0639_u0627_u0644 u0020 u0645_u0646 u0020 u0627_u0644_u062d_u0645_u0627_u064a_u0629_u0020", 
        "u0644_u0644_u0631_u0643_u0627_u0628_u000d", 
        "u0627_u0644_u0642_u0627_u0639_u062f_u0629 u0020 u0031_u003a u0020 u000d_u0625_u062f_u0627_u0631_u0629 u0020 u0634_u0624_u0648_u0646 u0020 u0627_u0644_u0633_u0644_u0627_u0645_u0629 u0020 u0639_u0644_u0649 u0020 u0627_u0644_u0637_u0631_u0642_u000d_u00a0", 
        "u0627_u0644_u0642_u0627_u0639_u062f_u0629 u0020 u0031_u003a u0020 u000d_u0625_u062f_u0627_u0631_u0629 u0020 u0634_u0624_u0648_u0646 u0020 u0627_u0644_u0633_u0644_u0627_u0645_u0629 u0020 u0639_u0644_u0649 u0020 u0627_u0644_u0637_u0631_u0642_u000d_u00a0", 
        "u0627_u0644_u0642_u0627_u0639_u062f_u0629 u0020 u0031_u003a u0020 u000d_u0625_u062f_u0627_u0631_u0629 u0020 u0634_u0624_u0648_u0646 u0020 u0627_u0644_u0633_u0644_u0627_u0645_u0629 u0020 u0639_u0644_u0649 u0020 u0627_u0644_u0637_u0631_u0642_u000d_u00a0", 
        "u0627_u0644_u0642_u0627_u0639_u062f_u0629 u0020 u0031_u003a u0020 u000d_u0625_u062f_u0627_u0631_u0629 u0020 u0634_u0624_u0648_u0646 u0020 u0627_u0644_u0633_u0644_u0627_u0645_u0629 u0020 u0639_u0644_u0649 u0020 u0627_u0644_u0637_u0631_u0642_u000d_u00a0", 
        "u0627_u0644_u0642_u0627_u0639_u062f_u0629 u0020 u0032_u003a u0020 u000d_u0637_u0631_u0642 u0020 u0648_u062a_u0646_u0642_u0651_u064f_u0644 u0020 u0623_u0643_u062b_u0631 u0020 u0623_u0645_u0646_u0627_u064b", 
        "u0627_u0644_u0642_u0627_u0639_u062f_u0629 u0020 u0032_u003a u0020 u000d_u0637_u0631_u0642 u0020 u0648_u062a_u0646_u0642_u0651_u064f_u0644 u0020 u0623_u0643_u062b_u0631 u0020 u0623_u0645_u0646_u0627_u064b", 
        "u0627_u0644_u0642_u0627_u0639_u062f_u0629 u0020 u0032_u003a u0020 u000d_u0637_u0631_u0642 u0020 u0648_u062a_u0646_u0642_u0651_u064f_u0644 u0020 u0623_u0643_u062b_u0631 u0020 u0623_u0645_u0646_u0627_u064b", 
        "u0627_u0644_u0642_u0627_u0639_u062f_u0629 u0020 u003a u0020 u0033 u0020 u0627_u0644_u0645_u0631_u0643_u0628_u0627_u062a u0020 u0627_u0644_u0623_u0643_u062b_u0631 u0020 u0623_u0645_u0646_u0627_u064b", 
        "u0627_u0644_u0642_u0627_u0639_u062f_u0629 u0020 u003a u0020 u0033 u0020 u0627_u0644_u0645_u0631_u0643_u0628_u0627_u062a u0020 u0627_u0644_u0623_u0643_u062b_u0631 u0020 u0623_u0645_u0646_u0627_u064b", 
        "u0627_u0644_u0642_u0627_u0639_u062f_u0629 u0020 u003a u0020 u0033 u0020 u0627_u0644_u0645_u0631_u0643_u0628_u0627_u062a u0020 u0627_u0644_u0623_u0643_u062b_u0631 u0020 u0623_u0645_u0646_u0627_u064b", 
        "u0627_u0644_u0642_u0627_u0639_u062f_u0629 u0020 u0034_u003a u0020 u0645_u0633_u062a_u062e_u062f_u0645_u0648 u0020 u0637_u0631_u0642 u0020 u0623_u0643_u062b_u0631 u0020 u0623_u0645_u0646_u0627_u064b", 
        "u0627_u0644_u0642_u0627_u0639_u062f_u0629 u0020 u0034_u003a u0020 u0645_u0633_u062a_u062e_u062f_u0645_u0648 u0020 u0637_u0631_u0642 u0020 u0623_u0643_u062b_u0631 u0020 u0623_u0645_u0646_u0627_u064b", 
        "u0627_u0644_u0642_u0627_u0639_u062f_u0629 u0020 u0034_u003a u0020 u0645_u0633_u062a_u062e_u062f_u0645_u0648 u0020 u0637_u0631_u0642 u0020 u0623_u0643_u062b_u0631 u0020 u0623_u0645_u0646_u0627_u064b", 
        "u0627_u0644_u0642_u0627_u0639_u062f_u0629 u0020 u0035_u003a u0020 u0627_u0644_u0627_u0633_u062a_u062c_u0627_u0628_u0629 u0020 u0628_u0639_u062f u0020 u0627_u0644_u062a_u0635_u0627_u062f_u0645", 
        "u0627_u0644_u0642_u0627_u0639_u062f_u0629 u0020 u0035_u003a u0020 u0627_u0644_u0627_u0633_u062a_u062c_u0627_u0628_u0629 u0020 u0628_u0639_u062f u0020 u0627_u0644_u062a_u0635_u0627_u062f_u0645", 
        "u0627_u0644_u0642_u0627_u0639_u062f_u0629 u0020 u0035_u003a u0020 u0627_u0644_u0627_u0633_u062a_u062c_u0627_u0628_u0629 u0020 u0628_u0639_u062f u0020 u0627_u0644_u062a_u0635_u0627_u062f_u0645"
    ]
}