{
    "bounding_box": [
        [
            471, 
            53, 
            205, 
            38
        ], 
        [
            310, 
            130, 
            322, 
            32
        ], 
        [
            252, 
            164, 
            380, 
            38
        ], 
        [
            505, 
            213, 
            128, 
            27
        ]
    ], 
    "image_height": 540, 
    "image_width": 720, 
    "transcription": [
        "u0627_u0644_u0627_u0633_u062a_u0641_u0647_u0627_u0645_u003a", 
        "u0623_u062a_u0623_u0645_u0631_u0648_u0646 u0020 u0627_u0644_u0646_u0627_u0633 u0020 u0628_u0627_u0644_u0628_u0631 u0020 u0648_u062a_u0646_u0633_u0648_u0646 u0020 u0623_u0646_u0641_u0633_u0643_u0645_u002e_u000d", 
        "u0647_u0644 u0020 u0623_u062f_u0644_u0643_u0645 u0020 u0639_u0644_u0649 u0020 u062a_u062c_u0627_u0631_u0629 u0020 u062a_u0646_u062c_u064a_u0643_u0645 u0020 u0645_u0646 u0020 u0639_u0630_u0627_u0628 u0020 u0623_u0644_u064a_u0645_u061f_u000d", 
        "u0643_u064a_u0641 u0020 u0623_u0635_u0628_u062d_u062a_u061f"
    ]
}