{
    "bounding_box": [
        [
            198, 
            136, 
            335, 
            64
        ]
    ], 
    "image_height": 540, 
    "image_width": 720, 
    "transcription": [
        "u0020_u0634_u0643_u0631_u0627 u0020 u0644_u0643_u0645 u0020 u002e_u002e_u002e_u002e u0020 u0020"
    ]
}