{
    "bounding_box": [
        [
            644, 
            496, 
            14, 
            14
        ], 
        [
            183, 
            7, 
            353, 
            43
        ], 
        [
            388, 
            64, 
            324, 
            16
        ], 
        [
            5, 
            82, 
            679, 
            19
        ], 
        [
            638, 
            104, 
            47, 
            14
        ], 
        [
            295, 
            122, 
            390, 
            18
        ], 
        [
            531, 
            144, 
            154, 
            18
        ], 
        [
            357, 
            164, 
            328, 
            18
        ], 
        [
            22, 
            186, 
            663, 
            19
        ], 
        [
            442, 
            209, 
            242, 
            18
        ], 
        [
            560, 
            229, 
            125, 
            17
        ], 
        [
            144, 
            252, 
            541, 
            18
        ], 
        [
            444, 
            273, 
            241, 
            18
        ], 
        [
            167, 
            294, 
            518, 
            19
        ], 
        [
            340, 
            316, 
            345, 
            19
        ], 
        [
            508, 
            339, 
            177, 
            17
        ], 
        [
            399, 
            358, 
            286, 
            19
        ], 
        [
            111, 
            381, 
            574, 
            17
        ], 
        [
            182, 
            402, 
            503, 
            19
        ], 
        [
            223, 
            424, 
            462, 
            19
        ], 
        [
            462, 
            447, 
            223, 
            17
        ], 
        [
            120, 
            468, 
            564, 
            18
        ], 
        [
            47, 
            488, 
            637, 
            19
        ], 
        [
            312, 
            509, 
            373, 
            19
        ]
    ], 
    "image_height": 540, 
    "image_width": 720, 
    "transcription": [
        "u0033_u0033", 
        "u0627_u0644_u0642_u0648_u0627_u0639_u062f u0020 u0627_u0644_u0623_u0633_u0627_u0633_u064a_u0629 u0020 u0644_u0644_u0625_u0635_u063a_u0627_u0621", 
        "u062a_u062a_u0645 u0020 u0639_u0645_u0644_u064a_u0629 u0020 u0627_u0644_u0625_u0635_u063a_u0627_u0621 u0020 u0627_u0644_u0641_u0639_u0627_u0644 u0020 u0628_u0623_u0631_u0628_u0639_u0629 u0020 u062e_u0637_u0648_u0627_u062a u0020 u0648_u0647_u064a u0020 u0628_u0627_u062e_u062a_u0635_u0627_u0631_u003a_u000d", 
        "u0627_u0644_u0627_u0633_u062a_u0645_u0627_u0639 u0020 u0644_u0644_u0643_u0644_u0645_u0627_u062a_u002e u0020 u0020 u0020 u0020 u0020 u0645_u0639_u0631_u0641_u0629 u0020 u0645_u0639_u0627_u0646_u064a u0020 u0627_u0644_u0643_u0644_u0645_u0627_u062a u0020 u0627_u0644_u062a_u064a u0020 u0633_u0645_u0639_u062a_u0647_u0627_u002e u0020 u0020 u0020 u0020 u0020 u0020 u0020 u0645_u0639_u0631_u0641_u0629 u0020 u0627_u0644_u0623_u0641_u0643_u0627_u0631 u0020 u062e_u0644_u0641 u0020 u0627_u0644_u0643_u0644_u0645_u0627_u062a_u002e u0020 u0020 u0020 u0020 u0020 u0020 u0020 u0020 u0020 u0020 u0020 u0020_u0645_u0639_u0631_u0641_u0629 u0020 u0627_u0644_u0631_u0633_u0627_u0644_u0629 u0020 u062e_u0644_u0641_u0020", 
        "u0627_u0644_u0623_u0641_u0643_u0627_u0631_u002e_u000d", 
        "u0648_u062d_u062a_u0649 u0020 u062a_u062a_u0645 u0020 u0647_u0630_u0647 u0020 u0627_u0644_u062e_u0637_u0648_u0627_u062a u0020 u0628_u0646_u062c_u0627_u062d u0020 u0644_u0627 u0020 u0628_u062f u0020 u0645_u0646 u0020 u062a_u0648_u0641_u0631 u0020 u0627_u0644_u0642_u0648_u0627_u0639_u062f u0020 u0627_u0644_u0623_u0633_u0627_u0633_u064a_u0629 u0020 u0627_u0644_u062a_u0627_u0644_u064a_u0629_u003a_u000d", 
        "u0627_u0644_u062a_u0641_u0631_u063a u0020 u0627_u0644_u062a_u0627_u0645 u0020 u0644_u0644_u0645_u062a_u062d_u062f_u062b_u002e u0020 u0020 u0020 u0020 u0020 u0020 u0020 u000d", 
        "u062a_u0631_u0643_u064a_u0632 u0020 u0627_u0644_u0627_u0646_u062a_u0628_u0627_u0647 u0020 u0639_u0644_u0649 u0020 u0643_u0644 u0020 u0645_u0627 u0020 u064a_u0642_u0648_u0644_u0647 u0020 u0627_u0644_u0645_u062a_u062d_u062f_u062b u0020 u0645_u0646 u0020 u0623_u0641_u0643_u0627_u0631 u0020 u0631_u0626_u064a_u0633_u064a_u0629_u002e_u000d", 
        "u0625_u0639_u0637_u0627_u0621 u0020 u0627_u0644_u0641_u0631_u0635_u0629 u0020 u0644_u0644_u0645_u062a_u062d_u062f_u062b u0020 u0644_u0642_u0648_u0644 u0020 u0643_u0644 u0020 u0645_u0627 u0020 u064a_u0631_u064a_u062f u0020 u0627_u0644_u062a_u0639_u0628_u064a_u0631 u0020 u0639_u0646_u0647 u0020 u0643_u0623_u0646 u0020 u062a_u0642_u0648_u0644 u0020 u0644_u0647_u003a u0020 u0643_u0644_u064a u0020 u0622_u0630_u0627_u0646 u0020 u0635_u0627_u063a_u064a_u0629 u0020 u2026 u0020 u062e_u0630 u0020 u0631_u0627_u062d_u062a_u0643 u0020 u0641_u064a u0020 u0627_u0644_u062d_u062f_u064a_u062b u0020 u2026_u2026_u000d", 
        "u0627_u0644_u0625_u0635_u063a_u0627_u0621 u0020 u0644_u063a_u0631_u0636 u0020 u0627_u0644_u0641_u0647_u0645 u0020 u0644_u0627 u0020 u0644_u063a_u0631_u0636 u0020 u0627_u0644_u0645_u0646_u0627_u0642_u0636_u0629_u002e_u000d", 
        "u0627_u0644_u0627_u0646_u062a_u0628_u0627_u0647 u0020 u0644_u0643_u0644 u0020 u0643_u0644_u0645_u0629 u0020 u062a_u0642_u0627_u0644_u002e_u000d", 
        "u0627_u0644_u0627_u0646_u062a_u0628_u0627_u0647 u0020 u0644_u0644_u062a_u0639_u0627_u0628_u064a_u0631 u0020 u063a_u064a_u0631 u0020 u0627_u0644_u0644_u0641_u0638_u064a_u0629 u0020 u0627_u0644_u0635_u0627_u062f_u0631_u0629 u0020 u0639_u0646 u0020 u0627_u0644_u0645_u062a_u062d_u062f_u062b u0020 u2026 u0020 u0627_u0644_u0625_u064a_u0645_u0627_u0621_u0627_u062a_u060c u0020 u062d_u0631_u0643_u0629 u0020 u0627_u0644_u0623_u064a_u062f_u064a u0020 u0648_u0627_u0644_u0639_u064a_u0648_u0646 u0020 u2026 u0020 u0625_u0644_u062e_u002e_u000d", 
        "u0645_u062d_u0627_u0648_u0644_u0629 u0020 u0642_u0631_u0627_u0621_u0629 u0020 u0645_u0627 u0020 u0644_u0645 u0020 u064a_u0642_u0644_u0647 u0020 u0627_u0644_u0645_u062a_u062d_u062f_u062b u0020 u0628_u0635_u0631_u0627_u062d_u0629_u002e_u000d", 
        "u062a_u062c_u0646_u0628 u0020 u0627_u0644_u062a_u0633_u0631_u0639 u0020 u0641_u064a u0020 u0627_u062a_u062e_u0627_u0630 u0020 u0627_u0644_u0642_u0631_u0627_u0631 u0020 u0623_u0648 u0020 u0623_u0646 u0020 u062a_u062a_u062e_u0630 u0020 u0645_u0646 u0020 u0627_u0644_u0645_u062a_u0643_u0644_u0645 u0020 u0623_u0648 u0020 u0627_u0644_u0645_u0648_u0636_u0648_u0639 u0020 u0645_u0648_u0642_u0641_u0627 u0020 u0645_u0633_u0628_u0642_u0627 u0020 u0648_u062a_u0648_u062c_u0647_u0627 u0020 u0633_u0644_u0628_u064a_u0627_u002e_u000d", 
        "u062a_u062c_u0646_u0628 u0020 u062a_u0635_u0646_u064a_u0641 u0020 u0627_u0644_u0645_u062a_u062d_u062f_u062b u0020 u0648_u0625_u0637_u0644_u0627_u0642 u0020 u0627_u0644_u0623_u062d_u0643_u0627_u0645 u0020 u0627_u0644_u0642_u0637_u0639_u064a_u0629 u0020 u0642_u0628_u0644 u0020 u0627_u0644_u0627_u0646_u062a_u0647_u0627_u0621_u002e_u000d", 
        "u0625_u0630_u0627 u0020 u0644_u0645 u0020 u062a_u0643_u0646 u0020 u0645_u0631_u062a_u0627_u062d_u0627 u0020 u0641_u0639_u0627_u0644_u062c u0020 u0627_u0644_u0633_u0628_u0628_u002e_u000d", 
        "u0627_u0636_u0628_u0637 u0020 u0646_u0641_u0633_u0643 u0020 u0628_u062a_u062c_u0627_u0647_u0644 u0020 u0627_u0644_u0623_u0645_u0648_u0631 u0020 u0627_u0644_u0645_u0644_u0641_u062a_u0629 u0020 u0644_u0644_u0646_u0638_u0631 u0020 u0648_u0627_u0644_u0639_u0627_u0628_u0631_u0629_u002e_u000d", 
        "u062a_u0639_u0648_u062f u0020 u0639_u0644_u0649 u0020 u0643_u062a_u0627_u0628_u0629 u0020 u0648_u0627_u0633_u062a_u064a_u0639_u0627_u0628 u0020 u0627_u0644_u0646_u0642_u0627_u0637 u0020 u0627_u0644_u0631_u0626_u064a_u0633_u064a_u0629 u0020 u0648_u0627_u0644_u0623_u062f_u0644_u0629 u0020 u0623_u0648 u0020 u0645_u0644_u062e_u0635 u0020 u0644_u0645_u062d_u062a_u0648_u0649 u0020 u0627_u0644_u0631_u0633_u0627_u0644_u0629 u0020 u0648_u062f_u0648_u0646 u0020 u0645_u0644_u0627_u062d_u0638_u0627_u062a_u0643 u0020 u0628_u062c_u0627_u0646_u0628_u0647_u0627_u002e_u000d", 
        "u0644_u0627 u0020 u062a_u062d_u0627_u0648_u0644 u0020 u0627_u0644_u0645_u0642_u0627_u0637_u0639_u0629 u0020 u0628_u062a_u0635_u062d_u064a_u062d u0020 u0627_u0644_u0643_u0644_u0645_u0627_u062a u0020 u0623_u0648 u0020 u0625_u0644_u0642_u0627_u0621 u0020 u0627_u0644_u0623_u0633_u0626_u0644_u0629 u0020 u0623_u0648 u0020 u062d_u062a_u0649 u0020 u0627_u0644_u0625_u062c_u0627_u0628_u0629 u0020 u0625_u0644_u0627 u0020 u0625_u0630_u0627 u0020 u0637_u0644_u0628 u0020 u0645_u0646_u0643 u0020 u0630_u0644_u0643_u002e_u000d", 
        "u0641_u064a u0020 u062d_u0627_u0644_u0629 u0020 u0639_u062f_u0645 u0020 u0641_u0647_u0645 u0020 u0648_u0627_u0633_u062a_u064a_u0639_u0627_u0628 u0020 u0628_u0639_u0636 u0020 u0627_u0644_u062c_u0645_u0644 u0020 u0648_u0627_u0644_u0623_u0644_u0641_u0627_u0638 u0020 u0627_u0637_u0644_u0628 u0020 u0645_u0646 u0020 u0627_u0644_u0645_u062a_u062d_u062f_u062b u0020 u062a_u0648_u0636_u064a_u062d u0020 u0630_u0644_u0643_u002e_u000d", 
        "u0627_u0636_u0628_u0637 u0020 u0631_u062f_u0648_u062f u0020 u0641_u0639_u0644_u0643 u0020 u062a_u062c_u0627_u0647 u0020 u0627_u0644_u0643_u0644_u0645_u0627_u062a u0020 u0627_u0644_u0645_u062b_u064a_u0631_u0629_u002e_u000d", 
        "u0642_u0644_u0644 u0020 u0627_u0644_u062d_u0631_u0643_u0627_u062a u0020 u0627_u0644_u0645_u0644_u0641_u062a_u0629 u0020 u0645_u062b_u0644_u003a u0020 u0641_u0631_u0642_u0639_u0629 u0020 u0627_u0644_u0623_u0635_u0627_u0628_u0639_u060c u0020 u0627_u0644_u0644_u0639_u0628 u0020 u0628_u0627_u0644_u0642_u0644_u0645_u060c u0020 u0641_u0631_u0643 u0020 u0627_u0644_u0639_u064a_u0648_u0646_u060c u0020 u0627_u0644_u062f_u0642 u0020 u0628_u0627_u0644_u0623_u0631_u062c_u0644_u060c u0020 u0627_u0644_u062a_u062b_u0627_u0624_u0628 u0020 u2026 u0020 u0625_u0644_u062e_u002e_u000d", 
        "u0643_u0645_u0633_u062a_u0645_u0639 u0020 u062d_u0627_u0648_u0644 u0020 u0623_u0646 u0020 u062a_u0641_u0647_u0645 u0020 u0627_u0644_u0623_u0634_u064a_u0627_u0621 u0020 u0645_u0646 u0020 u062e_u0644_u0627_u0644 u0020 u0648_u062c_u0647_u0629 u0020 u0646_u0638_u0631 u0020 u0627_u0644_u0645_u062a_u0643_u0644_u0645 u0020 u0623_u0646 u0020 u062a_u0643_u0634_u0641 u0020 u0627_u0644_u0647_u062f_u0641 u0020 u0627_u0644_u0630_u064a u0020 u064a_u0631_u063a_u0628 u0020 u0627_u0644_u0645_u062a_u0643_u0644_u0645 u0020 u0645_u0646 u0020 u0627_u0644_u0648_u0635_u0648_u0644 u0020 u0625_u0644_u064a_u0647_u002e_u000d", 
        "u062a_u062d_u0644_u0649 u0020 u0628_u0627_u0644_u0635_u0628_u0631 u0020 u062d_u062a_u0649 u0020 u0648_u0644_u0648 u0020 u0643_u0627_u0646_u062a u0020 u0637_u0631_u064a_u0642_u0629 u0020 u0627_u0644_u0645_u062a_u062d_u062f_u062b u0020 u0623_u0648 u0020 u0623_u0644_u0641_u0627_u0638_u0647 u0020 u063a_u064a_u0631 u0020 u0645_u0645_u062a_u0639_u0629_u002e"
    ]
}