{
    "bounding_box": [
        [
            164, 
            80, 
            395, 
            32
        ], 
        [
            153, 
            210, 
            350, 
            53
        ], 
        [
            55, 
            282, 
            547, 
            60
        ], 
        [
            87, 
            354, 
            499, 
            53
        ], 
        [
            247, 
            499, 
            213, 
            23
        ]
    ], 
    "image_height": 540, 
    "image_width": 720, 
    "transcription": [
        "u0637_u0631_u0642 u0020 u0633_u0631_u0642_u0629 u0020 u0627_u0644_u0647_u0648_u064a_u0629_u00a0_u002f_u00a0_u00a0_u0627_u0646_u062a_u062d_u0627_u0644 u0020 u0627_u0644_u0634_u062e_u0635_u064a_u0629", 
        "u0639_u0646 u0020 u0637_u0631_u064a_u0642 u0020 u0627_u0644_u0647_u0627_u062a_u0641_u000d", 
        "u0639_u0646 u0020 u0637_u0631_u064a_u0642 u0020 u0627_u0644_u0628_u0631_u064a_u062f u0020 u0627_u0644_u0627_u0644_u0643_u062a_u0631_u0648_u0646_u064a_u000d", 
        "u0639_u0646 u0020 u0637_u0631_u064a_u0642 u0020 u0627_u0644_u0646_u0641_u0627_u064a_u0627_u062a u0020 u0627_u0644_u0648_u0631_u0642_u064a_u0629", 
        "u062f_u002e u0020 u062a_u063a_u0631_u064a_u062f u0020 u0639_u0628_u062f u0020 u0627_u0644_u0641_u062a_u0627_u062d u0020 u0627_u0644_u0631_u062d_u064a_u0644_u064a"
    ]
}