{
    "bounding_box": [
        [
            83, 
            47, 
            595, 
            38
        ], 
        [
            56, 
            95, 
            622, 
            34
        ], 
        [
            62, 
            132, 
            616, 
            40
        ], 
        [
            34, 
            173, 
            644, 
            42
        ], 
        [
            21, 
            218, 
            657, 
            36
        ], 
        [
            61, 
            264, 
            617, 
            37
        ], 
        [
            20, 
            308, 
            658, 
            37
        ], 
        [
            80, 
            347, 
            598, 
            39
        ], 
        [
            186, 
            392, 
            492, 
            35
        ]
    ], 
    "image_height": 540, 
    "image_width": 720, 
    "transcription": [
        "u0033_u0029 u0020 u0020_u062a_u0646_u0645_u064a_u0629 u0020 u0627_u0644_u0634_u0639_u0648_u0631 u0020 u0627_u0644_u062c_u0645_u0627_u0639_u064a u0020 u0644_u0623_u0641_u0631_u0627_u062f u0020 u0627_u0644_u0645_u062c_u062a_u0645_u0639 u0020 u0627_u0644_u0645_u0633_u0644_u0645_u061b_u0020", 
        "u0628_u062d_u064a_u062b u0020 u064a_u0631_u0633_u062e u0020 u0644_u062f_u0649 u0020 u0627_u0644_u0641_u0631_u062f u0020 u0627_u0644_u0634_u0639_u0648_u0631 u0020 u0628_u0627_u0644_u0627_u0646_u062a_u0645_u0627_u0621 u0020 u0625_u0644_u0649 u0020 u0645_u062c_u062a_u0645_u0639_u0647_u061b_u0020", 
        "u0641_u064a_u0647_u062a_u0645 u0020 u0628_u0642_u0636_u0627_u064a_u0627_u0647 u0020 u0648_u0647_u0645_u0648_u0645_u0647_u060c u0020 u0648_u064a_u0631_u062a_u0628_u0637 u0020 u0628_u0625_u062e_u0648_u0627_u0646_u0647_u061b u0020 u0639_u0645_u0644_u0627_u064b u0020 u0628_u0642_u0648_u0644_u0647_u0020", 
        "u062a_u0639_u0627_u0644_u0649_u003a u0020 ufd3f u0020 u0625_u0650_u0646_u0651_u064e_u0645_u064e_u0627 u0020 u0627_u0644_u0645_u064f_u0624_u0652_u0645_u0650_u0646_u064f_u0648_u0646_u064e u0020 u0625_u0650_u062e_u0652_u0648_u064e_u0629_u064c u0020 ufd3e u0020 u005b_u0627_u0644_u062d_u062c_u0631_u0627_u062a_u003a u0020 u0031_u0030_u005d_u060c u0020 u0648_u0642_u0648_u0644_u0647_u0020", 
        "u0635_u0644_u0649 u0020 u0627_u0644_u0644_u0647 u0020 u0639_u0644_u064a_u0647 u0020 u0648_u0633_u0644_u0645_u003a u0020 u00ab_u0627_u0644_u0645_u0624_u0645_u0646 u0020 u0644_u0644_u0645_u0624_u0645_u0646 u0020 u0643_u0627_u0644_u0628_u0646_u064a_u0627_u0646 u0020 u064a_u0634_u062f u0020 u0628_u0639_u0636_u0647 u0020 u0628_u0639_u0636_u064b_u0627_u00bb_u060c u0020 u0648_u0642_u0648_u0644_u0647_u0020", 
        "u0635_u0644_u0649 u0020 u0627_u0644_u0644_u0647 u0020 u0639_u0644_u064a_u0647 u0020 u0648_u0633_u0644_u0645_u003a u0020 u00ab_u062a_u0631_u0649 u0020 u0627_u0644_u0645_u0624_u0645_u0646_u064a_u0646 u0020 u0641_u064a u0020 u062a_u0648_u0627_u062f_u0651_u0650_u0647_u0645 u0020 u0648_u062a_u0631_u0627_u062d_u0645_u0647_u0645 u0020 u0648_u062a_u0639_u0627_u0637_u0641_u0647_u0645_u060c_u0020", 
        "u0643_u0645_u062b_u0644 u0020 u0627_u0644_u062c_u0633_u062f u0020 u0627_u0644_u0648_u0627_u062d_u062f_u060c u0020 u0625_u0630_u0627 u0020 u0627_u0634_u062a_u0643_u0649 u0020 u0645_u0646_u0647 u0020 u0639_u0636_u0648 u0020 u062a_u062f_u0627_u0639_u0649 u0020 u0644_u0647 u0020 u0633_u0627_u0626_u0631_u0020", 
        "u0627_u0644_u062c_u0633_u062f u0020 u0628_u0627_u0644_u0633_u0647_u0631 u0020 u0648_u0627_u0644_u062d_u0645_u0649_u00bb_u061b u0020 u0648_u0628_u0630_u0644_u0643 u0020 u062a_u062a_u0623_u0643_u062f u0020 u0631_u0648_u0627_u0628_u0637 u0020 u0627_u0644_u0623_u064f_u062e_u0648_u0651_u064e_u0629_u0020", 
        "u0627_u0644_u0625_u064a_u0645_u0627_u0646_u064a_u0629 u0020 u0627_u0644_u0635_u0627_u062f_u0642_u0629 u0020 u0628_u064a_u0646 u0020 u0623_u0628_u0646_u0627_u0621 u0020 u0627_u0644_u0623_u0645_u0629 u0020 u0627_u0644_u0645_u0633_u0644_u0645_u0629_u002e_u00a0"
    ]
}