{
    "bounding_box": [
        [
            55, 
            39, 
            537, 
            41
        ], 
        [
            54, 
            131, 
            603, 
            32
        ], 
        [
            82, 
            166, 
            575, 
            32
        ], 
        [
            104, 
            206, 
            553, 
            27
        ], 
        [
            151, 
            242, 
            505, 
            24
        ], 
        [
            213, 
            281, 
            444, 
            28
        ], 
        [
            132, 
            323, 
            525, 
            28
        ], 
        [
            481, 
            360, 
            176, 
            24
        ], 
        [
            83, 
            398, 
            574, 
            30
        ], 
        [
            217, 
            436, 
            440, 
            27
        ]
    ], 
    "image_height": 540, 
    "image_width": 720, 
    "transcription": [
        "u062a_u0637_u0648_u064a_u0631 u0020 u0047_u0049_u0053 u0020 u0648_u0627_u0633_u062a_u062e_u062f_u0627_u0645 u0020 u0627_u0644_u0635_u0648_u0631 u0020 u0627_u0644_u0641_u0636_u0627_u0626_u064a_u0629", 
        "u062a_u0645 u0020 u062a_u0637_u0648_u064a_u0631 u0020 u0628_u0631_u0646_u0627_u0645_u062c u0020 u0041_u0072_u0063 u0020 u0076_u0069_u0065_u0077 u0020 u0047_u0049_u0053 u0020 u0020 u0020 u0644_u0625_u062d_u0635_u0627_u0621 u0020 u0627_u0644_u0623_u0634_u062c_u0627_u0631 u0020 u0627_u0644_u0645_u062b_u0645_u0631_u0629 u0020 u0622_u0644_u064a_u0627_u064b_u0020", 
        "u0645_u0646 u0020 u0627_u0644_u0635_u0648_u0631 u0020 u0627_u0644_u0641_u0636_u0627_u0626_u064a_u0629 u0020 u0646_u0648_u0639 u0020 u0049_u006b_u006f_u006e_u006f_u0073 u0020 u0645_u062a_u0632_u0627_u0645_u0646_u0627_u064b u0020 u0645_u0639 u0020 u0628_u0646_u0627_u0621 u0020 u0642_u0627_u0639_u062f_u0629 u0020 u0628_u064a_u0627_u0646_u0627_u062a_u0020", 
        "u0622_u0644_u064a_u0629 u0020 u062a_u062d_u062a_u0648_u064a u0020 u0625_u062d_u062f_u0627_u062b_u064a_u0627_u062a u0020 u0643_u0644 u0020 u0634_u062c_u0631_u0629 u0020 u0628_u0639_u062f u0020 u0631_u0633_u0645 u0020 u0646_u0642_u0637_u0629 u0020 u0639_u0644_u0649 u0020 u0627_u0644_u062e_u0631_u064a_u0637_u0629_u0020", 
        "u0627_u0644_u0631_u0642_u0645_u064a_u0629 u0020 u0641_u0648_u0642 u0020 u0627_u0644_u0634_u062c_u0631_u0629 u0020 u0628_u0639_u062f u0020 u062a_u0645_u064a_u064a_u0632_u0647_u0627 u0020 u0645_u0646 u0020 u0627_u0644_u0635_u0648_u0631_u0629 u0020 u0627_u0644_u0641_u0636_u0627_u0626_u064a_u0629 u0020 u000d", 
        "u0643_u0630_u0644_u0643 u0020 u0648_u0636_u0639 u0020 u0020_u0631_u0642_u0645 u0020 u0645_u062a_u0633_u0644_u0633_u0644 u0020 u0644_u0645_u0646_u0639 u0020 u062a_u0643_u0631_u0627_u0631 u0020 u0627_u0644_u0639_u062f u0020 u0627_u0644_u0622_u0644_u064a u0020 u000d", 
        "u062a_u0648_u062c_u062f u0020 u0625_u0645_u0643_u0627_u0646_u064a_u0629 u0020 u0644_u0644_u062a_u0639_u062f_u064a_u0644 u0020 u0627_u0644_u064a_u062f_u0648_u064a u0020 u0644_u0644_u0645_u0633_u062a_u062e_u062f_u0645 u0020 u0639_u0644_u0649 u0020 u0642_u0627_u0639_u062f_u0629 u0020 u0627_u0644_u0628_u064a_u0627_u0646_u0627_u062a_u0020", 
        "u0648_u0627_u0644_u062e_u0631_u064a_u0637_u0629 u0020 u0627_u0644_u0631_u0642_u0645_u064a_u0629_u002e_u000d", 
        "u064a_u062e_u0637_u0637 u0020 u0627_u0644_u0645_u0643_u062a_u0628 u0020 u0627_u0644_u0645_u0631_u0643_u0632_u064a u0020 u0644_u0644_u0625_u062d_u0635_u0627_u0621 u0020 u0644_u0625_u062c_u0631_u0627_u0621 u0020 u0645_u0633_u062d u0020 u0634_u0627_u0645_u0644 u0020 u0644_u0644_u0623_u0634_u062c_u0627_u0631_u0020", 
        "u0627_u0644_u0645_u062b_u0645_u0631_u0629 u0020 u0032_u0030_u0031_u0033 u0020 u0631_u064a_u062b_u0645_u0627 u0020 u064a_u062a_u0645 u0020 u062a_u0648_u0641_u064a_u0631 u0020 u0627_u0644_u0635_u0648_u0631 u0020 u0627_u0644_u0644_u0627_u0632_u0645_u0629_u002e_u000d"
    ]
}