{
    "bounding_box": [
        [
            108, 
            51, 
            486, 
            41
        ], 
        [
            292, 
            101, 
            128, 
            34
        ], 
        [
            76, 
            212, 
            567, 
            43
        ], 
        [
            87, 
            302, 
            533, 
            43
        ], 
        [
            165, 
            349, 
            388, 
            44
        ], 
        [
            64, 
            416, 
            580, 
            43
        ], 
        [
            322, 
            468, 
            74, 
            35
        ]
    ], 
    "image_height": 540, 
    "image_width": 720, 
    "transcription": [
        "u0645_u062a_u0649 u0020 u064a_u0645_u0643_u0646 u0020 u0627_u0633_u062a_u062e_u062f_u0627_u0645 u0020 u0625_u0633_u062a_u0631_u0627_u062a_u064a_u062c_u064a_u0629 u0020 u0627_u0644_u0628_u062d_u062b_u0020", 
        "u0639_u0646 u0020 u0646_u0645_u0637 u0020 u061f", 
        "u0625_u0630_u0627 u0020 u0643_u0627_u0646 u0020 u0641_u064a u0020 u0627_u0644_u0645_u0633_u0623_u0644_u0629 u0020 u0645_u0639_u0644_u0648_u0645_u0627_u062a u0020 u0645_u0646_u0638_u0645_u0629 u0020 u0648_u0645_u062a_u062a_u0627_u0644_u064a_u0629", 
        "u0625_u0630_u0627 u0020 u0623_u0645_u0643_u0646 u0020 u062a_u0643_u0648_u064a_u0646 u0020 u0633_u0644_u0633_u0644_u0629 u0020 u0028_u0623_u0639_u062f_u0627_u062f u0020 u060c u0020 u062d_u0631_u0648_u0641 u0020 u060c_u0020", 
        "u0623_u0634_u0643_u0627_u0644 u0020 u060c_u002e_u002e_u002e_u0029 u0020 u0645_u0646 u0020 u0628_u064a_u0627_u0646_u0627_u062a u0020 u0627_u0644_u0645_u0633_u0623_u0644_u0629", 
        "u0639_u0646_u062f_u0645_u0627 u0020 u064a_u062a_u0643_u0631_u0631 u0020 u0634_u064a_u0621 u0020 u0641_u064a u0020 u0627_u0644_u0645_u0633_u0623_u0644_u0629 u0020 u0628_u0637_u0631_u064a_u0642_u0629 u0020 u064a_u0645_u0643_u0646_u0643_u0020", 
        "u062a_u062a_u0628_u0651_u0639_u0647_u0627"
    ]
}