{
    "bounding_box": [
        [
            90, 
            208, 
            519, 
            58
        ]
    ], 
    "image_height": 540, 
    "image_width": 720, 
    "transcription": [
        "u0627_u0644_u0625_u0628_u062a_u0639_u0627_u062b u0020 u0625_u0644_u0649 u0020 u062c_u0645_u0647_u0648_u0631_u064a_u0629 u0020 u0623_u064a_u0631_u0644_u0646_u062f_u0627"
    ]
}