{
    "bounding_box": [
        [
            44, 
            187, 
            614, 
            42
        ], 
        [
            44, 
            235, 
            605, 
            43
        ], 
        [
            44, 
            283, 
            605, 
            43
        ], 
        [
            44, 
            331, 
            605, 
            43
        ], 
        [
            436, 
            379, 
            213, 
            38
        ]
    ], 
    "image_height": 540, 
    "image_width": 720, 
    "transcription": [
        "u0020_u0648_u0645_u0646 u0020 u0647_u0630_u0627 u0020 u0627_u0644_u0645_u0646_u0637_u0644_u0642 u0020 u062a_u0642_u0648_u0645 u0020 u0627_u0644_u062c_u0627_u0645_u0639_u0629 u0020 u0628_u0627_u0644_u0639_u062f_u064a_u062f u0020 u0645_u0646_u0020", 
        "u0627_u0644_u0623_u0646_u0634_u0637_u0629 u0020 u0627_u0644_u0625_u062d_u0635_u0627_u0626_u064a_u0629_u060c u0020 u0648_u0627_u0644_u062a_u064a u0020 u062a_u0631_u0643_u0632 u0020 u0641_u064a_u0647_u0627 u0020 u0639_u0644_u0649 u0020 u062f_u0639_u0645_u0020", 
        "u0627_u0644_u0639_u0645_u0644 u0020 u0627_u0644_u0625_u062d_u0635_u0627_u0626_u064a u0020 u0648_u0628_u0646_u0627_u0621 u0020 u0642_u062f_u0631_u0627_u062a u0020 u0627_u0644_u0623_u062c_u0647_u0632_u0629_u0020", 
        "u0627_u0644_u0625_u062d_u0635_u0627_u0626_u064a_u0629 u0020 u0627_u0644_u0639_u0631_u0628_u064a_u0629 u0020 u0648_u0639_u0644_u0649 u0020 u0648_u062c_u0647 u0020 u0627_u0644_u062e_u0635_u0648_u0635 u0020 u0641_u064a_u0020", 
        "u0627_u0644_u062f_u0648_u0644 u0020 u0627_u0644_u0623_u0642_u0644 u0020 u0646_u0645_u0648_u0627_u000d"
    ]
}