{
    "bounding_box": [
        [
            549, 
            58, 
            349, 
            29
        ], 
        [
            423, 
            100, 
            434, 
            30
        ], 
        [
            324, 
            145, 
            533, 
            28
        ], 
        [
            243, 
            183, 
            614, 
            33
        ], 
        [
            113, 
            226, 
            744, 
            33
        ], 
        [
            449, 
            264, 
            408, 
            32
        ], 
        [
            218, 
            309, 
            639, 
            30
        ]
    ], 
    "image_height": 540, 
    "image_width": 960, 
    "transcription": [
        "u0645_u0648_u0636_u0639 u0020 u067e_u0627_u0631_u0644_u0645_u0627_u0646 u0020 u062f_u0631 u0020 u0645_u0642_u0627_u0628_u0644 u0020 u0643_u0645_u064a_u0633_u064a_u0648_u0646 u0020 u003a_u000d", 
        "u067e_u0627_u0631_u0644_u0645_u0627_u0646 u0020 u0645_u064a_u062a_u0648_u0627_u0646_u062f u0020 u0647_u064a_u0626_u062a u0020 u0643_u0645_u064a_u0633_u064a_u0648_u0646 u0020 u0631_u0627 u0020 u0639_u0632_u0644 u0020 u0646_u0645_u0627_u064a_u062f_u000d", 
        "u0645_u062c_u0645_u0648_u0639 u0020 u0627_u0639_u0636_u0627_u064a u0020 u0643_u0645_u064a_u0633_u064a_u0648_u0646 u0020 u0628_u0627_u064a_u062f u0020 u062a_u0648_u0633_u0637 u0020 u067e_u0627_u0631_u0644_u0645_u0627_u0646 u0020 u062a_u0627_u064a_u064a_u062f u0020 u0634_u0648_u0646_u062f_u000d", 
        "u06af_u0632_u0627_u0631_u0634 u0020 u0633_u0627_u0644_u0627_u0646_u0647 u0020 u0643_u0645_u064a_u0633_u064a_u0648_u0646 u0020 u0628_u0627_u064a_u062f u0020 u062f_u0631 u0020 u067e_u0627_u0631_u0644_u0645_u0627_u0646 u0020 u062e_u0648_u0627_u0646_u062f_u0647 u0020 u0648 u0020 u0628_u0631_u0631_u0633_u064a u0020 u0634_u0648_u062f_u002e_u000d", 
        "u06af_u0632_u0627_u0631_u0634_u0627_u062a u0020 u0635_u0648_u0631_u062a u0020 u062d_u0633_u0627_u0628_u0647_u0627_u064a u0020 u0645_u0627_u0644_u064a u0020 u0633_u0627_u0644_u0627_u0646_u0647 u0020 u0645_u0631_u0628_u0648_u0637 u0020 u0628_u0647 u0020 u0628_u0648_u062f_u062c_u0647 u0020 u062a_u0648_u0633_u0637 u0020 u0643_u0645_u064a_u0633_u064a_u0648_u0646 u0020 u062f_u0631_u0020", 
        "u0627_u062e_u062a_u064a_u0627_u0631 u0020 u067e_u0627_u0631_u0644_u0645_u0627_u0646 u0020 u0648 u0020 u0643_u0645_u064a_u0633_u064a_u0648_u0646 u0020 u0642_u0631_u0627_u0631 u0020 u0645_u064a u0020 u06af_u064a_u0631_u062f_u002e_u000d", 
        "u0627_u062e_u062a_u064a_u0627_u0631 u0020 u0646_u0627_u0645_u062d_u062f_u0648_u062f u0020 u0643_u0645_u064a_u062a_u0647 u0020 u0647_u0627_u064a u0020 u067e_u0627_u0631_u0644_u0645_u0627_u0646 u0020 u062f_u0631 u0020 u062e_u0635_u0648_u0635 u0020 u062a_u062d_u0642_u064a_u0642 u0020 u0627_u0632 u0020 u0643_u0645_u064a_u0633_u064a_u0648_u0646"
    ]
}