{
    "bounding_box": [
        [
            240, 
            222, 
            433, 
            65
        ], 
        [
            263, 
            302, 
            439, 
            28
        ]
    ], 
    "image_height": 540, 
    "image_width": 959, 
    "transcription": [
        "u0648_u0632_u0627_u0631_u0629 u0020 u0627_u0644_u062a_u0631_u0628_u064a_u0629 u0020 u0648_u0627_u0644_u062a_u0639_u0644_u064a_u0645_u0020", 
        "u0627_u0647_u0645 u0020 u0645_u0628_u0627_u062f_u0631_u0627_u062a_u0647 u0020 u0648 u0020 u062a_u0648_u0635_u064a_u0627_u062a u0020 u0020_u062c_u0644_u0633_u0627_u062a u0020 u0627_u0644_u0639_u0635_u0641 u0020 u0020_u0627_u0644_u0630_u0647_u0646_u064a"
    ]
}