{
    "bounding_box": [
        [
            737, 
            86, 
            133, 
            37
        ], 
        [
            615, 
            151, 
            243, 
            25
        ], 
        [
            418, 
            185, 
            439, 
            31
        ], 
        [
            638, 
            224, 
            220, 
            24
        ]
    ], 
    "image_height": 540, 
    "image_width": 960, 
    "transcription": [
        "u0646_u0628_u0630_u0629 u0020 u0639_u0627_u0645_u0629", 
        "u062a_u062d_u062f_u064a_u062f u0020 u0627_u0644_u0647_u062f_u0641 u0020 u0648_u062a_u0648_u062c_u064a_u0647 u0020 u0627_u0644_u062c_u0647_u062f_u000d", 
        "u0644_u0645_u062d_u0629 u0020 u0639_u0646 u0020 u0635_u0646_u0627_u0639_u0629 u0020 u0627_u0644_u0623_u0644_u0639_u0627_u0628 u0020 u0627_u0644_u0639_u0631_u0628_u064a_u0629 u0020 u0641_u064a u0020 u0627_u0644_u0639_u0642_u062f u0020 u0627_u0644_u0633_u0627_u0628_u0642_u000d", 
        "u0627_u0644_u062a_u063a_u064a_u0631_u0627_u062a u0020 u0648_u0627_u0644_u0641_u0631_u0635 u0020 u0627_u0644_u0642_u0627_u0626_u0645_u0629"
    ]
}