{
    "bounding_box": [
        [
            75, 
            283, 
            524, 
            25
        ], 
        [
            101, 
            312, 
            498, 
            25
        ], 
        [
            472, 
            341, 
            128, 
            23
        ], 
        [
            221, 
            70, 
            176, 
            38
        ], 
        [
            455, 
            147, 
            150, 
            25
        ], 
        [
            545, 
            179, 
            52, 
            19
        ], 
        [
            560, 
            208, 
            37, 
            18
        ], 
        [
            491, 
            234, 
            106, 
            24
        ]
    ], 
    "image_height": 540, 
    "image_width": 720, 
    "transcription": [
        "u0627_u0644_u0646_u0638_u0631_u064a_u0629 u0020 u062a_u0633_u0627_u0639_u062f u0020 u0639_u0644_u064a u0020 u0627_u0644_u062a_u0639_u0631_u0641 u0020 u0639_u0644_u064a u0020 u0623_u0628_u0639_u0627_u062f u0020 u0627_u0644_u0638_u0627_u0647_u0631_u0629 u0020 u0648_u0645_u0643_u0648_u0646_u0627_u062a_u0647_u0627 u0020 u0648_u0627_u0644_u0639_u0644_u0627_u0642_u0627_u062a_u0020", 
        "u0627_u0644_u0643_u0627_u0626_u0646_u0629 u0020 u0628_u064a_u0646_u0647_u0627 u0020 u0648_u0628_u0627_u0644_u062a_u0627_u0644_u064a u0020 u064a_u0645_u0643_u0646 u0020 u0627_u0644_u062a_u0646_u0628_u0624 u0020 u0628_u0633_u0644_u0648_u0643 u0020 u0628_u0639_u0636 u0020 u0627_u0644_u0645_u0643_u0648_u0646_u0627_u062a u0020 u0648_u0645_u0646 u0020 u062b_u0645_u0020", 
        "u0627_u0644_u062a_u062d_u0643_u0645 u0020 u0648_u0627_u0644_u0633_u064a_u0637_u0631_u0629", 
        "u0645_u0627 u0020 u0647_u064a u0020 u0627_u0644_u0646_u0638_u0631_u064a_u0629_u0020", 
        "u0627_u0644_u0646_u0638_u0631_u064a_u0629 u0020 u062a_u0624_u062f_u064a u0020 u0625_u0644_u064a_u003a_u000d", 
        "u062a_u0641_u0633_u064a_u0631_u000d", 
        "u062a_u0646_u0628_u0624_u000d", 
        "u062a_u062d_u0643_u0645 u0020 u0648_u0633_u064a_u0637_u0631_u0629"
    ]
}