{
    "bounding_box": [
        [
            288, 
            19, 
            399, 
            41
        ], 
        [
            137, 
            87, 
            529, 
            24
        ], 
        [
            394, 
            113, 
            272, 
            21
        ], 
        [
            115, 
            145, 
            551, 
            24
        ], 
        [
            179, 
            171, 
            488, 
            24
        ], 
        [
            352, 
            202, 
            314, 
            25
        ], 
        [
            199, 
            231, 
            468, 
            28
        ], 
        [
            487, 
            261, 
            179, 
            24
        ], 
        [
            144, 
            291, 
            522, 
            25
        ], 
        [
            222, 
            318, 
            445, 
            21
        ], 
        [
            155, 
            349, 
            511, 
            25
        ], 
        [
            178, 
            376, 
            489, 
            24
        ], 
        [
            135, 
            404, 
            531, 
            28
        ], 
        [
            161, 
            434, 
            505, 
            23
        ], 
        [
            515, 
            460, 
            151, 
            24
        ]
    ], 
    "image_height": 540, 
    "image_width": 720, 
    "transcription": [
        "u062a_u0646_u0645_u064a_u0629 u0020 u0645_u0647_u0627_u0631_u0629 u0020 u0627_u0644_u0641_u0647_u0645 u0020 u0627_u0644_u0627_u0633_u062a_u0645_u0627_u0639_u064a", 
        "u0623_u0648_u0644_u0627 u0020 u003a u0020 u0627_u0644_u0627_u0646_u062a_u0628_u0627_u0647 u0020 u003a u0020 u0645_u0646 u0020 u0627_u0644_u0645_u0637_u0627_u0644_u0628 u0020 u0627_u0644_u0631_u0626_u064a_u0633_u0629 u0020 u0644_u0633_u0645_u0639 u0020 u0627_u0644_u0631_u0633_u0627_u0644_u0629 u0020 u0648_u062a_u0641_u0633_u064a_u0631_u0647_u0627 u0020 u060c_u0020", 
        "u0648_u062a_u062d_u062f_u064a_u062f u0020 u0627_u0644_u0633_u0644_u0648_u0643 u0020 u0627_u0644_u0645_u062a_u0631_u062a_u0628 u0020 u0639_u0644_u064a_u0647_u0627 u0020 u002e_u000d", 
        "u062b_u0627_u0646_u064a_u0627 u0020 u003a u0020 u0627_u0644_u062a_u062e_u0644_u0635 u0020 u0645_u0646 u0020 u0627_u0644_u0645_u0634_u062a_u062a_u0627_u062a u0020 u0627_u0644_u0634_u0639_u0648_u0631_u064a_u0629 u0020 u0648_u0627_u0644_u0644_u0627_u0634_u0639_u0648_u0631_u064a_u0629 u0020 u060c u0020 u0643_u0627_u0644_u0628_u0639_u062f u0020 u0639_u0646_u0020", 
        "u0645_u0635_u0627_u062f_u0631 u0020 u0627_u0644_u0636_u0648_u0636_u0627_u0621 u0020 u060c u0020 u0648_u0627_u0644_u0627_u0633_u062a_u0645_u0627_u0639 u0020 u0644_u0644_u0645_u062a_u062d_u062f_u062b u0020 u0628_u062f_u0644_u0627 u0020 u0645_u0646 u0020 u0627_u0644_u0631_u0633_u0627_u0644_u0629_u000d", 
        "u062b_u0627_u0644_u062b_u0627 u0020 u003a u0020 u062a_u062c_u0646_u0628 u0020 u0639_u0648_u0627_u0645_u0644 u0020 u0627_u0644_u062a_u0634_u062a_u062a u0020 u0627_u0644_u0630_u0647_u0646_u064a u0020 u002e_u000d", 
        "u0631_u0627_u0628_u0639_u0627 u0020 u003a u0020 u0627_u0633_u062a_u0631_u062c_u0627_u0639 u0020 u0627_u0644_u062e_u0628_u0631_u0627_u062a u0020 u0627_u0644_u0633_u0627_u0628_u0642_u0629 u0020 u0644_u0647 u0020 u0623_u0643_u0628_u0631 u0020 u0627_u0644_u0623_u062b_u0631 u0020 u0641_u064a u0020 u0641_u0647_u0645_u0020", 
        "u0627_u0644_u0645_u0648_u0636_u0648_u0639 u0020 u0648_u062a_u0641_u0633_u064a_u0631_u0647 u0020 u002e_u000d", 
        "u062e_u0627_u0645_u0633_u0627 u0020 u003a u0020 u062a_u0643_u0648_u064a_u0646 u0020 u0645_u0647_u0627_u0631_u0629 u0020 u0627_u0644_u0627_u0633_u062a_u0645_u0627_u0639 u0020 u0627_u0644_u0646_u0642_u062f_u064a u0020 u0628_u0627_u0644_u062a_u062f_u0631_u064a_u0628 u0020 u0639_u0644_u0649 u0020 u0627_u0643_u062a_u0634_u0627_u0641_u0020", 
        "u0627_u0644_u0645_u062a_u0646_u0627_u0642_u0636_u0627_u062a u0020 u060c u0020 u0648_u0623_u0633_u0627_u0644_u064a_u0628 u0020 u0627_u0644_u062f_u0639_u0627_u064a_u0629 u0020 u060c u0020 u0648_u0623_u0647_u062f_u0627_u0641 u0020 u0627_u0644_u0645_u062a_u062d_u062f_u062b u0020 u002e_u000d", 
        "u0633_u0627_u062f_u0633_u0627 u0020 u003a u0020 u0627_u0644_u062a_u062f_u0631_u064a_u0628 u0020 u0627_u0644_u062c_u064a_u062f u0020 u0639_u0644_u0649 u0020 u0641_u0647_u0645 u0020 u0645_u0639_u0627_u0646_u064a u0020 u0627_u0644_u0643_u0644_u0645_u0627_u062a u0020 u0645_u0646 u0020 u0627_u0644_u0633_u064a_u0627_u0642 u0020 u060c_u0020", 
        "u062d_u064a_u062b u0020 u064a_u062a_u0639_u0630_u0631 u0020 u0639_u0644_u0649 u0020 u0627_u0644_u0645_u0631_u0621 u0020 u0627_u0633_u062a_u0639_u0645_u0627_u0644 u0020 u0627_u0644_u0642_u0627_u0645_u0648_u0633 u0020 u0623_u062b_u0646_u0627_u0621 u0020 u0627_u0644_u0627_u0633_u062a_u0645_u0627_u0639 u0020 u002e_u000d", 
        "u0633_u0627_u0628_u0639_u0627 u0020 u003a u0020 u0645_u0645_u0627 u0020 u064a_u0639_u0648_u0642 u0020 u0627_u0644_u0627_u0633_u062a_u0645_u0627_u0639 u0020 u0623_u0646 u0020 u062a_u0641_u0643_u064a_u0631 u0020 u0627_u0644_u0645_u0633_u062a_u0645_u0639 u0020 u064a_u0633_u0628_u0642 u0020 u0627_u0644_u0645_u062a_u062d_u062f_u062b u0020 u060c_u0020", 
        "u0645_u0645_u0627 u0020 u064a_u062a_u0637_u0644_u0628 u0020 u0645_u0646 u0020 u0627_u0644_u0645_u0633_u062a_u0645_u0639 u0020 u062a_u0648_u0638_u064a_u0641_u0647 u0020 u0641_u064a u0020 u0625_u0628_u0639_u0627_u062f u0020 u0627_u0644_u0645_u0634_u062a_u062a_u0627_u062a u0020 u060c u0020 u0648_u062e_u062f_u0645_u0629_u0020", 
        "u0627_u0644_u0627_u0633_u062a_u0645_u0627_u0639 u0020 u0627_u0644_u0641_u0639_u0627_u0644 u0020 u002e_u000d"
    ]
}