{
    "bounding_box": [
        [
            169, 
            177, 
            283, 
            17
        ], 
        [
            253, 
            206, 
            115, 
            16
        ], 
        [
            177, 
            261, 
            258, 
            18
        ]
    ], 
    "image_height": 540, 
    "image_width": 960, 
    "transcription": [
        "u0048_u0041_u0044_u0049_u0053 u0020 u004b_u0041_u004f u0020 u004b_u004f_u004d_u0045_u004e_u0054_u0041_u0052_u000b", 
        "u004b_u0055_u0052_u2019_u0041_u004e_u0041_u000b", 
        "u0070_u0072_u006f_u0066_u002e u0020 u0020_u004d_u0061_u0068_u006d_u0075_u0064 u0020 u004b_u0061_u0072_u0061_u006c_u0069_u0107"
    ]
}