{
    "bounding_box": [
        [
            515, 
            85, 
            355, 
            46
        ], 
        [
            522, 
            149, 
            336, 
            28
        ], 
        [
            640, 
            185, 
            217, 
            28
        ], 
        [
            483, 
            221, 
            374, 
            30
        ], 
        [
            498, 
            260, 
            360, 
            28
        ], 
        [
            726, 
            293, 
            131, 
            28
        ], 
        [
            575, 
            333, 
            283, 
            23
        ], 
        [
            634, 
            369, 
            224, 
            25
        ]
    ], 
    "image_height": 540, 
    "image_width": 960, 
    "transcription": [
        "u0627_u0644_u062a_u0632_u0627_u0645_u0627_u062a u0020 u0627_u0644_u0645_u0637_u0648_u0631 u0020 u0627_u0644_u0639_u0631_u0628_u064a", 
        "u0627_u0644_u0623_u0644_u0639_u0627_u0628 u0020 u0645_u0646 u0020 u0623_u0643_u062b_u0631 u0020 u0648_u0633_u0627_u0626_u0644 u0020 u0627_u0644_u0625_u0639_u0644_u0627_u0645 u0020 u062a_u0623_u062b_u064a_u0631_u0627_u064b_u000d", 
        "u0642_u0648_u0629 u0020 u0643_u0628_u064a_u0631_u0629 u0020 u0644_u063a_u0631_u0633 u0020 u0627_u0644_u0623_u0641_u0643_u0627_u0631_u000d", 
        "u062a_u0633_u062a_u062e_u062f_u0645 u0020 u0633_u0644_u0628_u0627_u064b u0020 u0641_u064a u0020 u0627_u0644_u0643_u062b_u064a_u0631 u0020 u0645_u0646 u0020 u0627_u0644_u0623_u0644_u0639_u0627_u0628 u0020 u0627_u0644_u063a_u0631_u0628_u064a_u0629_u000d", 
        "u0641_u0643_u0631 u0020 u0628_u0627_u0644_u0631_u0633_u0627_u0644_u0629 u0020 u0627_u0644_u062a_u064a u0020 u0633_u062a_u0642_u0628_u0639 u0020 u0641_u064a u0020 u0642_u0644_u0628 u0020 u0627_u0644_u0644_u0627_u0639_u0628_u000d", 
        "u0643_u0646 u0020 u0630_u0643_u064a_u0627_u064b u0020 u0648_u0641_u0637_u0646_u0627_u064b_u000d", 
        "u0627_u0643_u0633_u0628 u0020 u062d_u0628 u0020 u0627_u0644_u0645_u0634_u0627_u0647_u062f_u060c u0020 u062a_u0643_u0633_u0628 u0020 u0642_u0644_u0628_u0647_u000d", 
        "u062d_u0637_u0645 u0020 u0627_u0644_u0646_u0645_u0637_u064a_u0629 u0020 u0648_u0642_u062f_u0645 u0020 u0627_u0644_u062d_u0642_u064a_u0642_u0629"
    ]
}