{
    "bounding_box": [
        [
            104, 
            72, 
            511, 
            71
        ]
    ], 
    "image_height": 540, 
    "image_width": 720, 
    "transcription": [
        "u062c_u0647_u0627_u0632 u0020 u0627_u0644_u0628_u0635_u0645_u0629 u0020 u0641_u064a u0020 u0627_u0644_u0639_u0631_u0627_u0642"
    ]
}