{
    "bounding_box": [
        [
            74, 
            15, 
            548, 
            45
        ], 
        [
            257, 
            74, 
            193, 
            28
        ], 
        [
            23, 
            120, 
            671, 
            39
        ], 
        [
            297, 
            164, 
            348, 
            30
        ], 
        [
            337, 
            213, 
            309, 
            38
        ], 
        [
            5, 
            259, 
            610, 
            45
        ], 
        [
            328, 
            310, 
            288, 
            34
        ], 
        [
            67, 
            362, 
            549, 
            38
        ], 
        [
            399, 
            403, 
            217, 
            41
        ], 
        [
            300, 
            454, 
            316, 
            42
        ]
    ], 
    "image_height": 540, 
    "image_width": 720, 
    "transcription": [
        "u002a u0020 u062f_u0648_u0631_u0629 u0020 u0020_u062d_u064a_u0627_u0629 u0020 u0020_u0627_u0644_u0627_u062c_u062a_u0645_u0627_u0639_u0627_u062a u0020 u0020_u0028_u062f_u064a_u0646_u0627_u0645_u064a_u0643_u064a_u0629 u0020 u0020", 
        "u0627_u0644_u0627_u062c_u062a_u0645_u0627_u0639_u0627_u062a u0020 u0029_u0020", 
        "u0020_u062a_u0645_u0631 u0020 u0020_u0627_u0644_u0627_u062c_u062a_u0645_u0627_u0639_u0627_u062a u0020 u0020_u0627_u0644_u0641_u0639_u0651_u0627_u0644_u0629 u0020 u0020_u0628_u0623_u0631_u0628_u0639 u0020 u0020_u0645_u0631_u0627_u062d_u0644 u0020 u0020_u062d_u062a_u0649 u0020 u0020_u062a_u0635_u0644 u0020 u0020_u0625_u0644_u0649 u0020 u0020", 
        "u0645_u062c_u0645_u0648_u0639_u0629 u0020 u0020_u0645_u0646_u0633_u062c_u0645_u0629 u0020 u0020_u0648_u0645_u0646_u062a_u062c_u0629 u0020 u0020_u003a_u002d_u000d", 
        "u0627_u0644_u062a_u0643_u0648_u064a_u0646 u0020 u0020_u0028_u0028_u0046_u006f_u0072_u006d_u0069_u006e_u0067_u003a_u002d_u000d", 
        "u064a_u062f_u0631_u0633 u0020 u0627_u0644_u0645_u0634_u0627_u0631_u0643_u0648_u0646 u0020 u0020_u0641_u064a u0020 u0627_u0644_u0627_u062c_u062a_u0645_u0627_u0639 u0020 u0020_u0628_u0639_u0636_u0647_u0645 u0020 u0020_u0628_u0639_u0636_u0627_u064b u0020 u0020", 
        "u0628_u0637_u0631_u064a_u0642_u0629 u0020 u0020_u0645_u0647_u0630_u0628_u0629 u0020 u0020_u0648_u0644_u0628_u0642_u0629 u0020 u002e_u000d", 
        "u064a_u0633_u0639_u0649 u0020 u0627_u0644_u0645_u0634_u0627_u0631_u0643_u0648_u0646 u0020 u0020_u0644_u0645_u0639_u0631_u0641_u0629 u0020 u062e_u0644_u0641_u064a_u0627_u062a u0020 u0648_u0645_u0648_u0627_u0642_u0641 u0020 u0020", 
        "u0628_u0639_u0636_u0647_u0645 u0020 u0020_u0628_u0639_u0636_u0627_u064b u0020 u002e u0020 u000d", 
        "u062a_u0631_u0633_u064a_u062e u0020 u0020_u0642_u0648_u0627_u0639_u062f u0020 u0020_u0623_u0633_u0627_u0633_u064a_u0629 u0020 u0020_u002e_u000d"
    ]
}