{
    "bounding_box": [
        [
            644, 
            500, 
            14, 
            10
        ], 
        [
            139, 
            8, 
            453, 
            43
        ], 
        [
            7, 
            9, 
            10, 
            13
        ], 
        [
            208, 
            72, 
            489, 
            23
        ], 
        [
            441, 
            131, 
            256, 
            22
        ], 
        [
            380, 
            160, 
            317, 
            22
        ], 
        [
            181, 
            210, 
            513, 
            24
        ], 
        [
            328, 
            264, 
            337, 
            25
        ], 
        [
            339, 
            293, 
            327, 
            25
        ]
    ], 
    "image_height": 540, 
    "image_width": 720, 
    "transcription": [
        "u0031_u0030", 
        "u0627_u0644_u0639_u0627_u0645_u0644_u0648_u0646 u0020 u0641_u064a u0020 u0623_u062c_u0647_u0632_u0629 u0020 u0627_u0644_u0639_u0644_u0627_u0642_u0627_u062a u0020 u0627_u0644_u0639_u0627_u0645_u0629_u0020", 
        "u0039", 
        "u0623_u0648_u0644_u0627_u064b_u003a u0020 u0627_u0644_u0625_u0637_u0627_u0631 u0020 u0627_u0644_u0639_u0627_u0645 u0020 u0644_u0645_u0648_u0627_u0635_u0641_u0627_u062a u0020 u0627_u0644_u0639_u0627_u0645_u0644_u064a_u0646 u0020 u0641_u064a u0020 u0623_u062c_u0647_u0632_u0629 u0020 u0627_u0644_u0639_u0644_u0627_u0642_u0627_u062a u0020 u0627_u0644_u0639_u0627_u0645_u0629_u000d", 
        "u0627_u0644_u062a_u0633_u0645_u064a_u0627_u062a u0020 u0648_u0627_u0644_u0645_u0633_u0624_u0648_u0644_u064a_u0627_u062a u0020 u0627_u0644_u0648_u0638_u064a_u0641_u064a_u0629_u000d", 
        "u0623_u062e_u0644_u0627_u0642_u064a_u0627_u062a u0020 u0627_u0644_u0639_u0645_u0644 u0020 u0648_u0627_u0644_u0639_u0627_u0645_u0644_u064a_u0646 u0020 u0628_u0627_u0644_u0639_u0644_u0627_u0642_u0627_u062a u0020 u0627_u0644_u0639_u0627_u0645_u0629", 
        "u0627_u0644_u062e_u0635_u0627_u0626_u0635 u0020 u0627_u0644_u0648_u0627_u062c_u0628 u0020 u062a_u0648_u0641_u0631_u0647_u0627 u0020 u0628_u0627_u0644_u0639_u0627_u0645_u0644_u064a_u0646 u0020 u0641_u064a u0020 u0623_u062c_u0647_u0632_u0629 u0020 u0627_u0644_u0639_u0644_u0627_u0642_u0627_u062a u0020 u0627_u0644_u0639_u0627_u0645_u0629 u0020 u062b_u0627_u0646_u064a_u0627_u0020", 
        "u0635_u0641_u0627_u062a u0020 u0634_u062e_u0635_u064a_u0629 u0020 u0644_u0644_u0639_u0627_u0645_u0644_u064a_u0646 u0020 u0641_u064a u0020 u0627_u0644_u0639_u0644_u0627_u0642_u0627_u062a u0020 u0627_u0644_u0639_u0627_u0645_u0629_u000d", 
        "u0645_u0624_u0647_u0644_u0627_u062a u0020 u0639_u0644_u0645_u064a_u0629 u0020 u0644_u0644_u0639_u0627_u0645_u0644_u064a_u0646 u0020 u0641_u064a u0020 u0627_u0644_u0639_u0644_u0627_u0642_u0627_u062a u0020 u0627_u0644_u0639_u0627_u0645_u0629"
    ]
}