{
    "bounding_box": [
        [
            36, 
            102, 
            108, 
            32
        ], 
        [
            85, 
            181, 
            569, 
            34
        ], 
        [
            186, 
            221, 
            468, 
            33
        ]
    ], 
    "image_height": 540, 
    "image_width": 720, 
    "transcription": [
        "u004c_u0045_u0041_u004e", 
        "u0647_u064a u0020 u0641_u0644_u0633_u0641_u0629 u0020 u0642_u0627_u0626_u0645_u0629 u0020 u0639_u0644_u0649 u0020 u062a_u0642_u0635_u064a_u0631 u0020 u0648_u0642_u062a u0020 u0627_u0644_u0637_u0644_u0628_u064a_u0629 u0020 u0645_u0627 u0020 u0628_u064a_u0646 u0020 u0637_u0644_u0628_u064a_u0629_u0020", 
        "u0627_u0644_u0632_u0628_u0648_u0646 u0020 u0648_u0627_u0644_u0634_u062d_u0646 u0020 u0628_u0627_u0644_u0642_u0636_u0627_u0621 u0020 u0639_u0644_u0649 u0020 u0627_u0644_u0647_u062f_u0631 u0020 u0628_u0623_u0646_u0648_u0627_u0639_u0647_u002e_u000d"
    ]
}