{
    "bounding_box": [
        [
            164, 
            106, 
            376, 
            53
        ]
    ], 
    "image_height": 540, 
    "image_width": 720, 
    "transcription": [
        "u0627_u0644_u062d_u064f_u0640_u0643_u0640_u0648_u0645_u0629 u0020 u0627_u0644_u0625_u0644_u0643_u062a_u0631_u0648_u0646_u064a_u0651_u0629_u0020"
    ]
}