{
    "bounding_box": [
        [
            41, 
            25, 
            370, 
            53
        ], 
        [
            267, 
            104, 
            394, 
            33
        ], 
        [
            387, 
            149, 
            273, 
            32
        ], 
        [
            351, 
            195, 
            310, 
            32
        ], 
        [
            363, 
            241, 
            298, 
            32
        ], 
        [
            241, 
            289, 
            420, 
            32
        ], 
        [
            60, 
            332, 
            601, 
            37
        ], 
        [
            285, 
            378, 
            376, 
            34
        ]
    ], 
    "image_height": 540, 
    "image_width": 720, 
    "transcription": [
        "u0637_u0631_u0642 u0020 u062a_u0639_u062f_u064a_u0644 u0020 u0627_u0644_u062f_u0633_u062a_u0648_u0631", 
        "u0627_u0644_u062a_u0639_u062f_u064a_u0644 u0020 u0639_u0646 u0020 u0637_u0631_u064a_u0642 u0020 u0645_u064f_u0635_u0652_u062f_u0650_u0631 u0020 u0627_u0644_u062f_u0633_u062a_u0648_u0631_u002e_u000d", 
        "u0627_u0644_u062a_u0639_u062f_u064a_u0644 u0020 u0628_u0648_u0627_u0633_u0637_u0629 u0020 u0627_u0644_u0634_u0639_u0628_u002e_u000d", 
        "u0627_u0644_u062a_u0639_u062f_u064a_u0644 u0020 u0628_u0627_u0644_u0633_u0644_u0637_u0629 u0020 u0627_u0644_u062a_u0634_u0631_u064a_u0639_u064a_u0629_u002e_u000d", 
        "u0627_u0644_u062a_u0639_u062f_u064a_u0644 u0020 u0628_u0627_u0644_u0633_u0644_u0637_u0629 u0020 u0627_u0644_u0642_u0636_u0627_u0626_u064a_u0629_u002e_u000d", 
        "u0627_u0644_u062a_u0639_u062f_u064a_u0644 u0020 u0639_u0646 u0020 u0637_u0631_u064a_u0642 u0020 u0627_u0644_u0639_u0627_u062f_u0627_u062a u0020 u0648_u0627_u0644_u062a_u062c_u0627_u0631_u0628_u002e_u000d", 
        "u0627_u0644_u062a_u0639_u062f_u064a_u0644 u0020 u0639_u0646 u0020 u0637_u0631_u064a_u0642 u0020 u0644_u062c_u0646_u0629 u0020 u062d_u0643_u0648_u0645_u064a_u0629_u060c u0020 u0623_u0648 u0020 u0645_u0624_u062a_u0645_u0631 u0020 u062f_u0633_u062a_u0648_u0631_u064a_u002e_u000d", 
        "u0627_u0644_u062a_u0639_u062f_u064a_u0644 u0020 u0639_u0646 u0020 u0637_u0631_u064a_u0642 u0020 u0627_u0644_u0627_u0633_u062a_u0641_u062a_u0627_u0621 u0020 u0627_u0644_u0639_u0627_u0645_u002e"
    ]
}