{
    "bounding_box": [
        [
            287, 
            25, 
            144, 
            39
        ], 
        [
            177, 
            78, 
            483, 
            30
        ], 
        [
            527, 
            115, 
            141, 
            27
        ], 
        [
            96, 
            147, 
            564, 
            28
        ], 
        [
            653, 
            190, 
            15, 
            14
        ], 
        [
            370, 
            215, 
            297, 
            23
        ], 
        [
            503, 
            242, 
            164, 
            24
        ], 
        [
            464, 
            270, 
            203, 
            25
        ], 
        [
            409, 
            300, 
            258, 
            24
        ], 
        [
            596, 
            332, 
            71, 
            19
        ], 
        [
            506, 
            359, 
            161, 
            21
        ], 
        [
            498, 
            390, 
            169, 
            13
        ], 
        [
            462, 
            417, 
            205, 
            20
        ], 
        [
            546, 
            448, 
            121, 
            16
        ], 
        [
            104, 
            475, 
            556, 
            27
        ], 
        [
            612, 
            512, 
            56, 
            20
        ], 
        [
            95, 
            540, 
            565, 
            26
        ]
    ], 
    "image_height": 540, 
    "image_width": 720, 
    "transcription": [
        "u0631_u0641_u064a_u0642 u0020 u0644_u0631_u064a_u062a_u0627_u0020", 
        "u062f_u0631_u0633_u0646_u0627 u0020 u0639_u062f_u0629 u0020 u0627_u0641_u0643_u0627_u0631 u0020 u0645_u0646 u0020 u0623_u062c_u0644 u0020 u0627_u0646 u0020 u062a_u0633_u062a_u0637_u064a_u0639 u0020 u0631_u064a_u062a_u0627 u0020 u0627_u0646 u0020 u062a_u0639_u064a_u0634 u0020 u0645_u0639_u0020", 
        "u0634_u064a_u0645_u0628_u0627_u0646_u0632_u064a u0020 u0622_u062e_u0631 u0020 u000d", 
        "u0628_u0639_u062f u0020 u062a_u062d_u0644_u064a_u0644 u0020 u0644_u062a_u064a_u0645_u064a u0020 u0648 u0020 u062a_u064a_u0646_u0627 u0020 u0648 u0020 u0631_u064a_u062a_u0627 u0020 u0627_u0644_u0645_u0639_u0647_u062f u0020 u0627_u0644_u0645_u0630_u0643_u0648_u0631 u0020 u0647_u0646_u0627 u0020 u062a_u0637_u0648_u0639 u0020 u0628_u0627_u0644_u0646_u0635_u062d_u0020", 
        "u003a_u000d", 
        "u0020_u0627_u0644_u0645_u062f_u064a_u0631_u0629 u0020 u003a u0020 u0643_u0644_u0627_u0631_u0627 u0020 u062c u0020 u0628_u064a_u062a_u0631_u0632_u064a_u0644_u0643_u0648_u0641_u0627 u0020 u060c u0020 u0637_u0628_u064a_u0628_u0629_u000d", 
        "u0642_u0633_u0645 u0020 u0639_u0644_u0645 u0020 u0628_u064a_u0626_u0629 u0020 u0627_u0644_u062b_u062f_u064a_u064a_u0627_u062a_u000d", 
        "u0645_u0639_u0647_u062f u0020 u0627_u0644_u0628_u064a_u0648_u0644_u0648_u062c_u064a_u0627 u0020 u0644_u0644_u0641_u0642_u0627_u0631_u064a_u0627_u062a u0020 u000d", 
        "u0627_u0643_u0627_u062f_u064a_u0645_u064a_u0629 u0020 u0627_u0644_u0639_u0644_u0648_u0645 u0020 u0628_u062c_u0645_u0647_u0648_u0631_u064a_u0629 u0020 u0627_u0644_u062a_u0634_u064a_u0643 u0020 u000d", 
        "u0643_u064a_u062a_u0646_u0627 u0020 u0668 u0020 u0020_u000d", 
        "u0663 u0020 u0666_u0665 u0020 u0628_u0631_u0646_u0648_u060c u0020 u0627_u0644_u062a_u0634_u064a_u0643 u0020 u000d", 
        "u062a u0020 u0664_u0662_u0660_u0665_u0664_u0663_u0664_u0662_u0662_u0665_u0669_u000d", 
        "u0641_u0627_u0643_u0633 u0020 u0664_u0662_u0660_u0665_u0664_u0663_u0662_u0661_u0661_u0663_u0664_u0666_u000d", 
        "u0077_u0077_u0077_u002e_u0069_u0076_u0062_u002e_u0063_u007a_u000d", 
        "u002d u0020 u0641_u064a u0020 u062d_u064a_u0646 u0020 u062a_u0648_u0627_u0641_u0642 u0020 u0627_u0644_u062d_u0645_u0636 u0020 u0627_u0644_u0646_u0648_u0648_u064a u0020 u0633_u0646_u0639_u0631_u0641 u0020 u0627_u0644 u0020 u0663 u0020 u0634_u064a_u0645_u0628_u0627_u0646_u0632_u064a u0020 u0639_u0644_u064a_u0020", 
        "u0628_u0639_u0636_u000d", 
        "u0641_u064a u0020 u062d_u064a_u0646 u0020 u0639_u062f_u0645 u0020 u062a_u0648_u0627_u0641_u0642 u0020 u0627_u0644_u062d_u0645_u0636 u0020 u0627_u0644_u0646_u0648_u0648_u064a u0020 u060c u0020 u0633_u0646_u0628_u062d_u062b u0020 u0639_u0646 u0020 u0634_u064a_u0645_u0628_u0627_u0646_u0632_u064a u0020 u0645_u0646_u0020"
    ]
}