{
    "bounding_box": [
        [
            124, 
            63, 
            470, 
            42
        ], 
        [
            57, 
            143, 
            249, 
            19
        ], 
        [
            57, 
            176, 
            254, 
            25
        ], 
        [
            57, 
            209, 
            285, 
            26
        ], 
        [
            57, 
            244, 
            277, 
            25
        ], 
        [
            57, 
            277, 
            253, 
            24
        ], 
        [
            57, 
            311, 
            147, 
            25
        ], 
        [
            57, 
            344, 
            160, 
            19
        ], 
        [
            57, 
            377, 
            258, 
            26
        ], 
        [
            57, 
            413, 
            266, 
            24
        ], 
        [
            57, 
            445, 
            99, 
            20
        ], 
        [
            434, 
            141, 
            228, 
            24
        ], 
        [
            417, 
            174, 
            244, 
            27
        ], 
        [
            424, 
            207, 
            237, 
            28
        ], 
        [
            503, 
            244, 
            159, 
            22
        ], 
        [
            512, 
            283, 
            149, 
            20
        ], 
        [
            600, 
            323, 
            61, 
            27
        ]
    ], 
    "image_height": 540, 
    "image_width": 720, 
    "transcription": [
        "u0645_u0646_u0638_u0645_u0629 u0020 u0627_u0644_u0639_u0641_u0648 u0020 u0627_u0644_u062f_u0648_u0644_u064a_u0629_u003a u0020 u0627_u0644_u0642_u0630_u0627_u0641_u064a u0020 u064a_u0642_u062a_u0644 u0020 u0634_u0639_u0628_u0647", 
        "u201c_u0043_u006f_u006c_u006f_u006e_u0065_u006c u0020 u0061_u006c_u002d_u0047_u0061_u0064_u0064_u0061_u0066_u0069_u0020", 
        "u0061_u006e_u0064 u0020 u0068_u0069_u0073 u0020 u0067_u006f_u0076_u0065_u0072_u006e_u006d_u0065_u006e_u0074_u0020", 
        "u0061_u0070_u0070_u0065_u0061_u0072 u0020 u0074_u006f u0020 u0062_u0065 u0020 u0070_u0072_u0065_u0070_u0061_u0072_u0065_u0064_u0020", 
        "u0074_u006f u0020 u006b_u0069_u006c_u006c u0020 u0061_u0073 u0020 u006d_u0061_u006e_u0079 u0020 u0070_u0065_u006f_u0070_u006c_u0065_u0020", 
        "u0061_u0073 u0020 u0069_u0074 u0020 u0074_u0061_u006b_u0065_u0073 u0020 u0074_u006f u0020 u0073_u0074_u0061_u0079_u00a0_u0069_u006e_u0020", 
        "u0070_u006f_u0077_u0065_u0072_u002e u0020 u0054_u0068_u0065_u0020", 
        "u0069_u006e_u0074_u0065_u0072_u006e_u0061_u0074_u0069_u006f_u006e_u0061_u006c_u0020", 
        "u0063_u006f_u006d_u006d_u0075_u006e_u0069_u0074_u0079 u0020 u006e_u0065_u0065_u0064_u0073 u0020 u0074_u006f_u0020", 
        "u0061_u0063_u0074 u0020 u006e_u006f_u0077 u0020 u0074_u006f u0020 u0070_u0075_u0074 u0020 u0061 u0020 u0073_u0074_u006f_u0070_u0020", 
        "u0074_u006f u0020 u0074_u0068_u0069_u0073_u002e_u201d_u00a0", 
        "u0645_u0646_u0638_u0645_u0629 u0020 u0627_u0644_u0639_u0641_u0648 u0020 u0627_u0644_u062f_u0648_u0644_u064a_u0629 u0020 u062a_u062f_u0639_u0648_u0020", 
        "u0627_u0644_u0645_u062c_u062a_u0645_u0639 u0020 u0627_u0644_u062f_u0648_u0644_u064a u0020 u0644_u0644_u062a_u062f_u062e_u0644 u0020 u0636_u062f_u0020", 
        "u0627_u0644_u0642_u0630_u0627_u0641_u064a u0020 u0645_u062a_u0647_u0645_u0629 u0020 u0625_u064a_u0627_u0647 u0020 u0628_u0627_u0631_u062a_u0643_u0627_u0628_u0020", 
        "u0645_u062c_u0627_u0632_u0631 u0020 u0636_u062f u0020 u0634_u0639_u0628_u0647_u000d", 
        "u0032_u0032_u002d_u0030_u0032_u002d_u0032_u0030_u0031_u0031_u000d", 
        "u0627_u0644_u0631_u0627_u0628_u0637_u000d"
    ]
}