{
    "bounding_box": [
        [
            93, 
            70, 
            583, 
            34
        ], 
        [
            103, 
            145, 
            551, 
            23
        ], 
        [
            111, 
            170, 
            543, 
            24
        ], 
        [
            115, 
            196, 
            539, 
            24
        ], 
        [
            83, 
            222, 
            571, 
            24
        ], 
        [
            74, 
            248, 
            580, 
            24
        ], 
        [
            82, 
            274, 
            573, 
            24
        ], 
        [
            501, 
            301, 
            154, 
            21
        ], 
        [
            74, 
            352, 
            580, 
            23
        ], 
        [
            124, 
            377, 
            530, 
            24
        ], 
        [
            83, 
            404, 
            571, 
            23
        ], 
        [
            441, 
            430, 
            213, 
            19
        ]
    ], 
    "image_height": 540, 
    "image_width": 720, 
    "transcription": [
        "u0635_u062f_u0648_u0631 u0020 u0628_u0627_u0631_u0646_u0627_u0645_u0647 u0020 u0628_u0631_u0627_u064a u0020 u0643_u0627_u0644_u0627_u0647_u0627_u064a u0020 u062e_u0637_u0631_u0646_u0627_u0643", 
        "u0628_u0627_u0631_u0646_u0627_u0645_u0647 u0020 u0645_u062f_u0631_u0643 u0020 u0642_u0631_u0627_u0631_u062f_u0627_u062f u0020 u062d_u0645_u0644 u0020 u0627_u0633_u062a u0020 u0643_u0647 u0020 u0645_u062a_u0635_u062f_u064a u0020 u062f_u0631 u0020 u0642_u0628_u0627_u0644 u0020 u062f_u0631_u064a_u0627_u0641_u062a u0020 u0643_u0631_u0627_u064a_u0647 u0020 u062d_u0645_u0644_u0020", 
        "u0635_u0627_u062f_u0631 u0020 u0645_u064a_u200c_u0643_u0646_u062f u0020 u0648 u0020 u0628_u0631 u0020 u0627_u0633_u0627_u0633 u0020 u0622_u0646 u0020 u062a_u0639_u0647_u062f u0020 u062d_u0645_u0644 u0020 u0643_u0627_u0644_u0627 u0020 u0631_u0627 u0020 u0627_u0632 u0020 u0646_u0642_u0637_u0647_u200c_u0627_u064a u0020 u0628_u0647 u0020 u0646_u0642_u0637_u0647 u0020 u062f_u064a_u06af_u0631_u0020", 
        "u0645_u064a_u200c_u067e_u0630_u064a_u0631_u062f_u002e u0020 u0628_u0627_u0631_u0646_u0627_u0645_u0647 u0020 u062f_u0631 u0020 u062d_u0645_u0644 u0020 u0648 u0020 u0646_u0642_u0644 u0020 u0631_u064a_u0644_u064a u0020 u0627_u0644_u0632_u0627_u0645_u0627 u0020 u0647_u0645_u0631_u0627_u0647 u0020 u0648_u0627_u06af_u0646 u0020 u0628_u0648_u062f_u0647 u0020 u0648 u0020 u0628_u0639_u0646_u0648_u0627_u0646_u0020", 
        "u0634_u0646_u0627_u0633_u0646_u0627_u0645_u0647 u0020 u0628_u0627_u0631 u0020 u062a_u0645_u0627_u0645_u064a u0020 u0627_u0637_u0644_u0627_u0639_u0627_u062a u0020 u0645_u0631_u0628_u0648_u0637 u0020 u0628_u0647 u0020 u0643_u0627_u0644_u0627_u0647_u0627_u064a u0020 u0645_u0648_u0631_u062f u0020 u062d_u0645_u0644 u0020 u062f_u0631 u0020 u0622_u0646 u0020 u062b_u0628_u062a u0020 u0645_u064a_u0020", 
        "u0634_u0648_u062f_u002e u0020 u0628_u0646_u0627_u0628_u0631_u0627_u064a_u0646 u0020 u0628_u0631_u0627_u0633_u0627_u0633 u0020 u0622_u0646 u0020 u0645_u064a_u062a_u0648_u0627_u0646 u0020 u0628_u0647 u0020 u0645_u0627_u0647_u064a_u062a u0020 u0643_u0627_u0644_u0627 u0020 u067e_u064a u0020 u0628_u0631_u062f_u0647 u0020 u0648 u0020 u062f_u0631 u0020 u0635_u0648_u0631_u062a u0020 u0628_u0631_u0648_u0632_u0020", 
        "u062d_u0627_u062f_u062b_u0647_u060c u0020 u0627_u062a_u0641_u0627_u0642 u0020 u0648 u0020 u064a_u0627 u0020 u0636_u0631_u0648_u0631_u062a_u200c_u0647_u0627_u064a u0020 u062f_u064a_u06af_u0631 u0020 u0627_u0642_u062f_u0627_u0645_u0627_u062a u0020 u0627_u062d_u062a_u064a_u0627_u0637_u064a_u060c u0020 u0627_u064a_u0645_u0646_u064a u0020 u0648 u0020 u002e_u002e_u002e u0020 u0645_u062a_u0646_u0627_u0633_u0628_u0020", 
        "u0628_u0627 u0020 u0622_u0646 u0020 u0631_u0627 u0020 u0628_u0639_u0645_u0644 u0020 u0622_u0648_u0631_u062f_u002e_u000b", 
        "u062a_u0645_u0627_u0645_u064a u0020 u0643_u0627_u0644_u0627_u0647_u0627_u064a u0020 u062e_u0637_u0631_u0646_u0627_u0643 u0020 u062f_u0631 u0020 u0647_u0631 u0020 u064a_u0643 u0020 u0627_u0632 u0020 u0645_u0642_u0631_u0631_u0627_u062a u0020 u062d_u0645_u0644 u0020 u0648 u0020 u0646_u0642_u0644 u0020 u0628_u0631 u0020 u0627_u0633_u0627_u0633 u0020 u0641_u0647_u0631_u0633_u062a_u0020", 
        "u062a_u0648_u0635_u064a_u0647 u0020 u0634_u062f_u0647 u0020 u0627_u0632 u0020 u0633_u0648_u064a u0020 u0633_u0627_u0632_u0645_u0627_u0646 u0020 u0645_u0644_u0644 u0020 u0637_u0628_u0642_u0647_u200c_u0628_u0646_u062f_u064a u0020 u0634_u062f_u0647_u200c_u0627_u0646_u062f u0020 u0648 u0020 u0628_u0631 u0020 u0627_u064a_u0646 u0020 u0627_u0633_u0627_u0633 u0020 u0647_u0631_u0020", 
        "u0643_u0627_u0644_u0627_u064a_u064a u0020 u062c_u0632_u0621 u0020 u0643_u0627_u0644_u0627_u0647_u0627_u064a u0020 u062e_u0637_u0631_u0646_u0627_u0643 u0020 u0645_u062d_u0633_u0648_u0628 u0020 u0634_u0648_u062f u0020 u062f_u0627_u0631_u0627_u064a u0020 u064a_u0643 u0020 u0643_u062f u0020 u0686_u0647_u0627_u0631 u0020 u0631_u0642_u0645_u064a u0020 u0627_u0633_u062a_u0020", 
        "u0643_u0647 u0020 u0628_u0647 u0020 u0643_u062f u0020 u0055_u004e u0020 u0645_u0639_u0631_u0648_u0641 u0020 u0627_u0633_u062a_u002e"
    ]
}