{
    "bounding_box": [
        [
            270, 
            45, 
            179, 
            34
        ], 
        [
            88, 
            117, 
            562, 
            30
        ], 
        [
            66, 
            154, 
            583, 
            31
        ], 
        [
            106, 
            194, 
            544, 
            30
        ], 
        [
            44, 
            231, 
            606, 
            27
        ], 
        [
            106, 
            270, 
            543, 
            30
        ], 
        [
            82, 
            304, 
            568, 
            35
        ], 
        [
            130, 
            346, 
            520, 
            31
        ], 
        [
            120, 
            386, 
            529, 
            27
        ], 
        [
            283, 
            424, 
            367, 
            30
        ]
    ], 
    "image_height": 540, 
    "image_width": 720, 
    "transcription": [
        "u0634_u0628_u0643_u0629 u0020 u0627_u0644_u0625_u0646_u062a_u0631_u0646_u062a", 
        "u062a_u0633_u0647_u0645 u0020 u0627_u0644_u0625_u0646_u062a_u0631_u0646_u062a u0020 u0641_u064a u0020 u062a_u0639_u0632_u064a_u0632 u0020 u0648_u062a_u062d_u0633_u064a_u0646 u0020 u0627_u0644_u062a_u0639_u0644_u064a_u0645 u0020 u0627_u0644_u0627_u0644_u0643_u062a_u0631_u0648_u0646_u064a u0020 u0645_u0646_u0020", 
        "u062e_u0644_u0627_u0644 u0020 u0627_u0633_u062a_u062e_u062f_u0627_u0645 u0020 u0627_u0644_u0628_u0631_u064a_u062f u0020 u0627_u0644_u0627_u0644_u0643_u062a_u0631_u0648_u0646_u064a u0020 u0065_u006d_u0061_u0069_u006c u0020 u0627_u0644_u0630_u064a u0020 u064a_u0633_u0645_u062d u0020 u0628_u062a_u0628_u0627_u062f_u0644_u0020", 
        "u0627_u0644_u0631_u0633_u0627_u0626_u0644 u0020 u0648_u0627_u0644_u0645_u0639_u0644_u0648_u0645_u0627_u062a u0020 u060c_u0648 u0020 u064a_u0633_u0647_u0645 u0020 u0641_u064a u0020 u062a_u0642_u062f_u064a_u0645 u0020 u0627_u0644_u062a_u063a_u0630_u064a_u0629 u0020 u0627_u0644_u0645_u0631_u062a_u062f_u0629 u0020 u0020", 
        "u0066_u0065_u0065_u0064_u0062_u0061_u0063_u006b u0020 u0645_u0646 u0020 u0642_u0628_u0644 u0020 u0627_u0644_u0637_u0644_u0627_u0628 u0020 u060c u0020 u0648_u0643_u0630_u0644_u0643 u0020 u0625_u0646_u0634_u0627_u0621 u0020 u0627_u0644_u0633_u0628_u0648_u0631_u0629 u0020 u0627_u0644_u0628_u064a_u0636_u0627_u0621 u0020 u0020", 
        "u0077_u0068_u0069_u0074_u0065 u0020 u0062_u006f_u0061_u0072_u0064 u0020 u0627_u0644_u062a_u064a u0020 u062a_u0634_u062c_u0639 u0020 u0639_u0644_u0649 u0020 u0627_u0644_u062a_u0641_u0627_u0639_u0644_u064a_u0629 u0020 u0628_u064a_u0646 u0020 u0627_u0644_u0637_u0644_u0627_u0628_u060c_u0020", 
        "u0648_u0625_u0645_u0643_u0627_u0646_u064a_u0629 u0020 u0625_u0646_u0634_u0627_u0621 u0020 u0635_u0641_u062d_u0629 u0020 u0648_u064a_u0628 u0020 u0623_u0648 u0020 u0645_u0648_u0642_u0639 u0020 u0644_u0644_u0641_u0635_u0644 u0020 u0627_u0644_u0627_u0641_u062a_u0631_u0627_u0636_u064a u0020 u060c_u0020", 
        "u0648_u064a_u062a_u0636_u0645_u0646 u0020 u0627_u0644_u0645_u0648_u0642_u0639 u0020 u0627_u0644_u0645_u0639_u0644_u0648_u0645_u0627_u062a u0020 u0627_u0644_u0645_u062e_u062a_u0644_u0641_u0629 u0020 u0639_u0646 u0020 u0627_u0644_u0641_u0635_u0644 u0020 u0645_u062b_u0644_u0020", 
        "u0627_u0644_u0645_u0642_u0631_u0631_u0627_u062a u0020 u0627_u0644_u0645_u062f_u0631_u0633_u064a_u0629 u0020 u0627_u0644_u0645_u0642_u062f_u0645_u0629 u0020 u0020_u0648_u0627_u0644_u062a_u0645_u0627_u0631_u064a_u0646 u0020 u0648 u0020 u0627_u0644_u0648_u0627_u062c_u0628_u0627_u062a u0020 u0648_u0020", 
        "u0627_u0644_u0645_u0631_u0627_u062c_u0639 u0020 u0648_u0646_u0628_u0630_u0629 u0020 u0639_u0646 u0020 u0627_u0644_u0645_u062f_u0631_u0633 u0020 u0627_u0644_u0645_u0633_u0627_u0639_u062f_u002e_u000d"
    ]
}