{
    "bounding_box": [
        [
            52, 
            72, 
            572, 
            18
        ], 
        [
            502, 
            92, 
            122, 
            20
        ], 
        [
            58, 
            137, 
            566, 
            18
        ], 
        [
            276, 
            156, 
            348, 
            20
        ], 
        [
            42, 
            202, 
            576, 
            18
        ], 
        [
            221, 
            221, 
            403, 
            20
        ], 
        [
            37, 
            243, 
            587, 
            20
        ], 
        [
            336, 
            264, 
            288, 
            20
        ], 
        [
            77, 
            314, 
            547, 
            14
        ], 
        [
            163, 
            329, 
            461, 
            20
        ], 
        [
            56, 
            377, 
            568, 
            15
        ], 
        [
            542, 
            394, 
            82, 
            20
        ]
    ], 
    "image_height": 540, 
    "image_width": 720, 
    "transcription": [
        "u0036_u002d u0020 u0627_u0639_u062a_u0645_u0627_u062f u0020 u0627_u0644_u0628_u0646_u0648_u0643 u0020 u0627_u0644_u0625_u0633_u0644_u0627_u0645_u064a_u0629 u0020 u0641_u064a u0020 u0639_u0645_u0644_u064a_u0627_u062a_u0647_u0627 u0020 u0639_u0644_u0649 u0020 u0627_u0644_u062a_u0645_u0648_u064a_u0644 u0020 u0642_u0635_u064a_u0631 u0020 u0627_u0644_u0623_u062c_u0644 u0020 u0648 u0020 u062e_u0627_u0635_u0629 u0020 u0641_u064a_u0020", 
        "u0635_u064a_u063a_u0629 u0020 u0627_u0644_u0645_u0631_u0627_u0628_u062d_u0629 u0020 u003a_u000d", 
        "u0635_u064a_u063a_u0629 u0020 u0627_u0644_u0645_u0631_u0627_u0628_u062d_u0629 u0020 u0647_u064a u0020 u0623_u0642_u0631_u0628 u0020 u0627_u0644_u0635_u064a_u063a u0020 u0627_u0644_u0625_u0633_u0644_u0627_u0645_u064a_u0629 u0020 u0627_u0644_u0649 u0020 u0627_u0644_u062a_u0645_u0648_u064a_u0644 u0020 u0642_u0635_u064a_u0631 u0020 u0627_u0644_u0627_u062c_u0644 u0020 u062d_u064a_u062b u0020 u0648_u0635_u0644_u0020", 
        "u0627_u0633_u062a_u062b_u0645_u0627_u0631 u0020 u0628_u0639_u0636 u0020 u0627_u0644_u0628_u0646_u0648_u0643 u0020 u0641_u064a_u0647_u0627 u0020 u0627_u0644_u0649 u0020 u0039_u0035_u0025 u0020 u0645_u0646 u0020 u0623_u0635_u0648_u0644_u0647_u0627 u0020 u000d", 
        "u0628_u0627_u0644_u0631_u063a_u0645 u0020 u0645_u0646 u0020 u0645_u062d_u0627_u0648_u0644_u0629 u0020 u0627_u0644_u0628_u0646_u0648_u0643 u0020 u0627_u0644_u0625_u0633_u0644_u0627_u0645_u064a_u0629 u0020 u0644_u0644_u062a_u062e_u0641_u064a_u0641 u0020 u0645_u0646 u0020 u0635_u064a_u063a_u0629 u0020 u0627_u0644_u0645_u0631_u0627_u0628_u062d_u0629 u0020 u0625_u0644_u0627 u0020 u0623_u0646_u0647_u0627 u0020 u0645_u0627 u0020 u0632_u0627_u0644_u062a_u0020", 
        "u062a_u0639_u0627_u0646_u064a u0020 u0645_u0646 u0020 u0627_u0644_u0625_u0641_u0631_u0627_u0637 u0020 u0641_u064a u0020 u0625_u0633_u062a_u0639_u0645_u0627_u0644_u0647_u0627 u0020 u0644_u0639_u062f_u0629 u0020 u0638_u0631_u0648_u0641 u0020 u0648 u0020 u0623_u0633_u0628_u0627_u0628 u0020 u003a_u000d", 
        "u0031_u002d u0020 u0627_u0644_u0639_u0645_u0644 u0020 u0628_u0635_u064a_u063a_u0629 u0020 u0627_u0644_u0645_u0631_u0627_u0628_u062d_u0629 u0020 u064a_u0645_u0643_u0646 u0020 u0627_u0644_u0628_u0646_u0643 u0020 u0645_u0646 u0020 u062a_u062d_u062f_u064a_u062f u0020 u0627_u0644_u0631_u0628_u062d u0020 u0627_u0644_u0646_u0627_u062a_u062c u0020 u0639_u0646 u0020 u0627_u0644_u062a_u0645_u0648_u064a_u0644 u0020 u0645_u0633_u0628_u0642_u0627 u0020 u0648_u0020", 
        "u062a_u0648_u062b_u064a_u0642 u0020 u0647_u0630_u0627 u0020 u0627_u0644_u062a_u0645_u0648_u064a_u0644 u0020 u0628_u0627_u0644_u0636_u0645_u0627_u0646_u0627_u062a u0020 u0627_u0644_u0645_u062e_u062a_u0644_u0641_u0629 u0020 u000d", 
        "u0032_u002d_u0627_u0644_u0639_u0645_u0644 u0020 u0628_u0627_u0644_u0645_u0636_u0627_u0631_u0628_u0629 u0020 u0648 u0020 u0644_u0645_u0634_u0627_u0631_u0643_u0629 u0020 u0648 u0020 u0627_u0644_u0625_u0633_u062a_u062b_u0645_u0627_u0631 u0020 u0627_u0644_u0645_u0628_u0627_u0634_u0631 u0020 u064a_u0645_u062b_u0644 u0020 u0645_u062e_u0627_u0637_u0631_u0629 u0020 u0641_u064a u0020 u0645_u062c_u0627_u0644_u0020", 
        "u0627_u0644_u0625_u0633_u062a_u062b_u0645_u0627_u0631 u0020 u0644_u0639_u062f_u0645 u0020 u0625_u0645_u0643_u0627_u0646_u064a_u0629 u0020 u062a_u062d_u062f_u064a_u062f u0020 u0627_u0644_u0631_u0628_u062d u0020 u0645_u0633_u0628_u0642_u0627 u0020 u0648 u0020 u0644_u0623_u0646_u0647_u0627 u0020 u0637_u0648_u064a_u0644_u0629 u0020 u0627_u0644_u0623_u062c_u0644 u0020 u000d", 
        "u0033_u002d u0020 u0625_u062a_u062e_u0627_u0630 u0020 u0633_u0639_u0631 u0020 u0627_u0644_u0641_u0627_u0626_u062f_u0629 u0020 u0627_u0644_u0633_u0627_u0626_u062f u0020 u0641_u064a u0020 u0627_u0644_u0633_u0648_u0642 u0020 u0643_u0645_u0624_u0634_u0631 u0020 u0644_u062a_u062d_u062f_u064a_u062f u0020 u0627_u0644_u0631_u0628_u062d u0020 u0645_u0646 u0020 u0637_u0631_u0641 u0020 u0627_u0644_u0628_u0646_u0648_u0643_u0020", 
        "u0627_u0644_u0625_u0633_u0644_u0627_u0645_u064a_u0629 u0020 u000d"
    ]
}