{
    "bounding_box": [
        [
            14, 
            38, 
            660, 
            43
        ], 
        [
            14, 
            90, 
            674, 
            39
        ], 
        [
            14, 
            134, 
            674, 
            42
        ], 
        [
            381, 
            186, 
            307, 
            39
        ], 
        [
            14, 
            240, 
            660, 
            42
        ], 
        [
            14, 
            288, 
            674, 
            42
        ], 
        [
            14, 
            336, 
            674, 
            43
        ], 
        [
            14, 
            385, 
            674, 
            42
        ], 
        [
            14, 
            432, 
            674, 
            42
        ], 
        [
            379, 
            479, 
            309, 
            43
        ]
    ], 
    "image_height": 540, 
    "image_width": 720, 
    "transcription": [
        "u063a_u0631_u0641_u0629 u0020 u0645_u0631_u0628_u0639_u0629 u0020 u0642_u062f_u064a_u0645_u0629 u0020 u062a_u0639_u0644_u0648_u0647_u0627 u0020 u0642_u0628_u0629 u0020 u062a_u062d_u0648_u064a u0020 u0636_u0631_u064a_u062d_u0627_u0028_u0642_u0628_u0631_u0627_u0029_u0020", 
        "u0628_u062d_u062c_u0645 u0020 u0627_u0639_u062a_u064a_u0627_u062f_u064a u0020 u064a_u0646_u0633_u0628_u0647 u0020 u0627_u0644_u0646_u0627_u0633 u0020 u0627_u0644_u0649 u0020 u0633_u064a_u062f_u0646_u0627 u0020 u0646_u0648_u062d_u00a0_u0639_u0644_u064a_u0647_u0020", 
        "u0627_u0644_u0633_u0644_u0627_u0645_u00a0_u0648_u0645_u0646_u0647 u0020 u0623_u062e_u0630_u062a u0020 u0627_u0644_u0645_u0642_u0628_u0631_u0629 u0020 u0627_u0633_u0645_u0647_u0627 u0020 u0641_u062f_u0639_u064a_u062a u0020 u0628_u0645_u0642_u0628_u0631_u0629_u0020", 
        "u0627_u0644_u0646_u0628_u064a u0020 u0646_u0648_u062d u0020 u0639_u0644_u064a_u0647 u0020 u0627_u0644_u0633_u0644_u0627_u0645_u002e_u000d", 
        "u0648_u0628_u0627_u0644_u0631_u063a_u0645 u0020 u0645_u0646 u0020 u0639_u062f_u0645 u0020 u0648_u062c_u0648_u062f u0020 u0633_u0646_u062f u0020 u062a_u0627_u0631_u064a_u062e_u064a u0020 u064a_u0624_u064a_u062f u0020 u0630_u0644_u0643 u0020 u0627_u0644_u0627_u0020", 
        "u0627_u0646 u0020 u0627_u0644_u0633_u0643_u0627_u0646 u0020 u0627_u0644_u0645_u062d_u0644_u064a_u064a_u0646 u0020 u0647_u0646_u0627_u0643 u0020 u0639_u0644_u0649 u0020 u062b_u0642_u0629 u0020 u062a_u0627_u0645_u0629 u0020 u0628_u0623_u0646 u0020 u0647_u0630_u0627_u0020", 
        "u0627_u0644_u0645_u0642_u0627_u0645_u00a0_u064a_u0639_u0648_u062f u0020 u0644_u0644_u0646_u0628_u064a_u00a0_u0646_u0648_u062d u0020 u0648_u064a_u0633_u0648_u0642_u0648_u0646 u0020 u0639_u0644_u0649 u0020 u0630_u0644_u0643 u0020 u0627_u062f_u0644_u0629 u0020 u0639_u062f_u0629_u0020", 
        "u0645_u0646_u0647_u0627_u003a u0020 u0648_u062c_u0648_u062f u0020 u062a_u0634_u0643_u064a_u0644 u0020 u062d_u062c_u0631_u064a_u0028_u0637_u0628_u064a_u0639_u064a_u0029 u0020 u0641_u064a u0020 u0627_u0644_u0648_u0627_u062f_u064a u0020 u0627_u0633_u0641_u0644_u0020", 
        "u0627_u0644_u0645_u0642_u0627_u0645_u00a0_u064a_u0634_u0628_u0647 u0020 u0634_u0643_u0644_u0647 u0020 u0634_u0643_u0644 u0020 u0627_u0644_u0633_u0641_u064a_u0646_u0629_u060c u0020 u064a_u0632_u0639_u0645_u0648_u0646 u0020 u0627_u0646_u0647_u0627_u0020", 
        "u0633_u0641_u064a_u0646_u0629_u00a0_u0646_u0648_u062d u0020 u0639_u0644_u064a_u0647 u0020 u0627_u0644_u0633_u0644_u0627_u0645_u002e"
    ]
}