{
    "bounding_box": [
        [
            83, 
            153, 
            513, 
            36
        ], 
        [
            197, 
            190, 
            284, 
            42
        ], 
        [
            265, 
            81, 
            146, 
            31
        ], 
        [
            232, 
            250, 
            212, 
            27
        ]
    ], 
    "image_height": 405, 
    "image_width": 720, 
    "transcription": [
        "u0627_u0644_u0625_u062f_u0627_u0631_u0629 u0020 u0627_u0644_u062a_u0639_u0644_u064a_u0645_u064a_u0629 u0020 u0648_u0627_u0644_u0645_u062f_u0631_u0633_u064a_u0629 u0020 u0641_u064a u0020 u0636_u0648_u0621 u0020 u0645_u062f_u0627_u0631_u0633_u0020", 
        "u0627_u0644_u0641_u0643_u0631 u0020 u0627_u0644_u0625_u062f_u0627_u0631_u064a u0020 u0648_u0646_u0638_u0631_u064a_u0627_u062a_u0647_u0627_u0020", 
        "u0627_u0644_u0648_u062d_u062f_u0629 u0020 u0627_u0644_u062b_u0627_u0646_u064a_u0629_u0020", 
        "u0646_u0638_u0631_u064a_u0627_u062a u0020 u0641_u064a u0020 u0627_u0644_u0625_u062f_u0627_u0631_u0629 u0020 u0627_u0644_u062a_u0639_u0644_u064a_u0645_u064a_u0629"
    ]
}