{
    "bounding_box": [
        [
            119, 
            39, 
            480, 
            34
        ], 
        [
            181, 
            127, 
            483, 
            29
        ], 
        [
            235, 
            168, 
            428, 
            29
        ], 
        [
            413, 
            210, 
            251, 
            27
        ], 
        [
            160, 
            250, 
            503, 
            28
        ], 
        [
            86, 
            287, 
            577, 
            30
        ], 
        [
            506, 
            324, 
            157, 
            25
        ], 
        [
            43, 
            362, 
            621, 
            24
        ], 
        [
            575, 
            391, 
            89, 
            20
        ], 
        [
            87, 
            424, 
            577, 
            25
        ]
    ], 
    "image_height": 540, 
    "image_width": 720, 
    "transcription": [
        "u062a_u0627_u0628_u0639 u0020 u003a_u0627_u0644_u0645_u0628_u062d_u062b u0020 u0627_u0644_u062b_u0627_u0646_u064a u0020 u003a_u0627_u0644_u062d_u0631_u064a_u0629 u0020 u0627_u0644_u0627_u0642_u062a_u0635_u0627_u062f_u064a_u0629 u0020 u0627_u0644_u0645_u0642_u064a_u062f_u0629", 
        "u0028_u0628_u0029 u0020 u0627_u0644_u0627_u0644_u062a_u0632_u0627_u0645 u0020 u0628_u0639_u062f_u062f u0020 u0645_u0646 u0020 u0627_u0644_u0648_u0627_u062c_u0628_u0627_u062a u0020 u0627_u0644_u0634_u0631_u0639_u064a_u0629 u0020 u0627_u0644_u0627_u0642_u062a_u0635_u0627_u062f_u064a_u0629 u0020 u003a u0020 u000d", 
        "u0028_u062c_u0029 u0020 u0627_u0644_u062d_u062c_u0631 u0020 u0639_u0644_u0649 u0020 u0627_u0644_u0633_u0641_u0647_u0627_u0621 u0020 u0648_u0627_u0644_u0635_u0628_u064a_u0627_u0646 u0020 u0648_u0627_u0644_u0645_u062c_u0627_u0646_u064a_u0646 u0020 u003a_u000d", 
        "u0627_u0644_u062d_u062c_u0631_u0644_u063a_u0629_u003a u0020 u0627_u0644_u0645_u0646_u0639 u0020 u0648_u0627_u0644_u062a_u0636_u064a_u064a_u0642 u0020 u002e_u000d", 
        "u0648_u0641_u064a u0020 u0627_u0644_u0634_u0631_u0639 u0020 u003a_u064a_u0642_u0635_u062f u0020 u0628_u0647 u0020 u0645_u0646_u0639 u0020 u0627_u0644_u0625_u0646_u0633_u0627_u0646 u0020 u0645_u0646 u0020 u0627_u0644_u062a_u0635_u0631_u0641 u0020 u0641_u064a u0020 u0645_u0627_u0644_u0647 u0020 u002e_u000d", 
        "u0623_u0642_u0633_u0627_u0645_u0647 u0020 u003a_u0627_u0644_u0642_u0633_u0645 u0020 u0627_u0644_u0623_u0648_u0644_u003a_u0641_u0647_u0648 u0020 u062d_u062c_u0631 u0020 u0644_u0645_u0635_u0644_u062d_u0629 u0020 u0627_u0644_u063a_u064a_u0631_u060c_u0643_u0627_u0644_u062d_u062c_u0631 u0020 u0639_u0644_u0649 u0020 u0627_u0644_u0645_u0641_u0644_u0633_u0020", 
        "u0644_u0645_u0635_u0644_u062d_u0629 u0020 u0627_u0644_u063a_u0631_u0645_u0627_u0621_u002e_u000d", 
        "u0627_u0644_u0642_u0633_u0645 u0020 u0627_u0644_u062b_u0627_u0646_u064a_u003a_u0641_u0647_u0648 u0020 u062d_u062c_u0631 u0020 u0639_u0644_u0649 u0020 u0625_u0646_u0633_u0627_u0646 u0020 u0644_u0645_u0635_u0644_u062d_u0629 u0020 u0646_u0641_u0633_u0647_u060c_u0648_u0647_u0648 u0020 u0627_u0644_u062d_u062c_u0631 u0020 u0639_u0644_u0649 u0020 u0020_u0627_u0644_u0633_u0641_u064a_u0647_u060c_u0648_u0627_u0644_u0635_u0628_u064a_u060c_u0020", 
        "u0648_u0627_u0644_u0645_u062c_u0646_u0648_u0646 u0020 u002e_u000d", 
        "u0028_u062f_u0029 u0020 u0625_u0630_u0627 u0020 u062a_u0639_u0627_u0631_u0636_u062a u0020 u0627_u0644_u0645_u0635_u0644_u062d_u0629 u0020 u0627_u0644_u062e_u0627_u0635_u0629 u0020 u0645_u0639 u0020 u0627_u0644_u0645_u0635_u0644_u062d_u0629 u0020 u0627_u0644_u0639_u0627_u0645_u0629 u0020 u062a_u0642_u062f_u0645 u0020 u0627_u0644_u0645_u0635_u0644_u062d_u0629 u0020 u0627_u0644_u0639_u0627_u0645_u0629_u000d"
    ]
}