{
    "bounding_box": [
        [
            290, 
            98, 
            138, 
            41
        ], 
        [
            112, 
            159, 
            563, 
            28
        ], 
        [
            102, 
            225, 
            552, 
            24
        ], 
        [
            441, 
            255, 
            213, 
            22
        ], 
        [
            137, 
            318, 
            517, 
            25
        ], 
        [
            299, 
            378, 
            355, 
            24
        ]
    ], 
    "image_height": 540, 
    "image_width": 720, 
    "transcription": [
        "u0645_u0639_u0644_u0648_u0645_u0627_u062a", 
        "u062a_u0645 u0020 u0627_u062e_u062a_u0631_u0627_u0639 u0020 u0623_u0648_u0644 u0020 u0633_u064a_u0627_u0631_u0629 u0020 u0641_u064a u0020 u0623_u0644_u0645_u0627_u0646_u064a_u0627 u0020 u0639_u0627_u0645 u0020 u0031_u0038_u0038_u0036 u0020 u0648_u0643_u0627_u0646_u062a u0020 u062a_u0639_u0645_u0644 u0020 u0639_u0644_u0649 u0020 u0627_u0644_u063a_u0627_u0632_u00a0_u000b", 
        "u0648_u0635_u0644 u0020 u0625_u0646_u062a_u0627_u062c u0020 u0627_u0644_u0633_u064a_u0627_u0631_u0627_u062a u0020 u0641_u064a u0020 u0032_u0030_u0030_u0035 u0020 u0625_u0644_u0649 u0020 u0036_u0033 u0020 u0645_u0644_u064a_u0648_u0646 u0020 u0633_u064a_u0627_u0631_u0629 u0020 u0645_u0639_u0638_u0645_u0647_u0627 u0020 u0645_u0646_u0020", 
        "u0627_u0644_u0648_u0644_u0627_u064a_u0627_u062a u0020 u0627_u0644_u0645_u062a_u062d_u062f_u0629 u0020 u0648_u0627_u0644_u064a_u0627_u0628_u0627_u0646_u00a0_u000b", 
        "u062d_u0648_u0627_u0644_u064a u0020 u0039_u0030 u0020 u0641_u064a u0020 u0627_u0644_u0645_u0627_u0626_u0629 u0020 u0645_u0646 u0020 u0627_u0644_u0633_u064a_u0627_u0631_u0627_u062a u0020 u0641_u064a u0020 u0627_u0644_u0639_u0627_u0644_u0645 u0020 u062a_u0645_u0644_u0643_u0647_u0627 u0020 u0035 u0020 u0634_u0631_u0643_u0627_u062a_u00a0_u000b", 
        "u0627_u0643_u0628_u0631 u0020 u0634_u0631_u0643_u0629 u0020 u0644_u0644_u0633_u064a_u0627_u0631_u0627_u062a u0020 u062c_u0646_u0631_u0627_u0644 u0020 u0645_u0648_u062a_u0648_u0631 u0020 u0623_u0645_u0631_u064a_u0643_u064a_u0629"
    ]
}