{
    "bounding_box": [
        [
            147, 
            53, 
            570, 
            41
        ], 
        [
            15, 
            126, 
            699, 
            22
        ], 
        [
            22, 
            154, 
            393, 
            22
        ], 
        [
            15, 
            189, 
            699, 
            24
        ], 
        [
            22, 
            215, 
            537, 
            26
        ], 
        [
            15, 
            248, 
            699, 
            27
        ], 
        [
            22, 
            278, 
            328, 
            27
        ], 
        [
            15, 
            311, 
            699, 
            29
        ], 
        [
            22, 
            342, 
            189, 
            26
        ], 
        [
            22, 
            372, 
            459, 
            31
        ], 
        [
            15, 
            405, 
            699, 
            33
        ], 
        [
            15, 
            439, 
            699, 
            27
        ], 
        [
            22, 
            470, 
            496, 
            25
        ]
    ], 
    "image_height": 540, 
    "image_width": 720, 
    "transcription": [
        "u0627_u0644_u0645_u0642_u062f_u0645_u0629_u003a u0020 u0628_u0639_u062f u0020 u0032_u0030_u0030_u0033_u002c u0020 u0020_u0639_u0635_u0631 u0020 u0627_u0644_u0645_u062e_u062f_u0631_u0627_u062a u0020 u0641_u064a u0020 u0627_u0644_u0639_u0631_u0627_u0642", 
        "u0031_u002d u0020 u0645_u0646_u0630 u0020 u062d_u0632_u064a_u0631_u0627_u0646 u0020 u0032_u0030_u0030_u0033_u0627_u0644_u0628_u0635_u0631_u0629 u0020 u0648_u0627_u0644_u0639_u0645_u0627_u0631_u0629 u0020 u0648_u0627_u0644_u0646_u0627_u0635_u0631_u064a_u0629 u0020 u0648_u0627_u0644_u062f_u002e_u064a_u0648_u0627_u0646_u064a_u0629 u0020 u0648_u0627_u0644_u0645_u062b_u0646_u0649 u0020 u0648_u0648_u0627_u0633_u0637 u0020 u0648_u0627_u0644_u0646_u062c_u0641_u0020", 
        "u0648_u0643_u0631_u0628_u0644_u0627_u0621 u0020 u0648_u0627_u0644_u0643_u0627_u0638_u0645_u064a_u0629 u0020 u0645_u0631_u0627_u0643_u0632_u062a_u062c_u0627_u0631_u064a_u0629 u0020 u0631_u0626_u064a_u0633_u0629 u0020 u0644_u0644_u0645_u062e_u062f_u0631_u0627_u062a_u002e_u000d", 
        "u0032_u002d u0020 u0627_u0644_u0639_u0631_u0627_u0642 u0020 u0645_u0631_u0643_u0632_u0627 u0020 u062d_u064a_u0648_u064a_u0627 u0020 u0644_u062a_u0648_u0632_u064a_u0639 u0020 u0627_u0644_u0645_u062e_u062f_u0631_u0627_u062a u0020 u0644_u0645_u0645_u0631_u064a_u0646 u0020 u0631_u0626_u064a_u0633_u064a_u0646 u0020 u0645_u0646 u0020 u0634_u0631_u0642 u0020 u0627_u0633_u064a_u0627 u0020 u0646_u062d_u0648_u0627_u0644_u062e_u0644_u064a_u062c_u0020", 
        "u0648_u0627_u0648_u0627_u0633_u0637 u0020 u0627_u0633_u064a_u0627 u0020 u0648_u0627_u0648_u0631_u0628_u0627 u0020 u0627_u0644_u0634_u0631_u0642_u064a_u0629_u002c u0020 u0627_u0636_u0627_u0641_u0629 u0020 u0627_u0644_u0649 u0020 u0627_u0644_u0645_u0645_u0631_u0627_u062a u0020 u0627_u0644_u0628_u062d_u0631_u064a_u0629 u0020 u0639_u0644_u0649 u0020 u0627_u0644_u062e_u0644_u064a_u062c_u002e_u000d", 
        "u0033_u002d_u0627_u0644_u0639_u0645_u0627_u0631_u0629 u0020 u062b_u0645 u0020 u0627_u0644_u0628_u0635_u0631_u0629 u0020 u0645_u062f_u062e_u0644_u0627 u0020 u0644_u0644_u062d_u0634_u064a_u0634_u0629 u0020 u0648_u0627_u0644_u062a_u0631_u064a_u0627_u0642 u0020 u0648_u0627_u0644_u0627_u0641_u064a_u0648_u0646 u0020 u0648_u0627_u0644_u062e_u0634_u062e_u0627_u0634 u0020 u0645_u0646 u0020 u0627_u064a_u0631_u0627_u0646 u0020 u0627_u0644_u0649 u0020 u0627_u0644_u0639_u0631_u0627_u0642_u002c_u0020", 
        "u0648_u0627_u0644_u0645_u062b_u0646_u0649 u0020 u0627_u0648_u0644_u0627 u0020 u062b_u0645 u0020 u0630_u064a u0020 u0642_u0627_u0631_u0648_u0643_u0631_u0628_u0644_u0627_u0621 u0020 u0646_u062d_u0648 u0020 u0627_u0644_u062e_u0644_u064a_u062c_u000d", 
        "u0034_u002d_u0627_u0644_u0639_u0631_u0627_u0642 u0020 u0627_u0635_u0628_u062d u0020 u0628_u0639_u062f u0020 u0032_u0030_u0030_u0033 u0020 u0645_u0633_u062a_u0647_u0644_u0643_u0627_u064b u0020 u0648_u0031_u0030_u0025 u0020 u0645_u0646 u0020 u0627_u0644_u0645_u062e_u062f_u0631_u0627_u062a u0020 u0627_u0644_u062f_u0627_u062e_u0644_u0629 u0020 u0627_u0644_u064a_u0647 u0020 u062a_u0633_u062a_u0647_u0644_u0643 u0020 u0641_u064a_u0647 u0020 u0648_u0627_u0644_u0628_u0627_u0642_u064a_u0020", 
        "u064a_u0635_u062f_u0631 u0020 u0627_u0644_u0649 u0020 u0627_u0647_u062f_u0627_u0641 u0020 u0627_u062e_u0631_u0649_u000d", 
        "u0035_u002d u0020 u0031_u0034_u0627_u0644_u0641 u0020 u0645_u062f_u0645_u0646 u0020 u0641_u064a u0020 u0627_u0644_u0639_u0631_u0627_u0642 u0020 u0648_u0642_u062f u0020 u062a_u0635_u0644 u0020 u0627_u0644_u0646_u0633_u0628_u0629 u0020 u0627_u0644_u0649 u0020 u0031_u0025_u0645_u062f_u0645_u0646_u000d", 
        "u0036_u002d u0020 u062f_u062e_u0648_u0644 u0020 u0627_u0644_u0639_u0631_u0627_u0642 u0020 u0645_u0631_u062d_u0644_u0629 u0020 u0632_u0631_u0627_u0639_u0629 u0020 u0627_u0644_u0645_u062e_u062f_u0631_u0627_u062a u0020 u0641_u064a u0020 u0630_u064a u0020 u0642_u0627_u0631 u0020 u0648_u0645_u062d_u0627_u0641_u0638_u0627_u062a u0020 u0627_u062e_u0631_u0649 u0020 u0628_u0633_u0628_u0628 u0020 u0627_u0646_u0639_u062f_u0627_u0645 u0020 u0627_u0644_u062f_u0639_u0645_u0020", 
        "u0627_u0644_u062d_u0643_u0648_u0645_u064a u0020 u0644_u0644_u0632_u0631_u0627_u0639_u0629 u0020 u0628_u0639_u062f u0020 u0032_u0030_u0030_u0033_u002c u0020 u0648_u0627_u0633_u062a_u064a_u0631_u0627_u062f_u0627_u0644_u0645_u0646_u062a_u062c_u0627_u062a u0020 u0627_u0644_u0632_u0631_u0627_u0639_u064a_u0629 u0020 u0645_u0646 u0020 u0627_u064a_u0631_u0627_u0646 u0020 u0020_u0648_u062f_u0648_u0644 u0020 u0627_u062e_u0631_u0649 u0020 u0627_u0631_u062e_u0635_u0020", 
        "u0633_u0639_u0631_u0627 u0020 u0645_u0646 u0020 u0627_u0644_u0645_u062d_u0644_u064a_u0629_u002c u0020 u0648_u0639_u062f_u0645 u0020 u0648_u062c_u0648_u062f u0020 u0631_u0642_u0627_u0628_u0629_u002c u0020 u0627_u0648 u0020 u0627_u062c_u0631_u0627_u0621_u0627_u062a u0020 u0642_u0627_u0646_u0648_u0646_u064a_u0629 u0020 u0631_u0627_u062f_u0639_u0629_u002e_u000d"
    ]
}