{
    "bounding_box": [
        [
            303, 
            14, 
            115, 
            30
        ], 
        [
            192, 
            63, 
            457, 
            38
        ], 
        [
            34, 
            116, 
            616, 
            39
        ], 
        [
            362, 
            162, 
            288, 
            34
        ], 
        [
            34, 
            211, 
            616, 
            39
        ], 
        [
            534, 
            260, 
            116, 
            29
        ], 
        [
            34, 
            306, 
            616, 
            35
        ], 
        [
            251, 
            350, 
            398, 
            34
        ], 
        [
            34, 
            401, 
            616, 
            39
        ], 
        [
            218, 
            445, 
            432, 
            34
        ]
    ], 
    "image_height": 540, 
    "image_width": 720, 
    "transcription": [
        "u0627_u0644_u0645_u062d_u062a_u0648_u064a_u0627_u062a", 
        "u0623_u0648_u0644_u0627_u064b u0020 u003a u0020 u0646_u0628_u0630_u0629 u0020 u0639_u0646 u0020 u0627_u0644_u0645_u0646_u0627_u0637_u0642 u0020 u0627_u0644_u062d_u0631_u0629 u0020 u0627_u0644_u0639_u0631_u0628_u064a_u0629_u002e u0020 u000d", 
        "u062b_u0627_u0646_u064a_u0627_u064b u0020 u003a u0020 u0627_u0644_u062a_u062c_u0631_u0628_u0629 u0020 u0627_u0644_u0645_u0635_u0631_u064a_u0629 u0020 u0641_u064a u0020 u0645_u062c_u0627_u0644 u0020 u062a_u0634_u062c_u064a_u0639 u0020 u0627_u0644_u0627_u0633_u062a_u062b_u0645_u0627_u0631_u0020", 
        "u0648_u062a_u0637_u0648_u064a_u0631 u0020 u0627_u0644_u0645_u0646_u0627_u0637_u0642 u0020 u0627_u0644_u062d_u0631_u0629_u002e u0020 u000d", 
        "u062b_u0627_u0644_u062b_u0627_u064b u0020 u003a u0020 u0645_u0641_u0647_u0648_u0645 u0020 u0627_u0644_u0634_u0631_u0627_u0643_u0629 u0020 u0627_u0644_u0625_u0633_u062a_u0631_u0627_u062a_u064a_u062c_u064a_u0629 u0020 u0644_u0644_u0645_u0646_u0627_u0637_u0642 u0020 u0627_u0644_u062d_u0631_u0629_u0020", 
        "u0648_u0645_u0632_u0627_u064a_u0627_u0647_u0627_u002e_u000d", 
        "u0631_u0627_u0628_u0639_u0627_u064b u0020 u003a u0020 u0627_u062a_u0641_u0627_u0642_u064a_u0629 u0020 u0625_u0646_u0634_u0627_u0621 u0020 u0645_u0646_u0637_u0642_u0629 u0020 u0627_u0644_u062a_u062c_u0627_u0631_u0629 u0020 u0627_u0644_u062d_u0631_u0629 u0020 u0627_u0644_u0639_u0631_u0628_u064a_u0629_u0020", 
        "u0627_u0644_u0643_u0628_u0631_u0649 u0020 u0648_u0642_u0648_u0627_u0639_u062f u0020 u0627_u0644_u0645_u0646_u0634_u0623 u0020 u0627_u0644_u062a_u0641_u0635_u064a_u0644_u064a_u0629_u002e u0020 u000d", 
        "u062e_u0627_u0645_u0633_u0627_u064b u0020 u003a u0020 u0648_u0636_u0639 u0020 u0627_u0644_u0645_u0646_u0627_u0637_u0642 u0020 u0627_u0644_u062d_u0631_u0629 u0020 u0627_u0644_u0639_u0631_u0628_u064a_u0629 u0020 u0641_u064a u0020 u0627_u062a_u0641_u0627_u0642_u064a_u0629_u0020", 
        "u0645_u0646_u0637_u0642_u0629 u0020 u0627_u0644_u062a_u062c_u0627_u0631_u0629 u0020 u0627_u0644_u062d_u0631_u0629 u0020 u0627_u0644_u0639_u0631_u0628_u064a_u0629 u0020 u0627_u0644_u0643_u0628_u0631_u0649_u002e_u0020"
    ]
}