{
    "bounding_box": [
        [
            197, 
            51, 
            324, 
            36
        ], 
        [
            66, 
            136, 
            583, 
            30
        ], 
        [
            121, 
            173, 
            528, 
            31
        ], 
        [
            46, 
            211, 
            603, 
            33
        ], 
        [
            584, 
            252, 
            65, 
            26
        ]
    ], 
    "image_height": 540, 
    "image_width": 720, 
    "transcription": [
        "u062a_u062d_u062f_u064a_u062f u0020 u0627_u0644_u0648_u062d_u062f_u0627_u062a u0020 u0627_u0644_u0641_u062f_u0631_u0627_u0644_u064a_u0629", 
        "u0644_u064a_u0633 u0020 u0645_u0627 u0020 u064a_u0647_u0645 u0020 u0641_u0642_u0637 u0020 u062d_u062f_u0648_u062f u0020 u0627_u0644_u0648_u062d_u062f_u0627_u062a u0020 u0627_u0644_u0641_u062f_u0631_u0627_u0644_u064a_u0629_u0021 u0020 u0645_u0633_u062a_u0648_u064a_u0627_u062a u0020 u0627_u062e_u0631_u0649_u0020", 
        "u0645_u0646 u0020 u0627_u0644_u062d_u0643_u0648_u0645_u0629_u060c u0020 u0627_u0644_u0636_u0645_u0627_u0646_u0627_u062a u0020 u0644_u0644_u0623_u0642_u0644_u064a_u0627_u062a_u060c u0020 u0627_u0644_u062a_u0645_u062b_u064a_u0644 u0020 u0627_u0644_u062c_u064a_u062f u0020 u0639_u0644_u0649_u0020", 
        "u0627_u0644_u0645_u0633_u062a_u0648_u0649 u0020 u0627_u0644_u0645_u0631_u0643_u0632_u064a_u060c u0020 u0627_u0645_u0643_u0627_u0646_u064a_u0627_u062a u0020 u0627_u0644_u062a_u0639_u062f_u064a_u0644 u0020 u0623_u0648 u0020 u0627_u0639_u0627_u062f_u0629 u0020 u062a_u062d_u062f_u064a_u062f u0020 u0648_u0636_u0628_u0637_u0020", 
        "u0627_u0644_u062d_u062f_u0648_u062f"
    ]
}