{
    "bounding_box": [
        [
            164, 
            44, 
            390, 
            47
        ], 
        [
            89, 
            131, 
            539, 
            36
        ], 
        [
            123, 
            172, 
            504, 
            32
        ], 
        [
            208, 
            219, 
            420, 
            33
        ], 
        [
            461, 
            268, 
            167, 
            24
        ], 
        [
            64, 
            308, 
            612, 
            33
        ], 
        [
            157, 
            351, 
            471, 
            31
        ], 
        [
            95, 
            394, 
            581, 
            35
        ]
    ], 
    "image_height": 540, 
    "image_width": 720, 
    "transcription": [
        "u0627_u0644_u0623_u062e_u0637_u0627_u0621 u0020 u0627_u0644_u0645_u0648_u062c_u0648_u062f_u0629 u0020 u0641_u064a u0020 u0627_u0644_u0635_u064a_u063a", 
        "u062f_u0627_u0626_u0645_u0627_u064b u0020 u0633_u062a_u0638_u0647_u0631 u0020 u0644_u0643 u0020 u0631_u0633_u0627_u0644_u0629 u0020 u062e_u0637_u0623 u0020 u0639_u0646_u062f_u0645_u0627 u0020 u0644_u0627 u0020 u064a_u0633_u062a_u0637_u064a_u0639 u0020 u0628_u0631_u0646_u0627_u0645_u062c_u0020", 
        "u0625_u0643_u0633_u0644 u0020 u062d_u0633_u0627_u0628 u0020 u0627_u0644_u0635_u064a_u063a_u0629 u0020 u0623_u0648 u0020 u0625_u0638_u0647_u0627_u0631 u0020 u0646_u062a_u064a_u062c_u062a_u0647_u0627 u0020 u0627_u0644_u0635_u062d_u064a_u062d_u0629_u002e_u000d", 
        "u0623_u0634_u0643_u0627_u0644 u0020 u0627_u0644_u0623_u062e_u0637_u0627_u0621 u0020 u0627_u0644_u0634_u0627_u0626_u0639_u0629 u0020 u0641_u064a u0020 u0628_u0631_u0646_u0627_u0645_u062c u0020 u0625_u0643_u0633_u0644_u003a_u000d", 
        "u0627_u0644_u0639_u0644_u0627_u0645_u0629 u0020 u0023_u0023_u0023_u0023_u003a_u000d", 
        "u0009_u062a_u0638_u0647_u0631 u0020 u0647_u0630_u0647 u0020 u0627_u0644_u0639_u0644_u0627_u0645_u0629 u0020 u0639_u0646_u062f_u0645_u0627 u0020 u064a_u0643_u0648_u0646 u0020 u0639_u0631_u0636 u0020 u0627_u0644_u0639_u0645_u0648_u062f u0020 u0636_u064a_u0642 u0020 u062c_u062f_u0627_u064b_u0020", 
        "u0628_u062d_u064a_u062b u0020 u0644_u0627 u0020 u064a_u0633_u0645_u062d u0020 u0628_u0625_u0638_u0647_u0627_u0631 u0020 u0646_u062a_u064a_u062c_u0629 u0020 u0627_u0644_u0639_u0645_u0644_u064a_u0629 u0020 u0627_u0644_u0645_u062d_u0627_u0633_u0628_u064a_u0629_u000d", 
        "u0627_u0644_u0645_u0639_u0627_u0644_u062c_u0629_u003a u0020 u062a_u0643_u0628_u064a_u0631 u0020 u0639_u0631_u0636 u0020 u0627_u0644_u0639_u0645_u0648_u062f u0020 u0628_u0627_u0644_u0633_u062d_u0628 u0020 u0623_u0648 u0020 u0627_u0644_u0646_u0642_u0631 u0020 u0627_u0644_u0645_u0632_u062f_u0648_u062c u0020 u000d"
    ]
}