{
    "bounding_box": [
        [
            244, 
            69, 
            249, 
            48
        ], 
        [
            63, 
            186, 
            597, 
            30
        ], 
        [
            82, 
            220, 
            558, 
            30
        ], 
        [
            80, 
            252, 
            562, 
            31
        ], 
        [
            293, 
            289, 
            144, 
            27
        ]
    ], 
    "image_height": 540, 
    "image_width": 720, 
    "transcription": [
        "u062a_u0639_u0631_u064a_u0641 u0020 u0627_u0644_u0637_u0627_u0626_u0631_u0647", 
        "u0627_u0644_u0637_u0627_u0626_u0640_u0631_u0629 u0020 u0647_u064a u0020 u0645_u0631_u0643_u0628_u0629 u0020 u062c_u0648_u064a_u0629 u0020 u0623_u062b_u0642_u0644 u0020 u0645_u0646 u0020 u0627_u0644_u0647_u0648_u0627_u0621 u0020 u062a_u0633_u062a_u062e_u062f_u0645 u0020 u0643_u0648_u0633_u064a_u0644_u0629 u0020 u0646_u0642_u0644 u0020 u062c_u0648_u064a_u002e_u0020", 
        "u062a_u062d_u0644_u0642 u0020 u0625_u0645_u0627 u0020 u0634_u0631_u0627_u0639_u064a_u0627 u0020 u0623_u0648 u0020 u0628_u0645_u062d_u0631_u0643 u0020 u0648_u0627_u062d_u062f u0020 u0623_u0648 u0020 u0623_u0643_u062b_u0631_u060c u0020 u062a_u0633_u062a_u0637_u064a_u0639 u0020 u0627_u0644_u0637_u064a_u0631_u0627_u0646 u0020 u0641_u064a_u0020", 
        "u0627_u0644_u0647_u0648_u0627_u0621 u0020 u0627_u0639_u062a_u0645_u0627_u062f_u0627_u064b u0020 u0639_u0644_u0649 u0020 u0642_u0648_u0629 u0020 u0627_u0644_u0631_u0651_u0641_u0639 u0020 u0627_u0644_u0645_u062a_u0648_u0644_u062f_u0629 u0020 u0639_u0644_u0649 u0020 u0623_u062c_u0646_u062d_u062a_u0647_u0627_u0648 u0020 u0639_u0646 u0020 u0637_u0631_u064a_u0642_u0020", 
        "u0642_u0648_u0629 u0020 u0633_u062d_u0628 u0020 u0627_u0644_u0647_u0648_u0627_u0621"
    ]
}