{
    "bounding_box": [
        [
            8, 
            26, 
            686, 
            43
        ], 
        [
            8, 
            78, 
            686, 
            39
        ], 
        [
            8, 
            122, 
            686, 
            43
        ], 
        [
            8, 
            170, 
            686, 
            43
        ], 
        [
            8, 
            218, 
            686, 
            43
        ], 
        [
            8, 
            266, 
            686, 
            43
        ], 
        [
            8, 
            314, 
            686, 
            43
        ], 
        [
            8, 
            362, 
            686, 
            43
        ], 
        [
            8, 
            408, 
            686, 
            45
        ], 
        [
            353, 
            458, 
            341, 
            43
        ]
    ], 
    "image_height": 540, 
    "image_width": 720, 
    "transcription": [
        "u0623_u0635_u0628_u062d_u062a u0020 u0627_u0644_u0645_u0645_u0644_u0643_u0629 u0020 u0627_u0644_u0646_u0628_u0637_u064a_u0629 u0020 u0641_u064a u0020 u0639_u0647_u062f u0020 u0627_u0644_u0645_u0644_u0643 u0020 u0627_u0644_u062d_u0627_u0631_u062b u0020 u0627_u0644_u062b_u0627_u0644_u062b_u0020", 
        "u0625_u062d_u062f_u0649 u0020 u0627_u0644_u0642_u0648_u0649 u0020 u0627_u0644_u062a_u064a u0020 u0647_u062f_u062f_u062a u0020 u0627_u0644_u064a_u0647_u0648_u062f_u060c u0020 u0648_u0633_u0627_u0639_u062f_u0647 u0020 u0645_u0644_u0648_u0643_u0020", 
        "u0627_u0644_u0623_u0646_u0628_u0627_u0637 u0020 u0627_u0644_u0630_u064a_u0646 u0020 u0633_u0628_u0642_u0648_u0647 u0020 u0645_u062b_u0644 u0020 u0631_u0627_u0628_u064a_u0644 u0020 u0627_u0644_u0623_u0648_u0644 u0020 u0627_u0644_u0630_u064a u0020 u062d_u0642_u0642_u0020", 
        "u0627_u0644_u0627_u0646_u062a_u0635_u0627_u0631 u0020 u0639_u0644_u0649 u0020 u0627_u0646_u0637_u064a_u0648_u062e_u0648_u0633 u0020 u0641_u0623_u062a_u0627_u062d u0020 u0647_u0630_u0627 u0020 u0627_u0644_u0645_u062c_u0627_u0644 u0020 u0644_u062a_u0635_u0628_u062d_u0020", 
        "u0627_u0644_u062f_u0648_u0644_u0629 u0020 u0627_u0644_u0646_u0628_u0637_u064a_u0629 u0020 u0642_u0648_u064a_u0629 u0020 u0641_u064a u0020 u0639_u0647_u062f_u0647_u002e u0020 u0020_u0643_u0645_u0627 u0020 u0623_u0646 u0020 u0627_u0644_u0627_u0636_u0637_u0631_u0627_u0628_u0627_u062a_u0020", 
        "u0648_u0645_u0631_u062d_u0644_u0629 u0020 u0627_u0644_u0636_u0639_u0641 u0020 u0648_u0627_u0644_u062a_u0642_u0647_u0642_u0631 u0020 u0627_u0644_u062a_u064a u0020 u0623_u0635_u0627_u0628_u062a u0020 u0627_u0644_u0645_u0645_u0644_u0643_u0629_u0020", 
        "u0627_u0644_u0633_u0644_u0648_u0642_u064a_u0629 u0020 u0648_u0627_u0644_u0625_u0645_u0628_u0631_u0627_u0637_u0648_u0631_u064a_u0629 u0020 u0627_u0644_u0631_u0648_u0645_u0627_u0646_u064a_u0629 u0020 u0622_u0646_u0630_u0627_u0643 u0020 u0623_u0639_u0637_u062a_u0020", 
        "u0627_u0644_u0641_u0631_u0635_u0629 u0020 u0644_u0644_u062d_u0627_u0631_u062b u0020 u0627_u0644_u062b_u0627_u0644_u062b u0020 u0644_u062a_u062b_u0628_u064a_u062a u0020 u0623_u0642_u062f_u0627_u0645_u0647 u0020 u0641_u064a u0020 u0627_u0644_u062d_u0643_u0645_u0020", 
        "u0648_u0627_u0644_u0645_u0636_u064a u0020 u0642_u062f_u0645_u0627_u064b u0020 u0641_u064a u0020 u062a_u0648_u0633_u064a_u0639 u0020 u0645_u0645_u0644_u0643_u062a_u0647_u060c u0020 u0648_u0623_u0635_u0628_u062d u0020 u0623_u0648_u0644 u0020 u0645_u0644_u0643_u0020", 
        "u0646_u0628_u0637_u064a u0020 u064a_u062d_u0643_u0645 u0020 u0645_u062f_u064a_u0646_u0629 u0020 u062f_u0645_u0634_u0642_u002e u0020 u0020"
    ]
}