{
    "bounding_box": [
        [
            164, 
            37, 
            391, 
            30
        ], 
        [
            527, 
            103, 
            134, 
            24
        ], 
        [
            57, 
            143, 
            604, 
            25
        ], 
        [
            85, 
            171, 
            577, 
            29
        ], 
        [
            110, 
            206, 
            552, 
            26
        ], 
        [
            88, 
            237, 
            574, 
            28
        ], 
        [
            91, 
            268, 
            570, 
            29
        ], 
        [
            98, 
            302, 
            563, 
            27
        ], 
        [
            605, 
            334, 
            57, 
            21
        ], 
        [
            56, 
            372, 
            605, 
            26
        ], 
        [
            122, 
            404, 
            539, 
            25
        ]
    ], 
    "image_height": 540, 
    "image_width": 720, 
    "transcription": [
        "u0627_u0644_u062f_u0631_u0633 u0020 u0034_u002d_u0033_u003a u0020 u0625_u0646_u0634_u0627_u0621 u0020 u0648_u0627_u0633_u062a_u062e_u062f_u0627_u0645 u0020 u0627_u0644_u062a_u0642_u0627_u0631_u064a_u0631", 
        "u0645_u0627 u0020 u0647_u0648 u0020 u0627_u0644_u062a_u0642_u0631_u064a_u0631_u061f_u000d", 
        "u0625_u0646 u0020 u0627_u0644_u062a_u0642_u0631_u064a_u0631 u0020 u0639_u0628_u0627_u0631_u0629 u0020 u0639_u0646 u0020 u0637_u0631_u064a_u0642_u0629 u0020 u0631_u0633_u0645_u064a_u0629 u0020 u0644_u0639_u0631_u0636 u0020 u0627_u0644_u0628_u064a_u0627_u0646_u0627_u062a u0020 u0641_u064a u0020 u0642_u0627_u0639_u062f_u0629 u0020 u0627_u0644_u0628_u064a_u0627_u0646_u0627_u062a_u002e_u0020", 
        "u062d_u064a_u062b u0020 u064a_u0645_u0643_u0646 u0020 u0623_u0646 u0020 u064a_u0623_u062a_u064a u0020 u0645_u0635_u062f_u0631 u0020 u0627_u0644_u0628_u064a_u0627_u0646_u0627_u062a u0020 u0644_u062a_u0642_u0631_u064a_u0631 u0020 u0645_u0646 u0020 u062c_u062f_u0648_u0644 u0020 u0623_u0648 u0020 u0645_u0646 u0020 u0627_u0644_u0628_u064a_u0627_u0646_u0627_u062a_u0020", 
        "u0627_u0644_u062a_u064a u0020 u064a_u0633_u062a_u0631_u062f_u0647_u0627 u0020 u0627_u0633_u062a_u0639_u0644_u0627_u0645_u002e u0020 u064a_u0645_u0643_u0646 u0020 u062a_u062e_u0635_u064a_u0635 u0020 u0627_u0644_u062a_u0642_u0627_u0631_u064a_u0631 u0020 u0628_u0634_u0643_u0644 u0020 u0643_u0627_u0645_u0644_u060c u0020 u0645_u062b_u0644_u0020", 
        "u0627_u0644_u0646_u0645_u0627_u0630_u062c u0020 u062a_u0645_u0627_u0645_u0627_u064b_u060c u0020 u062d_u064a_u062b u0020 u0645_u0646 u0020 u0627_u0644_u0633_u0647_u0644 u0020 u0625_u0646_u0634_u0627_u0626_u0647_u0627 u0020 u0628_u0627_u0633_u062a_u062e_u062f_u0627_u0645 u0020 u0627_u0644_u0645_u0639_u0627_u0644_u062c_u002e u0020 u0641_u0625_u0646 u0020 u0644_u0645 u0020 u064a_u0643_u0646_u0020", 
        "u0627_u0644_u0645_u0639_u0627_u0644_u062c u0020 u0645_u064f_u062d_u062f_u062f_u0627_u064b u0020 u0628_u0634_u0643_u0644 u0020 u0643_u0627_u0641_u064a u0020 u0644_u0645_u062a_u0637_u0644_u0628_u0627_u062a_u0643_u060c u0020 u0641_u0644_u062f_u064a_u0643 u0020 u0637_u0631_u064a_u0642_u0629 u0020 u0639_u0631_u0636 u0020 u0627_u0644_u062a_u0635_u0645_u064a_u0645_u0020", 
        "u0627_u0644_u062a_u064a u0020 u062a_u0633_u0645_u062d u0020 u0644_u0643 u0020 u0628_u062a_u063a_u064a_u064a_u0631 u0020 u0627_u0644_u0644_u0648_u0646 u0020 u0648_u0627_u0644_u062a_u062e_u0637_u064a_u0637 u0020 u0648_u0627_u0644_u0646_u0645_u0637 u0020 u0648_u0623_u0643_u062b_u0631 u0020 u0645_u0646 u0020 u0630_u0644_u0643 u0020 u0628_u0634_u0643_u0644_u0020", 
        "u0643_u0627_u0645_u0644_u002e_u000d", 
        "u0625_u0646 u0020 u062a_u063a_u064a_u0631_u062a u0020 u0627_u0644_u0628_u064a_u0627_u0646_u0627_u062a u0020 u0641_u064a u0020 u0642_u0627_u0639_u062f_u0629 u0020 u0627_u0644_u0628_u064a_u0627_u0646_u0627_u062a_u060c u0020 u0641_u0644_u0627 u0020 u062d_u0627_u062c_u0629 u0020 u0644_u0639_u0645_u0644 u0020 u062a_u063a_u064a_u064a_u0631_u0627_u062a u0020 u0627_u0644_u062a_u0635_u0645_u064a_u0645_u0020", 
        "u0639_u0644_u0649 u0020 u0627_u0644_u062a_u0642_u0631_u064a_u0631_u002e u0020 u0628_u0628_u0633_u0627_u0637_u0629_u060c u0020 u0642_u0645 u0020 u0628_u0625_u0639_u0627_u062f_u0629 u0020 u062a_u0634_u063a_u064a_u0644 u0020 u0627_u0644_u062a_u0642_u0631_u064a_u0631 u0020 u0648_u0627_u0639_u0631_u0636 u0020 u0627_u0644_u0646_u062a_u0627_u0626_u062c_u002e"
    ]
}