{
    "bounding_box": [
        [
            503, 
            95, 
            168, 
            34
        ], 
        [
            22, 
            211, 
            653, 
            35
        ], 
        [
            110, 
            319, 
            565, 
            38
        ], 
        [
            209, 
            517, 
            36, 
            10
        ], 
        [
            672, 
            521, 
            11, 
            6
        ]
    ], 
    "image_height": 540, 
    "image_width": 720, 
    "transcription": [
        "u0627_u0644_u0633_u0644_u0627_u0645 u0020 u0627_u0644_u062e_u0627_u0636_u0639", 
        "u0648_u0647_u0648 u0020 u0639_u0643_u0633 u0020 u0645_u0635_u0627_u0641_u062d_u0629 u0020 u0627_u0644_u0633_u064a_u0637_u0631_u0629 u0020 u062d_u064a_u062b u0020 u062a_u0643_u0648_u0646 u0020 u0627_u0644_u0631_u0627_u062d_u0629 u0020 u0645_u0648_u062c_u0647_u0629_u0020", 
        "u0644_u0623_u0639_u0644_u0649 u0020 u0648_u0641_u064a_u0647_u0627 u0020 u0627_u0644_u0625_u0633_u062a_u0633_u0644_u0627_u0645 u0020 u0648 u0020 u0625_u0639_u0637_u0627_u0621 u0020 u0627_u0644_u0633_u064a_u0637_u0631_u0629 u0020 u0644_u0644_u0622_u062e_u0631 u0020 u002e", 
        "u0644_u063a_u0629 u0020 u0627_u0644_u062c_u0633_u062f", 
        "u0032_u0035"
    ]
}