{
    "bounding_box": [
        [
            327, 
            513, 
            64, 
            6
        ], 
        [
            43, 
            511, 
            13, 
            6
        ], 
        [
            141, 
            273, 
            461, 
            29
        ], 
        [
            162, 
            342, 
            420, 
            26
        ], 
        [
            333, 
            42, 
            99, 
            33
        ], 
        [
            267, 
            153, 
            204, 
            34
        ]
    ], 
    "image_height": 540, 
    "image_width": 720, 
    "transcription": [
        "u0041_u006c_u0069_u006f_u0062_u0065_u0069_u0064_u002e_u0063_u006f_u006d", 
        "u0039_u0031", 
        "u0625_u0631_u0647_u0627_u0641 u0020 u062d_u0627_u0633_u0629 u0020 u0627_u0644_u0628_u0635_u0631 u0020 u0648_u0627_u0643_u062a_u0634_u0627_u0641 u0020 u0627_u0644_u062d_u0633_u0627_u0633_u0627_u062a u0020 u0641_u064a u0020 u0627_u0644_u0639_u064a_u0646_u0020", 
        "u0648_u0642_u062f_u0631_u062a_u0647_u0627 u0020 u0639_u0644_u0649 u0020 u062a_u0633_u062c_u064a_u0644 u0020 u0645_u0639_u0644_u0648_u0645_u0627_u062a u0020 u0644_u0645 u0020 u0646_u0643_u0646 u0020 u0646_u0647_u062a_u0645 u0020 u0628_u0647_u0627_u0020", 
        "u062a_u0645_u0631_u064a_u0646_u003a", 
        "u0647_u062f_u0641 u0020 u0627_u0644_u062a_u0645_u0631_u064a_u0646 u0020 u003a_u0020"
    ]
}