{
    "bounding_box": [
        [
            442, 
            41, 
            175, 
            29
        ], 
        [
            99, 
            95, 
            518, 
            25
        ], 
        [
            98, 
            123, 
            518, 
            26
        ], 
        [
            82, 
            155, 
            534, 
            23
        ], 
        [
            377, 
            183, 
            239, 
            23
        ], 
        [
            85, 
            212, 
            495, 
            23
        ], 
        [
            223, 
            239, 
            357, 
            25
        ], 
        [
            80, 
            269, 
            500, 
            24
        ], 
        [
            526, 
            299, 
            55, 
            20
        ], 
        [
            252, 
            327, 
            329, 
            23
        ], 
        [
            310, 
            356, 
            208, 
            20
        ], 
        [
            121, 
            383, 
            397, 
            25
        ], 
        [
            116, 
            411, 
            402, 
            26
        ], 
        [
            461, 
            445, 
            57, 
            18
        ], 
        [
            226, 
            469, 
            292, 
            22
        ]
    ], 
    "image_height": 540, 
    "image_width": 720, 
    "transcription": [
        "u0646_u0638_u0631_u064a_u0629 u0020 u062f_u0627_u0641_u0639 u0020 u0627_u0644_u0625_u0646_u062c_u0627_u0632_u000d", 
        "u0642_u0627_u0645 u0020 u062f_u064a_u0641_u064a_u062f u0020 u0645_u0627_u0643_u0644_u064a_u0644_u0627_u0646_u062f u0020 u0628_u0627_u0644_u062a_u0648_u0635_u0644 u0020 u0628_u0623_u0646 u0020 u0647_u0646_u0627_u0643 u0020 u0623_u0641_u0631_u0627_u062f_u0627 u0020 u0630_u0648 u0020 u0645_u064a_u0644 u0020 u0648_u0631_u063a_u0628_u0629 u0020 u0625_u0644_u064a u0020 u0625_u062a_u0645_u0627_u0645_u0020", 
        "u0627_u0644_u0639_u0645_u0644 u0020 u0628_u0635_u0648_u0631_u0629 u0020 u062c_u064a_u062f_u0629 u0020 u062e_u0644_u0627_u0641 u0020 u0627_u0644_u0623_u0634_u062e_u0627_u0635 u0020 u0627_u0644_u0639_u0627_u062f_u064a_u064a_u0646 u0020 u0648_u0644_u0642_u062f u0020 u0623_u0637_u0644_u0642 u0020 u0639_u0644_u064a u0020 u0647_u0624_u0644_u0627_u0621_u0020", 
        "u0630_u0648_u064a u0020 u0627_u0644_u0625_u0646_u062c_u0627_u0632 u0020 u0627_u0644_u0639_u0627_u0644_u064a u0020 u0648_u0627_u0633_u062a_u0646_u0628_u0637 u0020 u062f_u0627_u0641_u0639 u0020 u0645_u062a_u0645_u064a_u0632 u0020 u0647_u0648 u0020 u062f_u0627_u0641_u0639 u0020 u0627_u0644_u0625_u0646_u062c_u0627_u0632 u0020 u0648_u062a_u062a_u0644_u062e_u0635 u0020 u0647_u0630_u0647_u0020", 
        "u0627_u0644_u0646_u0638_u0631_u064a_u0629 u0020 u0641_u064a u0020 u0627_u0644_u0627_u0639_u062a_u0628_u0627_u0631_u0627_u062a u0020 u0627_u0644_u062a_u0627_u0644_u064a_u0629_u003a u0020 u000d", 
        "u064a_u0634_u064a_u0631 u0020 u062f_u0627_u0641_u0639 u0020 u0627_u0644_u0627_u0646_u062c_u0627_u0632 u0020 u0625_u0644_u064a u0020 u0627_u0644_u0631_u063a_u0628_u0629 u0020 u0648_u0627_u0644_u062d_u0645_u0627_u0633 u0020 u0627_u0644_u0639_u0627_u0644_u064a u0020 u0627_u0644_u0630_u064a u0020 u0642_u062f u0020 u064a_u062a_u0648_u0641_u0631 u0020 u0644_u062f_u064a_u0020", 
        "u0628_u0639_u0636 u0020 u0627_u0644_u0623_u0641_u0631_u0627_u062f u0020 u0641_u064a u0020 u0623_u062f_u0627_u0626_u0647_u0645 u0020 u0644_u0625_u0639_u0645_u0627_u0644_u0647_u0645 u0020 u0628_u0635_u0648_u0631_u0629 u0020 u062c_u064a_u062f_u0629 u0020 u000d", 
        "u064a_u0639_u062a_u0628_u0631 u0020 u062f_u0627_u0641_u0639 u0020 u0627_u0644_u0627_u0646_u062c_u0627_u0632 u0020 u0645_u0646 u0020 u0627_u0644_u062f_u0648_u0627_u0641_u0639 u0020 u0627_u0644_u0645_u062a_u0639_u0644_u0645_u0629 u0020 u0645_u0646 u0020 u0627_u0644_u062e_u0628_u0631_u0627_u062a u0020 u0627_u0644_u0633_u0627_u0628_u0642_u0629 u0020 u0627_u0648 u0020 u0625_u0644_u064a_u0020", 
        "u0627_u0644_u062a_u0631_u0628_u064a_u0629_u000d", 
        "u064a_u062a_u0645_u064a_u0632 u0020 u0630_u0648_u064a u0020 u0627_u0644_u0627_u0646_u062c_u0627_u0632 u0020 u0627_u0644_u0639_u0627_u0644_u064a u0020 u0628_u062e_u0635_u0627_u0626_u0635 u0020 u0648_u0647_u064a_u003a_u000d", 
        "u0020_u062a_u062d_u0645_u0644 u0020 u0627_u0644_u0645_u062e_u0627_u0637_u0631 u0020 u0627_u0644_u0645_u062a_u0648_u0633_u0637_u0629 u0020 u000d", 
        "u0627_u062e_u062a_u064a_u0627_u0631 u0020 u0627_u0644_u0625_u0639_u0645_u0627_u0644 u0020 u0627_u0644_u062a_u064a u0020 u062a_u0639_u0637_u064a_u0647_u0645 u0020 u0623_u0643_u0628_u0631 u0020 u0642_u062f_u0631 u0020 u0645_u0646 u0020 u0627_u0644_u0645_u0639_u0644_u0648_u0645_u0627_u062a_u000d", 
        "u0627_u062e_u062a_u064a_u0627_u0631 u0020 u0627_u0644_u0623_u0639_u0645_u0627_u0644 u0020 u0627_u0644_u062a_u064a u0020 u062a_u0639_u0637_u064a_u0647_u0645 u0020 u0623_u0643_u0628_u0631 u0020 u0642_u062f_u0631 u0020 u0645_u0646 u0020 u0627_u0644_u062a_u0642_u062f_u064a_u0631 u0020 u0639_u0646_u062f_u0020", 
        "u0625_u062a_u0645_u0627_u0645_u0647_u0627_u000d", 
        "u064a_u0635_u0639_u0628 u0020 u0639_u0644_u064a_u0647_u0645 u0020 u062a_u0631_u0643 u0020 u0627_u0644_u0639_u0645_u0644 u0020 u0623_u0644_u0627 u0020 u0628_u0639_u062f u0020 u0625_u062a_u0645_u0627_u0645_u0647"
    ]
}