{
    "bounding_box": [
        [
            39, 
            37, 
            640, 
            42
        ]
    ], 
    "image_height": 540, 
    "image_width": 720, 
    "transcription": [
        "u062a_u0647_u062f_u064a_u062f_u0627_u062a u0020 u062f_u0631 u0020 u0631_u0648_u0627_u0628_u0637 u0020 u0631_u0633_u0627_u0646_u0647 u0020 u0647_u0627 u0020 u0648 u0020 u0631_u0648_u0627_u0628_u0637 u0020 u0639_u0645_u0648_u0645_u06cc"
    ]
}