{
    "bounding_box": [
        [
            788, 
            62, 
            98, 
            36
        ], 
        [
            394, 
            152, 
            474, 
            33
        ], 
        [
            661, 
            245, 
            206, 
            38
        ]
    ], 
    "image_height": 540, 
    "image_width": 960, 
    "transcription": [
        "u0627_u0644_u0633_u064a_u0631_u0629_u003a", 
        "u0647_u064a u0020 u062a_u0631_u062c_u0645_u0629 u0020 u0644_u062d_u064a_u0627_u0629 u0020 u0634_u062e_u0635_u064a_u0629 u0020 u0625_u0646_u0633_u0627_u0646_u064a_u0629 u0020 u0645_u0645_u064a_u0632_u0629 u0020 u002e_u000d", 
        "u0641_u0647_u064a u0020 u0623_u062f_u0628 u0020 u062a_u0641_u0633_u064a_u0631_u064a_u002e"
    ]
}