{
    "bounding_box": [
        [
            49, 
            52, 
            633, 
            37
        ], 
        [
            57, 
            94, 
            624, 
            30
        ], 
        [
            358, 
            133, 
            324, 
            33
        ], 
        [
            120, 
            169, 
            561, 
            34
        ], 
        [
            81, 
            210, 
            600, 
            32
        ], 
        [
            54, 
            247, 
            628, 
            34
        ], 
        [
            74, 
            286, 
            608, 
            34
        ], 
        [
            45, 
            324, 
            636, 
            33
        ], 
        [
            43, 
            362, 
            638, 
            34
        ], 
        [
            88, 
            402, 
            594, 
            32
        ], 
        [
            55, 
            438, 
            626, 
            34
        ]
    ], 
    "image_height": 540, 
    "image_width": 720, 
    "transcription": [
        "u0032_u002d u0020 u0648_u0625_u0630_u0627 u0020 u0642_u0635_u062f_u062a u0020 u0628_u0647_u0627 u0020 u0627_u0644_u0623_u062c_u0632_u0627_u0621 u0020 u0646_u062d_u0648 u0020 u003a_u0028 u0020 u0623_u064a u0020 u0632_u064a_u062f_u064d u0020 u0623_u062d_u0633_u0646_u064f u0020 u0029 u0020 u0628_u0645_u0639_u0646_u0649 u0020 u0623_u064a_u000d", 
        "u0623_u062c_u0632_u0627_u0621 u0020 u0632_u064a_u062f u0020 u0623_u062d_u0633_u0646_u060c u0020 u0641_u0644_u0630_u0644_u0643 u0020 u064a_u062c_u0627_u0628 u0020 u0628_u0627_u0644_u0623_u062c_u0632_u0627_u0621 u0020 u0641_u064a_u0642_u0627_u0644 u0020 u0639_u064a_u0646_u0647 u0020 u0623_u0648 u0020 u0623_u0646_u0641_u0647 u0020 u0623_u0648_u0020", 
        "u0623_u0630_u0646_u0647 u0020 u002e_u002e_u002e u0020 u0625_u0630_u0627 u0020 u0642_u0635_u062f u0020 u0628_u0647_u0627 u0020 u0627_u0644_u0627_u0633_u062a_u0641_u0647_u0627_u0645 u0020 u002e_u000d", 
        "u0648_u0623_u064a u0020 u062a_u0643_u0648_u0646 u0020 u0028_u0627_u0633_u062a_u0641_u0647_u0627_u0645_u064a_u0629 u0020 u060c u0020 u0634_u0631_u0637_u064a_u0629 u0020 u2013 u0020 u0635_u0641_u0629 u0020 u2013 u0020 u0648_u0645_u0648_u0635_u0648_u0644_u0629 u0020 u0029_u000d", 
        "u002d u0020 u0627_u0644_u0627_u0633_u062a_u0641_u0647_u0627_u0645_u064a_u0629 u0020 u0648_u0627_u0644_u0634_u0631_u0637_u064a_u0629 u0020 u062a_u0636_u0627_u0641 u0020 u0625_u0644_u0649 u0020 u0627_u0644_u0646_u0643_u0631_u0629 u0020 u0648_u0627_u0644_u0645_u0639_u0631_u0641_u0629 u0020 u0628_u0634_u0631_u0637_u0020", 
        "u0627_u0644_u062a_u0639_u062f_u062f u0020 u0648_u064a_u062c_u0648_u0632 u0020 u0642_u0637_u0639_u0647_u0645_u0627 u0020 u0639_u0646 u0020 u0627_u0644_u0625_u0636_u0627_u0641_u0629 u0020 u0643_u0642_u0648_u0644_u0647 u0020 u062a_u0639_u0627_u0644_u0649 u0020 u003a_u007b u0020 u0623_u064a_u0627_u064b u0020 u0645_u0627 u0020 u062a_u062f_u0639_u0648_u0020", 
        "u0641_u0644_u0647 u0020 u0627_u0644_u0623_u0633_u0645_u0627_u0621 u0020 u0627_u0644_u062d_u0633_u0646_u0649_u007d u0020 u0634_u0631_u0637_u0627_u064b u0020 u007b_u0623_u064a_u0645_u0627 u0020 u0627_u0644_u0623_u062c_u0644_u064a_u0646 u0020 u0642_u0636_u064a_u062a u0020 u0641_u0644_u0627 u0020 u0639_u062f_u0648_u0627_u0646_u0020", 
        "u0639_u0644_u064a u0020 u007d u0020 u0634_u0631_u0637_u0627_u064b u0020 u007b u0020 u0623_u064a_u0643_u0645 u0020 u0632_u0627_u062f_u062a_u0647 u0020 u0647_u0630_u0647 u0020 u0625_u064a_u0645_u0627_u0646_u0627_u064b u0020 u007d u0020 u0627_u0633_u062a_u0641_u0647_u0627_u0645_u064a_u0629 u0020 u007b_u0641_u0628_u0623_u064a u0020 u062d_u062f_u064a_u062b_u000d", 
        "u0628_u0639_u062f_u0647 u0020 u064a_u0624_u0645_u0646_u0648_u0646 u0020 u007d u0020 u007b u0020 u0623_u064a_u0643_u0645 u0020 u064a_u0623_u062a_u064a_u0646_u064a u0020 u0628_u0639_u0631_u0634_u0647_u0627 u0020 u007d_u0648_u0627_u0644_u0634_u0631_u0637_u064a_u0629 u0020 u0648_u0627_u0644_u0627_u0633_u062a_u0641_u0647_u0627_u0645_u064a_u0629_u0020", 
        "u062a_u0636_u0627_u0641_u0627_u0646 u0020 u0625_u0644_u0649 u0020 u0627_u0644_u0646_u0643_u0631_u0629 u0020 u0645_u0637_u0644_u0642_u0627 u0020 u0633_u0648_u0627_u0621 u0020 u0623_u0643_u0627_u0646_u062a u0020 u0644_u0645_u062a_u0639_u062f_u062f u0020 u0623_u0648 u0020 u063a_u064a_u0631 u0020 u0645_u062a_u0639_u062f_u062f_u0020", 
        "u0648_u064a_u0643_u0648_u0646_u0627_u0646 u0020 u0628_u0645_u0639_u0646_u0649 u0020 u0643_u0644 u0020 u0648_u064a_u0634_u062a_u0631_u0637 u0020 u0641_u064a u0020 u0627_u0644_u0645_u0639_u0631_u0641_u0629 u0020 u0623_u0646 u0020 u062a_u0643_u0648_u0646 u0020 u0644_u0645_u062a_u0639_u062f_u062f u0020 u0628_u0645_u0639_u0646_u0649"
    ]
}