{
    "bounding_box": [
        [
            401, 
            21, 
            250, 
            23
        ], 
        [
            43, 
            73, 
            636, 
            26
        ], 
        [
            44, 
            106, 
            635, 
            28
        ], 
        [
            31, 
            138, 
            649, 
            26
        ], 
        [
            25, 
            172, 
            654, 
            26
        ], 
        [
            294, 
            203, 
            385, 
            26
        ]
    ], 
    "image_height": 540, 
    "image_width": 720, 
    "transcription": [
        "u0645_u0627 u0020 u0647_u0648 u0020 u0057_u0069_u006e_u0064_u006f_u0077_u0073 u0020 u004c_u0069_u0076_u0065_u0020", 
        "u0057_u0069_u006e_u0064_u006f_u0077_u0073 u0020 u004c_u0069_u0076_u0065 u0020 u0639_u0628_u0627_u0631_u0629 u0020 u0639_u0646 u0020 u0645_u062c_u0645_u0648_u0639_u0629 u0020 u0645_u0646 u0020 u0627_u0644_u062e_u062f_u0645_u0627_u062a u0020 u0627_u0644_u0645_u062c_u0627_u0646_u064a_u0629 u0020 u0627_u0644_u062a_u064a u0020 u062a_u0642_u062f_u0645_u0647_u0627_u0020", 
        "u0634_u0631_u0643_u0629 u0020 u0645_u0627_u064a_u0643_u0631_u0648_u0633_u0648_u0641_u062a u0020 u0644_u0623_u064a u0020 u0634_u062e_u0635 u0020 u064a_u0633_u062a_u0637_u064a_u0639 u0020 u0627_u0644_u0648_u0635_u0648_u0644 u0020 u0625_u0644_u0649 u0020 u0627_u0644_u0627_u0646_u062a_u0631_u0646_u062a_u002e u0020 u0648_u0641_u064a_u0645_u0627 u0020 u064a_u0644_u064a_u0020", 
        "u0645_u062b_u0627_u0644 u0020 u0639_u0644_u0649 u0020 u0627_u0644_u062e_u062f_u0645_u0627_u062a u0020 u0627_u0644_u0645_u062a_u0648_u0641_u0631_u0629 u0020 u0645_u0646 u0020 u062e_u0644_u0627_u0644 u0020 u0057_u0069_u006e_u0064_u006f_u0077_u0073 u0020 u004c_u0069_u0076_u0065 u0020 u0641_u064a u0020 u0648_u0642_u062a u0020 u0627_u0635_u062f_u0627_u0631_u0020", 
        "u0647_u0630_u0627 u0020 u0627_u0644_u062f_u0644_u064a_u0644_u002e u0020 u0648_u0643_u0645_u0627 u0020 u062a_u0631_u0649_u060c u0020 u0641_u0625_u0646 u0020 u0643_u0644 u0020 u0634_u064a_u0621 u0020 u0645_u062a_u062f_u0627_u062e_u0644 u0020 u0648_u064a_u064f_u0634_u062c_u0639 u0020 u0639_u0644_u0649 u0020 u0645_u0634_u0627_u0631_u0643_u0629 u0020 u0627_u0644_u0645_u0639_u0644_u0648_u0645_u0627_u062a_u0020", 
        "u0645_u0639 u0020 u0645_u0633_u062a_u062e_u062f_u0645_u064a u0020 u0057_u0069_u006e_u0064_u006f_u0077_u0073 u0020 u004c_u0069_u0076_u0065 u0020 u0627_u0644_u0622_u062e_u0631_u064a_u0646_u002e_u0020"
    ]
}