{
    "bounding_box": [
        [
            668, 
            510, 
            20, 
            19
        ], 
        [
            16, 
            65, 
            679, 
            28
        ], 
        [
            24, 
            100, 
            671, 
            27
        ], 
        [
            16, 
            131, 
            679, 
            29
        ], 
        [
            16, 
            166, 
            679, 
            28
        ], 
        [
            496, 
            199, 
            199, 
            26
        ], 
        [
            16, 
            267, 
            679, 
            28
        ], 
        [
            16, 
            299, 
            679, 
            29
        ], 
        [
            16, 
            332, 
            679, 
            30
        ], 
        [
            159, 
            365, 
            536, 
            30
        ], 
        [
            16, 
            400, 
            679, 
            28
        ], 
        [
            525, 
            436, 
            169, 
            27
        ], 
        [
            236, 
            3, 
            420, 
            35
        ]
    ], 
    "image_height": 540, 
    "image_width": 720, 
    "transcription": [
        "u0032_u0035", 
        "u062a_u0645_u062a u0020 u0625_u0639_u0627_u062f_u0629 u0020 u0647_u064a_u0643_u0644_u0629 u0020 u0646_u0638_u0627_u0645 u0020 u0627_u0644_u0642_u0631_u0648_u0636 u0020 u0627_u0644_u0635_u063a_u0631_u0649 u0020 u0641_u064a u0020 u062a_u0648_u0646_u0633 u0020 u0648 u0020 u0630_u0644_u0643 u0020 u0645_u0646 u0020 u062e_u0644_u0627_u0644 u0020 u0625_u0639_u062f_u0627_u062f_u0020", 
        "u0625_u0637_u0627_u0631 u0020 u062a_u0634_u0631_u064a_u0639_u064a u0020 u064a_u062a_u0644_u0627_u0626_u0645 u0020 u0645_u0639 u0020 u0622_u0641_u0627_u0642 u0020 u062a_u0637_u0648_u064a_u0631 u0020 u0647_u0630_u0647 u0020 u0627_u0644_u0622_u0644_u064a_u0629 u0020 u0648 u0020 u062c_u0639_u0644_u0647_u0627 u0020 u0645_u062a_u0644_u0627_u0626_u0645_u0629 u0020 u0645_u0639 u0020 u0020_u0627_u0644_u0639_u0627_u0644_u0645_u060c u0020 u0020", 
        "u0648 u0020 u064a_u0633_u062a_u0646_u062f u0020 u0647_u0630_u0627 u0020 u0627_u0644_u062a_u0648_u062c_u0647 u0020 u0644_u0644_u062f_u0648_u0631 u0020 u0627_u0644_u0641_u0639_u0627_u0644 u0020 u0627_u0644_u0630_u064a u0020 u062a_u0638_u0637_u0644_u0639 u0020 u0628_u0647 u0020 u0647_u0630_u0647 u0020 u0627_u0644_u0622_u0644_u064a_u0629 u0020 u0641_u064a u0020 u062a_u062d_u0642_u064a_u0642 u0020 u0627_u0644_u0639_u062f_u0627_u0644_u0629_u0020", 
        "u0627_u0644_u062a_u0646_u0645_u0648_u064a_u0629 u0020 u0648 u0020 u0627_u0644_u0627_u062c_u062a_u0645_u0627_u0639_u064a_u0629 u0020 u0645_u0646 u0020 u062e_u0644_u0627_u0644 u0020 u0627_u0644_u0645_u0633_u0627_u0639_u062f_u0629 u0020 u0639_u0644_u0649 u0020 u0625_u062f_u0645_u0627_u062c u0020 u0627_u0644_u0641_u0626_u0627_u062a u0020 u0627_u0644_u0645_u062d_u062f_u0648_u062f_u0629 u0020 u0627_u0644_u062f_u062e_u0644_u0020", 
        "u0648 u0020 u0627_u0644_u0639_u0627_u0637_u0644_u064a_u0646 u0020 u0639_u0646 u0020 u0627_u0644_u0639_u0645_u0644_u002e_u000d", 
        "u0648_u0627_u0644_u0645_u062a_u0639_u0644_u0642 u0020 u0628_u062a_u0646_u0638_u064a_u0645 u0020 u0646_u0634_u0627_u0637 u0020 u0645_u0624_u0633_u0633_u0627_u062a u0020 u0627_u0644_u062a_u0645_u0648_u064a_u0644 u0020 u0627_u0644_u0635_u063a_u064a_u0631 u0020 u0648 u0020 u0627_u0644_u0630_u064a u0020 u064a_u0647_u062f_u0641 u0020 u0625_u0644_u0649 u0020 u062a_u0648_u0633_u064a_u0639_u0020", 
        "u0627_u0644_u0634_u0643_u0644 u0020 u0627_u0644_u0642_u0627_u0646_u0648_u0646_u064a u0020 u0644_u0644_u0645_u062a_u062f_u062e_u0644_u064a_u0646 u0020 u0641_u064a u0020 u0627_u0644_u0642_u0637_u0627_u0639 u0020 u0628_u0625_u0636_u0627_u0641_u0629 u0020 u0625_u0645_u0643_u0627_u0646_u064a_u0629 u0020 u062a_u0639_u0627_u0637_u064a u0020 u0627_u0644_u062a_u0645_u0648_u064a_u0644 u0020 u0627_u0644_u0635_u063a_u064a_u0631_u0020", 
        "u0645_u0646 u0020 u0642_u0628_u0644 u0020 u0634_u0631_u0643_u0627_u062a u0020 u062e_u0641_u064a_u0629 u0020 u0627_u0644_u0627_u0633_u0645 u0020 u064a_u062a_u0645 u0020 u0625_u062d_u062f_u0627_u062b_u0647_u0627 u0020 u0644_u0644_u063a_u0631_u0636 u0020 u0623_u0648 u0020 u0628_u062a_u0641_u0631_u064a_u0639 u0020 u0646_u0634_u0627_u0637 u0020 u0645_u0624_u0633_u0633_u0629_u0020", 
        "u062a_u0645_u0648_u064a_u0644 u0020 u0635_u063a_u064a_u0631 u0020 u0623_u0648 u0020 u062f_u0645_u062c u0020 u0623_u0648 u0020 u062e_u0644_u0642 u0020 u0627_u062a_u062d_u0627_u062f u0020 u0645_u0643_u0648_u0646 u0020 u0641_u064a u0020 u0634_u0643_u0644 u0020 u062c_u0645_u0639_u064a_u0627_u062a_u064a_u002e_u000d", 
        "u0648 u0020 u0648_u0641_u0642_u0627 u0020 u0644_u0647_u0630_u0627 u0020 u0627_u0644_u0645_u0631_u0633_u0648_u0645 u0020 u0635_u062f_u0631_u062a u0020 u0628_u0642_u064a_u0629 u0020 u0627_u0644_u0646_u0635_u0648_u0635 u0020 u0627_u0644_u0642_u0627_u0646_u0648_u0646_u064a_u0629 u0020 u0627_u0644_u0645_u0646_u0638_u0645_u0629 u0020 u0644_u0647_u064a_u0627_u0643_u0644 u0020 u0627_u0644_u062a_u0645_u0648_u064a_u0644_u0020", 
        "u0627_u0644_u0635_u063a_u064a_u0631 u0020 u0641_u064a u0020 u062a_u0648_u0646_u0633_u002e_u000d", 
        "u0627_u0644_u0625_u0637_u0627_u0631 u0020 u0627_u0644_u0642_u0627_u0646_u0648_u0646_u064a u0020 u0644_u0644_u062a_u0645_u0648_u064a_u0644 u0020 u0627_u0644_u0635_u063a_u064a_u0631 u0020 u0641_u064a u0020 u062a_u0648_u0646_u0633"
    ]
}