{
    "bounding_box": [
        [
            50, 
            121, 
            582, 
            23
        ], 
        [
            57, 
            145, 
            569, 
            23
        ], 
        [
            54, 
            169, 
            575, 
            23
        ], 
        [
            40, 
            193, 
            603, 
            23
        ], 
        [
            53, 
            217, 
            576, 
            23
        ], 
        [
            79, 
            241, 
            524, 
            23
        ], 
        [
            38, 
            265, 
            607, 
            23
        ], 
        [
            58, 
            289, 
            567, 
            23
        ], 
        [
            60, 
            313, 
            563, 
            23
        ], 
        [
            40, 
            337, 
            602, 
            23
        ], 
        [
            52, 
            361, 
            579, 
            23
        ], 
        [
            40, 
            385, 
            602, 
            23
        ], 
        [
            39, 
            409, 
            605, 
            23
        ], 
        [
            75, 
            433, 
            524, 
            23
        ], 
        [
            279, 
            32, 
            130, 
            29
        ]
    ], 
    "image_height": 540, 
    "image_width": 720, 
    "transcription": [
        "u064a_u062a_u0645_u062d_u0648_u0631 u0020 u0647_u0630_u0627 u0020 u0627_u0644_u0628_u062d_u062b u0020 u062d_u0648_u0644 u0020 u0627_u0644_u062e_u0637_u0627_u0628 u0020 u0627_u0644_u0633_u064a_u0627_u0633_u064a u0020 u0627_u0644_u0641_u0644_u0633_u0637_u064a_u0646_u064a u0020 u0627_u0644_u0631_u0633_u0645_u064a u0020 u062e_u0644_u0627_u0644 u0020 u0627_u0644_u0641_u062a_u0631_u0629_u0020", 
        "u0627_u0644_u062a_u064a u0020 u062a_u0634_u0643_u0644_u062a u0020 u0641_u064a_u0647_u0627 u0020 u0627_u0644_u0642_u064a_u0627_u062f_u0629 u0020 u0627_u0644_u0633_u064a_u0627_u0633_u064a_u0629 u0020 u0627_u0644_u0641_u0644_u0633_u0637_u064a_u0646_u064a_u0629 u0020 u0028_u0623_u0639_u0636_u0627_u0621 u0020 u0627_u0644_u062c_u0645_u0639_u064a_u0627_u062a u0020 u0627_u0644_u0625_u0633_u0644_u0627_u0645_u064a_u0629_u0020", 
        "u0627_u0644_u0645_u0633_u064a_u062d_u064a_u0629 u0020 u0648_u0627_u0644_u0644_u062c_u0646_u0629 u0020 u0627_u0644_u062a_u0646_u0641_u064a_u0630_u064a_u0629_u0029 u0020 u0628_u0639_u062f u0020 u0627_u0644_u0627_u062d_u062a_u0644_u0627_u0644 u0020 u0627_u0644_u0628_u0631_u064a_u0637_u0627_u0646_u064a u0020 u0644_u0641_u0644_u0633_u0637_u064a_u0646 u0020 u0633_u0646_u0629 u0020 u0031_u0039_u0031_u0038_u060c_u0020", 
        "u0648_u062d_u062a_u0649 u0020 u0628_u062f_u0627_u064a_u0629 u0020 u0627_u0644_u0634_u0644_u0644 u0020 u0627_u0644_u0633_u064a_u0627_u0633_u064a u0020 u0627_u0644_u0639_u0627_u0645 u0020 u0020_u0031_u0039_u0032_u0035_u002e u0020 u0641_u0642_u062f u0020 u062a_u0634_u0643_u0644_u062a u0020 u0647_u0630_u0647 u0020 u0627_u0644_u0642_u064a_u0627_u062f_u0629 u0020 u0628_u0634_u0643_u0644 u0020 u062a_u0644_u0642_u0627_u0626_u064a_u0020", 
        "u0645_u0646 u0020 u0627_u0644_u0645_u062a_u0646_u0641_u0630_u064a_u0646 u0020 u0627_u0642_u062a_u0635_u0627_u062f_u064a_u0627 u0020 u0648_u0627_u062c_u062a_u0645_u0627_u0639_u064a_u0627 u0020 u0645_u0646 u0020 u0623_u0639_u064a_u0627_u0646 u0020 u0627_u0644_u0645_u062f_u0646 u0020 u0627_u0644_u0641_u0644_u0633_u0637_u064a_u0646_u064a_u0629 u0020 u0645_u0646 u0020 u0627_u0644_u0645_u0633_u0644_u0645_u064a_u0646_u0020", 
        "u0648_u0627_u0644_u0645_u0633_u064a_u062d_u064a_u064a_u0646_u002c u0020 u0648_u0641_u0631_u0636_u062a u0020 u0646_u0641_u0633_u0647_u0627 u0020 u0644_u062a_u0635_u0628_u062d u0020 u0627_u0644_u0645_u062a_u062d_u062f_u062b u0020 u0627_u0644_u0631_u0633_u0645_u064a u0020 u0628_u0627_u0633_u0645 u0020 u0627_u0644_u0634_u0639_u0628_u0020", 
        "u0627_u0644_u0641_u0644_u0633_u0637_u064a_u0646_u064a_u002e u0020 u0648_u0643_u0627_u0646 u0020 u062e_u0637_u0627_u0628_u0647_u0627 u0020 u0627_u0644_u0633_u064a_u0627_u0633_u064a u0020 u0645_u0647_u0627_u062f_u0646_u0627 u0020 u0648_u0645_u062a_u0633_u0627_u0647_u0644_u0627_u060c u0020 u0628_u0644 u0020 u0648_u0645_u0631_u0627_u0647_u0646_u0627 u0020 u0639_u0644_u0649 u0020 u0627_u0644_u0645_u0648_u0642_u0641_u0020", 
        "u0627_u0644_u0628_u0631_u064a_u0637_u0627_u0646_u064a u0020 u0627_u0644_u0630_u064a u0020 u0623_u0645_u0644_u0648_u0627 u0020 u0645_u0646_u0647 u0020 u062a_u062d_u0642_u064a_u0642 u0020 u0623_u0645_u0627_u0646_u064a u0020 u0627_u0644_u0634_u0639_u0628 u0020 u0627_u0644_u0641_u0644_u0633_u0637_u064a_u0646_u064a u0020 u0641_u064a u0020 u0625_u0641_u0634_u0627_u0644 u0020 u0625_u0642_u0627_u0645_u0629_u0020", 
        "u0648_u0637_u0646 u0020 u0644_u0644_u064a_u0647_u0648_u062f u0020 u0641_u064a u0020 u0641_u0644_u0633_u0637_u064a_u0646_u060c u0020 u0648_u062a_u062d_u0642_u064a_u0642 u0020 u0627_u0644_u0627_u0633_u062a_u0642_u0644_u0627_u0644 u0020 u0627_u0644_u0641_u0644_u0633_u0637_u064a_u0646_u064a u0020 u0636_u0645_u0646 u0020 u0627_u0644_u0648_u062d_u062f_u0629 u0020 u0645_u0639_u0020", 
        "u0633_u0648_u0631_u064a_u0627_u060c u0020 u0623_u0648 u0020 u062a_u062d_u0642_u064a_u0642 u0020 u0627_u0644_u0627_u0633_u062a_u0642_u0644_u0627_u0644 u0020 u0627_u0644_u0645_u0646_u0641_u0631_u062f_u002e u0020 u0648_u0641_u064a u0020 u0646_u0641_u0633 u0020 u0627_u0644_u0648_u0642_u062a u0020 u0643_u0627_u0646_u062a u0020 u0627_u0644_u0642_u064a_u0627_u062f_u0629 u0020 u062a_u0642_u0641 u0020 u0645_u0648_u0642_u0641_u0627_u0020", 
        "u0645_u0639_u0627_u062f_u064a_u0627 u0020 u0644_u0644_u062d_u0631_u0643_u0629 u0020 u0627_u0644_u0635_u0647_u064a_u0648_u0646_u064a_u0629_u060c u0020 u0648_u0628_u062f_u0648_u0646 u0020 u0625_u062f_u0631_u0627_u0643 u0020 u0644_u0637_u0628_u064a_u0639_u0629 u0020 u0627_u0644_u062a_u062d_u0627_u0644_u0641 u0020 u0627_u0644_u0627_u0633_u062a_u0631_u0627_u062a_u064a_u062c_u064a u0020 u0628_u064a_u0646_u0020", 
        "u0628_u0631_u064a_u0637_u0627_u0646_u064a_u0629 u0020 u0648_u0627_u0644_u062d_u0631_u0643_u0629 u0020 u0627_u0644_u0635_u0647_u064a_u0648_u0646_u064a_u0629_u002e u0020 u0641_u0647_u0630_u0627 u0020 u0627_u0644_u062e_u0637_u0627_u0628 u0020 u0627_u0644_u0633_u064a_u0627_u0633_u064a u0020 u0627_u0644_u0641_u0644_u0633_u0637_u064a_u0646_u064a u0020 u0627_u0644_u0631_u0633_u0645_u064a u0020 u0643_u0627_u0646_u0020", 
        "u064a_u062a_u0639_u0627_u0631_u0636 u0020 u0645_u0639 u0020 u0627_u0644_u062e_u0637_u0627_u0628 u0020 u0627_u0644_u062c_u0645_u0627_u0647_u064a_u0631_u064a u0020 u0644_u0644_u0634_u0639_u0628 u0020 u0627_u0644_u0641_u0644_u0633_u0637_u064a_u0646_u064a u0020 u0627_u0644_u0630_u064a u0020 u0643_u0627_u0646 u0020 u0645_u0639_u0627_u062f_u064a_u0627 u0020 u0644_u0644_u0627_u0646_u062c_u0644_u064a_u0632_u0020", 
        "u0648_u0627_u0644_u0635_u0647_u0627_u064a_u0646_u0629 u0020 u0645_u0639_u0627 u0020 u0648_u0623_u062b_u0631 u0020 u0628_u0627_u0644_u062a_u0627_u0644_u064a u0020 u0639_u0644_u0649 u0020 u0641_u0639_u0627_u0644_u064a_u0647 u0020 u0627_u0644_u0639_u0645_u0644 u0020 u0627_u0644_u0648_u0637_u0646_u064a u0020 u0627_u0644_u0641_u0644_u0633_u0637_u064a_u0646_u064a u0020 u002e u0020 u000d", 
        "u0627_u0644_u0645_u0644_u062e_u0635 u0020 u0020_u000b"
    ]
}