{
    "bounding_box": [
        [
            24, 
            111, 
            622, 
            32
        ], 
        [
            73, 
            152, 
            573, 
            28
        ], 
        [
            78, 
            190, 
            568, 
            30
        ], 
        [
            100, 
            226, 
            546, 
            32
        ], 
        [
            34, 
            267, 
            611, 
            30
        ], 
        [
            45, 
            301, 
            601, 
            34
        ], 
        [
            22, 
            341, 
            624, 
            31
        ], 
        [
            38, 
            377, 
            608, 
            34
        ], 
        [
            216, 
            414, 
            430, 
            33
        ]
    ], 
    "image_height": 540, 
    "image_width": 720, 
    "transcription": [
        "u0644_u0642_u062f u0020 u0631_u0639_u0649 u0020 u0631_u0633_u0648_u0644 u0020 u0627_u0644_u0644_u0647 u0020 u0627_u0644_u0625_u0628_u0644 u0020 u060c u0020 u0648_u0634_u0627_u0631_u0643 u0020 u0641_u064a u0020 u0628_u0646_u0627_u0621 u0020 u0627_u0644_u062e_u0646_u062f_u0642 u0020 u064a_u062f_u0627 u0020 u0628_u064a_u062f u0020 u0645_u0639_u0020", 
        "u0633_u0627_u0626_u0631 u0020 u0627_u0644_u0645_u0633_u0644_u0645_u064a_u0646 u0020 u060c u0020 u0648_u0643_u0627_u0646 u0020 u064a_u062e_u064a_u0637 u0020 u062b_u064a_u0627_u0628_u0647 u0020 u0648_u064a_u0631_u0642_u0639_u0647_u0627 u0020 u0648_u064a_u063a_u0633_u0644_u0647_u0627 u0020 u0628_u064a_u062f_u064a_u0647_u0020", 
        "u0627_u0644_u0637_u0627_u0647_u0631_u062a_u064a_u0646 u0020 u0627_u0644_u0643_u0631_u064a_u0645_u062a_u064a_u0646 u0020 u060c u0020 u0648_u0643_u0627_u0646 u0020 u064a_u0637_u0628_u062e u0020 u0648_u064a_u0643_u0646_u0633 u0020 u0628_u064a_u0648_u062a u0020 u0627_u0644_u0639_u062c_u0632_u0629_u0020", 
        "u0648_u0643_u0628_u0627_u0631 u0020 u0627_u0644_u0633_u0646 u0020 u0648_u064a_u0637_u0647_u0648 u0020 u0644_u0647_u0645 u0020 u0627_u0644_u0637_u0639_u0627_u0645 u0020 u060c u0020 u0648_u0643_u0627_u0646 u0020 u0643_u0641_u0631_u062f u0020 u0639_u0627_u062f_u064a u0020 u0645_u0646_u0020", 
        "u0627_u0644_u0645_u0633_u0644_u0645_u064a_u0646 u0020 u0641_u064a u0020 u0637_u0644_u0628 u0020 u0627_u0644_u0631_u0632_u0642 u0020 u0648_u0627_u0633_u062a_u062e_u062f_u0627_u0645 u0020 u064a_u062f_u064a_u0647 u0020 u0641_u064a u0020 u0627_u0644_u0639_u0645_u0644 u0020 u060c u0020 u0648_u0643_u0645 u0020 u0645_u0646_u0020", 
        "u0627_u0644_u0645_u0648_u0627_u0642_u0641 u0020 u0648_u0627_u0644_u0623_u062d_u0627_u062f_u064a_u062b u0020 u0627_u0644_u062a_u064a u0020 u0648_u0631_u062f_u062a u0020 u0639_u0646_u0647 u0020 u0635_u0644_u0649 u0020 u0627_u0644_u0644_u0647 u0020 u0639_u0644_u064a_u0647 u0020 u0648_u0622_u0644_u0647 u0020 u0648_u0633_u0644_u0645 u0020 u062a_u0628_u0627_u0631_u0643 u0020 u0627_u0644_u0639_u0645_u0644 u0020 u0648_u062a_u062b_u0646_u064a_u0020", 
        "u0639_u0644_u0649 u0020 u0643_u0644 u0020 u0639_u0627_u0645_u0644 u0020 u064a_u0623_u0643_u0644 u0020 u0645_u0646 u0020 u0639_u0631_u0642 u0020 u062c_u0628_u064a_u0646_u0647_u00a0_u003a u0020 u0642_u0627_u0644 u0020 u0631_u0633_u0648_u0644 u0020 u0627_u0644_u0644_u0647 u0020 u0635_u0644_u0649 u0020 u0627_u0644_u0644_u0647_u0020", 
        "u0639_u0644_u064a_u0647 u0020 u0648 u0020 u0622_u0644_u0647 u0020 u0648 u0020 u0633_u0644_u0645_u00a0_u003a u0020 u0022 u0020 u0645_u0627 u0020 u0623_u0643_u0644 u0020 u0627_u0644_u0639_u0628_u062f u0020 u0637_u0639_u0627_u0645_u0627_u064b u0020 u0623_u062d_u0628 u0020 u0625_u0644_u0649 u0020 u0627_u0644_u0644_u0647 u0020 u0645_u0646 u0020 u0643_u062f_u0650_u0651_u0020", 
        "u064a_u064e_u062f_u0650_u0647_u0650 u0020 u0648_u0645_u0646 u0020 u0628_u0627_u062a u0020 u0643_u0627_u0644_u0627_u064b u0020 u0645_u0646 u0020 u0639_u0645_u0644_u0647 u0020 u0628_u0627_u062a u0020 u0645_u063a_u0641_u0648_u0631_u0627_u064b u0020 u0644_u0647_u0020"
    ]
}