{
    "bounding_box": [
        [
            526, 
            119, 
            140, 
            53
        ], 
        [
            74, 
            213, 
            612, 
            29
        ], 
        [
            407, 
            245, 
            287, 
            26
        ], 
        [
            71, 
            281, 
            614, 
            30
        ], 
        [
            604, 
            314, 
            89, 
            27
        ], 
        [
            60, 
            350, 
            626, 
            29
        ], 
        [
            195, 
            381, 
            498, 
            28
        ], 
        [
            679, 
            420, 
            14, 
            4
        ]
    ], 
    "image_height": 540, 
    "image_width": 720, 
    "transcription": [
        "u0627_u0644_u0645_u0631_u0627_u062c_u0639", 
        "u002d u0020 u0627_u0644_u0627_u062a_u062d_u0627_u062f u0020 u0627_u0644_u062f_u0648_u0644_u064a u0020 u0644_u0644_u0627_u062a_u0635_u0627_u0644_u0627_u062a_u003a u0020 u062f_u0644_u064a_u0644 u0020 u0020_u0642_u064a_u0627_u0633 u0020 u0646_u0641_u0627_u0630 u0020 u0627_u0644_u0623_u0633_u0631 u0020 u0648_u0627_u0644_u0623_u0641_u0631_u0627_u062f u0020 u0625_u0644_u0649 u0020 u062a_u0643_u0646_u0648_u0644_u0648_u062c_u064a_u0627_u0020", 
        "u0627_u0644_u0645_u0639_u0644_u0648_u0645_u0627_u062a u0020 u0648_u0627_u0644_u0627_u062a_u0635_u0627_u0644_u0627_u062a u0020 u0648_u0627_u0633_u062a_u0639_u0645_u0627_u0644_u0647_u0627_u000d", 
        "u002d u0020 u0645_u0624_u062a_u0645_u0631 u0020 u0627_u0644_u0623_u0645_u0645 u0020 u0627_u0644_u0645_u062a_u062d_u062f_u0629 u0020 u0644_u0644_u062a_u062c_u0627_u0631_u0629 u0020 u0648_u0627_u0644_u062a_u0646_u0645_u064a_u0629 u0020 u003a u0020 u062f_u0644_u064a_u0644 u0020 u0625_u0646_u062a_u0627_u062c u0020 u0625_u062d_u0635_u0627_u0626_u064a_u0627_u062a u0020 u062d_u0648_u0644 u0020 u0645_u062c_u062a_u0645_u0639_u0020", 
        "u0627_u0644_u0645_u0639_u0644_u0648_u0645_u0627_u062a_u000d", 
        "u002d u0020 u0627_u0644_u0634_u0631_u0627_u0643_u0629 u0020 u0627_u0644_u0645_u0639_u0646_u064a_u0629 u0020 u0628_u0642_u064a_u0627_u0633 u0020 u062a_u0643_u0646_u0648_u0644_u0648_u062c_u064a_u0627 u0020 u0627_u0644_u0645_u0639_u0644_u0648_u0645_u0627_u062a u0020 u0648_u0627_u0644_u0627_u062a_u0635_u0627_u0644_u0627_u062a u0020 u0644_u0623_u063a_u0631_u0627_u0636 u0020 u0627_u0644_u062a_u0646_u0645_u064a_u0629_u003a_u0020", 
        "u0627_u0644_u0642_u0627_u0626_u0645_u0629 u0020 u0627_u0644_u0623_u0633_u0627_u0633_u064a_u0629 u0020 u0628_u0645_u0624_u0634_u0631_u0627_u062a u0020 u062a_u0643_u0646_u0648_u0644_u0648_u062c_u064a_u0627 u0020 u0627_u0644_u0645_u0639_u0644_u0648_u0645_u0627_u062a u0020 u0648_u0627_u0644_u0627_u062a_u0635_u0627_u0644_u0627_u062a_u000d", 
        "u0020_u000d"
    ]
}