{
    "bounding_box": [
        [
            43, 
            17, 
            623, 
            39
        ], 
        [
            70, 
            58, 
            567, 
            42
        ], 
        [
            296, 
            111, 
            127, 
            34
        ], 
        [
            34, 
            157, 
            642, 
            33
        ], 
        [
            224, 
            191, 
            452, 
            30
        ], 
        [
            34, 
            237, 
            642, 
            30
        ], 
        [
            34, 
            268, 
            642, 
            33
        ], 
        [
            34, 
            302, 
            642, 
            33
        ], 
        [
            334, 
            337, 
            342, 
            33
        ], 
        [
            34, 
            378, 
            642, 
            32
        ], 
        [
            567, 
            415, 
            109, 
            28
        ], 
        [
            34, 
            455, 
            642, 
            34
        ], 
        [
            34, 
            493, 
            642, 
            31
        ], 
        [
            225, 
            525, 
            450, 
            33
        ]
    ], 
    "image_height": 540, 
    "image_width": 720, 
    "transcription": [
        "u062a_u0627_u0628_u0639 u0020 u0627_u0644_u0642_u0648_u0627_u0639_u062f u0020 u0648_u0627_u0644_u0623_u0633_u0633 u0020 u0627_u0644_u062a_u064a u0020 u064a_u062c_u0628 u0020 u062a_u0648_u0627_u0641_u0631_u0647_u0627 u0020 u0641_u064a u0020 u0645_u0645_u0627_u0631_u0633_u0020", 
        "u0627_u0644_u0639_u0644_u0627_u0642_u0627_u062a u0020 u0627_u0644_u0639_u0627_u0645_u0629 u0020 u062d_u064a_u0646 u0020 u062a_u0639_u0627_u0645_u0644_u0647_u0645 u0020 u0645_u0639 u0020 u0648_u0633_u0627_u0626_u0644 u0020 u0627_u0644_u0627_u062a_u0635_u0627_u0644_u0020", 
        "u0627_u0644_u062c_u0645_u0627_u0647_u064a_u0631_u064a", 
        "u0037_u002e_u0627_u0644_u0625_u062c_u0627_u0628_u0629 u0020 u0639_u0646 u0020 u0623_u0633_u0626_u0644_u0629 u0020 u0627_u0644_u0625_u0639_u0644_u0627_u0645_u064a_u064a_u0646 u0020 u0628_u0633_u0631_u0639_u0629 u0020 u0645_u0646 u0020 u0642_u0628_u0644 u0020 u0645_u0645_u0627_u0631_u0633_u0020", 
        "u0627_u0644_u0639_u0644_u0627_u0642_u0627_u062a u0020 u0627_u0644_u0639_u0627_u0645_u0629 u0020 u0625_u0646 u0020 u0643_u0627_u0646_u0648_u0627 u0020 u0644_u0627 u0020 u064a_u0639_u0631_u0641_u0648_u0646 u0020 u0627_u0644_u0623_u062c_u0648_u0628_u0629_u002e_u000d", 
        "u0038_u002e_u064a_u062c_u0628 u0020 u0639_u0644_u0649 u0020 u0645_u0645_u0627_u0631_u0633 u0020 u0627_u0644_u0639_u0644_u0627_u0642_u0627_u062a u0020 u0627_u0644_u0639_u0627_u0645_u0629 u0020 u0639_u062f_u0645 u0020 u0625_u062c_u0627_u0628_u0629 u0020 u0627_u0644_u0625_u0639_u0644_u0627_u0645_u064a_u064a_u0646_u0020", 
        "u0639_u0644_u0649 u0020 u0623_u0633_u0626_u0644_u062a_u0647_u0645 u0020 u0628_u0627_u0644_u0642_u0648_u0644 u0020 u0028_u0644_u0627 u0020 u0625_u062c_u0627_u0628_u0629_u0029 u0020 u0623_u0648_u0028 u0020 u0628_u062f_u0648_u0646 u0020 u062a_u0639_u0644_u064a_u0642_u0029 u0020 u0623_u0648 u0020 u0627_u0644_u0625_u062c_u0627_u0628_u0629_u0020", 
        "u0627_u0644_u0645_u063a_u0644_u0642_u0629 u0020 u0028 u0020 u0646_u0639_u0645 u0020 u0623_u0648 u0020 u0644_u0627_u0029_u0625_u0630 u0020 u064a_u062c_u0628 u0020 u0623_u0646 u0020 u062a_u0643_u0648_u0646 u0020 u0647_u0646_u0627_u0643 u0020 u0625_u062c_u0627_u0628_u0629 u0020 u0648_u0627_u0636_u062d_u0629 u0020 u0634_u0627_u0645_u0644_u0629_u0020", 
        "u0623_u0648 u0020 u064a_u0639_u062f_u0647_u0645 u0020 u0628_u0627_u0644_u0625_u062c_u0627_u0628_u0629 u0020 u0641_u064a u0020 u0623_u0642_u0631_u0628 u0020 u0648_u0642_u062a_u002e_u000d", 
        "u0039_u002e_u062a_u0632_u0648_u064a_u062f u0020 u0627_u0644_u0625_u0639_u0644_u0627_u0645_u064a_u064a_u0646 u0020 u0628_u0627_u0644_u0635_u0648_u0631 u0020 u0627_u0644_u0645_u0646_u0627_u0633_u0628_u0629 u0020 u0644_u0623_u062e_u0628_u0627_u0631 u0020 u0627_u0644_u0645_u0624_u0633_u0633_u0629_u0020", 
        "u0648_u0623_u0646_u0634_u0637_u062a_u0647_u0627_u002e_u000d", 
        "u0645_u0646 u0020 u062e_u0644_u0627_u0644 u0020 u0645_u0627 u0020 u0633_u0628_u0642 u0020 u0646_u062e_u0644_u0635 u0020 u0625_u0644_u0649 u0020 u0623_u0646 u0020 u0645_u0645_u0627_u0631_u0633 u0020 u0627_u0644_u0639_u0644_u0627_u0642_u0627_u062a u0020 u0627_u0644_u0639_u0627_u0645_u0629 u0020 u064a_u0633_u064a_u0631_u0020", 
        "u0648_u0641_u0642 u0020 u0636_u0648_u0627_u0628_u0637 u0020 u0648_u0642_u0648_u0627_u0646_u064a_u064a_u0646 u0020 u064a_u062c_u0628 u0020 u0623_u0644_u0627 u0020 u064a_u063a_u0641_u0644_u0647_u0627 u0020 u0648_u0643_u0630_u0644_u0643 u0020 u0639_u0646_u062f u0020 u0643_u062a_u0627_u0628_u0629 u0020 u0627_u0644_u0623_u062e_u0628_u0627_u0631_u0020", 
        "u0647_u0646_u0627_u0643 u0020 u0623_u0645_u0648_u0631 u0020 u064a_u062c_u0628 u0020 u0627_u0644_u0623_u062e_u0630 u0020 u0628_u0647_u0627 u0020 u0648_u0647_u064a u0020 u062d_u0633_u0628 u0020 u0627_u0644_u0622_u062a_u064a_u003a"
    ]
}