{
    "bounding_box": [
        [
            310, 
            44, 
            117, 
            37
        ], 
        [
            76, 
            125, 
            573, 
            27
        ], 
        [
            105, 
            155, 
            544, 
            28
        ], 
        [
            68, 
            194, 
            581, 
            25
        ], 
        [
            590, 
            230, 
            59, 
            22
        ], 
        [
            108, 
            261, 
            542, 
            28
        ], 
        [
            82, 
            292, 
            568, 
            28
        ], 
        [
            75, 
            325, 
            574, 
            26
        ], 
        [
            277, 
            357, 
            373, 
            24
        ]
    ], 
    "image_height": 540, 
    "image_width": 720, 
    "transcription": [
        "u0632_u0648_u062c_u0627_u062a_u0647_u003a", 
        "u0627_u0644_u0634_u064a_u062e_u0629 u0020 u0647_u0646_u062f u0020 u0628_u0646_u062a u0020 u0645_u0643_u062a_u0648_u0645 u0020 u0628_u0646 u0020 u062c_u0645_u0639_u0629 u0020 u0622_u0644 u0020 u0645_u0643_u062a_u0648_u0645 u0020 u0028_u0648_u0627_u0644_u062f_u0629 u0020 u062d_u0635_u0629 u0020 u0648_u0631_u0627_u0634_u062f u0020 u0648_u062d_u0645_u062f_u0627_u0646_u0020", 
        "u0648_u0645_u0643_u062a_u0648_u0645 u0020 u0648_u0623_u062d_u0645_u062f u0020 u0648_u0644_u0637_u064a_u0641_u0629 u0020 u0648_u0633_u0639_u064a_u062f u0020 u0648_u0645_u0631_u064a_u0645 u0020 u0648_u0634_u064a_u062e_u0629 u0020 u0648_u0641_u0637_u064a_u0645 u0020 u0648_u0633_u0644_u0627_u0645_u0629 u0020 u0648_u0634_u0645_u0629_u0029_u002e_u000d", 
        "u0627_u0644_u0623_u0645_u064a_u0631_u0629 u0020 u0647_u064a_u0627 u0020 u0628_u0646_u062a u0020 u0627_u0644_u062d_u0633_u064a_u0646 u0020 u0627_u0628_u0646_u0629 u0020 u0645_u0644_u0643 u0020 u0627_u0644_u0623_u0631_u062f_u0646 u0020 u0627_u0644_u062d_u0633_u064a_u0646 u0020 u0628_u0646 u0020 u0637_u0644_u0627_u0644 u0020 u0028_u0648_u0627_u0644_u062f_u0629 u0020 u0627_u0644_u062c_u0644_u064a_u0644_u0629_u0020", 
        "u0648_u0632_u0627_u064a_u062f_u0029_u000d", 
        "u0632_u0648_u062c_u0629 u0020 u0644_u0628_u0646_u0627_u0646_u064a_u0629 u0020 u063a_u064a_u0631 u0020 u0645_u0639_u0631_u0648_u0641_u0629 u0020 u0627_u0644_u0627_u0633_u0645_u0028_u0648_u0627_u0644_u062f_u0629_u003a_u0645_u0646_u0627_u0644 u0020 u0648_u0645_u0631_u0648_u0627_u0646 u0020 u0648_u0644_u0637_u064a_u0641_u0629 u0020 u0627_u0644_u0623_u0648_u0644_u0649_u0020", 
        "u0648_u0645_u0646_u0635_u0648_u0631 u0020 u0648_u0645_u0631_u064a_u0645 u0020 u0627_u0644_u0623_u0648_u0644_u0649_u0029 u0020 u0632_u0648_u062c_u0629 u0020 u0645_u063a_u0631_u0628_u064a_u0629 u0020 u063a_u064a_u0631 u0020 u0645_u0639_u0631_u0648_u0641_u0629 u0020 u0627_u0644_u0625_u0633_u0645_u0028_u0648_u0627_u0644_u062f_u0629_u003a_u0645_u064a_u062b_u0627_u0621_u0020", 
        "u0648_u0634_u0645_u0633_u0629 u0020 u0648_u0645_u0627_u062c_u062f_u0029 u0020 u0632_u0648_u062c_u0629 u0020 u064a_u0648_u0646_u0627_u0646_u064a_u0629 u0020 u0627_u0633_u0645_u0647_u0627 u0020 u0632_u0648_u064a u0020 u063a_u0631_u064a_u063a_u0648_u0631_u064a_u0627_u0643_u0648_u0633_u0028_u0648_u0627_u0644_u062f_u0629_u003a_u0645_u0647_u0631_u0629_u0029_u0020", 
        "u0632_u0648_u062c_u0629 u0020 u062a_u0631_u0643_u064a_u0629 u0020 u063a_u064a_u0631 u0020 u0645_u0639_u0631_u0648_u0641_u0629 u0020 u0627_u0644_u0625_u0633_u0645_u0028_u0648_u0627_u0644_u062f_u0629_u003a_u062f_u064a_u0644_u0627_u0631_u064a_u0627_u0029"
    ]
}