{
    "bounding_box": [
        [
            79, 
            46, 
            483, 
            20
        ], 
        [
            79, 
            81, 
            184, 
            20
        ], 
        [
            79, 
            115, 
            130, 
            20
        ], 
        [
            79, 
            149, 
            189, 
            20
        ], 
        [
            79, 
            186, 
            98, 
            15
        ], 
        [
            79, 
            219, 
            155, 
            20
        ], 
        [
            43, 
            255, 
            584, 
            19
        ], 
        [
            79, 
            283, 
            575, 
            19
        ], 
        [
            79, 
            311, 
            374, 
            20
        ], 
        [
            43, 
            347, 
            598, 
            19
        ], 
        [
            79, 
            375, 
            541, 
            19
        ]
    ], 
    "image_height": 540, 
    "image_width": 720, 
    "transcription": [
        "u0049_u006e u0020 u0066_u006f_u006c_u006c_u006f_u0077_u0069_u006e_u0067 u0020 u0063_u0061_u0073_u0065_u0073 u0020 u006e_u0065_u0069_u0074_u0068_u0065_u0072 u0020 u0068_u0061_u0073 u0020 u0074_u0068_u0065 u0020 u0072_u0069_u0067_u0068_u0074 u0020 u0074_u006f u0020 u0072_u0065_u0076_u006f_u006b_u0065_u003a_u000d", 
        "u0045_u0070_u0069_u006c_u0065_u0070_u0073_u0079 u0020 u0028_u0053_u0065_u0069_u007a_u0075_u0072_u0065_u0073_u0029_u000d", 
        "u0627_u063a_u0645_u0627_u0621 u0020 u0046_u0061_u0069_u006e_u0074_u0069_u006e_u0067_u000d", 
        "u0639_u0642_u06cc_u0645_u0042_u0061_u0072_u0072_u0065_u006e_u002f_u0069_u006e_u0066_u0065_u0072_u0074_u0069_u006c_u0065_u000d", 
        "u0041_u0064_u0064_u0069_u0063_u0074_u0069_u006f_u006e_u000d", 
        "u0048_u0069_u0064_u0069_u006e_u0067 u0020 u0020_u0072_u0065_u0061_u006c u0020 u0061_u0067_u0065_u000d", 
        "u0051_u003a u0020 u0020_u0049_u0066 u0020 u0061 u0020 u0067_u0069_u0072_u006c u0020 u006c_u0069_u0065_u0064 u0020 u0061_u0062_u006f_u0075_u0074 u0020 u0068_u0065_u0072 u0020 u0072_u0065_u0061_u006c u0020 u0061_u0067_u0065 u0020 u0061_u006e_u0064 u0020 u006d_u0065_u006e_u0074_u0069_u006f_u006e_u0065_u0064 u0020 u0073_u0068_u0065 u0020 u0069_u0073 u0020 u0066_u0069_u0076_u0065_u0020", 
        "u0079_u0065_u0061_u0072_u0073 u0020 u0079_u006f_u0075_u006e_u0067_u0065_u0072 u0020 u0074_u0068_u0061_u006e u0020 u0068_u0065_u0072 u0020 u0061_u0063_u0074_u0075_u0061_u006c u0020 u0061_u0067_u0065_u002c u0020 u0061_u006e_u0064 u0020 u006c_u0061_u0074_u0065_u0072 u0020 u0068_u0075_u0073_u0062_u0061_u006e_u0064 u0020 u0066_u0069_u006e_u0064_u0073_u0020", 
        "u006f_u0075_u0074_u002c u0020 u0064_u006f_u0065_u0073 u0020 u0068_u0065 u0020 u0068_u0061_u0076_u0065 u0020 u0074_u0068_u0065 u0020 u0072_u0069_u0067_u0068_u0074 u0020 u0074_u006f u0020 u0072_u0065_u0076_u006f_u006b_u0065_u003f_u000d", 
        "u0041_u003a u0020 u0020_u0049_u006e u0020 u0074_u0068_u0069_u0073 u0020 u0071_u0075_u0061_u006e_u0074_u0069_u0074_u0079_u002c u0020 u0068_u0075_u0073_u0062_u0061_u006e_u0064 u0020 u0064_u006f_u0065_u0073_u006e_u2019_u0074 u0020 u0068_u0061_u0076_u0065 u0020 u0074_u0068_u0065 u0020 u0072_u0069_u0067_u0068_u0074 u0020 u0074_u006f u0020 u0072_u0065_u0076_u006f_u006b_u0065_u002c_u0020", 
        "u0061_u006e_u0064 u0020 u0069_u0066 u0020 u0068_u0065 u0020 u0064_u0069_u0076_u006f_u0072_u0063_u0065_u0073 u0020 u0062_u0065_u0066_u006f_u0072_u0065 u0020 u0061_u006e_u0079 u0020 u0072_u0065_u006c_u0061_u0074_u0069_u006f_u006e_u0073_u0068_u0069_u0070 u0020 u0064_u006f_u0077_u0072_u0079 u0020 u0069_u0073 u0020 u0068_u0061_u006c_u0066_u002e_u000d"
    ]
}