{
    "bounding_box": [
        [
            204, 
            23, 
            382, 
            46
        ], 
        [
            65, 
            191, 
            573, 
            30
        ], 
        [
            42, 
            225, 
            596, 
            30
        ], 
        [
            50, 
            257, 
            589, 
            31
        ], 
        [
            361, 
            292, 
            277, 
            30
        ]
    ], 
    "image_height": 540, 
    "image_width": 720, 
    "transcription": [
        "u0639_u0645_u0644_u06cc_u0629 u0020 u0627_u0644_u062a_u0633_u0648_u064a_u0642 u0020 u0627_u0644_u0627_u0644_u0643_u062a_u0631_u0648_u0646_u064a_u003a", 
        "u0645_u0646 u0020 u0623_u062c_u0644 u0020 u0627_u062c_u0631_u0627_u0621 u0020 u0639_u0645_u0644_u06cc_u062a_u064a u0020 u0627_u0644_u0628_u06cc_u0639 u0020 u0648_u0627_u0644_u0634_u0631_u0627_u0621 u0020 u0641_u0625_u0646 u0020 u06be_u0646_u0627_u0643 u0020 u0639_u0645_u0644_u06cc_u0629 u0020 u0645_u0627 u0020 u064a_u062c_u0628 u0020 u0623_u0646_u0020", 
        "u062a_u062d_u062f_u062b_u002e u0020 u06be_u0630_u0647 u0020 u0627_u0644_u0639_u0645_u0644_u06cc_u0629 u0020 u0645_u0648_u0636_u062d_u0629 u0020 u0641_u064a u0020 u0627_u0644_u0631_u0633_u0645_u0629 u0020 u0641_u064a u0020 u0627_u0644_u0623_u0633_u0641_u0644_u002e u0020 u0648_u064a_u0644_u0627_u062d_u0638 u0020 u0628_u0623_u0646_u0647 u0020 u0627_u0630_u0627_u0020", 
        "u0643_u0627_u0646 u0020 u0627_u0644_u0628_u0627_u0626_u0639 u0020 u0645_u0624_u0633_u0633_u0629 u0020 u0623_u0648 u0020 u0632_u0628_u0648_u0646 u0020 u062f_u0627_u0626_u0645 u0020 u0641_u0625_u0646 u0020 u0628_u0639_u0636 u0020 u0645_u0646 u0020 u06be_u0630_u0647 u0020 u0627_u0644_u0639_u0645_u0644_u06cc_u0627_u062a u0020 u062a_u0642_u0644 u0020 u0623_u0648_u0020", 
        "u062a_u062a_u063a_u06cc_u0631_u002e u0020 u0633_u0646_u0648_u0636_u062d u0020 u0630_u0644_u0643 u0020 u0623_u0643_u062b_u0631 u0020 u0644_u0627_u062d_u0642_u0627_u002e"
    ]
}