{
    "bounding_box": [
        [
            294, 
            19, 
            418, 
            27
        ], 
        [
            39, 
            54, 
            673, 
            26
        ], 
        [
            39, 
            86, 
            673, 
            29
        ], 
        [
            445, 
            121, 
            266, 
            26
        ], 
        [
            25, 
            155, 
            687, 
            28
        ], 
        [
            175, 
            186, 
            537, 
            30
        ], 
        [
            41, 
            222, 
            671, 
            28
        ]
    ], 
    "image_height": 540, 
    "image_width": 720, 
    "transcription": [
        "u0648_u0644_u0627 u0020 u064a_u0645_u0643_u0646 u0020 u0641_u0635_u0644 u0020 u0627_u0644_u0639_u0642_u064a_u062f_u0629 u0020 u0639_u0646 u0020 u0627_u0644_u062d_u064a_u0627_u0629 u0020 u0627_u0644_u0631_u0648_u062d_u064a_u0629 u0020 u002e_u002e_u002e u0020 u000b", 
        "u0641_u0627_u0644_u0639_u0642_u064a_u062f_u0629 u0020 u0645_u0647_u0645_u0629 u0020 u0628_u0647_u0627 u0020 u0646_u062e_u0644_u0635 u0020 u0627_u0648 u0020 u0646_u0647_u0644_u0643 u0020 u060c u0020 u0644_u0630_u0644_u0643 u0020 u0627_u0628_u0627_u0624_u0646_u0627 u0020 u062c_u0627_u0647_u062f_u0648_u0627 u0020 u0648_u0648_u0627_u062c_u0647_u0648_u0627 u0020 u0635_u0639_u0648_u0628_u0627_u062a u0020 u000d", 
        "u0645_u0646 u0020 u0627_u062c_u0644 u0020 u062b_u0628_u0627_u062a_u0647_u0645 u0020 u0639_u0644_u0649 u0020 u0627_u0644_u0639_u0642_u064a_u062c_u0629 u0020 u060c u0020 u0648_u0639_u0642_u062f u0020 u0639_u062f_u0629 u0020 u0645_u062c_u0627_u0645_u0639 u0020 u0645_u0646 u0020 u0627_u062c_u0644 u0020 u0627_u0644_u0639_u0642_u064a_u062f_u0629 u0020 u0645_u062b_u0644 u0020 u0645_u062c_u0645_u0639_u000d", 
        "u0646_u064a_u0642_u064a_u0629 u0020 u0648_u0627_u0644_u0642_u0633_u0637_u0646_u0637_u064a_u0646_u064a_u0629 u0020 u0648_u0627_u0641_u0633_u0633 u0020 u000b", 
        "u0648_u0644_u0645 u0020 u064a_u0639_u0642_u062f u0020 u0627_u062c_u062a_u0645_u0627_u0639 u0020 u0645_u0633_u0643_u0648_u0646_u0649 u0020 u0648_u0627_u062d_u062f u0020 u0628_u0633_u0628_u0628 u0020 u0627_u0644_u0641_u0636_u0627_u0626_u0644 u0020 u0645_u062b_u0644_u0627 u0020 u0628_u0644 u0020 u062a_u0631_u0643_u062a u0020 u0644_u0643_u0644 u0020 u0648_u0627_u062d_u062f u0020 u062d_u0631_u064a_u0629_u000b", 
        "u0627_u0644_u0637_u0631_u064a_u0642_u0629 u0020 u0641_u0649 u0020 u062a_u0637_u0628_u064a_u0642 u0020 u0627_u0644_u0641_u0636_u064a_u0644_u0629 u0020 u0648_u0628_u062d_u0633_u0628 u0020 u0627_u0631_u0634_u0627_u062f_u0627_u062a u0020 u0627_u0628 u0020 u0627_u0644_u0627_u0639_u062a_u0631_u0627_u0641 u0020 u000b", 
        "u0641_u0645_u062c_u0645_u0639 u0020 u0646_u064a_u0642_u064a_u0629 u0020 u0639_u0642_u062f u0020 u0628_u0633_u0628_u0628 u0020 u0628_u062f_u0639_u0629 u0020 u0627_u0631_u064a_u0648_u0633 u0020 u0627_u0644_u062a_u0649 u0020 u062a_u0642_u0644_u0644 u0020 u0645_u0646 u0020 u0644_u0627_u0647_u0648_u062a u0020 u0627_u0644_u0633_u064a_u062f u0020 u0627_u0644_u0645_u0633_u064a_u062d u0020 u0020_u000b"
    ]
}