{
    "bounding_box": [
        [
            294, 
            26, 
            143, 
            40
        ], 
        [
            84, 
            163, 
            563, 
            29
        ], 
        [
            577, 
            209, 
            70, 
            18
        ], 
        [
            90, 
            284, 
            557, 
            37
        ], 
        [
            62, 
            328, 
            585, 
            32
        ], 
        [
            135, 
            364, 
            512, 
            34
        ], 
        [
            475, 
            520, 
            47, 
            9
        ], 
        [
            692, 
            509, 
            10, 
            18
        ], 
        [
            692, 
            509, 
            10, 
            18
        ]
    ], 
    "image_height": 540, 
    "image_width": 720, 
    "transcription": [
        "u0627_u0631_u0632_u0634_u064a_u0627_u0628_u064a_u000b", 
        "u0627_u0631_u0632_u0634_u06cc_u0627_u0628_u06cc_u060c u0020 u0645_u064a_u0632_u0627_u0646 u0020 u062f_u0633_u062a_u064a_u0627_u0628_u06cc u0020 u0628_u0647 u0020 u0627_u0647_u062f_u0627_u0641 u0020 u0631_u0627 u0020 u0646_u0634_u0627_u0646 u0020 u0645_u06cc_u0020", 
        "u062f_u0647_u062f_u002e u0020 u000d", 
        "u0646_u062a_u06cc_u062c_u0647 u0020 u0627_u0631_u0632_u0634_u06cc_u0627_u0628_u06cc u0020 u0646_u0645_u0627_u06cc_u0627_u0646_u06af_u0631 u0020 u0645_u0648_u0641_u0642_u06cc_u062a u0020 u06cc_u0627 u0020 u0639_u062f_u0645 u0020 u0645_u0648_u0641_u0642_u06cc_u062a_u0020", 
        "u0628_u0631_u0646_u0627_u0645_u0647 u0020 u0647_u0627_u06cc u0020 u0627_u0645_u0648_u0632_u0634_u06cc u0020 u0627_u0633_u062a_u002e_u0628_u0631 u0020 u0627_u0633_u0627_u0633 u0020 u0646_u062a_u0627_u06cc_u062c u0020 u0645_u06cc u0020 u062a_u0648_u0627_u0646_u0020", 
        "u0628_u0647 u0020 u0627_u0635_u0644_u0627_u062d u0020 u0648 u0020 u062a_u0642_u0648_u06cc_u062a u0020 u0628_u0631_u0646_u0627_u0645_u0647 u0020 u0627_u0645_u0648_u0632_u0634_u06cc u0020 u067e_u0631_u062f_u0627_u062e_u062a_u002e", 
        "u062f_u06a9_u062a_u0631 u0020 u0637_u0628_u0627_u0637_u0628_u0627_u06cc_u06cc", 
        "u0031_u0031_u0033", 
        "u0031_u0031_u0033"
    ]
}