{
    "bounding_box": [
        [
            28, 
            95, 
            122, 
            23
        ], 
        [
            81, 
            179, 
            243, 
            28
        ], 
        [
            36, 
            214, 
            288, 
            25
        ], 
        [
            88, 
            245, 
            237, 
            25
        ], 
        [
            86, 
            274, 
            238, 
            27
        ], 
        [
            50, 
            303, 
            274, 
            27
        ], 
        [
            259, 
            337, 
            65, 
            26
        ], 
        [
            384, 
            183, 
            270, 
            24
        ], 
        [
            372, 
            214, 
            283, 
            25
        ], 
        [
            393, 
            242, 
            261, 
            28
        ], 
        [
            575, 
            273, 
            80, 
            24
        ], 
        [
            405, 
            50, 
            270, 
            30
        ], 
        [
            570, 
            127, 
            106, 
            22
        ]
    ], 
    "image_height": 540, 
    "image_width": 720, 
    "transcription": [
        "u0020 u0020 u002d u0020 u0623_u0645_u0629 u0020 u0627_u0644_u062f_u0639_u0648_u0629 u0020 u000d", 
        "u0648_u0647_u0645 u0020 u0627_u0644_u0623_u0645_u0645 u0020 u0627_u0644_u0623_u062e_u0631_u0649 u0020 u0648_u0647_u0645 u0020 u0645_u064a_u062f_u0627_u0646_u0020", 
        "u0644_u0644_u062d_u0648_u0627_u0631 u0020 u0648_u0627_u0644_u062a_u0648_u0627_u0635_u0644 u0020 u0627_u0644_u062f_u0639_u0648_u064a u0020 u0648_u0639_u0631_u0636_u0020", 
        "u062a_u0639_u0627_u0644_u064a_u0645 u0020 u0627_u0644_u0627_u0633_u0644_u0627_u0645 u0020 u0639_u0644_u064a_u0647_u0645 u0020 u0628_u0627_u0644_u0637_u0631_u0642_u0020", 
        "u0627_u0644_u0633_u0644_u064a_u0645_u0629 u0020 u0627_u0644_u0645_u062e_u062a_u0644_u0641_u0629 u0020 u0648_u0647_u0624_u0644_u0627_u0621 u0020 u0647_u0645_u0020", 
        "u0627_u0644_u0643_u0641_u0627_u0631_u0646_u0635_u0627_u0631_u0649 u0020 u0623_u0648 u0020 u064a_u0647_u0648_u062f u0020 u0623_u0648 u0020 u0645_u062c_u0648_u0633_u0020", 
        "u0648_u063a_u064a_u0631_u0647_u0645", 
        "u0648_u0647_u0645 u0020 u0645_u0646 u0020 u0627_u0633_u062a_u062c_u0627_u0628_u0648_u0627 u0020 u0644_u062f_u0639_u0648_u0629 u0020 u0627_u0644_u0625_u0633_u0644_u0627_u0645_u0020", 
        "u0648_u0627_u0644_u062a_u0632_u0645_u0648_u0627 u0020 u0628_u062a_u0639_u0627_u0644_u064a_u0645_u0647 u0020 u060c u0020 u0648_u064a_u0645_u062b_u0644_u0648_u0646 u0020 u0627_u0644_u064a_u0648_u0645_u0020", 
        "u0627_u0644_u0639_u0627_u0644_u0645 u0020 u0627_u0644_u0625_u0633_u0644_u0627_u0645_u064a u0020 u0627_u0644_u0648_u0627_u0633_u0639 u0020 u0628_u0623_u0634_u0643_u0627_u0644_u0647_u0020", 
        "u0648_u0645_u0630_u0627_u0647_u0628_u0647_u002e_u000d", 
        "u0020_u0623_u0645_u0629 u0020 u0645_u062d_u0645_u062f u0020 u0635_u0644_u0649 u0020 u0627_u0644_u0644_u0647 u0020 u0639_u0644_u064a_u0647 u0020 u0648_u0633_u0644_u0645 u0020 u062a_u0646_u0642_u0633_u0645 u0020 u0625_u0644_u0649 u0020 u0642_u0633_u0645_u064a_u0646 u0020 u003a", 
        "u002d_u0623_u0645_u0629 u0020 u0627_u0633_u062a_u062c_u0627_u0628_u0629_u0020"
    ]
}