{
    "bounding_box": [
        [
            27, 
            18, 
            643, 
            33
        ], 
        [
            35, 
            55, 
            116, 
            33
        ], 
        [
            28, 
            110, 
            667, 
            24
        ], 
        [
            469, 
            142, 
            232, 
            24
        ], 
        [
            545, 
            179, 
            156, 
            20
        ], 
        [
            261, 
            216, 
            440, 
            25
        ], 
        [
            113, 
            253, 
            588, 
            25
        ], 
        [
            140, 
            291, 
            562, 
            25
        ], 
        [
            36, 
            329, 
            637, 
            25
        ], 
        [
            49, 
            360, 
            625, 
            25
        ], 
        [
            494, 
            391, 
            179, 
            22
        ]
    ], 
    "image_height": 540, 
    "image_width": 720, 
    "transcription": [
        "u0627_u0644_u0627_u062a_u062c_u0627_u0631 u0020 u0628_u0627_u0644_u0645_u062e_u062f_u0631_u0627_u062a u0020 u0645_u062b_u0644 u0020 u0627_u0644_u0647_u064a_u0631_u0648_u064a_u0646_u060c u0020 u0627_u0644_u062f_u0627_u062a_u0648_u0631_u0627_u060c u0020 u0627_u0644_u062d_u0634_u064a_u0634_u0629 u0020 u0648_u0627_u0644_u0627_u0641_u064a_u0648_u0646_u0020", 
        "u0639_u0627_u0645 u0020 u0032_u0030_u0030_u0039", 
        "u0031_u002d u0020 u0627_u0644_u0628_u0635_u0631_u0629 u0020 u0627_u0644_u0645_u0631_u0643_u0632 u0020 u0627_u0644_u0627_u0648_u0644 u0020 u062d_u064a_u062b u0020 u062a_u0645 u0020 u0636_u0628_u0637 u0020 u0032_u0030_u0037_u0030_u0037_u0030_u0037_u0032 u0020 u0643_u063a_u0645 u0020 u0645_u0646 u0020 u0627_u0644_u062d_u0634_u064a_u0634_u0629 u0020 u0648_u0035_u060c_u0035_u0038_u0020", 
        "u0643_u063a_u0645 u0020 u0627_u0641_u064a_u0648_u0646 u0020 u0632_u0627_u0626_u062f_u0627 u0020 u0032_u0030 u0020 u0642_u0637_u0639_u0629_u002e u0020 u000d", 
        "u0032_u002d u0020 u0627_u0644_u0646_u062c_u0641 u0020 u062b_u0627_u0646_u064a_u0627_u060c u0020 u0020 u0020 u000d", 
        "u0033_u002d u0020 u0627_u0644_u0645_u062b_u0646_u0649 u0020 u062b_u0627_u0644_u062b_u0627 u0020 u0628_u0648_u0627_u0642_u0639 u0020 u0034_u0030_u0038_u0031_u0031_u0030_u0030_u0034 u0020 u0643_u063a_u0645 u0020 u0645_u0646 u0020 u0627_u0644_u0627_u0641_u064a_u0648_u0646_u002e u0020 u000d", 
        "u0034_u002d u0020 u0633_u062c_u0644_u062a u0020 u0646_u064a_u0646_u0648_u0649 u0020 u0627_u0639_u0644_u0649 u0020 u0645_u0639_u062f_u0644 u0020 u0641_u064a u0020 u062a_u062c_u0627_u0631_u0629 u0020 u0627_u0644_u0647_u0631_u0648_u064a_u064a_u0646 u0020 u0628_u0648_u0627_u0642_u0639 u0020 u0034_u0039_u060c_u0036_u0037_u0035 u0020 u0643_u063a_u0645_u002e u0020 u000d", 
        "u0035_u002d u0020 u0648_u0627_u0646_u0641_u0631_u062f_u062a u0020 u0627_u0644_u0627_u0646_u0628_u0627_u0631 u0020 u0644_u0648_u062d_u062f_u0647_u0627 u0020 u0628_u062a_u062c_u0627_u0631_u0629 u0020 u0645_u062e_u062f_u0631_u0627_u062a u0020 u0627_u0644_u062f_u0627_u062a_u0648_u0631_u0627 u0020 u0628_u0648_u0627_u0642_u0639 u0020 u0032_u0037 u0020 u0646_u0628_u062a_u0629_u002e_u000d", 
        "u0648_u0628_u0644_u063a u0020 u0639_u062f_u062f u0020 u0627_u0644_u0645_u062a_u0647_u0645_u064a_u0646 u0020 u0628_u062a_u062c_u0627_u0631_u0629 u0020 u0627_u0644_u0645_u062e_u062f_u0631_u0627_u062a u0020 u0031_u0031_u0033 u0020 u0645_u062a_u0647_u0645_u0627 u0020 u0644_u0639_u0627_u0645 u0020 u0032_u0030_u0030_u0039 u0020 u0627_u0645_u0627 u0020 u0639_u062f_u062f u0020 u0627_u0644_u0642_u0636_u0627_u064a_u0627_u0020", 
        "u0627_u0644_u0645_u0633_u062c_u0644_u0629 u0020 u0641_u064a u0020 u0648_u0632_u0627_u0631_u0629 u0020 u0627_u0644_u062f_u0627_u062e_u0644_u064a_u0629 u0020 u0644_u0645_u062d_u0627_u0641_u0638_u0627_u062a u0020 u0627_u0644_u0639_u0631_u0627_u0642 u0020 u0627_u0644_u062c_u0646_u0648_u0628_u064a_u0629 u0020 u0627_u0644_u0648_u0633_u0637_u0649 u0020 u0648_u0627_u0644_u063a_u0631_u0628_u064a_u0629 u0020 u0641_u0642_u062f_u0020", 
        "u0642_u0627_u0631_u0628_u062a u0020 u0039_u0035 u0020 u062d_u0627_u0644_u0629 u0020 u0641_u0642_u0637_u002e_u000d"
    ]
}