{
    "bounding_box": [
        [
            163, 
            95, 
            385, 
            34
        ], 
        [
            403, 
            157, 
            249, 
            23
        ], 
        [
            359, 
            201, 
            293, 
            26
        ], 
        [
            377, 
            244, 
            274, 
            23
        ], 
        [
            446, 
            288, 
            206, 
            23
        ], 
        [
            233, 
            331, 
            418, 
            24
        ], 
        [
            438, 
            373, 
            214, 
            26
        ], 
        [
            277, 
            417, 
            375, 
            24
        ], 
        [
            539, 
            460, 
            113, 
            23
        ]
    ], 
    "image_height": 540, 
    "image_width": 720, 
    "transcription": [
        "u0633_u0644_u0648_u0643_u064a_u0627_u062a u0020 u0645_u0647_u0627_u0631_u0629 u0020 u0625_u0639_u062f_u0627_u062f u0020 u0627_u0644_u0633_u0624_u0627_u0644_u0020", 
        "u0627_u0644_u0623_u0633_u0626_u0644_u0629 u0020 u0645_u0631_u062a_u0628_u0637_u0629 u0020 u0628_u0623_u0647_u062f_u0627_u0641 u0020 u0627_u0644_u062f_u0631_u0633_u002e_u000d", 
        "u0645_u062a_u0646_u0648_u0639_u0629 u0020 u0645_u0646 u0020 u062d_u064a_u062b u0020 u0648_u0638_u0627_u0626_u0641_u0647_u0627 u0020 u0641_u064a u0020 u0627_u0644_u062f_u0631_u0633_u002e_u000d", 
        "u0645_u062a_u0646_u0648_u0639_u0629 u0020 u0645_u0646 u0020 u062d_u064a_u062b u0020 u0645_u0633_u062a_u0648_u064a_u0627_u062a u0020 u0627_u0644_u062a_u0641_u0643_u064a_u0631_u002e_u000d", 
        "u0645_u0646_u0627_u0633_u0628_u0629 u0020 u0644_u062e_u0635_u0627_u0626_u0635 u0020 u0627_u0644_u0637_u0644_u0627_u0628_u002e_u000d", 
        "u0630_u0627_u062a u0020 u0642_u064a_u0645_u0629 u0020 u0639_u0644_u0645_u064a_u0629 u0020 u0641_u062a_u0631_u0643_u0632 u0020 u0639_u0644_u0649 u0020 u0623_u0633_u0627_u0633_u064a_u0627_u062a u0020 u0627_u0644_u0645_u0627_u062f_u0629 u0020 u0627_u0644_u0648_u0638_u064a_u0641_u064a_u0629_u002e_u000d", 
        "u0645_u0631_u062a_u0628_u0629 u0020 u0628_u0634_u0643_u0644 u0020 u0645_u0646_u0637_u0642_u064a u0020 u0645_u062a_u062a_u0627_u0628_u0639_u002e_u000d", 
        "u0639_u062f_u062f_u0647_u0627 u0020 u0648_u0632_u0645_u0646 u0020 u0627_u0644_u0625_u062c_u0627_u0628_u0629 u0020 u0639_u0646_u0647_u0627 u0020 u0645_u0646_u0627_u0633_u0628 u0020 u0644_u0648_u0642_u062a u0020 u0627_u0644_u062d_u0635_u0629_u002e_u000d", 
        "u062c_u064a_u062f_u0629 u0020 u0627_u0644_u0635_u064a_u0627_u063a_u0629_u002e"
    ]
}