{
    "bounding_box": [
        [
            108, 
            118, 
            546, 
            20
        ], 
        [
            82, 
            139, 
            572, 
            20
        ], 
        [
            86, 
            160, 
            568, 
            20
        ], 
        [
            85, 
            181, 
            570, 
            20
        ], 
        [
            96, 
            203, 
            558, 
            20
        ], 
        [
            432, 
            225, 
            222, 
            19
        ], 
        [
            103, 
            245, 
            551, 
            20
        ], 
        [
            96, 
            266, 
            558, 
            20
        ], 
        [
            565, 
            287, 
            90, 
            20
        ], 
        [
            106, 
            308, 
            548, 
            20
        ], 
        [
            76, 
            330, 
            578, 
            19
        ], 
        [
            399, 
            350, 
            255, 
            20
        ], 
        [
            101, 
            372, 
            553, 
            20
        ], 
        [
            455, 
            394, 
            200, 
            19
        ], 
        [
            84, 
            414, 
            570, 
            20
        ], 
        [
            568, 
            436, 
            87, 
            19
        ]
    ], 
    "image_height": 540, 
    "image_width": 720, 
    "transcription": [
        "u062a_u0628_u0635_u0631_u0647_u003a_u200c u0020 u0642_u0637_u0627_u0631 u0020 u0645_u0633_u062a_u0642_u064a_u0645 u0020 u0642_u0637_u0627_u0631_u064a u0020 u0627_u0633_u062a u0020 u0643_u0647 u0020 u0622_u0631_u0627_u064a_u0634 u0020 u0622_u0646 u0020 u0627_u0632 u0020 u0645_u0628_u062f_u0627 u0020 u062a_u0627 u0020 u0645_u0642_u0635_u062f u0020 u062a_u063a_u064a_u064a_u0631 u0020 u0646_u0645_u064a_u200c_u0643_u0646_u062f_u002e_u000b", 
        "u2022_u00a0_u00a0 u0020 u00a0_u0645_u0627_u0646_u0648_u0631 u0020 u0642_u0637_u0627_u0631_u0647_u0627_u064a u0020 u062d_u0627_u0645_u0644 u0020 u0643_u0627_u0644_u0627_u0647_u0627_u064a u0020 u062e_u0637_u0631_u0646_u0627_u0643 u0020 u0648_u064a_u0698_u0647 u0020 u062f_u0631 u0020 u0627_u064a_u0633_u062a_u06af_u0627_u0647_u200c_u0647_u0627_u064a u0020 u0628_u064a_u0646 u0020 u0631_u0627_u0647_u064a u0020 u0628_u0647 u0020 u062c_u0632_u0020", 
        "u0645_u0648_u0627_u0631_u062f u0020 u062a_u0639_u0645_u064a_u0631_u064a u0020 u0648 u0020 u064a_u0627 u0020 u062e_u0631_u0627_u0628_u064a u0020 u0644_u0648_u0643_u0648_u0645_u0627_u062a_u064a_u0648 u0020 u0648 u0020 u064a_u0627 u0020 u0648_u0627_u06af_u0646 u0020 u0645_u0645_u0646_u0648_u0639 u0020 u0628_u0648_u062f_u0647 u0020 u0648 u0020 u062f_u0631 u0020 u0635_u0648_u0631_u062a u0020 u062a_u0639_u0645_u064a_u0631_u064a_u0020", 
        "u0634_u062f_u0646 u0020 u0622_u0646_u0647_u0627 u0020 u0628_u0627_u064a_u0633_u062a_u064a u0020 u0645_u0631_u0627_u062a_u0628 u0020 u0631_u0627 u0020 u0637_u064a u0020 u062a_u0644_u0641_u0646_u06af_u0631_u0627_u0645 u0020 u0628_u0647 u0020 u0627_u0637_u0644_u0627_u0639 u0020 u0643_u0646_u062a_u0631_u0644 u0020 u0627_u062f_u0627_u0631_u0647 u0020 u0643_u0644 u0020 u0645_u0631_u0628_u0648_u0637_u0647 u0020 u0631_u0633_u0627_u0646_u062f_u0647_u0020", 
        "u0648 u0020 u0643_u0646_u062a_u0631_u0644 u0020 u0627_u062f_u0627_u0631_u0647 u0020 u0643_u0644 u0020 u0645_u0631_u0628_u0648_u0637_u0647 u0020 u067e_u0633 u0020 u0627_u0632 u0020 u0643_u0633_u0628 u0020 u062a_u0643_u0644_u064a_u0641 u0020 u0627_u0632 u0020 u0645_u0639_u0627_u0648_u0646_u062a u0020 u0641_u0646_u064a u0020 u0627_u062f_u0627_u0631_u0647 u0020 u0643_u0644 u0020 u0645_u0631_u0628_u0648_u0637_u0647_u0020", 
        "u062f_u0633_u062a_u0648_u0631_u0627_u062a u0020 u0644_u0627_u0632_u0645 u0020 u0631_u0627 u0020 u0635_u0627_u062f_u0631 u0020 u0646_u0645_u0627_u064a_u062f_u002e u0020 u000b", 
        "u062a_u0628_u0635_u0631_u0647_u003a_u200c u0020 u062a_u0639_u0645_u064a_u0631 u0020 u0648_u0627_u06af_u0646_u0647_u0627_u064a u0020 u062d_u0627_u0645_u0644 u0020 u0643_u0627_u0644_u0627_u0647_u0627_u064a u0020 u062e_u0637_u0631_u0646_u0627_u0643 u0020 u0648_u064a_u0698_u0647 u0020 u0628_u0647 u0020 u0645_u0631_u0627_u0642_u0628_u062a u0020 u0648 u0020 u0627_u0648_u0644_u0648_u064a_u062a u0020 u0645_u0648_u0643_u062f_u0020", 
        "u0627_u0646_u062c_u0627_u0645 u0020 u0645_u064a_u200c_u0634_u0648_u062f u0020 u0648 u0020 u0628_u0627_u064a_u0633_u062a_u064a u0020 u067e_u0633 u0020 u0627_u0632 u0020 u062a_u0639_u0645_u064a_u0631 u0020 u0628_u0627 u0020 u0627_u0648_u0644_u064a_u0646 u0020 u0642_u0637_u0627_u0631 u0020 u0645_u0645_u0643_u0646 u0020 u0628_u0627 u0020 u062a_u0648_u062c_u0647 u0020 u0628_u0647 u0020 u0627_u064a_u0646 u0020 u0645_u0642_u0631_u0631_u0627_u062a_u0020", 
        "u0627_u0639_u0632_u0627_u0645 u0020 u0634_u0648_u0646_u062f_u002e_u000b", 
        "u2022_u00a0_u00a0 u0020 u00a0_u062a_u0642_u0633_u064a_u0645 u0020 u0642_u0637_u0627_u0631_u0647_u0627_u064a u0020 u062d_u0627_u0645_u0644 u0020 u0643_u0627_u0644_u0627_u0647_u0627_u064a u0020 u062e_u0637_u0631_u0646_u0627_u0643 u0020 u0648_u064a_u0698_u0647 u0020 u062f_u0631 u0020 u0628_u0644_u0627_u0643 u0020 u0645_u0645_u0646_u0648_u0639 u0020 u0645_u064a_u200c_u0628_u0627_u0634_u062f u0020 u0648 u0020 u062f_u0631_u0020", 
        "u0645_u0648_u0627_u0631_u062f u0020 u0627_u062c_u062a_u0646_u0627_u0628_u200c_u0646_u0627_u067e_u0630_u064a_u0631 u0020 u0628_u0627 u0020 u0627_u0637_u0645_u064a_u0646_u0627_u0646 u0020 u0627_u0632 u0020 u0648_u062c_u0648_u062f u0020 u0634_u0631_u0627_u064a_u0637 u0020 u0643_u0627_u0645_u0644 u0020 u0627_u064a_u0645_u0646_u064a u0020 u0648 u0020 u067e_u0633 u0020 u0627_u0632 u0020 u0645_u0648_u0627_u0641_u0642_u062a u0020 u0645_u0639_u0627_u0648_u0646_u0020", 
        "u0641_u0646_u064a u0020 u0627_u062f_u0627_u0631_u0647 u0020 u0643_u0644 u0020 u0645_u0631_u0628_u0648_u0637_u0647 u0020 u0628_u0644_u0627_u0645_u0627_u0646_u0639 u0020 u0627_u0633_u062a_u002e u0020 u000b", 
        "u2022_u00a0_u00a0 u0020 u00a0_u0642_u0637_u0627_u0631_u200c_u0647_u0627_u064a u0020 u062d_u0627_u0645_u0644 u0020 u0643_u0627_u0644_u0627_u0647_u0627_u064a u0020 u062e_u0637_u0631_u0646_u0627_u0643 u0020 u0648_u064a_u0698_u0647 u0020 u0628_u0627_u064a_u0633_u062a_u064a u0020 u062f_u0631 u0020 u0646_u0645_u0648_u062f_u0627_u0631 u0020 u06af_u0631_u0627_u0641 u0020 u0628_u0627 u0020 u0634_u0645_u0627_u0631_u0647 u0020 u0648_u0020", 
        "u0631_u0646_u06af u0020 u062e_u0627_u0635 u0020 u0645_u0634_u062e_u0635 u0020 u06af_u0631_u062f_u062f_u002e u0020 u000b", 
        "u2022_u00a0_u00a0 u0020 u00a0_u062d_u0645_u0644 u0020 u0643_u0627_u0644_u0627_u0647_u0627_u064a u0020 u062e_u0637_u0631_u0646_u0627_u0643 u0020 u0648_u064a_u0698_u0647 u0020 u062f_u0631 u0020 u0642_u0637_u0627_u0631_u0647_u0627_u064a u0020 u0645_u062a_u0631_u0627_u0698_u064a u0020 u0648 u0020 u0628_u0627_u0631_u0647_u0627_u064a u0020 u062e_u0627_u0631_u062c u0020 u0627_u0632 u0020 u06af_u0627_u0628_u0627_u0631_u064a_u0020", 
        "u0645_u0645_u0646_u0648_u0639 u0020 u0627_u0633_u062a_u002e"
    ]
}