{
    "bounding_box": [
        [
            264, 
            27, 
            197, 
            31
        ], 
        [
            18, 
            63, 
            687, 
            43
        ], 
        [
            18, 
            110, 
            687, 
            32
        ], 
        [
            18, 
            148, 
            687, 
            31
        ], 
        [
            94, 
            184, 
            612, 
            36
        ], 
        [
            251, 
            281, 
            222, 
            32
        ], 
        [
            18, 
            321, 
            687, 
            38
        ], 
        [
            18, 
            360, 
            687, 
            37
        ], 
        [
            18, 
            398, 
            687, 
            37
        ], 
        [
            18, 
            437, 
            687, 
            37
        ], 
        [
            634, 
            480, 
            71, 
            31
        ]
    ], 
    "image_height": 540, 
    "image_width": 720, 
    "transcription": [
        "u0627_u0644_u0642_u0627_u0639_u062f_u0629 u0020 u0036_u200f u0020 u002d u0020 u0627_u0644_u062a_u0639_u0644_u064a_u0645_u000d", 
        "u064a_u0646_u0628_u063a_u064a u0020 u0644_u0644_u062f_u0648_u0644 u0020 u0623_u0646 u0020 u062a_u0639_u062a_u0631_u0641 u0020 u0628_u0645_u0628_u062f_u0623 u0020 u0627_u0644_u0645_u0633_u0627_u0648_u0627_u0629 u0020 u0641_u064a u0020 u0641_u0631_u0635 u0020 u0627_u0644_u062a_u0639_u0644_u064a_u0645 u0020 u0641_u064a_u0020", 
        "u0627_u0644_u0645_u0631_u062d_u0644_u062a_u064a_u0646 u0020 u0627_u0644_u0627_u0628_u062a_u062f_u0627_u0626_u064a_u0629 u0020 u0648_u0627_u0644_u062b_u0627_u0646_u0648_u064a_u0629 u0020 u0648_u0627_u0644_u0645_u0631_u062d_u0644_u0629 u0020 u0627_u0644_u062b_u0627_u0644_u062b_u0629_u060c u0020 u0648_u0630_u0644_u0643 u0020 u0636_u0645_u0646 u0020 u0623_u0637_u0631_u0020", 
        "u0645_u062f_u0645_u062c_u0629_u060c u0020 u0644_u0644_u0645_u0639_u0648_u0642_u064a_u0646 u0020 u0645_u0646 u0020 u0627_u0644_u0623_u0637_u0641_u0627_u0644 u0020 u0648_u0627_u0644_u0634_u0628_u0627_u0628 u0020 u0648_u0627_u0644_u0643_u0628_u0627_u0631_u002e u0020 u0648_u062a_u0643_u0641_u0644 u0020 u0623_u0646 u0020 u064a_u0643_u0648_u0646_u0020", 
        "u062a_u0639_u0644_u064a_u0645 u0020 u0627_u0644_u0623_u0634_u062e_u0627_u0635 u0020 u0627_u0644_u0645_u0639_u0648_u0642_u064a_u0646 u0020 u062c_u0632_u0621_u0627 u0020 ufefb u0020 u064a_u062a_u062c_u0632_u0623 u0020 u0645_u0646 u0020 u0627_u0644_u0646_u0638_u0627_u0645 u0020 u0627_u0644_u062a_u0639_u0644_u064a_u0645_u064a_u002e_u000d", 
        "u0627_u0644_u0642_u0627_u0639_u062f_u0629 u0020 u200e_u0037 u0020 u002d u0020 u0627_u0644_u062a_u0648_u0638_u064a_u0641_u000d", 
        "u064a_u0646_u0628_u063a_u064a u0020 u0644_u0644_u062f_u0648_u0644 u0020 u0623_u0646 u0020 u062a_u0639_u062a_u0631_u0641 u0020 u0628_u0627_u0644_u0645_u0628_u062f_u0623 u0020 u0627_u0644_u0630_u064a u0020 u064a_u0648_u062c_u0628 u0020 u0645_u0646_u062d u0020 u0627_u0644_u0645_u0639_u0648_u0642_u064a_u0646 u0020 u0635_u0644_u0627_u062d_u064a_u0629_u0020", 
        "u0645_u0645_u0627_u0631_u0633_u0629 u0020 u0645_u0627 u0020 u0644_u0647_u0645 u0020 u0645_u0646 u0020 u062d_u0642_u0648_u0642 u0020 u0627_u0644_u0625_u0646_u0633_u0627_u0646 u0020 u0648_u062e_u0635_u0648_u0635_u0627 u0020 u0641_u064a u0020 u0645_u064a_u062f_u0627_u0646 u0020 u0627_u0644_u062a_u0648_u0638_u064a_u0641_u002e_u0020", 
        "u0648_u064a_u062c_u0628 u0020 u0623_u0646 u0020 u062a_u0643_u0648_u0646 u0020 u0644_u0647_u0645_u060c u0020 u0641_u064a u0020 u0627_u0644_u0645_u0646_u0627_u0637_u0642 u0020 u0627_u0644_u0631_u064a_u0641_u064a_u0629 u0020 u0648_u0627_u0644_u0645_u0646_u0627_u0637_u0642 u0020 u0627_u0644_u062d_u0636_u0631_u064a_u0629 u0020 u0639_u0644_u0649_u0020", 
        "u0627_u0644_u0633_u0648_u0627_u0621_u060c u0020 u0641_u0631_u0635 u0020 u0645_u062a_u0643_u0627_u0641_u0626_u0629 u0020 u0644_u0644_u062d_u0635_u0648_u0644 u0020 u0639_u0644_u0649 u0020 u0639_u0645_u0644 u0020 u0645_u0646_u062a_u062c u0020 u0648_u0645_u0631_u0628_u062d u0020 u0641_u064a u0020 u0633_u0648_u0642_u0020", 
        "u0627_u0644_u0639_u0645_u0644_u002e_u000d"
    ]
}