{
    "bounding_box": [
        [
            7, 
            20, 
            705, 
            53
        ], 
        [
            188, 
            75, 
            476, 
            63
        ]
    ], 
    "image_height": 540, 
    "image_width": 720, 
    "transcription": [
        "u0644_u0627_u064a_u0646_u0638_u0631 u0020 u0625_u0644_u0649 u0020 u0627_u0644_u0645_u062a_u0641_u0648_u0642_u064a_u0646 u0020 u0639_u0644_u0649 u0020 u0625_u0646_u0647_u0645 u0020 u062e_u0648_u0627_u0631_u0642_u0020", 
        "u0628_u0644 u0020 u064a_u062d_u0627_u0648_u0644 u0020 u062a_u062d_u0642_u064a_u0642 u0020 u0645_u0627 u0020 u062d_u0642_u0642_u0648_u0627_u0020"
    ]
}