{
    "bounding_box": [
        [
            104, 
            154, 
            518, 
            26
        ], 
        [
            467, 
            185, 
            155, 
            21
        ], 
        [
            91, 
            248, 
            536, 
            22
        ], 
        [
            91, 
            280, 
            531, 
            24
        ], 
        [
            91, 
            313, 
            536, 
            24
        ], 
        [
            91, 
            345, 
            451, 
            24
        ], 
        [
            228, 
            39, 
            280, 
            24
        ], 
        [
            329, 
            71, 
            84, 
            21
        ]
    ], 
    "image_height": 540, 
    "image_width": 720, 
    "transcription": [
        "u0642_u0627_u0644 u0020 u062a_u0639_u0627_u0644_u0649 u0020 u003a u0020 ufd3f u0020 u0648_u064e_u0645_u064e_u0646_u0652 u0020 u064a_u064e_u0643_u0652_u0641_u064f_u0631_u0652 u0020 u0628_u0650_u0627_u0644_u0644_u0651_u064e_u0647_u0650 u0020 u0648_u064e_u0645_u064e_u0644_u0627_u0626_u0650_u0643_u064e_u062a_u0650_u0647_u0650 u0020 u0648_u064e_u0643_u064f_u062a_u064f_u0628_u0650_u0647_u0650 u0020 u0648_u064e_u0631_u064f_u0633_u064f_u0644_u0650_u0647_u0650 u0020 u0648_u064e_u0627_u0644_u0652_u064a_u064e_u0648_u0652_u0645_u0650 u0020 u0627_u0644_u0622_u062e_u0650_u0631_u0650 u0020 u0641_u064e_u0642_u064e_u062f_u0652_u0020", 
        "u0636_u064e_u0644_u0651_u064e u0020 u0636_u064e_u0644_u0627_u0644_u0627 u0020 u0628_u064e_u0639_u0650_u064a_u062f_u064b_u0627 u0020 ufd3e u0020 u000d", 
        "u0064_u0061_u006e u0020 u0073_u0065_u0073_u0069_u0061_u0070_u0061 u0020 u0059_u0061_u006e_u0067 u0020 u006b_u0075_u0066_u0075_u0072 u0020 u0069_u006e_u0067_u006b_u0061_u0072 u0020 u006b_u0065_u0070_u0061_u0064_u0061 u0020 u0041_u006c_u006c_u0061_u0068_u002c u0020 u0064_u0061_u006e_u0020", 
        "u004d_u0061_u006c_u0061_u0069_u006b_u0061_u0074_u002d_u006d_u0061_u006c_u0061_u0069_u006b_u0061_u0074_u004e_u0079_u0061_u002c u0020 u0064_u0061_u006e u0020 u004b_u0069_u0074_u0061_u0062_u002d_u006b_u0069_u0074_u0061_u0062_u004e_u0079_u0061_u002c u0020 u0064_u0061_u006e u0020 u0052_u0061_u0073_u0075_u006c_u002d", 
        "u0072_u0061_u0073_u0075_u006c_u004e_u0079_u0061 u0020 u0064_u0061_u006e u0020 u006a_u0075_u0067_u0061 u0020 u0068_u0061_u0072_u0069 u0020 u0061_u006b_u0068_u0069_u0072_u0061_u0074_u002c u0020 u006d_u0061_u006b_u0061 u0020 u0053_u0065_u0073_u0075_u006e_u0067_u0067_u0075_u0068_u006e_u0079_u0061 u0020 u0069_u0061_u0020", 
        "u0074_u0065_u006c_u0061_u0068 u0020 u0073_u0065_u0073_u0061_u0074 u0020 u0044_u0065_u006e_u0067_u0061_u006e u0020 u006b_u0065_u0073_u0065_u0073_u0061_u0074_u0061_u006e u0020 u0059_u0061_u006e_u0067 u0020 u0061_u006d_u0061_u0074 u0020 u006a_u0061_u0075_u0068_u002e_u000d", 
        "u0627_u0644_u062f_u0644_u064a_u0644 u0020 u0639_u0644_u0649 u0020 u0648_u062c_u0648_u062f u0020 u0627_u0644_u0645_u0644_u0627_u0626_u0643_u0629 u0020 u060c u0020 u0648_u0648_u062c_u0648_u0628_u0020", 
        "u0627_u0644_u0625_u064a_u0645_u0627_u0646 u0020 u0628_u0647_u0645"
    ]
}