{
    "bounding_box": [
        [
            338, 
            91, 
            302, 
            34
        ], 
        [
            49, 
            156, 
            606, 
            30
        ], 
        [
            49, 
            192, 
            558, 
            28
        ], 
        [
            49, 
            224, 
            558, 
            29
        ], 
        [
            491, 
            263, 
            117, 
            22
        ], 
        [
            49, 
            298, 
            606, 
            30
        ], 
        [
            49, 
            336, 
            558, 
            23
        ], 
        [
            49, 
            365, 
            558, 
            29
        ], 
        [
            180, 
            396, 
            428, 
            32
        ]
    ], 
    "image_height": 540, 
    "image_width": 720, 
    "transcription": [
        "u0627_u0633_u0646_u0627_u062f u0020 u0628_u0627_u0632_u0631_u06af_u0627_u0646_u064a u0020 u062e_u0627_u0631_u062c_u064a u0020 u0645_u0644_u064a u0020 u003a", 
        "u0627_u0633_u0646_u0627_u062f_u064a u0020 u0647_u0633_u062a_u0646_u062f u0020 u0643_u0647 u0020 u062f_u0631 u0020 u062f_u0627_u062e_u0644 u0020 u0643_u0634_u0648_u0631 u0020 u0635_u0627_u062f_u0631 u0020 u0645_u064a_u06af_u0631_u062f_u062f u0020 u0648 u0020 u0645_u0648_u0631_u062f u0020 u0646_u064a_u0627_u0632 u0020 u064a_u0627_u0020", 
        "u0645_u0648_u0631_u062f u0020 u0639_u0645_u0644 u0020 u062f_u0631 u0020 u0628_u062e_u0634_u064a u0020 u0627_u0632 u0020 u0641_u0631_u0622_u064a_u0646_u062f u0020 u0627_u0646_u062c_u0627_u0645 u0020 u0645_u0639_u0627_u0645_u0644_u0647 u0020 u0627_u0633_u062a u0020 u0643_u0647 u0020 u0628_u0647_u0020", 
        "u0648_u0632_u0631_u0627_u062a_u062e_u0627_u0646_u0647 u0020 u0647_u0627 u0020 u064a_u0627 u0020 u0633_u0627_u0632_u0645_u0627_u0646 u0020 u0647_u0627_u064a u0020 u062f_u0627_u062e_u0644_u064a u0020 u0645_u0631_u0628_u0648_u0637 u0020 u0627_u0633_u062a u0020 u002e u0020 u0627_u064a_u0646 u0020 u0627_u0633_u0646_u0627_u062f_u0020", 
        "u0639_u0628_u0627_u0631_u062a_u0646_u062f u0020 u0627_u0632 u0020 u003a_u000d", 
        "u0643_u0627_u0631_u062a u0020 u0628_u0627_u0632_u0631_u06af_u0627_u0646_u064a_u060c u0020 u0627_u0648_u0631_u0627_u0642 u0020 u062b_u0628_u062a u0020 u0633_u0641_u0627_u0631_u0634 u0020 u060c u0020 u0641_u0631_u0645 u0020 u062f_u0631_u062e_u0648_u0627_u0633_u062a u0020 u06af_u0634_u0627_u064a_u0634_u0020", 
        "u0627_u0639_u062a_u0628_u0627_u0631 u0020 u060c u0020 u0627_u0639_u0644_u0627_u0645_u064a_u0647 u0020 u062a_u0627_u0645_u064a_u0646 u0020 u0627_u0631_u0632_u060c u0020 u0627_u0639_u0644_u0627_u0645_u064a_u0647 u0020 u0648_u0631_u0648_u0631_u062f u0020 u0643_u0627_u0644_u0627_u060c_u062a_u0631_u062e_u064a_u0635_u064a_u0647_u060c_u0020", 
        "u0642_u0628_u0636 u0020 u0627_u0646_u0628_u0627_u0631_u060c u0020 u0627_u0638_u0647_u0627_u0631_u0646_u0627_u0645_u0647 u0020 u06af_u0645_u0631_u0643_u064a u0020 u060c u0020 u067e_u0631_u0648_u0627_u0646_u0647 u0020 u0633_u0628_u0632 u0020 u06af_u0645_u0631_u0643_u064a u0020 u060c u0020 u067e_u062a_u0647_u0020", 
        "u0645_u0633_u0627_u0641_u0631_u064a u0020 u064a_u0627 u0020 u062a_u062c_u0627_u0631_u064a_u060c u0020 u0628_u064a_u0645_u0647 u0020 u0646_u0627_u0645_u0647_u060c u0020 u06af_u0648_u0627_u0647_u064a u0020 u0627_u0633_u062a_u0627_u0646_u062f_u0627_u0631_u062f"
    ]
}