{
    "bounding_box": [
        [
            16, 
            88, 
            684, 
            57
        ], 
        [
            16, 
            153, 
            684, 
            57
        ], 
        [
            16, 
            219, 
            684, 
            49
        ], 
        [
            16, 
            283, 
            684, 
            56
        ], 
        [
            16, 
            348, 
            684, 
            56
        ], 
        [
            350, 
            414, 
            350, 
            44
        ]
    ], 
    "image_height": 540, 
    "image_width": 720, 
    "transcription": [
        "u0038_u002e u0020 u0627_u0644_u062a_u0631_u0643_u064a_u0632 u0020 u0639_u0644_u0649 u0020 u0633_u064a_u0627_u062d_u0629 u0020 u0627_u0644_u0645_u0624_u062a_u0645_u0631_u0627_u062a u0020 u0647_u064a_u0020", 
        "u0627_u0644_u0645_u062d_u0631_u0643 u0020 u0627_u0644_u0631_u0626_u064a_u0633_u064a u0020 u0644_u062a_u0646_u0634_u064a_u0637 u0020 u0628_u0627_u0642_u064a_u0020", 
        "u0627_u0644_u0633_u064a_u0627_u062d_u0627_u062a u0020 u0648_u0644_u062c_u0630_u0628 u0020 u0627_u0644_u0627_u0633_u062a_u062b_u0645_u0627_u0631_u0627_u062a_u002e u0020 u0648_u0642_u062f_u0020", 
        "u0627_u0646_u0634_u0626_u062a u0020 u0642_u0633_u0645 u0020 u062e_u0627_u0635 u0020 u0644_u0633_u064a_u0627_u062d_u0629 u0020 u0627_u0644_u0627_u0639_u0645_u0627_u0644_u0020", 
        "u0648_u0627_u0644_u0641_u0639_u0627_u0644_u064a_u0627_u062a u0020 u0648_u0627_u0644_u0645_u0624_u062a_u0645_u0631_u0627_u062a u0020 u0641_u064a u0020 u0627_u0644_u0631_u0628_u0639_u0020", 
        "u0627_u0644_u0627_u062e_u064a_u0631 u0020 u0645_u0646 u0020 u0032_u0030_u0031_u0031_u002e u0020 u000d"
    ]
}