{
    "bounding_box": [
        [
            152, 
            40, 
            533, 
            34
        ], 
        [
            602, 
            94, 
            62, 
            24
        ], 
        [
            486, 
            120, 
            178, 
            24
        ], 
        [
            502, 
            146, 
            162, 
            24
        ], 
        [
            503, 
            199, 
            161, 
            23
        ], 
        [
            461, 
            224, 
            203, 
            24
        ], 
        [
            406, 
            250, 
            258, 
            22
        ], 
        [
            492, 
            301, 
            172, 
            24
        ], 
        [
            485, 
            327, 
            179, 
            24
        ], 
        [
            506, 
            353, 
            158, 
            24
        ], 
        [
            544, 
            379, 
            120, 
            24
        ], 
        [
            411, 
            405, 
            253, 
            24
        ], 
        [
            603, 
            432, 
            61, 
            23
        ], 
        [
            582, 
            457, 
            82, 
            24
        ], 
        [
            515, 
            483, 
            149, 
            21
        ]
    ], 
    "image_height": 540, 
    "image_width": 720, 
    "transcription": [
        "u0639_u0648_u0627_u0645_u0644 u0020 u0627_u0644_u0646_u062c_u0627_u062d u0020 u0648_u0627_u0644_u0641_u0634_u0644 u0020 u0644_u0645_u0634_u0631_u0648_u0639 u0020 u0627_u0644_u062d_u0648_u0643_u0645_u0629 u0020 u0627_u0644_u0627_u0644_u0643_u062a_u0631_u0648_u0646_u064a_u0629_u0020", 
        "u0627_u0644_u0646_u062c_u0627_u062d_u000d", 
        "u0627_u0644_u0637_u0644_u0628 u0020 u0639_u0644_u0649 u0020 u0627_u0644_u062e_u062f_u0645_u0629 u0020 u002e_u000d", 
        "u0627_u0644_u0636_u063a_u0637 u0020 u0627_u0644_u062e_u0627_u0631_u062c_u064a u0020 u002e_u000d", 
        "u0627_u0644_u0631_u0624_u064a_u0629 u0020 u0648 u0020 u0627_u0644_u0637_u0645_u0648_u062d_u003a_u000d", 
        "u0631_u063a_u0628_u0629 u0020 u0627_u0644_u0633_u064a_u0627_u0633_u0629 u0020 u0627_u0644_u062f_u0627_u062e_u0644_u064a_u0629 u0020 u002e_u000d", 
        "u0627_u0644_u0631_u0624_u064a_u0629 u0020 u0627_u0644_u0639_u0627_u0645_u0629 u0020 u0648 u0020 u0627_u0644_u0625_u0633_u062a_u0631_u0627_u062a_u064a_u062c_u064a_u0629 u0020 u002e_u000d", 
        "u0627_u0644_u0642_u062f_u0631_u0629 u0020 u0639_u0644_u0649 u0020 u0627_u0644_u0625_u0646_u062a_u0627_u062c_u003a_u000d", 
        "u0625_u062f_u0627_u0631_u0629 u0020 u0645_u0634_u0631_u0648_u0639 u0020 u0641_u0639_u0627_u0644_u0629 u0020 u002e_u000d", 
        "u0625_u062f_u0627_u0631_u0629 u0020 u062a_u063a_u064a_u064a_u0631 u0020 u0641_u0639_u0627_u0644_u0629 u0020 u002e_u000d", 
        "u062a_u0635_u0645_u064a_u0645 u0020 u0641_u0639_u0627_u0644 u0020 u002e_u000d", 
        "u0628_u0646_u064a_u0629 u0020 u062a_u062d_u062a_u064a_u0629 u0020 u062a_u0643_u0646_u0648_u0644_u0648_u062c_u064a_u0629 u0020 u0645_u0646_u0627_u0633_u0628_u0629 u0020 u002e_u000d", 
        "u0627_u0644_u062d_u0638 u0020 u002e_u000d", 
        "u0627_u0644_u0645_u062b_u0627_u0628_u0631_u0629 u0020 u002e_u000d", 
        "u0627_u0644_u062a_u0645_u0648_u064a_u0644 u0020 u0627_u0644_u0645_u0646_u0627_u0633_u0628 u0020 u002e"
    ]
}