{
    "bounding_box": [
        [
            382, 
            29, 
            276, 
            26
        ], 
        [
            103, 
            78, 
            559, 
            27
        ], 
        [
            70, 
            115, 
            591, 
            25
        ], 
        [
            74, 
            146, 
            588, 
            26
        ], 
        [
            526, 
            180, 
            135, 
            19
        ], 
        [
            30, 
            209, 
            631, 
            32
        ], 
        [
            333, 
            244, 
            329, 
            27
        ], 
        [
            78, 
            276, 
            584, 
            30
        ], 
        [
            266, 
            315, 
            395, 
            25
        ]
    ], 
    "image_height": 540, 
    "image_width": 720, 
    "transcription": [
        "u0625_u0646_u0634_u0627_u0621 u0020 u0645_u0633_u062a_u0646_u062f u0020 u0645_u0646 u0020 u0645_u0633_u062a_u0646_u062f u0020 u0645_u0648_u062c_u0648_u062f", 
        "u0631_u0628_u0645_u0627 u0020 u0645_u0631_u0631_u062a u0020 u0639_u0644_u0649 u0020 u0645_u0633_u062a_u0646_u062f u0020 u0623_u0639_u062c_u0628_u0643 u0020 u062a_u0646_u0633_u064a_u0642_u0647_u002e u0020 u0644_u0643_u0646 u0020 u0625_u0630_u0627 u0020 u0644_u0645 u0020 u064a_u0643_u0646 u0020 u0647_u0646_u0627_u0643 u0020 u0642_u0627_u0644_u0628_u0020", 
        "u0645_u062b_u0644_u0647_u060c u0020 u0641_u0642_u062f u0020 u064a_u0633_u062a_u063a_u0631_u0642 u0020 u0625_u0639_u0627_u062f_u0629 u0020 u0625_u0646_u0634_u0627_u0621 u0020 u0630_u0644_u0643 u0020 u0627_u0644_u062a_u0646_u0633_u064a_u0642 u0020 u0648_u0642_u062a_u0627 u0020 u0637_u0648_u064a_u0644_u0627_u002e u0020 u0648_u0644_u0644_u0645_u0633_u0627_u0639_u062f_u0629 u0020 u0641_u064a_u0020", 
        "u0630_u0644_u0643_u060c u0020 u064a_u0633_u0645_u062d u0020 u0644_u0643 u0020 u0645_u0639_u0627_u0644_u062c u0020 u0627_u0644_u0646_u0635_u0648_u0635 u0020 u0022_u0648_u0648_u0631_u062f_u0022 u0020 u0628_u0625_u0646_u0634_u0627_u0621 u0020 u0645_u0633_u062a_u0646_u062f u0020 u062c_u062f_u064a_u062f u0020 u0628_u0646_u0627_u0621 u0020 u0639_u0644_u0649_u0020", 
        "u0645_u0633_u062a_u0646_u062f u0020 u0645_u0648_u062c_u0648_u062f_u002e u0020 u000d", 
        "u0648_u062a_u0642_u0648_u0645 u0020 u0647_u0630_u0647 u0020 u0627_u0644_u0633_u0645_u0629 u0020 u0628_u0646_u0641_u0633 u0020 u0645_u0627 u0020 u064a_u0642_u0648_u0645 u0020 u0628_u0647 u0020 u0641_u062a_u062d u0020 u0627_u0644_u0645_u0633_u062a_u0646_u062f u0020 u0627_u0644_u0623_u0635_u0644_u064a_u002e u0020 u0623_u064f_u0646_u0642_u0631 u0020 u0639_u0644_u0649 u0020 u0645_u0644_u0641 u0020 u0020 u0020 u0020 u0020 u0020", 
        "u062d_u0641_u0638 u0020 u0628_u0627_u0633_u0645 u0020 u062b_u0645 u0020 u0625_u062e_u062a_u0631 u0020 u0625_u0633_u0645_u0627_u064b u0020 u062c_u062f_u064a_u062f_u0627 u0020 u0644_u0644_u0645_u0633_u062a_u0646_u062f_u002e_u000d", 
        "u0644_u0644_u0642_u064a_u0627_u0645 u0020 u0628_u0630_u0644_u0643_u060c u0020 u0623_u064f_u0646_u0642_u0631 u0020 u0639_u0644_u0649 u0020 u0645_u0644_u0641 u0020 u2013 u0020 u062c_u062f_u064a_u062f u0020 u002d u0020 u062c_u062f_u064a_u062f u0020 u0645_u0646 u0020 u0645_u0633_u062a_u0646_u062f u0020 u0645_u0648_u062c_u0648_u062f u0020 u062b_u0645 u0020 u0627_u062e_u062a_u0631_u0020", 
        "u0645_u0633_u062a_u0646_u062f u0020 u0627_u0644_u0645_u0635_u062f_u0631 u0020 u0641_u064a u0020 u0645_u0631_u0628_u0639 u0020 u0627_u0644_u062d_u0648_u0627_u0631 u0020 u0627_u0644_u0630_u064a u0020 u0633_u064a_u0638_u0647_u0631_u002e_u000d"
    ]
}