{
    "bounding_box": [
        [
            184, 
            28, 
            73, 
            33
        ], 
        [
            548, 
            30, 
            106, 
            37
        ]
    ], 
    "image_height": 540, 
    "image_width": 720, 
    "transcription": [
        "u0627_u0644_u062c_u0644_u064a_u062f", 
        "u0627_u0644_u062a_u062c_u0648_u064a_u0629_u0020"
    ]
}