{
    "bounding_box": [
        [
            171, 
            49, 
            377, 
            42
        ], 
        [
            493, 
            134, 
            172, 
            28
        ], 
        [
            36, 
            164, 
            629, 
            39
        ], 
        [
            71, 
            205, 
            562, 
            31
        ], 
        [
            438, 
            245, 
            194, 
            24
        ]
    ], 
    "image_height": 540, 
    "image_width": 720, 
    "transcription": [
        "u062e_u0635_u0627_u0626_u0635 u0020 u0627_u0644_u0637_u0628_u0642_u0627_u062a u0020 u0627_u0644_u0627_u062c_u062a_u0645_u0627_u0639_u064a_u0629", 
        "u0637_u0628_u0642_u0629 u0020 u0634_u064a_u0648_u062e u0020 u0627_u0644_u0642_u0628_u0627_u0626_u0644_u003a_u000d", 
        "u0627_u0646_u0635_u0647_u0631_u062a u0020 u0647_u0630_u0647 u0020 u0627_u0644_u0637_u0628_u0642_u0629 u0020 u062a_u062f_u0631_u064a_u062c_u064a_u0627_u064b u0020 u0641_u064a u0020 u0627_u0644_u0645_u062c_u062a_u0645_u0639 u0020 u0628_u0639_u062f u0020 u0632_u0648_u0627_u0644 u0020 u0633_u0644_u0637_u062a_u0647_u0627 u0020 u0648_u0635_u0644_u0627_u062d_u064a_u0627_u062a_u0647_u0627_u0020", 
        "u0627_u0644_u0625_u062f_u0627_u0631_u064a_u0629 u0020 u0648_u0627_u0644_u0627_u062c_u062a_u0645_u0627_u0639_u064a_u0629 u0020 u0648_u062a_u062d_u0648_u0644_u0647_u0627 u0020 u0625_u0644_u0649 u0020 u0623_u062c_u0647_u0632_u0629 u0020 u0627_u0644_u062f_u0648_u0644_u0629_u060c u0020 u0648_u0644_u0645 u0020 u064a_u0628_u0642_u0649 u0020 u0644_u0647_u0645 u0020 u0625_u0644_u0627_u0020", 
        "u062a_u0642_u062f_u064a_u0631 u0020 u0648_u0627_u062d_u062a_u0631_u0627_u0645 u0020 u0627_u0641_u0631_u0627_u062f_u0647_u0627_u002e"
    ]
}