{
    "bounding_box": [
        [
            258, 
            56, 
            207, 
            29
        ], 
        [
            222, 
            151, 
            279, 
            20
        ], 
        [
            257, 
            238, 
            210, 
            20
        ], 
        [
            277, 
            299, 
            170, 
            20
        ]
    ], 
    "image_height": 540, 
    "image_width": 720, 
    "transcription": [
        "u062a_u0627_u0633_u06cc_u0633_u0627_u062a u0020 u0627_u0644_u06a9_u062a_u0631_u06cc_u06a9_u06cc u0020 u000d", 
        "u0645_u0648_u0636_u0648_u0639 u0020 u003a u0020 u0631_u0648_u0634_u0646_u0627_u06cc_u06cc u0020 u0633_u0631_u0648_u06cc_u0633 u0020 u0647_u0627_u06cc u0020 u0628_u0647_u062f_u0627_u0634_u062a_u06cc u0020 u000d", 
        "u0627_u0633_u062a_u0627_u062f u0020 u003a u0020 u0622_u0642_u0627_u06cc u0020 u0645_u0647_u0646_u062f_u0633 u0020 u0637_u0627_u0644_u0628 u0020 u0632_u0627_u062f_u0647 u0020 u000d", 
        "u062f_u0627_u0646_u0634_u062c_u0648 u0020 u003a u0020 u0633_u0645_u06cc_u0647 u0020 u0686_u0646_u0627_u0646_u06cc u0020 u0641_u0631 u0020 u000d"
    ]
}