{
    "bounding_box": [
        [
            229, 
            26, 
            278, 
            38
        ], 
        [
            653, 
            110, 
            40, 
            25
        ], 
        [
            473, 
            149, 
            220, 
            29
        ], 
        [
            111, 
            183, 
            573, 
            33
        ], 
        [
            546, 
            223, 
            138, 
            31
        ], 
        [
            197, 
            420, 
            496, 
            23
        ], 
        [
            224, 
            455, 
            460, 
            33
        ]
    ], 
    "image_height": 540, 
    "image_width": 720, 
    "transcription": [
        "u062e_u0637_u0629_u0028_u0627_u0633_u062a_u0631_u0627_u062a_u064a_u062c_u064a_u0629_u0029 u0020 u0627_u0644_u0631_u0633_u0645", 
        "u062d_u0644_u000d", 
        "u0646_u0635_u0641 u0020 u0627_u0644_u0640_u0034 u0020 u064a_u0633_u0627_u0648_u064a u0020 u0032_u000d", 
        "u0625_u0630_u0646 u0020 u0641_u064a u0020 u0643_u0644 u0020 u0639_u0644_u0628_u0629 u0020 u0623_u0631_u0633_u0645 u0020 u0034 u0020 u0642_u0637_u0639 u0020 u0635_u0644_u0635_u0627_u0644 u0020 u0631_u0645_u0627_u062f_u064a u0020 u0648 u0020 u0032 u0020 u0642_u0637_u0639_u0020", 
        "u0635_u0644_u0635_u0627_u0644 u0020 u0623_u062d_u0645_u0631", 
        "u0036 u0020 u002b u0020 u0036 u0020 u002b u0020 u0036 u0020 u002b u0020 u0036 u0020 u002b u0020 u0036 u0020 u002b u0020 u0036 u0020 u002b u0020 u0036 u0020 u002b u0020 u0036 u0020 u003d u0020 u0034_u0038 u0020 u0020_u000d", 
        "u0625_u0630_u0646 u0020 u0639_u062f_u062f u0020 u0642_u0637_u0639 u0020 u0627_u0644_u0635_u0644_u0635_u0627_u0644 u0020 u062c_u0645_u064a_u0639_u0647_u0627 u0020 u0647_u0648 u0020 u0034_u0038 u0020 u0642_u0637_u0639_u0629"
    ]
}