{
    "bounding_box": [
        [
            385, 
            35, 
            273, 
            27
        ], 
        [
            42, 
            108, 
            613, 
            25
        ], 
        [
            84, 
            140, 
            571, 
            25
        ], 
        [
            25, 
            168, 
            630, 
            27
        ], 
        [
            119, 
            196, 
            536, 
            27
        ], 
        [
            32, 
            232, 
            623, 
            27
        ], 
        [
            30, 
            265, 
            625, 
            24
        ], 
        [
            46, 
            292, 
            610, 
            25
        ], 
        [
            71, 
            324, 
            584, 
            25
        ], 
        [
            575, 
            355, 
            81, 
            19
        ]
    ], 
    "image_height": 540, 
    "image_width": 720, 
    "transcription": [
        "u0627_u0633_u062a_u062e_u062f_u0627_u0645 u0020 u0627_u0644_u0646_u0642_u0631 u0020 u0648_u0627_u0644_u0646_u0642_u0631 u0020 u0627_u0644_u0645_u0632_u062f_u0648_u062c_u0020", 
        "u062a_u0645 u0020 u062a_u0635_u0645_u064a_u0645 u0020 u0627_u0644_u0645_u0627_u0648_u0633 u0020 u0644_u0627_u0633_u062a_u062e_u062f_u0627_u0645_u0647 u0020 u0645_u0646 u0020 u0642_u0628_u0644 u0020 u0627_u0644_u0623_u0634_u062e_u0627_u0635 u0020 u0627_u0644_u0630_u064a_u0646 u0020 u064a_u0633_u062a_u062e_u062f_u0645_u0648_u0646 u0020 u064a_u062f_u0647_u0645 u0020 u0627_u0644_u064a_u0645_u0646_u0649_u002e_u0020", 
        "u0648_u064a_u0648_u062c_u062f u0020 u0641_u064a u0020 u0627_u0644_u0645_u0627_u0648_u0633 u0020 u0632_u0631_u0627_u0646 u0020 u0631_u0626_u064a_u0633_u064a_u0627_u0646 u0020 u064a_u0633_u062a_u062e_u062f_u0645_u0627_u0646 u0020 u0639_u0646 u0020 u0637_u0631_u064a_u0642 u0020 u0627_u0644_u0633_u0628_u0627_u0628_u0629 u0020 u0648_u0627_u0644_u0625_u0635_u0628_u0639_u0020", 
        "u0627_u0644_u0648_u0633_u0637_u0649_u061b u0020 u0641_u0627_u0644_u0633_u0628_u0627_u0628_u0629 u0020 u062a_u0636_u063a_u0637 u0020 u0639_u0644_u0649 u0020 u0627_u0644_u0632_u0631 u0020 u0627_u0644_u0623_u064a_u0633_u0631 u0020 u0648_u0627_u0644_u0625_u0635_u0628_u0639 u0020 u0627_u0644_u0648_u0633_u0637_u0649 u0020 u0639_u0644_u0649 u0020 u0627_u0644_u0632_u0631 u0020 u0627_u0644_u0623_u064a_u0645_u0646_u002e_u0020", 
        "u0028_u064a_u0648_u062c_u062f u0020 u0641_u064a u0020 u0628_u0631_u0646_u0627_u0645_u062c u0020 u0648_u064a_u0646_u062f_u0648_u0632 u0020 u062e_u064a_u0627_u0631 u0020 u0644_u0639_u0643_u0633 u0020 u0647_u0630_u0627 u0020 u0627_u0644_u062a_u0631_u062a_u064a_u0628 u0020 u0644_u0645_u0646 u0020 u0647_u0648 u0020 u0623_u0639_u0633_u0631_u0029_u002e u0020 u000d", 
        "u0641_u064a u0020 u0647_u0630_u0627 u0020 u0627_u0644_u062f_u0644_u064a_u0644 u0020 u0028_u0648_u062a_u0642_u0631_u064a_u0628_u0627 u0020 u0641_u064a u0020 u0643_u0644 u0020 u0643_u062a_u0627_u0628 u0020 u0623_u0648 u0020 u0645_u0631_u062c_u0639 u0020 u0639_u0646 u0020 u0627_u0644_u0643_u0645_u0628_u064a_u0648_u062a_u0631_u0029_u060c u0020 u0641_u0625_u0646_u0647 u0020 u0639_u0646_u062f_u0645_u0627 u0020 u064a_u0637_u0644_u0628_u0020", 
        "u0645_u0646_u0643 u0020 u0022_u0627_u0644_u0646_u0642_u0631_u0022 u0020 u0639_u0644_u0649 u0020 u0634_u064a_u0621 u0020 u0645_u0627_u060c u0020 u0641_u0625_u0646 u0020 u0630_u0644_u0643 u0020 u064a_u0639_u0646_u064a u0020 u062a_u062d_u0631_u064a_u0643 u0020 u0627_u0644_u0645_u0627_u0648_u0633 u0020 u0648_u0648_u0636_u0639_u0647 u0020 u0639_u0644_u0649 u0020 u0627_u0644_u0639_u0646_u0635_u0631_u0020", 
        "u0627_u0644_u0645_u0631_u0627_u062f u0020 u0627_u0644_u0646_u0642_u0631 u0020 u0639_u0644_u064a_u0647 u0020 u0648_u0627_u0644_u0636_u063a_u0637 u0020 u0639_u0644_u0649 u0020 u0632_u0631 u0020 u0627_u0644_u0645_u0627_u0648_u0633 u0020 u0627_u0644_u0623_u064a_u0633_u0631_u002e u0020 u0648_u0645_u0646 u0020 u0022_u0627_u0644_u0645_u0645_u0643_u0646 u0020 u0627_u0644_u0646_u0642_u0631_u0022 u0020 u0639_u0644_u0649_u0020", 
        "u063a_u0627_u0644_u0628_u064a_u0629 u0020 u0639_u0646_u0627_u0635_u0631 u0020 u0627_u0644_u062a_u062d_u0643_u0645 u0020 u0641_u064a u0020 u0628_u0631_u0646_u0627_u0645_u062c u0020 u0648_u064a_u0646_u062f_u0648_u0632 u0020 u0648_u0639_u0644_u0649 u0020 u0635_u0641_u062d_u0629 u0020 u0627_u0644_u0648_u064a_u0628 u0020 u0639_u0646_u062f u0020 u0627_u0633_u062a_u062e_u062f_u0627_u0645_u0020", 
        "u0627_u0644_u0627_u0646_u062a_u0631_u0646_u062a_u002e_u0020"
    ]
}