{
    "bounding_box": [
        [
            644, 
            500, 
            14, 
            10
        ], 
        [
            212, 
            26, 
            294, 
            30
        ], 
        [
            428, 
            80, 
            236, 
            33
        ], 
        [
            41, 
            126, 
            623, 
            34
        ], 
        [
            309, 
            165, 
            354, 
            32
        ], 
        [
            85, 
            210, 
            579, 
            29
        ], 
        [
            561, 
            251, 
            103, 
            28
        ], 
        [
            16, 
            294, 
            648, 
            34
        ], 
        [
            529, 
            334, 
            134, 
            31
        ], 
        [
            13, 
            379, 
            651, 
            29
        ], 
        [
            3, 
            417, 
            661, 
            34
        ], 
        [
            426, 
            456, 
            238, 
            33
        ]
    ], 
    "image_height": 540, 
    "image_width": 720, 
    "transcription": [
        "u0035_u0035", 
        "u0020_u0646_u0634_u0627_u0637 u0020 u062a_u062e_u0637_u064a_u0637 u0020 u0627_u0644_u0639_u0644_u0627_u0642_u0627_u062a u0020 u0627_u0644_u0639_u0627_u0645_u0629", 
        "u0646_u0634_u0627_u0637 u0020 u062a_u062e_u0637_u064a_u0637 u0020 u0627_u0644_u0639_u0644_u0627_u0642_u0627_u062a_u003a_u000d", 
        "u0648_u0636_u0639 u0020 u062e_u0637_u0629 u0020 u0643_u0627_u0645_u0644_u0629 u0020 u0648_u0634_u0627_u0645_u0644_u0629 u0020 u0644_u0625_u062f_u0627_u0631_u0629 u0020 u0627_u0644_u0639_u0644_u0627_u0642_u0627_u062a u0020 u0627_u0644_u0639_u0627_u0645_u0629 u0020 u0627_u0645_u0631 u0020 u0636_u0631_u0648_u0631_u064a_u0020", 
        "u0648_u064a_u0639_u062a_u0628_u0631 u0020 u0627_u0645_u0631_u0627 u0020 u0635_u0639_u0628_u0627 u0020 u0648_u064a_u0639_u0648_u062f u0020 u0630_u0644_u0643 u0020 u0627_u0644_u0649 u0020 u003a_u000d", 
        "u0627_u0646 u0020 u0627_u0644_u062e_u0637_u0629 u0020 u062a_u0641_u062a_u0631_u0636 u0020 u0642_u064a_u0627_u0633 u0020 u0648_u0645_u0637_u0627_u0644_u0628 u0020 u0648_u0627_u062a_u062c_u0627_u0647_u0627_u062a u0020 u0648_u0623_u0646_u0645_u0627_u0637 u0020 u062a_u0641_u0643_u064a_u0631_u0020", 
        "u0627_u0644_u062c_u0645_u0647_u0648_u0631 u0020 u000d", 
        "u0020_u062a_u062a_u0645_u064a_u0632 u0020 u0627_u0644_u0627_u0646_u0645_u0627_u0637 u0020 u0020_u0628_u0627_u0644_u062a_u0642_u0644_u0628 u0020 u0627_u0644_u0633_u0631_u064a_u0639 u0020 u0645_u0645_u0627 u0020 u064a_u062d_u0648_u0644 u0020 u062f_u0648_u0646 u0020 u0627_u0645_u0643_u0627_u0646_u064a_u0629 u0020 u0627_u0644_u0631_u0635_u062f u0020 u0627_u0648_u0020", 
        "u0627_u0644_u062a_u0646_u0628_u0624 u0020 u0627_u0644_u062f_u0642_u064a_u0642_u000d", 
        "u062e_u0637_u0637 u0020 u0627_u0644_u0639_u0644_u0627_u0642_u0627_u062a u0020 u0627_u0644_u0639_u0627_u0645_u0629 u0020 u062a_u062e_u062a_u0644_u0641 u0020 u0645_u0646 u0020 u0645_u0624_u0633_u0633_u0629 u0020 u0644_u0627_u062e_u0631_u0649 u0020 u0645_u0646 u0020 u062d_u064a_u062b u0020 u0637_u0628_u064a_u0639_u0629_u0020", 
        "u0627_u0644_u0646_u0634_u0627_u0637 u0020 u0627_u0648 u0020 u0646_u0648_u0639_u064a_u0629 u0020 u0627_u0644_u062c_u0645_u0647_u0648_u0631 u0020 u0627_u0648 u0020 u0627_u0644_u0645_u0631_u0643_u0632 u0020 u0627_u0644_u0645_u0627_u0644_u064a u0020 u0627_u0648 u0020 u0627_u0644_u0646_u0637_u0627_u0642 u0020 u0627_u0644_u0627_u062c_u062a_u0645_u0627_u0639_u064a_u0020", 
        "u0648_u0627_u0644_u0627_u0642_u062a_u0635_u0627_u062f_u0649 u0020 u0648_u0627_u0644_u0633_u064a_u0627_u0633_u064a_u000d"
    ]
}