{
    "bounding_box": [
        [
            130, 
            33, 
            467, 
            33
        ], 
        [
            64, 
            90, 
            598, 
            29
        ], 
        [
            62, 
            127, 
            599, 
            25
        ], 
        [
            79, 
            155, 
            582, 
            29
        ], 
        [
            80, 
            187, 
            581, 
            29
        ], 
        [
            293, 
            221, 
            368, 
            28
        ]
    ], 
    "image_height": 540, 
    "image_width": 720, 
    "transcription": [
        "u00a0_u0627_u0644_u062f_u0631_u0633 u0020 u0034_u002d_u0034_u003a u0020 u062a_u0637_u0628_u064a_u0642 u0020 u062a_u0623_u062b_u064a_u0631_u0627_u062a u0020 u0627_u0644_u0646_u0635 u0020 u0627_u0644_u0645_u062a_u0642_u062f_u0645_u0629_u0020", 
        "u0627_u0644_u0622_u0646 u0020 u0648_u0628_u0645_u0627 u0020 u0627_u0646_u0643 u0020 u0641_u0647_u0645 u0020 u0623_u0633_u0627_u0633_u064a_u0627_u062a u0020 u0625_u0646_u0634_u0627_u0621 u0020 u0627_u0644_u0645_u0633_u062a_u0646_u062f u0020 u0648_u0627_u0644_u062a_u0639_u0627_u0645_u0644 u0020 u0645_u0639 u0020 u0627_u0644_u0646_u0635_u060c u0020 u0641_u0642_u062f u0020 u062d_u0627_u0646_u0020", 
        "u0627_u0644_u0648_u0642_u062a u0020 u0644_u0644_u062a_u0639_u0631_u0641 u0020 u0639_u0644_u0649 u0020 u062c_u0648_u0627_u0646_u0628 u0020 u0627_u0643_u062b_u0631 u0020 u0645_u062a_u0639_u0629 u0020 u0641_u064a u0020 u0625_u0646_u0634_u0627_u0621 u0020 u0627_u0644_u0645_u0633_u062a_u0646_u062f_u0627_u062a u0020 u0648_u0647_u0648 u0020 u062a_u0637_u0628_u064a_u0642_u0020", 
        "u0627_u0644_u062a_u0623_u062b_u064a_u0631_u0627_u062a u0020 u0639_u0644_u0649 u0020 u0627_u0644_u0646_u0635_u002e u0020 u0641_u064a u0020 u0647_u0630_u0627 u0020 u0627_u0644_u062f_u0631_u0633_u060c u0020 u0633_u0646_u0633_u062a_u0643_u0634_u0641 u0020 u0645_u0639_u0627 u0020 u0628_u0639_u0636 u0020 u062a_u0623_u062b_u064a_u0631_u0627_u062a_u0020", 
        "u0627_u0644_u0646_u0635 u0020 u0627_u0644_u0634_u0627_u0626_u0639_u0629 u0020 u0627_u0644_u062a_u064a u0020 u064a_u0645_u0643_u0646 u0020 u0627_u0633_u062a_u062e_u062f_u0627_u0645_u0647_u0627 u0020 u0648_u0647_u064a u0020 u0625_u0633_u0642_u0627_u0637 u0020 u0627_u0644_u0623_u062d_u0631_u0641 u0020 u0627_u0644_u0627_u0633_u062a_u0647_u0644_u0627_u0644_u064a_u0629_u0020", 
        "u0648_u0627_u0644_u0645_u062d_u0627_u0630_u0627_u0629 u0020 u0648_u0627_u0644_u0636_u0628_u0637 u0020 u0648_u0627_u0644_u0623_u0646_u0645_u0627_u0637 u0020 u0648_u0646_u0633_u062e u0020 u0627_u0644_u062a_u0646_u0633_u064a_u0642_u002e_u0020"
    ]
}