{
    "bounding_box": [
        [
            92, 
            52, 
            811, 
            33
        ], 
        [
            101, 
            89, 
            803, 
            30
        ], 
        [
            80, 
            123, 
            824, 
            31
        ], 
        [
            94, 
            156, 
            810, 
            31
        ], 
        [
            83, 
            191, 
            821, 
            32
        ], 
        [
            361, 
            224, 
            551, 
            33
        ], 
        [
            105, 
            262, 
            798, 
            30
        ], 
        [
            58, 
            294, 
            845, 
            33
        ], 
        [
            119, 
            328, 
            794, 
            33
        ], 
        [
            55, 
            363, 
            849, 
            33
        ], 
        [
            66, 
            400, 
            838, 
            30
        ], 
        [
            637, 
            435, 
            276, 
            26
        ], 
        [
            364, 
            469, 
            539, 
            27
        ]
    ], 
    "image_height": 540, 
    "image_width": 959, 
    "transcription": [
        "u0633_u064a_u062f u0020 u0632_u064a_u0646 u0020 u0627_u0644_u062f_u064a_u0646 u0020 u0627_u0633_u0645_u0627_u0639_u064a_u0644 u0020 u0628_u0646 u0020 u0645_u062d_u0645_u062f u0020 u062c_u0631_u062c_u0627_u0646_u064a u0020 u0028_u0645 u0020 u0035_u0033_u0030_u0029 u0020 u064a_u0643_u064a u0020 u062f_u064a_u06af_u0631 u0020 u0627_u0632 u0020 u067e_u0632_u0634_u0643_u0627_u0646 u0020 u0628_u0632_u0631_u06af_u0020", 
        "u0627_u0648_u0627_u064a_u0644 u0020 u0633_u062f_u0647 u0020 u0634_u0634_u0645 u0020 u0647_u062c_u0631_u064a u0020 u0627_u0633_u062a_u002e u0020 u0648_u064a u0020 u0646_u0632_u062f u0020 u067e_u0627_u062f_u0634_u0627_u0647_u0627_u0646 u0020 u062e_u0648_u0627_u0631_u0632_u0645_u0634_u0627_u0647_u064a_u060c u0020 u0645_u0639_u0632_u0632 u0020 u0648 u0020 u0645_u062d_u062a_u0631_u0645_u0020", 
        "u0628_u0648_u062f_u0647 u0020 u0648 u0020 u0643_u062a_u0627_u0628 u0020 u0630_u062e_u064a_u0631_u0647 u0020 u062e_u0648_u0627_u0631_u0632_u0645_u0634_u0627_u0647_u064a u0020 u0631_u0627 u0020 u0628_u0647 u0020 u0646_u0627_u0645 u0020 u0642_u0637_u0628 u0020 u0627_u0644_u062f_u0628_u0646 u0020 u0645_u062d_u0645_u062f u0020 u0628_u0646 u0020 u0643_u0648_u0634_u062a_u0643_u064a_u0646_u060c u0020 u0646_u062e_u0633_u062a_u064a_u0646_u0020", 
        "u067e_u0627_u062f_u0634_u0627_u0647 u0020 u062e_u0648_u0627_u0631_u0632_u0645_u0634_u0627_u0647 u0020 u062a_u0627_u0644_u064a_u0641 u0020 u0646_u0645_u0648_u062f u0020 u0648 u0020 u067e_u0633 u0020 u0627_u0632 u0020 u0622_u0646 u0020 u0628_u0647 u0020 u0645_u0631_u0648 u0020 u0645_u0633_u0627_u0641_u0631_u062a u0020 u0643_u0631_u062f_u002e u0020 u0633_u0644_u0637_u0627_u0646 u0020 u0633_u0646_u062c_u0631_u0020", 
        "u0645_u0642_u062f_u0645_u0634 u0020 u0631_u0627 u0020 u06af_u0631_u0627_u0645_u064a u0020 u062f_u0627_u0634_u062a u0020 u0648 u0020 u062a_u0627 u0020 u067e_u0627_u064a_u0627_u0646 u0020 u0632_u0646_u062f_u06af_u064a u0020 u062f_u0631 u0020 u0645_u0631_u0648 u0020 u0645_u0634_u063a_u0648_u0644 u0020 u062a_u0639_u0644_u064a_u0645 u0020 u0648 u0020 u062a_u0639_u0644_u0645 u0020 u0628_u0648_u062f u0020 u0648 u0020 u062f_u0631_u0020", 
        "u0633_u0627_u0644 u0020 u0035_u0033_u0030 u0020 u0642 u0020 u062f_u0631 u0020 u06af_u0630_u0634_u062a_u002e u0020 u0648_u064a u0020 u062f_u0631_u0628_u0627_u0631_u0647 u0020 u0686_u0634_u0645 u0020 u0645_u064a u0020 u0646_u0648_u064a_u0633_u062f_u003a_u00a0_u000b", 
        "u0028_u0028_u0627_u062c_u0632_u0627_u064a u0020 u0686_u0634_u0645 u0020 u063a_u0634_u0627_u0621 u0020 u0627_u0633_u062a u0020 u0648 u0020 u0639_u0635_u064a u0020 u0648 u0020 u0637_u0628_u0642_u0627_u062a u0020 u0648 u0020 u0631_u0637_u0648_u0628_u062a u0020 u0648 u0020 u0639_u0636_u0644_u0627_u062a u0020 u0648 u0020 u0627_u0648_u0631_u062f_u0647 u0020 u0648_u0020", 
        "u0634_u0631_u0627_u0626_u064a_u0646_u002e u0020 u0627_u0645_u0627 u0020 u0639_u0635_u0628 u0020 u062f_u0648 u0020 u0627_u0633_u062a_u003a_u064a_u0643_u064a u0020 u0627_u0632 u0020 u0628_u0647_u0631 u0020 u062d_u0633 u0020 u0627_u0633_u062a u0020 u0648 u0020 u0622_u0646 u0020 u0631_u0627 u0020 u0639_u0635_u0628 u0020 u0645_u062c_u0648_u0641 u0020 u06af_u0648_u064a_u0646_u062f u0020 u0648_u0020", 
        "u062f_u064a_u06af_u0631_u064a u0020 u0627_u0632 u0020 u0628_u0647_u0631 u0020 u062d_u0631_u0643_u062a u0020 u0627_u0633_u062a u0020 u0648 u0020 u062a_u0634_u0631_u064a_u062d u0020 u0647_u0631 u0020 u062f_u0648 u0020 u0627_u0646_u062f_u0631 u0020 u062a_u0634_u0631_u064a_u062d u0020 u064a_u0627_u062f u0020 u0643_u0631_u062f_u0647 u0020 u0622_u0645_u062f_u0647 u0020 u0627_u0633_u062a_u002e_u00a0_u000b", 
        "u0648 u0020 u063a_u0634_u0627 u0020 u0646_u064a_u0632 u0020 u062f_u0648 u0020 u0646_u0648_u0639 u0020 u0627_u0633_u062a_u003a_u064a_u0643_u064a u0020 u063a_u0634_u0627_u0621 u0020 u0635_u0644_u0628 u0020 u0627_u0633_u062a u0020 u0648 u0020 u062f_u064a_u06af_u0631_u064a u0020 u063a_u0634_u0627_u0621 u0020 u0631_u0642_u064a_u0642 u0020 u0648 u0020 u0647_u0631 u0020 u0639_u0635_u0628_u064a_u0020", 
        "u0643_u0647 u0020 u0627_u0632 u0020 u062f_u0645_u0627_u063a u0020 u0648 u0020 u0646_u062e_u0627_u0639 u0020 u0631_u0633_u062a_u0647 u0020 u0627_u0633_u062a u0020 u0628_u062f_u064a_u0646 u0020 u062f_u0648 u0020 u063a_u0634_u0627_u0621 u0020 u0635_u0644_u0628 u0020 u0645_u0645_u0627_u0633 u0020 u0627_u0633_u062a_u062e_u0648_u0627_u0646 u0020 u0627_u0633_u062a u0020 u0648 u0020 u063a_u0634_u0627_u0621_u0020", 
        "u0631_u0642_u064a_u0642 u0020 u0645_u0645_u0627_u0633 u0020 u0639_u0635_u0628 u0020 u0627_u0633_u062a_u002e_u00a0_u000b", 
        "u0648 u0020 u0631_u0637_u0648_u0628_u062a u0020 u0633_u0647 u0020 u0627_u0633_u062a_u003a_u0632_u062c_u0627_u062c_u0647_u060c u0020 u062c_u0644_u064a_u062f_u064a_u0647_u060c u0020 u0648 u0020 u0628_u064a_u0636_u064a_u0647 u0020 u0648 u0020 u063a_u064a_u0631_u0647"
    ]
}