{
    "bounding_box": [
        [
            194, 
            45, 
            319, 
            37
        ], 
        [
            235, 
            121, 
            239, 
            31
        ], 
        [
            186, 
            171, 
            347, 
            21
        ]
    ], 
    "image_height": 540, 
    "image_width": 720, 
    "transcription": [
        "u0637_u0631_u0642 u0020 u0627_u0644_u0627_u0633_u062a_u064a_u0644_u0627_u062f u0020 u0627_u0644_u062d_u062f_u064a_u062b_u0629_u000b", 
        "u0627_u0644_u0645_u0633_u0627_u0639_u062f_u0629 u0020 u0639_u0644_u0649 u0020 u0627_u0644_u0625_u0646_u062c_u0627_u0628_u000d", 
        "u0041_u0053_u0053_u0049_u0053_u0054_u0045_u0044 u0020 u0052_u0045_u0050_u0052_u004f_u0044_u0055_u0043_u0054_u0049_u004f_u004e"
    ]
}