{
    "bounding_box": [
        [
            271, 
            200, 
            153, 
            50
        ], 
        [
            281, 
            278, 
            148, 
            54
        ], 
        [
            279, 
            507, 
            151, 
            15
        ]
    ], 
    "image_height": 540, 
    "image_width": 720, 
    "transcription": [
        "u0627_u0644_u062d_u0644_u0642_u064a_u0629_u000d", 
        "u0043_u0079_u0063_u006c_u0065", 
        "u062f_u002e u0020 u062a_u063a_u0631_u064a_u062f u0020 u0639_u0628_u062f u0020 u0627_u0644_u0641_u062a_u0627_u062d u0020 u0627_u0644_u0631_u062d_u064a_u0644_u064a"
    ]
}