{
    "bounding_box": [
        [
            75, 
            69, 
            615, 
            23
        ], 
        [
            342, 
            95, 
            74, 
            17
        ], 
        [
            257, 
            192, 
            409, 
            21
        ], 
        [
            73, 
            223, 
            580, 
            18
        ], 
        [
            73, 
            247, 
            580, 
            18
        ], 
        [
            73, 
            270, 
            580, 
            20
        ], 
        [
            73, 
            295, 
            580, 
            19
        ], 
        [
            73, 
            319, 
            580, 
            19
        ], 
        [
            273, 
            343, 
            380, 
            18
        ], 
        [
            73, 
            402, 
            580, 
            16
        ], 
        [
            73, 
            424, 
            580, 
            19
        ], 
        [
            73, 
            449, 
            580, 
            18
        ], 
        [
            73, 
            472, 
            580, 
            19
        ], 
        [
            573, 
            499, 
            80, 
            14
        ]
    ], 
    "image_height": 540, 
    "image_width": 720, 
    "transcription": [
        "u062a_u0647_u06cc_u0647 u0020 u0628_u0627_u0646_u06a9 u0020 u0627_u0637_u0644_u0627_u0639_u0627_u062a_u06cc u0020 u0622_u0645_u0648_u0632_u0634_u06cc u0020 u0648 u0020 u067e_u0698_u0648_u0647_u0634_u06cc u0020 u0628_u06cc_u0645_u0627_u0631_u0633_u062a_u0627_u0646 u0020 u0647_u0627_u06cc u0020 u0627_u0633_u062a_u0627_u0646 u0020 u062f_u0631 u0020 u0633_u0637_u062d u0020 u0633_u062a_u0627_u062f_u0020", 
        "u062f_u0627_u0646_u0634_u06af_u0627_u0647 u0020 u000b", 
        "u062f_u0631 u0020 u062e_u0635_u0648_u0635 u0020 u0645_u0648_u0636_u0648_u0639 u0020 u0641_u0648_u0642 u0020 u0627_u0644_u0630_u06a9_u0631 u0020 u0627_u0647_u062f_u0627_u0641 u0020 u0632_u06cc_u0631 u0020 u062c_u0633_u062a_u062c_u0648 u0020 u0645_u06cc u0020 u06af_u0631_u062f_u062f u0020 u003a_u000d", 
        "u0627_u0646_u062c_u0627_u0645 u0020 u0628_u0631_u062e_u06cc u0020 u0627_u0632 u0020 u067e_u0698_u0648_u0647_u0634 u0020 u0647_u0627 u0020 u0645_u0633_u062a_u0644_u0632_u0645 u0020 u062f_u0633_u062a_u0631_u0633_u06cc u0020 u0628_u0647 u0020 u0645_u0646_u0627_u0628_u0639 u0020 u0627_u0637_u0644_u0627_u0639_u0627_u062a_u06cc u0020 u0645_u0639_u062a_u0628_u0631 u0020 u062f_u0631_u0633_u0637_u062d u0020 u0628_u06cc_u0645_u0627_u0631_u0633_u062a_u0627_u0646_u0020", 
        "u0647_u0627 u0020 u0627_u0633_u062a u0020 u002e u0020 u062f_u0631 u0020 u0627_u0628_u062a_u062f_u0627 u0020 u0636_u0631_u0648_u0631_u06cc u0020 u0627_u0633_u062a u0020 u0645_u0634_u062e_u0635 u0020 u0634_u0648_u062f u0020 u0686_u0647 u0020 u0627_u0637_u0644_u0627_u0639_u0627_u062a u0020 u0648 u0020 u0634_u0627_u062e_u0635 u0020 u0647_u0627_u06cc_u06cc u0020 u062f_u0631_u0020", 
        "u0628_u06cc_u0645_u0627_u0631_u0633_u062a_u0627_u0646 u0020 u062c_u0645_u0639 u0020 u0622_u0648_u0631_u06cc u0020 u0645_u06cc u0020 u06af_u0631_u062f_u062f_u060c u0020 u0645_u0633_u0626_u0648_u0644 u0020 u0645_u0633_u062a_u0642_u06cc_u0645 u0020 u062c_u0645_u0639 u0020 u0622_u0648_u0631_u06cc u0020 u0627_u0637_u0644_u0627_u0639_u0627_u062a u0020 u06a9_u06cc_u0633_u062a_u061f_u060c u0020 u0645_u0646_u0628_u0639 u0020 u062c_u0645_u0639_u0020", 
        "u0622_u0648_u0631_u06cc u0020 u062f_u0627_u062f_u0647 u0020 u0647_u0627 u0020 u062f_u0631 u0020 u06a9_u062c_u0627_u0633_u062a u0020 u061f u0020 u0647_u062f_u0641 u0020 u0627_u0635_u0644_u06cc u0020 u0627_u0632 u0020 u0627_u06cc_u0646 u0020 u0628_u062e_u0634 u0020 u06a9_u0646_u062a_u0631_u0644 u0020 u0631_u0648_u0646_u062f u0020 u0635_u062d_u06cc_u062d u0020 u062c_u0645_u0639 u0020 u0622_u0648_u0631_u06cc u0020 u060c u0020 u062b_u0628_u062a_u0020", 
        "u0648 u0020 u062a_u062d_u0644_u06cc_u0644 u0020 u062f_u0627_u062f_u0647 u0020 u0647_u0627_u06cc u0020 u0622_u0645_u0627_u0631_u06cc u0020 u0627_u0633_u062a_u002e u0020 u0627_u06cc_u0646 u0020 u0645_u0648_u0636_u0648_u0639 u0020 u0628_u0647 u0020 u0627_u0639_u062a_u0628_u0627_u0631 u0020 u062f_u0627_u062f_u0647 u0020 u0647_u0627_u06cc_u06cc u0020 u06a9_u0647 u0020 u062f_u0631 u0020 u0646_u0647_u0627_u06cc_u062a u0020 u0645_u0628_u0646_u0627_u06cc_u0020", 
        "u067e_u0698_u0648_u0647_u0634 u0020 u0647_u0627_u06cc u0020 u0628_u06cc_u0645_u0627_u0631_u0633_u062a_u0627_u0646_u06cc u0020 u0631_u0627 u0020 u062a_u0634_u06a9_u06cc_u0644 u0020 u0645_u06cc u0020 u062f_u0647_u0646_u062f u0020 u062e_u0648_u0627_u0647_u062f u0020 u0627_u0641_u0632_u0648_u062f u0020 u061b_u000d", 
        "u062f_u0631 u0020 u0628_u06cc_u0645_u0627_u0631_u0633_u062a_u0627_u0646 u0020 u0647_u0627 u0020 u0645_u0633_u062a_u0646_u062f_u0627_u062a u0020 u0639_u0644_u0645_u06cc u0020 u062f_u0631 u0020 u0645_u0648_u0636_u0648_u0639_u0627_u062a u0020 u0645_u062e_u062a_u0644_u0641 u0020 u062a_u0647_u06cc_u0647 u0020 u0648 u0020 u062a_u062f_u0648_u06cc_u0646 u0020 u0645_u06cc u0020 u0634_u0648_u062f u0020 u06a9_u0647 u0020 u0628_u0647 u0020 u0637_u0648_u0631_u0020", 
        "u0645_u0646_u0633_u062c_u0645 u0020 u0648 u0020 u0645_u0646_u0638_u0645 u0020 u062c_u0647_u062a u0020 u0627_u0633_u062a_u0641_u0627_u062f_u0647 u0020 u0648 u0020 u0627_u0631_u0627_u0626_u0647 u0020 u0628_u0647 u0020 u06af_u0631_u0648_u0647 u0020 u0647_u0627_u06cc u0020 u0647_u062f_u0641 u0020 u0633_u0627_u0632_u0645_u0627_u0646_u062f_u0647_u06cc u0020 u0646_u0645_u06cc u0020 u06af_u0631_u062f_u062f u0020 u002e u0020 u062f_u0631 u0020 u0646_u0638_u0631_u0020", 
        "u062f_u0627_u0631_u06cc_u0645 u0020 u0627_u0628_u062a_u062f_u0627 u0020 u0020_u0645_u0633_u062a_u0646_u062f_u0627_u062a u0020 u062a_u0647_u06cc_u0647 u0020 u0634_u062f_u0647 u0020 u0631_u0627 u0020 u0634_u0646_u0627_u0633_u0627_u06cc_u06cc u0020 u06a9_u0646_u06cc_u0645 u0020 u060c u0020 u067e_u0633 u0020 u0627_u0632 u0020 u062a_u0623_u06cc_u06cc_u062f u0020 u0646_u0638_u0631_u0627_u062a u0020 u0635_u0627_u062d_u0628_u0646_u0638_u0631_u0627_u0646 u0020 u0648_u0020", 
        "u067e_u0631_u062f_u0627_u0632_u0634 u0020 u0646_u0647_u0627_u06cc_u06cc u0020 u0645_u0633_u062a_u0646_u062f_u0627_u062a u0020 u062a_u0647_u06cc_u0647 u0020 u0634_u062f_u0647 u0020 u0628_u0647 u0020 u0637_u0631_u0642 u0020 u0645_u062e_u062a_u0644_u0641 u0020 u0627_u0632 u0020 u0642_u0628_u06cc_u0644 u0020 u062a_u0647_u06cc_u0647 u0020 u06af_u0627_u0647_u0646_u0627_u0645_u0647 u0020 u0628_u0647 u0020 u0646_u0634_u0631 u0020 u0627_u0637_u0644_u0627_u0639_u0627_u062a_u0020", 
        "u06a9_u0645_u06a9 u0020 u06a9_u0646_u06cc_u0645_u002e u0020 u0020"
    ]
}