{
    "bounding_box": [
        [
            369, 
            27, 
            306, 
            34
        ], 
        [
            246, 
            119, 
            408, 
            40
        ], 
        [
            134, 
            172, 
            520, 
            38
        ], 
        [
            143, 
            226, 
            511, 
            38
        ], 
        [
            470, 
            289, 
            184, 
            39
        ], 
        [
            191, 
            345, 
            464, 
            40
        ]
    ], 
    "image_height": 540, 
    "image_width": 720, 
    "transcription": [
        "u0032_u002d u0020 u0645_u0642_u0627_u064a_u064a_u0633 u0020 u0627_u0644_u0631_u062a_u0628_u0629_u003a_u000b", 
        "u0646_u0633_u062a_u062e_u062f_u0645 u0020 u0647_u0646_u0627 u0020 u0639_u0645_u0644_u064a_u0629 u0020 u0627_u0644_u062a_u0631_u062a_u064a_u0628 u0020 u0641_u0642_u0637 u0020 u000d", 
        "u0628_u062f_u0648_u0646 u0020 u0645_u0639_u0631_u0641_u0629 u0020 u0627_u0644_u0645_u0633_u0627_u0641_u0629 u0020 u0627_u0644_u0641_u0627_u0635_u0644_u0629 u0020 u0628_u064a_u0646 u0020 u0627_u0644_u0631_u062a_u0628 u0020 u000d", 
        "u062a_u062d_u0643_u0645_u0647 u0020 u0639_u0644_u0627_u0642_u0629 u0020 u0623_u0643_u0628_u0631 u0020 u0645_u0646 u0020 u0623_u0648 u0020 u0623_u0635_u063a_u0631 u0020 u0645_u0646_u003e u0020 u0020_u003c_u000d", 
        "u0643_u0645 u0020 u0628_u062f_u0648_u0646 u0020 u0639_u062f_u062f u0020 u000d", 
        "u0645_u062b_u0627_u0644_u003a u0020 u0627_u0644_u0639_u0645_u0631 u0020 u0627_u0644_u0642_u0627_u0639_u062f_u064a_u060c u0020 u0633_u0642_u0641 u0020 u0627_u0644_u0627_u062e_u062a_u0628_u0627_u0631_u0020"
    ]
}