{
    "bounding_box": [
        [
            203, 
            50, 
            312, 
            41
        ], 
        [
            511, 
            182, 
            129, 
            16
        ], 
        [
            501, 
            205, 
            159, 
            17
        ], 
        [
            482, 
            224, 
            178, 
            20
        ], 
        [
            485, 
            248, 
            174, 
            18
        ], 
        [
            595, 
            270, 
            78, 
            16
        ], 
        [
            556, 
            291, 
            104, 
            16
        ], 
        [
            273, 
            180, 
            145, 
            19
        ], 
        [
            344, 
            204, 
            91, 
            16
        ], 
        [
            354, 
            225, 
            81, 
            17
        ], 
        [
            261, 
            248, 
            174, 
            17
        ], 
        [
            274, 
            268, 
            161, 
            19
        ], 
        [
            289, 
            290, 
            146, 
            18
        ], 
        [
            332, 
            312, 
            115, 
            17
        ], 
        [
            292, 
            333, 
            143, 
            17
        ], 
        [
            401, 
            358, 
            46, 
            15
        ], 
        [
            103, 
            179, 
            101, 
            20
        ], 
        [
            94, 
            204, 
            129, 
            18
        ], 
        [
            105, 
            224, 
            117, 
            20
        ], 
        [
            97, 
            247, 
            126, 
            18
        ], 
        [
            103, 
            268, 
            119, 
            18
        ], 
        [
            113, 
            294, 
            110, 
            15
        ]
    ], 
    "image_height": 540, 
    "image_width": 720, 
    "transcription": [
        "u0627_u0644_u0645_u0624_u062b_u0631_u0627_u062a u0020 u0639_u0644_u064a u0020 u0627_u0644_u0625_u062f_u0631_u0627_u0643", 
        "u062e_u0635_u0627_u0626_u0635 u0020 u0645_u0646 u0020 u0646_u062f_u0631_u0643_u0647_u000d", 
        "u0645_u0638_u0647_u0631 u0020 u0627_u0644_u0634_u062e_u0635 u0020 u0627_u0644_u0630_u064a u0020 u0646_u062f_u0631_u0643_u0647_u000d", 
        "u062f_u0631_u062c_u0629 u0020 u0627_u0644_u062a_u0639_u0644_u064a_u0645 u0020 u0648_u0627_u0644_u0645_u0631_u0643_u0632 u0020 u0627_u0644_u0648_u0638_u064a_u0641_u064a_u000d", 
        "u0627_u0644_u0645_u0631_u0643_u0632 u0020 u0627_u0644_u0627_u062c_u062a_u0645_u0627_u0639_u064a u0020 u0627_u0644_u0630_u064a u0020 u064a_u0646_u062a_u0645_u064a_u0020", 
        "u0625_u0644_u064a_u0647 u0020 u0627_u0644_u0634_u062e_u0635_u000d", 
        "u062f_u0631_u062c_u0629 u0020 u0627_u0644_u062a_u0634_u0627_u0628_u0647 u0020 u0645_u0639_u0646_u0627", 
        "u062e_u0635_u0627_u0626_u0635 u0020 u0645_u0648_u062c_u0648_u062f_u0629 u0020 u0641_u064a_u0646_u0627_u000d", 
        "u0633_u0644_u0627_u0645_u0629 u0020 u0627_u0644_u062d_u0648_u0627_u0633_u000d", 
        "u062f_u0631_u062c_u0629 u0020 u0627_u0646_u062a_u0628_u0627_u0647_u0646_u0627_u000d", 
        "u062f_u0631_u062c_u0629 u0020 u0648_u0639_u064a_u0646_u0627 u0020 u0628_u0627_u0644_u0642_u064a_u0645 u0020 u0627_u0644_u0627_u062c_u062a_u0645_u0627_u0639_u064a_u0629_u000d", 
        "u062f_u0631_u062c_u0629 u0020 u0631_u0642_u064a u0020 u0627_u0644_u0639_u0645_u0644_u064a_u0627_u062a u0020 u0627_u0644_u0630_u0647_u0646_u064a_u0629_u000d", 
        "u062f_u0631_u062c_u0629 u0020 u062d_u0633_u0627_u0633_u064a_u062a_u0646_u0627 u0020 u0644_u0644_u0639_u0644_u0627_u0642_u0627_u062a_u0020", 
        "u0627_u0644_u0634_u062e_u0635_u064a_u0629 u0020 u0648_u0627_u0644_u0625_u062f_u0627_u0631_u064a_u0629_u000d", 
        "u062f_u0631_u062c_u0629 u0020 u0645_u0631_u0648_u0646_u062a_u0646_u0627 u0020 u0644_u0644_u0645_u0639_u062a_u0642_u062f_u0627_u062a_u0020", 
        "u0648_u0627_u0644_u062a_u0642_u0627_u0644_u064a_u062f", 
        "u062e_u0635_u0627_u0626_u0635 u0020 u0627_u0644_u0628_u064a_u0626_u0629_u000d", 
        "u062a_u0624_u062b_u0631 u0020 u0627_u0644_u0628_u064a_u0626_u0629 u0020 u0641_u064a u0020 u0625_u062f_u0631_u0627_u0643_u0646_u0627_u0020", 
        "u062d_u064a_u062b u0020 u062a_u0623_u062a_u064a u0020 u0645_u0639_u0644_u0648_u0645_u0627_u062a_u0646_u0627_u0020", 
        "u0639_u0646 u0020 u0627_u0644_u0622_u062e_u0631_u064a_u0646 u0020 u0645_u062e_u0644_u0648_u0637_u0629_u0020", 
        "u0628_u0645_u0639_u0644_u0648_u0645_u0627_u062a u0020 u0639_u0646 u0020 u0627_u0644_u0628_u064a_u0626_u0629_u0020", 
        "u0627_u0644_u062a_u064a u0020 u0633_u0627_u064a_u0631_u062a u0020 u0625_u062f_u0631_u0627_u0643_u0646_u0627"
    ]
}