{
    "bounding_box": [
        [
            177, 
            127, 
            504, 
            33
        ], 
        [
            27, 
            164, 
            627, 
            38
        ], 
        [
            14, 
            203, 
            640, 
            33
        ], 
        [
            457, 
            238, 
            197, 
            30
        ], 
        [
            16, 
            281, 
            638, 
            33
        ], 
        [
            65, 
            315, 
            589, 
            33
        ], 
        [
            51, 
            349, 
            602, 
            33
        ], 
        [
            502, 
            385, 
            152, 
            29
        ], 
        [
            54, 
            427, 
            599, 
            33
        ], 
        [
            36, 
            462, 
            618, 
            32
        ], 
        [
            77, 
            495, 
            576, 
            33
        ], 
        [
            221, 
            50, 
            290, 
            57
        ], 
        [
            61, 
            500, 
            15, 
            10
        ]
    ], 
    "image_height": 540, 
    "image_width": 720, 
    "transcription": [
        "u0627_u0644_u0647_u0646_u062f_u0633_u0629 u0020 u0627_u0644_u0627_u062c_u062a_u0645_u0627_u0639_u064a_u0629 u0020 u0053_u006f_u0063_u0069_u0061_u006c u0020 u0045_u006e_u0067_u0069_u006e_u0065_u0065_u0072_u0069_u006e_u0067_u000d", 
        "u0627_u0644_u0647_u0646_u062f_u0633_u0629 u0020 u0627_u0644_u0627_u062c_u062a_u0645_u0627_u0639_u064a_u0629 u0020 u0647_u064a u0020 u0648_u0633_u064a_u0644_u0629 u0020 u062a_u0645_u0643_u0646 u0020 u0627_u0644_u0645_u062e_u062a_u0631_u0642_u064a_u0646 u0020 u0645_u0646 u0020 u0627_u0644_u062d_u0635_u0648_u0644_u0020", 
        "u0639_u0644_u0649 u0020 u0645_u0639_u0644_u0648_u0645_u0627_u062a u0020 u0633_u0631_u064a_u0629 u0020 u0645_u0646 u0020 u0645_u0633_u062a_u062e_u062f_u0645_u064a u0020 u0634_u0628_u0643_u0629 u0020 u0645_u0639_u064a_u0646_u0629 u0020 u0623_u0648 u0020 u0645_u0648_u0642_u0639 u0020 u0645_u0639_u064a_u0646_u0020", 
        "u0628_u0637_u0631_u064a_u0642_u0629 u0020 u063a_u064a_u0631 u0020 u062a_u0642_u0646_u064a_u0629_u002e_u000d", 
        "u064a_u0645_u0643_u0646 u0020 u0644_u0645_u062e_u062a_u0631_u0642 u0020 u0641_u064a u0020 u0625_u062d_u062f_u0649 u0020 u0627_u0644_u0634_u0631_u0643_u0627_u062a u0020 u0639_u0644_u0649 u0020 u0633_u0628_u064a_u0644 u0020 u0627_u0644_u0645_u062b_u0627_u0644 u0020 u0623_u0646 u0020 u064a_u062a_u0638_u0627_u0647_u0631_u0020", 
        "u0628_u0623_u0646_u0647 u0020 u0623_u062d_u062f u0020 u0645_u0648_u0638_u0641 u0020 u062f_u0639_u0645 u0020 u0641_u0646_u064a u0020 u0648_u064a_u0637_u0644_u0628 u0020 u0645_u0646 u0020 u0645_u0648_u0638_u0641_u064a u0020 u0647_u0630_u0647 u0020 u0627_u0644_u0634_u0631_u0643_u0629_u0020", 
        "u062a_u0632_u0648_u064a_u062f_u0647 u0020 u0628_u0643_u0644_u0645_u0629 u0020 u0627_u0644_u0633_u0631 u0020 u0627_u0644_u062e_u0627_u0635_u0629 u0020 u0628_u0647_u0645 u0020 u0644_u0644_u062f_u062e_u0648_u0644 u0020 u0625_u0644_u0649 u0020 u062d_u0633_u0627_u0628_u0627_u062a_u0647_u0645 u0020 u0639_u0644_u0649_u0020", 
        "u0634_u0628_u0643_u0629 u0020 u0627_u0644_u0634_u0631_u0643_u0629_u002e_u000d", 
        "u0643_u0630_u0644_u0643 u0020 u064a_u0645_u0643_u0646 u0020 u0623_u0646 u0020 u064a_u062a_u0645 u0020 u0627_u0633_u062a_u062e_u062f_u0627_u0645 u0020 u0645_u0648_u0627_u0642_u0639 u0020 u0627_u0644_u0634_u0628_u0643_u0627_u062a u0020 u0627_u0644_u0627_u062c_u062a_u0645_u0627_u0639_u064a_u0629 u0020 u0645_u062b_u0644_u0020", 
        "u062a_u0648_u064a_u062a_u0631 u0020 u0648_u0641_u064a_u0633_u0628_u0648_u0643 u0020 u0623_u0648 u0020 u0633_u0627_u062d_u0627_u062a u0020 u0627_u0644_u062f_u0631_u062f_u0634_u0629 u0020 u0644_u0644_u062f_u062e_u0648_u0644 u0020 u0641_u064a u0020 u0645_u062d_u0627_u062f_u062b_u0627_u062a u0020 u0645_u0639_u0020", 
        "u0645_u0633_u062a_u062e_u062f_u0645_u064a_u0646 u0020 u0645_u0639_u064a_u0646_u064a_u0646 u0020 u0645_u0646 u0020 u0623_u062c_u0644 u0020 u0623_u062e_u0637 u0020 u0645_u0639_u0644_u0648_u0645_u0627_u062a u0020 u0634_u062e_u0635_u064a_u0629 u0020 u0645_u0646_u0647_u0645_u002e", 
        "u0647_u062c_u0645_u0627_u062a u0020 u0627_u0644_u0623_u0639_u062f_u0627_u0621", 
        "u0037_u0039"
    ]
}