{
    "bounding_box": [
        [
            263, 
            48, 
            413, 
            22
        ], 
        [
            13, 
            96, 
            663, 
            22
        ], 
        [
            185, 
            120, 
            491, 
            20
        ], 
        [
            13, 
            168, 
            663, 
            22
        ], 
        [
            529, 
            194, 
            147, 
            20
        ], 
        [
            13, 
            240, 
            663, 
            22
        ], 
        [
            537, 
            266, 
            139, 
            20
        ], 
        [
            13, 
            312, 
            663, 
            22
        ], 
        [
            350, 
            336, 
            326, 
            20
        ], 
        [
            664, 
            513, 
            12, 
            6
        ]
    ], 
    "image_height": 540, 
    "image_width": 720, 
    "transcription": [
        "u062b_u0627_u0646_u064a_u0627_u002e u0020 u0627_u0644_u0623_u0633_u0648_u0627_u0642 u0020 u0627_u0644_u0625_u0644_u0643_u062a_u0631_u0648_u0646_u064a_u0629 u0020 u0641_u064a u0020 u0627_u0644_u062a_u062c_u0627_u0631_u0629 u0020 u0627_u0644_u0625_u0644_u0643_u062a_u0631_u0648_u0646_u064a_u0629 u0020 u0628_u064a_u0646 u0020 u0627_u0644_u0645_u0646_u0638_u0645_u0627_u062a_u003a_u000d", 
        "u0031_u002f u0020 u0627_u0644_u0623_u0633_u0648_u0627_u0642 u0020 u0627_u0644_u0625_u0644_u0643_u062a_u0631_u0648_u0646_u064a_u0629 u0020 u0627_u0644_u0639_u0627_u0645_u0629 u0020 u003a_u0050_u0075_u0062_u006c_u0069_u0063 u0020 u0045_u002d_u004d_u0061_u0072_u006b_u0065_u0074_u0070_u006c_u0061_u0063_u0065 u0020 u062a_u0643_u0648_u0646 u0020 u0645_u0645_u0644_u0648_u0643_u0629 u0020 u0644_u062c_u0647_u0629 u0020 u062b_u0627_u0644_u062b_u0629 u0020 u0648_u062a_u062a_u0636_u0645_u0646 u0020 u0639_u062f_u062f u0020 u0643_u0628_u064a_u0631_u0020", 
        "u0645_u0646 u0020 u0645_u0646 u0020 u0627_u0644_u0645_u0634_u062a_u0631_u064a_u0646 u0020 u0648_u0627_u0644_u0628_u0627_u0626_u0639_u064a_u0646 u0020 u0648_u062a_u0633_u0645_u0649 u0020 u0623_u064a_u0636_u0627 u0020 u0623_u0633_u0648_u0627_u0642 u0020 u0627_u0644_u062a_u0628_u0627_u062f_u0644 u0020 u0648_u062a_u0643_u0648_u0646 u0020 u0645_u0641_u062a_u0648_u062d_u0629 u0020 u0644_u0644_u0639_u0645_u0648_u0645_u002e_u000d", 
        "u0032_u002f u0020 u0627_u0644_u0623_u0633_u0648_u0627_u0642 u0020 u0627_u0644_u0625_u0644_u0643_u062a_u0631_u0648_u0646_u064a_u0629 u0020 u0627_u0644_u062e_u0627_u0635_u0629 u0020 u003a_u0050_u0072_u0069_u0076_u0061_u0074_u0065 u0020 u0045_u002d_u004d_u0061_u0072_u006b_u0065_u0074_u0070_u006c_u0061_u0063_u0065 u0020 u062a_u0645_u0644_u0643_u0647_u0627 u0020 u0634_u0631_u0643_u0629 u0020 u0648_u0627_u062d_u062f_u0629 u0020 u0648_u0647_u064a u0020 u0646_u0648_u0639_u0627_u0646_u003a u0020 u0633_u0648_u0642_u0020", 
        "u0627_u0644_u0628_u0627_u0626_u0639 u0020 u0648_u0633_u0648_u0642 u0020 u0627_u0644_u0645_u0634_u062a_u0631_u064a_u002e_u000d", 
        "u0033_u002f u0020 u0627_u0644_u0627_u062a_u062d_u0627_u062f_u0627_u062a u0020 u0627_u0644_u062a_u062c_u0627_u0631_u064a_u0629 u0020 u003a_u0043_u006f_u006e_u0073_u006f_u0072_u0074_u0069_u0061 u0020 u0647_u064a u0020 u0639_u0628_u0627_u0631_u0629 u0020 u0639_u0646 u0020 u0645_u062c_u0645_u0648_u0639_u0629 u0020 u0635_u063a_u064a_u0631_u0629 u0020 u0645_u0646 u0020 u0627_u0644_u0645_u0634_u062a_u0631_u064a_u0646 u0020 u064a_u0645_u0643_u0646_u0647_u0645 u0020 u0627_u0646_u0634_u0627_u0621 u0020 u062a_u062d_u0627_u0644_u0641_u0020", 
        "u0644_u0644_u062a_u0639_u0627_u0645_u0644 u0020 u0645_u0639 u0020 u0627_u0644_u0645_u0648_u0631_u062f_u064a_u0646_u002e_u000d", 
        "u0034_u002f u0020 u0627_u0644_u0628_u0648_u0627_u0628_u0627_u062a u0020 u0627_u0644_u0645_u0639_u0644_u0648_u0645_u0627_u062a_u064a_u0629 u0020 u003a_u0049_u006e_u0066_u006f_u0072_u006d_u0061_u0074_u0069_u006f_u006e u0020 u0050_u006f_u0072_u0074_u0061_u006c_u0073 u0020 u0647_u064a u0020 u0646_u0642_u0637_u0629 u0020 u062f_u062e_u0648_u0644 u0020 u064a_u0633_u062a_u062e_u062f_u0645_u0647_u0627 u0020 u0645_u062a_u0635_u0641_u062d_u0648 u0020 u0627_u0644_u0634_u0628_u0643_u0629 u0020 u0648_u062a_u0633_u0647_u0644_u0020", 
        "u0639_u0644_u064a_u0647_u0645 u0020 u0627_u0644_u0648_u0635_u0648_u0644 u0020 u0625_u0644_u0649 u0020 u0627_u0644_u0628_u064a_u0627_u0646_u0627_u062a u0020 u0623_u0648 u0020 u0627_u0644_u0645_u0639_u0644_u0648_u0645_u0627_u062a u0020 u0627_u0644_u0645_u0637_u0644_u0648_u0628_u0629_u002e_u000d", 
        "u0032_u0031"
    ]
}