{
    "bounding_box": [
        [
            265, 
            72, 
            387, 
            57
        ], 
        [
            309, 
            216, 
            343, 
            34
        ], 
        [
            256, 
            261, 
            396, 
            35
        ], 
        [
            343, 
            304, 
            309, 
            38
        ]
    ], 
    "image_height": 540, 
    "image_width": 720, 
    "transcription": [
        "u0645_u0628_u0627_u062f_u0626 u0020 u0627_u0644_u0639_u0635_u0641 u0020 u0627_u0644_u0630_u0647_u0646_u064a", 
        "u0031_u0029 u0020 u0625_u0637_u0644_u0627_u0642 u0020 u062d_u0631_u064a_u0629 u0020 u0627_u0644_u062a_u0641_u0643_u064a_u0631 u0020 u0648_u0627_u0644_u062a_u0639_u0628_u064a_u0631_u002e_u000d", 
        "u0020_u0032_u0029 u0020 u0627_u0644_u062a_u0631_u0643_u064a_u0632 u0020 u0639_u0644_u0649 u0020 u0627_u0644_u0643_u0645 u0020 u0641_u064a u0020 u0627_u0644_u0645_u0637_u0631_u0648_u062d_u0627_u062a_u002e_u000d", 
        "u0020_u0033_u0029 u0020 u0627_u0644_u0628_u0646_u0627_u0621 u0020 u0639_u0644_u0649 u0020 u0623_u0641_u0643_u0627_u0631 u0020 u0627_u0644_u0622_u062e_u0631_u064a_u0646_u002e"
    ]
}