{
    "bounding_box": [
        [
            162, 
            54, 
            505, 
            36
        ], 
        [
            67, 
            160, 
            590, 
            32
        ], 
        [
            129, 
            194, 
            529, 
            39
        ], 
        [
            384, 
            235, 
            274, 
            36
        ]
    ], 
    "image_height": 540, 
    "image_width": 720, 
    "transcription": [
        "u0031 u0020 u0640 u0020 u0627_u0644_u0643_u0634_u0641 u0020 u0627_u0644_u0645_u0641_u0635_u0644 u0020 u0644_u0644_u0645_u0648_u0638_u0641_u064a_u0646 u0020 u0627_u0644_u0625_u062f_u0627_u0631_u064a_u064a_u0646 u0020 u000b", 
        "u062a_u0645_u062b_u0644 u0020 u0647_u0630_u0647 u0020 u0627_u0644_u0648_u062b_u064a_u0642_u0629 u0020 u062c_u0627_u0646_u0628 u0020 u0627_u0644_u062a_u0623_u0637_u064a_u0631 u0020 u0641_u064a u0020 u0627_u0644_u0645_u0624_u0633_u0633_u0629 u0020 u0644_u0635_u0646_u0641_u064a u0020 u0645_u0648_u0638_u0641_u064a u0020 u0627_u0644_u0625_u062f_u0627_u0631_u0629 u0020 u000d", 
        "u0648 u0020 u0627_u0644_u0645_u0633_u062a_u062e_u062f_u0645_u064a_u0646 u0020 u0648 u0020 u0628_u0627_u0644_u062a_u0627_u0644_u064a u0020 u0641_u0647_u064a u0020 u062a_u0631_u062c_u0645_u0629 u0020 u062d_u0642_u064a_u0642_u064a_u0629 u0020 u0644_u0644_u062e_u0631_u064a_u0637_u0629 u0020 u0627_u0644_u0625_u062f_u0627_u0631_u064a_u0629_u000d", 
        "u0648 u0020 u064a_u062a_u0636_u0645_u0646 u0020 u0647_u0630_u0627 u0020 u0627_u0644_u0643_u0634_u0641 u0020 u0030_u0037 u0020 u0627_u0639_u0645_u062f_u0629"
    ]
}