{
    "bounding_box": [
        [
            271, 
            50, 
            177, 
            35
        ], 
        [
            71, 
            131, 
            578, 
            36
        ], 
        [
            577, 
            177, 
            71, 
            29
        ], 
        [
            43, 
            269, 
            617, 
            28
        ]
    ], 
    "image_height": 540, 
    "image_width": 720, 
    "transcription": [
        "u0627_u062e_u062a_u0628_u0627_u0631 u0020 u0642_u0635_u064a_u0631", 
        "u0644_u062a_u0641_u0639_u064a_u0644 u0020 u0627_u0644_u0627_u062e_u062a_u0628_u0627_u0631 u0020 u0636_u0645_u0646 u0020 u0627_u0644_u0634_u0631_u0627_u0626_u062d u0020 u064a_u0631_u062c_u0649 u0020 u0623_u0648_u0644_u0627_u064b u0020 u062a_u0646_u0632_u064a_u0644 u0020 u0627_u0644_u0628_u0631_u0646_u0627_u0645_u062c_u0020", 
        "u0627_u0644_u062a_u0627_u0644_u064a_u003a_u000d", 
        "u0068_u0074_u0074_u0070_u003a_u002f_u002f_u0077_u0077_u0077_u002e_u0067_u006c_u006f_u0062_u0066_u0078_u002e_u0063_u006f_u006d_u002f_u0064_u006f_u0077_u006e_u006c_u006f_u0061_u0064_u0073_u002f_u0073_u0077_u0066_u0070_u006c_u0061_u0079_u0065_u0072_u002f_u000d"
    ]
}