{
    "bounding_box": [
        [
            12, 
            61, 
            650, 
            48
        ], 
        [
            12, 
            113, 
            681, 
            49
        ], 
        [
            12, 
            165, 
            681, 
            50
        ], 
        [
            12, 
            221, 
            681, 
            42
        ], 
        [
            12, 
            274, 
            681, 
            46
        ], 
        [
            12, 
            328, 
            681, 
            45
        ], 
        [
            12, 
            379, 
            681, 
            47
        ], 
        [
            12, 
            432, 
            681, 
            46
        ], 
        [
            550, 
            491, 
            144, 
            39
        ]
    ], 
    "image_height": 540, 
    "image_width": 720, 
    "transcription": [
        "u0648_u064a_u062a_u0631_u0627_u0648_u062d u0020 u0639_u062f_u062f u0020 u0627_u0644_u0637_u064a_u0648_u0631 u0020 u0641_u064a u0020 u0627_u0644_u0623_u0631_u062f_u0646 u0020 u0639_u0645_u0648_u0645_u064b_u0627 u0020 u0645_u0627_u0020", 
        "u0628_u064a_u0646 u0020 u0034_u0030_u0030 u0020 u0648_u0034_u0033_u0030 u0020 u0646_u0648_u0639_u0627_u064b u0020 u0645_u0639_u0638_u0645_u0647_u0627 u0020 u0645_u0647_u0627_u062c_u0631_u0629_u060c u0020 u0648_u062a_u0645_u0651_u064e_u0020", 
        "u062a_u0633_u062c_u064a_u0644 u0020 u0032_u0030_u0039 u0020 u0637_u064a_u0648_u0631 u0020 u0641_u064a u0020 u0636_u0627_u0646_u0627 u0020 u0641_u0642_u0637 u0020 u0645_u0646_u0647_u0627 u0020 u0033_u0033_u0020", 
        "u0646_u0648_u0639_u064b_u0627 u0020 u0644_u0647_u0627 u0020 u0623_u0647_u0645_u064a_u0629 u0020 u0639_u0627_u0644_u0645_u064a_u0629 u0020 u0645_u0647_u062f_u062f_u0629 u0020 u0628_u0627_u0644_u0627_u0646_u0642_u0631_u0627_u0636_u060c_u0020", 
        "u0648_u0633_u062c_u0644_u062a u0020 u0628_u0643_u062b_u0627_u0641_u0629 u0020 u0639_u062f_u062f_u064a_u0629 u0020 u0639_u0627_u0644_u064a_u0629 u0020 u0641_u064a u0020 u0627_u0644_u0645_u062d_u0645_u064a_u0629 u0020 u0645_u0646_u0647_u0627_u003a_u002d_u0020", 
        "u0627_u0644_u0646_u0647_u0627_u0631 u0020 u0627_u0644_u0633_u0648_u0631_u064a_u060c u0020 u0648_u0627_u0644_u0639_u0648_u064a_u0633_u0642_u060c u0020 u0648_u0639_u0642_u0627_u0628 u0020 u0630_u0647_u0628_u064a_u060c_u0020", 
        "u0648_u0639_u0642_u0627_u0628 u0020 u0623_u0633_u0641_u0639_u060c u0020 u0648_u0628_u0648_u0645_u0629 u0020 u0646_u0633_u0627_u0631_u064a_u0629_u060c u0020 u0648_u0627_u0644_u0646_u0633_u0631 u0020 u0627_u0644_u0623_u0633_u0645_u0631_u060c_u0020", 
        "u0648_u0627_u0644_u062d_u0628_u0627_u0631_u0649_u060c u0020 u0648_u0647_u0627_u0632_u062c_u0629 u0020 u0627_u0644_u0634_u062c_u0631_u060c u0020 u0648_u0639_u0635_u0641_u0648_u0631 u0020 u0648_u0631_u062f_u064a_u0020", 
        "u0633_u064a_u0646_u0627_u0648_u064a_u002e u0020 u000d"
    ]
}