{
    "bounding_box": [
        [
            187, 
            68, 
            562, 
            70
        ], 
        [
            407, 
            178, 
            166, 
            57
        ], 
        [
            151, 
            243, 
            657, 
            79
        ], 
        [
            235, 
            288, 
            489, 
            77
        ]
    ], 
    "image_height": 540, 
    "image_width": 960, 
    "transcription": [
        "u0639_u0645_u0644 u0020 u0627_u0644_u0637_u0627_u0644_u0628 u0020 u003a u0020 u064a_u0648_u0633_u0641_u0020", 
        "u0631_u062c_u0628_u064a_u000b", 
        "u0627_u0644_u0635_u0641 u0020 u003a u0020 u0627_u0644_u062d_u0627_u062f_u064a u0020 u0639_u0634_u0631 u0020 u0028_u062f_u0029", 
        "u0634_u0631_u062d u0020 u0642_u0635_u064a_u062f_u0629 u0020 u0648_u0635_u0641 u0020 u0627_u0644_u0630_u0626_u0628"
    ]
}