{
    "bounding_box": [
        [
            499, 
            45, 
            159, 
            28
        ], 
        [
            63, 
            102, 
            599, 
            29
        ], 
        [
            121, 
            136, 
            541, 
            28
        ], 
        [
            72, 
            167, 
            589, 
            26
        ], 
        [
            72, 
            202, 
            590, 
            23
        ], 
        [
            348, 
            234, 
            313, 
            25
        ], 
        [
            76, 
            306, 
            586, 
            28
        ], 
        [
            121, 
            336, 
            540, 
            25
        ], 
        [
            275, 
            371, 
            386, 
            24
        ]
    ], 
    "image_height": 540, 
    "image_width": 720, 
    "transcription": [
        "u062a_u0642_u0633_u064a_u0645 u0020 u0648_u0631_u0642_u0629 u0020 u0627_u0644_u0639_u0645_u0644", 
        "u064a_u0633_u0645_u062d u0020 u0644_u0643 u0020 u0627_u0644_u0623_u0645_u0631 u0020 u0627_u0646_u0642_u0633_u0627_u0645 u0020 u0628_u0639_u0631_u0636 u0020 u0627_u0644_u0623_u062c_u0632_u0627_u0621 u0020 u0627_u0644_u0623_u0631_u0628_u0639 u0020 u0627_u0644_u0645_u062e_u062a_u0644_u0641_u0629 u0020 u0645_u0646 u0020 u0648_u0631_u0642_u0629 u0020 u0627_u0644_u0639_u0645_u0644_u0020", 
        "u0641_u064a u0020 u0646_u0641_u0633 u0020 u0627_u0644_u0648_u0642_u062a_u002e u0020 u0648_u0647_u0648 u0020 u0634_u0628_u064a_u0647 u0020 u0628_u0627_u0644_u0623_u0645_u0631 u0020 u062a_u062c_u0645_u064a_u062f_u060c u0020 u0628_u0627_u0633_u062a_u062b_u0646_u0627_u0621 u0020 u0623_u0646 u0020 u0644_u062f_u064a_u0643 u0020 u062e_u064a_u0627_u0631_u0020", 
        "u0627_u0644_u062a_u0645_u0631_u064a_u0631 u0020 u062e_u0644_u0627_u0644 u0020 u0623_u062c_u0632_u0627_u0621 u0020 u0627_u0644_u0646_u0627_u0641_u0630_u0629 u0020 u0627_u0644_u0645_u062c_u0645_u062f_u0629_u002e u0020 u0647_u0630_u0627 u0020 u0627_u0644_u0623_u0645_u0631 u0020 u0645_u0641_u064a_u062f u0020 u0625_u0630_u0627 u0020 u0643_u0627_u0646 u0020 u0644_u062f_u064a_u0643 u0020 u0639_u062f_u0629_u0020", 
        "u062c_u062f_u0627_u0648_u0644 u0020 u0645_u0646 u0020 u0627_u0644_u0628_u064a_u0627_u0646_u0627_u062a u0020 u0627_u0644_u0645_u0633_u062a_u062e_u062f_u0645_u0629 u0020 u0644_u0625_u0646_u0634_u0627_u0621 u0020 u0645_u062e_u0637_u0637_u061b u0020 u064a_u0645_u0643_u0646_u0643 u0020 u0639_u0631_u0636 u0020 u0627_u0644_u0645_u062e_u0637_u0637_u0020", 
        "u0639_u0646_u062f u0020 u062a_u0639_u062f_u064a_u0644 u0020 u0627_u0644_u0642_u064a_u0645 u0020 u0641_u064a u0020 u0628_u064a_u0627_u0646_u0627_u062a u0020 u0627_u0644_u0645_u0635_u062f_u0631_u002e u0020 u000d", 
        "u0642_u0628_u0644 u0020 u0625_u0636_u0627_u0641_u0629 u0020 u0627_u0646_u0642_u0633_u0627_u0645_u060c u0020 u0623_u0646_u0642_u0631 u0020 u0641_u064a u0020 u0623_u064a u0020 u0645_u0643_u0627_u0646 u0020 u0641_u064a u0020 u0628_u064a_u0627_u0646_u0627_u062a u0020 u0627_u0644_u0645_u0635_u062f_u0631_u002e u0020 u0633_u064a_u062a_u0645 u0020 u0625_u0636_u0627_u0641_u0629_u0020", 
        "u0627_u0646_u0642_u0633_u0627_u0645 u0020 u062d_u0648_u0644 u0020 u0647_u0630_u0647 u0020 u0627_u0644_u062e_u0644_u064a_u0629_u002e u0020 u0623_u0646_u0642_u0631 u0020 u0639_u0631_u0636 u0020 u2190 u0020 u0627_u0646_u0642_u0633_u0627_u0645_u002e u0020 u064a_u0639_u0645_u0644 u0020 u0647_u0630_u0627 u0020 u0627_u0644_u0623_u0645_u0631_u0020", 
        "u0643_u0648_u0635_u0644_u0629 u0020 u0645_u0641_u0635_u0644_u064a_u0629_u002e u0020 u0623_u0646_u0642_u0631 u0020 u0644_u0644_u062a_u0646_u0634_u064a_u0637 u0020 u002f u0020 u0639_u062f_u0645 u0020 u0627_u0644_u062a_u0646_u0634_u064a_u0637_u002e_u0020"
    ]
}