{
    "bounding_box": [
        [
            378, 
            90, 
            301, 
            22
        ], 
        [
            413, 
            138, 
            266, 
            21
        ], 
        [
            426, 
            164, 
            243, 
            18
        ], 
        [
            492, 
            188, 
            177, 
            18
        ], 
        [
            394, 
            210, 
            275, 
            22
        ], 
        [
            424, 
            234, 
            245, 
            20
        ], 
        [
            328, 
            260, 
            341, 
            20
        ], 
        [
            318, 
            36, 
            378, 
            25
        ], 
        [
            109, 
            312, 
            570, 
            22
        ], 
        [
            17, 
            360, 
            663, 
            22
        ], 
        [
            168, 
            384, 
            511, 
            22
        ], 
        [
            664, 
            518, 
            12, 
            1
        ]
    ], 
    "image_height": 540, 
    "image_width": 720, 
    "transcription": [
        "u0031_u002e_u0032_u002e_u0032 u0020 u062f_u0648_u0631 u0020 u0627_u0644_u0648_u0633_u0637_u0627_u0621 u0020 u0641_u064a u0020 u0627_u0644_u0623_u0633_u0648_u0627_u0642 u0020 u0627_u0644_u0625_u0644_u0643_u062a_u0631_u0648_u0646_u064a_u0629_u003a_u000d", 
        "u0627_u0644_u0648_u0638_u0627_u0626_u0641 u0020 u0627_u0644_u0623_u0633_u0627_u0633_u064a_u0629 u0020 u0644_u0644_u0623_u0633_u0648_u0627_u0642 u0020 u0627_u0644_u0625_u0644_u0643_u062a_u0631_u0648_u0646_u064a_u0629_u003a u0020 u000d", 
        "u0020_u062a_u0642_u0644_u064a_u0644 u0020 u062a_u0643_u0627_u0644_u064a_u0641 u0020 u0627_u0644_u0628_u062d_u062b u0020 u0639_u0646 u0020 u0627_u0644_u0645_u0639_u0644_u0648_u0645_u0627_u062a u0020 u003a u0020 u000d", 
        "u0020_u0627_u0644_u0645_u062d_u0627_u0641_u0638_u0629 u0020 u0639_u0644_u0649 u0020 u0627_u0644_u062e_u0635_u0648_u0635_u064a_u0629_u000d", 
        "u0020_u062a_u0648_u0641_u064a_u0631 u0020 u0645_u0639_u0644_u0648_u0645_u0627_u062a u0020 u0643_u0627_u0645_u0644_u0629 u0020 u0639_u0646 u0020 u0627_u0644_u0645_u0646_u062a_u062c u0020 u0623_u0648 u0020 u0627_u0644_u062e_u062f_u0645_u0629_u000d", 
        "u0020_u062a_u0642_u0644_u064a_u0644 u0020 u0623_u062e_u0637_u0627_u0631 u0020 u0627_u0644_u0639_u0642_u062f u0020 u0043_u006f_u006e_u0074_u0072_u0061_u0063_u0074 u0020 u0052_u0069_u0073_u006b_u0073 u0020 u000d", 
        "u0020_u0639_u062f_u0645 u0020 u0643_u0641_u0627_u0621_u0629 u0020 u0639_u0645_u0644_u064a_u0629 u0020 u0627_u0644_u062a_u0633_u0639_u064a_u0631 u0020 u0050_u0072_u0069_u0063_u0069_u006e_u0067 u0020 u0049_u006e_u0065_u0066_u0066_u0069_u0063_u0069_u0065_u006e_u0063_u0069_u0065_u0073 u0020 u000d", 
        "u0032_u002e_u0032 u0020 u0627_u0644_u0648_u0633_u0637_u0627_u0621 u0020 u0648_u0627_u0644_u062a_u062d_u0627_u0644_u0641_u0627_u062a u0020 u0641_u064a u0020 u0627_u0644_u062a_u062c_u0627_u0631_u0629 u0020 u0627_u0644_u0625_u0644_u0643_u062a_u0631_u0648_u0646_u064a_u0629_u003a", 
        "u0032_u002e_u0032_u002e_u0032 u0020 u0627_u0644_u0645_u0648_u0632_u0639_u0648_u0646 u0020 u0627_u0644_u0627_u0644_u0643_u062a_u0631_u0648_u0646_u064a_u0648_u0646 u0020 u0020_u0045_u002d_u0044_u0069_u0073_u0074_u0072_u0069_u0062_u0075_u0074_u006f_u0072_u0073_u0641_u064a u0020 u0627_u0644_u062a_u062c_u0627_u0631_u0629 u0020 u0627_u0644_u0625_u0644_u0643_u062a_u0631_u0648_u0646_u064a_u0629 u0020 u0628_u064a_u0646 u0020 u0627_u0644_u0645_u0646_u0638_u0645_u0627_u062a_u003a_u000d", 
        "u0647_u0645 u0020 u0648_u0633_u0637_u0627_u0621 u0020 u064a_u0639_u0645_u0644_u0648_u0646 u0020 u0641_u064a u0020 u0627_u0644_u062a_u062c_u0627_u0631_u0629 u0020 u0627_u0644_u0625_u0644_u0643_u062a_u0631_u0648_u0646_u064a_u0629 u0020 u0628_u064a_u0646 u0020 u0627_u0644_u0645_u0646_u0638_u0645_u0627_u062a u0020 u0623_u064a u0020 u0628_u064a_u0646 u0020 u0627_u0644_u062c_u0647_u0627_u062a u0020 u0627_u0644_u0645_u0646_u062a_u062c_u0629 u0020 u0623_u0648 u0020 u0627_u0644_u0645_u0648_u0631_u062f_u0629 u0020 u0648_u0627_u0644_u062c_u0647_u0627_u062a_u0020", 
        "u0627_u0644_u0645_u0634_u062a_u0631_u064a_u0629_u002e u0020 u0648_u064a_u0648_u0641_u0631_u0648_u0646 u0020 u0627_u0644_u0639_u062f_u064a_u062f u0020 u0645_u0646 u0020 u0627_u0644_u062e_u062f_u0645_u0627_u062a u0020 u0644_u062a_u0633_u0647_u064a_u0644 u0020 u0627_u0644_u062a_u062c_u0627_u0631_u0629 u0020 u0627_u0644_u0625_u0644_u0643_u062a_u0631_u0648_u0646_u064a_u0629 u0020 u0628_u064a_u0646 u0020 u0627_u0644_u0623_u0637_u0631_u0627_u0641_u002e_u0020", 
        "u0032_u0032"
    ]
}