{
    "bounding_box": [
        [
            161, 
            96, 
            376, 
            60
        ], 
        [
            291, 
            159, 
            130, 
            29
        ], 
        [
            143, 
            217, 
            427, 
            28
        ]
    ], 
    "image_height": 405, 
    "image_width": 720, 
    "transcription": [
        "u0648_u0633_u0627_u0626_u0644 u0020 u0648_u062a_u0642_u0646_u064a_u0627_u062a u0020 u0627_u0644_u062a_u0639_u0644_u064a_u0645_u000d", 
        "u0028_u0034_u0037_u0032 u0020 u002d u0020 u0646_u0647_u062c u0020 u0029", 
        "u0627_u0644_u0648_u062d_u062f_u0629 u0020 u0627_u0644_u062b_u0627_u0646_u064a_u0629 u0020 u0639_u0634_u0631 u0020 u003a u0020 u0645_u0633_u062a_u062d_u062f_u062b_u0627_u062a u0020 u062a_u0643_u0646_u0648_u0644_u0648_u062c_u064a_u0627 u0020 u0627_u0644_u062a_u0639_u0644_u064a_u0645"
    ]
}