{
    "bounding_box": [
        [
            105, 
            43, 
            507, 
            30
        ], 
        [
            27, 
            156, 
            637, 
            27
        ], 
        [
            59, 
            186, 
            605, 
            27
        ], 
        [
            67, 
            216, 
            596, 
            27
        ], 
        [
            418, 
            253, 
            246, 
            26
        ], 
        [
            532, 
            289, 
            132, 
            25
        ], 
        [
            479, 
            324, 
            185, 
            24
        ], 
        [
            236, 
            360, 
            428, 
            27
        ], 
        [
            271, 
            395, 
            393, 
            28
        ], 
        [
            115, 
            431, 
            549, 
            28
        ]
    ], 
    "image_height": 540, 
    "image_width": 720, 
    "transcription": [
        "u0627_u0644_u0641_u062a_u0631_u0629 u0020 u0627_u0644_u062d_u0627_u0644_u0645_u0629 u0020 u0028 u0020 u0627_u0644_u062e_u064a_u0627_u0644_u064a_u0647 u0020 u0029_u0050_u0061_u0074_u0065_u006e_u0063_u0079 u0020 u0050_u0065_u0072_u0069_u006f_u0064_u0029 u0020 u0020_u0029 u0020 u003a", 
        "u0648_u062a_u0634_u0645_u0644 u0020 u0645_u0631_u062d_u0644_u0629 u0020 u0627_u0644_u0637_u0641_u0648_u0644_u0629 u0020 u0645_u0646 u0020 u0028_u0033_u002d_u0031_u0031_u0633_u0646_u0629_u0029 u0020 u0648_u062a_u062a_u0635_u0641 u0020 u0647_u0630_u0647 u0020 u0627_u0644_u0645_u0631_u062d_u0644_u0629 u0020 u0628_u0646_u0642_u0635 u0020 u0627_u0644_u0648_u0627_u0642_u0639_u064a_u0629 u0020 u0641_u064a_u0020", 
        "u0627_u0644_u062a_u0641_u0636_u064a_u0644_u0627_u062a u0020 u0627_u0644_u0645_u0647_u064a_u0646_u0629 u0020 u0627_u0644_u062a_u064a u0020 u064a_u0638_u0647_u0631_u0647_u0627 u0020 u0627_u0644_u0637_u0641_u0644 u0020 u0648_u064a_u0633_u062a_u062e_u062f_u0645 u0020 u0627_u0644_u0623_u0637_u0641_u0627_u0644 u0020 u0627_u0644_u0644_u0639_u0628 u0020 u0644_u064a_u0635_u0631_u062d_u0648_u0627 u0020 u0639_u0646_u0020", 
        "u062a_u0641_u0636_u064a_u0644_u0627_u062a_u0647_u0645 u0020 u0627_u0644_u0645_u0647_u0646_u064a_u0629 u0020 u0648_u0645_u0639 u0020 u0642_u0631_u0628 u0020 u0646_u0647_u0627_u064a_u0629 u0020 u0647_u0630_u0647 u0020 u0627_u0644_u0645_u0631_u062d_u0644_u0629 u0020 u0641_u0625_u0646 u0020 u0627_u0644_u0644_u0639_u0628 u0020 u064a_u0635_u0628_u062d u0020 u0630_u0648 u0020 u062a_u0648_u062c_u0647_u002e_u000d", 
        "u0645_u0645_u064a_u0632_u0627_u062a u0020 u0645_u0631_u062d_u0644_u0629 u0020 u0627_u0644_u062e_u064a_u0627_u0644 u0020 u0627_u0644_u0645_u0647_u0646_u064a_u003a_u000d", 
        "u002d_u00a0 u0020 u0639_u062f_u0645 u0020 u0627_u0644_u0648_u0627_u0642_u0639_u064a_u0629_u002e_u000d", 
        "u002d_u00a0 u0020 u0020_u0641_u0642_u062f_u0627_u0646 u0020 u062a_u062d_u062f_u064a_u062f u0020 u0627_u0644_u0632_u0645_u0646_u002e_u000d", 
        "u002d_u00a0 u0020 u0627_u0644_u0634_u0639_u0648_u0631 u0020 u0628_u0639_u062f_u0645 u0020 u0627_u0644_u0642_u062f_u0631_u0629 u0020 u0627_u0644_u0643_u0627_u0641_u064a_u0629 u0020 u0644_u0623_u0646 u0020 u064a_u0635_u0628_u062d_u0648_u0627 u0020 u0645_u0627 u0020 u064a_u0631_u064a_u062f_u0648_u0646_u002e_u000d", 
        "u002d u0020 u0020_u0645_u062d_u0627_u0648_u0644_u0629 u0020 u062a_u0642_u0644_u064a_u062f u0020 u0627_u0644_u0622_u062e_u0631_u064a_u0646 u0020 u0648 u0020 u062a_u0642_u0644_u064a_u062f u0020 u0623_u062f_u0648_u0627_u0631_u0647_u0645 u0020 u0627_u0644_u0645_u0647_u0646_u064a_u0629_u002e_u000d", 
        "u002d u0020 u0020_u062a_u062a_u0635_u0641 u0020 u062e_u064a_u0627_u0631_u0627_u062a u0020 u0627_u0644_u0623_u0637_u0641_u0627_u0644 u0020 u0641_u064a u0020 u0647_u0630_u0647 u0020 u0627_u0644_u0645_u0631_u062d_u0644_u0629 u0020 u0020_u0628_u0623_u0646_u0647_u0627 u0020 u0645_u062b_u0627_u0644_u064a_u0629 u0020 u062c_u062f_u0627 u0020 u0648_u062e_u0631_u0627_u0641_u064a_u0629_u002e_u000d"
    ]
}