{
    "bounding_box": [
        [
            120, 
            83, 
            463, 
            23
        ], 
        [
            611, 
            113, 
            65, 
            16
        ], 
        [
            63, 
            135, 
            612, 
            24
        ], 
        [
            294, 
            161, 
            382, 
            20
        ], 
        [
            560, 
            188, 
            76, 
            15
        ], 
        [
            568, 
            213, 
            67, 
            18
        ], 
        [
            51, 
            236, 
            584, 
            23
        ], 
        [
            265, 
            263, 
            370, 
            23
        ], 
        [
            201, 
            288, 
            434, 
            24
        ], 
        [
            41, 
            316, 
            635, 
            23
        ], 
        [
            53, 
            340, 
            623, 
            20
        ], 
        [
            354, 
            361, 
            322, 
            20
        ], 
        [
            46, 
            383, 
            630, 
            24
        ], 
        [
            76, 
            409, 
            600, 
            20
        ], 
        [
            52, 
            430, 
            624, 
            20
        ], 
        [
            118, 
            451, 
            558, 
            20
        ], 
        [
            323, 
            472, 
            353, 
            19
        ]
    ], 
    "image_height": 540, 
    "image_width": 720, 
    "transcription": [
        "u0627_u0644_u0645_u0639_u0627_u064a_u064a_u0631 u0020 u0627_u0644_u062a_u0634_u062e_u064a_u0635_u064a_u0629 u0020 u0627_u0644_u0639_u0627_u0645_u0629 u0020 u0644_u0644_u0641_u0635_u0627_u0645 u0020 u0648_u0627_u0644_u0627_u0636_u0637_u0631_u0627_u0628_u0627_u062a u0020 u0627_u0644_u0630_u0647_u0627_u0646_u064a_u0629 u0020 u0627_u0644_u0623_u062e_u0631_u064a u0020 u000d", 
        "u0627_u0644_u0641_u0635_u0627_u0645 u0020 u003a_u000d", 
        "u0623_u002e u0020 u0627_u0644_u0623_u0639_u0631_u0627_u0636 u0020 u0627_u0644_u0645_u0645_u064a_u0632_u0629 u0020 u003a u0020 u0627_u062b_u0646_u0627_u0646 u0020 u0623_u0648 u0020 u0623_u0643_u062b_u0631 u0020 u0029 u0020 u0645_u0646 u0020 u0627_u0644_u0623_u0639_u0631_u0627_u0636 u0020 u0627_u0644_u0622_u062a_u064a_u0629 u0020 u060c u0020 u0643_u0644 u0020 u0645_u0646_u0647_u0627 u0020 u062a_u0648_u062c_u062f u0020 u0644_u0641_u062a_u0631_u0629 u0020 u0643_u0627_u0641_u064a_u0629 u0020 u0645_u0646_u0020", 
        "u0627_u0644_u0648_u0642_u062a u0020 u062e_u0644_u0627_u0644 u0020 u0645_u062f_u0629 u0020 u0634_u0647_u0631 u0020 u0028 u0020 u0623_u0648 u0020 u0623_u0642_u0644 u0020 u0641_u064a u0020 u062d_u0627_u0644_u0629 u0020 u0646_u062c_u0627_u062d u0020 u0627_u0644_u0639_u0644_u0627_u062c u0020 u0029 u0020 u002e_u000d", 
        "u0636_u0644_u0627_u0644_u0627_u062a u0020 u002e_u000d", 
        "u0647_u0644_u0627_u0648_u0633 u0020 u002e_u000d", 
        "u062d_u062f_u064a_u062b u0020 u063a_u064a_u0631 u0020 u0645_u0646_u0638_u0645 u0020 u0028 u0020 u0645_u062b_u0644 u0020 u003a u0020 u062a_u0643_u0631_u0627_u0631 u0020 u0627_u0644_u062d_u062f_u064a_u062b u0020 u0627_u0644_u062e_u0627_u0631_u062c u0020 u0639_u0646 u0020 u0627_u0644_u0645_u0648_u0636_u0648_u0639 u0020 u0623_u0648 u0020 u0627_u0644_u062d_u062f_u064a_u062b u0020 u0627_u0644_u0645_u0634_u0648_u0634 u0020 u0029 u0020 u000d", 
        "u0633_u0644_u0648_u0643 u0020 u063a_u064a_u0631 u0020 u0645_u0646_u0638_u0645 u0020 u0628_u062f_u0631_u062c_u0629 u0020 u0643_u0628_u064a_u0631_u0629 u0020 u0623_u0648 u0020 u0643_u062a_u0627_u062a_u0648_u0646_u064a u0020 u00ab u0020 u062a_u062e_u0634_u0628_u064a u0020 u00ab_u000d", 
        "u0623_u0639_u0631_u0627_u0636 u0020 u0633_u0644_u0628_u064a_u0629 u0020 u0645_u062b_u0644 u0020 u0627_u0644_u062a_u0633_u0637_u062d u0020 u0627_u0644_u0639_u0627_u0637_u0641_u064a u0020 u060c u0020 u0639_u062f_u0645 u0020 u0627_u0644_u0643_u0644_u0627_u0645 u0020 u060c u0020 u0641_u0642_u062f u0020 u0627_u0644_u0625_u0631_u0627_u062f_u0629 u0020 u002e_u000d", 
        "u0645_u0644_u0627_u062d_u0638_u0629 u0020 u003a_u064a_u0643_u0641_u064a u0020 u0648_u062c_u0648_u062f u0020 u0639_u0631_u0636 u0020 u0648_u0627_u062d_u062f u0020 u0641_u0642_u0637 u0020 u0645_u0646 u0020 u0623_u0639_u0631_u0627_u0636 u0020 u0627_u0644_u0645_u0639_u064a_u0627_u0631 u0020 u0028_u0623_u0029 u0020 u0625_u0630_u0627 u0020 u0643_u0627_u0646_u062a u0020 u0627_u0644_u0636_u0644_u0627_u0644_u0627_u062a u0020 u063a_u0631_u064a_u0628_u0629 u0020 u0623_u0648_u0020", 
        "u0634_u0627_u0630_u0629 u0020 u0623_u0648 u0020 u062a_u0645_u062b_u0644_u062a u0020 u0627_u0644_u0647_u0644_u0627_u0648_u0633 u0020 u0641_u064a u0020 u0635_u0648_u062a u0020 u0644_u0627 u0020 u064a_u062a_u0648_u0642_u0641 u0020 u0639_u0646 u0020 u0627_u0644_u062a_u0639_u0644_u064a_u0642 u0020 u0639_u0644_u064a u0020 u0633_u0644_u0648_u0643 u0020 u0627_u0644_u0634_u062e_u0635 u0020 u0623_u0648 u0020 u0623_u0641_u0643_u0627_u0631_u0647 u0020 u060c u0020 u0623_u0648_u0020", 
        "u0635_u0648_u062a_u064a_u0646 u0020 u060c u0020 u0623_u0648 u0020 u0623_u0643_u062b_u0631 u0020 u064a_u062a_u062d_u0627_u0648_u0631 u0020 u0643_u0644 u0020 u0645_u0646_u0647_u0645_u0627 u0020 u0645_u0639 u0020 u0627_u0644_u0622_u062e_u0631 u0020 u002e_u000d", 
        "u0628_u002e u0020 u0627_u062e_u062a_u0644_u0627_u0644 u0020 u0627_u0644_u0648_u0638_u064a_u0641_u0629 u0020 u0627_u0644_u0627_u062c_u062a_u0645_u0627_u0639_u064a_u0629 u0020 u002f u0020 u0627_u0644_u0645_u0647_u0646_u064a_u0629 u0020 u003a u0020 u064a_u0646_u062e_u0641_u0636 u0020 u0627_u0644_u0623_u062f_u0627_u0621 u0020 u0628_u0648_u0636_u0648_u062d u0020 u0644_u0641_u062a_u0631_u0629 u0020 u0643_u0627_u0641_u064a_u0629 u0020 u0645_u0646 u0020 u0627_u0644_u0648_u0642_u062a u0020 u0645_u0646_u0630_u0020", 
        "u0628_u062f_u0627_u064a_u0629 u0020 u0627_u0644_u0627_u062e_u062a_u0644_u0627_u0644 u0020 u0641_u064a u0020 u0648_u0627_u062d_u062f_u0629 u0020 u0623_u0648 u0020 u0623_u0643_u062b_u0631 u0020 u0645_u0646 u0020 u0627_u0644_u0645_u062c_u0627_u0644_u0627_u062a u0020 u0627_u0644_u0648_u0638_u064a_u0641_u064a_u0629 u0020 u0627_u0644_u0623_u0633_u0627_u0633_u064a_u0629 u0020 u0645_u062b_u0644 u0020 u0627_u0644_u0639_u0645_u0644 u0020 u060c u0020 u0648_u0627_u0644_u0639_u0644_u0627_u0642_u0627_u062a_u0020", 
        "u0627_u0644_u0628_u064a_u0646_u0634_u062e_u0635_u064a_u0629 u0020 u0623_u0648 u0020 u0627_u0644_u0631_u0639_u0627_u064a_u0629 u0020 u0627_u0644_u0630_u0627_u062a_u064a_u0629 u0020 u0639_u0646 u0020 u0645_u0633_u062a_u0648_u064a u0020 u0627_u0644_u0625_u0646_u062c_u0627_u0632 u0020 u0642_u0628_u0644 u0020 u0628_u062f_u0621 u0020 u0627_u0644_u0627_u0636_u0637_u0631_u0627_u0628 u0020 u0028 u0020 u0623_u0648 u0020 u0625_u0630_u0627 u0020 u0643_u0627_u0646_u062a u0020 u0627_u0644_u0628_u062f_u0627_u064a_u0629_u0020", 
        "u0641_u064a u0020 u0645_u0631_u062d_u0644_u062a_u064a u0020 u0627_u0644_u0637_u0641_u0648_u0644_u0629 u0020 u0623_u0648 u0020 u0627_u0644_u0645_u0631_u0627_u0647_u0642_u0629 u0020 u060c u0020 u0643_u0627_u0644_u0641_u0634_u0644 u0020 u0641_u064a u0020 u0625_u0646_u062c_u0627_u0632 u0020 u0627_u0644_u0645_u0633_u062a_u0648_u064a u0020 u0627_u0644_u0645_u062a_u0648_u0642_u0639 u0020 u0645_u0646 u0020 u0627_u0644_u0639_u0644_u0627_u0642_u0627_u062a_u0020", 
        "u0627_u0644_u0628_u064a_u0646_u0634_u0634_u062e_u0635_u064a_u0629 u0020 u060c u0020 u0623_u0648 u0020 u0627_u0644_u0625_u0646_u062c_u0627_u0632 u0020 u0627_u0644_u0623_u0643_u0627_u062f_u064a_u0645_u064a u0020 u0623_u0648 u0020 u0627_u0644_u0645_u0647_u0646_u064a u0020 u0029 u0020 u002e u0020 u000d"
    ]
}