{
    "bounding_box": [
        [
            207, 
            25, 
            341, 
            35
        ], 
        [
            747, 
            504, 
            11, 
            8
        ], 
        [
            343, 
            148, 
            73, 
            28
        ], 
        [
            52, 
            194, 
            654, 
            29
        ], 
        [
            39, 
            236, 
            682, 
            29
        ], 
        [
            41, 
            272, 
            677, 
            28
        ], 
        [
            280, 
            312, 
            207, 
            30
        ]
    ], 
    "image_height": 540, 
    "image_width": 780, 
    "transcription": [
        "u062b_u0627_u0644_u062b_u0627_u064b_u003a u0020 u062a_u0634_u0643_u064a_u0644 u0020 u0627_u0644_u0625_u0637_u0627_u0631 u0020 u0627_u0644_u0648_u0637_u0646_u064a u0020 u0627_u0644_u0646_u0627_u0638_u0645", 
        "u0032_u0032", 
        "u0627_u0644_u0647_u062f_u0641_u000d", 
        "u0628_u0646_u0627_u0621 u0020 u0647_u064a_u0643_u0644_u064a_u0629 u0020 u0645_u062a_u064a_u0646_u0629 u0020 u0644_u0636_u0645_u0627_u0646 u0020 u0645_u0623_u0633_u0633_u0629 u0020 u0625_u0635_u0644_u0627_u062d_u0627_u062a u0020 u0627_u0644_u062a_u0641_u062a_u064a_u0634 u0020 u0648_u0625_u062f_u0631_u0627_u062c_u0647_u0627 u0020 u0648_u0627_u0639_u062a_u0645_u0627_u062f_u0647_u0627_u0020", 
        "u0639_u0644_u0649 u0020 u0627_u0644_u0645_u0633_u062a_u0648_u0649 u0020 u0627_u0644_u0648_u0637_u0646_u064a u0020 u0627_u0644_u0639_u0627_u0645 u0020 u0648_u0639_u0644_u0649 u0020 u0645_u0633_u062a_u0648_u0649 u0020 u0625_u062f_u0627_u0631_u0627_u062a u0020 u0627_u0644_u062a_u0641_u062a_u064a_u0634 u0020 u0627_u0644_u0645_u0639_u0646_u064a_u0629 u0020 u0648_u0630_u0644_u0643 u0020 u0645_u0646_u0020", 
        "u062e_u0644_u0627_u0644 u0020 u0625_u0646_u0634_u0627_u0621 u0020 u0647_u064a_u0626_u0629 u0020 u0648_u0637_u0646_u064a_u0629 u0020 u062a_u064f_u0639_u062a_u0645_u062f u0020 u0643_u0645_u0631_u062c_u0639_u064a_u0629 u0020 u0648_u062d_u064a_u062f_u0629 u0020 u0645_u0633_u0624_u0648_u0644_u0629 u0020 u0639_u0646 u0020 u062a_u0637_u0648_u064a_u0631 u0020 u0627_u0644_u062a_u0641_u062a_u064a_u0634_u0020", 
        "u0639_u0644_u0649 u0020 u0627_u0644_u0623_u0639_u0645_u0627_u0644 u0020 u0641_u064a u0020 u0627_u0644_u0623_u0631_u062f_u0646"
    ]
}