{
    "bounding_box": [
        [
            475, 
            310, 
            203, 
            20
        ], 
        [
            28, 
            351, 
            603, 
            18
        ], 
        [
            102, 
            371, 
            529, 
            19
        ], 
        [
            363, 
            168, 
            306, 
            22
        ], 
        [
            145, 
            212, 
            482, 
            19
        ], 
        [
            79, 
            233, 
            549, 
            19
        ], 
        [
            320, 
            255, 
            316, 
            19
        ], 
        [
            119, 
            31, 
            519, 
            38
        ]
    ], 
    "image_height": 540, 
    "image_width": 720, 
    "transcription": [
        "u0627_u0644_u0645_u062e_u0637_u0637_u0627_u062a u0020 u0627_u0644_u062c_u0645_u0627_u0639_u064a_u0629 u0020 u0644_u0644_u062a_u0646_u0645_u064a_u0629 u0020 uf0d7 u0020 u000d", 
        "u0020_u0648_u062b_u064a_u0642_u0629 u0020 u0644_u0644_u062a_u0639_u0627_u0642_u062f u0020 u0628_u064a_u0646 u0020 u0627_u0644_u062f_u0648_u0644_u0629 u0020 u0648_u0627_u0644_u062c_u0645_u0627_u0639_u0629 u0020 u062a_u0647_u062f_u0641 u0020 u0625_u0644_u0649 u0020 u062c_u0639_u0644 u0020 u0645_u062c_u0627_u0644 u0020 u0627_u0644_u062c_u0645_u0627_u0639_u0629 u0020 u0631_u0627_u0641_u0639_u0629 u0020 u062d_u0642_u064a_u0642_u064a_u0629 u0020 u0644_u0644_u0646_u0645_u0648 u0020 u0639_u0644_u0649 u0020 u0645_u062f_u0649 u0020 u0036 u0020 u0633_u0646_u0648_u0627_u062a_u000d", 
        "u0020_u0623_u062f_u0627_u0629 u0020 u0645_u0646_u0627_u0633_u0628_u0629 u0020 u0644_u0644_u0623_u062e_u0630 u0020 u0628_u0639_u064a_u0646 u0020 u0627_u0644_u0627_u0639_u062a_u0628_u0627_u0631 u0020 u062a_u0623_u062b_u064a_u0631 u0020 u0627_u0644_u062a_u063a_u064a_u0631_u0627_u062a u0020 u0627_u0644_u0645_u0646_u0627_u062e_u064a_u0629 u0020 u0648_u062e_u0635_u0648_u0635_u0627 u0020 u0627_u0631_u062a_u0641_u0627_u0639 u0020 u0645_u0633_u062a_u0648_u0649 u0020 u0645_u064a_u0627_u0647 u0020 u0627_u0644_u0628_u062d_u0631", 
        "u0627_u0644_u0645_u062e_u0637_u0637 u0020 u0627_u0644_u062a_u0631_u0627_u0628_u064a u0020 u0627_u0644_u062c_u0647_u0648_u064a u0020 u0644_u0644_u062a_u063a_u064a_u0631_u0627_u062a u0020 u0627_u0644_u0645_u0646_u0627_u062e_u064a_u0629 u0020 u003a_uf0d7 u0020 u000d", 
        "u0020_u064a_u0647_u062f_u0641 u0020 u0627_u0644_u0649 u0020 u062a_u0641_u0639_u064a_u0644 u0020 u0627_u0644_u0645_u062e_u0637_u0637 u0020 u0627_u0644_u0648_u0637_u0646_u064a u0020 u0644_u0644_u062a_u063a_u064a_u0631_u0627_u062a u0020 u0627_u0644_u0645_u0646_u0627_u062e_u064a_u0629 u0020 u062c_u0647_u0648_u064a_u0627 u0020 u062d_u0633_u0628 u0020 u0627_u0644_u062e_u0635_u0627_u0626_u0635 u0020 u0627_u0644_u0645_u062d_u0644_u064a_u0629_u000d", 
        "u0020_u064a_u0634_u0643_u0644 u0020 u0020_u062a_u062c_u0631_u0628_u0629 u0020 u0631_u0627_u0626_u062f_u0629 u0020 u0641_u064a u0020 u0627_u0644_u0639_u0627_u0644_u0645 u0020 u0627_u0644_u0639_u0631_u0628_u064a u0020 u060c u0020 u0648_u064a_u0646_u0628_u063a_u064a u0020 u0623_u0646 u0020 u064a_u0643_u0648_u0646 u0020 u062c_u0632_u0621_u0627 u0020 u0645_u0646 u0020 u0627_u0644_u062a_u062e_u0637_u064a_u0637 u0020 u0627_u0644_u0627_u0633_u062a_u0631_u0627_u062a_u064a_u062c_u064a u0020 u0627_u0644_u062c_u0647_u0648_u064a_u0020", 
        "u0644_u062a_u062d_u0642_u064a_u0642 u0020 u0627_u0633_u062a_u0631_u0627_u062a_u064a_u062c_u064a_u0629 u0020 u0020_u0627_u0644_u062d_u062f u0020 u0645_u0646 u0020 u062a_u0623_u062b_u064a_u0631_u0627_u062a u0020 u0627_u0644_u062a_u063a_u064a_u0631_u0627_u062a u0020 u0627_u0644_u0645_u0646_u0627_u062e_u064a_u0629_u0020", 
        "u0020_u0646_u0645_u0648_u0630_u062c u0020 u0644_u0623_u062f_u0648_u0627_u062a u0020 u0627_u0644_u062a_u062e_u0637_u064a_u0637 u0020 u0627_u0644_u0625_u0633_u062a_u0631_u0627_u062a_u064a_u062c_u064a u0020 u0627_u0644_u062c_u0647_u0648_u064a"
    ]
}