{
    "bounding_box": [
        [
            155, 
            53, 
            409, 
            50
        ], 
        [
            93, 
            146, 
            597, 
            32
        ], 
        [
            161, 
            179, 
            539, 
            33
        ], 
        [
            112, 
            214, 
            578, 
            42
        ], 
        [
            130, 
            257, 
            560, 
            33
        ], 
        [
            116, 
            292, 
            574, 
            33
        ], 
        [
            81, 
            326, 
            609, 
            33
        ], 
        [
            470, 
            361, 
            231, 
            33
        ], 
        [
            194, 
            441, 
            496, 
            30
        ], 
        [
            156, 
            472, 
            534, 
            33
        ], 
        [
            227, 
            507, 
            463, 
            33
        ]
    ], 
    "image_height": 540, 
    "image_width": 720, 
    "transcription": [
        "u0627_u0644_u0639_u0642_u062f u0020 u0627_u0644_u0627_u0642_u062a_u0635_u0627_u062f_u064a u0020 u0648 u0020 u0627_u0644_u0627_u062c_u062a_u0645_u0627_u0639_u064a", 
        "u0647_u0648 u0020 u0646_u0645_u0648_u0630_u062c u0020 u0644_u0628_u0631_u0646_u0627_u0645_u062c u0020 u062a_u0646_u0645_u0648_u064a u0020 u0627_u0642_u062a_u0635_u0627_u062f_u064a u0020 u0648 u0020 u0627_u062c_u062a_u0645_u0627_u0639_u064a u0020 u064a_u062a_u0641_u0642_u0020", 
        "u0639_u0644_u064a_u0647 u0020 u0627_u0644_u0627_u0637_u0631_u0627_u0641 u0020 u0627_u0644_u0645_u0641_u0627_u0648_u0636_u0629 u0020 u0641_u064a u0020 u0627_u0644_u062d_u0648_u0627_u0631 u0020 u0627_u0644_u0627_u062c_u062a_u0645_u0627_u0639_u064a_u000d", 
        "u0647_u0630_u0627 u0020 u0627_u0644_u0639_u0642_u062f u0020 u064a_u0633_u0627_u0639_u062f u0020 u0639_u0644_u0649 u0020 u0627_u0633_u062a_u0642_u0631_u0627_u0631 u0020 u0627_u0644_u0627_u0648_u0636_u0627_u0639 u0020 u0627_u0644_u0627_u0642_u062a_u0635_u0627_u062f_u064a_u0629_u0020", 
        "u0648_u0627_u0644_u0627_u062c_u062a_u0645_u0627_u0639_u064a_u0629 u0020 u0648_u064a_u0624_u062f_u064a u0020 u0627_u0644_u0649 u0020 u062a_u062d_u0642_u064a_u0642 u0020 u0627_u0644_u062a_u0646_u0645_u064a_u0629 u0020 u062f_u0648_u0646 u0020 u0627_u0644_u062d_u0627_u0642_u0020", 
        "u0627_u0644_u0636_u0631_u0631 u0020 u0628_u0623_u064a u0020 u0637_u0631_u0641_u060c u0020 u0648_u0628_u062d_u064a_u062b u0020 u064a_u0644_u0632_u0645 u0020 u0643_u0644 u0020 u0637_u0631_u0641 u0020 u0627_u062d_u062a_u0631_u0627_u0645_u0020", 
        "u0647_u0630_u0627 u0020 u0627_u0644_u0639_u0642_u062f u0020 u0648_u0627_u0644_u0639_u0645_u0644 u0020 u0639_u0644_u0649 u0020 u062a_u0637_u0628_u064a_u0642_u0647 u0020 u062e_u0644_u0627_u0644 u0020 u0641_u062a_u0631_u0629 u0020 u0632_u0645_u0646_u064a_u0629 u0020 u0645_u0639_u064a_u0646_u0629_u060c_u0020", 
        "u0645_u0639 u0020 u0627_u0644_u0645_u062a_u0627_u0628_u0639_u0629 u0020 u0648_u0627_u0644_u062a_u0642_u064a_u064a_u0645_u002e_u000d", 
        "u0648_u0648_u062c_u0648_u062f u0020 u0627_u0644_u0639_u0642_u062f u0020 u0627_u0644_u0627_u062c_u062a_u0645_u0627_u0639_u064a u0020 u0644_u0627 u0020 u064a_u0646_u0641_u064a u0020 u062d_u062f_u0648_u062b u0020 u0627_u0644_u0646_u0632_u0627_u0639_u0627_u062a_u0020", 
        "u0648_u0627_u0644_u0625_u0636_u0631_u0627_u0628_u0627_u062a u0020 u0648_u0644_u0643_u0646 u0020 u0644_u064a_u0633 u0020 u0628_u0634_u0643_u0644 u0020 u0634_u0627_u0645_u0644 u0020 u0648_u0625_u0646_u0645_u0627 u0020 u0639_u0644_u0649_u0020", 
        "u0645_u0633_u062a_u0648_u064a_u0627_u062a u0020 u0645_u062d_u0644_u064a_u0629 u0020 u062f_u0648_u0646 u0020 u0639_u0631_u0642_u0644_u0629 u0020 u0627_u0644_u0648_u0636_u0639 u0020 u0627_u0644_u0639_u0627_u0645_u0020"
    ]
}