{
    "bounding_box": [
        [
            461, 
            33, 
            197, 
            27
        ], 
        [
            130, 
            84, 
            537, 
            28
        ], 
        [
            145, 
            161, 
            522, 
            22
        ], 
        [
            61, 
            191, 
            606, 
            30
        ], 
        [
            103, 
            223, 
            565, 
            27
        ], 
        [
            96, 
            260, 
            563, 
            28
        ], 
        [
            477, 
            298, 
            182, 
            23
        ], 
        [
            488, 
            336, 
            171, 
            22
        ]
    ], 
    "image_height": 540, 
    "image_width": 720, 
    "transcription": [
        "u062a_u0639_u064a_u064a_u0646 u0020 u062e_u064a_u0627_u0631_u0627_u062a u0020 u0627_u0644_u0637_u0628_u0627_u0639_u0629", 
        "u064a_u062d_u062a_u0648_u064a u0020 u0627_u0644_u062c_u0627_u0646_u0628 u0020 u0627_u0644_u0623_u064a_u0645_u0646 u0020 u0645_u0646 u0020 u0645_u0646_u0637_u0642_u0629 u0020 u0627_u0644_u0637_u0628_u0627_u0639_u0629 u0020 u0639_u0644_u0649 u0020 u062e_u064a_u0627_u0631_u0627_u062a u0020 u0627_u0644_u0637_u0628_u0627_u0639_u0629_u000d", 
        "u0625_u0631_u0633_u0627_u0644 u0020 u0627_u0644_u0639_u0631_u0636 u0020 u0627_u0644_u062a_u0642_u062f_u064a_u0645_u064a u0020 u0627_u0644_u062e_u0627_u0635 u0020 u0628_u0643 u0020 u0628_u0627_u0633_u062a_u062e_u062f_u0627_u0645 u0020 u0627_u0644_u0628_u0631_u064a_u062f u0020 u0627_u0644_u0625_u0644_u0643_u062a_u0631_u0648_u0646_u064a_u000d", 
        "u0645_u0646 u0020 u0623_u062c_u0644 u0020 u0625_u0631_u0633_u0627_u0644 u0020 u0627_u0644_u0639_u0631_u0636 u0020 u0627_u0644_u062a_u0642_u062f_u064a_u0645_u064a u0020 u0627_u0644_u062e_u0627_u0635 u0020 u0628_u0643 u0020 u0639_u0628_u0631 u0020 u0627_u0644_u0628_u0631_u064a_u062f u0020 u0627_u0644_u0625_u0644_u0643_u062a_u0631_u0648_u0646_u064a_u060c u0020 u0642_u0645_u0020", 
        "u0628_u0627_u0644_u0646_u0642_u0631 u0020 u0639_u0644_u0649 u0020 u0645_u0644_u0641 u0020 u2190_u062d_u0641_u0638 u0020 u0648_u0625_u0631_u0633_u0627_u0644_u060c u0020 u062b_u0645 u0020 u0627_u062e_u062a_u0631 u0020 u0623_u062d_u062f u0020 u0627_u0644_u062e_u064a_u0627_u0631_u0627_u062a u0020 u0627_u0644_u062b_u0644_u0627_u062b_u0629 u0020 u003a u0020 u000d", 
        "u0625_u0631_u0633_u0627_u0644 u0020 u0643_u0645_u0631_u0641_u0642 u0020 u0028_u0641_u064a u0020 u0623_u064a u0020 u0646_u0648_u0639 u0020 u0645_u0644_u0641 u0020 u064a_u0633_u062a_u062e_u062f_u0645_u0647 u0020 u0627_u0644_u0639_u0631_u0636 u0020 u0627_u0644_u062a_u0642_u062f_u064a_u0645_u064a u0020 u062d_u0627_u0644_u064a_u0627_u064b_u0029_u000d", 
        "u0625_u0631_u0633_u0627_u0644 u0020 u0628_u062a_u0646_u0633_u064a_u0642 u0020 u0050_u0044_u0046_u000d", 
        "u0625_u0631_u0633_u0627_u0644 u0020 u0628_u062a_u0646_u0633_u064a_u0642 u0020 u0058_u0050_u0053"
    ]
}