{
    "bounding_box": [
        [
            574, 
            82, 
            113, 
            18
        ], 
        [
            327, 
            128, 
            360, 
            19
        ], 
        [
            327, 
            159, 
            360, 
            22
        ], 
        [
            327, 
            193, 
            360, 
            21
        ], 
        [
            327, 
            229, 
            360, 
            19
        ], 
        [
            327, 
            261, 
            360, 
            20
        ], 
        [
            327, 
            294, 
            360, 
            21
        ], 
        [
            327, 
            329, 
            360, 
            20
        ], 
        [
            327, 
            363, 
            360, 
            19
        ], 
        [
            321, 
            397, 
            366, 
            19
        ], 
        [
            327, 
            429, 
            360, 
            20
        ], 
        [
            549, 
            465, 
            138, 
            17
        ]
    ], 
    "image_height": 540, 
    "image_width": 720, 
    "transcription": [
        "u062d_u0635_u0646 u0020 u0627_u0644_u0633_u0644_u064a_u0641 u0020 u000d", 
        "u0628_u0646_u064a u0020 u0647_u0630_u0627 u0020 u0627_u0644_u062d_u0635_u0646 u0020 u0639_u0644_u0649 u0020 u0633_u0641_u062d u0020 u062c_u0628_u0644 u0020 u0648_u0627_u0642_u0639 u0020 u0641_u064a u0020 u0642_u0631_u064a_u0629 u0020 u0627_u0644_u0633_u0644_u064a_u0641_u0020", 
        "u0627_u0644_u0643_u0627_u0626_u0646_u0629 u0020 u0641_u064a u0020 u0648_u0644_u0627_u064a_u0629 u0020 u0639_u0628_u0631_u064a u0020 u060c u0020 u0645_u0646 u0020 u0623_u0639_u0645_u0627_u0644 u0020 u0645_u0646_u0637_u0642_u0629 u0020 u0627_u0644_u0638_u0627_u0647_u0631_u0629_u002e_u0020", 
        "u064a_u0630_u0643_u0631 u0020 u0623_u0646 u0020 u0627_u0644_u0625_u0645_u0627_u0645 u0020 u0627_u0644_u064a_u0639_u0631_u0628_u064a u0020 u0633_u0644_u0637_u0627_u0646 u0020 u0628_u0646 u0020 u0633_u064a_u0641 u0020 u0628_u0646 u0020 u0633_u0644_u0637_u0627_u0646_u0020", 
        "u0627_u0644_u0627_u0648_u0644 u0020 u0028_u0031_u0036_u0034_u0039_u002d_u0031_u0036_u0037_u0039_u0645_u0029_u060c u0020 u0020_u0642_u062f u0020 u0634_u064a_u062f_u0647 u0020 u0641_u064a u0020 u062d_u0648_u0627_u0644_u064a u0020 u0639_u0627_u0645_u0020", 
        "u0031_u0030_u0037_u0035_u0647_u0640_u002f_u0031_u0036_u0036_u0034_u0645 u0020 u0020_u0641_u064a u0020 u0627_u0644_u0642_u0631_u0646 u0020 u0627_u0644_u0633_u0627_u0628_u0639 u0020 u0639_u0634_u0631 u0020 u0627_u0644_u0645_u064a_u0644_u0627_u062f_u064a u0020 u060c_u0020", 
        "u0648_u0647_u0630_u0627 u0020 u0627_u0644_u062d_u0635_u0646 u0020 u0645_u062d_u0627_u0637 u0020 u0628_u0633_u0648_u0631 u0020 u064a_u0631_u0628_u0637 u0020 u0628_u064a_u0646 u0020 u062e_u0645_u0633_u0629 u0020 u0623_u0628_u0631_u0627_u062c u0020 u0644_u0643_u0644_u0020", 
        "u0645_u0646_u0647_u0627 u0020 u0627_u0633_u0645_u0647 u0020 u0627_u0644_u062e_u0627_u0635 u0020 u0648_u0647_u064a u0020 u003a u0020 u0628_u0631_u062c u0020 u0627_u0644_u0635_u0627_u0641_u062d u0020 u060c u0020 u0628_u0631_u062c u0020 u0627_u0644_u0639_u0644_u0648_u064a_u0020", 
        "u060c u0020 u0628_u0631_u062c u0020 u0627_u0644_u0635_u0627_u0631_u0648_u062c u0020 u060c u0020 u0648_u0628_u0631_u062c u0020 u0627_u0644_u0648_u0627_u062f_u064a u0020 u002e u0020 u0648_u0628_u0627_u0644_u0627_u0636_u0627_u0641_u0629 u0020 u0627_u0644_u0649 u0020 u0630_u0644_u0643_u0020", 
        "u064a_u0648_u062c_u062f u0020 u0628_u0627_u0644_u062d_u0635_u0646 u0020 u063a_u0631_u0641_u0629 u0020 u0627_u0644_u0635_u0628_u0627_u062d u0020 u0028_u0627_u0644_u0645_u062f_u062e_u0644 u0020 u0020_u0627_u0644_u0645_u0633_u0642_u0648_u0641_u0029 u0020 u0020", 
        "u0648_u0628_u0631_u062c u0020 u0633_u0627_u0639_u062f u0020 u0627_u0644_u0645_u0631_u0628_u0639_u0647_u002e u0020 u0648_u0627_u0646_u0637_u0644_u0642_u062a u0020 u0627_u0639_u0645_u0627_u0644 u0020 u062a_u0631_u0645_u064a_u0645 u0020 u0648_u0627_u062c_u0647_u0629_u0020", 
        "u0627_u0644_u062d_u0635_u0646 u0020 u0639_u0627_u0645 u0020 u0032_u0030_u0031_u0030_u002e_u000d"
    ]
}