{
    "bounding_box": [
        [
            291, 
            8, 
            123, 
            40
        ], 
        [
            27, 
            60, 
            665, 
            45
        ], 
        [
            21, 
            145, 
            659, 
            64
        ], 
        [
            21, 
            238, 
            632, 
            50
        ], 
        [
            21, 
            320, 
            632, 
            55
        ], 
        [
            381, 
            407, 
            272, 
            55
        ]
    ], 
    "image_height": 540, 
    "image_width": 720, 
    "transcription": [
        "u062a_u0628_u0644_u06cc_u063a_u0627_u062a_u0020", 
        "u0041_u0064_u0076_u0065_u0072_u0074_u0069_u0073_u0069_u006e_u0067_u002f_u0050_u0072_u006f_u0070_u0061_u0067_u0061_u006e_u0064_u0061", 
        "u062a_u0631_u063a_u06cc_u0628 u0020 u0645_u0631_u062f_u0645 u0020 u0628_u0647 u0020 u062e_u0631_u06cc_u062f u0020 u06cc_u0627 u0020 u06af_u0631_u0627_u06cc_u0634_u0020", 
        "u0628_u0647 u0020 u06cc_u06a9 u0020 u0645_u062d_u0635_u0648_u0644 u0020 u06cc_u0627 u0020 u06cc_u06a9 u0020 u0633_u0627_u0632_u0645_u0627_u0646_u0020", 
        "u06cc_u0627 u0020 u06cc_u06a9 u0020 u0627_u0646_u062f_u06cc_u0634_u0647 u0020 u0648 u0020 u062d_u062f_u0627_u0642_u0644 u0020 u0627_u06cc_u062c_u0627_u062f_u0020", 
        "u06cc_u06a9 u0020 u062f_u06cc_u062f u0020 u0645_u062b_u0628_u062a_u002e"
    ]
}