{
    "bounding_box": [
        [
            154, 
            74, 
            411, 
            49
        ], 
        [
            300, 
            138, 
            354, 
            27
        ], 
        [
            346, 
            176, 
            324, 
            23
        ], 
        [
            158, 
            211, 
            512, 
            25
        ], 
        [
            53, 
            237, 
            618, 
            31
        ], 
        [
            45, 
            271, 
            626, 
            27
        ], 
        [
            69, 
            299, 
            601, 
            27
        ], 
        [
            130, 
            327, 
            541, 
            27
        ], 
        [
            99, 
            361, 
            572, 
            27
        ], 
        [
            99, 
            390, 
            572, 
            27
        ], 
        [
            98, 
            418, 
            573, 
            27
        ], 
        [
            246, 
            447, 
            425, 
            26
        ], 
        [
            214, 
            480, 
            457, 
            27
        ]
    ], 
    "image_height": 540, 
    "image_width": 720, 
    "transcription": [
        "u062a_u0637_u0648_u0631 u0020 u0645_u0641_u0647_u0648_u0645 u0020 u0627_u0644_u0645_u0631_u0636 u0020 u0627_u0644_u0639_u0642_u0644_u0649", 
        "u0645_u0631_u0627_u062d_u0644 u0020 u062a_u0637_u0648_u0631 u0020 u0627_u0644_u0623_u0645_u0631_u0627_u0636 u0020 u0627_u0644_u0646_u0641_u0633_u064a_u0629 u0020 u0648_u0627_u0644_u0639_u0642_u0644_u064a_u0629_u000d", 
        "u0020_u062a_u0646_u0642_u0633_u0645 u0020 u0645_u0631_u062d_u0644_u0629 u0020 u0627_u0644_u062a_u0637_u0648_u0631 u0020 u0625_u0644_u0649 u0020 u062b_u0644_u0627_u062b u0020 u0645_u0631_u0627_u062d_u0644_u003a_u000d", 
        "u0031_u002d u0020 u0627_u0644_u0645_u0631_u062d_u0644_u0629 u0020 u0627_u0644_u0633_u062d_u064a_u0642_u0629 u0020 u0641_u064a u0020 u0627_u0644_u062a_u0627_u0631_u064a_u062e_u003a u0020 u0627_u0639_u062a_u0645_u062f_u062a u0020 u0639_u0644_u0649 u0020 u0627_u0644_u062e_u0628_u0631_u0629 u0020 u0627_u0644_u062e_u0627_u0635_u0629 u0020 u002e_u000d", 
        "u0032_u002d u0020 u0627_u0644_u062d_u0642_u0628_u0629 u0020 u0627_u0644_u064a_u0648_u0646_u0627_u0646_u064a_u0629 u0020 u0627_u0644_u0639_u0631_u0628_u064a_u0629_u003a u0020 u0625_u0639_u062a_u0645_u062f_u062a u0020 u0639_u0644_u0649 u0020 u0627_u0644_u062e_u0628_u0631_u0629 u0020 u0627_u0644_u0625_u0643_u0644_u064a_u0646_u064a_u0643_u064a_u0629 u0020 u0648_u0627_u0644_u062a_u062c_u0631_u064a_u0628_u064a_u0629_u002c u0020 u0648_u062a_u0628_u062f_u0623_u0020", 
        "u0628_u0623_u0628_u0648_u0642_u0631_u0627_u0637 u0020 u0648_u0637_u0648_u0631_u0647_u0627 u0020 u0627_u0644_u0639_u0631_u0628 u0020 u0648_u062e_u0627_u0635_u0629 u0020 u0625_u0628_u0646 u0020 u0633_u064a_u0646_u0627 u0020 u0648_u0645_u0646 u0020 u0623_u0647_u0645 u0020 u0625_u0646_u062c_u0627_u0632_u0627_u062a_u0647 u0020 u0643_u062a_u0627_u0628 u0020 u0627_u0644_u0642_u0627_u0646_u0648_u0646 u0020 u002c_u0020", 
        "u0648_u0627_u0644_u0631_u0627_u0632_u0649 u0020 u0648_u0645_u0646 u0020 u0623_u0647_u0645 u0020 u0643_u062a_u0627_u0628_u0627_u062a_u0647 u0020 u0028 u0020 u0627_u0644_u0645_u0646_u0635_u0648_u0631_u0649 u0020 u003a_u0648_u0645_u0627 u0020 u064a_u062d_u062a_u0648_u064a_u0647 u0020 u0639_u0644_u0649 u0020 u0648_u0635_u0641 u0020 u0627_u0644_u0639_u062f_u064a_u062f u0020 u0645_u0646_u0020", 
        "u0627_u0644_u0623_u0645_u0632_u062c_u0629_u002d u0020 u0648_u0627_u0644_u062d_u0627_u0648_u0649 u0020 u003a_u0648_u0647_u0648 u0020 u0645_u0646 u0020 u0623_u0641_u0636_u0644 u0020 u0627_u0644_u0645_u0648_u0633_u0648_u0639_u0627_u062a u0020 u0627_u0644_u0637_u0628_u064a_u0629 u0020 u062d_u064a_u0646 u0020 u0630_u0627_u0643_u0029 u0020 u000d", 
        "u0648_u0643_u0627_u0646 u0020 u0647_u0646_u0627 u0020 u0644_u0644_u0625_u0633_u0644_u0627_u0645 u0020 u062a_u0623_u062b_u064a_u0631 u0020 u0641_u0639_u0627_u0644 u0020 u0639_u0644_u0649 u0020 u0637_u0628_u064a_u0639_u0629 u0020 u0639_u0644_u0627_u062c u0020 u0627_u0644_u0645_u0631_u0636_u0649 u0020 u0648_u062a_u0645 u0020 u0625_u0646_u0634_u0627_u0621 u0020 u0623_u0648_u0644_u0020", 
        "u0645_u0633_u062a_u0634_u0641_u064a_u0627_u062a u0020 u0644_u0639_u0644_u0627_u062c u0020 u0627_u0644_u0623_u0645_u0631_u0627_u0636 u0020 u0627_u0644_u0639_u0642_u0644_u064a_u0629 u0020 u0641_u064a u0020 u0628_u063a_u062f_u0627_u062f u0020 u0639_u0627_u0645_u0037_u0030_u0035 u0020 u002c u0020 u0648_u062a_u0644_u064a_u0647_u0627 u0020 u0645_u0633_u062a_u0634_u0641_u0649_u0020", 
        "u0627_u0644_u0642_u0627_u0647_u0631_u0629 u0020 u0639_u0627_u0645_u0038_u0030_u0030 u0020 u0628_u0639_u062f u0020 u0627_u0644_u0645_u064a_u0644_u0627_u062f u0020 u0020_u002c u0020 u062b_u0645 u0020 u0641_u064a u0020 u062d_u0644_u0628 u0020 u0628_u0633_u0648_u0631_u064a_u0627 u0020 u0031_u0032_u0037_u0030 u0020 u0641_u064a u0020 u062d_u064a_u0646 u0020 u0643_u0627_u0646_u0020", 
        "u0627_u0644_u0645_u0631_u0636_u0649 u0020 u0641_u064a u0020 u0623_u0648_u0631_u0628_u0627 u0020 u064a_u0639_u0627_u0646_u0648_u0646 u0020 u0627_u0644_u062d_u0631_u0642 u0020 u0648_u0627_u0644_u0625_u062f_u0627_u0646_u0629 u0020 u0648_u0627_u0644_u0639_u0642_u0627_u0628_u002e u0020 u000d", 
        "u0033_u002d u0020 u0627_u0644_u0639_u0635_u0631 u0020 u0627_u0644_u062d_u062f_u064a_u062b_u003a u0020 u062a_u0633_u062a_u0646_u062f u0020 u0625_u0644_u0649 u0020 u0627_u0644_u0645_u0646_u0647_u062c u0020 u0627_u0644_u0639_u0644_u0645_u064a u0020 u0648_u0627_u0644_u0628_u064a_u0648_u0644_u0648_u062c_u064a_u002e"
    ]
}