{
    "bounding_box": [
        [
            41, 
            83, 
            653, 
            31
        ], 
        [
            130, 
            118, 
            571, 
            30
        ], 
        [
            285, 
            150, 
            417, 
            31
        ], 
        [
            78, 
            186, 
            616, 
            29
        ], 
        [
            604, 
            220, 
            97, 
            27
        ], 
        [
            339, 
            253, 
            363, 
            29
        ], 
        [
            496, 
            286, 
            205, 
            30
        ], 
        [
            224, 
            319, 
            477, 
            30
        ], 
        [
            105, 
            353, 
            589, 
            30
        ], 
        [
            30, 
            388, 
            664, 
            29
        ], 
        [
            459, 
            419, 
            235, 
            31
        ]
    ], 
    "image_height": 540, 
    "image_width": 720, 
    "transcription": [
        "u002d u0020 u062a_u0623_u0633_u0633 u0020 u0644_u0644_u064a_u0647_u0648_u062f u0020 u0628_u0639_u062f u0020 u0630_u0644_u0643 u0020 u062d_u0643_u0645 u0020 u0630_u0627_u062a_u064a u0020 u0641_u064a u0020 u0627_u0644_u0642_u062f_u0633 u0020 u064a_u0636_u064a_u0642 u0020 u0648_u064a_u062a_u0633_u0639 u0020 u062d_u0633_u0628 u0020 u0635_u0631_u0627_u0639_u0020", 
        "u0627_u0644_u0642_u0648_u0649 u0020 u0627_u0644_u0643_u0628_u0631_u0649 u0020 u0639_u0644_u0649 u0020 u0641_u0644_u0633_u0637_u064a_u0646 u0020 u0028_u0627_u0644_u0631_u0648_u0645_u0627_u0646 u0020 u2013 u0020 u0627_u0644_u0628_u0637_u0627_u0644_u0645_u0629 u0020 u2013 u0020 u0627_u0644_u0633_u0644_u0648_u0642_u064a_u064a_u0646_u0029 u0020 u000d", 
        "u002d u0020 u0623_u0635_u0628_u062d u0020 u0627_u0644_u062d_u0643_u0645 u0020 u0648_u0631_u0627_u062b_u064a_u0627 u0020 u0641_u064a u0020 u0630_u0631_u064a_u0629 u0020 u064a_u0647_u0648_u0630_u0627 u0020 u0627_u0644_u0645_u0643_u0627_u0628_u064a_u002e u0020 u000d", 
        "u002d u0020 u0641_u064a u0020 u0633_u0646_u0629 u0020 u0036_u0033 u0020 u0642_u002e_u0645 u0020 u0642_u0636_u0649 u0020 u0627_u0644_u0642_u0627_u0626_u062f u0020 u0627_u0644_u0631_u0648_u0645_u0627_u0646_u064a u0020 u0627_u0644_u0634_u0647_u064a_u0631 u0020 u0628_u0648_u0645_u0628_u064a u0020 u0639_u0644_u0649 u0020 u0627_u0644_u062f_u0648_u064a_u0644_u0629_u0020", 
        "u0627_u0644_u064a_u0647_u0648_u062f_u064a_u0629_u002e u0020 u000d", 
        "u002d u0020 u0646_u0635_u0628 u0020 u0647_u064a_u0631_u0643_u0627_u0646_u0648_u0633 u0020 u0627_u0644_u062b_u0627_u0646_u064a u0020 u0643_u0628_u064a_u0631_u0627 u0020 u0644_u0644_u0643_u0647_u0646_u0629_u002e u0020 u000d", 
        "u002d u0020 u062d_u0637_u0645 u0020 u0623_u0633_u0648_u0627_u0631 u0020 u0627_u0644_u0642_u062f_u0633_u002e u0020 u000d", 
        "u002d u0020 u0627_u0628_u0642_u0649 u0020 u0639_u0644_u0649 u0020 u062d_u0643_u0645 u0020 u0627_u0644_u0623_u0633_u0631_u0629 u0020 u0627_u0644_u0645_u0643_u0627_u0628_u064a_u0629 u0020 u062a_u062d_u062a u0020 u062d_u0643_u0645 u0020 u0627_u0644_u0631_u0648_u0645_u0627_u0646_u002e u0020 u000d", 
        "u002d u0020 u0641_u064a u0020 u0034_u0030 u0020 u0642_u002e_u0645 u0020 u0647_u0627_u062c_u0645 u0020 u0627_u0644_u0641_u0631_u0633 u0020 u0641_u0644_u0633_u0637_u064a_u0646 u0020 u0648_u0646_u0635_u0628_u0648_u0627 u0020 u0028_u0623_u0646_u062a_u064a u0020 u062c_u0648_u0646_u0648_u0633_u0029 u0020 u0623_u062e_u0648_u0020", 
        "u0647_u0631_u0643_u0627_u0646_u0648_u0633 u0020 u0627_u0644_u062b_u0627_u0646_u064a u0020 u062d_u0627_u0643_u0645_u0627 u0020 u0648_u0643_u0628_u064a_u0631_u0627 u0020 u0644_u0644_u0643_u0647_u0646_u0629 u0020 u0648_u0627_u0633_u062a_u0645_u0631 u0020 u062d_u0643_u0645_u0647 u0020 u062b_u0644_u0627_u062b u0020 u0633_u0646_u0648_u0627_u062a u0020 u0648_u0642_u062f u0020 u0643_u0627_u0646_u0020", 
        "u0622_u062e_u0631 u0020 u062d_u0643_u0645 u0020 u0644_u0644_u0623_u0633_u0631_u0629 u0020 u0627_u0644_u0645_u0643_u0627_u0628_u064a_u0629_u002e_u0020"
    ]
}