{
    "bounding_box": [
        [
            412, 
            30, 
            246, 
            27
        ], 
        [
            79, 
            99, 
            571, 
            23
        ], 
        [
            108, 
            130, 
            541, 
            27
        ], 
        [
            91, 
            161, 
            559, 
            29
        ], 
        [
            197, 
            191, 
            452, 
            29
        ]
    ], 
    "image_height": 540, 
    "image_width": 720, 
    "transcription": [
        "u0645_u0627 u0020 u0627_u0644_u062c_u062f_u064a_u062f u0020 u0641_u064a u0020 u0625_u0643_u0633_u0644 u0020 u0032_u0030_u0031_u0030_u061f", 
        "u0644_u0627 u0020 u062a_u0633_u062a_u062e_u062f_u0645 u0020 u0648_u0627_u062c_u0647_u0629 u0020 u062a_u0637_u0628_u064a_u0642 u0020 u0625_u0643_u0633_u0644 u0020 u0032_u0030_u0031_u0030 u0020 u0642_u0648_u0627_u0626_u0645 u0020 u0643_u062a_u0644_u0643 u0020 u0627_u0644_u0645_u0639_u062a_u0627_u062f u0020 u0639_u0644_u064a_u0647_u0627_u060c u0020 u0628_u0644_u0020", 
        "u062a_u0633_u062a_u062e_u062f_u0645 u0020 u0646_u0638_u0627_u0645 u0020 u0627_u0644_u062a_u0628_u0648_u064a_u0628 u0020 u062d_u064a_u062b u0020 u064a_u0636_u0639 u0020 u0627_u0644_u0623_u0648_u0627_u0645_u0631 u0020 u0627_u0644_u0645_u062a_u0634_u0627_u0628_u0647_u0629 u0020 u0641_u064a u0020 u0645_u062c_u0645_u0648_u0639_u0629_u0020", 
        "u0628_u0627_u0644_u0623_u0639_u0644_u0649_u002e u0020 u0648_u0642_u062f u0020 u0627_u0633_u062a_u062e_u062f_u0645_u062a u0020 u0648_u0627_u062c_u0647_u0629 u0020 u0627_u0644_u0627_u0633_u062a_u062e_u062f_u0627_u0645 u0020 u0647_u0630_u0647 u0020 u0648_u0627_u0644_u062a_u064a u0020 u062a_u062f_u0639_u0649 u0020 u0627_u0644_u0634_u0631_u064a_u0637_u0020", 
        "u0644_u0623_u0648_u0644 u0020 u0645_u0631_u0629 u0020 u0641_u064a u0020 u0628_u0639_u0636 u0020 u0628_u0631_u0627_u0645_u062c u0020 u0645_u062c_u0645_u0648_u0639_u0629 u0020 u0623_u0648_u0641_u064a_u0633 u0020 u0032_u0030_u0030_u0037_u003a u0020 u000d"
    ]
}