{
    "bounding_box": [
        [
            263, 
            45, 
            192, 
            47
        ], 
        [
            294, 
            88, 
            355, 
            20
        ], 
        [
            585, 
            114, 
            63, 
            15
        ], 
        [
            587, 
            143, 
            62, 
            22
        ], 
        [
            545, 
            173, 
            104, 
            19
        ], 
        [
            559, 
            201, 
            90, 
            20
        ], 
        [
            551, 
            230, 
            98, 
            21
        ], 
        [
            396, 
            272, 
            95, 
            22
        ], 
        [
            434, 
            296, 
            241, 
            22
        ], 
        [
            504, 
            320, 
            172, 
            22
        ], 
        [
            414, 
            374, 
            232, 
            22
        ], 
        [
            414, 
            398, 
            231, 
            22
        ], 
        [
            417, 
            422, 
            228, 
            22
        ], 
        [
            415, 
            446, 
            231, 
            22
        ], 
        [
            415, 
            470, 
            231, 
            22
        ]
    ], 
    "image_height": 540, 
    "image_width": 720, 
    "transcription": [
        "u0623_u0646_u0634_u0637_u0629 u0020 u0627_u0644_u0637_u0627_u0644_u0628", 
        "u0639_u062f_u062f u0020 u062e_u0645_u0633_u0629 u0020 u0645_u0646 u0020 u0627_u0644_u0623_u0639_u0645_u0627_u0644 u0020 u0627_u0644_u062a_u064a u0020 u062a_u0642_u0631_u0628_u0643 u0020 u0645_u0646 u0020 u0627_u0644_u0644_u0647 u0020 u062a_u0639_u0627_u0644_u0649 u0020 u002e_u000d", 
        "u0627_u0644_u0635_u0644_u0627_u0629 u0020 u000d", 
        "u0627_u0644_u0635_u0648_u0645 u0020 u000d", 
        "u0644_u0628_u0633 u0020 u0627_u0644_u062d_u062c_u0627_u0628_u000d", 
        "u0628_u0631 u0020 u0627_u0644_u0648_u0627_u0644_u062f_u064a_u0646_u000d", 
        "u0627_u062d_u062a_u0631_u0627_u0645 u0020 u0627_u0644_u0643_u0628_u064a_u0631", 
        "u0627_u0644_u0646_u0634_u0627_u0637 u0020 u0627_u0644_u062b_u0627_u0646_u064a_u003a_u000d", 
        "u0645_u0627_u0630_u0627 u0020 u062a_u0641_u0639_u0644 u0020 u0644_u064a_u0643_u0648_u0646 u0020 u0644_u0643 u0020 u0642_u0635_u0631_u0627 u0020 u0641_u064a u0020 u0627_u0644_u062c_u0646_u0629 u0020 u061f_u000d", 
        "u0623_u062d_u0627_u0641_u0638 u0020 u0639_u0644_u0649 u0020 u0627_u0644_u0633_u0646_u0646 u0020 u0627_u0644_u0631_u0648_u0627_u062a_u0628_u0020", 
        "u0633_u0646_u0629 u0020 u0627_u0644_u0638_u0647_u0631 u0020 u0627_u0644_u0642_u0628_u0644_u064a_u0629 u0020 u005f_u005f_u005f_u005f_u005f_u005f_u005f_u005f u0020 u0034 u0020 u000d", 
        "u0020 u0020 u0633_u0646_u0629 u0020 u0627_u0644_u0638_u0647_u0631 u0020 u0627_u0644_u0628_u0639_u062f_u064a_u0629 u0020 u005f_u005f_u005f_u005f_u005f_u005f_u005f u0020 u0032_u000d", 
        "u0633_u0646_u0629 u0020 u0627_u0644_u0645_u063a_u0631_u0628 u0020 u0627_u0644_u0628_u0639_u062f_u064a_u0629 u0020 u005f_u005f_u005f_u005f_u005f_u005f_u005f_u0032 u0020 u000d", 
        "u0633_u0646_u0629 u0020 u0627_u0644_u0639_u0634_u0627_u0621 u0020 u005f_u005f_u005f_u005f_u005f_u005f_u005f_u005f_u0009_u0032_u000d", 
        "u0633_u0646_u0629 u0020 u0627_u0644_u0641_u062c_u0631 u0020 u0627_u0644_u0642_u0628_u0644_u064a_u0629 u0020 u005f_u005f_u005f_u005f_u005f_u005f_u005f_u005f_u005f_u0032_u0020"
    ]
}