{
    "bounding_box": [
        [
            125, 
            36, 
            551, 
            52
        ], 
        [
            123, 
            111, 
            553, 
            40
        ], 
        [
            456, 
            161, 
            220, 
            35
        ], 
        [
            48, 
            215, 
            628, 
            38
        ], 
        [
            572, 
            262, 
            104, 
            43
        ], 
        [
            42, 
            322, 
            634, 
            40
        ], 
        [
            422, 
            372, 
            253, 
            39
        ], 
        [
            58, 
            429, 
            618, 
            35
        ], 
        [
            198, 
            487, 
            477, 
            38
        ], 
        [
            54, 
            538, 
            621, 
            33
        ]
    ], 
    "image_height": 540, 
    "image_width": 720, 
    "transcription": [
        "u0627_u0644_u0623_u0633_u0628_u0627_u0628 u0020 u0644_u0632_u064a_u0627_u062f_u0629 u0020 u0632_u0631_u0627_u0639_u0629 u0020 u0627_u0644_u0648_u0631_u0648_u062f u0020 u003a_u000d", 
        "u0031_u002d u0020 u0628_u0625_u0633_u0631_u0627_u0626_u064a_u0644 u0020 u064a_u0648_u062c_u062f u0020 u0645_u0646_u0627_u062e u0020 u0645_u0631_u064a_u062d u0020 u0628_u0641_u0635_u0644 u0020 u0627_u0644_u0634_u062a_u0627_u0621_u0020", 
        "u0644_u0632_u0631_u0627_u0639_u0629 u0020 u0627_u0644_u0648_u0631_u0648_u062f u0020 u002e_u000d", 
        "u0032_u002d u0020 u0020_u0627_u0644_u0646_u0642_u0644 u0020 u0628_u0627_u0644_u0637_u0627_u0626_u0631_u0627_u062a u0020 u0644_u0648_u0635_u0648_u0644 u0020 u0627_u0644_u0648_u0631_u0648_u062f u0020 u0644_u062f_u0648_u0644 u0020 u0623_u0648_u0631_u0648_u0628_u0627_u0020", 
        "u0623_u0633_u0631_u0639 u0020 u002e_u000d", 
        "u0033_u002d u0020 u0020_u0627_u0644_u0632_u0631_u0627_u0639_u0647 u0020 u0628_u0627_u0644_u062f_u0641_u064a_u0626_u0627_u062a u0020 u0627_u0644_u062a_u064a u0020 u062a_u0633_u0627_u0639_u062f u0020 u0641_u064a u0020 u0627_u0644_u062a_u063a_u0644_u0628 u0020 u0639_u0644_u0649_u0020", 
        "u0627_u0644_u0645_u0646_u0627_u062e u0020 u0627_u0644_u063a_u064a_u0631 u0020 u0645_u0644_u0627_u0626_u0645 u0020 u002e_u000d", 
        "u0034_u002d u0020 u0020_u0632_u0631_u0627_u0639_u0647 u0020 u0627_u0644_u0648_u0631_u0648_u062f u0020 u062a_u0633_u062a_u063a_u0644 u0020 u0645_u0633_u0627_u062d_u0647 u0020 u0632_u0631_u0627_u0639_u064a_u0647 u0020 u0642_u0644_u064a_u0644_u0647 u0020 u002e_u000d", 
        "u0035_u002d u0020 u0020_u0627_u0644_u0631_u0628_u062d u0020 u0627_u0644_u0643_u0628_u064a_u0631 u0020 u0645_u0646 u0020 u0632_u0631_u0627_u0639_u0647 u0020 u0627_u0644_u0648_u0631_u0648_u062f u0020 u002e_u000d", 
        "u0036_u002d u0020 u0020 u0020 u0627_u0633_u062a_u062b_u0645_u0627_u0631_u0627_u062a u0020 u0643_u0628_u064a_u0631_u0629 u0020 u0641_u064a u0020 u0645_u062c_u0627_u0644 u0020 u0627_u0644_u0628_u062d_u062b u0020 u0648_u0627_u0644_u062a_u0637_u0648_u064a_u0631_u0020"
    ]
}