{
    "bounding_box": [
        [
            130, 
            54, 
            428, 
            33
        ], 
        [
            84, 
            120, 
            570, 
            28
        ], 
        [
            90, 
            150, 
            564, 
            29
        ], 
        [
            94, 
            185, 
            560, 
            26
        ], 
        [
            106, 
            212, 
            548, 
            30
        ], 
        [
            150, 
            243, 
            504, 
            30
        ], 
        [
            294, 
            275, 
            360, 
            29
        ], 
        [
            552, 
            318, 
            102, 
            23
        ], 
        [
            259, 
            354, 
            396, 
            25
        ], 
        [
            148, 
            380, 
            507, 
            36
        ]
    ], 
    "image_height": 540, 
    "image_width": 720, 
    "transcription": [
        "u0627_u0639_u0645_u0627_u0644_u0647 u0020 u0639_u0646_u062f u0020 u062a_u0648_u0644_u064a_u0647 u0020 u0648_u0644_u0627_u064a_u0629 u0020 u0627_u0644_u0639_u0647_u062f u0020 u003a", 
        "u0645_u0639_u0638_u0645 u0020 u0627_u0644_u0645_u0634_u0627_u0631_u064a_u0639 u0020 u0627_u0644_u062d_u062f_u064a_u062b_u0629 u0020 u0641_u064a u0020 u062f_u0628_u064a u0020 u0628_u062f_u0623_u062a u0020 u0645_u0639 u0020 u062a_u0648_u0644_u064a_u0647 u0020 u0648_u0644_u0627_u064a_u0629 u0020 u0627_u0644_u0639_u0647_u062f u0020 u0641_u064a u0020 u0627_u0644_u0625_u0645_u0627_u0631_u0629_u060c_u0020", 
        "u0648_u0643_u0627_u0646_u062a u0020 u062a_u062d_u0638_u0649 u0020 u0628_u0645_u0648_u0627_u0641_u0642_u0629 u0020 u0648_u062f_u0639_u0645 u0020 u0625_u062e_u0648_u0627_u0646_u0647 u0020 u062e_u0635_u0648_u0635_u064b_u0627 u0020 u0648_u0623_u0646 u0020 u0647_u0630_u0647 u0020 u0627_u0644_u0645_u0634_u0627_u0631_u064a_u0639 u0020 u0643_u0627_u0646_u062a_u0020", 
        "u062a_u0633_u0627_u0647_u0645 u0020 u0628_u0635_u0648_u0631_u0629 u0020 u0633_u0631_u064a_u0639_u0629 u0020 u0641_u064a u0020 u0631_u0633_u0645 u0020 u0635_u0648_u0631_u0629 u0020 u0645_u0634_u0631_u0642_u0629 u0020 u062c_u062f_u064a_u062f_u0629 u0020 u0644_u062f_u0628_u064a u0020 u0648_u0627_u0644_u062a_u064a u0020 u0643_u0627_u0646_u062a_u0020", 
        "u062a_u062d_u062a_u0627_u062c u0020 u0625_u0644_u0649 u0020 u0645_u062b_u0644 u0020 u0647_u0630_u0647 u0020 u0627_u0644_u0645_u0634_u0627_u0631_u064a_u0639 u0020 u0644_u0646_u0636_u0648_u0628 u0020 u0627_u0644_u0646_u0641_u0637 u0020 u0641_u064a_u0647_u0627 u0020 u0648_u0627_u0644_u0630_u064a u0020 u0645_u0627 u0020 u0639_u0627_u062f u0020 u064a_u0634_u0643_u0644_u0020", 
        "u0623_u0643_u062b_u0631 u0020 u0645_u0646 u0020 u0032_u0030_u0025 u0020 u0645_u0646 u0020 u062f_u062e_u0644_u0647_u0627 u0020 u0641_u064a u0020 u0630_u0644_u0643 u0020 u0627_u0644_u0648_u0642_u062a_u060c u0020 u0648_u0643_u0627_u0646 u0020 u0644_u0627_u0628_u062f u0020 u0644_u0646_u062c_u0627_u062d u0020 u0647_u0630_u0647_u0020", 
        "u0627_u0644_u0645_u0634_u0627_u0631_u064a_u0639 u0020 u0623_u0646 u0020 u064a_u062d_u0642_u0642 u0020 u062b_u0644_u0627_u062b_u0629 u0020 u0639_u0646_u0627_u0635_u0631 u0020 u0647_u0627_u0645_u0629 u0020 u0648_u0647_u064a_u003a_u000d", 
        "u062a_u0633_u0648_u064a_u0642 u0020 u062f_u0628_u064a_u002e_u000d", 
        "u062a_u062d_u0642_u064a_u0642 u0020 u0645_u0635_u062f_u0627_u0642_u064a_u062a_u0647_u0627 u0020 u0641_u064a u0020 u0642_u062f_u0631_u062a_u0647_u0627 u0020 u0639_u0644_u0649 u0020 u062a_u0646_u0641_u064a_u0630 u0020 u0645_u0627 u0020 u062a_u0639_u062f u0020 u0628_u0647_u002e_u000d", 
        "u0623_u0646 u0020 u062c_u0645_u064a_u0639 u0020 u0645_u0627 u0020 u062a_u0642_u062f_u0645_u0647 u0020 u062f_u0628_u064a u0020 u064a_u062c_u0631_u064a u0020 u0641_u064a u0020 u0645_u0646_u0627_u062e u0020 u0622_u0645_u0646 u0020 u0648_u0645_u0643_u062a_u0648_u0628 u0020 u0644_u0647 u0020 u0627_u0644_u0646_u062c_u0627_u062d_u002e_u000d"
    ]
}