{
    "bounding_box": [
        [
            43, 
            152, 
            604, 
            27
        ], 
        [
            533, 
            187, 
            114, 
            25
        ], 
        [
            502, 
            72, 
            174, 
            25
        ]
    ], 
    "image_height": 540, 
    "image_width": 720, 
    "transcription": [
        "u062a_u063a_u0637_u064a u0020 u0647_u0630_u0647 u0020 u0627_u0644_u062c_u062f_u0627_u0648_u0644 u0020 u0627_u0644_u0641_u062a_u0631_u0627_u062a u0020 u0627_u0644_u0631_u0628_u0639_u064a_u0629 u0020 u0648_u0627_u0644_u0633_u0646_u0648_u064a_u0629 u0020 u0645_u0646_u0630 u0020 u0627_u0644_u0639_u0627_u0645 u0020 u0031_u0039_u0039_u0032_u002d u0020 u0032_u0030_u0031_u0035_u0020", 
        "u0627_u0644_u0631_u0628_u0639 u0020 u0627_u0644_u062b_u0627_u0644_u062b u0020 u002e", 
        "u062a_u0627_u0628_u0639 u0020 u0625_u0633_u062a_u062e_u0631_u0627_u062c u0020 u0627_u0644_u0646_u062a_u0627_u0626_u062c"
    ]
}