{
    "bounding_box": [
        [
            292, 
            30, 
            207, 
            47
        ], 
        [
            428, 
            90, 
            262, 
            23
        ], 
        [
            477, 
            118, 
            213, 
            25
        ], 
        [
            443, 
            148, 
            246, 
            23
        ], 
        [
            441, 
            180, 
            248, 
            22
        ], 
        [
            596, 
            207, 
            94, 
            22
        ], 
        [
            35, 
            79, 
            243, 
            25
        ], 
        [
            33, 
            107, 
            247, 
            26
        ], 
        [
            46, 
            137, 
            220, 
            25
        ], 
        [
            115, 
            168, 
            82, 
            21
        ], 
        [
            33, 
            195, 
            246, 
            24
        ], 
        [
            26, 
            223, 
            260, 
            25
        ], 
        [
            128, 
            254, 
            62, 
            21
        ], 
        [
            352, 
            282, 
            266, 
            25
        ], 
        [
            361, 
            310, 
            249, 
            26
        ], 
        [
            359, 
            339, 
            252, 
            24
        ], 
        [
            383, 
            368, 
            204, 
            23
        ], 
        [
            334, 
            397, 
            303, 
            25
        ], 
        [
            348, 
            425, 
            275, 
            25
        ], 
        [
            333, 
            455, 
            306, 
            24
        ], 
        [
            417, 
            483, 
            137, 
            22
        ]
    ], 
    "image_height": 540, 
    "image_width": 720, 
    "transcription": [
        "u0623_u0642_u0633_u0627_u0645 u0020 u0627_u0644_u0643_u0646_u064a_u0633_u062a", 
        "u0031_u002e_u0631_u0626_u0627_u0633_u0629 u0020 u0627_u0644_u0643_u0646_u064a_u0633_u062a u0020 u0648_u0646_u0648_u0627_u0628_u0647_u003a u0020 u064a_u0646_u062a_u062e_u0628_u0020", 
        "u0639_u0646 u0020 u0637_u0631_u064a_u0642 u0020 u0623_u0639_u0636_u0627_u0621 u0020 u0627_u0644_u0643_u0646_u064a_u0633_u062a_u0020", 
        "u0628_u0623_u0643_u062b_u0631_u064a_u0629 u0020 u0639_u0627_u062f_u064a_u0629 u0020 u0648_u0647_u0648 u0020 u0645_u0633_u0624_u0648_u0644 u0020 u0639_u0646_u0020", 
        "u0627_u062f_u0631_u0627_u0629 u0020 u062c_u0644_u0633_u0627_u062a u0020 u0020_u0627_u0644_u0643_u0646_u064a_u0633_u062a_u002c u0020 u062a_u062d_u0636_u064a_u0631_u0020", 
        "u062c_u062f_u0648_u0644 u0020 u0623_u0639_u0645_u0627_u0644", 
        "u0032_u002e u0020 u062c_u0644_u0633_u0629 u0020 u0647_u064a_u0626_u0629 u0020 u0627_u0644_u0643_u0646_u064a_u0633_u062a u0020 u003a u0020 u0648_u0647_u064a_u0020", 
        "u062c_u0644_u0633_u0629 u0020 u064a_u062c_u062a_u0645_u0639 u0020 u0641_u064a_u0647_u0627 u0020 u062c_u0645_u064a_u0639 u0020 u0623_u0639_u0636_u0627_u0621_u0020", 
        "u0627_u0644_u0643_u0646_u064a_u0633_u062a u0020 u0641_u064a u0020 u0642_u0627_u0639_u0629 u0020 u0627_u062c_u062a_u0645_u0627_u0639_u0627_u062a_u0020", 
        "u0627_u0644_u0643_u0646_u064a_u0633_u062a u0020 u002e_u000d", 
        "u0627_u0644_u0642_u0627_u0646_u0648_u0646 u0020 u0644_u0627 u0020 u064a_u0644_u0632_u0645 u0020 u0623_u0639_u0636_u0627_u0621 u0020 u0627_u0644_u0643_u0646_u064a_u0633_u062a_u0020", 
        "u0628_u0627_u0644_u0645_u0634_u0627_u0631_u0643_u0629 u0020 u0641_u064a u0020 u062c_u0645_u064a_u0639 u0020 u062c_u0644_u0633_u0627_u062a u0020 u0647_u064a_u0626_u0629_u0020", 
        "u0627_u0644_u0643_u0646_u064a_u0633_u062a", 
        "u0033_u002e_u0644_u062c_u0627_u0646 u0020 u0627_u0644_u0643_u0646_u064a_u0633_u062a u0020 u003a u0020 u0627_u0644_u0639_u0645_u0644 u0020 u0627_u0644_u0623_u0633_u0627_u0633_u064a_u0020", 
        "u0644_u0644_u0643_u0646_u064a_u0633_u062a u0020 u064a_u062a_u0645 u0020 u0641_u064a u0020 u0627_u0644_u0644_u062c_u0627_u0646_u003a u0020 u0645_u0646_u0627_u0642_u0634_u0629_u0020", 
        "u0627_u0642_u062a_u0631_u0627_u062d_u0627_u062a u0020 u0627_u0644_u0642_u0648_u0627_u0646_u064a_u0646_u002c u0020 u0641_u062d_u0635 u0020 u0623_u0646_u0638_u0645_u0629_u0020", 
        "u0648_u0636_u0639_u062a_u0647_u0627 u0020 u0627_u0644_u0633_u0644_u0637_u0629 u0020 u0627_u0644_u062a_u0646_u0641_u064a_u0630_u064a_u0629_u002e_u000d", 
        "u0643_u062a_u0644 u0020 u0627_u0644_u0645_u0639_u0627_u0631_u0636_u0629 u0020 u0648_u0627_u0644_u0627_u0626_u062a_u0644_u0627_u0641 u0020 u062a_u064f_u0645_u062b_u0644 u0020 u0641_u064a u0020 u0644_u062c_u0627_u0646_u0020", 
        "u0627_u0644_u0643_u0646_u064a_u0633_u062a_u002c u0020 u0647_u0646_u0627_u0644_u0643 u0020 u0031_u0032 u0020 u0644_u062c_u0646_u0629 u0020 u062b_u0627_u0628_u062a_u0629 u0020 u0645_u062b_u0644_u0020", 
        "u003a_u0644_u062c_u0646_u0629 u0020 u0627_u0644_u0643_u0646_u064a_u0633_u062a_u002c u0020 u0644_u062c_u0646_u0629 u0020 u0627_u0644_u062e_u0627_u0631_u062c_u064a_u0629 u0020 u0648_u0627_u0644_u0623_u0645_u0646_u002c_u0020", 
        "u0644_u062c_u0646_u0629 u0020 u0627_u0644_u0627_u0642_u062a_u0635_u0627_u062f_u002e_u002e_u002e_u002e_u0020"
    ]
}