{
    "bounding_box": [
        [
            152, 
            80, 
            540, 
            26
        ], 
        [
            27, 
            147, 
            665, 
            28
        ], 
        [
            26, 
            185, 
            666, 
            28
        ], 
        [
            59, 
            217, 
            633, 
            35
        ], 
        [
            215, 
            256, 
            477, 
            36
        ], 
        [
            85, 
            293, 
            607, 
            37
        ], 
        [
            521, 
            334, 
            171, 
            35
        ], 
        [
            684, 
            438, 
            8, 
            7
        ]
    ], 
    "image_height": 540, 
    "image_width": 720, 
    "transcription": [
        "u0031_u002d u0020 u062d_u064e_u0633_u064e_u0640_u062f_u0648_u0627 u0020 u0627_u0644_u0641_u064e_u062a_u0649 u0020 u0625_u0650_u0630 u0020 u0644_u064e_u0645 u0020 u064a_u064e_u0646_u0627_u0644_u0648_u0627 u0020 u0633_u064e_u0640_u0639_u0640_u064a_u064e_u0647_u064f_u0009_u00a0 u0020 u0020 u0020 u0020 u0020 u0020_u00a0_u0641_u064e_u0627_u0644_u0642_u064e_u0648_u0645_u064f u0020 u0623_u064e_u0639_u0652_u062f_u0627_u0621_u064c u0020 u0644_u064e_u0647_u064f u0020 u0648_u064e_u062e_u064f_u0640_u0640_u0635_u064f_u0640_u0640_u0640_u0640_u0648_u0645", 
        "u0028_u062d_u0633_u062f_u0648_u0627_u00a0_u0627_u0644_u0641_u062a_u0649_u0029 u0020 u003a u0020 u0643_u0646_u0627_u064a_u0629 u0020 u0639_u0646 u0020 u0634_u062f_u0629 u0020 u0627_u0644_u062d_u0642_u062f u0020 u0648_u0627_u0644_u0643_u0631_u0627_u0647_u064a_u0629 u0020 u0639_u0646_u062f u0020 u0628_u0639_u0636 u0020 u0627_u0644_u0646_u0627_u0633 u0020 u060c_u0020", 
        "u0648_u0643_u0646_u0627_u064a_u0629 u0020 u0639_u0646 u0020 u0633_u0645_u0648 u0020 u0645_u0646_u0632_u0644_u0629 u0020 u0627_u0644_u0641_u062a_u0649_u00a0_u060c u0020 u0648_u0633_u0631 u0020 u062c_u0645_u0627_u0644 u0020 u0627_u0644_u0643_u0646_u0627_u064a_u0629 u0020 u003a u0020 u0627_u0644_u0625_u062a_u064a_u0627_u0646 u0020 u0628_u0627_u0644_u0645_u0639_u0646_u0649_u0020", 
        "u0645_u0635_u062d_u0648_u0628_u0627_u064b u0020 u0628_u0627_u0644_u062f_u0644_u064a_u0644 u0020 u0639_u0644_u064a_u0647 u0020 u0641_u064a u0020 u0625_u064a_u062c_u0627_u0632 u0020 u0648_u062a_u062c_u0633_u064a_u0645_u00a0_u060c u0020 u0648_u0627_u0644_u0641_u0639_u0644 u0020 u0645_u0627_u0636 u0020 u0644_u0644_u062b_u0628_u0648_u062a_u0020", 
        "u0648_u0627_u0644_u062a_u062d_u0642_u0642 u0020 u060c u0020 u0648_u0627_u0644_u0623_u0633_u0644_u0648_u0628 u0020 u062e_u0628_u0631_u064a u0020 u0644_u0644_u062a_u0642_u0631_u064a_u0631 u0020 u0648_u0627_u0644_u062a_u0648_u0643_u064a_u062f u0020 u002e_u00a0_u000d", 
        "u0028_u0627_u0644_u0641_u062a_u0649_u0029 u0020 u003a u0020 u062a_u0648_u062d_u064a u0020 u0628_u0627_u0644_u0642_u0648_u0629 u0020 u0648_u0627_u0644_u0634_u0628_u0627_u0628 u0020 u060c u0020 u0648_u062c_u0627_u0621_u062a u0020 u0645_u0639_u0631_u0641_u0629 u0020 u0628_u0640_u0028_u0623_u0644_u0029 u0020 u0644_u0628_u064a_u0627_u0646_u0020", 
        "u0634_u0647_u0631_u062a_u0647 u0020 u0627_u0644_u0645_u062f_u0648_u064a_u0629 u0020 u002e_u000b", 
        "u00a0"
    ]
}