{
    "bounding_box": [
        [
            323, 
            289, 
            63, 
            19
        ], 
        [
            90, 
            322, 
            560, 
            23
        ], 
        [
            67, 
            356, 
            583, 
            26
        ], 
        [
            259, 
            394, 
            200, 
            20
        ], 
        [
            170, 
            124, 
            379, 
            40
        ]
    ], 
    "image_height": 540, 
    "image_width": 720, 
    "transcription": [
        "u062a_u0623_u0644_u064a_u0641_u000d", 
        "u0623_u002e_u062f_u002f_u0639_u0645_u0631 u0020 u0628_u0646 u0020 u0641_u064a_u062d_u0627_u0646 u0020 u0627_u0644_u0645_u0631_u0632_u0648_u0642_u064a u0020 u0020 u0020 u0020_u062f_u002e_u0639_u0628_u062f u0020 u0627_u0644_u0644_u0647 u0020 u0628_u0645 u0020 u0645_u062d_u0645_u062f u0020 u0627_u0644_u0633_u0639_u064a_u062f_u064a_u000d", 
        "u062f_u002e_u0639_u0628_u062f u0020 u0627_u0644_u0644_u0647 u0020 u0628_u0646 u0020 u0625_u0628_u0631_u0627_u0647_u064a_u0645 u0020 u0627_u0644_u0646_u0627_u0635_u0631 u0020 u0020 u0020 u0020_u062f_u002e_u0623_u062d_u0645_u0640_u0640_u062f u0020 u0628_u0646 u0020 u0633_u0639_u0640_u0640_u062f u0020 u0627_u0644_u062d_u0640_u0640_u0631_u0628_u064a_u000d", 
        "u062f_u002e_u0645_u062d_u0645_u062f u0020 u0628_u0646 u0020 u0633_u0639_u062f u0020 u0627_u0644_u0645_u0642_u0631_u0646", 
        "u0627_u0644_u0646_u0638_u0627_u0645 u0020 u0627_u0644_u0627_u0642_u062a_u0635_u0627_u062f_u064a u0020 u0641_u064a u0020 u0627_u0644_u0625_u0633_u0644_u0627_u0645"
    ]
}