{
    "bounding_box": [
        [
            43, 
            13, 
            151, 
            18
        ], 
        [
            43, 
            104, 
            214, 
            32
        ], 
        [
            43, 
            138, 
            617, 
            29
        ], 
        [
            43, 
            169, 
            502, 
            29
        ], 
        [
            43, 
            200, 
            612, 
            29
        ], 
        [
            43, 
            230, 
            617, 
            29
        ], 
        [
            667, 
            276, 
            9, 
            2
        ], 
        [
            583, 
            287, 
            93, 
            28
        ], 
        [
            137, 
            325, 
            538, 
            33
        ], 
        [
            61, 
            359, 
            614, 
            29
        ], 
        [
            491, 
            390, 
            185, 
            26
        ]
    ], 
    "image_height": 540, 
    "image_width": 720, 
    "transcription": [
        "u0044_u0045_u0046_u0049_u004e_u0049_u0054_u0049_u004f_u004e_u0053", 
        "u0043_u006f_u006d_u0070_u006c_u0069_u0061_u006e_u0063_u0065 u0020 u000b", 
        "u0054_u0068_u0065 u0020 u0073_u0074_u0061_u0074_u0065 u0020 u006f_u0066 u0020 u0063_u006f_u006e_u0066_u006f_u0072_u006d_u0069_u0074_u0079 u0020 u006f_u0066 u0020 u0061 u0020 u0072_u0065_u0067_u0075_u006c_u0061_u0074_u0065_u0064 u0020 u0070_u0061_u0072_u0074_u0079_u0020", 
        "u0028_u0069_u006e_u0063_u006c_u0075_u0064_u0069_u006e_u0067 u0020 u0061 u0020 u0063_u006f_u0072_u0070_u006f_u0072_u0061_u0074_u0069_u006f_u006e_u002c u0020 u0069_u006e_u0073_u0074_u0069_u0074_u0075_u0074_u0069_u006f_u006e_u002c_u0020", 
        "u0069_u006e_u0064_u0069_u0076_u0069_u0064_u0075_u0061_u006c u0020 u006f_u0072 u0020 u006f_u0074_u0068_u0065_u0072 u0020 u006c_u0065_u0067_u0061_u006c u0020 u0065_u006e_u0074_u0069_u0074_u0079_u0029 u0020 u006f_u0072 u0020 u0061 u0020 u0070_u0072_u006f_u0064_u0075_u0063_u0074_u0020", 
        "u0077_u0069_u0074_u0068 u0020 u0061 u0020 u006c_u0065_u0067_u0069_u0073_u006c_u0061_u0074_u0069_u0076_u0065 u0020 u006f_u0072 u0020 u0072_u0065_u0067_u0075_u006c_u0061_u0074_u006f_u0072_u0079 u0020 u0072_u0065_u0071_u0075_u0069_u0072_u0065_u006d_u0065_u006e_u0074_u002e_u000d", 
        "u002e_u000d", 
        "u0627_u0644_u0645_u0637_u0627_u0628_u0642_u0629_u000d", 
        "u0647_u064a u0020 u062d_u0627_u0644_u0629 u0020 u0645_u0648_u0627_u0626_u0645_u0629 u0020 u062c_u0647_u0629 u0020 u0645_u0646_u0638_u0645_u0629 u0020 u0028 u0020 u0628_u0645_u0627 u0020 u0641_u064a u0020 u0630_u0644_u0643 u0020 u0627_u0644_u0634_u0631_u0643_u0627_u062a_u0020", 
        "u0648_u0627_u0644_u0645_u0624_u0633_u0633_u0627_u062a u0020 u0648_u0627_u0644_u0623_u0641_u0631_u0627_u062f u0020 u0648_u0623_u064a u0020 u0643_u064a_u0627_u0646 u0020 u0642_u0627_u0646_u0648_u0646_u064a u0020 u0029 u0020 u0623_u0648 u0020 u0645_u0646_u062a_u062c u0020 u0644_u0642_u0627_u0646_u0648_u0646 u0020 u0623_u0648_u0020", 
        "u0645_u062a_u0637_u0644_u0628_u0627_u062a u0020 u062a_u0634_u0631_u064a_u0639_u064a_u0629_u002e"
    ]
}