{
    "bounding_box": [
        [
            80, 
            268, 
            552, 
            54
        ]
    ], 
    "image_height": 540, 
    "image_width": 720, 
    "transcription": [
        "u0634_u0643_u0631_u0627 u0020 u0639_u0644_u0649 u0020 u0627_u0633_u062a_u0645_u0627_u0639_u0643_u0645 u0020 u0648_u0627_u0644_u0633_u0644_u0627_u0645"
    ]
}