{
    "bounding_box": [
        [
            44, 
            49, 
            631, 
            39
        ], 
        [
            151, 
            131, 
            481, 
            29
        ], 
        [
            445, 
            171, 
            187, 
            29
        ], 
        [
            245, 
            204, 
            388, 
            39
        ], 
        [
            409, 
            252, 
            224, 
            31
        ], 
        [
            435, 
            291, 
            197, 
            30
        ], 
        [
            199, 
            330, 
            433, 
            34
        ], 
        [
            270, 
            373, 
            363, 
            30
        ]
    ], 
    "image_height": 540, 
    "image_width": 720, 
    "transcription": [
        "u062a_u0642_u0633_u0645 u0020 u0627_u0644_u062c_u0645_u0644_u0629 u0020 u0627_u0644_u062e_u0628_u0631_u064a_u0629 u0020 u0625_u0644_u0649 u0020 u062b_u0644_u0627_u062b_u0629 u0020 u0623_u0646_u0648_u0627_u0639_u003a", 
        "u0636_u0631_u0628 u0020 u0627_u0628_u062a_u062f_u0627_u0626_u064a u0020 u003a u0020 u062a_u0643_u0648_u0646 u0020 u0627_u0644_u062c_u0645_u0644_u0629 u0020 u062e_u0627_u0644_u064a_u0629 u0020 u0645_u0646 u0020 u0623_u062f_u0648_u0627_u062a u0020 u0627_u0644_u062a_u0648_u0643_u064a_u062f_u002e_u000d", 
        "u0645_u062b_u0627_u0644_u003a u0020 u062c_u0627_u0621 u0020 u0645_u062d_u0645_u062f u0020 u0645_u0628_u0643_u0631_u0627_u064b_u002e_u000d", 
        "u0636_u0631_u0628 u0020 u0637_u0644_u0628_u064a_u003a u0020 u062a_u0633_u062a_u062e_u062f_u0645 u0020 u0641_u064a_u0647 u0020 u0623_u062f_u0627_u0629 u0020 u062a_u0648_u0643_u064a_u062f u0020 u0648_u0627_u062d_u062f_u0629_u002e_u000d", 
        "u0645_u062b_u0627_u0644_u003a u0020 u0625_u0646_u0645_u0627 u0020 u0627_u0644_u0645_u0624_u0645_u0646_u0648_u0646 u0020 u0623_u062e_u0648_u0629_u000d", 
        "u0020 u0020 u0020 u0020 u0020 u0020 u0625_u0646_u0651 u0020 u0627_u0644_u0642_u0635_u0629 u0020 u062d_u0642_u064a_u0642_u064a_u0629_u064c_u002e_u000d", 
        "u0636_u0631_u0628 u0020 u0625_u0646_u0643_u0627_u0631_u064a_u003a u0020 u0648_u062a_u0633_u062a_u0639_u0645_u0644 u0020 u0641_u064a_u0647 u0020 u0623_u0643_u062b_u0631 u0020 u0645_u0646 u0020 u0623_u062f_u0627_u0629 u0020 u062a_u0648_u0643_u064a_u062f_u002e_u000d", 
        "u0645_u062b_u0627_u0644_u003a u0020 u0648_u0627_u0644_u0644_u0647 u0020 u0644_u0642_u062f u0020 u0633_u0645_u0639_u062a u0020 u0623_u0646 u0020 u0627_u0644_u0627_u0645_u062a_u062d_u0627_u0646 u0020 u0628_u0639_u062f u0020 u063a_u062f_u064d_u002e"
    ]
}