{
    "bounding_box": [
        [
            293, 
            44, 
            406, 
            55
        ], 
        [
            27, 
            145, 
            671, 
            37
        ], 
        [
            564, 
            199, 
            135, 
            34
        ], 
        [
            33, 
            255, 
            633, 
            39
        ], 
        [
            60, 
            311, 
            638, 
            30
        ], 
        [
            141, 
            361, 
            558, 
            32
        ], 
        [
            517, 
            414, 
            182, 
            27
        ], 
        [
            47, 
            477, 
            623, 
            37
        ], 
        [
            74, 
            519, 
            624, 
            34
        ]
    ], 
    "image_height": 540, 
    "image_width": 720, 
    "transcription": [
        "u0020_uf026 u0020 u0627_u0644_u0628_u0639_u062f u0020 u0627_u0644_u062f_u064a_u0646_u064a u0020 u0644_u0644_u062d_u0645_u0644_u0629 u0020 u0020_u000d", 
        "uf03f u0020 u0020_u0645_u0627_u0630_u0627 u0020 u064a_u0639_u0646_u064a u0020 u0645_u0627 u0020 u0630_u0643_u0631_u062a_u0647 u0020 u0635_u062d_u064a_u0641_u0629 u0020 u0643_u0631_u064a_u0633_u062a_u064a_u0627_u0646 u0020 u0633_u0627_u064a_u0646_u0633 u0020 u0645_u0648_u0646_u064a_u062a_u0648_u0631_u0020", 
        "u0627_u0644_u0623_u0645_u0631_u064a_u0643_u064a_u0629 u0020 u061f_u000d", 
        "u0020_u0641_u064a u0020 u0623_u0645_u0631_u064a_u0643_u0627 u0020 u003a u0020 u0627_u0644_u0623_u0635_u0648_u0644_u064a_u0648_u0646 u0020 u0627_u0644_u0631_u064a_u063a_u0640_u0627_u0646_u064a_u0648_u0646 u0020 u060c u0020 u0648_u0627_u0644_u064a_u0647_u0648_u062f u0020 u0627_u0644_u0645_u062a_u0640_u0637_u0631_u0641_u0648_u0646 u0020 u060c_u0020", 
        "u0648_u0627_u0644_u062c_u0645_u0647_u0648_u0631_u064a_u0648_u0646 u0020 u0627_u0644_u0645_u062d_u0627_u0641_u0638_u0648_u0646 u0020 u0627_u0644_u0645_u062a_u0637_u0631_u0641_u0648_u0646 u0020 u064a_u062d_u0627_u0635_u0631_u0648_u0646 u0020 u0627_u0644_u0628_u064a_u062a u0020 u0627_u0644_u0623_u0628_u064a_u0636_u0020", 
        "u0648_u064a_u0631_u0641_u0639_u0648_u0646 u0020 u0634_u0639_u0627_u0631 u0020 u0627_u0644_u062f_u0639_u0645 u0020 u0627_u0644_u0645_u0637_u0644_u0642 u0020 u0644_u0625_u0633_u0631_u0627_u0626_u064a_u0644 u0020 u0644_u0623_u0633_u0628_u0627_u0628 u0020 u0623_u062e_u0644_u0627_u0642_u064a_u0629_u0020", 
        "u0648_u0627_u0633_u062a_u0631_u0627_u062a_u064a_u062c_u064a_u0629 u0020 u0020_u0021_u0021 u0020 u002e_u000d", 
        "u0020_u0648_u0645_u0627_u0630_u0627 u0020 u064a_u0639_u0646_u064a u0020 u0643_u0644_u0627_u0645 u0020 u062a_u0648_u0645_u0627_u0633 u0020 u0641_u0631_u064a_u062f_u0645_u0627_u0646 u0020 u062d_u064a_u0646_u0645_u0627 u0020 u0642_u0627_u0644 u0020 u003a u0020 u0028 u0020 u0627_u0644_u062d_u0632_u0628_u0020", 
        "u0627_u0644_u062f_u064a_u0646_u064a u0020 u0644_u0627 u0020 u064a_u0645_u0643_u0646 u0020 u0623_u0646 u0020 u064a_u064f_u0642_u0627_u062a_u0644 u0020 u0628_u0627_u0644_u062c_u064a_u0648_u0634 u0020 u0648_u062d_u062f_u0647_u0627 u0020 u0628_u0644 u0020 u064a_u062c_u0628 u0020 u0623_u0646 u0020 u064a_u064f_u0642_u0627_u062a_u0644 u0020 u0641_u064a_u0020"
    ]
}