{
    "bounding_box": [
        [
            201, 
            51, 
            317, 
            36
        ], 
        [
            165, 
            135, 
            483, 
            47
        ], 
        [
            33, 
            201, 
            616, 
            50
        ], 
        [
            96, 
            262, 
            553, 
            47
        ]
    ], 
    "image_height": 540, 
    "image_width": 720, 
    "transcription": [
        "u0627_u062e_u062a_u0628_u0627_u0631_u0627_u062a u0020 u0648_u0638_u0627_u0626_u0641 u0020 u0627_u0644_u0631_u0626_u0629", 
        "u0627_u0644_u062e_u0627_u0646_u0642_u0627_u062a u0020 u0627_u0644_u0628_u0633_u064a_u0637_u0629 u0020 u0648_u0627_u0644_u0643_u064a_u0645_u064a_u0627_u0626_u064a_u0629_u003a u0020 u000d", 
        "u062a_u0633_u064a_u0637_u0631 u0020 u0647_u0646_u0627 u0020 u0627_u0644_u0623_u0639_u0631_u0627_u0636 u0020 u0627_u0644_u062c_u0647_u0627_u0632_u064a_u0629_u060c u0020 u0648_u062a_u064f_u062c_u0631_u0649_u0020", 
        "u0627_u062e_u062a_u0628_u0627_u0631_u0627_u062a u0020 u0648_u0638_u0627_u0626_u0641 u0020 u0627_u0644_u0631_u0626_u0629 u0020 u0648_u0641_u0642 u0020 u0627_u0644_u062d_u0627_u062c_u0629_u000d"
    ]
}