{
    "bounding_box": [
        [
            28, 
            69, 
            644, 
            25
        ], 
        [
            28, 
            101, 
            644, 
            24
        ], 
        [
            28, 
            130, 
            644, 
            26
        ], 
        [
            28, 
            160, 
            644, 
            25
        ], 
        [
            515, 
            192, 
            157, 
            22
        ], 
        [
            28, 
            229, 
            644, 
            27
        ], 
        [
            28, 
            262, 
            644, 
            26
        ], 
        [
            28, 
            295, 
            644, 
            22
        ], 
        [
            210, 
            323, 
            462, 
            24
        ], 
        [
            28, 
            359, 
            644, 
            28
        ], 
        [
            28, 
            393, 
            644, 
            22
        ], 
        [
            569, 
            425, 
            104, 
            20
        ], 
        [
            28, 
            463, 
            644, 
            24
        ], 
        [
            507, 
            490, 
            165, 
            25
        ], 
        [
            198, 
            500, 
            58, 
            9
        ], 
        [
            21, 
            503, 
            15, 
            10
        ]
    ], 
    "image_height": 540, 
    "image_width": 720, 
    "transcription": [
        "u062a_u0029 u0020 u0645_u0634_u062a_u0631_u06cc_u0627_u0646 u0020 u067e_u0631_u062d_u0648_u0635_u0644_u0647_u003a u0020 u0686_u0646_u06cc_u0646 u0020 u0627_u0641_u0631_u0627_u062f_u06cc u0020 u0628_u0631_u0627_u06cc u0020 u06cc_u06a9 u0020 u062e_u0631_u06cc_u062f u0020 u0633_u0627_u062f_u0647 u0020 u0648_u0642_u062a u0020 u0641_u0631_u0627_u0648_u0627_u0646_u06cc u0020 u0631_u0627_u0020", 
        "u062a_u0644_u0641 u0020 u0645_u06cc u0020 u06a9_u0646_u0646_u062f u0020 u0648_u0644_u06cc u0020 u0645_u0637_u0645_u0626_u0646 u0020 u0628_u0627_u0634_u06cc_u062f u0020 u0628_u0631_u0627_u06cc u0020 u0634_u0645_u0627 u0020 u067e_u06cc_u062f_u0627_u06a9_u0631_u062f_u0646 u0020 u0645_u0634_u062a_u0631_u06cc u0020 u0633_u0648_u062f_u0645_u0646_u062f_u060c u0020 u0627_u0631_u0632_u0634_u0020", 
        "u0627_u0646_u062f_u06a9_u06cc u0020 u062a_u062d_u0645_u0644 u0020 u067e_u0631_u0686_u0627_u0646_u06af_u06cc u0020 u0631_u0627 u0020 u062f_u0627_u0631_u062f u0020 u0644_u0630_u0627 u0020 u0628_u062f_u0648_u0646 u0020 u062e_u0633_u062a_u06af_u06cc u0020 u0648 u0020 u0627_u0632 u0020 u06a9_u0648_u0631_u0647 u0020 u062f_u0631 u0020 u0631_u0641_u062a_u0646 u0020 u0648 u0020 u0628_u0627_u0020", 
        "u062d_u0648_u0635_u0644_u0647 u0020 u0641_u0631_u0627_u0648_u0627_u0646 u0020 u0628_u0647 u0020 u062d_u0631_u0641_u0647_u0627_u06cc u0020 u0622_u0646_u0647_u0627 u0020 u06af_u0648_u0634 u0020 u062f_u0647_u06cc_u062f u0020 u062f_u0631 u0020 u0627_u06cc_u0646 u0020 u0635_u0648_u0631_u062a u0020 u0645_u0637_u0645_u0626_u0646_u0627_u064b u0020 u0622_u0646_u0647_u0627 u0020 u0631_u0627_u0020", 
        "u062c_u0630_u0628 u0020 u062e_u0648_u0627_u0647_u06cc_u062f u0020 u06a9_u0631_u062f_u002e_u000d", 
        "u062b_u0029 u0020 u0645_u0634_u062a_u0631_u06cc_u0627_u0646 u0020 u0627_u0632 u0020 u062e_u0648_u062f u0020 u0631_u0627_u0636_u06cc_u003a u0020 u0622_u0646_u0647_u0627 u0020 u062a_u0638_u0627_u0647_u0631 u0020 u0645_u06cc u0020 u06a9_u0646_u0646_u062f u0020 u06a9_u0647 u0020 u0647_u0645_u0647 u0020 u0686_u06cc_u0632 u0020 u0631_u0627 u0020 u0645_u06cc u0020 u062f_u0627_u0646_u0646_u062f u0020 u0648_u0020", 
        "u0628_u0647 u0020 u062e_u0648_u0628_u06cc u0020 u06a9_u0627_u0644_u0627_u06cc u0020 u0634_u0645_u0627 u0020 u0631_u0627 u0020 u0645_u06cc u0020 u0634_u0646_u0627_u0633_u0646_u062f_u002e u0020 u0634_u0645_u0627 u0020 u0628_u0627_u06cc_u062f u0020 u062e_u0648_u062f u0020 u0631_u0627 u0020 u0647_u0645 u0020 u0633_u0637_u062d u0020 u0622_u0646_u0647_u0627 u0020 u0628_u062f_u0648_u0646 u0020 u06a9_u0645 u0020 u0648_u0020", 
        "u0632_u06cc_u0627_u062f u0020 u0646_u0634_u0627_u0646 u0020 u062f_u0647_u06cc_u062f u0020 u0648 u0020 u0628_u0627 u0020 u0627_u0633_u062a_u0641_u0627_u062f_u0647 u0020 u0627_u0632 u0020 u062c_u0645_u0644_u0647 u0020 u00ab_u0647_u0645_u0627_u0646_u0637_u0648_u0631 u0020 u06a9_u0647 u0020 u062e_u0648_u062f_u062a_u0627_u0646 u0020 u0645_u06cc u0020 u062f_u0627_u0646_u06cc_u062f_u00bb u0020 u06cc_u0627_u0020", 
        "u00ab_u0627_u0641_u0631_u0627_u062f_u06cc u0020 u0645_u062b_u0644 u0020 u062c_u0646_u0627_u0628_u0639_u0627_u0644_u06cc u0020 u06a9_u0645 u0020 u0647_u0633_u062a_u0646_u062f_u00bb u0020 u0627_u0648 u0020 u0631_u0627 u0020 u0645_u062c_u0630_u0648_u0628 u0020 u0646_u0645_u0627_u06cc_u06cc_u062f_u002e_u000d", 
        "u062c_u0029 u0020 u0645_u0634_u062a_u0631_u06cc_u0627_u0646 u0020 u06a9_u0645 u0020 u0627_u062f_u0628_u003a u0020 u0628_u0627_u06cc_u062f u0020 u0628_u06cc u0020 u0020_u0627_u062f_u0628_u06cc u0020 u0622_u0646_u0647_u0627 u0020 u0631_u0627 u0020 u0646_u0627_u062f_u06cc_u062f_u0647 u0020 u06af_u0631_u0641_u062a u0020 u0648 u0020 u0628_u0627 u0020 u0631_u0641_u062a_u0627_u0631 u0020 u0645_u0648_u062f_u0628_u0627_u0646_u0647_u0020", 
        "u0634_u0631_u0645_u0646_u062f_u0647 u0020 u0634_u0627_u0646 u0020 u0633_u0627_u062e_u062a_u060c u0020 u062f_u0631_u0627_u06cc_u0646 u0020 u062d_u0627_u0644_u062a u0020 u0628_u0627 u0020 u062e_u0631_u06cc_u062f u0020 u0627_u0632_u0634_u0645_u0627 u0020 u062f_u0631_u0635_u062f_u062f u0020 u062c_u0628_u0631_u0627_u0646 u0020 u0639_u0645_u0644 u0020 u062e_u0648_u062f_u0020", 
        "u062e_u0648_u0627_u0647_u0646_u062f u0020 u0628_u0648_u062f_u002e_u000d", 
        "u0686_u0029 u0020 u0645_u0634_u062a_u0631_u06cc_u0627_u0646 u0020 u0645_u0639_u0645_u0648_u0644_u06cc_u003a u0020 u0628_u0627 u0020 u062a_u0648_u062c_u0647 u0020 u0628_u0647 u0020 u0645_u0648_u0627_u0631_u062f u0020 u0630_u06a9_u0631_u0634_u062f_u0647 u0020 u0632_u062d_u0645_u062a u0020 u0686_u0646_u062f_u0627_u0646_u06cc u0020 u0628_u0631_u0627_u06cc u0020 u062c_u0630_u0628_u0020", 
        "u0622_u0646_u0647_u0627 u0020 u0646_u062e_u0648_u0627_u0647_u06cc_u0645 u0020 u062f_u0627_u0634_u062a_u002e_u000d", 
        "u0041_u002e_u0045_u0062_u0072_u0061_u0068_u0069_u006d_u0069", 
        "u0034_u0039"
    ]
}