{
    "bounding_box": [
        [
            40, 
            106, 
            655, 
            18
        ], 
        [
            43, 
            125, 
            651, 
            18
        ], 
        [
            619, 
            165, 
            76, 
            16
        ], 
        [
            23, 
            183, 
            672, 
            18
        ], 
        [
            12, 
            202, 
            683, 
            18
        ], 
        [
            6, 
            221, 
            689, 
            18
        ], 
        [
            555, 
            241, 
            140, 
            17
        ], 
        [
            557, 
            281, 
            137, 
            14
        ], 
        [
            10, 
            298, 
            685, 
            18
        ], 
        [
            330, 
            317, 
            365, 
            18
        ], 
        [
            638, 
            356, 
            57, 
            14
        ], 
        [
            24, 
            375, 
            671, 
            18
        ], 
        [
            26, 
            394, 
            669, 
            18
        ], 
        [
            45, 
            413, 
            650, 
            18
        ]
    ], 
    "image_height": 540, 
    "image_width": 720, 
    "transcription": [
        "u0648_u064a_u0643_u0648_u0646 u0020 u062a_u0633_u0639_u064a_u0631 u0020 u0642_u0648_u0627_u0626_u0645 u0020 u0627_u0644_u0637_u0639_u0627_u0645 u0020 u0623_u0635_u0639_u0628 u0020 u0628_u0627_u0644_u0646_u0633_u0628_u0629 u0020 u0644_u0644_u0645_u0637_u0627_u0639_u0645 u0020 u0627_u0644_u062a_u0627_u0628_u0639_u0629 u0020 u0644_u0641_u0646_u0627_u062f_u0642 u0020 u062d_u064a_u062b u0020 u0623_u0646_u0647_u0627 u0020 u062a_u0648_u0627_u062c_u0647_u0647 u0020 u0645_u0634_u0643_u0644_u0629 u0020 u062a_u063a_u064a_u0631 u0020 u0638_u0631_u0648_u0641 u0020 u0627_u0644_u0633_u0648_u0642 u0020 u0648_u0627_u0644_u0645_u0646_u0627_u0641_u0633_u0629_u060c u0020 u0648_u064a_u062c_u0628_u0020", 
        "u0645_u0631_u0627_u062c_u0639_u0629 u0020 u0623_u0633_u0639_u0627_u0631 u0020 u0642_u0648_u0627_u0626_u0645 u0020 u0627_u0644_u0637_u0639_u0627_u0645 u0020 u0628_u0635_u0648_u0631_u0629 u0020 u062f_u0648_u0631_u064a_u0629 u0020 u0648_u0645_u0633_u062a_u0645_u0631_u0629 u0020 u0648_u064a_u062a_u0645 u0020 u062a_u0639_u062f_u064a_u0644_u0647_u0627 u0020 u062d_u0633_u0628 u0020 u0627_u0644_u062d_u0627_u062c_u0629 u0020 u0648_u0627_u0644_u0645_u0648_u0627_u0633_u0645 u0020 u0648_u0627_u0644_u0645_u0646_u0627_u0641_u0633_u0629_u002e u0020 u0028_u062a_u0648_u0641_u064a_u0642_u060c u0020 u0032_u0030_u0030_u0039_u060c u0020 u0635 u0020 u0031_u0037_u0032_u0029_u000d", 
        "u0646_u0648_u0639 u0020 u0627_u0644_u0645_u0637_u0639_u0645 u0020 u003a u0020 u000d", 
        "u062a_u062e_u062a_u0644_u0641 u0020 u0623_u0633_u0639_u0627_u0631 u0020 u0627_u0644_u0637_u0639_u0627_u0645 u0020 u062d_u0633_u0628 u0020 u0646_u0648_u0639 u0020 u0627_u0644_u0645_u0637_u0639_u0645 u0020 u0641_u0627_u0644_u0645_u0637_u0639_u0645 u0020 u0627_u0644_u062a_u0627_u0628_u0639 u0020 u0644_u0641_u0646_u062f_u0642 u0020 u064a_u062e_u062a_u0644_u0641 u0020 u0639_u0646 u0020 u0627_u0644_u0643_u0627_u0641_u064a_u062a_u064a_u0631_u064a_u0627 u0020 u0648_u064a_u062e_u062a_u0644_u0641 u0020 u0639_u0646 u0020 u0645_u0637_u0639_u0645 u0020 u062e_u062f_u0645_u0629 u0020 u0633_u0631_u064a_u0639_u0629_u060c u0020 u0647_u0644 u0020 u0627_u0644_u0645_u0637_u0639_u0645 u0020 u064a_u0648_u0641_u0631_u0020", 
        "u0623_u0635_u0646_u0627_u0641 u0020 u0645_u062a_u0646_u0648_u0639_u0629 u0020 u0645_u0646 u0020 u0627_u0644_u0637_u0639_u0627_u0645 u0020 u0623_u064a u0020 u0642_u0627_u0626_u0645_u0629 u0020 u0627_u0644_u0637_u0639_u0627_u0645 u0020 u062a_u062d_u062a_u0648_u064a u0020 u0639_u0644_u0649 u0020 u0623_u0635_u0646_u0627_u0641 u0020 u0645_u062d_u062f_u062f_u0629_u061f u0020 u0648_u0625_u0630_u0627 u0020 u062a_u0645 u0020 u062a_u0642_u062f_u064a_u0645 u0020 u0623_u0635_u0646_u0627_u0641 u0020 u0642_u0644_u064a_u0644_u0629 u0020 u0645_u0646 u0020 u0627_u0644_u0637_u0639_u0627_u0645 u0020 u062a_u0627_u0628_u0639 u0020 u0644_u0641_u0646_u062f_u0642 u0020 u0648_u0645_u062a_u0648_u0633_u0637 u0020 u0641_u062a_u0631_u0629_u0020", 
        "u0628_u0642_u0627_u0621 u0020 u0627_u0644_u0636_u064a_u0648_u0641 u0020 u0641_u064a u0020 u0627_u0644_u0641_u0646_u062f_u0642 u0020 u0641_u062a_u0631_u0629 u0020 u0637_u0648_u064a_u0644_u0629 u0020 u0641_u0625_u0646_u0647 u0020 u0645_u0646 u0020 u0627_u0644_u0637_u0628_u064a_u0639_u064a u0020 u062a_u0648_u0641_u064a_u0631 u0020 u0623_u0635_u0646_u0627_u0641 u0020 u0645_u062a_u0646_u0648_u0639_u0629 u0020 u0641_u064a u0020 u0645_u0637_u0639_u0645 u0020 u0627_u0644_u0641_u0646_u062f_u0642 u0020 u0648_u062a_u0645_u064a_u0644 u0020 u0627_u0644_u0623_u0633_u0639_u0627_u0631 u0020 u0625_u0644_u0649 u0020 u0627_u0644_u0627_u0631_u062a_u0641_u0627_u0639 u0020 u0641_u064a u0020 u0647_u0630_u0647 u0020 u0627_u0644_u062d_u0627_u0644_u0629_u002e_u0020", 
        "u0028_u062a_u0648_u0641_u064a_u0642_u060c u0020 u0032_u0030_u0030_u0039_u060c u0020 u0635 u0020 u0031_u0037_u0033_u0029_u000d", 
        "u062a_u0648_u0642_u0639_u0627_u062a u0020 u0648_u0625_u062f_u0631_u0627_u0643 u0020 u0627_u0644_u0636_u064a_u0648_u0641_u003a u0020 u000d", 
        "u0645_u0627_u0647_u064a u0020 u062a_u0648_u0642_u0639_u0627_u062a u0020 u0627_u0644_u0636_u064a_u0648_u0641 u0020 u0646_u062d_u0648 u0020 u0627_u0644_u0645_u0637_u0639_u0645_u061f u0020 u0647_u0644 u0020 u064a_u062a_u0648_u0642_u0639_u0648_u0646 u0020 u062f_u0641_u0639 u0020 u0645_u0628_u0627_u0644_u063a u0020 u0639_u0627_u0644_u064a_u0629 u0020 u0644_u0623_u062c_u0644 u0020 u062e_u062f_u0645_u0629 u0020 u0645_u0645_u064a_u0632_u0629 u0020 u0648_u0627_u062e_u062a_u064a_u0627_u0631 u0020 u0645_u0646_u0627_u0633_u0628 u0020 u0645_u0646 u0020 u0623_u0635_u0646_u0627_u0641 u0020 u0627_u0644_u0637_u0639_u0627_u0645 u0020 u0623_u0648 u0020 u064a_u062a_u0642_u0648_u0642_u0639_u0648_u0646 u0020 u0623_u0646_u0020", 
        "u062a_u0643_u0648_u0646 u0020 u0623_u0633_u0639_u0627_u0631 u0020 u0623_u0635_u0646_u0627_u0641 u0020 u0627_u0644_u0637_u0639_u0627_u0645 u0020 u0648_u0645_u062a_u0648_u0633_u0637_u0629 u0020 u0648_u0627_u0644_u0645_u0637_u0639_u0645 u0020 u064a_u0642_u062f_u0645 u0020 u0637_u0639_u0627_u0645 u0020 u0648_u062e_u062f_u0645_u0629 u0020 u0639_u0627_u062f_u064a_u0629_u002e_u000d", 
        "u0627_u0644_u0645_u0646_u0627_u0641_u0633_u0629_u003a u0020 u000d", 
        "u0645_u0627 u0020 u0647_u0648 u0020 u0639_u062f_u062f u0020 u0627_u0644_u0645_u0637_u0627_u0639_u0645 u0020 u0627_u0644_u0642_u0631_u064a_u0628_u0629 u0020 u0627_u0644_u0645_u0646_u0627_u0641_u0633_u0629_u061f u0020 u0648_u0643_u064a_u0641 u0020 u0647_u064a u0020 u0623_u0633_u0639_u0627_u0631_u0647_u0645 u0020 u0642_u064a_u0627_u0633_u0627_u064b u0020 u0644_u0623_u0633_u0639_u0627_u0631_u0646_u0627 u0020 u0648_u0645_u0633_u062a_u0648_u0649 u0020 u0627_u0644_u062e_u062f_u0645_u0629_u061f u0020 u0643_u064a_u0641 u0020 u0647_u064a u0020 u0623_u062c_u0648_u0627_u0621 u0020 u0645_u0637_u0639_u0645_u0647_u0645 u0020 u0648_u062e_u062f_u0645_u062a_u0647_u0645_u061f u0020 u064a_u062c_u0628_u0020", 
        "u062f_u0631_u0627_u0633_u0629 u0020 u0623_u0633_u0639_u0627_u0631 u0020 u0648_u062e_u062f_u0645_u0627_u062a u0020 u0648_u0645_u0648_u0627_u0642_u0639 u0020 u0648_u0623_u0635_u0646_u0627_u0641 u0020 u0637_u0639_u0627_u0645 u0020 u0627_u0644_u0645_u0637_u0627_u0639_u0645 u0020 u0627_u0644_u0645_u0646_u0627_u0641_u0633_u0629 u0020 u0627_u0644_u062a_u064a u0020 u0636_u0645_u0646 u0020 u0627_u0644_u0645_u0646_u0627_u0637_u0642 u0020 u0627_u0644_u0642_u0631_u064a_u0628_u0629 u0020 u0648_u0627_u0644_u0645_u062a_u0648_u0633_u0637_u0629_u060c u0020 u0648_u0643_u0630_u0644_u0643 u0020 u064a_u062c_u0628 u0020 u062f_u0631_u0627_u0633_u0629 u0020 u0627_u0644_u062d_u0627_u0644_u0627_u062a_u0020", 
        "u0627_u0644_u0625_u064a_u062c_u0627_u0628_u064a_u0629 u0020 u0648_u0627_u0644_u0633_u0644_u0628_u064a_u0629 u0020 u0644_u0645_u0637_u0639_u0645_u0646_u0627 u0020 u0642_u064a_u0627_u0633_u0627_u064b u0020 u0644_u0644_u0645_u0637_u0627_u0639_u0645 u0020 u0627_u0644_u0645_u0646_u0627_u0641_u0633_u0629 u0020 u0648_u0645_u062d_u0627_u0648_u0644_u0629 u0020 u0627_u0644_u062a_u063a_u0644_u0628 u0020 u0639_u0644_u0649 u0020 u0627_u0644_u0633_u0644_u0628_u064a_u0627_u062a u0020 u0648_u062a_u0642_u0648_u064a_u0629 u0020 u0627_u0644_u0625_u064a_u062c_u0627_u0628_u064a_u0627_u062a_u002e u0020 u0028_u062a_u0648_u0641_u064a_u0642_u060c u0020 u0032_u0030_u0030_u0039_u060c u0020 u0635 u0020 u0031_u0037_u0032_u0029"
    ]
}