{
    "bounding_box": [
        [
            12, 
            19, 
            658, 
            31
        ], 
        [
            12, 
            52, 
            658, 
            30
        ], 
        [
            12, 
            86, 
            658, 
            29
        ], 
        [
            12, 
            116, 
            658, 
            31
        ], 
        [
            12, 
            149, 
            658, 
            29
        ], 
        [
            12, 
            185, 
            658, 
            27
        ], 
        [
            76, 
            215, 
            595, 
            29
        ], 
        [
            12, 
            252, 
            658, 
            32
        ], 
        [
            12, 
            287, 
            658, 
            29
        ], 
        [
            12, 
            320, 
            658, 
            29
        ], 
        [
            12, 
            352, 
            658, 
            29
        ], 
        [
            12, 
            386, 
            658, 
            28
        ], 
        [
            12, 
            418, 
            658, 
            28
        ], 
        [
            596, 
            450, 
            75, 
            25
        ]
    ], 
    "image_height": 540, 
    "image_width": 720, 
    "transcription": [
        "u0627_u0644_u062e_u0635_u062e_u0635_u0629_u003a u0020 u062a_u0639_u062f u0020 u0627_u0644_u062e_u0635_u062e_u0635_u0629 u0020 u0028_u0627_u0644_u062e_u0648_u0635_u0635_u0629_u0029 u0020 u0645_u0646 u0020 u0623_u0647_u0645 u0020 u0627_u0644_u062f_u0648_u0627_u0641_u0639 u0020 u0644_u0644_u0648_u0635_u0648_u0644_u0020", 
        "u0625_u0644_u0649 u0020 u062a_u0637_u0628_u064a_u0642 u0020 u0645_u0641_u0647_u0648_u0645 u0020 u0627_u0644_u0628_u0646_u0648_u0643 u0020 u0627_u0644_u0634_u0627_u0645_u0644_u0629_u060c u0020 u0648_u062a_u0642_u0644_u064a_u0644 u0020 u0645_u0639_u062f_u0644_u0627_u062a u0020 u0627_u0644_u0645_u062e_u0627_u0637_u0631_u0629_u060c u0020 u0648_u062a_u0633_u0627_u0647_u0645_u0020", 
        "u0627_u0644_u062e_u0635_u062e_u0635_u0629 u0020 u0641_u064a u0020 u062a_u0646_u0634_u064a_u0637 u0020 u0633_u0648_u0642 u0020 u0627_u0644_u0623_u0648_u0631_u0627_u0642 u0020 u0627_u0644_u0645_u0627_u0644_u064a_u0629_u060c u0020 u0648_u062a_u0648_u0633_u064a_u0639 u0020 u0642_u0627_u0639_u062f_u0629 u0020 u0627_u0644_u0645_u0644_u0643_u064a_u0629_u060c_u0020", 
        "u0648_u0632_u064a_u0627_u062f_u0629 u0020 u0627_u0644_u0645_u0646_u0627_u0641_u0633_u0629 u0020 u0641_u064a u0020 u0627_u0644_u0633_u0648_u0642 u0020 u0627_u0644_u0645_u0635_u0631_u0641_u064a_u0629_u060c u0020 u0648_u062a_u062d_u0633_u064a_u0646 u0020 u0627_u0644_u0623_u062f_u0627_u0621 u0020 u0627_u0644_u0627_u0642_u062a_u0635_u0627_u062f_u064a_u060c_u0020", 
        "u0648_u062a_u062d_u062f_u064a_u062b u0020 u0627_u0644_u0625_u062f_u0627_u0631_u0629_u060c u0020 u0648_u0632_u064a_u0627_u062f_u0629 u0020 u0643_u0641_u0627_u0621_u0629 u0020 u0623_u062f_u0627_u0621 u0020 u0627_u0644_u062e_u062f_u0645_u0627_u062a u0020 u0627_u0644_u0645_u0635_u0631_u0641_u064a_u0629_u060c u0020 u0628_u0627_u0644_u0625_u0636_u0627_u0641_u0629 u0020 u0625_u0644_u0649_u0020", 
        "u0625_u0639_u0637_u0627_u0621 u0020 u0627_u0644_u0645_u0632_u064a_u062f u0020 u0645_u0646 u0020 u0627_u0644_u062d_u0631_u064a_u0629 u0020 u0644_u0644_u0625_u062f_u0627_u0631_u0629 u0020 u0627_u0644_u0645_u0635_u0631_u0641_u064a_u0629 u0020 u0641_u064a u0020 u0627_u062a_u062e_u0627_u0630 u0020 u0627_u0644_u0642_u0631_u0627_u0631_u0627_u062a_u0020", 
        "u0627_u0644_u0625_u062f_u0627_u0631_u064a_u0629 u0020 u0627_u0644_u0627_u0633_u062a_u062b_u0645_u0627_u0631_u064a_u0629 u0020 u0648_u062a_u062c_u0645_u064a_u0639 u0020 u0627_u0644_u0645_u0648_u0627_u0631_u062f u0020 u0648_u062f_u0639_u0645 u0020 u0623_u0633_u0648_u0627_u0642 u0020 u0627_u0644_u0645_u0627_u0644 u0020 u0648_u0627_u0644_u0646_u0642_u062f_u002e_u000d", 
        "u062d_u0631_u0643_u0627_u062a u0020 u0627_u0644_u0627_u0646_u062f_u0645_u0627_u062c_u003a u0020 u0639_u0631_u0641_u062a u0020 u0627_u0644_u0635_u0646_u0627_u0639_u0629 u0020 u0627_u0644_u0645_u0635_u0631_u0641_u064a_u0629 u0020 u0641_u064a u0020 u0627_u0644_u0633_u0646_u0648_u0627_u062a u0020 u0627_u0644_u0623_u062e_u064a_u0631_u0629_u0020", 
        "u062a_u062d_u062a u0020 u062a_u0623_u062b_u064a_u0631 u0020 u0627_u0644_u0639_u0648_u0644_u0645_u0629 u0020 u0646_u062a_u064a_u062c_u0629 u0020 u062a_u062d_u0631_u064a_u0631 u0020 u062a_u062c_u0627_u0631_u0629 u0020 u0627_u0644_u062e_u062f_u0645_u0627_u062a u0020 u0627_u0644_u0645_u0635_u0631_u0641_u064a_u0629 u0020 u0648_u0627_u062a_u0641_u0627_u0642_u064a_u0629_u0020", 
        "u0628_u0627_u0632_u0644 u0020 u0644_u0643_u0641_u0627_u064a_u0629 u0020 u0631_u0623_u0633_u0645_u0627_u0644 u0020 u0627_u0644_u0628_u0646_u0648_u0643 u0020 u062d_u0631_u0643_u0627_u062a u0020 u0627_u0646_u062f_u0645_u0627_u062c u0020 u0628_u064a_u0646 u0020 u0627_u0644_u0628_u0646_u0648_u0643 u0020 u0628_u0645_u0639_u062f_u0644_u0627_u062a u0020 u0643_u0628_u064a_u0631_u0629_u0020", 
        "u0648_u0628_u0623_u062d_u062c_u0627_u0645 u0020 u0645_u062e_u062a_u0644_u0641_u0629 u0020 u062a_u0631_u062a_u0628 u0020 u0639_u0646_u0647_u0627 u0020 u062a_u0643_u0648_u064a_u0646 u0020 u0643_u064a_u0627_u0646_u0627_u062a u0020 u0645_u0627_u0644_u064a_u0629 u0020 u0636_u062e_u0645_u0629 u0020 u0642_u0627_u062f_u0631_u0629 u0020 u0639_u0644_u0649_u0020", 
        "u0627_u0644_u0646_u0645_u0648 u0020 u0648_u0627_u0644_u062a_u0648_u0633_u0639 u0020 u0648_u0641_u062a_u062d u0020 u0641_u0631_u0648_u0639 u0020 u062c_u062f_u064a_u062f_u0629 u0020 u0641_u064a u0020 u0627_u0644_u062f_u0627_u062e_u0644 u0020 u0648_u0627_u0644_u062e_u0627_u0631_u062c_u060c u0020 u0648_u0628_u0627_u0644_u062a_u0627_u0644_u064a u0020 u062a_u0639_u0632_u064a_u0632_u0020", 
        "u0642_u062f_u0631_u0627_u062a_u0647_u0627 u0020 u0627_u0644_u062a_u0646_u0627_u0641_u0633_u064a_u0629_u060c u0020 u0648_u0643_u0630_u0644_u0643 u0020 u062a_u0648_u0633_u064a_u0639 u0020 u0642_u0627_u0639_u062f_u0629 u0020 u0627_u0644_u0639_u0645_u0644_u0627_u0621_u060c u0020 u0648_u062a_u0642_u062f_u064a_u0645 u0020 u062e_u062f_u0645_u0627_u062a_u0020", 
        "u0645_u062a_u0646_u0648_u0639_u0629_u002e"
    ]
}