{
    "bounding_box": [
        [
            372, 
            61, 
            294, 
            29
        ], 
        [
            191, 
            109, 
            476, 
            27
        ], 
        [
            194, 
            153, 
            473, 
            25
        ], 
        [
            181, 
            201, 
            486, 
            26
        ], 
        [
            358, 
            247, 
            308, 
            21
        ], 
        [
            134, 
            297, 
            533, 
            21
        ], 
        [
            257, 
            340, 
            409, 
            22
        ]
    ], 
    "image_height": 540, 
    "image_width": 720, 
    "transcription": [
        "u0631_u0624_u064a_u0629 u0020 u0644_u0645_u0639_u0627_u0644_u062c_u0629 u0020 u0627_u0644_u0648_u0636_u0639 u0020 u0627_u0644_u0627_u0642_u062a_u0635_u0627_u062f_u064a_u000d", 
        "u0627_u0644_u063a_u0627_u0621 u0020 u0623_u0648 u0020 u062a_u0642_u0644_u064a_u0644 u0020 u062f_u0639_u0645 u0020 u0627_u0644_u0645_u062d_u0631_u0648_u0642_u0627_u062a u0020 u0028_u0039_u0030 u0020 u0645_u0644_u064a_u0627_u0631 u0020 u062c_u0646_u064a_u0647_u0029 u0020 u0644_u0644_u0645_u0635_u0627_u0646_u0639 u0020 u0643_u062b_u064a_u0641_u0629_u0020", 
        "u0627_u0644_u0627_u0633_u062a_u0647_u0644_u0627_u0643 u0020 u0645_u062b_u0644 u0020 u0645_u0635_u0627_u0646_u0639 u0020 u0627_u0644_u0623_u0633_u0645_u0646_u062a u0020 u062d_u062a_u0649 u0020 u064a_u0635_u0644 u0020 u0627_u0644_u062f_u0639_u0645 u0020 u0627_u0644_u0649 u0020 u0645_u0633_u062a_u062d_u0642_u064a_u0647_u000d", 
        "u062a_u062e_u0641_u064a_u0636 u0020 u0645_u0639_u062f_u0644 u0020 u0627_u0644_u0628_u0637_u0627_u0644_u0629 u0020 u0627_u0644_u0633_u0646_u0648_u064a u0020 u0627_u0644_u0649 u0020 u0623_u0642_u0644 u0020 u0645_u0646 u0020 u0037_u0025 u0020 u0645_u0646 u0020 u062e_u0644_u0627_u0644 u0020 u0645_u0631_u0627_u0643_u0632_u0020", 
        "u0627_u0644_u062a_u0648_u0638_u064a_u0641 u0020 u0648 u0020 u0627_u0644_u0645_u0634_u0631_u0648_u0639_u0627_u062a u0020 u0645_u062a_u0646_u0627_u0647_u064a_u0629 u0020 u0627_u0644_u0635_u063a_u0631_u002e_u000d", 
        "u0627_u0644_u062a_u0645_u0648_u064a_u0644 u0020 u0645_u0646 u0020 u062e_u0644_u0627_u0644 u0020 u0627_u0644_u0635_u0643_u0648_u0643 u0020 u0627_u0644_u0627_u0626_u062a_u0645_u0627_u0646_u064a_u0629 u0020 u0628_u062f_u0644_u0627 u0020 u0645_u0646 u0020 u0627_u0644_u062f_u064a_u0648_u0646 u0020 u0648 u0020 u0642_u062f u0020 u0631_u0627_u0633_u0644_u0646_u0627 u0020 u0627_u0644_u0639_u062f_u064a_u062f_u0020", 
        "u0645_u0646 u0020 u0627_u0644_u0628_u0646_u0648_u0643 u0020 u0628_u0647_u0630_u0627 u0020 u0648 u0020 u0631_u062f u0020 u0031_u0033 u0020 u0628_u0646_u0643 u0020 u0628_u0639_u062f u0020 u064a_u0648_u0645 u0020 u0648_u0627_u062d_u062f u0020 u0628_u0627_u0644_u0627_u064a_u062c_u0627_u0628_u002e_u0020"
    ]
}