{
    "bounding_box": [
        [
            512, 
            24, 
            124, 
            25
        ], 
        [
            240, 
            73, 
            421, 
            26
        ], 
        [
            544, 
            113, 
            103, 
            25
        ], 
        [
            534, 
            148, 
            113, 
            22
        ], 
        [
            547, 
            184, 
            100, 
            23
        ], 
        [
            465, 
            241, 
            172, 
            25
        ], 
        [
            193, 
            281, 
            457, 
            28
        ]
    ], 
    "image_height": 540, 
    "image_width": 720, 
    "transcription": [
        "u0645_u062c_u0645_u0648_u0639_u0629 u0020 u0627_u0644_u062f_u0645_u062c", 
        "u0627_u0633_u062a_u062e_u062f_u0645 u0020 u0647_u0630_u0647 u0020 u0627_u0644_u0645_u062c_u0645_u0648_u0639_u0629 u0020 u0644_u062a_u0639_u062f_u064a_u0644 u0020 u0627_u0644_u062e_u0644_u0627_u064a_u0627 u0020 u0641_u064a u0020 u0627_u0644_u062c_u062f_u0648_u0644_u002e_u000d", 
        "u062f_u0645_u062c u0020 u0627_u0644_u062e_u0644_u0627_u064a_u0627_u000d", 
        "u062a_u0642_u0633_u064a_u0645 u0020 u0627_u0644_u062e_u0644_u0627_u064a_u0627_u000d", 
        "u062a_u0642_u0633_u064a_u0645 u0020 u062c_u062f_u0648_u0644", 
        "u0645_u062c_u0645_u0648_u0639_u0629 u0020 u062d_u062c_u0645 u0020 u0627_u0644_u062e_u0644_u064a_u0629", 
        "u062a_u0633_u0645_u062d u0020 u0647_u0630_u0647 u0020 u0627_u0644_u0645_u062c_u0645_u0648_u0639_u0629 u0020 u0628_u062a_u0639_u062f_u064a_u0644 u0020 u062d_u062c_u0645 u0020 u0627_u0644_u0635_u0641_u0648_u0641 u0020 u0648_u0627_u0644_u0623_u0639_u0645_u062f_u0629_u002e_u000d"
    ]
}