{
    "bounding_box": [
        [
            216, 
            22, 
            286, 
            51
        ], 
        [
            14, 
            92, 
            666, 
            43
        ], 
        [
            14, 
            140, 
            680, 
            43
        ], 
        [
            14, 
            185, 
            680, 
            45
        ], 
        [
            14, 
            236, 
            680, 
            38
        ], 
        [
            14, 
            284, 
            680, 
            43
        ], 
        [
            14, 
            328, 
            680, 
            42
        ], 
        [
            14, 
            384, 
            680, 
            38
        ], 
        [
            14, 
            428, 
            680, 
            43
        ], 
        [
            473, 
            472, 
            221, 
            41
        ]
    ], 
    "image_height": 540, 
    "image_width": 720, 
    "transcription": [
        "u0642_u0635_u0629 u0020 u0633_u064a_u062f_u0646_u0627 u0020 u0623_u064a_u0648_u0628", 
        "u0647_u0648 u0020 u0645_u0646 u0020 u0623_u0646_u0628_u064a_u0627_u0621 u0020 u0627_u0644_u0644_u0647 u0020 u0627_u0644_u0630_u064a_u0646 u0020 u062c_u0627_u0621 u0020 u0630_u0643_u0631_u0647_u0645 u0020 u0641_u064a u0020 u0627_u0644_u0642_u0631_u0622_u0646_u0020", 
        "u0627_u0644_u0643_u0631_u064a_u0645_u060c u0020 u0639_u0627_u0634 u0020 u0623_u064a_u0648_u0628 u0020 u0648_u0632_u0648_u062c_u062a_u0647 u0020 u0641_u064a u0020 u0645_u0646_u0637_u0642_u0629 u0020 u0022_u062d_u0648_u0631_u0627_u0646_u0022_u0020", 
        "u0648_u0642_u062f u0020 u0623_u0646_u0639_u0645 u0020 u0627_u0644_u0644_u0647 u0020 u0639_u0644_u0649 u0020 u0623_u064a_u0648_u0628 u0020 u0628_u0646_u0639_u0645 u0020 u0643_u062b_u064a_u0631_u0629 u0020 u0641_u0631_u0632_u0642_u0647 u0020 u0628_u0646_u064a_u0646_u064b_u0627_u0020", 
        "u0648_u0628_u0646_u0627_u062a_u060c u0020 u0648_u0623_u0631_u0627_u0636 u0020 u0643_u062b_u064a_u0631_u0629_u060c u0020 u0643_u0645_u0627 u0020 u0631_u0632_u0642_u0647 u0020 u0642_u0637_u0639_u0627_u0646 u0020 u0627_u0644_u0645_u0627_u0634_u064a_u0629_u0020", 
        "u0628_u0623_u0646_u0648_u0627_u0639_u0647_u0627 u0020 u0627_u0644_u0645_u062e_u062a_u0644_u0641_u0629_u002e u0020 u0648_u0641_u0648_u0642 u0020 u0630_u0644_u0643 u0020 u0643_u0644_u0647 u0020 u0623_u0639_u0644_u0649 u0020 u0627_u0644_u0644_u0647 u0020 u0645_u0643_u0627_u0646_u062a_u0647_u0020", 
        "u0648_u0627_u062e_u062a_u0627_u0631_u0647 u0020 u0644_u0644_u0646_u0628_u0648_u0629_u002e u0020 u0648_u0643_u0627_u0646 u0020 u0623_u064a_u0648_u0628 u0020 u0645_u0644_u0627_u0630_u064b_u0627 u0020 u0648_u0645_u0644_u062c_u0626_u064b_u0627 u0020 u0644_u0644_u0641_u0642_u0631_u0627_u0621 u0020 u0644_u0645_u0627_u0020", 
        "u0639_u0644_u0645_u0648_u0627 u0020 u0639_u0646_u0647 u0020 u0643_u0648_u0646_u0647 u0020 u064a_u062c_u0648_u062f u0020 u0628_u0645_u0627 u0020 u0644_u062f_u064a_u0647 u0020 u0648_u0644_u0627 u0020 u064a_u0645_u0646_u0639_u0647_u0645 u0020 u0645_u0646 u0020 u0645_u0627_u0644_u0647_u0020", 
        "u0634_u064a_u0626_u064b_u0627_u002e u0020 u0648_u0628_u0644_u063a u0020 u0645_u0646 u0020 u0643_u0631_u0645_u0647 u0020 u0623_u0646_u0647 u0020 u0644_u0627 u0020 u064a_u062a_u0646_u0627_u0648_u0644 u0020 u0637_u0639_u0627_u0645_u064b_u0627 u0020 u062d_u062a_u0649 u0020 u064a_u0643_u0648_u0646_u0020", 
        "u0644_u062f_u064a_u0647 u0020 u0636_u064a_u0641_u064b_u0627 u0020 u0641_u0642_u064a_u0631_u064b_u0627_u002e_u0020"
    ]
}