{
    "bounding_box": [
        [
            327, 
            513, 
            64, 
            6
        ], 
        [
            43, 
            511, 
            13, 
            6
        ], 
        [
            198, 
            71, 
            322, 
            36
        ], 
        [
            44, 
            169, 
            622, 
            30
        ], 
        [
            114, 
            203, 
            490, 
            29
        ]
    ], 
    "image_height": 540, 
    "image_width": 720, 
    "transcription": [
        "u0041_u006c_u0069_u006f_u0062_u0065_u0069_u0064_u002e_u0063_u006f_u006d", 
        "u0039_u0037", 
        "u0627_u0644_u0645_u0639_u0627_u064a_u0631_u0629 u0020 u0043_u0061_u006c_u0069_u0062_u0072_u0061_u0074_u0069_u006f_u006e", 
        "u0627_u0644_u0642_u062f_u0631_u0629 u0020 u0639_u0644_u0649 u0020 u0645_u0644_u0627_u062d_u0638_u0629 u0020 u0627_u0644_u0633_u0644_u0648_u0643 u0020 u0627_u0644_u062a_u0639_u0628_u064a_u0631_u064a u0020 u0627_u0644_u062e_u0627_u0631_u062c_u064a u0020 u0644_u0644_u0639_u0645_u064a_u0644 u0020 u0648_u0627_u0644_u062f_u0627_u0644_u0629 u0020 u0639_u0644_u0649 u0020 u0645_u0627_u0020", 
        "u064a_u0645_u0631 u0020 u0628_u0647 u0020 u0627_u0644_u0634_u062e_u0635 u0020 u0645_u0646 u0020 u0627_u0644_u062f_u0627_u062e_u0644 u0020 u0648_u0627_u0646_u062a_u0642_u0627_u0644_u0647 u0020 u0645_u0646 u0020 u062d_u0627_u0644_u0629 u0020 u0625_u0644_u0649 u0020 u0623_u062e_u0631_u0649"
    ]
}