{
    "bounding_box": [
        [
            645, 
            500, 
            13, 
            10
        ], 
        [
            199, 
            24, 
            272, 
            25
        ], 
        [
            42, 
            107, 
            647, 
            19
        ], 
        [
            519, 
            128, 
            143, 
            20
        ], 
        [
            50, 
            150, 
            640, 
            19
        ], 
        [
            36, 
            171, 
            626, 
            20
        ], 
        [
            446, 
            197, 
            216, 
            16
        ], 
        [
            30, 
            237, 
            659, 
            19
        ], 
        [
            36, 
            258, 
            627, 
            19
        ], 
        [
            207, 
            279, 
            455, 
            20
        ], 
        [
            20, 
            323, 
            669, 
            19
        ], 
        [
            129, 
            344, 
            533, 
            19
        ], 
        [
            7, 
            9, 
            10, 
            13
        ], 
        [
            208, 
            72, 
            489, 
            23
        ]
    ], 
    "image_height": 540, 
    "image_width": 720, 
    "transcription": [
        "u0031_u0031", 
        "u0627_u0644_u0639_u0627_u0645_u0644_u0648_u0646 u0020 u0641_u064a u0020 u0623_u062c_u0647_u0632_u0629 u0020 u0627_u0644_u0639_u0644_u0627_u0642_u0627_u062a u0020 u0627_u0644_u0639_u0627_u0645_u0629_u0020", 
        "u0625_u0646 u0020 u0627_u0644_u062c_u0647_u062f u0020 u0627_u0644_u0645_u0648_u0641_u0642 u0020 u0641_u064a u0020 u0627_u0644_u0639_u0644_u0627_u0642_u0627_u062a u0020 u0627_u0644_u0639_u0627_u0645_u0629 u0020 u064a_u0639_u062a_u0645_u062f u0020 u062f_u0627_u0626_u0645_u0627_u064b u0020 u0639_u0644_u0649 u0020 u0627_u0644_u062a_u0641_u0627_u0639_u0644 u0020 u0627_u0644_u0645_u0633_u062a_u0645_u0631 u0020 u0628_u064a_u0646 u0020 u0645_u062e_u062a_u0644_u0641 u0020 u0623_u0646_u0648_u0627_u0639 u0020 u0627_u0644_u0645_u0648_u0627_u0647_u0628 u0020 u0648_u0627_u0644_u0645_u0647_u0627_u0631_u0627_u062a u0020 u0641_u064a_u0020", 
        "u0627_u0644_u0625_u062f_u0627_u0631_u0629 u0020 u0648_u0627_u0644_u0628_u062d_u062b u0020 u0648_u0627_u0644_u0625_u0646_u062a_u0627_u062c_u002e_u000d", 
        "u0641_u0627_u0644_u0646_u062c_u0627_u062d u0020 u0627_u0644_u0623_u0633_u0645_u0649 u0020 u0644_u0644_u062a_u0646_u0638_u064a_u0645 u0020 u064a_u062a_u0648_u0642_u0641 u0020 u0625_u0644_u0649 u0020 u062d_u062f u0020 u0643_u0628_u064a_u0631 u0020 u0639_u0644_u0649 u0020 u0627_u0644_u0639_u0646_u0635_u0631 u0020 u0627_u0644_u0628_u0634_u0631_u064a u0020 u0641_u064a u0020 u0627_u0644_u062a_u0646_u0638_u064a_u0645_u060c u0020 u0641_u0627_u0644_u0637_u0627_u0642_u0629 u0020 u0627_u0644_u0628_u0634_u0631_u064a_u0629 u0020 u0647_u064a u0020 u0627_u0644_u0634_u0631_u0637 u0020 u0627_u0644_u0623_u0648_u0644_u0020", 
        "u0627_u0644_u0644_u0627_u0632_u0645 u0020 u0644_u0644_u062a_u0646_u0638_u064a_u0645_u002e u0020 u0648_u0644_u064a_u0633 u0020 u0647_u0646_u0627_u0643 u0020 u0641_u0627_u0626_u062f_u0629 u0020 u0645_u0646 u0020 u0625_u0646_u0634_u0627_u0621 u0020 u062a_u0646_u0638_u064a_u0645 u0020 u0639_u0644_u0649 u0020 u0623_u0633_u0633 u0020 u0648_u0642_u0648_u0627_u0639_u062f u0020 u0639_u0644_u0645_u064a_u0629 u0020 u062f_u0648_u0646 u0020 u062a_u0648_u0641_u0631 u0020 u0627_u0644_u0643_u0627_u062f_u0631 u0020 u0627_u0644_u0628_u0634_u0631_u064a u0020 u0627_u0644_u0645_u0624_u0647_u0644_u0020", 
        "u0644_u0644_u0642_u064a_u0627_u0645 u0020 u0628_u0627_u0644_u0648_u0627_u062c_u0628_u0627_u062a u0020 u0627_u0644_u062a_u064a u0020 u064a_u062d_u062f_u062f_u0647_u0627 u0020 u0627_u0644_u062a_u0646_u0638_u064a_u0645_u002e_u000d", 
        "u0625_u0646 u0020 u0627_u0644_u0646_u062c_u0627_u062d u0020 u0641_u064a u0020 u0627_u062e_u062a_u064a_u0627_u0631 u0020 u0627_u0644_u0639_u0627_u0645_u0644_u064a_u0646 u0020 u0641_u064a u0020 u0623_u062c_u0647_u0632_u0629 u0020 u0627_u0644_u0639_u0644_u0627_u0642_u0627_u062a u0020 u0627_u0644_u0639_u0627_u0645_u0629 u0020 u064a_u062a_u0648_u0642_u0641 u0020 u0623_u0633_u0627_u0633_u0627_u064b u0020 u0639_u0644_u0649 u0020 u0627_u0644_u0641_u0647_u0645 u0020 u0627_u0644_u0648_u0627_u0636_u062d u0020 u0644_u0645_u0627 u0020 u062a_u062a_u0648_u0642_u0639_u0647 u0020 u0627_u0644_u0645_u0624_u0633_u0633_u0629 u0020 u0645_u0646_u0020", 
        "u0647_u0630_u0647 u0020 u0627_u0644_u0623_u062c_u0647_u0632_u0629 u0020 u0648_u0645_u0646 u0020 u0627_u0644_u0639_u0627_u0645_u0644_u064a_u0646 u0020 u0641_u064a_u0647_u0627_u002e u0020 u0648_u0647_u0630_u0627 u0020 u0627_u0644_u062a_u0648_u0642_u0639 u0020 u064a_u0645_u062b_u0644 u0020 u0627_u0644_u0647_u062f_u0641 u0020 u0627_u0644_u0630_u064a u0020 u064a_u062c_u0628 u0020 u0623_u0646 u0020 u064a_u0624_u062e_u0630 u0020 u0628_u0639_u064a_u0646 u0020 u0627_u0644_u0627_u0639_u062a_u0628_u0627_u0631 u0020 u0639_u0646_u062f u0020 u0625_u0639_u062f_u0627_u062f u0020 u0627_u0644_u062e_u0637_u0637_u0020", 
        "u0648_u0627_u0644_u0628_u0631_u0627_u0645_u062c u0020 u0627_u0644_u062e_u0627_u0635_u0629 u0020 u0628_u0625_u0645_u062f_u0627_u062f u0020 u062c_u0647_u0627_u0632 u0020 u0627_u0644_u0639_u0644_u0627_u0642_u0627_u062a u0020 u0627_u0644_u0639_u0627_u0645_u0629 u0020 u0628_u0627_u0644_u0639_u0627_u0645_u0644_u064a_u0646 u0020 u0630_u0648_u064a u0020 u0627_u0644_u0645_u0642_u062f_u0631_u0629 u0020 u0648_u0627_u0644_u0643_u0641_u0627_u0621_u0629_u002e_u000d", 
        "u0623_u0645_u0627 u0020 u0628_u0627_u0644_u0646_u0633_u0628_u0629 u0020 u0644_u0639_u062f_u062f u0020 u0627_u0644_u0639_u0627_u0645_u0644_u064a_u0646 u0020 u0641_u0644_u0627 u0020 u064a_u062e_u0636_u0639 u0020 u0644_u0642_u0627_u0646_u0648_u0646 u0020 u0623_u0648 u0020 u0644_u0642_u0648_u0627_u0639_u062f u0020 u062b_u0627_u0628_u062a_u0629 u0020 u0623_u0648 u0020 u0646_u0633_u0628_u064a_u0629_u060c u0020 u0641_u0639_u062f_u062f_u0647_u0645 u0020 u064a_u062a_u0648_u0642_u0641 u0020 u0639_u0644_u0649 u0020 u062d_u062c_u0645 u0020 u0627_u0644_u0645_u0624_u0633_u0633_u0629 u0020 u0623_u0648_u0644_u0627_u064b u0020 u0648_u062d_u062c_u0645_u0020", 
        "u0627_u0644_u0639_u0644_u0627_u0642_u0627_u062a u0020 u0627_u0644_u0639_u0627_u0645_u0629 u0020 u0648_u0645_u0647_u0645_u0627_u062a_u0647 u0020 u0648_u0637_u0628_u064a_u0639_u0629 u0020 u0647_u0630_u0627 u0020 u0627_u0644_u062c_u0647_u0627_u0632 u0020 u0645_u0646 u0020 u062d_u064a_u062b u0020 u0627_u0644_u0628_u0633_u0627_u0637_u0629 u0020 u0648_u0627_u0644_u062a_u0639_u0642_u064a_u062f u0020 u0648_u0623_u0647_u062f_u0627_u0641_u0647 u0020 u0648_u062e_u0637_u0637_u0647 u0020 u062b_u0627_u0646_u064a_u0627_u064b_u002e", 
        "u0039", 
        "u0623_u0648_u0644_u0627_u064b_u003a u0020 u0627_u0644_u0625_u0637_u0627_u0631 u0020 u0627_u0644_u0639_u0627_u0645 u0020 u0644_u0645_u0648_u0627_u0635_u0641_u0627_u062a u0020 u0627_u0644_u0639_u0627_u0645_u0644_u064a_u0646 u0020 u0641_u064a u0020 u0623_u062c_u0647_u0632_u0629 u0020 u0627_u0644_u0639_u0644_u0627_u0642_u0627_u062a u0020 u0627_u0644_u0639_u0627_u0645_u0629_u0020"
    ]
}