{
    "bounding_box": [
        [
            144, 
            258, 
            415, 
            46
        ]
    ], 
    "image_height": 540, 
    "image_width": 720, 
    "transcription": [
        "u0645_u0627 u0020 u0647_u064a u0020 u0639_u0646_u0627_u0635_u0631 u0020 u0642_u0648_u0629 u0020 u0627_u0644_u0634_u062e_u0635_u064a_u0629_u061f"
    ]
}