{
    "bounding_box": [
        [
            309, 
            35, 
            373, 
            41
        ], 
        [
            266, 
            167, 
            391, 
            28
        ], 
        [
            215, 
            213, 
            442, 
            25
        ], 
        [
            113, 
            256, 
            544, 
            26
        ], 
        [
            58, 
            287, 
            599, 
            29
        ], 
        [
            78, 
            320, 
            579, 
            31
        ], 
        [
            111, 
            355, 
            546, 
            31
        ], 
        [
            105, 
            391, 
            551, 
            30
        ], 
        [
            267, 
            426, 
            390, 
            30
        ]
    ], 
    "image_height": 540, 
    "image_width": 720, 
    "transcription": [
        "u0627_u0644_u0645_u0627_u062f_u0629 u0020 u0627_u0644_u0641_u0639_u0627_u0644_u0629 u0020 u0648_u0622_u0644_u064a_u0629 u0020 u0627_u0644_u0639_u0645_u0644 u0020 u00a0", 
        "u00a0_u062a_u0631_u0627_u0645_u0627_u062f_u0648_u0644_u00a0_u0054_u0072_u0061_u006d_u0061_u0064_u006f_u006c_u00a0 u0020 u060c u0020 u0647_u0648 u0020 u0645_u0646 u0020 u0627_u0644_u0623_u062f_u0648_u064a_u0629 u0020 u000d", 
        "u0627_u0644_u0645_u0633_u0643_u0646_u0629 u0020 u0627_u0644_u0627_u0641_u064a_u0648_u0646_u064a_u0629 u0020 u060c u0020 u062d_u064a_u062b u0020 u064a_u0639_u0645_u0644 u0020 u0639_u0644_u0649 u0020 u0645_u062d_u0627_u0643_u0627_u0629 u0020 u0639_u0645_u0644_u000d", 
        "u0020_u0645_u0627_u062f_u0629 u0020 u0627_u0644_u0627_u0646_u062f_u0648_u0631_u0641_u064a_u0646 u0020 u0648_u0647_u064a u0020 u0645_u0627_u062f_u0629 u0020 u0643_u064a_u0645_u064a_u0627_u0626_u064a_u0629 u0020 u0637_u0628_u064a_u0639_u064a_u0629 u0020 u062a_u0648_u062c_u062f u0020 u0641_u064a u0020 u0627_u0644_u062f_u0645_u0627_u063a_u0020", 
        "u0648_u0627_u0644_u062d_u0628_u0644 u0020 u0627_u0644_u0634_u0648_u0643_u064a u0020 u060c u0020 u062d_u064a_u062b u0020 u064a_u0631_u062a_u0628_u0637 u0020 u0627_u0644_u0627_u0646_u062f_u0648_u0631_u0641_u064a_u0646 u0020 u0645_u0639 u0020 u0627_u0644_u0645_u0633_u062a_u0642_u0628_u0644_u0627_u062a u0020 u0627_u0644_u0627_u0641_u064a_u0648_u0646_u064a_u0629_u0020", 
        "u0641_u064a_u0645_u0646_u0639 u0020 u0645_u0646 u0020 u0627_u0646_u062a_u0642_u0627_u0644 u0020 u0625_u0634_u0627_u0631_u0627_u062a u0020 u0627_u0644_u0623_u0644_u0645 u0020 u0625_u0644_u0649 u0020 u0627_u0644_u062f_u0645_u0627_u063a u0020 u0645_u0645_u0627 u0020 u064a_u0624_u062f_u064a u0020 u0625_u0644_u0649 u0020 u0627_u0644_u062a_u062e_u0641_u064a_u0641_u0020", 
        "u0645_u0646 u0020 u0627_u0644_u0623_u0644_u0645 u0020 u060c u0020 u0643_u0645_u0627 u0020 u0623_u0646 u0020 u0627_u0644_u062a_u0631_u0627_u0645_u0627_u062f_u0648_u0644 u0020 u064a_u0639_u0645_u0644 u0020 u0639_u0644_u0649 u0020 u062a_u062d_u0641_u064a_u0632 u0020 u0646_u0634_u0627_u0637 u0020 u0627_u0644_u0646_u0648_u0627_u0642_u0644_u0020", 
        "u0627_u0644_u0639_u0635_u0628_u064a_u0629 u0020 u0645_u062b_u0644 u0020 u0627_u0644_u0633_u064a_u0631_u0648_u062a_u0648_u0646_u064a_u0646 u0020 u0648_u0627_u0644_u0646_u0648_u0631_u0623_u062f_u0631_u064a_u0646_u0627_u0644_u064a_u0646 u0020 u0641_u064a u0020 u0627_u0644_u062f_u0645_u0627_u063a u0020 u0648_u0627_u0644_u062d_u0628_u0644_u0020", 
        "u0627_u0644_u0634_u0648_u0643_u064a u0020 u0645_u0645_u0627 u0020 u064a_u0633_u0627_u0639_u062f u0020 u0639_u0644_u0649 u0020 u0627_u0644_u062a_u062e_u0641_u064a_u0641 u0020 u0645_u0646 u0020 u0627_u0644_u0623_u0644_u0645 u0020 u002e"
    ]
}