{
    "bounding_box": [
        [
            260, 
            48, 
            199, 
            42
        ], 
        [
            91, 
            130, 
            585, 
            33
        ], 
        [
            153, 
            166, 
            523, 
            32
        ], 
        [
            488, 
            206, 
            187, 
            34
        ], 
        [
            61, 
            248, 
            614, 
            34
        ], 
        [
            48, 
            284, 
            627, 
            33
        ], 
        [
            60, 
            325, 
            616, 
            34
        ], 
        [
            182, 
            361, 
            494, 
            33
        ], 
        [
            70, 
            402, 
            606, 
            34
        ], 
        [
            467, 
            440, 
            209, 
            26
        ]
    ], 
    "image_height": 540, 
    "image_width": 720, 
    "transcription": [
        "u063a_u0627_u0632 u0020 u0627_u0644_u0641_u062d_u0645 u0020 u0043_u004f", 
        "u063a_u0627_u0632 u0020 u0639_u062f_u064a_u0645 u0020 u0627_u0644_u0644_u0648_u0646 u0020 u0648_u0627_u0644_u0637_u0639_u0645 u0020 u0648_u0627_u0644_u0631_u0627_u0626_u062d_u0629 u0020 u0644_u0647 u0020 u0643_u062b_u0627_u0641_u0629 u0020 u0645_u0634_u0627_u0628_u0647_u0629 u0020 u0644_u0643_u062b_u0627_u0641_u0629_u0020", 
        "u0627_u0644_u0647_u0648_u0627_u0621 u0020 u0648_u0647_u0648 u0020 u0646_u0627_u062c_u0645 u0020 u0639_u0646 u0020 u0627_u0644_u0627_u062d_u062a_u0631_u0627_u0642 u0020 u063a_u064a_u0631 u0020 u0627_u0644_u0643_u0627_u0645_u0644 u0020 u0644_u0644_u0648_u0642_u0648_u062f_u002e_u000d", 
        "u0645_u064a_u0643_u0627_u0646_u064a_u0643_u064a_u0629 u0020 u0627_u0644_u062a_u0633_u0645_u0645_u003a_u000d", 
        "u0031_u002d u0020 u062a_u0646_u062a_u062c u0020 u0627_u0644_u0627_u0639_u0631_u0627_u0636 u0020 u0627_u0644_u0633_u0645_u064a_u0629 u0020 u0645_u0646 u0020 u0642_u0644_u0629 u0020 u0627_u0644_u0627_u0648_u0643_u0633_u062c_u064a_u0646 u0020 u0627_u0644_u0644_u0627_u0632_u0645 u0020 u0644_u0644_u0627_u062a_u062d_u0627_u062f_u0020", 
        "u0645_u0639 u0020 u0643_u0631_u064a_u0627_u062a u0020 u0627_u0644_u062f_u0645 u0020 u0627_u0644_u062d_u0645_u0631_u0627_u0621 u0020 u0648_u0628_u0627_u0644_u062a_u0627_u0644_u064a u0020 u0642_u0644_u0629 u0020 u0627_u0644_u0627_u0648_u0643_u0633_u062c_u064a_u0646 u0020 u0641_u064a u0020 u0627_u0644_u0627_u0646_u0633_u062c_u0629_u002e_u000d", 
        "u0032_u002d u0020 u0627_u0646_u062d_u0631_u0627_u0641 u0020 u062f_u0631_u062c_u0629 u0020 u062a_u0641_u0643_u0643 u0020 u0627_u0644_u0627_u0648_u0643_u0633_u064a u0020 u0647_u064a_u0645_u0648_u0643_u0644_u0648_u0628_u064a_u0646 u0020 u0645_u0645_u0627 u0020 u064a_u0624_u062f_u064a u0020 u0627_u0644_u0649_u0020", 
        "u0627_u0646_u062e_u0641_u0627_u0636 u0020 u0636_u063a_u0637 u0020 u0627_u0644_u0627_u0648_u0643_u0633_u062c_u064a_u0646 u0020 u0627_u0644_u0645_u062a_u0648_u0641_u0631 u0020 u0641_u064a u0020 u0627_u0644_u0627_u0646_u0633_u062c_u0629_u002e_u000d", 
        "u0033_u002d u0020 u0627_u062a_u062d_u0627_u062f u0020 u063a_u0627_u0632 u0020 u0627_u0644_u0641_u062d_u0645 u0020 u0628_u0627_u0644_u0647_u064a_u0645_u0648_u0643_u0644_u0648_u0628_u064a_u0646 u0020 u0628_u0627_u0644_u0641_u0629 u0020 u062a_u0642_u062f_u0631 u0020 u0628 u0020 u0032_u0034_u0030 u0020 u0645_u0631_u0629_u0020", 
        "u0627_u0643_u0628_u0631 u0020 u0645_u0646 u0020 u0627_u0644_u0627_u0648_u0643_u0633_u062c_u064a_u0646_u002e"
    ]
}