{
    "bounding_box": [
        [
            92, 
            75, 
            457, 
            39
        ], 
        [
            141, 
            131, 
            435, 
            18
        ], 
        [
            43, 
            150, 
            533, 
            18
        ], 
        [
            436, 
            171, 
            140, 
            16
        ], 
        [
            465, 
            220, 
            133, 
            18
        ], 
        [
            315, 
            244, 
            283, 
            19
        ], 
        [
            458, 
            269, 
            139, 
            19
        ], 
        [
            403, 
            290, 
            173, 
            23
        ], 
        [
            434, 
            320, 
            142, 
            18
        ], 
        [
            180, 
            345, 
            396, 
            19
        ], 
        [
            65, 
            395, 
            533, 
            19
        ], 
        [
            43, 
            415, 
            533, 
            18
        ], 
        [
            214, 
            434, 
            362, 
            18
        ], 
        [
            51, 
            459, 
            547, 
            19
        ], 
        [
            309, 
            480, 
            267, 
            17
        ]
    ], 
    "image_height": 540, 
    "image_width": 720, 
    "transcription": [
        "u0645_u0628_u0646_u0649 u0020 u0648_u062a_u0643_u0627_u062b_u0631 u0020 u0641_u064a_u0631_u0648_u0633 u0020 u0627_u0644_u0068_u0069_u0076", 
        "u0641_u064a_u0631_u0648_u0633 u0020 u0048_u0049_u0056 u0020 u0020_u0647_u0648 u0020 u0641_u064a_u0631_u0648_u0633 u0020 u062d_u064a_u0648_u0627_u0646_u064a u0020 u0020_u0648_u0647_u0648 u0020 u0645_u0646 u0020 u0645_u062c_u0645_u0648_u0639_u0629 u0020 u0627_u0644_u0020", 
        "u0052_u0045_u0054_u0052_u004f_u0056_u0049_u0052_u0055_u0053 u0020 u0020 u0020 u0020_u0627_u0644_u062a_u064a u0020 u0641_u064a_u0631_u0648_u0633_u062a_u0627_u0647_u0627 u0020 u062a_u0642_u0648_u0645 u0020 u0628_u0639_u0645_u0644_u064a_u0629 u0020 u0646_u0633_u062e u0020 u0627_u0644_u0645_u0627_u062f_u0647 u0020 u0627_u0644_u0648_u0631_u0627_u062b_u064a_u0647_u0020", 
        "u0628_u0634_u0643_u0644 u0020 u0639_u0643_u0633_u064a_u002e u0020 u000d", 
        "u064a_u062a_u0643_u0648_u0646 u0020 u0627_u0644_u0641_u064a_u0631_u0648_u0633_u003a_u000d", 
        "u0020_u0031_u002d u0020 u063a_u0644_u0627_u0641 u0020 u0627_u0636_u0627_u0641_u064a u0020 u062e_u0627_u0631_u062c_u064a u0020 u0644_u0644_u0641_u064a_u0631_u0648_u0633_u000d", 
        "u0020_u0032_u002d u0020 u062c_u0644_u064a_u0643_u0648 u0020 u0628_u0631_u0648_u062a_u064a_u0646_u000d", 
        "u0033_u002d u0020 u0627_u0631 u0020 u0627_u0646 u0020 u0623_u064a u0020 u0641_u064a_u0631_u0648_u0633_u064a_u000d", 
        "u0034_u002d u0020 u063a_u0644_u0627_u0641 u0020 u0628_u0631_u0648_u062a_u064a_u0646_u064a_u000d", 
        "u0035_u002d_u0627_u0646_u0632_u064a_u0645 u0020 u0627_u0644_u0630_u064a u0020 u064a_u0642_u0648_u0645 u0020 u0628_u0639_u0645_u064a_u0644_u0629 u0020 u0627_u0644_u0646_u0633_u062e u0020 u0628_u0634_u0643_u0644 u0020 u0639_u0643_u0633_u064a_u000d", 
        "u0645_u0628_u0646_u0649 u0020 u0627_u0644_u0641_u064a_u0631_u0648_u0633_u003a u0020 u0634_u0643_u0644 u0020 u0627_u0644_u0641_u064a_u0631_u0648_u0633 u0020 u0643_u0631_u0648_u064a u0020 u0648_u0642_u0637_u0631_u0647 u0020 u0031_u0030_u0030 u0020 u0646_u0627_u0646_u0648_u0645_u062a_u0631 u0020 u002c u0020 u0648_u0647_u0648 u0020 u0630_u0648_u0020", 
        "u063a_u0644_u0627_u0641 u0020 u0627_u0636_u0627_u0641_u064a u0020 u062e_u0627_u0631_u062c_u064a u0020 u0648_u062a_u0648_u062c_u062f u0020 u0641_u064a_u0647 u0020 u062c_u0632_u0626_u064a_u0627_u062a u0020 u062c_u0644_u064a_u0643_u0648 u0020 u0628_u0631_u0648_u062a_u064a_u0646 u0020 u062e_u0627_u0635_u0629 u0020 u0648_u0647_u064a_u0020", 
        "u0628_u0627_u0631_u0632_u0647 u0020 u0639_u0644_u0649 u0020 u0633_u0637_u062d u0020 u0627_u0644_u0641_u064a_u0631_u0648_u0633 u0020 u0628_u0627_u0644_u0627_u062a_u062c_u0627_u0647 u0020 u0627_u0644_u062e_u0627_u0631_u062c_u064a_u002e_u000d", 
        "u0020_u0627_u0644_u063a_u0644_u0627_u0641 u0020 u0627_u0644_u0627_u0636_u0627_u0641_u064a u0020 u0627_u0644_u062e_u0627_u0631_u062c_u064a u0020 u064a_u062d_u064a_u0637 u0020 u0627_u0644_u063a_u0644_u0627_u0641 u0020 u0627_u0644_u0628_u0631_u0648_u062a_u064a_u0646_u064a u0020 u0627_u0644_u0630_u064a u0020 u064a_u062d_u062a_u0648_u064a u0020 u0639_u0644_u0649_u0020", 
        "u0627_u0644_u0645_u0627_u062f_u0647 u0020 u0627_u0644_u0648_u0631_u0627_u062b_u064a_u0647 u0020 u0645_u0646 u0020 u0646_u0648_u0639 u0020 u201d_u0627_u0631 u0020 u0627_u0646 u0020 u0623_u064a_u201c_u000d"
    ]
}