{
    "bounding_box": [
        [
            242, 
            50, 
            258, 
            43
        ], 
        [
            400, 
            192, 
            250, 
            23
        ], 
        [
            406, 
            221, 
            245, 
            23
        ], 
        [
            392, 
            250, 
            258, 
            23
        ], 
        [
            451, 
            276, 
            199, 
            23
        ], 
        [
            392, 
            306, 
            258, 
            24
        ], 
        [
            380, 
            335, 
            270, 
            24
        ], 
        [
            392, 
            365, 
            258, 
            23
        ], 
        [
            400, 
            392, 
            251, 
            23
        ], 
        [
            395, 
            420, 
            255, 
            25
        ], 
        [
            412, 
            449, 
            238, 
            25
        ], 
        [
            594, 
            479, 
            56, 
            23
        ]
    ], 
    "image_height": 540, 
    "image_width": 720, 
    "transcription": [
        "u0623_u064a_u0646 u0020 u0643_u0627_u0646_u062a u0020 u0646_u0634_u0623_u062a_u0643_u061f", 
        "u0644_u0642_u062f u0020 u0648_u0644_u062f_u062a u0020 u0641_u064a u0020 u064a_u0648_u0645 u0020 u0627_u0644_u062c_u0645_u0639_u0629 u0020 u0627_u0644_u0645_u0648_u0627_u0641_u0642_u0020", 
        "u0661_u0665 u0020 u0646_u0648_u0641_u0645_u0628_u0631 u0020 u0639_u0627_u0645 u0020 u0661_u0668_u0668_u0669 u0020 u0641_u064a u0020 u0642_u0631_u064a_u0629_u0020", 
        "u0627_u0644_u0643_u064a_u0644_u0648 u0020 u0641_u064a u0020 u0645_u062d_u0627_u0641_u0638_u0629 u0020 u0627_u0644_u0645_u0646_u064a_u0627 u0020 u0648 u0020 u0647_u064a u0020 u0645_u0646_u0020", 
        "u0645_u062d_u0627_u0641_u0638_u0627_u062a u0020 u0627_u0644_u0635_u0639_u064a_u062f u0020 u0627_u0644_u0623_u0648_u0633_u0637_u0020", 
        "u0627_u0644_u0645_u0635_u0631_u064a_u002e u0020 u0643_u0646_u062a u0020 u0623_u0646_u0627 u0020 u0633_u0627_u0628_u0639 u0020 u0623_u0648_u0644_u0627_u062f u0020 u0623_u0628_u064a_u0020", 
        "u0648 u0020 u0643_u0627_u0646 u0020 u0648_u0627_u0644_u062f_u064a u0020 u0645_u0648_u0638_u0641 u0020 u0628_u0635_u064a_u0637 u0020 u0645_u064a_u0633_u0648_u0631_u0020", 
        "u0627_u0644_u062d_u0627_u0644 u0020 u0641_u064a u0020 u0634_u0631_u0643_u0629 u0020 u0644_u062a_u0635_u0646_u064a_u0639 u0020 u0627_u0644_u0633_u0643_u0631_u002e u0020 u0648_u0020", 
        "u0644_u0643_u0646 u0020 u0644_u0644_u0623_u0633_u0641 u0020 u0641_u064a u0020 u0627_u0644_u062b_u0627_u0644_u062b_u0629 u0020 u0645_u0646 u0020 u0639_u0645_u0631_u064a_u0020", 
        "u0623_u0635_u0628_u062a u0020 u0628_u0627_u0644_u0631_u0645_u062f u0020 u0641_u064a u0020 u0639_u064a_u0646_u064a u0020 u0648 u0020 u0644_u0623_u0646_u064a u0020 u0644_u0645_u0020", 
        "u0632_u062a_u0639_u0627_u0644_u062c u0020 u0628_u0637_u0631_u064a_u0642_u0629 u0020 u0635_u062d_u064a_u062d_u0629 u0020 u0623_u0635_u0628_u062a_u0020", 
        "u0628_u0627_u0644_u0639_u0645_u0649_u002e"
    ]
}