{
    "bounding_box": [
        [
            72, 
            44, 
            575, 
            33
        ], 
        [
            131, 
            104, 
            530, 
            27
        ], 
        [
            67, 
            139, 
            594, 
            25
        ], 
        [
            61, 
            170, 
            601, 
            26
        ], 
        [
            75, 
            199, 
            586, 
            26
        ], 
        [
            108, 
            236, 
            554, 
            25
        ], 
        [
            169, 
            262, 
            492, 
            29
        ]
    ], 
    "image_height": 540, 
    "image_width": 720, 
    "transcription": [
        "u00a0_u0627_u0644_u062f_u0631_u0633_u0036_u002d_u0031_u003a u0020 u0627_u0633_u062a_u062e_u062f_u0627_u0645 u0020 u062a_u062e_u0637_u064a_u0637_u0627_u062a u0020 u0627_u0644_u0635_u0641_u062d_u0629 u0020 u0648_u0637_u0631_u0642 u0020 u0627_u0644_u0639_u0631_u0636", 
        "u062a_u0639_u0631_u0641_u0646_u0627 u0020 u0625_u0644_u0649 u0020 u0627_u0644_u0622_u0646 u0020 u0639_u0644_u0649 u0020 u0637_u0631_u064a_u0642_u0629 u0020 u0627_u0644_u0639_u0631_u0636 u0020 u0627_u0644_u0627_u0641_u062a_u0631_u0627_u0636_u064a_u0629 u0020 u0628_u0631_u0646_u0627_u0645_u062c u0020 u0645_u0639_u0627_u0644_u062c_u0020", 
        "u0627_u0644_u0646_u0635_u0648_u0635 u0020 u0022_u0648_u0648_u0631_u062f_u0022 u0020 u0648_u0647_u064a u0020 u0637_u0631_u064a_u0642_u0629 u0020 u0639_u0631_u0636 u0020 u0627_u0644_u0637_u0628_u0627_u0639_u0629_u002e u0020 u0648_u0647_u0630_u0627 u0020 u0627_u0644_u0639_u0631_u0636 u0020 u064a_u0639_u0637_u064a_u0643_u0020", 
        "u0641_u0643_u0631_u0629 u0020 u062c_u064a_u062f_u0629 u0020 u0639_u0646 u0020 u0627_u0644_u0643_u064a_u0641_u064a_u0629 u0020 u0627_u0644_u062a_u064a u0020 u0633_u062a_u0638_u0647_u0631 u0020 u0628_u0647_u0627 u0020 u0635_u0641_u062d_u062a_u0643 u0020 u0639_u0644_u0649 u0020 u0627_u0644_u0648_u0631_u0642_u002e u0020 u0648_u0644_u0643_u0646 u0020 u0645_u0627_u0630_u0627_u0020", 
        "u0644_u0648 u0020 u0643_u0646_u062a u0020 u062a_u0642_u0648_u0645 u0020 u0628_u0625_u0646_u0634_u0627_u0621 u0020 u0635_u0641_u062d_u0629 u0020 u0648_u064a_u0628_u061f u0020 u0623_u0648 u0020 u0645_u0627_u0630_u0627 u0020 u0644_u0648 u0020 u0643_u0646_u062a u0020 u0623_u0643_u062b_u0631 u0020 u0627_u0647_u062a_u0645_u0627_u0645_u0627 u0020 u0628_u0642_u0631_u0627_u0621_u0629_u0020", 
        "u0627_u0644_u0645_u0633_u062a_u0646_u062f_u061f u0020 u064a_u0648_u062c_u062f u0020 u0641_u064a u0020 u0628_u0631_u0646_u0627_u0645_u062c u0020 u0645_u0639_u0627_u0644_u062c u0020 u0627_u0644_u0646_u0635_u0648_u0635 u0020 u0022_u0648_u0648_u0631_u062f_u0022 u0020 u0637_u0631_u0642 u0020 u0639_u0631_u0636_u0020", 
        "u0644_u0644_u0623_u063a_u0631_u0627_u0636 u0020 u0627_u0644_u0645_u062e_u062a_u0644_u0641_u0629 u0020 u0648_u0647_u0630_u0627 u0020 u0645_u0627 u0020 u0633_u0648_u0641 u0020 u0646_u062a_u0639_u0644_u0645_u0647 u0020 u0641_u064a u0020 u0647_u0630_u0627 u0020 u0627_u0644_u062f_u0631_u0633_u002e u0020 u000d"
    ]
}