{
    "bounding_box": [
        [
            154, 
            45, 
            524, 
            64
        ], 
        [
            542, 
            125, 
            136, 
            45
        ], 
        [
            199, 
            255, 
            505, 
            27
        ], 
        [
            32, 
            289, 
            673, 
            30
        ], 
        [
            361, 
            327, 
            343, 
            29
        ]
    ], 
    "image_height": 540, 
    "image_width": 720, 
    "transcription": [
        "u062a_u0647_u064a_u0626 u0020 u0627_u0644_u0625_u062d_u0635_u0627_u0626_u064a_u0627_u062a u0020 u0648_u0627_u0633_u062a_u062e_u0631_u0627_u062c_u0020", 
        "u0627_u0644_u062c_u062f_u0627_u0648_u0644", 
        "u002d u0020 u064a_u062a_u0645 u0020 u0625_u0639_u062f_u0627_u062f u0020 u0627_u0644_u062c_u062f_u0627_u0648_u0644 u0020 u062d_u0633_u0628 u0020 u0637_u0628_u064a_u0639_u0629 u0020 u0627_u0644_u0627_u0633_u062a_u0639_u0645_u0627_u0644 u0020 u0648_u062d_u0633_u0628 u0020 u0627_u0644_u0645_u0633_u062a_u0639_u0645_u0644_u000d", 
        "u002d u0020 u064a_u062c_u0628 u0020 u0623_u0646 u0020 u062a_u0643_u0648_u0646 u0020 u0627_u0644_u0625_u062d_u0635_u0627_u0626_u064a_u0627_u062a u0020 u0648_u0627_u0644_u062c_u062f_u0627_u0648_u0644 u0020 u0627_u0644_u0645_u0643_u0648_u0646_u0629 u0020 u0645_u0646_u0647_u0627 u0020 u0648_u0627_u0636_u062d_u0629 u0020 u0648_u0633_u0647_u0644_u0629 u0020 u0627_u0644_u0642_u0631_u0627_u0621_u0629 u0020 u0648_u0627_u0644_u0641_u0647_u0645_u000d", 
        "u002d u0020 u064a_u062c_u0628 u0020 u062a_u0642_u062f_u064a_u0645 u0020 u0627_u0644_u0625_u062d_u0635_u0627_u0626_u064a_u0627_u062a u0020 u0628_u0623_u0639_u062f_u0627_u062f u0020 u0627_u0644_u0648_u062d_u062f_u0627_u062a_u000d"
    ]
}