{
    "bounding_box": [
        [
            318, 
            74, 
            357, 
            30
        ], 
        [
            67, 
            136, 
            572, 
            21
        ], 
        [
            141, 
            159, 
            499, 
            27
        ], 
        [
            71, 
            188, 
            569, 
            33
        ], 
        [
            141, 
            226, 
            499, 
            24
        ], 
        [
            43, 
            261, 
            596, 
            23
        ], 
        [
            46, 
            286, 
            594, 
            27
        ], 
        [
            231, 
            315, 
            409, 
            27
        ], 
        [
            271, 
            344, 
            369, 
            27
        ], 
        [
            230, 
            378, 
            410, 
            22
        ], 
        [
            261, 
            401, 
            379, 
            27
        ], 
        [
            368, 
            435, 
            272, 
            22
        ], 
        [
            193, 
            459, 
            456, 
            29
        ]
    ], 
    "image_height": 540, 
    "image_width": 720, 
    "transcription": [
        "u062e_u0637_u0648_u0629_u200f_u200f u0020 u0628_u062e_u0637_u0648_u0629_u003a u0020 u062a_u0633_u0645_u064a_u0629 u0020 u0646_u0637_u0627_u0642", 
        "u062d_u062f_u062f u0020 u0042_u0032_u0033_u003a_u0042_u0032_u0037 u0020 u062b_u0645 u0020 u0627_u0646_u0642_u0631 u0020 u0641_u064a u0020 u0645_u0631_u0628_u0639 u0020 u0627_u0644_u0627_u0633_u0645 u0020 u0627_u0644_u0645_u0648_u062c_u0648_u062f u0020 u0625_u0644_u0649 u0020 u064a_u0645_u064a_u0646_u0020", 
        "u0634_u0631_u064a_u0637 u0020 u0627_u0644_u0635_u064a_u063a_u0629_u002e u0020 u0648_u0627_u0643_u062a_u0628 u0020 u0627_u0644_u0646_u0642_u0644 u0020 u062b_u0645 u0020 u0627_u0636_u063a_u0637 u0020 u0639_u0644_u0649 u0020 u0045_u006e_u0074_u0065_u0072_u002e_u000d", 
        "u062d_u062f_u062f u0020 u0042_u0033_u0030_u003a_u0042_u0033_u0032 u0020 u062b_u0645 u0020 u0627_u0646_u0642_u0631 u0020 u0641_u0648_u0642 u0020 u062a_u0639_u0631_u064a_u0641 u0020 u0627_u0633_u0645_u002e u0020 u0648_u0627_u0643_u062a_u0628 u0020 u0627_u0644_u062a_u0631_u0641_u064a_u0647_u0020", 
        "u0641_u064a u0020 u0645_u0631_u0628_u0639 u0020 u0627_u0644_u0627_u0633_u0645 u0020 u0641_u064a u0020 u0645_u0631_u0628_u0639 u0020 u0627_u0644_u062d_u0648_u0627_u0631_u002e u0020 u0627_u0646_u0642_u0631 u0020 u0641_u0648_u0642 u0020 u0645_u0648_u0627_u0641_u0642_u002e_u000d", 
        "u062d_u062f_u062f u0020 u0041_u0031_u0035_u003a_u0042_u0031_u0035_u002e u0020 u0648_u0627_u0646_u0642_u0631 u0020 u0641_u0648_u0642 u0020 u0625_u0646_u0634_u0627_u0621 u0020 u0645_u0646 u0020 u0627_u0644_u062a_u062d_u062f_u064a_u062f_u002e u0020 u0633_u064a_u062a_u0645 u0020 u062a_u062d_u062f_u064a_u062f_u0020", 
        "u0627_u0644_u0639_u0645_u0648_u062f u0020 u0627_u0644_u0623_u064a_u0633_u0631_u002e u0020 u0627_u0646_u0642_u0631 u0020 u0641_u0648_u0642 u0020 u0645_u0648_u0627_u0641_u0642_u002e u0020 u064a_u062a_u0645 u0020 u0625_u063a_u0644_u0627_u0642 u0020 u0645_u0631_u0628_u0639 u0020 u0627_u0644_u062d_u0648_u0627_u0631_u002e u0020 u0648_u0628_u0645_u0627_u0020", 
        "u0623_u0646_u0647 u0020 u0644_u0627 u0020 u062a_u0624_u062f_u064a u0020 u062a_u0633_u0645_u064a_u0629 u0020 u0647_u0630_u0627 u0020 u0627_u0644_u0646_u0637_u0627_u0642 u0020 u0625_u0644_u0649 u0020 u062a_u063a_u064a_u064a_u0631 u0020 u000b", 
        "u0648_u0631_u0642_u0629 u0020 u0627_u0644_u0639_u0645_u0644 u0020 u0627_u0644_u062d_u0627_u0644_u064a_u0629_u060c u0020 u0641_u0625_u0646_u0643 u0020 u0633_u062a_u0633_u062a_u062e_u062f_u0645 u0020 u000b", 
        "u0630_u0644_u0643 u0020 u0627_u0644_u0646_u0637_u0627_u0642 u0020 u0627_u0644_u0630_u064a u0020 u0642_u0645_u062a u0020 u0628_u062a_u0633_u0645_u064a_u062a_u0647 u0020 u0644_u0644_u062a_u0648 u0020 u0641_u064a u0020 u000b", 
        "u062a_u0645_u0631_u064a_u0646 u0020 u0644_u0627_u062d_u0642_u002e u0020 u064a_u062c_u0628 u0020 u0623_u0646 u0020 u062a_u0628_u062f_u0648 u0020 u0648_u0631_u0642_u0629 u0020 u0627_u0644_u0639_u0645_u0644 u0020 u000b", 
        "u0643_u0645_u0627 u0020 u0641_u064a u0020 u0627_u0644_u0631_u0633_u0645 u0020 u0627_u0644_u062a_u0648_u0636_u064a_u062d_u064a_u002e u0020 u000d", 
        "u0627_u062a_u0631_u0643 u0020 u0627_u0644_u0645_u0635_u0646_u0641 u0020 u0645_u0641_u062a_u0648_u062d_u0627_u064b u0020 u0644_u0627_u0633_u062a_u062e_u062f_u0627_u0645_u0647 u0020 u0641_u064a u0020 u0627_u0644_u062a_u0645_u0631_u064a_u0646 u0020 u0627_u0644_u062a_u0627_u0644_u064a_u002e_u0020"
    ]
}