{
    "bounding_box": [
        [
            779, 
            62, 
            107, 
            36
        ], 
        [
            63, 
            152, 
            805, 
            33
        ], 
        [
            63, 
            188, 
            805, 
            36
        ], 
        [
            63, 
            228, 
            805, 
            35
        ], 
        [
            539, 
            267, 
            329, 
            34
        ], 
        [
            63, 
            316, 
            805, 
            34
        ], 
        [
            63, 
            355, 
            805, 
            34
        ], 
        [
            63, 
            391, 
            805, 
            37
        ], 
        [
            746, 
            432, 
            122, 
            31
        ]
    ], 
    "image_height": 540, 
    "image_width": 960, 
    "transcription": [
        "u0627_u0644_u0635_u0648_u0631_u0020", 
        "u0648_u0627_u0644_u0635_u0648_u0631_u0629 u0020 u062a_u0639_u062a_u0645_u062f u0020 u0639_u0644_u064a u0020 u0627_u0644_u062e_u064a_u0627_u0644 u0020 u0627_u0644_u0630_u064a u0020 u064a_u0639_u062a_u0628_u0631 u0020 u0627_u0644_u0645_u0644_u0643_u0629 u0020 u0627_u0644_u0645_u0648_u0644_u062f_u0629 u0020 u0644_u0644_u062a_u0635_u0648_u0631_u0627_u062a_u0020", 
        "u0627_u0644_u062d_u0633_u064a_u0629 u0020 u0644_u0644_u0623_u0634_u064a_u0627_u0621 u0020 u0627_u0644_u0645_u0627_u062f_u064a_u0629 u0020 u0627_u0644_u063a_u0627_u0626_u0628_u0629 u0020 u0639_u0646 u0020 u0627_u0644_u0646_u0638_u0631 u0020 u0648_u0644_u0644_u0635_u0648_u0631_u0629 u0020 u062f_u0648_u0631 u0020 u0645_u062d_u062f_u0648_u062f u0020 u062a_u0642_u0648_u0645 u0020 u0628_u0647_u0020", 
        "u0648_u0648_u0638_u064a_u0641_u0629 u0020 u062a_u0624_u062f_u064a_u0647_u0627 u0020 u062a_u062a_u0645_u062b_u0644 u0020 u0641_u064a u0020 u0627_u0644_u0634_u0631_u062d u0020 u0648 u0020 u0627_u0644_u062a_u0648_u0636_u064a_u062d u0020 u0648_u0627_u0644_u0645_u0628_u0627_u0644_u063a_u0629 u0020 u0648 u0020 u0627_u0644_u062a_u062d_u0633_u064a_u0646 u0020 u0648_u0020", 
        "u0627_u0644_u062a_u0642_u0628_u064a_u062d u0020 u0648 u0020 u0627_u0644_u0648_u0635_u0641 u0020 u0648_u0627_u0644_u0645_u062d_u0627_u0643_u0627_u0629 u0020 u000d", 
        "u0648_u0627_u0644_u0634_u0627_u0639_u0631 u0020 u064a_u0646_u0642_u0644 u0020 u0644_u0646_u0627 u0020 u0635_u0648_u0631 u0020 u0627_u0644_u062d_u064a_u0627_u0629 u0020 u0645_u0646 u0020 u062e_u0644_u0627_u0644 u0020 u0631_u0624_u064a_u062a_u0647_u0627 u0020 u0644_u0647_u0627 u0020 u0648 u0020 u0643_u0645_u0627 u0020 u062a_u0631_u062a_u0633_u0645 u0020 u0641_u064a_u0020", 
        "u0639_u0627_u0644_u0645_u0647 u0020 u0627_u0644_u0646_u0641_u0633_u064a u0020 u0648 u0020 u0627_u0644_u0648_u062c_u062f_u0627_u0646_u064a u0020 u0645_u0645_u0632_u0648_u062c_u0629 u0020 u0628_u0627_u0646_u0641_u0639_u0627_u0644_u0627_u062a_u0647 u0020 u0648 u0020 u0645_u0624_u062b_u0631_u0627_u062a_u0647 u0020 u062b_u0645 u0020 u064a_u0639_u0645_u062f u0020 u0628_u0642_u062f_u0631_u062a_u0647_u0020", 
        "u0627_u0644_u062e_u0644_u0627_u0642_u0629 u0020 u0627_u0644_u064a u0020 u0627_u0644_u0631_u0628_u0637 u0020 u0628_u064a_u0646_u0647_u0627 u0020 u0628_u062d_u064a_u062b u0020 u062a_u0635_u0628_u062d u0020 u0635_u0648_u0631_u0629 u0020 u064a_u062a_u062c_u0627_u0648_u0628 u0020 u0645_u0647_u0627 u0020 u0627_u0644_u0639_u0641_u0644 u0020 u0648 u0020 u062a_u062a_u0623_u062b_u0631_u0020", 
        "u0628_u0647_u0627 u0020 u0627_u0644_u0639_u0627_u0637_u0641_u0629"
    ]
}