{
    "bounding_box": [
        [
            92, 
            63, 
            557, 
            24
        ], 
        [
            80, 
            89, 
            569, 
            24
        ], 
        [
            74, 
            115, 
            575, 
            24
        ], 
        [
            88, 
            141, 
            561, 
            24
        ], 
        [
            62, 
            167, 
            587, 
            24
        ], 
        [
            38, 
            193, 
            610, 
            24
        ], 
        [
            74, 
            219, 
            575, 
            24
        ], 
        [
            61, 
            245, 
            587, 
            24
        ], 
        [
            582, 
            272, 
            67, 
            20
        ], 
        [
            76, 
            300, 
            573, 
            28
        ], 
        [
            47, 
            329, 
            602, 
            24
        ], 
        [
            65, 
            355, 
            584, 
            24
        ], 
        [
            77, 
            381, 
            572, 
            24
        ], 
        [
            86, 
            407, 
            563, 
            24
        ], 
        [
            77, 
            433, 
            571, 
            24
        ]
    ], 
    "image_height": 540, 
    "image_width": 720, 
    "transcription": [
        "u0627_u0644_u0645_u0627_u062f_u0629 u0020 u0028_u0033_u0033_u0034_u0029 u0020 u0020_u062a_u0646_u0635 u0020 u0639_u0644_u0649 u0020 u0623_u0646_u0647 u0020 u0022_u064a_u0639_u0627_u0642_u0628 u0020 u0628_u0627_u0644_u0633_u062c_u0646 u0020 u0627_u0644_u0645_u0624_u0642_u062a u0020 u0645_u0646 u0020 u0641_u0648_u062c_u0649_u0621_u0020", 
        "u0628_u0645_u0634_u0627_u0647_u062f_u0629 u0020 u0632_u0648_u062c_u062a_u0647 u0020 u0623_u0648 u0020 u0627_u0628_u0646_u062a_u0647 u0020 u0623_u0648 u0020 u0623_u062e_u062a_u0647 u0020 u062d_u0627_u0644 u0020 u062a_u0644_u0628_u0633_u0647_u0627 u0020 u0628_u062c_u0631_u064a_u0645_u0629 u0020 u0627_u0644_u0632_u0646_u0627 u0020 u0641_u0642_u062a_u0644_u0647_u0627 u0020 u0641_u064a_u0020", 
        "u0627_u0644_u062d_u0627_u0644 u0020 u0623_u0648 u0020 u0642_u062a_u0644 u0020 u0645_u0646 u0020 u064a_u0632_u0646_u064a u0020 u0628_u0647_u0627 u0020 u0623_u0648 u0020 u0642_u062a_u0644_u0647_u0645_u0627 u0020 u0645_u0639_u0627_u064b_u060c u0020 u0648_u064a_u0639_u0627_u0642_u0628 u0020 u0628_u0627_u0644_u062d_u0628_u0633 u0020 u0625_u0630_u0627 u0020 u0627_u0639_u062a_u062f_u0649_u0020", 
        "u0639_u0644_u064a_u0647_u0627 u0020 u0623_u0648 u0020 u0639_u0644_u064a_u0647_u0645_u0627 u0020 u0627_u0639_u062a_u062f_u0627_u0621 u0020 u0623_u0641_u0636_u0649 u0020 u0625_u0644_u0649 u0020 u0645_u0648_u062a u0020 u0623_u0648 u0020 u0639_u0627_u0647_u0629_u060c u0020 u0648_u062a_u0639_u0627_u0642_u0628 u0020 u0628_u0627_u0644_u0633_u062c_u0646_u0020", 
        "u0627_u0644_u0645_u0624_u0642_u062a u0020 u0627_u0644_u0632_u0648_u062c_u0629 u0020 u0627_u0644_u062a_u064a u0020 u0641_u0648_u062c_u0626_u062a u0020 u0628_u0645_u0634_u0627_u0647_u062f_u0629 u0020 u0632_u0648_u062c_u0647_u0627 u0020 u062d_u0627_u0644 u0020 u062a_u0644_u0628_u0633_u0647 u0020 u0628_u062c_u0631_u064a_u0645_u0629 u0020 u0627_u0644_u0632_u0646_u0627_u0020", 
        "u0641_u064a u0020 u0645_u0633_u0643_u0646 u0020 u0627_u0644_u0632_u0648_u062c_u064a_u0629 u0020 u0641_u0642_u062a_u0644_u062a_u0647 u0020 u0641_u064a u0020 u0627_u0644_u062d_u0627_u0644 u0020 u0623_u0648 u0020 u0642_u062a_u0644_u062a u0020 u0645_u0646 u0020 u064a_u0632_u0646_u064a u0020 u0628_u0647_u0627 u0020 u0623_u0648 u0020 u0642_u062a_u0644_u062a_u0647_u0645_u0627 u0020 u0645_u0639_u0627_u064b_u060c_u0020", 
        "u0648_u062a_u0639_u0627_u0642_u0628 u0020 u0628_u0627_u0644_u062d_u0628_u0633 u0020 u0625_u0630_u0627 u0020 u0627_u0639_u062a_u062f_u062a u0020 u0639_u0644_u064a_u0647 u0020 u0623_u0648 u0020 u0639_u0644_u064a_u0647_u0627 u0020 u0627_u0639_u062a_u062f_u0627_u0621 u0020 u0623_u0641_u0636_u0649 u0020 u0625_u0644_u0649 u0020 u0645_u0648_u062a u0020 u0623_u0648_u0020", 
        "u0639_u0627_u0647_u0629_u060c u0020 u0648_u0644_u0627 u0020 u064a_u062c_u0648_u0632 u0020 u0627_u0633_u062a_u0639_u0645_u0627_u0644 u0020 u062d_u0642 u0020 u0627_u0644_u062f_u0641_u0627_u0639 u0020 u0627_u0644_u0634_u0631_u0639_u064a u0020 u0636_u062f u0020 u0645_u0646 u0020 u064a_u0633_u062a_u0641_u064a_u062f u0020 u0645_u0646 u0020 u0647_u0630_u0627_u0020", 
        "u0627_u0644_u0639_u0630_u0631_u0022_u002e_u000d", 
        "u0648_u0647_u0646_u0627 u0020 u0646_u0642_u0641 u0020 u0642_u0644_u064a_u0644_u0627_u064b u0020 u0639_u0646_u062f u0020 u0646_u0635 u0020 u0627_u0644_u0645_u0627_u062f_u0629 u0020 u0627_u0644_u0633_u0627_u0628_u0642_u0629 u0020 u062d_u064a_u062b u0020 u0634_u062f_u062f u0020 u0627_u0644_u0645_u0634_u0631_u0639 u0020 u0639_u0644_u0649 u0020 u062d_u0627_u0644_u0629_u0020", 
        "u062a_u0633_u0645_u0649 u0020 u062b_u0648_u0631_u0629 u0020 u0627_u0644_u063a_u0636_u0628_u060c u0020 u0648_u0647_u064a u0020 u0627_u0644_u062d_u0627_u0644_u0629 u0020 u0627_u0644_u062a_u064a u0020 u064a_u0633_u062a_u0637_u064a_u0639 u0020 u0627_u0644_u062c_u0627_u0646_u064a u0020 u0627_u0644_u0627_u0633_u062a_u0641_u0627_u062f_u0629 u0020 u0645_u0646 u0020 u0647_u0630_u0627_u0020", 
        "u0627_u0644_u0639_u0630_u0631 u0020 u0627_u0644_u0645_u062e_u0641_u0641 u0020 u0627_u0644_u0645_u0642_u0631_u0648_u0646 u0020 u0628_u0639_u0646_u0635_u0631 u0020 u0627_u0644_u0645_u0641_u0627_u062c_u0623_u0629_u060c u0020 u0648_u0644_u0643_u0646 u0020 u0644_u0644_u0623_u0633_u0641 u0020 u0625_u0646 u0020 u0645_u0627 u0020 u0646_u0631_u0627_u0647 u0020 u0641_u064a_u0020", 
        "u0628_u0639_u0636 u0020 u0627_u0644_u0645_u0645_u0627_u0631_u0633_u0627_u062a u0020 u0628_u0639_u064a_u062f u0020 u0643_u0644 u0020 u0627_u0644_u0628_u0639_u062f u0020 u0639_u0646 u0020 u0627_u0644_u0642_u062a_u0644 u0020 u0628_u0648_u062c_u0648_u062f u0020 u062b_u0648_u0631_u0629 u0020 u063a_u0636_u0628 u0020 u062d_u064a_u062b_u0020", 
        "u0646_u0631_u0649 u0020 u0623_u0646_u0646_u0627 u0020 u0628_u0635_u062f_u062f u0020 u062d_u0627_u0644_u0629 u0020 u0642_u062a_u0644 u0020 u0645_u0639 u0020 u0633_u0628_u0642 u0020 u0625_u0635_u0631_u0627_u0631 u0020 u0648_u062a_u0631_u0635_u062f u0020 u0648_u0645_u0639 u0020 u0630_u0644_u0643 u0020 u064a_u0633_u062a_u0641_u064a_u062f_u0020", 
        "u0627_u0644_u062c_u0627_u0646_u064a u0020 u0645_u0646 u0020 u0627_u0644_u0639_u0630_u0631 u0020 u0627_u0644_u0645_u062e_u0641_u0641 u0020 u0639_u0644_u0649 u0020 u0627_u0644_u0631_u063a_u0645 u0020 u0645_u0646 u0020 u0639_u062f_u0645 u0020 u0627_u0633_u062a_u062d_u0642_u0627_u0642_u0647 u0020 u0644_u0647_u0630_u0627 u0020 u0627_u0644_u0639_u0630_u0631_u002e u0020 u000d"
    ]
}