{
    "bounding_box": [
        [
            187, 
            50, 
            479, 
            28
        ], 
        [
            172, 
            82, 
            494, 
            28
        ], 
        [
            133, 
            114, 
            534, 
            29
        ], 
        [
            534, 
            148, 
            133, 
            25
        ], 
        [
            152, 
            186, 
            515, 
            28
        ], 
        [
            181, 
            218, 
            486, 
            28
        ], 
        [
            159, 
            253, 
            508, 
            28
        ], 
        [
            229, 
            288, 
            438, 
            29
        ], 
        [
            425, 
            328, 
            264, 
            28
        ], 
        [
            400, 
            365, 
            266, 
            29
        ], 
        [
            118, 
            404, 
            571, 
            28
        ], 
        [
            161, 
            436, 
            527, 
            29
        ], 
        [
            465, 
            468, 
            224, 
            26
        ]
    ], 
    "image_height": 540, 
    "image_width": 720, 
    "transcription": [
        "u0034_u002d u0020 u0643_u0645_u0627 u0020 u064a_u0631_u0649 u0020 u0627_u0646 u0020 u0627_u0644_u0627_u0641_u0631_u0627_u062f u0020 u064a_u0639_u0645_u0644_u0648_u0646 u0020 u0641_u064a u0020 u0627_u0644_u0628_u062d_u062b u0020 u0639_u0646 u0020 u0628_u064a_u0626_u0629_u0020", 
        "u064a_u0633_u062a_u0637_u064a_u0639_u0648_u0646 u0020 u0641_u064a_u0647_u0627 u0020 u0627_u0633_u062a_u0639_u0631_u0627_u0636 u0020 u0645_u0647_u0627_u0631_u0627_u062a_u0647_u0645 u0020 u0648_u0627_u0645_u0643_u0627_u0646_u0627_u062a_u0647_u0645 u0020 u060c_u0648_u0627_u0646_u0020", 
        "u0627_u0644_u0633_u0644_u0648_u0643_u064a_u0627_u062a u0020 u0627_u0644_u0645_u0631_u062a_u0628_u0637_u0629 u0020 u0628_u0646_u0645_u0637 u0020 u0627_u0644_u0634_u062e_u0635 u0020 u062a_u0624_u062b_u0631 u0020 u0641_u064a u0020 u062a_u0648_u062c_u064a_u0647 u0020 u0627_u0644_u0641_u0631_u062f_u0020", 
        "u0644_u0644_u0628_u064a_u0626_u0629 u0020 u0627_u0644_u0645_u0647_u0646_u064a_u0629 u0020 u000d", 
        "u0035_u002d u0020 u0627_u0646 u0020 u0627_u0644_u0641_u0631_u062f u0020 u064a_u062e_u062a_u0627_u0631 u0020 u0628_u064a_u0626_u0629 u0020 u0627_u0644_u0645_u0647_u0646_u064a_u0629 u0020 u0641_u064a u0020 u0636_u0648_u0621 u0020 u0630_u0643_u0627_u0626_u0647 u0020 u0648_u062a_u0642_u064a_u064a_u0645_u0647_u0020", 
        "u0627_u0644_u0630_u0627_u062a_u064a u0020 u0648_u0627_u0644_u0639_u0648_u0627_u0645_u0644 u0020 u0627_u0644_u0648_u0631_u0627_u062b_u064a_u0629 u0020 u0648_u0627_u0644_u0628_u064a_u0626_u064a_u0629 u0020 u0627_u0644_u062a_u064a u0020 u062a_u062a_u0635_u0644 u0020 u0628_u0630_u0644_u0643 u0020 u002e_u000d", 
        "u0036_u002d u0020 u0642_u062f u0020 u062d_u062f_u062f u0020 u0647_u0648_u0644_u0627_u0646_u062f u0020 u0623_u062f_u0627_u062a_u064a_u0646 u0020 u0644_u0642_u064a_u0627_u0633 u0020 u0627_u0646_u0645_u0627_u0637 u0020 u0627_u0644_u0634_u062e_u0635_u064a_u0629 u0020 u0648_u0630_u0644_u0643_u0020", 
        "u0644_u0644_u0645_u0633_u0627_u0639_u062f_u0629 u0020 u0641_u064a u0020 u0639_u0645_u0644_u064a_u0629 u0020 u0627_u0644_u0627_u0631_u0634_u0627_u062f u0020 u0648_u0627_u0644_u062a_u0648_u062c_u064a_u0647 u0020 u0627_u0644_u0645_u0647_u0646_u064a u0020 u003a_u000d", 
        "u0020_u002d u0020 u0645_u0642_u064a_u0627_u0633 u0020 u0627_u0644_u062a_u0641_u0636_u064a_u0644 u0020 u0627_u0644_u0645_u0647_u0646_u064a u0020 u002e_u000d", 
        "u0645_u0642_u064a_u0627_u0633 u0020 u0627_u0644_u0627_u0633_u062a_u0643_u0634_u0627_u0641 u0020 u0627_u0644_u0630_u0627_u062a_u064a u0020 u002e u0020 u000d", 
        "u0647_u0645_u0627 u0020 u0627_u062f_u0627_u062a_u064a_u0646 u0020 u0641_u064a u0020 u0627_u0644_u0627_u062e_u062a_u064a_u0627_u0631 u0020 u0627_u0644_u0645_u0647_u0646_u064a u0020 u062d_u064a_u062b u0020 u064a_u0642_u0648_u0645 u0020 u0627_u0644_u0645_u0641_u062d_u0648_u0635 u0020 u0628_u0627_u0644_u0625_u062c_u0627_u0628_u0629_u0020", 
        "u0639_u0644_u0649 u0020 u0627_u0644_u0627_u0633_u0626_u0644_u0629 u0020 u0648_u062a_u0635_u062d_u064a_u062d u0020 u0627_u0644_u0627_u0633_u0626_u0644_u0629 u0020 u0628_u0646_u0641_u0633_u0629 u0020 u060c u0020 u0648_u0628_u0625_u0645_u0643_u0627_u0646_u0647 u0020 u0627_u0646 u0020 u064a_u062d_u062f_u062f_u0020", 
        "u0627_u0644_u0646_u0645_u0637 u0020 u0627_u0644_u0630_u0649 u0020 u064a_u0646_u062a_u0645_u0649 u0020 u0627_u0644_u064a_u0629 u0020 u002e_u000d"
    ]
}