{
    "bounding_box": [
        [
            277, 
            20, 
            156, 
            27
        ], 
        [
            52, 
            64, 
            646, 
            25
        ], 
        [
            318, 
            96, 
            380, 
            28
        ], 
        [
            19, 
            181, 
            678, 
            22
        ], 
        [
            590, 
            210, 
            107, 
            23
        ], 
        [
            39, 
            279, 
            658, 
            28
        ], 
        [
            35, 
            312, 
            663, 
            24
        ], 
        [
            253, 
            341, 
            445, 
            24
        ]
    ], 
    "image_height": 540, 
    "image_width": 720, 
    "transcription": [
        "u0642_u0648_u0627_u0646_u064a_u0646 u0020 u0646_u064a_u0648_u062a_u0646_u003a_u000d", 
        "u0642_u0627_u0646_u0648_u0646 u0020 u0646_u064a_u0648_u062a_u0646 u0020 u0627_u0644_u0627_u0648_u0644_u003a u0020 u0627_u0644_u062c_u0633_u0645 u0020 u064a_u0628_u0642_u0649 u0020 u0633_u0627_u0643_u0646_u0627 u0020 u0627_u0648 u0020 u0645_u062a_u062d_u0631_u0643_u0627 u0020 u0628_u0633_u0631_u0639_u0629_u0020", 
        "u062b_u0627_u0628_u062a_u0647 u0020 u0645_u0627 u0020 u0644_u0645 u0020 u062a_u0624_u062b_u0631 u0020 u0639_u0644_u064a_u0647 u0020 u0642_u0648_u0629 u0020 u062e_u0627_u0631_u062c_u064a_u0629_u002e_u000d", 
        "u0642_u0627_u0646_u0648_u0646 u0020 u0646_u064a_u0648_u062a_u0646 u0020 u0627_u0644_u062b_u0627_u0646_u064a_u003a u0020 u062a_u0633_u062a_u0637_u064a_u0639 u0020 u0627_u0644_u0642_u0648_u0649 u0020 u062a_u063a_u064a_u064a_u0631 u0020 u0634_u0643_u0644 u0020 u0627_u0644_u062c_u0633_u0645 u0020 u0627_u0648 u0020 u0627_u062a_u062c_u0627_u0647 u0020 u062d_u0631_u0643_u062a_u0647_u0020", 
        "u0627_u0648 u0020 u0633_u0631_u0639_u062a_u0647_u002e_u000d", 
        "u0642_u0627_u0646_u0648_u0646 u0020 u0646_u064a_u0648_u062a_u0646 u0020 u0627_u0644_u062b_u0627_u0644_u062b_u003a u0020 u0627_u0644_u0642_u0648_u0651_u062a_u0627_u0646 u0020 u0627_u0644_u0644_u062a_u0627_u0646 u0020 u062a_u0634_u062a_u0631_u0643_u0627_u0646 u0020 u0641_u064a u0020 u0646_u0641_u0633 u0020 u0627_u0644_u062a_u0623_u062b_u064a_u0631 u0020 u0627_u0644_u0645_u062a_u0628_u0627_u062f_u0644_u0020", 
        "u0645_u062a_u0633_u0627_u0648_u064a_u062a_u0627_u0646 u0020 u0641_u064a u0020 u0645_u0642_u062f_u0627_u0631_u0647_u0645_u0627 u0020 u0648_u0645_u062a_u0639_u0627_u0643_u0633_u062a_u0627_u0646 u0020 u0641_u064a u0020 u0627_u062a_u0651_u062c_u0627_u0647_u0647_u0645_u0627_u002e u0020 u0028_u0643_u0644 u0020 u0641_u0639_u0644 u0020 u0644_u0647 u0020 u0631_u062f_u0020", 
        "u0641_u0639_u0644 u0020 u0645_u0633_u0627_u0648_u064a u0020 u0644_u0647 u0020 u0628_u0627_u0644_u0645_u0642_u062f_u0627_u0631 u0020 u0648_u0645_u0639_u0627_u0643_u0633 u0020 u0644_u0647 u0020 u0627_u0644_u0627_u062a_u062c_u0627_u0647_u0029_u002e_u000d"
    ]
}