{
    "bounding_box": [
        [
            307, 
            174, 
            71, 
            35
        ], 
        [
            192, 
            271, 
            371, 
            34
        ]
    ], 
    "image_height": 540, 
    "image_width": 720, 
    "transcription": [
        "u0625_u0639_u062f_u0627_u062f", 
        "u0627_u0644_u0623_u0633_u062a_u0627_u0630 u0020 u0627_u0644_u062f_u0643_u062a_u0648_u0631 u0020 u0645_u0638_u0641_u0631 u0020 u0623_u062d_u0645_u062f u0020 u0627_u0644_u0645_u0648_u0635_u0644_u064a"
    ]
}