{
    "bounding_box": [
        [
            131, 
            20, 
            465, 
            40
        ], 
        [
            49, 
            108, 
            599, 
            30
        ], 
        [
            36, 
            141, 
            613, 
            32
        ], 
        [
            34, 
            175, 
            615, 
            33
        ], 
        [
            91, 
            209, 
            558, 
            29
        ], 
        [
            56, 
            248, 
            593, 
            29
        ], 
        [
            120, 
            278, 
            528, 
            33
        ], 
        [
            562, 
            316, 
            87, 
            29
        ], 
        [
            61, 
            354, 
            588, 
            34
        ], 
        [
            99, 
            390, 
            549, 
            33
        ], 
        [
            449, 
            425, 
            200, 
            28
        ]
    ], 
    "image_height": 540, 
    "image_width": 720, 
    "transcription": [
        "u0631_u0627_u0628_u0639_u0627_u064b_u002f u0020 u0642_u0627_u0646_u0648_u0646 u0020 u0645_u0643_u0627_u0641_u062d_u0629 u0020 u0627_u0644_u0627_u062a_u062c_u0627_u0631 u0020 u0628_u0627_u0644_u0628_u0634_u0631_u003a_u000b", 
        "u062a_u0636_u0645_u0646 u0020 u0647_u0630_u0627 u0020 u0627_u0644_u0642_u0627_u0646_u0648_u0646 u0020 u0627_u0644_u0642_u0627_u0646_u0648_u0646 u0020 u0627_u0644_u0627_u062a_u062d_u0627_u062f_u064a u0020 u0631_u0642_u0645 u0020 u0028_u0665_u0661_u0029 u0020 u0644_u0633_u0646_u0629 u0020 u0662_u0660_u0660_u0666_u0020", 
        "u0641_u064a u0020 u0634_u0623_u0646 u0020 u0645_u0643_u0627_u0641_u062d_u0629 u0020 u0627_u0644_u0627_u062a_u062c_u0627_u0631 u0020 u0628_u0627_u0644_u0628_u0634_u0631 u0020 u0627_u0644_u0639_u062f_u064a_u062f u0020 u0645_u0646 u0020 u0627_u0644_u0646_u0635_u0648_u0635 u0020 u0627_u0644_u062a_u064a u0020 u0645_u0646_u0020", 
        "u0634_u0623_u0646_u0647_u0627 u0020 u062d_u0645_u0627_u064a_u0629 u0020 u0627_u0644_u0628_u0634_u0631 u0020 u0645_u0646 u0020 u062e_u0637_u0631 u0020 u0627_u0644_u062a_u0631_u062d_u064a_u0644 u0020 u0623_u0648 u0020 u0627_u0644_u0646_u0642_u0644 u0020 u0623_u0648 u0020 u0627_u0644_u0627_u0633_u062a_u0642_u0628_u0627_u0644 u0020 u0623_u0648_u0020", 
        "u0627_u0644_u062a_u0647_u062f_u064a_u062f u0020 u0628_u0627_u0644_u0642_u0648_u0629 u0020 u0623_u0648 u0020 u0627_u0644_u0627_u062e_u062a_u0637_u0627_u0641 u0020 u0623_u0648 u0020 u0627_u0633_u062a_u063a_u0644_u0627_u0644 u0020 u062d_u0627_u0644_u0629 u0020 u0627_u0644_u0636_u0639_u0641 u0020 u0623_u0648_u0020", 
        "u0627_u0644_u0625_u063a_u0631_u0627_u0621 u0020 u0628_u0645_u0628_u0627_u0644_u063a u0020 u0648_u0645_u0645_u064a_u0632_u0627_u062a u0020 u0645_u0639_u064a_u0646_u0629 u0020 u0628_u0647_u062f_u0641 u0020 u0627_u0644_u0627_u0633_u062a_u063a_u0644_u0627_u0644_u060c u0020 u0648_u0630_u0644_u0643 u0020 u0645_u0646_u0020", 
        "u062e_u0644_u0627_u0644 u0020 u062a_u062c_u0631_u064a_u0645 u0020 u062a_u0644_u0643 u0020 u0627_u0644_u0623_u0641_u0639_u0627_u0644 u0020 u0648_u0648_u0636_u0639 u0020 u0639_u0642_u0648_u0628_u0629 u0020 u0635_u0627_u0631_u0645_u0629 u0020 u0644_u062a_u0644_u0643_u0020", 
        "u0627_u0644_u062c_u0631_u0627_u0626_u0645_u002e_u000d", 
        "u0648_u062a_u0634_u0645_u0644 u0020 u0643_u0644_u0645_u0629 u0020 u0627_u0633_u062a_u063a_u0644_u0627_u0644 u0020 u0643_u0627_u0641_u0629 u0020 u0623_u0646_u0648_u0627_u0639 u0020 u0627_u0644_u0627_u0633_u062a_u063a_u0644_u0627_u0644 u0020 u0645_u062b_u0644 u0020 u0627_u0644_u0627_u0633_u062a_u0631_u0642_u0627_u0642_u0020", 
        "u0623_u0648 u0020 u0627_u0644_u0627_u0633_u062a_u0639_u0628_u0627_u062f u0020 u0623_u0648 u0020 u0646_u0632_u0639 u0020 u0627_u0644_u0623_u0639_u0636_u0627_u0621 u0020 u0623_u0648 u0020 u0627_u0644_u0627_u0633_u062a_u063a_u0644_u0627_u0644 u0020 u0627_u0644_u062c_u0646_u0633_u064a u0020 u0623_u0648_u0020", 
        "u0627_u0644_u062f_u0639_u0627_u0631_u0629 u0020 u0623_u0648 u0020 u0645_u0627 u0020 u0634_u0627_u0628_u0647_u002e_u000d"
    ]
}