{
    "bounding_box": [
        [
            22, 
            97, 
            607, 
            48
        ], 
        [
            35, 
            159, 
            619, 
            28
        ], 
        [
            35, 
            190, 
            619, 
            26
        ], 
        [
            35, 
            225, 
            619, 
            24
        ], 
        [
            35, 
            255, 
            619, 
            25
        ], 
        [
            35, 
            283, 
            619, 
            28
        ], 
        [
            35, 
            315, 
            619, 
            28
        ], 
        [
            35, 
            349, 
            619, 
            25
        ], 
        [
            114, 
            378, 
            540, 
            27
        ]
    ], 
    "image_height": 540, 
    "image_width": 720, 
    "transcription": [
        "u0642_u0627_u0646_u0648_u0646 u0020 u0627_u0644_u0633_u0641_u0646 u0020 u0627_u0644_u0628_u0631_u064a_u0637_u0627_u0646_u064a u0020 u0633_u0627_u0631_u0649 u0020 u0627_u0644_u0645_u0641_u0639_u0648_u0644_u0020", 
        "u0648_u0623_u0635_u0628_u062d u0020 u0642_u0627_u0646_u0648_u0646 u0020 u0627_u0644_u0633_u0641_u0646 u0020 u0627_u0644_u0628_u0631_u064a_u0637_u0627_u0646_u064a u0020 u002d u0020 u0020_u0627_u0644_u0647_u0646_u062f_u0649 u0020 u0644_u0646_u0642_u0644 u0020 u0627_u0644_u062d_u062c_u0627_u062c u0020 u0627_u0644_u0648_u0637_u0646_u064a_u064a_u0646 u0020 u0625_u0644_u0649 u0020 u0645_u0643_u0629_u0020", 
        "u0627_u0644_u0645_u0643_u0631_u0645_u0629 u0020 u0633_u0627_u0631_u0649 u0020 u0627_u0644_u0645_u0641_u0639_u0648_u0644 u0020 u0628_u064a_u0646 u0020 u0627_u0644_u0647_u0646_u062f u0020 u0648_u062c_u062f_u0629 u0020 u0648_u0639_u062f_u0646_u060c u0020 u0643_u0645_u0627 u0020 u0623_u0646 u0020 u0647_u0630_u0647 u0020 u0627_u0644_u0633_u0641_u0646 u0020 u0627_u0644_u062a_u0649 u0020 u062a_u0642_u0644_u0020", 
        "u062d_u062c_u0627_u062c u0020 u0627_u0644_u0647_u0646_u062f u0020 u0648_u0627_u0644_u062e_u0644_u064a_u062c u0020 u0020_u0627_u0644_u0639_u0631_u0628_u064a u0020 u0648_u062c_u0632_u0631 u0020 u0627_u0644_u0647_u0646_u062f u0020 u0627_u0644_u0634_u0631_u0642_u064a_u0629 u0020 u0020_u0642_u0628_u0644 u0020 u0627_u0644_u062a_u0648_u062c_u0647 u0020 u0625_u0644_u0649 u0020 u062c_u062f_u0629_u0020", 
        "u064a_u0646_u0628_u063a_u064a u0020 u0639_u0644_u064a_u0647_u0627 u0020 u0627_u0644_u062a_u0648_u0642_u0641 u0020 u0641_u064a u0020 u0645_u064a_u0646_u0627_u0621 u0020 u0639_u062f_u0646_u060c u0020 u0644_u0645_u0631_u0627_u062c_u0639_u0629 u0020 u0639_u062f_u062f u0020 u0627_u0644_u0631_u0643_u0627_u0628 u0020 u0628_u0639_u0646_u0627_u064a_u0629_u060c u0020 u0648_u0641_u0631_u0636_u0020", 
        "u0639_u0642_u0648_u0628_u0629 u0020 u0639_u0644_u0649 u0020 u0627_u0644_u0633_u0641_u0646 u0020 u0627_u0644_u062a_u0649 u0020 u062a_u062d_u0645_u0644 u0020 u0623_u0643_u062b_u0631 u0020 u0645_u0645_u0627 u0020 u064a_u0633_u0645_u062d u0020 u0628_u0647 u0020 u0627_u0644_u0642_u0627_u0646_u0648_u0646_u002e u0020 u0648_u0625_u0646 u0020 u0643_u0627_u0646_u062a u0020 u0633_u0641_u0646_u0020", 
        "u0646_u0642_u0644 u0020 u062d_u062c_u0627_u062c u0020 u0645_u0633_u0644_u0645_u0649 u0020 u0627_u0644_u0647_u0646_u062f u0020 u0623_u062d_u064a_u0627_u0646_u064b_u0627 u0020 u0643_u0627_u0646_u062a u0020 u0645_u0636_u0637_u0631_u0629 u0020 u0645_u0646 u0020 u062c_u062f_u0629 u0020 u0625_u0644_u0649 u0020 u0627_u0644_u0647_u0646_u062f u0020 u0623_u0646 u0020 u062a_u0623_u062e_u0630_u0020", 
        "u0639_u062f_u062f u0020 u0632_u0627_u0626_u062f u0020 u0645_u0646 u0020 u0627_u0644_u0631_u0643_u0627_u0628 u0020 u0645_u0646 u0020 u062c_u062f_u0629 u0020 u0628_u0633_u0628_u0628 u0020 u0627_u0632_u062f_u062d_u0627_u0645 u0020 u0647_u0624_u0644_u0627_u0621 u0020 u0627_u0644_u062d_u062c_u0627_u062c u0020 u0641_u064a u0020 u0627_u0644_u0645_u064a_u0646_u0627_u0621_u0020", 
        "u0648_u0631_u063a_u0628_u062a_u0647_u0645 u0020 u0627_u0644_u0639_u0648_u062f_u0629 u0020 u0641_u064a u0020 u0623_u0642_u0631_u0628 u0020 u0648_u0642_u062a u0020 u0625_u0644_u0649 u0020 u0623_u0648_u0637_u0627_u0646_u0647_u0645 u0020 u0628_u0639_u062f u0020 u0623_u062f_u0627_u0621 u0020 u0645_u0646_u0627_u0633_u0643 u0020 u0627_u0644_u062d_u062c_u002e_u0028"
    ]
}