{
    "bounding_box": [
        [
            559, 
            33, 
            141, 
            32
        ], 
        [
            22, 
            31, 
            105, 
            10
        ], 
        [
            172, 
            64, 
            373, 
            71
        ], 
        [
            101, 
            183, 
            539, 
            37
        ], 
        [
            61, 
            273, 
            543, 
            34
        ], 
        [
            235, 
            359, 
            368, 
            34
        ], 
        [
            80, 
            442, 
            488, 
            37
        ], 
        [
            500, 
            533, 
            68, 
            43
        ], 
        [
            47, 
            508, 
            18, 
            9
        ]
    ], 
    "image_height": 540, 
    "image_width": 720, 
    "transcription": [
        "u0628_u0631_u0646_u0627_u0645_u062c u0020 u0627_u0644_u062a_u0631_u0628_u064a_u0629", 
        "u0052_u0065_u0063_u0061_u0070 u0020 u0031_u0030_u0074_u0068 u0020 u0020 u0020 u0020_u0057_u0065_u0065_u006b", 
        "u0645_u062d_u0628_u0629 u0020 u0646_u064a u0020 u062d_u0633_u0646_u0627_u062a", 
        "u0645_u0648_u0644_u0649_u0652 u0020 u0637 u0020 u0639 u0020 u0647_u0631 u0020 u0645_u0634_u0643_u0644 u0020 u0645_u0627 u0020 u0645_u0634_u0643_u0644 u0020 u0643_u0634_u0627_u0626_u064a u0020 u0643_u0631_u0633_u0633 u0020 u061b_u002e_u000d", 
        "u0645_u0648_u0644_u0627_u0646_u0627 u0020 u0645_u062d_u0645_u062f u0020 u0628_u0631_u0647_u0627_u0646 u0020 u0627_u0644_u062f_u064a_u0646 u0020 u0631_u0636 u0020 u064a_u0647 u0020 u0627_u0645_u0627_u0645 u0020 u062d_u0633_u064a_u0646 u0020 u0639 u0020 u0645 u0020 u0646_u064a_u0020", 
        "u0630_u0643_u0631 u0020 u0633_u064a u0020 u0647_u0645_u0627_u0631_u064a u0020 u062a_u0631_u0628_u064a_u0629 u0020 u0641_u0631_u0645_u0627_u0648_u064a_u002e_u000d", 
        "u0632_u064a_u0627_u0631_u0629 u0020 u0643_u0631_u0648_u0627 u0020 u0627_u0646_u0633_u0633 u0020 u0645_u0648_u0644_u0627_u0646_u0627 u0020 u0637 u0020 u0639 u0020 u0646_u064a u0020 u062d_u0636_u0631_u0629 u0020 u0645_u0627_u0020", 
        "u062c_u0627_u0648_u0648_u002e", 
        "u0034_u002e_u0030"
    ]
}