{
    "bounding_box": [
        [
            310, 
            48, 
            99, 
            31
        ], 
        [
            83, 
            146, 
            558, 
            28
        ], 
        [
            448, 
            179, 
            166, 
            28
        ], 
        [
            75, 
            270, 
            528, 
            25
        ], 
        [
            102, 
            319, 
            79, 
            3
        ]
    ], 
    "image_height": 540, 
    "image_width": 720, 
    "transcription": [
        "u0645_u0644_u0627_u062d_u0638_u0629_u003a", 
        "u064a_u0645_u0643_u0646 u0020 u062a_u062e_u0635_u064a_u0635 u0020 u0642_u064a_u0645_u0629 u0020 u0627_u0641_u062a_u0631_u0627_u0636_u064a_u0629 u0020 u0644_u0644_u0639_u0645_u0648_u062f u0020 u0623_u062b_u0646_u0627_u0621 u0020 u0639_u0645_u0644_u064a_u0629 u0020 u0627_u0644_u0625_u062f_u062e_u0627_u0644 u0020 u0643_u0645_u0627_u0020", 
        "u0641_u064a u0020 u0627_u0644_u0645_u062b_u0627_u0644 u0020 u0627_u0644_u062a_u0627_u0644_u064a u0020 u003a_u000d", 
        "u0048_u0069_u0072_u0065_u0064_u0061_u0074_u0065 u0020 u0020 u0020 u0044_u0041_u0054_u0045 u0020 u0020_u0044_u0045_u0046_u0041_u0055_u004c_u0054 u0020 u0020_u0053_u0059_u0053_u0044_u0041_u0054_u0045 u0020 u002c_u0020", 
        "u2026_u2026_u002e_u002e_u000d"
    ]
}