{
    "bounding_box": [
        [
            564, 
            92, 
            88, 
            23
        ], 
        [
            127, 
            119, 
            519, 
            28
        ], 
        [
            123, 
            156, 
            523, 
            27
        ], 
        [
            140, 
            189, 
            506, 
            27
        ], 
        [
            142, 
            220, 
            504, 
            30
        ], 
        [
            150, 
            255, 
            495, 
            26
        ], 
        [
            162, 
            290, 
            484, 
            25
        ], 
        [
            101, 
            322, 
            544, 
            27
        ], 
        [
            140, 
            353, 
            506, 
            31
        ]
    ], 
    "image_height": 540, 
    "image_width": 720, 
    "transcription": [
        "u0641_u062a_u062d u0020 u0627_u0644_u0639_u0631_u0627_u0642_u000d", 
        "u0628_u0627_u0644_u0646_u0633_u0628_u0629 u0020 u0644_u0644_u0639_u0631_u0627_u0642 u0020 u0641_u0642_u062f u0020 u0639_u0627_u062f u0020 u0645_u0631_u0629 u0020 u0623_u062e_u0631_u0649 u0020 u062a_u0647_u062f_u064a_u062f u0020 u0627_u0644_u0635_u0641_u0648_u064a_u064a_u0646 u0020 u0020 u0020 u0644_u0647 u0020 u0645_u0646_u0630_u0020", 
        "u0648_u0635_u0648_u0644 u0020 u0627_u0644_u0634_u0627_u0647 u0020 u062a_u0647_u0627_u0645_u0633_u0628 u0020 u0644_u0644_u0639_u0631_u0634 u0020 u0641_u062a_u062c_u062f_u062f_u062a u0020 u0645_u062d_u0627_u0648_u0644_u0627_u062a_u0647_u0645 u0020 u0644_u0642_u064a_u0627_u0645 u0020 u062f_u0648_u0644_u0629_u0020", 
        "u0642_u0648_u064a_u0629 u0020 u062a_u0636_u0645 u0020 u0627_u0644_u0639_u0631_u0627_u0642 u0020 u0628_u0633_u0628_u0628 u0020 u0648_u062c_u0648_u062f u0020 u0645_u0632_u0627_u0631_u0627_u062a u0020 u0627_u0644_u0634_u064a_u0639_u0629 u0020 u0641_u064a u0020 u0627_u0644_u0646_u062c_u0641_u0020", 
        "u0648_u0643_u0631_u0628_u0644_u0627_u0621_u002e u0020 u0643_u0627_u0646 u0020 u0633_u0644_u064a_u0645 u0020 u0627_u0644_u0627_u0648_u0644 u0020 u0642_u062f u0020 u0623_u0631_u0633_u0644 u0020 u062d_u0645_u0644_u0629 u0020 u0647_u0632_u0645_u062a u0020 u0625_u0633_u0645_u0627_u0639_u064a_u0644_u0020", 
        "u0627_u0644_u0635_u0641_u0648_u064a u0020 u0641_u064a u0020 u0645_u0639_u0631_u0643_u0629 u0020 u0633_u0647_u0644 u0020 u062c_u0627_u0644_u062f_u064a_u0631_u0627_u0646 u0020 u0031_u0035_u0031_u0034 u0020 u0631_u063a_u0645 u0020 u0648_u0635_u0648_u0644_u0020", 
        "u0627_u0644_u062d_u0645_u0644_u0629 u0020 u0625_u0644_u0649 u0020 u062a_u0628_u0631_u064a_u0632 u0020 u0644_u0643_u0646 u0020 u0627_u0644_u062d_u0645_u0644_u0629 u0020 u0627_u0646_u0633_u062d_u0628_u062a u0020 u0628_u0639_u062f u0020 u0630_u0644_u0643 u0020 u0644_u0645_u0648_u0627_u062c_u0647_u0629_u0020", 
        "u0627_u0644_u0645_u0645_u0627_u0644_u064a_u0643 u0020 u0648_u0623_u0645_u0646_u062a u0020 u0647_u0630_u0647 u0020 u0627_u0644_u062d_u0645_u0644_u0629 u0020 u0633_u064a_u0627_u062f_u0629 u0020 u0639_u062b_u0645_u0627_u0646_u064a_u0629 u0020 u0639_u0644_u0649 u0020 u0643_u0631_u062f_u0633_u062a_u0627_u0646 u0020 u0648_u0644_u0643_u0646_u0020", 
        "u0638_u0644 u0020 u062c_u0646_u0648_u0628 u0020 u0648_u0648_u0633_u0637 u0020 u0627_u0644_u0639_u0631_u0627_u0642 u0020 u0628_u0645_u0627 u0020 u0641_u064a_u0647 u0020 u0628_u063a_u062f_u0627_u062f u0020 u0641_u064a u0020 u0623_u064a_u062f_u064a u0020 u0627_u0644_u0635_u0641_u0648_u064a_u064a_u0646"
    ]
}