{
    "bounding_box": [
        [
            241, 
            49, 
            199, 
            66
        ]
    ], 
    "image_height": 540, 
    "image_width": 720, 
    "transcription": [
        "u0627_u0644_u0625_u0643_u062a_u0626_u0627_u0628"
    ]
}