{
    "bounding_box": [
        [
            198, 
            5, 
            325, 
            37
        ], 
        [
            27, 
            63, 
            638, 
            21
        ], 
        [
            313, 
            99, 
            352, 
            22
        ], 
        [
            27, 
            140, 
            638, 
            21
        ], 
        [
            477, 
            180, 
            188, 
            16
        ], 
        [
            27, 
            217, 
            638, 
            21
        ], 
        [
            27, 
            253, 
            638, 
            22
        ], 
        [
            534, 
            292, 
            131, 
            17
        ], 
        [
            259, 
            329, 
            406, 
            20
        ], 
        [
            235, 
            369, 
            430, 
            21
        ], 
        [
            273, 
            410, 
            392, 
            20
        ], 
        [
            26, 
            456, 
            666, 
            21
        ], 
        [
            57, 
            496, 
            608, 
            21
        ]
    ], 
    "image_height": 540, 
    "image_width": 720, 
    "transcription": [
        "u0639_u0644_u0645 u0020 u0627_u0644_u0646_u0641_u0633 u0020 u0627_u0644_u0645_u0631_u0636_u064a u0020 u0627_u0644_u0645_u0639_u0631_u0641_u064a", 
        "u0644_u0627_u0628_u062f u0020 u0645_u0646 u0020 u0627_u0644_u0625_u0634_u0627_u0631_u0629 u0020 u0625_u0644_u0649 u0020 u0623_u0646 u0020 u0627_u0644_u0639_u0644_u0648_u0645 u0020 u0627_u0644_u0645_u0639_u0631_u0641_u064a_u0629 u0020 u062a_u0636_u0645 u0020 u0645_u062c_u0645_u0648_u0639_u0629 u0020 u0645_u0646 u0020 u0627_u0644_u062a_u062e_u0635_u0635_u0627_u062a_u003a u0020 u0627_u0644_u0641_u0644_u0633_u0641_u0629_u060c u0020 u0627_u0644_u0644_u0633_u0627_u0646_u064a_u0627_u062a_u060c u0020 u0639_u0644_u0645_u0020", 
        "u0627_u0644_u0646_u0641_u0633 u0020 u0627_u0644_u0645_u0639_u0631_u0641_u064a_u060c u0020 u0639_u0644_u0648_u0645 u0020 u0627_u0644_u0623_u0639_u0635_u0627_u0628_u060c u0020 u0627_u0644_u0630_u0643_u0627_u0621 u0020 u0627_u0644_u0627_u0635_u0637_u0646_u0627_u0639_u064a_u002e_u002e_u002e_u000d", 
        "u0647_u062f_u0641 u0020 u0627_u0644_u0639_u0644_u0648_u0645 u0020 u0627_u0644_u0645_u0639_u0631_u0641_u064a_u0629 u0020 u0641_u0647_u0645 u0020 u0643_u064a_u0641_u064a_u0629 u0020 u0645_u0639_u0627_u0644_u062c_u0629 u0020 u0627_u0644_u0645_u0639_u0644_u0648_u0645_u0629 u0020 u0645_u0646 u0020 u0637_u0631_u0641 u0020 u0627_u0644_u062f_u0645_u0627_u063a_u003a u0020 u0627_u0644_u0625_u062f_u0631_u0627_u0643_u060c u0020 u0627_u0644_u062a_u062e_u0632_u064a_u0646_u060c u0020 u0627_u0644_u0627_u0634_u062a_u063a_u0627_u0644_u0020", 
        "u0639_u0644_u064a_u0647_u0627_u060c u0020 u062a_u062d_u0648_u064a_u0644_u0647_u0627_u060c u0020 u0627_u0633_u062a_u0631_u062c_u0627_u0639_u0647_u0627_u002e_u000d", 
        "u0641_u064a u0020 u0627_u0644_u0633_u0646_u0648_u0627_u062a u0020 u0627_u0644_u0623_u062e_u064a_u0631_u0629 u0020 u0628_u062f_u0623_u062a u0020 u0627_u0644_u0639_u0644_u0648_u0645 u0020 u0627_u0644_u0645_u0639_u0631_u0641_u064a_u0629 u0020 u062a_u0647_u062a_u0645 u0020 u0628_u0627_u0644_u0623_u0645_u0631_u0627_u0636 u0020 u0627_u0644_u0646_u0641_u0633_u064a_u0629 u0020 u0641_u064a u0020 u0645_u062e_u062a_u0644_u0641 u0020 u062a_u0645_u0638_u0647_u0631_u0627_u062a_u0647_u0627 u0020 u0627_u0644_u0645_u0639_u0631_u0641_u064a_u0629_u0020", 
        "u0623_u0648 u0020 u0627_u0644_u0627_u0646_u0641_u0639_u0627_u0644_u064a_u0629 u0020 u0623_u0648 u0020 u0627_u0644_u0633_u0644_u0648_u0643_u064a_u0629_u060c u0020 u0648_u0628_u0627_u0644_u062a_u0627_u0644_u064a u0020 u0627_u0644_u0627_u0642_u062a_u0631_u0627_u0628 u0020 u0623_u0643_u062b_u0631 u0020 u0645_u0646 u0020 u0627_u0644_u0648_u0638_u0627_u0626_u0641 u0020 u0627_u0644_u0645_u0639_u0642_u062f_u0629 u0020 u0644_u0644_u062f_u0645_u0627_u063a u0020 u0648_u0627_u0644_u0639_u0644_u0627_u0642_u0627_u062a u0020 u0627_u0644_u0645_u062a_u0628_u0627_u062f_u0644_u0629_u0020", 
        "u0628_u064a_u0646 u0020 u0627_u0644_u0639_u0642_u0644 u0020 u0648_u0627_u0644_u0627_u0646_u0641_u0639_u0627_u0644_u002e_u000d", 
        "u062f_u0631_u0627_u0633_u0629 u0020 u0627_u0644_u0639_u0644_u0648_u0645 u0020 u0627_u0644_u0645_u0639_u0631_u0641_u064a_u0629 u0020 u0644_u0644_u0627_u0636_u0637_u0631_u0627_u0628_u0627_u062a u0020 u0627_u0644_u0646_u0641_u0633_u064a_u0629 u0020 u064a_u062a_u0645 u0020 u0639_u0644_u0649 u0020 u0645_u0633_u062a_u0648_u064a_u064a_u0646_u003a_u000d", 
        "u0648_u0635_u0641 u0020 u0645_u062e_u062a_u0644_u0641 u0020 u0627_u0644_u0627_u0636_u0637_u0631_u0627_u0628_u0627_u062a u0020 u0627_u0644_u0645_u0639_u0631_u0641_u064a_u0629 u0020 u0627_u0644_u0645_u0635_u0627_u062d_u0628_u0629 u0020 u0644_u0644_u0627_u0636_u0637_u0631_u0627_u0628 u0020 u0627_u0644_u0646_u0641_u0633_u064a_u002e_u000d", 
        "u062a_u0641_u0633_u064a_u0631 u0020 u0627_u0644_u0627_u0636_u0637_u0631_u0627_u0628_u0627_u062a u0020 u0627_u0644_u0646_u0641_u0633_u064a_u0629 u0020 u0627_u0646_u0637_u0644_u0627_u0642_u0627 u0020 u0645_u0646 u0020 u0623_u0631_u0636_u064a_u0629 u0020 u0627_u0634_u062a_u063a_u0627_u0644 u0020 u0627_u0644_u0630_u0647_u0646_u002e_u000d", 
        "u0647_u0630_u0627 u0020 u0627_u0644_u0627_u0646_u062a_u0642_u0627_u0644 u0020 u0645_u0646 u0020 u0627_u0644_u0648_u0635_u0641 u0020 u0627_u0644_u0628_u0633_u064a_u0637 u0020 u0625_u0644_u0649 u0020 u0627_u0644_u0645_u0639_u0642_u062f_u060c u0020 u0623_u064a u0020 u0627_u0644_u0627_u0646_u062a_u0642_u0627_u0644 u0020 u0645_u0646 u0020 u0643_u0648_u0646 u0020 u0627_u0644_u0627_u0636_u0637_u0631_u0627_u0628 u0020 u0627_u0644_u0645_u0639_u0631_u0641_u064a u0020 u0643_u0627_u0646_u0020", 
        "u0646_u062a_u064a_u062c_u0629 u0020 u0644_u064a_u0635_u0628_u062d u0020 u0633_u0628_u0628_u0627_u060c u0020 u0645_u0643_u0646 u0020 u0645_u0646 u0020 u0627_u0642_u062a_u0631_u0627_u062d u0020 u0646_u0645_u0627_u0630_u062c u0020 u062a_u0641_u0633_u064a_u0631_u064a_u0629 u0020 u0642_u0627_u0631_u0628_u062a u0020 u0627_u0644_u0627_u0634_u062a_u063a_u0627_u0644 u0020 u0627_u0644_u0633_u0648_u064a u0020 u0648_u0627_u0644_u0645_u0631_u0636_u064a_u002e_u000d"
    ]
}