{
    "bounding_box": [
        [
            341, 
            203, 
            290, 
            33
        ], 
        [
            444, 
            249, 
            107, 
            25
        ]
    ], 
    "image_height": 540, 
    "image_width": 720, 
    "transcription": [
        "u0020 u0020 u0627_u0644_u0645_u0634_u0631_u0648_u0639_u003a u0020 u0631_u062c_u0644 u0020 u0627_u0644_u063a_u0644_u0627_u0641_u0627_u062a u0020 u0020_u000d", 
        "u0645_u062f_u0631_u0633_u0629_u003a u0020 u0049 u0020 u0043"
    ]
}