{
    "bounding_box": [
        [
            207, 
            244, 
            430, 
            57
        ], 
        [
            187, 
            388, 
            80, 
            23
        ]
    ], 
    "image_height": 540, 
    "image_width": 720, 
    "transcription": [
        "u062d_u0633_u0646 u0020 u0627_u0644_u062a_u0639_u0627_u0645_u0644 u0020 u0645_u0639 u0020 u0627_u0644_u062e_u062f_u0645", 
        "u0627_u0644_u062f_u0631_u0633 u0020 u0033"
    ]
}