{
    "bounding_box": [
        [
            247, 
            50, 
            214, 
            36
        ], 
        [
            43, 
            137, 
            592, 
            25
        ], 
        [
            43, 
            171, 
            582, 
            25
        ], 
        [
            19, 
            204, 
            579, 
            24
        ], 
        [
            27, 
            239, 
            353, 
            24
        ], 
        [
            35, 
            273, 
            533, 
            31
        ], 
        [
            35, 
            311, 
            613, 
            26
        ], 
        [
            19, 
            342, 
            614, 
            28
        ], 
        [
            27, 
            377, 
            600, 
            27
        ]
    ], 
    "image_height": 540, 
    "image_width": 720, 
    "transcription": [
        "u0020_u0627_u0644_u0641_u0642_u0631_u0629 u0020 u0627_u0644_u0633_u0627_u062f_u0633_u0629_u0020", 
        "u0052_u0069_u0063_u0068 u0020 u004d_u0075_u0073_u0073_u0075_u006c_u006d_u0061_u006e u0020 u0049_u006e_u0064_u0069_u0061_u006e_u0073 u0020 u0067_u0065_u006e_u0065_u0072_u0061_u006c_u006c_u0079 u0020 u0061_u0072_u006d u0020 u0074_u0068_u0065_u006d_u0073_u0065_u006c_u0076_u0065_u0073_u0020", 
        "u0077_u0069_u0074_u0068 u0020 u0061 u0020 u006c_u0065_u0074_u0074_u0065_u0072 u0020 u006f_u0066 u0020 u0069_u006e_u0074_u0072_u006f_u0064_u0075_u0063_u0074_u0069_u006f_u006e u0020 u0061_u006e_u0064 u0020 u0072_u0065_u0063_u006f_u006d_u006d_u0065_u006e_u0064_u0061_u0074_u0069_u006f_u006e_u0020", 
        "u0066_u0072_u006f_u006d u0020 u0073_u006f_u006d_u0065 u0020 u006f_u0066_u0066_u0069_u0063_u0065_u0072 u0020 u0069_u006e u0020 u0049_u006e_u0064_u0069_u0061_u002c u0020 u0061_u006e_u0064_u002c u0020 u0073_u006f u0020 u0061_u0072_u006d_u0065_u0064_u002c u0020 u006f_u0062_u0074_u0061_u0069_u006e u0020 u0020 u0020 u0020", 
        "u0043_u006f_u006e_u0073_u0075_u006c_u0061_u0072 u0020 u0061_u0069_u0064 u0020 u0061_u006e_u0064 u0020 u0070_u0072_u006f_u0074_u0065_u0063_u0074_u0069_u006f_u006e_u002e u0020 u000d", 
        "u0627_u0644_u062a_u0631_u062c_u0645_u0629 u0020 u003a u0020 u0627_u0644_u0645_u0633_u0644_u0645_u064a_u0646 u0020 u0627_u0644_u0623_u063a_u0646_u064a_u0627_u0621 u0020 u0645_u0646 u0020 u0627_u0644_u0647_u0646_u0648_u062f u0020 u0639_u0627_u0645_u0629 u0020 u064a_u0633_u0644_u062d_u0648_u0646 u0020 u0623_u0646_u0641_u0633_u0647_u0645_u0020", 
        "u0628_u062e_u0637_u0627_u0628_u0627_u062a u0020 u0645_u0642_u062f_u0645_u0629 u0020 u0648_u062a_u0648_u0635_u064a_u0627_u062a u0020 u0645_u0646 u0020 u0628_u0639_u0636 u0020 u0627_u0644_u0636_u0628_u0627_u0637 u0020 u0641_u064a u0020 u0627_u0644_u0647_u0646_u062f u0020 u002e u0020 u0645_u0645_u0627 u0020 u064a_u0633_u0627_u0639_u062f_u0647_u0645_u0020", 
        "u0641_u064a u0020 u0627_u0644_u062d_u0635_u0648_u0644 u0020 u0639_u0644_u0649 u0020 u0627_u0644_u0645_u0633_u0627_u0639_u062f_u0627_u062a u0020 u0627_u0644_u0642_u0646_u0635_u0644_u064a_u0629 u0020 u0648_u0627_u0644_u062d_u0645_u0627_u064a_u0629 u0020 u002e u0020 u0020_u0028 u0020 u0645_u0642_u062f_u0645_u0629 u0020 u2013 u0020 u0645_u062f_u062e_u0644 u0020 u0020_u0020", 
        "u062a_u0648_u0635_u064a_u0629 u0020 u060c u0020 u062a_u0632_u0643_u064a_u0629_u0072_u0065_u0063_u006f_u006d_u006d_u0065_u006e_u0064_u0061_u0074_u0069_u006f_u006e u0020 u2013 u0020 u0639_u0631_u0636 u0020 u0020 u0020 u0049_u006e_u0074_u0072_u006f_u0064_u0075_u0063_u0074_u0069_u006f_u006e u0020 u0020"
    ]
}