{
    "bounding_box": [
        [
            369, 
            28, 
            289, 
            26
        ], 
        [
            106, 
            81, 
            555, 
            24
        ], 
        [
            56, 
            112, 
            605, 
            27
        ], 
        [
            352, 
            145, 
            309, 
            25
        ]
    ], 
    "image_height": 540, 
    "image_width": 720, 
    "transcription": [
        "u0628_u062f_u0621 u0020 u062a_u0634_u063a_u064a_u0644 u0020 u0627_u0644_u0625_u0646_u062a_u0631_u0646_u062a u0020 u0625_u0643_u0633_u0628_u0644_u0648_u0631_u0631 u0020 u0038", 
        "u064a_u0645_u0643_u0646 u0020 u0628_u062f_u0621 u0020 u062a_u0634_u063a_u064a_u0644 u0020 u0627_u0644_u0625_u0646_u062a_u0631_u0646_u062a u0020 u0625_u0643_u0633_u0628_u0644_u0648_u0631_u0631 u0020 u0038 u0020 u0628_u0627_u0644_u0646_u0642_u0631 u0020 u0639_u0644_u0649 u0020 u0631_u0645_u0632 u0020 u0627_u0644_u0625_u0646_u062a_u0631_u0646_u062a_u0020", 
        "u0625_u0643_u0633_u0628_u0644_u0648_u0631_u0631 u0020 u0627_u0644_u0645_u0648_u062c_u0648_u062f u0020 u0639_u0644_u0649 u0020 u0634_u0631_u064a_u0637 u0020 u0627_u0644_u0645_u0647_u0627_u0645 u0020 u0623_u0648 u0020 u0645_u0646 u0020 u062e_u0644_u0627_u0644 u0020 u0627_u0644_u0646_u0642_u0631 u0020 u0639_u0644_u0649 u0020 u0627_u0628_u062f_u0623 u0020 u0020 u0020 u0020 u0020 u0020 u0020 u0020", 
        "u0643_u0627_u0641_u0629 u0020 u0627_u0644_u0628_u0631_u0627_u0645_u062c u0020 u0020 u0020 u0020 u0020 u0020 u0020 u0625_u0646_u062a_u0631_u0646_u062a u0020 u0625_u0643_u0633_u0628_u0644_u0648_u0631_u0631_u0020"
    ]
}