{
    "bounding_box": [
        [
            40, 
            83, 
            460, 
            34
        ], 
        [
            61, 
            160, 
            612, 
            23
        ], 
        [
            40, 
            185, 
            606, 
            27
        ], 
        [
            73, 
            214, 
            573, 
            27
        ], 
        [
            296, 
            246, 
            351, 
            23
        ], 
        [
            108, 
            276, 
            566, 
            28
        ], 
        [
            75, 
            306, 
            572, 
            27
        ], 
        [
            52, 
            335, 
            621, 
            33
        ]
    ], 
    "image_height": 540, 
    "image_width": 720, 
    "transcription": [
        "u0645_u0627 u0020 u0627_u0644_u062d_u0627_u062c_u0629 u0020 u0644_u0627_u0633_u062a_u062e_u062f_u0627_u0645 u0020 u0041_u0053_u0050_u002e_u004e_u0045_u0054 u0020 u061f", 
        "u0020_u0627_u0644_u0645_u0639_u0644_u0648_u0645_u0627_u062a u0020 u0627_u0644_u0638_u0627_u0647_u0631_u0629 u0020 u0641_u064a u0020 u0635_u0641_u062d_u0627_u062a u0020 u0068_u0074_u006d_u006c u0020 u062a_u0643_u0648_u0646 u0020 u062b_u0627_u0628_u062a_u0629 u0020 u0628_u0645_u0639_u0646_u0649_u0020", 
        "u0623_u0646_u0643 u0020 u0645_u0627 u0020 u062a_u0643_u062a_u0628_u0647 u0020 u0641_u064a u0020 u0627_u0644_u0635_u0641_u062d_u0629 u0020 u0633_u064a_u0638_u0647_u0631 u0020 u0644_u0643 u0020 u0639_u0646_u062f u0020 u0627_u0644_u0639_u0631_u0636 u0020 u002e_u002e u0020 u0645_u062b_u0644_u0020", 
        "u0628_u0631_u0646_u0627_u0645_u062c u0020 u0627_u0644_u0648_u0648_u0631_u062f u0020 u002e_u002e u0020 u0627_u0644_u0630_u064a u0020 u062a_u0643_u062a_u0628_u0647 u0020 u062a_u0631_u0627_u0647 u0020 u002e_u002e u0020 u0648_u0644_u0643_u0646 u0020 u0645_u0627_u0630_u0627 u0020 u0625_u0630_u0627 u0020 u0643_u0627_u0646_u062a_u0020", 
        "u0639_u0646_u062f_u0643 u0020 u0633_u062c_u0644_u0627_u062a u0020 u0643_u0628_u064a_u0631_u0629 u0020 u0645_u0646 u0020 u0627_u0644_u0628_u064a_u0627_u0646_u0627_u062a_u000d", 
        "u0648_u062a_u0631_u064a_u062f u0020 u0623_u0646 u0020 u062a_u0639_u0631_u0636_u0647_u0627 u0020 u0641_u064a u0020 u0627_u0644_u0635_u0641_u062d_u0629_u002e_u002e u0020 u0645_u062b_u0644 u0020 u0645_u0644_u0627_u062d_u0638_u0627_u062a u0020 u0633_u062c_u0644_u0020", 
        "u0627_u0644_u0632_u0648_u0627_u0631_u002e_u002e u0020 u0623_u0648 u0020 u0623_u0633_u0645_u0627_u0621 u0020 u0627_u0644_u0645_u0634_u062a_u0631_u0643_u064a_u0646 u0020 u0641_u064a u0020 u0645_u0646_u062a_u062f_u0627_u0643 u0020 u0623_u0648 u0020 u0645_u0639_u0644_u0648_u0645_u0627_u062a_u000d", 
        "u0623_u062e_u0631_u0649 u0020 u0645_u062e_u0632_u0646_u0629 u0020 u0641_u064a u0020 u0642_u0648_u0627_u0639_u062f u0020 u0628_u064a_u0627_u0646_u0627_u062a u0020 u0645_u062b_u0644 u0020 u0645_u064a_u0643_u0631_u0648_u0633_u0648_u0641_u062a u0020 u0627_u0643_u0633_u0633_u002e"
    ]
}