{
    "bounding_box": [
        [
            302, 
            230, 
            326, 
            38
        ], 
        [
            302, 
            278, 
            326, 
            42
        ], 
        [
            302, 
            329, 
            326, 
            35
        ], 
        [
            302, 
            377, 
            326, 
            36
        ], 
        [
            418, 
            426, 
            209, 
            34
        ]
    ], 
    "image_height": 540, 
    "image_width": 720, 
    "transcription": [
        "u0642_u0627_u0644_u062a u0020 u0644_u0647_u0627 u0020 u0627_u0644_u0632_u062c_u0627_u062c_u0629_u003a u0020 u0623_u0631_u062c_u0648_u0020", 
        "u0623_u0646 u0020 u062a_u062a_u0648_u0642_u0641_u064a u0020 u0639_u0646 u0020 u0627_u0644_u0628_u0643_u0627_u0621 u0020 u0623_u064a_u0651_u062a_u0647_u0627_u0020", 
        "u0627_u0644_u0648_u0631_u0642_u0629 u0020 u0627_u0644_u0637_u064a_u0651_u0628_u0629_u060c u0020 u0641_u0628_u0627_u0644_u0628_u0643_u0627_u0621 u0020 u0644_u0646_u0020", 
        "u064a_u064f_u0639_u064a_u062f_u0643 u0020 u0625_u0644_u0649 u0020 u0643_u0631_u0651_u0627_u0633_u062a_u0643_u0020", 
        "u0627_u0644_u0646_u0638_u064a_u0641_u0629 u0020 u0645_u0646 u0020 u062c_u062f_u064a_u062f_u002e"
    ]
}