{
    "bounding_box": [
        [
            141, 
            34, 
            425, 
            33
        ], 
        [
            84, 
            90, 
            577, 
            29
        ], 
        [
            110, 
            124, 
            552, 
            28
        ], 
        [
            117, 
            158, 
            544, 
            26
        ], 
        [
            291, 
            185, 
            370, 
            29
        ]
    ], 
    "image_height": 540, 
    "image_width": 720, 
    "transcription": [
        "u0627_u0644_u062f_u0631_u0633 u0020 u0032_u002d_u0036_u003a u0020 u062a_u0628_u0648_u064a_u0628_u0629 u0020 u0623_u062f_u0648_u0627_u062a u0020 u0642_u0627_u0639_u062f_u0629 u0020 u0627_u0644_u0628_u064a_u0627_u0646_u0627_u062a", 
        "u062a_u064f_u0639_u062f u0020 u062a_u0628_u0648_u064a_u0628_u0629 u0020 u0623_u062f_u0648_u0627_u062a u0020 u0642_u0627_u0639_u062f_u0629 u0020 u0627_u0644_u0628_u064a_u0627_u0646_u0627_u062a u0020 u0627_u0644_u062a_u0628_u0648_u064a_u0628_u0629 u0020 u0627_u0644_u0623_u062e_u064a_u0631_u0629 u0020 u0641_u064a u0020 u062a_u0628_u0648_u064a_u0628_u0627_u062a u0020 u0627_u0644_u0623_u0648_u0627_u0645_u0631_u0020", 
        "u0627_u0644_u0623_u0633_u0627_u0633_u064a_u0629 u0020 u0627_u0644_u0623_u0631_u0628_u0639_u002e u0020 u0648_u062a_u062d_u062a_u0648_u064a u0020 u0639_u0644_u0649 u0020 u0645_u0639_u0638_u0645 u0020 u0627_u0644_u0623_u0648_u0627_u0645_u0631 u0020 u0627_u0644_u0645_u062a_u0642_u062f_u0645_u0629 u0020 u0648_u0627_u0644_u0623_u0633_u0627_u0633_u064a_u0629_u0020", 
        "u0627_u0644_u0645_u064f_u0633_u062a_u062e_u062f_u0645_u0629 u0020 u0641_u064a u0020 u0642_u0627_u0639_u062f_u0629 u0020 u0627_u0644_u0628_u064a_u0627_u0646_u0627_u062a u0020 u0627_u0644_u062a_u064a u0020 u062a_u0645 u0020 u0625_u0646_u0634_u0627_u0624_u0647_u0627_u002e u0020 u0648_u0633_u0648_u0641 u0020 u0646_u0633_u062a_u0639_u0631_u0636_u0020", 
        "u0623_u0633_u0627_u0633_u064a_u0627_u062a u0020 u0648_u0638_u064a_u0641_u0629 u0020 u0647_u0630_u0647 u0020 u0627_u0644_u062a_u0628_u0648_u064a_u0628_u0629 u0020 u0641_u064a u0020 u0647_u0630_u0627 u0020 u0627_u0644_u062f_u0631_u0633_u002e"
    ]
}