{
    "bounding_box": [
        [
            115, 
            76, 
            488, 
            42
        ], 
        [
            311, 
            132, 
            347, 
            25
        ], 
        [
            184, 
            161, 
            474, 
            30
        ], 
        [
            482, 
            193, 
            176, 
            32
        ], 
        [
            407, 
            226, 
            251, 
            29
        ], 
        [
            459, 
            265, 
            198, 
            25
        ], 
        [
            488, 
            296, 
            170, 
            29
        ], 
        [
            481, 
            329, 
            177, 
            28
        ], 
        [
            357, 
            366, 
            301, 
            22
        ], 
        [
            403, 
            398, 
            254, 
            24
        ], 
        [
            289, 
            433, 
            369, 
            25
        ], 
        [
            550, 
            467, 
            108, 
            21
        ]
    ], 
    "image_height": 540, 
    "image_width": 720, 
    "transcription": [
        "u0627_u0644_u0648_u062b_u0627_u0626_u0642 u0020 u0627_u0644_u0645_u0643_u0648_u0646_u0629 u0020 u0644_u0644_u062a_u0642_u0631_u064a_u0631 u0020 u0627_u0644_u0639_u0627_u0645 u0020 u0644_u0644_u062a_u0633_u064a_u064a_u0631", 
        "u0031 u0020 u0640 u0020 u0627_u0644_u0643_u0634_u0641 u0020 u0627_u0644_u0645_u0641_u0635_u0644 u0020 u0644_u0644_u0645_u0648_u0638_u0641_u064a_u0646 u0020 u0627_u0644_u0625_u062f_u0627_u0631_u064a_u064a_u0646_u000d", 
        "u0032 u0020 u0640 u0020 u0627_u0644_u0643_u0634_u0641 u0020 u0627_u0644_u0645_u0641_u0635_u0644 u0020 u0644_u0644_u062a_u0644_u0627_u0645_u064a_u0630 u0020 u0627_u0644_u062d_u0627_u0635_u0631_u064a_u0646 u0020 u0641_u064a u0020 u0031_u0035 u0020 u0646_u0648_u0641_u0645_u0628_u0631_u000d", 
        "u0033 u0020 u0640 u0020 u062e_u062f_u0645_u0627_u062a u0020 u0627_u0644_u0623_u0633_u0627_u062a_u0630_u0629_u000d", 
        "u0034 u0020 u0640 u0020 u062a_u0637_u0628_u064a_u0642 u0020 u0627_u0644_u0645_u0648_u0627_u0642_u0628_u062a u0020 u0627_u0644_u0631_u0633_u0645_u064a_u0629_u000d", 
        "u0035 u0020 u0640 u0020 u0627_u0644_u062a_u062f_u0627_u0631_u064a_u0633 u0020 u0627_u0644_u0645_u062a_u0643_u0627_u0645_u0644_u0629_u000d", 
        "u0036 u0020 u0640 u0020 u0645_u0648_u0627_u0642_u064a_u062a u0020 u0627_u0644_u0623_u0642_u0633_u0627_u0645_u000d", 
        "u0037 u0020 u0640 u0020 u0645_u0648_u0627_u0642_u064a_u062a u0020 u0627_u0644_u0623_u0633_u0627_u062a_u0630_u0629_u000d", 
        "u0038 u0020 u0640 u0020 u0627_u0633_u062a_u0639_u0645_u0627_u0644 u0020 u0627_u0644_u0645_u062d_u0644_u0627_u062a u0020 u0627_u0644_u0645_u062a_u062e_u0635_u0635_u0629_u000d", 
        "u0039 u0020 u0640 u0020 u0627_u0633_u062a_u0639_u0645_u0627_u0644 u0020 u0627_u0644_u0645_u062d_u0644_u0627_u062a u0020 u0627_u0644_u0639_u0627_u062f_u064a_u0629_u000d", 
        "u0031_u0030 u0020 u0640 u0020 u0648_u0636_u0639_u064a_u0629 u0020 u0627_u0644_u062a_u0644_u0627_u0645_u064a_u0630 u0020 u0627_u0644_u0649 u0020 u063a_u0627_u064a_u0629 u0020 u0031_u0035 u0020 u0646_u0648_u0641_u0645_u0628_u0631_u000d", 
        "u0031_u0031 u0020 u0640 u0020 u0627_u0644_u063a_u0644_u0627_u0641"
    ]
}