{
    "bounding_box": [
        [
            328, 
            107, 
            304, 
            42
        ], 
        [
            46, 
            166, 
            586, 
            42
        ], 
        [
            337, 
            224, 
            295, 
            41
        ], 
        [
            111, 
            279, 
            521, 
            45
        ], 
        [
            109, 
            339, 
            523, 
            41
        ], 
        [
            197, 
            396, 
            435, 
            46
        ], 
        [
            147, 
            453, 
            486, 
            47
        ]
    ], 
    "image_height": 540, 
    "image_width": 720, 
    "transcription": [
        "u0627_u0644_u0645_u0646_u0637_u0644_u0642_u0627_u062a u0020 u0627_u0644_u0641_u0643_u0631_u064a_u0629 u0020 u003a_u000d", 
        "u0627_u0644_u0635_u0647_u064a_u0648_u0646_u064a_u0629 u0020 u062d_u0631_u0643_u0629 u0020 u0639_u0646_u0635_u0631_u064a_u0629 u0020 u0627_u0633_u062a_u0639_u0645_u0627_u0631_u064a_u0629_u002c_u0020", 
        "u0648_u0642_u0627_u0639_u062f_u0629 u0020 u0644_u0644_u0625_u0645_u0628_u0631_u064a_u0627_u0644_u064a_u0629_u002e_u000d", 
        "u0627_u0644_u062b_u0648_u0631_u0629 u0020 u0627_u0644_u0641_u0644_u0633_u0637_u064a_u0646_u064a_u0629_u002c u0020 u062c_u0632_u0621 u0020 u0645_u0646 u0020 u0627_u0644_u062b_u0648_u0631_u0629_u0020", 
        "u0627_u0644_u0639_u0627_u0644_u0645_u064a_u0629 u0020 u0636_u062f u0020 u0627_u0644_u0625_u0645_u0628_u0631_u064a_u0627_u0644_u064a_u0629 u0020 u0648_u0627_u0644_u0631_u062c_u0639_u064a_u0629_u002e_u000d", 
        "u062a_u0628_u0646_u064a u0020 u062d_u0631_u0628 u0020 u0627_u0644_u062a_u062d_u0631_u064a_u0631 u0020 u0627_u0644_u0634_u0639_u0628_u064a_u0629_u002e_u000d", 
        "u0631_u0641_u0636 u0020 u0645_u0634_u0627_u0631_u064a_u0639 u0020 u0627_u0644_u062a_u0633_u0648_u064a_u0629 u0020 u0627_u0644_u0633_u064a_u0627_u0633_u064a_u0629_u002e"
    ]
}