{
    "bounding_box": [
        [
            284, 
            67, 
            156, 
            38
        ], 
        [
            167, 
            107, 
            113, 
            23
        ], 
        [
            502, 
            293, 
            185, 
            17
        ], 
        [
            520, 
            344, 
            153, 
            18
        ], 
        [
            475, 
            389, 
            202, 
            17
        ]
    ], 
    "image_height": 540, 
    "image_width": 720, 
    "transcription": [
        "u0627_u0644_u062f_u064a_u0645_u0642_u0631_u0627_u0637_u064a_u0629", 
        "u0643_u0644_u0647_u0627 u0020 u0623_u062e_u0637_u0627_u0631", 
        "u0031 u0020 u062a_u0639_u0631_u064a_u0641 u0020 u0627_u0644_u062f_u064a_u0645_u0642_u0631_u0627_u0637_u064a_u0629 u0020 u0648 u0020 u0645_u0628_u0627_u062f_u0624_u0647_u0627", 
        "u0032 u0020 u0623_u0634_u0643_u0627_u0644 u0020 u0627_u0644_u062d_u0643_u0645 u0020 u0627_u0644_u062f_u064a_u0645_u0642_u0631_u0627_u0637_u064a", 
        "u0033 u0020 u0627_u0644_u0641_u0631_u0642 u0020 u0628_u064a_u0646 u0020 u0627_u0644_u062f_u064a_u0645_u0642_u0631_u0627_u0637_u064a_u0629 u0020 u0648_u0627_u0644_u0634_u0648_u0631_u0649"
    ]
}