{
    "bounding_box": [
        [
            327, 
            513, 
            64, 
            6
        ], 
        [
            43, 
            511, 
            13, 
            9
        ], 
        [
            276, 
            51, 
            191, 
            33
        ], 
        [
            108, 
            144, 
            518, 
            26
        ], 
        [
            506, 
            191, 
            119, 
            21
        ], 
        [
            218, 
            232, 
            399, 
            25
        ], 
        [
            431, 
            276, 
            186, 
            23
        ], 
        [
            296, 
            317, 
            321, 
            25
        ], 
        [
            112, 
            362, 
            505, 
            21
        ], 
        [
            133, 
            405, 
            484, 
            23
        ], 
        [
            542, 
            451, 
            83, 
            20
        ]
    ], 
    "image_height": 540, 
    "image_width": 720, 
    "transcription": [
        "u0041_u006c_u0069_u006f_u0062_u0065_u0069_u0064_u002e_u0063_u006f_u006d", 
        "u0038_u0035", 
        "u062a_u062f_u0631_u064a_u0628 u0020 u0627_u0644_u062d_u0648_u0627_u0633", 
        "u0644_u0627 u0020 u0646_u062d_u062a_u0627_u062c u0020 u0644_u0641_u0642_u062f u0020 u0628_u0639_u0636 u0020 u0627_u0644_u062d_u0648_u0627_u0633 u0020 u062d_u062a_u0649 u0020 u0646_u0637_u0648_u0631 u0020 u0628_u0627_u0642_u064a u0020 u0627_u0644_u062d_u0648_u0627_u0633 u0020 u0627_u0644_u0645_u0647_u0645_u0644_u0629 u0020 u0644_u062f_u064a_u0646_u0627_u000d", 
        "u0645_u062b_u0627_u0644 u0020 u0627_u0644_u0643_u0641_u064a_u0641 u0020 u003a u0020 u000d", 
        "u062a_u062c_u062f u0020 u0623_u0630_u0646_u0647 u0020 u0642_u0627_u062f_u0631_u0629 u0020 u0639_u0644_u0649 u0020 u0645_u0639_u0631_u0641_u0629 u0020 u0627_u0644_u0623_u0634_u062e_u0627_u0635 u0020 u0645_u0646 u0020 u0623_u0635_u0648_u0627_u062a_u0647_u0645 u0020 u000d", 
        "u064a_u0639_u0631_u0641 u0020 u0642_u0631_u0628_u0647_u0645 u0020 u0645_u0646 u0020 u0628_u0639_u062f_u0647_u0645 u0020 u000d", 
        "u064a_u0639_u0631_u0641 u0020 u0627_u062a_u062c_u0627_u0647_u0647_u0645 u0020 u0633_u064a_u0631_u0647_u0645 u0020 u0645_u0646 u0020 u0635_u0648_u062a u0020 u0623_u062d_u0630_u064a_u062a_u0647_u0645_u000d", 
        "u064a_u0639_u0631_u0641 u0020 u062d_u0627_u0644_u062a_u0643 u0020 u0645_u0646 u0020 u0645_u062c_u0631_u062f u0020 u0633_u0645_u0627_u0639_u0647 u0020 u0644_u0635_u0648_u062a_u0643 u0020 u0648 u0020 u0647_u0648 u0020 u0644_u0627 u0020 u064a_u0631_u0649 u0020 u062a_u0639_u0627_u0628_u064a_u0631 u0020 u0648_u062c_u0647_u0643_u000d", 
        "u064a_u0639_u0631_u0641 u0020 u0645_u0646 u0020 u0623_u0645_u0627_u0645_u0647 u0020 u0628_u0645_u062c_u0631_u062f u0020 u0627_u0644_u0645_u0635_u0627_u0641_u062d_u0629 u0020 u0641_u064a_u062f u0020 u0627_u0644_u0643_u0641_u064a_u0641 u0020 u0645_u0635_u062f_u0631 u0020 u0644_u0644_u0643_u062b_u064a_u0631 u0020 u0645_u0646_u0020", 
        "u0627_u0644_u0645_u0639_u0644_u0648_u0645_u0627_u062a_u0020"
    ]
}