{
    "bounding_box": [
        [
            375, 
            86, 
            334, 
            29
        ], 
        [
            271, 
            117, 
            438, 
            43
        ], 
        [
            29, 
            161, 
            662, 
            43
        ], 
        [
            29, 
            206, 
            662, 
            33
        ], 
        [
            502, 
            240, 
            189, 
            30
        ]
    ], 
    "image_height": 540, 
    "image_width": 720, 
    "transcription": [
        "u0627_u0644_u0627_u0639_u062a_u0645_u0627_u062f u0020 u0627_u0644_u0628_u0631_u0627_u0645_u062c_u064a u0020 u0028_u0627_u0644_u062a_u062e_u0635_u0635_u064a u0020 u0029_u000d", 
        "u0041_u0063_u0063_u0072_u0065_u0064_u0069_u0074_u0061_u0074_u0069_u006f_u006e u0020 u0050_u0072_u006f_u0067_u0072_u0061_u006d_u006d_u0069_u006e_u0067_u000d", 
        "u0647_u0648 u0020 u062a_u0642_u064a_u064a_u0645 u0020 u0627_u0644_u0628_u0631_u0627_u0645_u062c u0020 u0628_u0645_u0624_u0633_u0633_u0629 u0020 u0645_u0627 u0020 u0648_u0627_u0644_u062a_u0627_u0643_u062f u0020 u0645_u0646 u0020 u062c_u0648_u062f_u0629 u0020 u0647_u0630_u0647 u0020 u0627_u0644_u0628_u0631_u0627_u0645_u062c_u0020", 
        "u0648_u0645_u062f_u0649 u0020 u062a_u0646_u0627_u0633_u0628_u0647_u0627 u0020 u0644_u0645_u0633_u0640_u062a_u0648_u0649 u0020 u0627_u0644_u0634_u0647_u0627_u062f_u0629 u0020 u0627_u0644_u0645_u0645_u0646_u0648_u062d_u0629 u0020 u0628_u0645_u0627 u0020 u064a_u062a_u0641_u0642 u0020 u0645_u0639 u0020 u0627_u0644_u0645_u0639_u0627_u064a_u064a_u0631_u0020", 
        "u0627_u0644_u0639_u0627_u0644_u0645_u064a_u0629 u0020 u0627_u0644_u0645_u062d_u062f_u062f_u0629 u0020 u002e_u0020"
    ]
}