{
    "bounding_box": [
        [
            110, 
            4, 
            575, 
            56
        ]
    ], 
    "image_height": 540, 
    "image_width": 720, 
    "transcription": [
        "u0033_u002d u0020 u0627_u0644_u0628_u0643_u0627_u0621 u0020 u0639_u0646_u062f u0020 u062a_u0644_u0627_u0648_u0629 u0020 u0627_u0644_u0642_u0631_u0622_u0646 u0020 u0648_u0633_u0645_u0627_u0639_u0647 u0020 u000d"
    ]
}