{
    "bounding_box": [
        [
            51, 
            123, 
            596, 
            28
        ], 
        [
            448, 
            159, 
            199, 
            22
        ], 
        [
            36, 
            192, 
            611, 
            29
        ], 
        [
            372, 
            224, 
            275, 
            26
        ], 
        [
            475, 
            520, 
            47, 
            9
        ], 
        [
            689, 
            520, 
            12, 
            7
        ], 
        [
            214, 
            47, 
            291, 
            35
        ]
    ], 
    "image_height": 540, 
    "image_width": 720, 
    "transcription": [
        "u0627_u06cc_u0627 u0020 u06cc_u0627_u062f_u06af_u06cc_u0631_u0646_u062f_u06af_u0627_u0646 u0020 u0628_u0631 u0020 u062f_u0627_u0646_u0634 u0020 u0648 u0020 u0645_u0647_u0627_u0631_u062a_u0627_u06cc u0020 u067e_u06cc_u0634 u0020 u0646_u06cc_u0627_u0632 u0020 u062f_u0631_u0633 u0020 u062a_u0627_u0632_u0647 u0020 u0627_u0632 u0020 u0642_u0628_u0644 u0020 u062a_u0633_u0644_u0637_u0020", 
        "u06cc_u0627_u0641_u062a_u0647 u0020 u0627_u0646_u062f_u061f_u0631_u0641_u062a_u0627_u0631 u0020 u0648_u0631_u0648_u062f_u06cc_u000d", 
        "u06cc_u0627_u062f_u06af_u06cc_u0631_u0646_u062f_u06af_u0627_u0646 u0020 u0686_u0647 u0020 u0645_u0642_u062f_u0627_u0631 u0020 u0627_u0632 u0020 u0627_u0647_u062f_u0627_u0641 u0020 u0648 u0020 u0645_u062d_u062a_u0648_u0627_u06cc u0020 u062f_u0631_u0633 u0020 u062a_u0627_u0632_u0647 u0020 u0631_u0627 u0020 u0642_u0628_u0644 u0020 u06cc_u0627_u062f u0020 u06af_u0631_u0641_u062a_u0647_u0020", 
        "u0627_u0646_u062f_u061f_u0622_u0632_u0645_u0648_u0646 u0020 u062c_u0627_u06cc_u0627_u0628_u06cc u0020 u06cc_u0627 u0020 u067e_u06cc_u0634 u0020 u0622_u0632_u0645_u0648_u0646", 
        "u062f_u06a9_u062a_u0631 u0020 u0637_u0628_u0627_u0637_u0628_u0627_u06cc_u06cc", 
        "u0038_u0034", 
        "u0627_u0647_u062f_u0627_u0641 u0020 u0633_u0646_u062c_u0634 u0020 u0627_u063a_u0627_u0632_u06cc_u0646"
    ]
}