{
    "bounding_box": [
        [
            98, 
            176, 
            513, 
            46
        ], 
        [
            175, 
            230, 
            368, 
            47
        ], 
        [
            107, 
            317, 
            124, 
            28
        ], 
        [
            107, 
            364, 
            378, 
            29
        ]
    ], 
    "image_height": 540, 
    "image_width": 720, 
    "transcription": [
        "u0627_u0644_u062d_u0642_u0648_u0642 u0020 u0648_u0627_u0644_u062d_u0631_u064a_u0627_u062a u0020 u0641_u064a u0020 u0645_u0631_u062d_u0644_u0629 u0020 u0627_u0644_u062a_u062d_u0648_u0644_u000b", 
        "u0646_u0645_u0648_u0630_u062c u0020 u0645_u0646 u0020 u0627_u0644_u0645_u0646_u0637_u0642_u0629 u0020 u0627_u0644_u0639_u0631_u0628_u064a_u0629", 
        "u0645_u062d_u0645_u062f u0020 u0627_u0644_u0639_u062c_u0627_u062a_u064a_u000d", 
        "u0645_u062f_u064a_u0631 u0020 u0645_u0646_u062a_u062f_u0649 u0020 u0627_u0644_u0628_u062f_u0627_u0626_u0644 u0020 u0627_u0644_u0639_u0631_u0628_u064a u0020 u0644_u0644_u062f_u0631_u0627_u0633_u0627_u062a_u000d"
    ]
}