{
    "bounding_box": [
        [
            212, 
            117, 
            295, 
            31
        ]
    ], 
    "image_height": 540, 
    "image_width": 720, 
    "transcription": [
        "u0627_u0644_u0639_u0645_u0644_u0629 u0020 u003a u0020 u0627_u0644_u0634_u0644_u0646 u0020 u0627_u0644_u0643_u064a_u0646_u0649"
    ]
}