{
    "bounding_box": [
        [
            153, 
            62, 
            355, 
            37
        ], 
        [
            114, 
            110, 
            491, 
            44
        ], 
        [
            407, 
            161, 
            198, 
            39
        ], 
        [
            87, 
            212, 
            519, 
            41
        ], 
        [
            64, 
            254, 
            542, 
            42
        ], 
        [
            41, 
            297, 
            565, 
            41
        ], 
        [
            571, 
            351, 
            36, 
            24
        ]
    ], 
    "image_height": 540, 
    "image_width": 720, 
    "transcription": [
        "u0635_u0641_u0629 u0020 u062c_u0644_u0648_u0633_u0647 u0020 uf072 u0020 u0639_u0646_u062f u0020 u0627_u0644_u0623_u0643_u0644_u003a_u000d", 
        "u0623_u0646 u0020 u064a_u0643_u0648_u0646 u0020 u062c_u0627_u0644_u0633_u0627_u064b u0020 u0639_u0644_u0649 u0020 u0631_u064f_u0643_u0628_u062a_u064a_u0647_u0650 u0020 u0648_u0638_u064f_u0647_u0648_u0631_u0650 u0020 u0642_u064e_u062f_u064e_u0645_u064a_u0647_u002e_u000d", 
        "u0623_u0646_u0647 u0020 u0644_u0627 u0020 u064a_u0623_u0643_u0644 u0020 u0645_u064f_u062a_u0651_u064e_u0643_u0650_u0626_u064e_u0627_u064b_u002e_u000d", 
        "u0648_u0643_u0627_u0646 u0020 uf072 u0020 u0625_u0630_u0627 u0020 u0623_u0643_u0644 u0020 u0639_u0646_u062f u0020 u0642_u0648_u0645 u0020 u0644_u0645 u0020 u064a_u064e_u062e_u0652_u0631_u064f_u062c u0020 u062d_u062a_u0649 u0020 u064a_u064e_u062f_u0652_u0639_u064f_u0648_u0020", 
        "u0644_u0647_u0645_u060c u0020 u0641_u064e_u062f_u064e_u0639_u064e_u0627 u0020 u0641_u064a u0020 u0645_u0646_u0632_u0644 u0020 u0639_u064e_u0628_u062f_u0650 u0020 u0627_u0644_u0644_u0647 u0020 u0628_u0646 u0020 u0628_u064f_u0633_u0652_u0631 u0020 u064d u0020 uf074_u0641_u0642_u0627_u0644_u003a u0020 u201d_u0020", 
        "u0627_u0644_u0644_u0647_u0645 u0020 u0628_u0627_u0631_u0643 u0020 u0644_u0647_u0645 u0020 u0641_u064a_u0645_u0627 u0020 u0631_u064e_u0632_u064e_u0642_u0652_u062a_u064e_u0647_u064f_u0645_u060c u0020 u0648_u0627_u063a_u0652_u0641_u0650_u0631 u0020 u0644_u064e_u0647_u064f_u0645 u0020 u0648_u0627_u0631_u0652_u062d_u064e_u0645_u0652_u0647_u064f_u0645_u0020", 
        "u201c_u002e_u000d"
    ]
}