{
    "bounding_box": [
        [
            243, 
            41, 
            439, 
            41
        ], 
        [
            452, 
            130, 
            205, 
            20
        ], 
        [
            490, 
            161, 
            166, 
            26
        ], 
        [
            291, 
            195, 
            366, 
            25
        ], 
        [
            458, 
            228, 
            199, 
            25
        ], 
        [
            419, 
            261, 
            238, 
            22
        ], 
        [
            506, 
            293, 
            151, 
            23
        ], 
        [
            582, 
            324, 
            75, 
            21
        ], 
        [
            554, 
            360, 
            102, 
            22
        ], 
        [
            508, 
            392, 
            149, 
            25
        ], 
        [
            195, 
            422, 
            461, 
            28
        ]
    ], 
    "image_height": 540, 
    "image_width": 720, 
    "transcription": [
        "u0627_u0633_u062a_u0645_u0627_u0631_u0629 u0020 u0627_u0644_u062a_u0639_u062f_u0627_u062f u0020 u0627_u0644_u0632_u0631_u0627_u0639_u064a u0020 u0028 u0020 u064a_u062a_u0628_u0639_u0029", 
        "u0628_u064a_u0627_u0646_u0627_u062a u0020 u0627_u0644_u0632_u0631_u0627_u0639_u0629 u0020 u0627_u0644_u0645_u062d_u0645_u064a_u0629_u000d", 
        "u0020_u0627_u0644_u0639_u0645_u0627_u0644_u0629 u0020 u0641_u064a u0020 u0627_u0644_u062d_u064a_u0627_u0632_u0629_u000d", 
        "u0639_u062f_u062f u0020 u0627_u0644_u062f_u0648_u0627_u062c_u0646 u0020 u0648_u0627_u0646_u062a_u0627_u062c_u0647_u0627 u0020 u0028 u0020 u0031_u0030 u0020 u0637_u064a_u0648_u0631 u0020 u062f_u062c_u0627_u062c u0020 u0029_u000d", 
        "u0627_u0644_u062d_u064a_u0648_u0627_u0646_u0627_u062a u0020 u0627_u0644_u062e_u064a_u0644_u064a_u0629 u0020 u0028 u0020 u0032_u0029_u000d", 
        "u0628_u064a_u0627_u0646_u0627_u062a u0020 u062e_u0644_u0627_u064a_u0627 u0020 u0627_u0644_u0646_u062d_u0644 u0020 u0648_u0627_u0646_u062a_u0627_u062c_u0647_u0627_u000d", 
        "u0627_u0644_u0622_u0644_u0627_u062a u0020 u0627_u0644_u0632_u0631_u0627_u0639_u064a_u0629 u0020 u000d", 
        "u0627_u0644_u0623_u0633_u0645_u0627_u0643_u000d", 
        "u062d_u0627_u0644_u0629 u0020 u0627_u0644_u062d_u0627_u0626_u0632_u000d", 
        "u0639_u062f_u062f u0020 u0642_u0637_u0639 u0020 u0627_u0644_u062d_u064a_u0627_u0632_u0629_u000d", 
        "u0645_u0643_u0627_u0646 u0020 u0627_u0644_u062d_u064a_u0627_u0632_u0629 u0020 u0641_u064a u0020 u062d_u0627_u0644 u0020 u0643_u0627_u0646_u062a u0020 u0641_u064a u0020 u0645_u0646_u0637_u0642_u0629 u0020 u0623_u0648 u0020 u0642_u0631_u064a_u0629 u0020 u0623_u062e_u0631_u0649_u002e_u000d"
    ]
}