{
    "bounding_box": [
        [
            35, 
            53, 
            641, 
            27
        ], 
        [
            35, 
            122, 
            641, 
            31
        ], 
        [
            279, 
            196, 
            397, 
            28
        ], 
        [
            76, 
            331, 
            600, 
            29
        ], 
        [
            92, 
            437, 
            535, 
            35
        ]
    ], 
    "image_height": 540, 
    "image_width": 720, 
    "transcription": [
        "u0648_u0628_u0633_u0628_u0628 u0020 u0623_u0646 u0020 u0641_u0627_u0626_u0636 u0020 u0645_u0635_u0631_u0648_u0641_u0627_u062a u0020 u0627_u0644_u062d_u0643_u0648_u0645_u0629 u0020 u0639_u0644_u0649 u0020 u0625_u064a_u0631_u0627_u062f_u0627_u062a u0020 u062a_u0639_u0627_u062f_u0644 u0020 u0643_u0645_u064a_u0629_u0020", 
        "u0627_u0644_u0627_u0641_u062a_u0631_u0627_u0636 u0020 u0627_u0644_u062c_u062f_u064a_u062f_u0629 u0020 u0627_u0644_u062a_u064a u0020 u0639_u0644_u0649 u0020 u0627_u0644_u062d_u0643_u0648_u0645_u0629 u0020 u0623_u0646 u0020 u062a_u0642_u0648_u0645 u0020 u0628_u0647_u0627_u060c u0020 u0641_u0625_u0646 u0020 u0639_u062c_u0632 u0020 u0623_u064a u0020 u0633_u0646_u0629_u0020", 
        "u064a_u0639_u0627_u062f_u0644 u0020 u0627_u0644_u062a_u063a_u064a_u0631 u0020 u0641_u064a u0020 u062f_u064a_u0646 u0020 u0627_u0644_u062d_u0643_u0648_u0645_u0629 u0020 u0641_u064a u0020 u062a_u0644_u0643 u0020 u0627_u0644_u0633_u0646_u0629_u002e u0020 u000d", 
        "u0648_u064a_u0645_u0643_u0646 u0020 u0627_u0644_u062a_u0639_u0628_u064a_u0631 u0020 u0639_u0646 u0020 u0627_u0644_u0639_u0644_u0627_u0642_u0629 u0020 u0628_u064a_u0646 u0020 u0639_u062c_u0632 u0020 u0627_u0644_u062d_u0643_u0648_u0645_u0629 u0020 u0648_u0627_u0644_u062f_u064a_u0646 u0020 u0627_u0644_u0639_u0627_u0645 u0020 u0643_u0627_u0644_u062a_u0627_u0644_u064a_u003a u0020 u000d", 
        "u0627_u0644_u062a_u063a_u064a_u0631 u0020 u0641_u064a u0020 u0627_u0644_u062f_u064a_u0646 u0020 u0627_u0644_u0639_u0627_u0645 u0020 u0020_u003d u0020 u0020_u0627_u0644_u0639_u062c_u0632 u0020 u0627_u0644_u0627_u0633_u0645_u064a u0020 u0641_u064a u0020 u0645_u064a_u0632_u0627_u0646_u064a_u0629 u0020 u0627_u0644_u062d_u0643_u0648_u0645_u0629"
    ]
}