{
    "bounding_box": [
        [
            232, 
            25, 
            480, 
            36
        ], 
        [
            17, 
            72, 
            695, 
            36
        ], 
        [
            46, 
            111, 
            665, 
            37
        ], 
        [
            156, 
            150, 
            556, 
            33
        ], 
        [
            12, 
            198, 
            700, 
            36
        ], 
        [
            52, 
            236, 
            660, 
            37
        ], 
        [
            17, 
            275, 
            695, 
            36
        ], 
        [
            600, 
            317, 
            112, 
            34
        ], 
        [
            69, 
            362, 
            643, 
            37
        ], 
        [
            58, 
            400, 
            654, 
            36
        ], 
        [
            45, 
            439, 
            667, 
            37
        ], 
        [
            292, 
            478, 
            420, 
            36
        ]
    ], 
    "image_height": 540, 
    "image_width": 720, 
    "transcription": [
        "u0034_u002e u0020 u0645_u0639_u062f_u0644 u0020 u0627_u0644_u0641_u0627_u0626_u062f_u0629 u0020 u0648_u0627_u0644_u062a_u063a_u064a_u0631 u0020 u0641_u0649 u0020 u0645_u0639_u062f_u0644 u0020 u0627_u0644_u062a_u0636_u062e_u0645_u002e_u000d", 
        "u0639_u0644_u0649 u0020 u0627_u0641_u062a_u0631_u0627_u0636 u0020 u0632_u064a_u0627_u062f_u0629 u0020 u062a_u0648_u0642_u0639_u0627_u062a u0020 u0627_u0644_u062a_u0636_u062e_u0645 u0020 u0644_u0644_u0627_u0641_u0631_u0627_u062f u0020 u0639_u0644_u0649 u0020 u062c_u0627_u0646_u0628 u0020 u0627_u0644_u0637_u0644_u0628_u0020", 
        "u0628_u064a u0020 u0031_u0030_u0025 u0020 u0641_u0625_u0646 u0020 u0630_u0644_u0643 u0020 u064a_u0624_u062f_u064a u0020 u0627_u0644_u0649 u0020 u0627_u0646_u062a_u0642_u0627_u0644 u0020 u0645_u0646_u062d_u064a u0020 u0627_u0644_u0637_u0644_u0628 u0020 u0627_u0644_u0649 u0020 u0627_u0639_u0644_u0649_u0020", 
        "u0648_u0630_u0644_u0643 u0020 u0628_u0633_u0628_u0628 u0020 u0627_u0646_u062e_u0641_u0627_u0636 u0020 u0627_u0644_u062a_u0643_u0644_u0641_u0629 u0020 u0627_u0644_u062d_u0642_u064a_u0642_u064a_u0629 u0020 u0644_u0644_u0627_u0642_u062a_u0631_u0627_u0636_u002e_u000d", 
        "u0627_u0645_u0627 u0020 u0627_u0630_u0627 u0020 u0643_u0627_u0646 u0020 u0644_u0644_u0627_u0641_u0631_u0627_u062f u0020 u0639_u0644_u0649 u0020 u062c_u0627_u0646_u0628 u0020 u0627_u0644_u0639_u0631_u0636 u0020 u0646_u0641_u0633 u0020 u0645_u0639_u062f_u0644 u0020 u0627_u0644_u062a_u0636_u062e_u0645 u0020 u0641_u0625_u0646_u0020", 
        "u0630_u0644_u0643 u0020 u064a_u0624_u062f_u064a u0020 u0627_u0644_u0649 u0020 u0627_u0646_u062a_u0642_u0627_u0644 u0020 u0645_u0646_u062d_u064a u0020 u0627_u0644_u0639_u0631_u0636 u0020 u0627_u0644_u0649 u0020 u0627_u0639_u0644_u0649 u0020 u0627_u0644_u064a_u0633_u0627_u0631 u0020 u0648_u0630_u0644_u0643_u0020", 
        "u0628_u0633_u0628_u0628 u0020 u062a_u0648_u0642_u0639 u0020 u0627_u0646_u062e_u0641_u0627_u0636 u0020 u0627_u0644_u0639_u0627_u0626_u062f u0020 u0627_u0644_u062d_u0642_u064a_u0642_u0649 u0020 u0644_u0644_u0642_u0631_u0636 u0020 u0628_u0633_u0628_u0628 u0020 u0627_u0644_u0632_u064a_u0627_u062f_u0629 u0020 u0641_u0649_u0020", 
        "u0627_u0644_u062a_u0636_u062e_u0645_u002e u0020 u000d", 
        "u0648_u0639_u0644_u0649 u0020 u0630_u0644_u0643 u0020 u0641_u0625_u0646 u0020 u0627_u0646_u062a_u0642_u0627_u0644 u0020 u0643_u0644_u0627 u0020 u0645_u0646 u0020 u0645_u0646_u062d_u064a u0020 u0627_u0644_u0637_u0644_u0628 u0020 u0648_u0627_u0644_u0639_u0631_u0636 u0020 u0639_u0644_u0649_u0020", 
        "u0627_u0644_u0627_u0626_u062a_u0645_u0627_u0646 u0020 u0628_u0646_u0641_u0633 u0020 u0627_u0644_u0646_u0633_u0628_u0629 u0020 u0641_u0625_u0646 u0020 u0627_u0644_u0643_u0645_u064a_u0629 u0020 u062a_u0628_u0642_u064a u0020 u062b_u0627_u0628_u062a_u0629 u0020 u0648_u064a_u0631_u062a_u0641_u0639 u0020 u0645_u0639_u062f_u0644_u0020", 
        "u0627_u0644_u0641_u0627_u0626_u062f_u0629 u0020 u0627_u0644_u0627_u0633_u0645_u064a u0020 u0628_u0645_u0642_u062f_u0627_u0631 u0020 u0645_u0639_u062f_u0644 u0020 u0627_u0644_u062a_u0636_u062e_u0645 u0020 u0648_u0627_u0645_u0627 u0020 u0627_u0644_u0639_u0644_u0627_u0642_u0629 u0020 u0628_u064a_u0646 u0020 u0645_u0639_u062f_u0644_u0020", 
        "u0627_u0644_u0641_u0627_u0626_u062f_u0629 u0020 u0648_u0645_u0639_u062f_u0644 u0020 u0627_u0644_u062a_u0636_u062e_u0645 u0020 u0639_u0644_u0627_u0642_u0629 u0020 u0637_u0631_u062f_u064a_u0629_u002e_u000d"
    ]
}