{
    "bounding_box": [
        [
            368, 
            41, 
            290, 
            31
        ], 
        [
            465, 
            95, 
            197, 
            20
        ], 
        [
            59, 
            118, 
            566, 
            22
        ], 
        [
            287, 
            144, 
            338, 
            23
        ], 
        [
            79, 
            168, 
            546, 
            25
        ], 
        [
            145, 
            197, 
            481, 
            22
        ], 
        [
            125, 
            221, 
            500, 
            25
        ], 
        [
            545, 
            247, 
            80, 
            20
        ], 
        [
            91, 
            270, 
            534, 
            22
        ], 
        [
            533, 
            296, 
            92, 
            18
        ], 
        [
            143, 
            318, 
            483, 
            24
        ], 
        [
            468, 
            346, 
            158, 
            20
        ], 
        [
            179, 
            372, 
            446, 
            22
        ], 
        [
            338, 
            397, 
            288, 
            20
        ], 
        [
            148, 
            423, 
            478, 
            23
        ]
    ], 
    "image_height": 540, 
    "image_width": 720, 
    "transcription": [
        "u0627_u0644_u0642_u0633_u0645 u0020 u0037_u003a u0020 u062a_u0637_u0628_u064a_u0642_u0627_u062a u0020 u0648_u064a_u0646_u062f_u0648_u0632 u0020 u0037", 
        "u0633_u062a_u062a_u0639_u0644_u0645 u0020 u0641_u064a u0020 u0647_u0630_u0627 u0020 u0627_u0644_u0642_u0633_u0645 u0020 u0643_u064a_u0641_u064a_u0629_u003a_u000d", 
        "u0625_u0639_u062f_u0627_u062f u0020 u0057_u0069_u006e_u0064_u006f_u0077_u0073 u0020 u004d_u0065_u0064_u0069_u0061 u0020 u0043_u0065_u006e_u0074_u0065_u0072 u0020 u0648_u0057_u0069_u006e_u0064_u006f_u0077_u0073 u0020 u004d_u0065_u0064_u0069_u0061 u0020 u0050_u006c_u0061_u0079_u0065_u0072_u000d", 
        "u0627_u0644_u062a_u0646_u0642_u0644 u0020 u0641_u064a u0020 u0057_u0069_u006e_u0064_u006f_u0077_u0073 u0020 u004d_u0065_u0064_u0069_u0061 u0020 u0043_u0065_u006e_u0074_u0065_u0072 u0020 u000d", 
        "u0627_u0633_u062a_u062e_u062f_u0627_u0645 u0020 u0057_u0069_u006e_u0064_u006f_u0077_u0073 u0020 u004d_u0065_u0064_u0069_u0061 u0020 u0043_u0065_u006e_u0074_u0065_u0072 u0020 u0644_u062a_u0634_u063a_u064a_u0644 u0020 u0645_u062e_u062a_u0644_u0641 u0020 u0623_u0646_u0648_u0627_u0639 u0020 u0627_u0644_u0648_u0633_u0627_u0626_u0637 u0020 u000d", 
        "u0641_u062a_u062d u0020 u0648_u062a_u0634_u063a_u064a_u0644 u0020 u0627_u0644_u0648_u0633_u0627_u0626_u0637 u0020 u0628_u0627_u0633_u062a_u062e_u062f_u0627_u0645 u0020 u0057_u0069_u006e_u0064_u006f_u0077_u0073 u0020 u004d_u0065_u0064_u0069_u0061 u0020 u0050_u006c_u0061_u0079_u0065_u0072 u0020 u000d", 
        "u062a_u0634_u063a_u064a_u0644 u0020 u0648_u0646_u0633_u062e u0020 u0627_u0644_u0623_u0642_u0631_u0627_u0635 u0020 u0627_u0644_u0645_u0636_u063a_u0648_u0637_u0629 u0020 u0628_u0627_u0633_u062a_u062e_u062f_u0627_u0645 u0020 u0057_u0069_u006e_u0064_u006f_u0077_u0073 u0020 u004d_u0065_u0064_u0069_u0061_u0020", 
        "u0050_u006c_u0061_u0079_u0065_u0072 u0020 u000d", 
        "u0625_u0646_u0634_u0627_u0621 u0020 u0623_u0642_u0631_u0627_u0635_u0643 u0020 u0627_u0644_u0631_u0642_u0645_u064a_u0629 u0020 u0627_u0644_u0645_u0636_u063a_u0648_u0637_u0629 u0020 u0639_u0646 u0020 u0637_u0631_u064a_u0642 u0020 u0623_u062f_u0627_u0629 u0020 u0625_u0646_u0634_u0627_u0621 u0020 u0627_u0644_u0623_u0642_u0631_u0627_u0635 u0020 u0627_u0644_u0631_u0642_u0645_u064a_u0629_u0020", 
        "u0627_u0644_u0645_u0636_u063a_u0648_u0637_u0629 u0020 u000d", 
        "u062a_u062e_u0635_u064a_u0635 u0020 u0627_u0644_u0642_u0648_u0627_u0626_u0645 u0020 u0648_u0639_u0631_u0648_u0636 u0020 u0627_u0644_u0634_u0631_u0627_u0626_u062d u0020 u0644_u0644_u0623_u0642_u0631_u0627_u0635 u0020 u0627_u0644_u0631_u0642_u0645_u064a_u0629 u0020 u0627_u0644_u0645_u0636_u063a_u0648_u0637_u0629 u0020 u000d", 
        "u0625_u0639_u062f_u0627_u062f u0020 u062d_u0633_u0627_u0628 u0020 u0627_u0644_u0641_u0627_u0643_u0633 u0020 u000d", 
        "u0625_u0631_u0633_u0627_u0644 u0020 u0641_u0627_u0643_u0633 u0020 u0639_u0646 u0020 u0637_u0631_u064a_u0642 u0020 u0627_u0644_u0641_u0627_u0643_u0633 u0020 u0648_u0627_u0644_u0645_u0633_u062d u0020 u0627_u0644_u0636_u0648_u0626_u064a u0020 u0641_u064a u0020 u0648_u064a_u0646_u062f_u0648_u0632 u0020 u000d", 
        "u0625_u0646_u0634_u0627_u0621 u0020 u0635_u0641_u062d_u0627_u062a u0020 u063a_u0644_u0627_u0641 u0020 u0641_u0627_u0643_u0633 u0020 u0645_u062e_u0635_u0635_u0629 u0020 u000d", 
        "u0645_u0633_u062d u0020 u0627_u0644_u0635_u0648_u0631 u0020 u0636_u0648_u0626_u064a_u0627 u0020 u0628_u0627_u0633_u062a_u062e_u062f_u0627_u0645 u0020 u0627_u0644_u0641_u0627_u0643_u0633 u0020 u0648_u0627_u0644_u0645_u0633_u062d u0020 u0627_u0644_u0636_u0648_u0626_u064a u0020 u0641_u064a u0020 u0648_u064a_u0646_u062f_u0648_u0632_u0020"
    ]
}