{
    "bounding_box": [
        [
            373, 
            39, 
            246, 
            43
        ], 
        [
            355, 
            83, 
            265, 
            23
        ], 
        [
            490, 
            130, 
            93, 
            17
        ], 
        [
            522, 
            152, 
            61, 
            17
        ], 
        [
            499, 
            175, 
            83, 
            17
        ], 
        [
            346, 
            194, 
            213, 
            18
        ], 
        [
            254, 
            216, 
            305, 
            15
        ], 
        [
            256, 
            234, 
            303, 
            16
        ], 
        [
            321, 
            255, 
            238, 
            15
        ], 
        [
            445, 
            275, 
            113, 
            14
        ], 
        [
            399, 
            290, 
            184, 
            21
        ], 
        [
            383, 
            313, 
            175, 
            18
        ], 
        [
            246, 
            332, 
            313, 
            18
        ], 
        [
            367, 
            355, 
            216, 
            17
        ], 
        [
            456, 
            374, 
            103, 
            17
        ], 
        [
            463, 
            396, 
            96, 
            15
        ], 
        [
            517, 
            415, 
            42, 
            13
        ], 
        [
            465, 
            436, 
            94, 
            14
        ], 
        [
            374, 
            454, 
            185, 
            15
        ]
    ], 
    "image_height": 540, 
    "image_width": 720, 
    "transcription": [
        "u062a_u0642_u064a_u064a_u0645 u0020 u0627_u0644_u0645_u0648_u0642_u0639_u000b", 
        "u0020_u0028_u0631_u0627_u062c_u0639 u0020 u0627_u0644_u062c_u0632_u0621 u0020 u0627_u0644_u062b_u0627_u0646_u064a u0020 u0645_u0646 u0020 u0627_u0644_u0645_u0633_u0627_u0642_u0029", 
        "u062d_u0631_u0643_u0629 u0020 u0627_u0644_u0647_u0648_u0627_u0621_u000d", 
        "u0627_u0644_u062a_u0648_u062c_u064a_u0647_u000d", 
        "u0627_u0644_u062e_u0635_u0648_u0635_u064a_u0629_u000d", 
        "u0627_u0644_u0645_u0633_u0627_u0641_u0627_u062a u0020 u0628_u064a_u0646 u0020 u0627_u0644_u0648_u062d_u062f_u0627_u062a u0020 u0627_u0644_u0645_u062a_u0642_u0627_u0628_u0644_u0629_u000d", 
        "u0627_u0644_u0639_u0644_u0627_u0642_u0629 u0020 u0628_u064a_u0646 u0020 u0627_u0644_u0648_u0627_u062c_u0647_u0627_u062a u0020 u0627_u0644_u0645_u062e_u062a_u0644_u0641_u0629 u0020 u0648_u0645_u0635_u0627_u062f_u0631 u0020 u0627_u0644_u0636_u0648_u0636_u0627_u0621_u000d", 
        "u0646_u0648_u0639 u0020 u0627_u0644_u0648_u062d_u062f_u0627_u062a u0020 u0627_u0644_u0633_u0643_u0646_u064a_u0629 u0020 u0028_u0627_u0644_u062d_u0648_u0627_u0626_u0637_u060c u0020 u0627_u0644_u0645_u062f_u0627_u062e_u0644_u002e_u002e_u002e_u0627_u0644_u062e_u0029_u000d", 
        "u0639_u062f_u062f u0020 u0627_u0644_u0648_u062d_u062f_u0627_u062a u0020 u0627_u0644_u0645_u0634_u062a_u0631_u0643_u0629 u0020 u0641_u064a u0020 u0627_u0644_u0645_u0631_u0627_u0641_u0642_u000d", 
        "u0627_u0644_u0643_u062b_u0627_u0641_u0629 u0020 u0627_u0644_u0639_u0645_u0631_u0627_u0646_u064a_u0629 u0020 u000d", 
        "u0627_u0644_u0645_u0646_u0627_u0638_u0631 u0020 u0648_u0627_u062a_u062c_u0627_u0647_u0627_u062a u0020 u0627_u0644_u0631_u0624_u064a_u0629_u000d", 
        "u062a_u0628_u0627_u064a_u0646 u0020 u0627_u062a_u062c_u0627_u0647_u0627_u062a u0020 u0627_u0644_u0631_u0624_u064a_u0627 u0020 u0648_u0646_u0648_u0639_u0647_u0627_u000d", 
        "u0627_u062d_u062a_u0645_u0627_u0644 u0020 u0627_u0644_u062a_u0639_u0627_u0631_u0636 u0020 u0645_u0639 u0020 u0627_u0644_u0627_u0636_u0627_u0621_u0629 u0020 u0627_u0644_u0637_u0628_u064a_u0639_u064a_u0629 u0020 u0648_u0627_u0644_u062e_u0635_u0648_u0635_u064a_u0629_u000d", 
        "u0627_u0644_u0645_u0646_u0627_u0637_u0642 u0020 u0627_u0644_u062e_u0636_u0631_u0627_u0621 u0020 u0648_u0627_u0644_u0645_u0641_u062a_u0648_u062d_u0629_u000d", 
        "u0627_u0644_u0643_u0641_u0627_u0621_u0629 u0020 u0648_u0627_u0644_u0643_u0641_u0627_u064a_u0629_u000d", 
        "u0627_u0644_u062a_u062f_u0631_u062c u0020 u0627_u0644_u0647_u0631_u0645_u064a_u000d", 
        "u0627_u0644_u0627_u0645_u0627_u0646_u000d", 
        "u0637_u0631_u064a_u0642_u0629 u0020 u0627_u0644_u0648_u0635_u0648_u0644_u000d", 
        "u0627_u0644_u0639_u0644_u0627_u0642_u0629 u0020 u0628_u064a_u0646 u0020 u0627_u0644_u0645_u0628_u0627_u0646_u064a u0020 u0627_u0644_u0645_u062a_u0642_u0627_u0631_u0628_u0629"
    ]
}