{
    "bounding_box": [
        [
            125, 
            215, 
            569, 
            22
        ], 
        [
            25, 
            263, 
            669, 
            22
        ], 
        [
            25, 
            287, 
            669, 
            22
        ], 
        [
            25, 
            313, 
            669, 
            20
        ], 
        [
            507, 
            337, 
            187, 
            20
        ], 
        [
            25, 
            385, 
            669, 
            20
        ], 
        [
            25, 
            409, 
            669, 
            20
        ], 
        [
            356, 
            432, 
            337, 
            21
        ], 
        [
            43, 
            65, 
            639, 
            22
        ], 
        [
            43, 
            91, 
            639, 
            20
        ], 
        [
            43, 
            113, 
            639, 
            22
        ], 
        [
            43, 
            139, 
            639, 
            18
        ], 
        [
            436, 
            161, 
            245, 
            20
        ]
    ], 
    "image_height": 540, 
    "image_width": 720, 
    "transcription": [
        "u0643_u0627_u0646_u062a u0020 u062d_u0635_u064a_u0644_u0629 u0020 u0627_u0644_u0639_u0645_u0644 u0020 u0627_u0644_u0628_u062d_u062b_u064a u0020 u062b_u0645_u0627_u0646_u064a_u0629 u0020 u0639_u0634_u0631 u0020 u0645_u062c_u0644_u062f_u0627 u0020 u0625_u062d_u062f_u0627_u0647_u0627 u0020 u062d_u0648_u0644 u0020 u0627_u0644_u0623_u0645_u0646 u0020 u0644_u0645 u0020 u064a_u0648_u0632_u0639 u0020 u0625_u0644_u0627 u0020 u0639_u0644_u0649 u0020 u0627_u0644_u0646_u062e_u0628_u0629_u060c u0020 u000d", 
        "u062b_u0645 u0020 u0646_u0634_u0631 u0020 u0031_u0030 u0020 u0645_u062c_u0644_u062f_u0627_u062a u0020 u0639_u0646 u0020 u0627_u0644_u0645_u062e_u0637_u0637 u0020 u0627_u0644_u0631_u0626_u064a_u0633_u064a u0020 u0641_u064a u0020 u0633_u0646_u0648_u0627_u062a u0020 u0627_u0644_u0623_u0644_u0641_u064a_u0646_u060c u0020 u0648_u0647_u064a_u003a u0020 u0028_u0031_u0029 u0020 u0645_u0648_u062c_u0632 u0020 u0028_u0032_u0029 u0020 u0635_u0648_u0631_u0629 u0020 u0627_u0644_u0645_u0633_u062a_u0642_u0628_u0644 u0020 u0028_u0033_u0029_u0020", 
        "u0627_u0644_u0627_u062d_u062a_u0645_u0627_u0644_u0627_u062a_u003a u0020 u0627_u0644_u0628_u062f_u0627_u0626_u0644 u0020 u0648_u062a_u0642_u064a_u064a_u0645_u0647_u0627 u0020 u0028_u0034_u0029 u0020 u0625_u0633_u0631_u0627_u0626_u064a_u0644 u0020 u0641_u064a u0020 u0623_u062c_u0648_u0627_u0621 u0020 u0627_u0644_u0633_u0644_u0627_u0645 u0020 u0028_u0035_u0029 u0020 u0625_u0633_u0631_u0627_u0626_u064a_u0644 u0020 u0641_u064a u0020 u0645_u0635_u0627_u0641 u0020 u0627_u0644_u062f_u0648_u0644 u0020 u0627_u0644_u0635_u0646_u0627_u0639_u064a_u0629 u0020 u0028_u0036_u0029_u0020", 
        "u0625_u0633_u0631_u0627_u0626_u064a_u0644 u0020 u0648_u0627_u0644_u0634_u0639_u0628 u0020 u0627_u0644_u064a_u0647_u0648_u062f_u064a u0020 u0028_u0037_u0029 u0020 u0627_u0633_u062a_u0645_u0631_u0627_u0631_u064a_u0629 u0020 u0627_u0644_u0648_u0636_u0639 u0020 u0627_u0644_u0642_u0627_u0626_u0645 u0020 u0028_u0038_u0029 u0020 u0627_u0644_u0628_u062f_u064a_u0644 u0020 u0627_u0644_u0627_u0642_u062a_u0635_u0627_u062f_u064a u0020 u0028_u0039_u0029 u0020 u0627_u0644_u0628_u062f_u064a_u0644 u0020 u0627_u0644_u0627_u062c_u062a_u0645_u0627_u0639_u064a_u0020", 
        "u0028_u0031_u0030_u0029 u0020 u0627_u0644_u0628_u062f_u064a_u0644 u0020 u0627_u0644_u0637_u0628_u064a_u0639_u064a u0020 u0627_u0644_u0628_u064a_u0626_u064a_u002e u0020 u000d", 
        "u062b_u0645 u0020 u062a_u0644_u0649 u0020 u0630_u0644_u0643 u0020 u0646_u0634_u0631 u0020 u0633_u0628_u0639 u0020 u0645_u062c_u0644_u062f_u0627_u062a u0020 u0639_u0646 u0020 u0633_u064a_u0627_u0633_u0629 u0020 u0627_u0644_u062a_u062e_u0637_u064a_u0637 u0020 u0648_u0647_u064a_u003a u0020 u0028_u0031_u0031_u0029 u0020 u0627_u0644_u0645_u0648_u0627_u0635_u0644_u0627_u062a u0020 u0648_u0627_u0644_u0627_u062a_u0635_u0627_u0644_u0627_u062a u0020 u0028_u0031_u0032_u0029 u0020 u0627_u0644_u0637_u0627_u0642_u0629_u0020", 
        "u0028_u0031_u0033_u0029 u0020 u0646_u0638_u0645 u0020 u0627_u0644_u0645_u0633_u0627_u062d_u0627_u062a u0020 u0627_u0644_u0645_u0641_u062a_u0648_u062d_u0629 u0020 u0028_u0031_u0034_u0029 u0020 u0646_u0638_u0627_u0645 u0020 u0627_u0644_u062a_u0639_u0644_u064a_u0645 u0020 u0028_u0031_u0035_u0029 u0020 u062a_u0648_u062c_u0647_u0627_u062a u0020 u0644_u062a_u0637_u0648_u0631 u0020 u0645_u0633_u062a_u0645_u0631 u0020 u0028_u0031_u0036_u0029 u0020 u0627_u0639_u062a_u0628_u0627_u0631_u0627_u062a u0020 u0645_u0627_u0644_u064a_u0629_u0020", 
        "u0648_u0627_u0642_u062a_u0635_u0627_u062f_u064a_u0629 u0020 u0648_u0628_u0644_u062f_u064a_u0629 u0020 u0028_u0031_u0037_u0029 u0020 u0639_u0645_u0644_u064a_u0629 u0020 u0627_u0644_u062a_u0646_u0641_u064a_u0630 u0020 u0648_u0633_u064a_u0627_u0633_u0629 u0020 u0627_u0644_u0623_u0631_u0636_u002e", 
        "u0648_u0627_u0634_u062a_u0631_u0643 u0020 u0623_u064a_u0636_u0627 u0020 u0623_u0633_u0627_u062a_u0630_u0629 u0020 u0645_u0646 u0020 u062c_u0627_u0645_u0639_u0627_u062a u0020 u0645_u062e_u062a_u0644_u0641_u0629 u0020 u0641_u064a u0020 u0627_u0644_u0639_u0627_u0644_u0645 u0020 u0645_u062b_u0644 u0020 u062c_u0627_u0645_u0639_u0629 u0020 u062f_u0628_u0644_u0646 u0020 u0648_u0623_u0648_u0644_u0628_u0631_u063a u0020 u0028_u0627_u0644_u062f_u0646_u0645_u0631_u0643_u0029 u0020 u0648_u0647_u0627_u0648_u0627_u064a_u0020", 
        "u0643_u0645_u0628_u0631_u062f_u062c_u060c u0020 u0648_u0627_u0644_u0645_u0639_u0647_u062f u0020 u0627_u0644_u062a_u0643_u0646_u0648_u0644_u0648_u062c_u064a u0020 u0627_u0644_u0645_u0644_u0643_u064a u0020 u0028_u0627_u0644_u0633_u0648_u064a_u062f_u0029_u060c u0020 u0648_u062a_u0633_u0648_u0643_u0648_u0628_u0647 u0020 u0028_u0627_u0644_u064a_u0627_u0628_u0627_u0646_u0029_u060c u0020 u0648_u0646_u064a_u0645_u064a_u062e_u064a_u0646 u0020 u0028_u0647_u0648_u0644_u0646_u062f_u0627_u0029_u060c u0020 u0648_u0644_u064a_u0644_u0020", 
        "u0028_u0641_u0631_u0646_u0633_u0627_u0029_u060c u0020 u0648_u0647_u0627_u0631_u0641_u0627_u0631_u062f u0020 u0028_u0623_u0645_u0631_u064a_u0643_u0627_u0029 u0020 u0648_u0627_u0644_u062c_u0645_u0639_u064a_u0629 u0020 u0627_u0644_u062a_u0642_u0646_u064a_u0629 u0020 u0641_u064a u0020 u0628_u0631_u0644_u064a_u0646_u060c u0020 u0647_u0630_u0627 u0020 u0628_u0627_u0644_u0625_u0636_u0627_u0641_u0629 u0020 u0625_u0644_u0649 u0020 u0627_u0644_u062c_u0627_u0645_u0639_u0627_u062a u0020 u0627_u0644_u0625_u0633_u0631_u0627_u0626_u064a_u0644_u064a_u0629_u002e u0020 u0647_u0630_u0647_u0020", 
        "u0627_u0644_u0645_u0634_u0627_u0631_u0643_u0629 u0020 u062c_u0627_u0621_u062a u0020 u0644_u0641_u0647_u0645 u0020 u0648_u062a_u0642_u064a_u064a_u0645 u0020 u0627_u0644_u062a_u0648_u062c_u0647_u0627_u062a u0020 u0627_u0644_u0645_u0633_u062a_u0642_u0628_u0644_u064a_u0629 u0020 u0627_u0644_u062f_u0648_u0644_u064a_u0629 u0020 u0627_u0644_u0633_u064a_u0627_u0633_u064a_u0629 u0020 u0648_u0627_u0644_u0627_u0642_u062a_u0635_u0627_u062f_u064a_u0629 u0020 u0648_u0627_u0644_u062f_u064a_u0646_u064a_u0629 u0020 u0648_u0627_u0644_u0633_u064a_u0627_u062d_u064a_u0629_u0020", 
        "u0648_u0627_u0644_u0635_u0646_u0627_u0639_u064a_u0629 u0020 u0648_u0627_u0644_u062a_u062c_u0627_u0631_u064a_u0629 u0020 u0648_u0627_u0644_u0623_u0645_u0646 u0020 u0648_u063a_u064a_u0631 u0020 u0630_u0644_u0643"
    ]
}