{
    "bounding_box": [
        [
            83, 
            30, 
            563, 
            32
        ], 
        [
            149, 
            103, 
            495, 
            22
        ], 
        [
            30, 
            147, 
            605, 
            23
        ], 
        [
            30, 
            185, 
            605, 
            23
        ], 
        [
            391, 
            219, 
            245, 
            25
        ], 
        [
            30, 
            260, 
            605, 
            29
        ], 
        [
            30, 
            303, 
            605, 
            28
        ], 
        [
            30, 
            340, 
            605, 
            34
        ], 
        [
            510, 
            380, 
            125, 
            27
        ], 
        [
            30, 
            429, 
            605, 
            23
        ], 
        [
            308, 
            467, 
            328, 
            22
        ]
    ], 
    "image_height": 540, 
    "image_width": 720, 
    "transcription": [
        "u0645_u0628_u062f_u0623 u0020 u0627_u0644_u062a_u0631_u0628_u064a_u0629 u0020 u0645_u0646 u0020 u0623_u062c_u0644 u0020 u0628_u0646_u0627_u0621 u0020 u0627_u0644_u062e_u0644_u0642 u0020 u0627_u0644_u0642_u0648_u064a_u0645 u0020 u003a_u000b", 
        "u0648_u062a_u062c_u0633_u062f_u0647 u0020 u0627_u0644_u0633_u064a_u0627_u0633_u0629 u0020 u0627_u0644_u062a_u0639_u0644_u064a_u0645_u064a_u0629 u0020 u0641_u064a u0020 u0627_u0644_u0645_u0631_u062a_u0643_u0632_u0627_u062a u0020 u0627_u0644_u062a_u0627_u0644_u064a_u0629_u003a_u000d", 
        "u0627_u0644_u0645_u062b_u0644 u0020 u0627_u0644_u0639_u0644_u064a_u0627 u0020 u0627_u0644_u062a_u064a u0020 u062c_u0627_u0621 u0020 u0628_u0647_u0627 u0020 u0627_u0644_u0625_u0633_u0644_u0627_u0645 u0020 u0644_u0642_u064a_u0627_u0645 u0020 u062d_u0636_u0627_u0631_u0629 u0020 u0625_u0646_u0633_u0627_u0646_u064a_u0629 u0020 u0631_u0634_u064a_u062f_u0629_u0020", 
        "u0628_u0646_u0627_u0621_u0629 u0020 u062a_u0647_u062a_u062f_u064a u0020 u0628_u0631_u0633_u0627_u0644_u0629 u0020 u0645_u062d_u0645_u062f u0020 uf072 u0020 u060c u0020 u0644_u062a_u062d_u0642_u064a_u0642 u0020 u0627_u0644_u0639_u0632_u0629 u0020 u0641_u064a u0020 u0627_u0644_u062f_u0646_u064a_u0627 u0020 u060c_u0020", 
        "u0648_u0627_u0644_u0633_u0639_u0627_u062f_u0629 u0020 u0641_u064a u0020 u0627_u0644_u062f_u0627_u0631 u0020 u0627_u0644_u0622_u062e_u0631_u002e_u000d", 
        "u0627_u0644_u0625_u064a_u0645_u0627_u0646 u0020 u0628_u0627_u0644_u0643_u0631_u0627_u0645_u0629 u0020 u0627_u0644_u0625_u0646_u0633_u0627_u0646_u064a_u0629 u0020 u0627_u0644_u062a_u064a u0020 u0642_u0631_u0631_u0647_u0627 u0020 u0627_u0644_u0642_u0631_u0622_u0646 u0020 u0627_u0644_u0643_u0631_u064a_u0645 u0020 u0648_u0623_u0646_u0627_u0637 u0020 u0628_u0647_u0627_u0020", 
        "u0627_u0644_u0642_u064a_u0627_u0645 u0020 u0628_u0623_u0645_u0627_u0646_u0629 u0020 u0627_u0644_u0644_u0647 u0020 u0641_u064a u0020 u0627_u0644_u0623_u0631_u0636 u0020 uf071_u007b_u0648_u064e_u0644_u064e_u0642_u064e_u062f_u0652 u0020 u0643_u064e_u0631_u0651_u064e_u0645_u0652_u0646_u064e_u0627 u0020 u0628_u064e_u0646_u0650_u064a u0020 u0622_u062f_u064e_u0645_u064e u0020 u0648_u064e_u062d_u064e_u0645_u064e_u0644_u0652_u0646_u064e_u0627_u0647_u064f_u0645_u0652_u0020", 
        "u0641_u0650_u064a u0020 u0627_u0644_u0652_u0628_u064e_u0631_u0651_u0650 u0020 u0648_u064e_u0627_u0644_u0652_u0628_u064e_u062d_u0652_u0631_u0650 u0020 u0648_u064e_u0631_u064e_u0632_u064e_u0642_u0652_u0646_u064e_u0627_u0647_u064f_u0645_u0652 u0020 u0645_u0650_u0646_u064e u0020 u0627_u0644_u0637_u0651_u064e_u064a_u0651_u0650_u0628_u064e_u0627_u062a_u0650 u0020 u0648_u064e_u0641_u064e_u0636_u0651_u064e_u0644_u0652_u0646_u064e_u0627_u0647_u064f_u0645_u0652 u0020 u0639_u064e_u0644_u064e_u0649_u0670 u0020 u0643_u064e_u062b_u0650_u064a_u0631_u064d_u0020", 
        "u0645_u0650_u0645_u0651_u064e_u0646_u0652 u0020 u062e_u064e_u0644_u064e_u0642_u0652_u0646_u064e_u0627 u0020 u007d_u000d", 
        "u0627_u0644_u0646_u0635_u062d u0020 u0627_u0644_u0645_u062a_u0628_u0627_u062f_u0644 u0020 u0628_u064a_u0646 u0020 u0627_u0644_u0631_u0627_u0639_u064a u0020 u0648_u0627_u0644_u0631_u0639_u064a_u0629 u0020 u0628_u0645_u0627 u0020 u064a_u0643_u0641_u0644 u0020 u0627_u0644_u062d_u0642_u0648_u0642_u0020", 
        "u0648_u0627_u0644_u0648_u0627_u062c_u0628_u0627_u062a u0020 u0648_u064a_u0646_u0645_u0649 u0020 u0627_u0644_u0648_u0644_u0627_u0621 u0020 u0648_u0627_u0644_u0625_u062e_u0644_u0627_u0635 u0020 u002e"
    ]
}