{
    "bounding_box": [
        [
            281, 
            135, 
            379, 
            53
        ], 
        [
            331, 
            212, 
            331, 
            30
        ], 
        [
            236, 
            250, 
            425, 
            29
        ], 
        [
            182, 
            288, 
            480, 
            29
        ], 
        [
            256, 
            318, 
            399, 
            36
        ]
    ], 
    "image_height": 540, 
    "image_width": 720, 
    "transcription": [
        "u0627_u0644_u0625_u062d_u0635_u0627_u0626_u064a_u0627_u062a u0020 u0627_u0644_u0623_u0633_u0627_u0633_u064a_u0629", 
        "u0648_u062a_u0647_u0645 u0020 u0639_u0644_u0649 u0020 u0627_u0644_u0639_u0645_u0648_u0645 u0020 u062b_u0644_u0627_u062b u0020 u0645_u062c_u0627_u0644_u0627_u062a u0020 u0623_u0633_u0627_u0633_u064a_u0629_u003a_u000d", 
        "u002d u0020 u0646_u0642_u0644 u0020 u0627_u0644_u0628_u0636_u0627_u0626_u0639_u003a u0020 u002d_u0627_u0644_u0623_u0637_u0646_u0627_u0646 u0020 u0627_u0644_u0645_u0646_u0642_u0648_u0644_u0629 u0020 u2013 u0020 u0627_u0644_u0637_u0646 u0020 u002f_u0627_u0644_u0643_u064a_u0644_u0648_u0645_u062a_u0631_u000d", 
        "u002d u0020 u0646_u0642_u0644 u0020 u0627_u0644_u0623_u0634_u062e_u0627_u0635_u003a u0020 u002d_u0639_u062f_u062f u0020 u0627_u0644_u0645_u0633_u0627_u0641_u0631_u064a_u0646 u0020 u2013 u0020 u0627_u0644_u0645_u0633_u0627_u0641_u0631_u0648_u0646_u002f u0020 u0627_u0644_u0643_u064a_u0644_u0648_u0645_u062a_u0631_u000d", 
        "u002d u0020 u0627_u0644_u062a_u062f_u0641_u0642_u0627_u062a_u003a u0020 u002d_u0645_u062c_u0645_u0648_u0639 u0020 u0627_u0644_u0639_u0631_u0628_u0627_u062a u0020 u2013 u0020 u0627_u0644_u0639_u0631_u0628_u0629_u002f_u0627_u0644_u0643_u064a_u0644_u0648_u0645_u062a_u0631_u0020"
    ]
}