{
    "bounding_box": [
        [
            522, 
            100, 
            143, 
            25
        ], 
        [
            60, 
            153, 
            573, 
            22
        ], 
        [
            496, 
            176, 
            137, 
            18
        ], 
        [
            61, 
            195, 
            572, 
            22
        ], 
        [
            243, 
            218, 
            389, 
            18
        ], 
        [
            116, 
            238, 
            516, 
            22
        ], 
        [
            543, 
            294, 
            122, 
            22
        ], 
        [
            50, 
            323, 
            615, 
            20
        ], 
        [
            42, 
            344, 
            590, 
            18
        ], 
        [
            42, 
            363, 
            590, 
            18
        ], 
        [
            37, 
            383, 
            595, 
            18
        ], 
        [
            51, 
            402, 
            582, 
            18
        ], 
        [
            586, 
            423, 
            47, 
            14
        ]
    ], 
    "image_height": 540, 
    "image_width": 720, 
    "transcription": [
        "u0641_u0631_u0636_u064a_u0627_u062a u0020 u0627_u0644_u062f_u0631_u0627_u0633_u0629_u003a_u000d", 
        "u0647_u0646_u0627_u0643 u0020 u0639_u0644_u0627_u0642_u0629 u0020 u0630_u0627_u062a u0020 u062f_u0644_u0627_u0644_u0629 u0020 u0628_u064a_u0646 u0020 u0645_u0633_u062a_u0648_u0649 u0020 u0623_u0633_u0639_u0627_u0631 u0020 u0642_u0627_u0626_u0645_u0629 u0020 u0627_u0644_u0637_u0639_u0627_u0645 u0020 u0028_u004d_u0065_u006e_u0075_u0029_u0648_u0628_u064a_u0646 u0020 u0631_u0636_u0627 u0020 u0648_u0642_u0646_u0627_u0639_u0629 u0020 u0627_u0644_u0636_u064a_u0648_u0641 u0020 u0648_u0627_u0644_u0632_u0628_u0627_u0626_u0646 u0020 u0641_u064a u0020 u0645_u0637_u0627_u0639_u0645_u0020", 
        "u0627_u0644_u062f_u0631_u062c_u0629 u0020 u0627_u0644_u0645_u0645_u062a_u0627_u0632_u0629 u0020 u0641_u064a u0020 u0639_u0645_u0627_u0646_u002e_u000d", 
        "u0647_u0646_u0627_u0643 u0020 u0641_u0631_u0648_u0642_u0627_u062a u0020 u0641_u064a u0020 u0623_u062b_u0631 u0020 u0623_u0633_u0639_u0627_u0631 u0020 u0642_u0627_u0626_u0645_u0629 u0020 u0627_u0644_u0637_u0639_u0627_u0645 u0020 u0028 u0020 u004d_u0045_u004e_u0055_u0029 u0020 u0639_u0644_u0649 u0020 u0631_u0636_u0627 u0020 u0648_u0642_u0646_u0627_u0639_u0629 u0020 u0627_u0644_u0636_u064a_u0648_u0641 u0020 u0641_u064a u0020 u0645_u0637_u0627_u0639_u0645 u0020 u0627_u0644_u062f_u0631_u062c_u0629 u0020 u0627_u0644_u0645_u0645_u062a_u0627_u0632_u0629 u0020 u0641_u064a_u0020", 
        "u0639_u0645_u0627_u0646 u0020 u062a_u0639_u0632_u0649 u0020 u0625_u0644_u0649 u0020 u0028 u0020 u0627_u0644_u062c_u0646_u0633_u060c u0020 u0627_u0644_u062f_u062e_u0644 u0020 u0627_u0644_u0634_u0647_u0631_u064a u0020 u060c u0020 u0627_u0644_u0645_u0624_u0647_u0644 u0020 u0627_u0644_u0639_u0644_u0645_u064a_u060c u0020 u0627_u0644_u0639_u0645_u0631_u060c u0020 u002e_u002e_u002e_u002e u0020 u0625_u0644_u062e_u0029_u002e_u000d", 
        "u0645_u0627 u0020 u0647_u064a u0020 u0627_u0644_u0639_u0648_u0627_u0645_u0644 u0020 u0627_u0644_u0623_u062e_u0631_u0649 u0020 u0627_u0644_u062a_u064a u0020 u062a_u0624_u062b_u0631 u0020 u0639_u0644_u0649 u0020 u0631_u0636_u0627 u0020 u0648_u0642_u0646_u0627_u0639_u0629 u0020 u0636_u064a_u0648_u0641 u0020 u0648_u0632_u0628_u0627_u0626_u0646 u0020 u0645_u0637_u0627_u0639_u0645 u0020 u0627_u0644_u062f_u0631_u062c_u0629 u0020 u0627_u0644_u0645_u0645_u062a_u0627_u0632_u0629 u0020 u0641_u064a u0020 u0639_u0645_u0627_u0646_u061f_u000d", 
        "u0623_u0647_u0645_u064a_u0629 u0020 u0627_u0644_u0628_u062d_u062b u0020 u003a_u002d_u000d", 
        "u0646_u0638_u0631_u0627_u064b u0020 u0644_u0644_u0627_u0646_u062a_u0634_u0627_u0631 u0020 u0627_u0644_u0648_u0627_u0633_u0639 u0020 u0639_u0627_u0644_u0645_u064a_u0627_u064b u0020 u0644_u0644_u0645_u0637_u0627_u0639_u0645 u0020 u0648_u062d_u062a_u0649 u0020 u0639_u0644_u0649 u0020 u0634_u0643_u0644 u0020 u0633_u0644_u0627_u0633_u0644 u0020 u0645_u0646 u0020 u0627_u0644_u0645_u0637_u0627_u0639_u0645 u0020 u0645_u062b_u0644 u0020 u0028_u0645_u0627_u0643_u062f_u0648_u0646_u0627_u0644_u0632_u060c u0020 u0628_u0631_u062c_u0631 u0020 u0643_u064a_u0646_u063a_u060c u0020 u0628_u064a_u062a_u0632_u0627_u0647_u062a_u060c u0020 u0628_u0648_u0628_u0627_u064a_u0632_u060c_u0020", 
        "u0648_u0625_u0644_u0649 u0020 u0623_u062e_u0631_u0647 u0020 u0645_u0646 u0020 u0647_u0630_u0647 u0020 u0627_u0644_u0645_u0637_u0627_u0639_u0645 u0020 u0029_u060c u0020 u0648_u0638_u0647_u0648_u0631 u0020 u0645_u0637_u0627_u0639_u0645 u0020 u0627_u0644_u062f_u0631_u062c_u0629 u0020 u0627_u0644_u0645_u0645_u062a_u0627_u0632_u0629 u0020 u060c u0020 u0641_u0625_u0646 u0020 u0627_u0644_u0628_u0627_u062d_u062b u0020 u064a_u0631_u0649 u0020 u0648_u0645_u0646 u0020 u062e_u0644_u0627_u0644 u0020 u0647_u0630_u0647 u0020 u0627_u0644_u062f_u0631_u0627_u0633_u0629 u0020 u0627_u0644_u0645_u062a_u0648_u0627_u0636_u0639_u0629_u0020", 
        "u0627_u0644_u062a_u064a u0020 u0633_u0648_u0641 u0020 u062a_u0633_u0627_u0639_u062f u0020 u0639_u0644_u0649 u0020 u062a_u0633_u0644_u064a_u0637 u0020 u0627_u0644_u0636_u0648_u0621 u0020 u0639_u0644_u0649 u0020 u0623_u062b_u0631 u0020 u0623_u0633_u0639_u0627_u0631 u0020 u0642_u0627_u0626_u0645_u0629 u0020 u0627_u0644_u0637_u0639_u0627_u0645 u0020 u0028 u0020 u004d_u0045_u004e_u0055_u0029 u0020 u0639_u0644_u0649 u0020 u0631_u0636_u0627 u0020 u0627_u0644_u0632_u0628_u0627_u0626_u0646 u0020 u0641_u064a u0020 u0645_u0637_u0627_u0639_u0645 u0020 u0627_u0644_u062f_u0631_u062c_u0629_u0020", 
        "u0627_u0644_u0645_u0645_u062a_u0627_u0632_u0629 u0020 u0641_u064a u0020 u0020_u0648_u0627_u0644_u062a_u064a u0020 u0642_u062f u0020 u0646_u0633_u062a_u0637_u064a_u0639 u0020 u0645_u0646 u0020 u062e_u0644_u0627_u0644_u0647_u0627 u0020 u0623_u064a_u0636_u0627_u064b u0020 u0627_u0644_u062a_u0648_u0635_u0644 u0020 u0625_u0644_u0649 u0020 u0645_u062c_u0645_u0648_u0639_u0629 u0020 u0645_u0646 u0020 u0627_u0644_u062a_u0648_u0635_u064a_u0627_u062a u0020 u0627_u0644_u0639_u0644_u0645_u064a_u0629 u0020 u0644_u0647_u0630_u0647 u0020 u0627_u0644_u0645_u0637_u0627_u0639_u0645 u0020 u0641_u064a u0020 u0627_u0644_u0645_u0645_u0644_u0643_u0629_u060c_u0020", 
        "u0639_u0644_u0645_u0627_u064b u0020 u0628_u0623_u0646_u0646_u0627 u0020 u0644_u0645 u0020 u0646_u062c_u062f u0020 u062f_u0631_u0627_u0633_u0627_u062a u0020 u0648_u0645_u0635_u0627_u062f_u0631 u0020 u0643_u0627_u0641_u064a_u0629 u0020 u062a_u062e_u062a_u0635 u0020 u0628_u0627_u0644_u0645_u0648_u0636_u0648_u0639 u0020 u0627_u0644_u0630_u064a u0020 u064a_u0639_u062a_u0642_u062f u0020 u0627_u0644_u0628_u0627_u062d_u062b u0020 u0623_u0646 u0020 u0644_u0647 u0020 u0623_u0647_u0645_u064a_u0629 u0020 u0643_u0628_u064a_u0631_u0629 u0020 u0641_u064a u0020 u0642_u0637_u0627_u0639 u0020 u0627_u0644_u0636_u064a_u0627_u0641_u0629_u0020", 
        "u0627_u0644_u0623_u0631_u062f_u0646_u064a_u0629 u0020 u000d"
    ]
}