{
    "bounding_box": [
        [
            87, 
            58, 
            560, 
            37
        ], 
        [
            59, 
            100, 
            588, 
            40
        ], 
        [
            129, 
            147, 
            518, 
            38
        ], 
        [
            60, 
            190, 
            587, 
            39
        ], 
        [
            173, 
            234, 
            474, 
            40
        ], 
        [
            113, 
            275, 
            534, 
            41
        ], 
        [
            94, 
            323, 
            553, 
            39
        ], 
        [
            489, 
            370, 
            158, 
            32
        ]
    ], 
    "image_height": 540, 
    "image_width": 720, 
    "transcription": [
        "u0647_u0630_u0647 u0020 u0627_u0644_u0642_u0635_u064a_u062f_u0629 u0020 u0631_u0648_u0645_u0627_u0646_u0633_u064a_u0629 u0020 u064a_u062a_u0648_u062c_u0647 u0020 u0641_u064a_u0647_u0627 u0020 u0627_u0644_u0634_u0627_u0639_u0631 u0020 u0627_u0644_u0649_u0020", 
        "u0627_u0644_u0637_u0628_u064a_u0639_u0629 u0020 u0644_u0627_u0646_u0647 u0020 u0641_u064a_u0647_u0627 u0020 u0627_u0644_u0639_u0627_u0644_u0645 u0020 u0627_u0644_u0645_u062b_u0627_u0644_u064a u0020 u0648_u0627_u0644_u0633_u0639_u0627_u062f_u0629 u0020 u0627_u0644_u0645_u0637_u0644_u0642_u0629_u002e_u000b", 
        "u0627_u0645_u0627 u0020 u0643_u0644_u0645_u0629 u0020 u0627_u0644_u0645_u0648_u0627_u0643_u0628 u0020 u0641_u0647_u064a u0020 u062a_u0639_u0646_u064a u0020 u0645_u0639_u062a_u0642_u062f_u0627_u062a u0020 u0627_u0644_u0646_u0627_u0633_u0020", 
        "u0648_u0645_u0642_u0627_u064a_u064a_u0633_u0647_u0645 u0020 u0627_u0644_u062e_u0627_u0637_u0626_u0629 u0020 u0028_u0627_u0644_u0646_u0627_u0633 u0020 u064a_u0645_u0634_u0648_u0646 u0020 u0648_u0631_u0627_u0621 u0020 u0627_u0644_u0627_u0646_u0633_u0627_u0646_u0020", 
        "u0627_u0644_u0642_u0648_u064a u0020 u0648_u0647_u0630_u0627 u0020 u0647_u0648 u0020 u0627_u0644_u0645_u0648_u0643_u0628 u0020 u0628_u0627_u0644_u0644_u063a_u0629 u0020 u0627_u0644_u0639_u0631_u0628_u064a_u0629_u0029_u002e_u000b", 
        "u062a_u062a_u0623_u0644_u0641 u0020 u0627_u0644_u0642_u0635_u064a_u062f_u0629 u0020 u0645_u0646 u0020 u0036 u0020 u0645_u0642_u0637_u0648_u0639_u0627_u062a_u002c u0020 u0627_u0644_u0645_u0642_u0637_u0648_u0639_u0627_u062a_u0020", 
        "u0627_u0644_u062e_u0645_u0633 u0020 u0627_u0644_u0627_u0648_u0644_u0649 u0020 u0645_u062a_u0634_u0627_u0628_u0647_u0629 u0020 u0641_u064a u0020 u0628_u0646_u0627_u0626_u0647_u0627 u0020 u0627_u0645_u0627 u0020 u0627_u0644_u0633_u0627_u062f_u0633_u0629_u0020", 
        "u0641_u062a_u062e_u062a_u0644_u0641 u0020 u0643_u0644_u064a_u0627_u002e_u00a0"
    ]
}