{
    "bounding_box": [
        [
            141, 
            53, 
            436, 
            35
        ], 
        [
            34, 
            118, 
            612, 
            21
        ], 
        [
            34, 
            154, 
            612, 
            24
        ], 
        [
            34, 
            198, 
            612, 
            21
        ], 
        [
            34, 
            237, 
            612, 
            21
        ], 
        [
            34, 
            277, 
            612, 
            20
        ], 
        [
            34, 
            316, 
            612, 
            22
        ], 
        [
            34, 
            356, 
            612, 
            20
        ], 
        [
            34, 
            396, 
            612, 
            21
        ], 
        [
            34, 
            435, 
            612, 
            20
        ], 
        [
            44, 
            474, 
            603, 
            22
        ]
    ], 
    "image_height": 540, 
    "image_width": 720, 
    "transcription": [
        "u0627_u0644_u0641_u0631_u0642 u0020 u0628_u064a_u0646 u0020 u0627_u0644_u0635_u062d_u0631_u0627_u0621 u0020 u0648_u0627_u0644_u062a_u0635_u062d_u0651_u0631 u0020 u0028_u064a_u062a_u0628_u0639_u002e_u002e_u0029", 
        "u0627_u0644_u062a_u0635_u062d_u0631 u0020 u0028_u0044_u0065_u0073_u0065_u0072_u0074_u0069_u0066_u0069_u0063_u0061_u0074_u0069_u006f_u006e_u0029 u0020 u0641_u0647_u064a u0020 u0639_u0645_u0644_u064a_u0629 u0020 u062a_u062d_u0648_u0651_u0644 u0020 u0627_u0644_u0627_u0631_u0636 u0020 u0627_u0644_u062e_u0635_u0628_u0629 u0020 u0648_u0627_u0644_u0631_u0639_u0648_u064a_u0629 u0020 u0641_u064a u0020 u0627_u0644_u0645_u0646_u0627_u0637_u0642_u0020", 
        "u0627_u0644_u062c_u0627_u0641_u0629 u0020 u0627_u0644_u0649 u0020 u0635_u062d_u0631_u0627_u0621_u060c u0020 u0627_u0645_u0627 u0020 u0646_u062a_u064a_u062c_u0629_u064b u0020 u0644_u0646_u0634_u0627_u0637 u0020 u0627_u0644_u0627_u0646_u0633_u0627_u0646_u060c u0020 u0627_u0648 u0020 u0646_u062a_u064a_u062c_u0629 u0020 u0644_u0644_u062a_u063a_u064a_u0631 u0020 u0627_u0644_u0645_u0646_u0627_u062e_u064a_u060c u0020 u0648_u0647_u064a u0020 u0641_u064a u0020 u0646_u0647_u0627_u064a_u0629_u0020", 
        "u0627_u0644_u0645_u0637_u0627_u0641 u0020 u062d_u0627_u0644_u0629 u0020 u0642_u0635_u0648_u0649 u0020 u0645_u0646 u0020 u0627_u0644_u062a_u0631_u062f_u064a u0020 u0641_u064a u0020 u0627_u0644_u0648_u0636_u0639 u0020 u0627_u0644_u0637_u0628_u064a_u0639_u064a u0020 u0644_u0644_u062a_u0631_u0628_u0629_u060c u0020 u062a_u0641_u0636_u064a u0020 u0627_u0644_u0649 u0020 u0627_u0644_u0642_u0636_u0627_u0621 u0020 u0639_u0644_u0649_u0020", 
        "u0642_u062f_u0631_u062a_u0647_u0627 u0020 u0641_u064a u0020 u0627_u0644_u0627_u0646_u062a_u0627_u062c_u060c_u0627_u0648 u0020 u0641_u064a u0020 u0627_u0644_u0627_u062d_u062a_u0641_u0627_u0638 u0020 u0628_u0645_u0643_u0648_u0646_u0627_u062a_u0647_u0627 u0020 u0627_u0644_u062d_u064a_u0648_u064a_u0629 u0020 u0648_u062e_u0635_u0648_u0628_u062a_u0647_u0627 u0020 u0627_u0644_u0633_u0627_u0646_u062f_u0629 u0020 u0644_u0644_u062d_u064a_u0627_u0629 u0020 u0627_u0644_u0628_u064a_u0648_u0644_u0648_u062c_u064a_u0629_u060c_u0020", 
        "u0627_u0648 u0020 u0641_u064a u0020 u0637_u0627_u0642_u062a_u0647_u0627 u0020 u0627_u0644_u0643_u0627_u0645_u0646_u0629 u0020 u0639_u0644_u0649 u0020 u0627_u0644_u0627_u0633_u062a_u062e_u062f_u0627_u0645_u0627_u062a u0020 u0627_u0644_u0627_u062e_u0631_u0649_u060c u0020 u0641_u062a_u062a_u062d_u0648_u0644 u0020 u0627_u0644_u0649 u0020 u0627_u0631_u0636 u0020 u062c_u0631_u062f_u0627_u0621 u0020 u0642_u0627_u062d_u0644_u0629_u0020", 
        "u0648_u0645_u0645_u064a_u062a_u0629_u060c u0020 u0648_u0628_u0627_u0644_u062a_u0627_u0644_u064a u0020 u0644_u0627_u064a_u0645_u0643_u0646 u0020 u0644_u0627_u064a_u0629 u0020 u0645_u062c_u0645_u0648_u0639_u0629 u0020 u0628_u0634_u0631_u064a_u0629 u0020 u0645_u0648_u0627_u0635_u0644_u0629 u0020 u062d_u064a_u0627_u062a_u0647_u0627 u0020 u0648_u0646_u0634_u0627_u0637_u0647_u0627 u0020 u0627_u0644_u0627_u0642_u062a_u0635_u0627_u062f_u064a u0020 u0639_u0646_u062f_u0645_u0627_u0020", 
        "u062a_u0633_u062a_u0628_u062f u0020 u0628_u0627_u0631_u0636_u0647_u0627 u0020 u0638_u0627_u0647_u0631_u0629 u0020 u0627_u0644_u062a_u0635_u062d_u0631_u060c u0020 u0641_u062a_u0633_u0628_u0628 u0020 u062a_u062f_u0647_u0648_u0631_u0627 u0020 u0641_u064a u0020 u0627_u0644_u0627_u0646_u0638_u0645_u0629 u0020 u0627_u0644_u0627_u064a_u0643_u0648_u0644_u0648_u062c_u064a_u0629 u0020 u0648_u062e_u062f_u0645_u0627_u062a_u0647_u0627_u0020", 
        "u0627_u0644_u0645_u0639_u062a_u0627_u062f_u0629_u060c u0020 u0648_u062a_u0647_u062f_u062f u0020 u062d_u0635_u0648_u0644 u0020 u0627_u0644_u0645_u062c_u062a_u0645_u0639_u0627_u062a u0020 u0639_u0644_u0649 u0020 u0627_u0644_u0645_u064a_u0627_u0647 u0020 u0648_u0627_u0644_u063a_u0630_u0627_u0621 u0020 u0627_u0648 u0020 u0648_u0633_u0627_u0626_u0644 u0020 u0627_u0644_u0637_u0627_u0642_u0629 u0020 u0627_u0644_u0627_u062e_u0631_u0649_u060c u0020 u0648_u062a_u0624_u062f_u064a_u0020", 
        "u0627_u0644_u0649 u0020 u0627_u0641_u0642_u0627_u0631 u0020 u0627_u0644_u0633_u0643_u0627_u0646 u0020 u0648_u0627_u0644_u0642_u0636_u0627_u0621 u0020 u0639_u0644_u0649 u0020 u0645_u0642_u0648_u0645_u0627_u062a u0020 u0648_u0627_u0633_u0628_u0627_u0628 u0020 u062d_u064a_u0627_u062a_u0647_u0645 u0020 u0627_u0644_u0627_u0646_u0633_u0627_u0646_u064a_u0629_u060c u0020 u0648_u062a_u062c_u0628_u0631_u0647_u0645 u0020 u0639_u0644_u0649 u0020 u0627_u0644_u0647_u062c_u0631_u0629_u0020", 
        "u0627_u0644_u0649 u0020 u0627_u0645_u0627_u0643_u0646 u0020 u0627_u062e_u0631_u0649_u060c_u0642_u062f u0020 u0644_u0627_u062a_u0642_u0644 u0020 u0642_u0633_u0648_u0629_u064b_u060c_u0648_u0644_u0627 u0020 u062a_u0635_u0645_u062f u0020 u0628_u0627_u0644_u0646_u062a_u064a_u062c_u0629 u0020 u0637_u0648_u064a_u0644_u0627 u0020 u0627_u0645_u0627_u0645 u0020 u0634_u0628_u062d u0020 u0627_u0644_u062a_u0635_u062d_u0631 u0020 u0627_u0644_u0645_u0633_u062a_u0634_u0631_u064a_u002e"
    ]
}