{
    "bounding_box": [
        [
            274, 
            71, 
            165, 
            31
        ], 
        [
            34, 
            136, 
            615, 
            31
        ], 
        [
            87, 
            173, 
            561, 
            33
        ], 
        [
            99, 
            210, 
            550, 
            31
        ], 
        [
            65, 
            248, 
            584, 
            34
        ], 
        [
            441, 
            291, 
            207, 
            29
        ], 
        [
            59, 
            333, 
            589, 
            34
        ], 
        [
            65, 
            371, 
            583, 
            34
        ], 
        [
            294, 
            414, 
            355, 
            30
        ]
    ], 
    "image_height": 540, 
    "image_width": 720, 
    "transcription": [
        "u0627_u0644_u0647_u0648_u064a_u0629 u0020 u0627_u0644_u062c_u0645_u0627_u0639_u064a_u0629", 
        "u0627_u0644_u0647_u0648_u064a_u0629 u0020 u0627_u0644_u062c_u0645_u0627_u0639_u064a_u0629 u0020 u0028 u0020 u0627_u0644_u062c_u0645_u0639_u064a_u0629 u0020 u0029 u0020 u003a u0020 u062a_u062a_u0634_u0643_u0644 u0020 u0645_u0646 u0020 u0627_u0644_u0645_u0631_u0643_u0628_u0627_u062a u0020 u0627_u0644_u0645_u0634_u062a_u0631_u0643_u0629_u0020", 
        "u0628_u064a_u0646 u0020 u0623_u0641_u0631_u0627_u062f u0020 u0627_u0644_u062c_u0645_u0627_u0639_u0629 u0020 u0627_u0644_u062a_u064a u0020 u064a_u0646_u062a_u0645_u064a u0020 u0625_u0644_u064a_u0647_u0627 u0020 u0627_u0644_u0641_u0631_u062f_u060c u0020 u0648_u0642_u062f u0020 u062a_u0643_u0648_u0646 u0020 u0647_u0630_u0647_u0020", 
        "u0627_u0644_u0645_u0631_u0643_u0628_u0627_u062a u0020 u062a_u0643_u0648_u0646 u0020 u0639_u0631_u0642_u064a_u0629 u0020 u0623_u0648 u0020 u062f_u064a_u0646_u064a_u0629 u0020 u0623_u0648 u0020 u062a_u0627_u0631_u064a_u062e_u064a_u0629 u0020 u0623_u0648 u0020 u0644_u063a_u0648_u064a_u0629 u0020 u0623_u0648_u0020", 
        "u062c_u0645_u064a_u0639_u0647_u0627 u0020 u0645_u0639_u0627_u002e u0020 u0648_u062a_u0623_u062e_u0630 u0020 u062e_u0627_u0635_u064a_u0629 u0020 u0645_u0648_u062d_u0651_u062f_u0629 u0020 u0645_u062b_u0644 u0020 u0028 u0020 u0639_u0631_u0628_u064a_u060c u0020 u0623_u0645_u0631_u064a_u0643_u064a_u060c_u0020", 
        "u0645_u0633_u0644_u0645_u060c u0020 u0645_u0633_u064a_u062d_u064a_u2026_u002e_u002e_u0029_u002e_u000d", 
        "u0627_u0644_u0639_u0646_u0627_u0635_u0631 u0020 u0627_u0644_u062a_u064a u0020 u064a_u0645_u0643_u0646_u0647_u0627 u0020 u0628_u0644_u0648_u0631_u0629 u0020 u0647_u0648_u064a_u0629 u0020 u062c_u0645_u0627_u0639_u064a_u0629 u0020 u0647_u064a u0020 u0643_u062b_u064a_u0631_u0629_u060c u0020 u0623_u0647_u0645_u0647_u0627_u0020", 
        "u0627_u0634_u062a_u0631_u0627_u0643 u0020 u0627_u0644_u0634_u0639_u0628 u0020 u0623_u0648 u0020 u0627_u0644_u0645_u062c_u0645_u0648_u0639_u0629 u0020 u0641_u064a_u003a u0020 u0627_u0644_u0623_u0631_u0636_u060c u0020 u0627_u0644_u0644_u063a_u0629_u060c u0020 u0627_u0644_u062a_u0627_u0631_u064a_u062e_u060c_u0020", 
        "u0627_u0644_u062d_u0636_u0627_u0631_u0629_u060c u0020 u0627_u0644_u062b_u0642_u0627_u0641_u0629_u060c u0020 u0627_u0644_u0637_u0645_u0648_u062d u0020 u0648_u063a_u064a_u0631_u0647_u0627_u002e"
    ]
}