{
    "bounding_box": [
        [
            76, 
            18, 
            619, 
            43
        ], 
        [
            39, 
            79, 
            656, 
            25
        ], 
        [
            615, 
            111, 
            81, 
            22
        ], 
        [
            505, 
            137, 
            190, 
            23
        ], 
        [
            566, 
            168, 
            129, 
            20
        ], 
        [
            491, 
            196, 
            204, 
            23
        ], 
        [
            19, 
            223, 
            676, 
            24
        ], 
        [
            38, 
            252, 
            658, 
            25
        ], 
        [
            25, 
            281, 
            670, 
            25
        ], 
        [
            114, 
            309, 
            582, 
            26
        ], 
        [
            87, 
            338, 
            608, 
            25
        ], 
        [
            314, 
            367, 
            381, 
            25
        ], 
        [
            56, 
            396, 
            639, 
            25
        ], 
        [
            424, 
            426, 
            272, 
            24
        ], 
        [
            53, 
            453, 
            642, 
            26
        ], 
        [
            287, 
            482, 
            408, 
            25
        ], 
        [
            163, 
            511, 
            532, 
            25
        ]
    ], 
    "image_height": 540, 
    "image_width": 720, 
    "transcription": [
        "uf026 u0020 u0020_u0627_u0644_u062a_u063a_u0637_u064a_u0629 u0020 u0639_u0644_u0649 u0020 u0627_u0644_u0645_u0634_u0643_u0644_u0627_u062a u0020 u0627_u0644_u062f_u0627_u062e_u0644_u064a_u0629 u0020 u0627_u0644_u0623_u0645_u0631_u064a_u0643_u064a_u0629 u0020 u0021_u0021_u000d", 
        "u0640 u0020 u0627_u0644_u062a_u063a_u0637_u064a_u0629 u0020 u0639_u0644_u0649 u0020 u0645_u0646 u0020 u0648_u0631_u0627_u0621 u0020 u062d_u062f_u062b u0020 u0031_u0031 u0020 u0633_u0628_u062a_u0645_u0628_u0631 u0020 u0028 u0020 u0627_u0644_u0627_u0646_u062b_u0631_u0627_u0643_u0633 u0020 u0640 u0020 u062a_u0639_u0637_u064a_u0644 u0020 u0642_u0627_u0646_u0648_u0646 u0020 u0627_u0644_u062d_u0631_u064a_u0627_u062a u0020 u0640 u0020 u062d_u0631_u0628_u0020", 
        "u0627_u0644_u0625_u0631_u0647_u0627_u0628 u0020 u0029_u000d", 
        "u0640 u0020 u0627_u0644_u0645_u0634_u0643_u0644_u0627_u062a u0020 u0627_u0644_u0627_u0642_u062a_u0635_u0627_u062f_u064a_u0629 u0020 u002e_u000d", 
        "u0640 u0020 u0622_u0646_u0631_u0648_u0646 u0020 u0643_u0648_u0631_u0628 u0020 u002e_u000d", 
        "u0640 u0020 u062c_u0644_u0648_u0628_u0627_u0644 u0020 u0643_u0631_u0648_u0633_u064a_u0646_u062c u0020 u0644_u0645_u064a_u062a_u062f u0020 u002e_u000d", 
        "u0640 u0020 u0648_u0631_u0644_u062f u0020 u0643_u0648_u0645 u0020 u0028 u0020 u0639_u062f_u062f u0020 u0645_u0648_u0638_u0641_u0640_u064a_u0647_u0627 u0020 u0036_u0030 u0020 u0623_u0644_u0641 u0020 u005f u0020 u062a_u0634_u0645_u0644 u0020 u0639_u0645_u0640_u0644_u064a_u0627_u062a_u0647_u0627 u0020 u0036_u0035 u0020 u062f_u0648_u0644_u0629 u0020 u005f u0020 u0623_u0635_u0648_u0644_u0647_u0627 u0020 u0031_u0030_u0037 u0020 u0645_u0644_u064a_u0627_u0631_u0020", 
        "u062f_u0648_u0644_u0627_u0631 u0020 u005f u0020 u062f_u064a_u0648_u0646_u0647_u0627 u0020 u0034_u0031 u0020 u0645_u0644_u064a_u0627_u0631 u0020 u062f_u0648_u0644_u0627_u0631 u0020 u005f u0020 u0641_u0636_u0640_u064a_u062d_u0629 u0020 u0645_u062d_u0627_u0633_u0628_u064a_u0629 u0020 u062d_u062c_u0640_u0645_u0647_u0627 u0020 u0033_u002c_u0038_u0035 u0020 u0645_u0644_u064a_u0627_u0631 u0020 u062f_u0648_u0644_u0627_u0631 u0020 u005f_u0645_u0639_u0020", 
        "u0631_u0641_u0639 u0020 u062f_u0639_u0648_u0649 u0020 u0625_u0641_u0644_u0627_u0633 u0020 u0648_u0642_u062f u0020 u0623_u063a_u0644_u0640_u0642_u062a u0020 u0623_u0633_u0647_u0645 u0020 u0627_u0644_u0634_u0631_u0643_u0629 u0020 u0641_u064a u0020 u0031_u0039 u0020 u064a_u0648_u0644_u064a_u0648 u0020 u0645_u0646 u0020 u0639_u0627_u0645 u0020 u0032_u0030_u0030_u0032_u0645 u0020 u0639_u0644_u0649 u0020 u0028 u0020 u0039 u0020 u0029_u0020", 
        "u0633_u0646_u062a_u0627_u062a u0020 u0641_u064a u0020 u0628_u0648_u0631_u0635_u0629 u0020 u0646_u0627_u0633_u0640_u062f_u0627_u0643 u0020 u0628_u0639_u062f u0020 u0623_u0646 u0020 u0643_u0627_u0646_u062a u0020 u0028 u0020 u0036_u0034 u0020 u0029 u0020 u062f_u0648_u0644_u0627_u0631_u0627_u064b u0020 u0641_u064a u0020 u0639_u0627_u0645 u0020 u0031_u0039_u0039_u0039_u0645 u0020 u0029 u0020 u002e_u000d", 
        "u0640 u0020 u0642_u0627_u0644 u0020 u0627_u0644_u0631_u0626_u064a_u0633 u0020 u0627_u0644_u0623_u0645_u0631_u064a_u0643_u0640_u064a u0020 u0628_u0648_u0634 u0020 u0627_u0644_u0635_u063a_u064a_u0631 u0020 u0020_u003a u0020 u0028 u0020 u0625_u0646 u0020 u0647_u0630_u0647 u0020 u0627_u0644_u0645_u0645_u0627_u0631_u0633_u0627_u062a u0020 u063a_u064a_u0631 u0020 u0627_u0644_u0645_u0646_u0637_u0642_u064a_u0629 u0020 u0641_u064a_u0020", 
        "u0627_u0644_u0634_u0631_u0643_u0627_u062a u0020 u062a_u062f_u0639_u0648 u0020 u0625_u0644_u0649 u0020 u0634_u0646 u0020 u062d_u0645_u0644_u0629 u0020 u062d_u0643_u0648_u0645_u064a_u0629 u0020 u0635_u0627_u0631_u0645_u0629 u0020 u0029 u0020 u002e_u000d", 
        "u0640 u0020 u0028 u0020 u0031_u002c_u0035 u0020 u0645_u0644_u064a_u0648_u0646 u0020 u062d_u0627_u0644_u0629 u0020 u0625_u0641_u0644_u0627_u0633 u0020 u0634_u062e_u0635_u064a u0020 u0641_u064a u0020 u0627_u0644_u0648_u0644_u0627_u064a_u0627_u062a u0020 u0627_u0644_u0645_u062a_u0640_u062d_u062f_u0629 u0020 u062e_u0644_u0627_u0644 u0020 u0031_u0032 u0020 u0634_u0647_u0631_u0627_u064b u0020 u0641_u0642_u0637 u0020 u0627_u0644_u062a_u064a_u0020", 
        "u0627_u0646_u062a_u0647_u062a u0020 u0641_u064a u0020 u0033_u0031 u0020 u062f_u064a_u0633_u0645_u0628_u0631 u0020 u0032_u0030_u0030_u0032_u0645 u0020 u0029 u0020 u002e_u000d", 
        "u0640 u0020 u0028 u0020 u062d_u062c_u0645 u0020 u0627_u0644_u062f_u064a_u0648_u0646 u0020 u0644_u0644_u0645_u0633_u0640_u062a_u0647_u0644_u0643_u064a_u0646 u0020 u0627_u0644_u0623_u0645_u0631_u064a_u0643_u0640_u064a_u064a_u0646 u0020 u0641_u064a u0020 u0623_u0643_u062a_u0648_u0628_u0631 u0020 u0639_u0627_u0645 u0020 u0032_u0030_u0030_u0032_u0645 u0020 u0645_u0628_u0644_u063a u0020 u0031_u0030_u0037 u0020 u062a_u0631_u0644_u064a_u0648_u0646_u0020", 
        "u062f_u0648_u0644_u0627_u0631 u0020 u0645_u0646_u0647_u0627 u0020 u0037_u0032_u0034 u0020 u0645_u0644_u064a_u0627_u0631 u0020 u062f_u0648_u0644_u0627_u0631 u0020 u062f_u064a_u0648_u0646 u0020 u063a_u064a_u0631 u0020 u0645_u0636_u0645_u0648_u0646_u0629 u0020 u0029 u0020 u002e_u000d", 
        "u0640 u0020 u0028 u0020 u0642_u062f_u0651_u0631 u0020 u0639_u062c_u0632 u0020 u0627_u0644_u0645_u064a_u0632_u0627_u0646_u064a_u0629 u0020 u0627_u0644_u0625_u062a_u062d_u0627_u062f_u064a_u0629 u0020 u0644_u0639_u0627_u0645 u0020 u0032_u0030_u0030_u0033_u0645 u0020 u0028 u0020 u0033_u0035_u0030 u0020 u0029 u0020 u0645_u0644_u064a_u0627_u0631 u0020 u062f_u0648_u0644_u0627_u0631 u0020 u0020_u002e"
    ]
}