{
    "bounding_box": [
        [
            132, 
            47, 
            529, 
            33
        ], 
        [
            101, 
            85, 
            560, 
            32
        ], 
        [
            200, 
            124, 
            461, 
            33
        ], 
        [
            120, 
            213, 
            541, 
            33
        ], 
        [
            91, 
            249, 
            570, 
            35
        ], 
        [
            567, 
            290, 
            94, 
            30
        ], 
        [
            150, 
            380, 
            510, 
            31
        ], 
        [
            166, 
            416, 
            495, 
            34
        ], 
        [
            480, 
            458, 
            181, 
            27
        ]
    ], 
    "image_height": 540, 
    "image_width": 720, 
    "transcription": [
        "u0648_u0641_u064a u0020 u0627_u0644_u0637_u0627_u0626_u0641 u0020 u0641_u0642_u062f u0020 u0627_u0633_u062a_u0637_u0627_u0639_u062a u0020 u0627_u0644_u0642_u0648_u0627_u062a u0020 u0627_u0644_u062a_u0631_u0643_u064a_u0629 u0020 u0627_u0644_u0645_u0642_u0627_u0648_u0645_u0629_u0020", 
        "u0645_u062f_u0629 u0020 u062b_u0644_u0627_u062b_u0629 u0020 u0627_u0634_u0647_u0631 u0020 u0646_u0638_u0627 u0020 u0644_u0648_u062c_u0648_u062f u0020 u0642_u0648_u0627_u062a u0020 u062a_u0631_u0643_u064a_u0629 u0020 u0636_u062e_u0645_u0629 u0020 u0627_u0644_u0627 u0020 u0627_u0646_u0647_u0627_u0020", 
        "u0627_u0631_u063a_u0645_u062a u0020 u0639_u0644_u0649 u0020 u0627_u0644_u0627_u0633_u062a_u0633_u0644_u0627_u0645 u0020 u0641_u064a u0020 u0032_u0032 u0020 u0645_u0646 u0020 u0633_u064a_u0628_u062a_u0645_u0628_u0631_u002e_u000d", 
        "u0641_u062a_u0645_u062a_u062f u0020 u0627_u0644_u062b_u0648_u0631_u0629 u0020 u0644_u062a_u0633_u062a_u0648_u0644_u064a u0020 u0639_u0644_u0649 u0020 u0645_u0639_u0638_u0645 u0020 u0645_u062f_u0646 u0020 u0627_u0644_u062d_u062c_u0627_u0632 u0020 u0645_u0627 u0020 u0639_u062f_u0627_u0020", 
        "u0627_u0644_u0645_u062f_u064a_u0646_u0629 u0020 u0627_u0644_u0645_u0646_u0648_u0631_u0629 u0020 u0648_u0627_u0644_u062a_u064a u0020 u064a_u062a_u0645 u0020 u0645_u062d_u0627_u0635_u0631_u062a_u0647_u0627 u0020 u062d_u062a_u0649 u0020 u0646_u0647_u0627_u064a_u0629 u0020 u0627_u0644_u062d_u0631_u0628_u0020", 
        "u0627_u0644_u0639_u0627_u0644_u0645_u064a_u0629_u002e_u000d", 
        "u0648_u0647_u0646_u0627 u0020 u064a_u0632_u062f_u0627_u062f u0020 u0642_u0644_u0642 u0020 u0627_u0644_u0634_u0631_u064a_u0641 u0020 u062d_u0633_u064a_u0646 u0020 u0639_u0644_u0649 u0020 u0645_u0635_u064a_u0631 u0020 u062b_u0648_u0631_u062a_u0647_u0020", 
        "u0628_u0633_u0628_u0628 u0020 u0646_u0634_u0627_u0637 u0020 u0627_u0644_u0628_u0639_u062b_u0629 u0020 u0627_u0644_u0627_u0644_u0645_u0627_u0646_u064a_u0629 u0020 u0641_u064a u0020 u0627_u0644_u062d_u062c_u0627_u0632 u0020 u0644_u0645_u0633_u0627_u0639_u062f_u0629_u0020", 
        "u0648_u0645_u0633_u0627_u0646_u062f_u0629 u0020 u0627_u0644_u0627_u062a_u0631_u0627_u0643_u002e_u0020"
    ]
}