{
    "bounding_box": [
        [
            486, 
            39, 
            201, 
            37
        ], 
        [
            383, 
            113, 
            289, 
            35
        ], 
        [
            443, 
            162, 
            229, 
            31
        ], 
        [
            399, 
            212, 
            273, 
            35
        ], 
        [
            503, 
            262, 
            169, 
            34
        ], 
        [
            299, 
            311, 
            373, 
            34
        ], 
        [
            278, 
            359, 
            394, 
            31
        ], 
        [
            484, 
            402, 
            188, 
            30
        ]
    ], 
    "image_height": 540, 
    "image_width": 720, 
    "transcription": [
        "u062a_u0635_u0648_u0631 u0020 u0627_u0644_u0625_u0635_u0644_u0627_u062d", 
        "u0625_u0635_u0644_u0627_u062d u0020 u0627_u0644_u062a_u0631_u0643_u064a_u0628_u0629 u0020 u0627_u0644_u0633_u0643_u0627_u0646_u064a_u0629_u002e_u000d", 
        "u062a_u0646_u0645_u064a_u0629 u0020 u0627_u0644_u0625_u062f_u0627_u0631_u0629 u0020 u0627_u0644_u0639_u0627_u0645_u0629_u002e_u000d", 
        "u0646_u0638_u0627_u0645 u0020 u062d_u0643_u0645 u0020 u062f_u064a_u0645_u0648_u0642_u0631_u0627_u0637_u064a_u002e u0020 u0020_u000d", 
        "u062a_u0646_u0642_u064a_u062d u0020 u0627_u0644_u062f_u0633_u062a_u0648_u0631_u002e_u000d", 
        "u0625_u0639_u0627_u062f_u0629 u0020 u0648_u0636_u0639 u0020 u0627_u0644_u0631_u0624_u064a_u0629 u0020 u0627_u0644_u0625_u0633_u062a_u0631_u0627_u062a_u064a_u062c_u064a_u0629_u002e_u000d", 
        "u062a_u0642_u0648_u064a_u0629 u0020 u0627_u0644_u0633_u0644_u0637_u0629 u0020 u0627_u0644_u0642_u0636_u0627_u0626_u064a_u0629 u0020 u0648_u0641_u0635_u0644_u0647_u0627 u0020 u0639_u0646_u0020", 
        "u0627_u0644_u0633_u0644_u0637_u0629 u0020 u0627_u0644_u062a_u0646_u0641_u064a_u0630_u064a_u0629_u002e_u000d"
    ]
}