{
    "bounding_box": [
        [
            569, 
            35, 
            88, 
            27
        ], 
        [
            126, 
            108, 
            529, 
            29
        ], 
        [
            115, 
            142, 
            540, 
            28
        ], 
        [
            142, 
            171, 
            513, 
            29
        ], 
        [
            250, 
            209, 
            405, 
            26
        ]
    ], 
    "image_height": 540, 
    "image_width": 720, 
    "transcription": [
        "u0643_u062a_u0627_u0628_u0629 u0020 u0646_u0635", 
        "u0644_u0627 u0020 u0628_u062f u0020 u0645_u0646 u0020 u0623_u0646 u0020 u064a_u062d_u062a_u0648_u064a u0020 u0627_u0644_u0645_u0633_u062a_u0646_u062f u0020 u0627_u0644_u0641_u0627_u0631_u063a u0020 u062e_u0637 u0020 u0648_u0627_u0645_u0636 u0020 u064a_u0633_u0645_u0649 u0020 u0627_u0644_u0645_u0624_u0634_u0631_u060c_u0020", 
        "u064a_u0645_u0643_u0646 u0020 u0631_u0624_u064a_u062a_u0647 u0020 u0641_u064a u0020 u0623_u0639_u0644_u0649 u0020 u0627_u0644_u0645_u0633_u062a_u0646_u062f u0020 u0627_u0644_u062c_u062f_u064a_u062f_u002e u0020 u0028_u0625_u0646 u0020 u0643_u0646_u062a u0020 u0644_u0627 u0020 u062a_u0631_u0649 u0020 u0627_u0644_u0645_u0624_u0634_u0631_u060c_u0020", 
        "u0623_u064f_u0646_u0642_u0631 u0020 u0639_u0644_u0649 u0020 u0645_u0646_u0637_u0642_u0629 u0020 u0627_u0644_u0639_u0645_u0644 u0020 u0644_u062a_u062d_u062f_u064a_u062f u0020 u0645_u0643_u0627_u0646 u0020 u0627_u0644_u0645_u0624_u0634_u0631_u0029 u0020 u0627_u0644_u0622_u0646 u0020 u0642_u0645 u0020 u0628_u0627_u0644_u0643_u062a_u0627_u0628_u0629_u000d", 
        "u0020_u0644_u0631_u0624_u064a_u0629 u0020 u0627_u0644_u0623_u062d_u0631_u0641 u0020 u062a_u0638_u0647_u0631 u0020 u0628_u062c_u0627_u0646_u0628 u0020 u0627_u0644_u0645_u0624_u0634_u0631 u0020 u0627_u0644_u0648_u0627_u0645_u0636_u003a_u000d"
    ]
}