{
    "bounding_box": [
        [
            123, 
            48, 
            485, 
            27
        ], 
        [
            73, 
            120, 
            582, 
            25
        ], 
        [
            73, 
            149, 
            582, 
            25
        ], 
        [
            73, 
            178, 
            582, 
            25
        ], 
        [
            73, 
            207, 
            582, 
            25
        ], 
        [
            73, 
            234, 
            582, 
            26
        ], 
        [
            472, 
            264, 
            182, 
            25
        ], 
        [
            73, 
            335, 
            582, 
            24
        ], 
        [
            73, 
            363, 
            582, 
            25
        ], 
        [
            73, 
            389, 
            582, 
            24
        ], 
        [
            73, 
            421, 
            582, 
            24
        ], 
        [
            536, 
            452, 
            119, 
            22
        ], 
        [
            21, 
            502, 
            15, 
            12
        ]
    ], 
    "image_height": 540, 
    "image_width": 720, 
    "transcription": [
        "u0648_u0627_u0642_u0639 u0020 u0627_u0644_u0628_u062d_u062b u0020 u0627_u0644_u0639_u0644_u0645_u064a u0020 u0641_u064a u0020 u0627_u0644_u0639_u0627_u0644_u0645 u0020 u0627_u0644_u0639_u0631_u0628_u064a", 
        "u0641_u0627_u0644_u0628_u062d_u062b u0020 u0627_u0644_u0639_u0644_u0645_u064a u0020 u0641_u064a u0020 u0627_u0644_u062c_u0627_u0645_u0639_u0627_u062a u0020 u0627_u0644_u0639_u0631_u0628_u064a_u0629 u0020 u0645_u0646_u0639_u0632_u0644 u0020 u062a_u0645_u0627_u0645_u0627_u064b u0020 u0639_u0646 u0020 u0627_u0644_u0648_u062d_u062f_u0627_u062a u0020 u0627_u0644_u0625_u0646_u062a_u0627_u062c_u064a_u0629_u060c_u0020", 
        "u0648_u0627_u0644_u0642_u0637_u0627_u0639 u0020 u0627_u0644_u062e_u0627_u0635_u060c u0020 u0645_u0645_u0627 u0020 u0623_u062f_u0649 u0020 u0625_u0644_u0649 u0020 u062d_u0631_u0645_u0627_u0646 u0020 u0627_u0644_u0628_u0627_u062d_u062b u0020 u0627_u0644_u062c_u0627_u0645_u0639_u064a u0020 u0645_u0646 u0020 u0627_u0644_u062f_u0639_u0645 u0020 u0627_u0644_u0645_u0627_u062f_u064a_u0020", 
        "u0627_u0644_u0630_u064a u0020 u0643_u0627_u0646 u0020 u0645_u0646 u0020 u0627_u0644_u0645_u0645_u0643_u0646 u0020 u0623_u0646 u0020 u064a_u0642_u062f_u0645_u0647 u0020 u0647_u0630_u0627 u0020 u0627_u0644_u0642_u0637_u0627_u0639_u002e u0020 u0648_u0628_u0630_u0644_u0643 u0020 u0641_u0625_u0646 u0020 u0627_u0644_u0628_u0627_u062d_u062b u0020 u064a_u0639_u062a_u0645_u062f u0020 u0639_u0644_u0649_u0020", 
        "u0645_u0627_u064a_u062e_u0635_u0635 u0020 u0644_u0644_u0628_u062d_u062b u0020 u0627_u0644_u0639_u0644_u0645_u064a u0020 u0641_u064a u0020 u0645_u0648_u0627_u0632_u0646_u0627_u062a u0020 u062c_u0627_u0645_u0639_u062a_u0647 u0020 u0648_u0647_u0648 u0020 u0636_u0626_u064a_u0644 u0020 u062c_u062f_u0627_u064b u0020 u062e_u0627_u0635_u0629 u0020 u0625_u0630_u0627_u0020", 
        "u0645_u0627_u0642_u0648_u0631_u0646 u0020 u0628_u0645_u0627 u0020 u0647_u0648 u0020 u0645_u062e_u0635_u0635 u0020 u0644_u0646_u0641_u0633 u0020 u0627_u0644_u063a_u0631_u0636 u0020 u0641_u064a u0020 u062c_u0627_u0645_u0639_u0627_u062a u0020 u0627_u0644_u062f_u0648_u0644 u0020 u0627_u0644_u0645_u062a_u0642_u062f_u0645_u0629 u0020 u0623_u0648 u0020 u062d_u062a_u0649_u0020", 
        "u0641_u064a u0020 u0628_u0639_u0636 u0020 u0627_u0644_u062f_u0648_u0644 u0020 u0627_u0644_u0646_u0627_u0645_u064a_u0629_u002e_u000d", 
        "u0648_u0627_u0644_u0628_u0627_u062d_u062b u0020 u0627_u0644_u0639_u0631_u0628_u064a u0020 u0641_u064a u0020 u0627_u0644_u062c_u0627_u0645_u0639_u0627_u062a u0020 u064a_u0639_u0645_u0644 u0020 u0628_u0634_u0643_u0644 u0020 u0645_u0646_u0639_u0632_u0644 u0020 u062d_u062a_u0649 u0020 u0641_u064a u0020 u0628_u0639_u0636 u0020 u0627_u0644_u0623_u062d_u064a_u0627_u0646 u0020 u0639_u0646_u0020", 
        "u0632_u0645_u0644_u0627_u0626_u0647 u0020 u0641_u064a u0020 u0627_u0644_u0643_u0644_u064a_u0629 u0020 u0646_u0641_u0633_u0647_u0627 u0020 u0623_u0648 u0020 u0627_u0644_u0642_u0633_u0645_u002e u0020 u0623_u0636_u0641 u0020 u0625_u0644_u0649 u0020 u0630_u0644_u0643 u0020 u063a_u064a_u0627_u0628 u0020 u0627_u0644_u062a_u0639_u0627_u0648_u0646 u0020 u0648_u0627_u0644_u062a_u0646_u0633_u064a_u0642_u0020", 
        "u0641_u064a_u0645_u0627 u0020 u0628_u064a_u0646 u0020 u0627_u0644_u062c_u0627_u0645_u0639_u0627_u062a u0020 u0645_u0646 u0020 u0627_u0644_u062f_u0648_u0644_u0629 u0020 u0646_u0641_u0633_u0647_u0627 u0020 u0648_u0641_u064a_u0645_u0627 u0020 u0628_u064a_u0646 u0020 u0627_u0644_u062c_u0627_u0645_u0639_u0627_u062a u0020 u0627_u0644_u0639_u0631_u0628_u064a_u0629_u002e u0020 u0641_u0636_u0644_u0627_u064b u0020 u0639_u0646_u0020", 
        "u0627_u0641_u062a_u0642_u0627_u0631 u0020 u0627_u0644_u0645_u0643_u062a_u0628_u0627_u062a u0020 u0641_u064a u0020 u0627_u0644_u062c_u0627_u0645_u0639_u0627_u062a u0020 u0644_u0644_u0639_u062f_u064a_u062f u0020 u0645_u0646 u0020 u0627_u0644_u0645_u0631_u0627_u062c_u0639 u0020 u0648 u0020 u062d_u0631_u0645_u0627_u0646 u0020 u0627_u0644_u0628_u0627_u062d_u062b u0020 u0645_u0646 u0020 u0645_u0635_u062f_u0631_u0020", 
        "u0645_u0647_u0645 u0020 u0644_u0644_u0645_u0639_u0644_u0648_u0645_u0627_u062a_u002e", 
        "u0034_u0031"
    ]
}