{
    "bounding_box": [
        [
            303, 
            171, 
            265, 
            27
        ], 
        [
            419, 
            209, 
            149, 
            30
        ], 
        [
            458, 
            252, 
            110, 
            25
        ], 
        [
            469, 
            292, 
            99, 
            25
        ], 
        [
            369, 
            333, 
            198, 
            25
        ], 
        [
            206, 
            23, 
            253, 
            30
        ], 
        [
            421, 
            111, 
            203, 
            27
        ]
    ], 
    "image_height": 540, 
    "image_width": 720, 
    "transcription": [
        "u0627_u0644_u0647_u062c_u0631_u0629 u0020 u0645_u0646 u0020 u0627_u0644_u0631_u064a_u0641 u0020 u0625_u0644_u064a u0020 u0627_u0644_u062d_u0636_u0631_u000d", 
        "u062a_u062f_u0647_u0648_u0631 u0020 u0627_u0644_u0623_u0631_u0627_u0636_u064a_u000d", 
        "u062a_u0644_u0648_u062b u0020 u0627_u0644_u0647_u0648_u0627_u0621_u000d", 
        "u062a_u0644_u0648_u062b u0020 u0627_u0644_u0645_u0627_u0621_u000d", 
        "u0625_u062f_u0627_u0631_u0629 u0020 u0627_u0644_u0645_u062e_u0644_u0641_u0627_u062a u0020 u0627_u0644_u0635_u0644_u0628_u0629_u000d", 
        "u062a_u0642_u0631_u064a_u0631 u0020 u062d_u0627_u0644_u0629 u0020 u0627_u0644_u0628_u064a_u0626_u0629 u0020 u0641_u064a u0020 u0644_u0628_u0646_u0627_u0646", 
        "u0627_u0644_u0642_u0636_u0627_u064a_u0627 u0020 u0627_u0644_u062e_u0627_u0636_u0639_u0629 u0020 u0644_u0644_u062a_u0642_u064a_u064a_u0645"
    ]
}