{
    "bounding_box": [
        [
            141, 
            103, 
            470, 
            45
        ], 
        [
            55, 
            159, 
            555, 
            47
        ], 
        [
            449, 
            219, 
            162, 
            38
        ], 
        [
            106, 
            269, 
            505, 
            47
        ], 
        [
            138, 
            332, 
            473, 
            47
        ], 
        [
            113, 
            391, 
            497, 
            45
        ], 
        [
            191, 
            442, 
            419, 
            47
        ]
    ], 
    "image_height": 540, 
    "image_width": 720, 
    "transcription": [
        "u0648_u0645_u0646 u0020 u0647_u0630_u0647 u0020 u0627_u0644_u0646_u0627_u062d_u064a_u0629 u0020 u0641_u0642_u062f u0020 u0648_u0644_u062f u0020 u0627_u0644_u0646_u0638_u0627_u0645_u0020", 
        "u0627_u0644_u0633_u064a_u0627_u0633_u064a u0020 u0627_u0644_u0641_u0644_u0633_u0637_u064a_u0646_u064a u0020 u0628_u0639_u062f u0020 u0633_u0642_u0648_u0637 u0020 u0627_u0644_u062f_u0648_u0644_u0629_u0020", 
        "u0627_u0644_u0639_u062b_u0645_u0627_u0646_u064a_u0629_u002e u0020 u000d", 
        "u062a_u062c_u062f_u0631 u0020 u0627_u0644_u0625_u0634_u0627_u0631_u0629 u0020 u0625_u0644_u0649 u0020 u0623_u0646 u0020 u0627_u0644_u0641_u0644_u0633_u0637_u064a_u0646_u064a_u064a_u0646_u0020", 
        "u0639_u0627_u0634_u0648_u0627 u0020 u0641_u064a u0020 u0638_u0644 u0020 u0627_u0644_u062f_u0648_u0644_u0629 u0020 u0627_u0644_u0639_u062b_u0645_u0627_u0646_u064a_u0629_u002c_u0020", 
        "u0645_u0648_u0627_u0637_u0646_u064a_u0646 u0020 u0645_u062b_u0644_u0647_u0645 u0020 u0645_u062b_u0644 u0020 u0628_u0642_u064a_u0629 u0020 u0627_u0644_u0634_u0639_u0648_u0628_u0020", 
        "u0627_u0644_u0639_u0631_u0628_u064a_u0629 u0020 u0648_u0627_u0644_u0625_u0633_u0644_u0627_u0645_u064a_u0629 u0020 u0627_u0644_u0623_u062e_u0631_u0649_u002e"
    ]
}