{
    "bounding_box": [
        [
            111, 
            132, 
            536, 
            29
        ], 
        [
            94, 
            170, 
            553, 
            26
        ], 
        [
            417, 
            206, 
            230, 
            25
        ], 
        [
            197, 
            279, 
            450, 
            25
        ], 
        [
            457, 
            317, 
            190, 
            23
        ], 
        [
            154, 
            352, 
            493, 
            28
        ], 
        [
            117, 
            13, 
            467, 
            29
        ], 
        [
            179, 
            49, 
            337, 
            25
        ]
    ], 
    "image_height": 540, 
    "image_width": 720, 
    "transcription": [
        "u0645_u0634_u0631_u0648_u0639 u0020 u062d_u0644_u0645_u0646_u0627 u0020 u0648_u0647_u0646_u062d_u0642_u0642_u0629 u0020 u0028_u0627_u0644_u0627_u062a_u062d_u0627_u062f u0020 u0627_u0644_u0645_u0635_u0631_u064a u0020 u0644_u0623_u0637_u0628_u0627_u0621 u0020 u0627_u0637_u0641_u0627_u0644 u0020 u0645_u0635_u0631_u0029_u000d", 
        "u0627_u0644_u062c_u0645_u0639_u0628_u0629 u0020 u0627_u0644_u0645_u0635_u0631_u064a_u0647 u0020 u0644_u0623_u0639_u0636_u0627_u0621 u0020 u0627_u0644_u0643_u0644_u064a_u0629 u0020 u0627_u0644_u0645_u0644_u0643_u064a_u0629 u0020 u0627_u0644_u0628_u0631_u064a_u0637_u0627_u0646_u064a_u0629 u0020 u0644_u0637_u0628 u0020 u0627_u0644_u0623_u0637_u0641_u0627_u0644_u000d", 
        "u0627_u0644_u0623_u0643_u0627_u062f_u064a_u0645_u064a_u0647 u0020 u0627_u0644_u0637_u0628_u064a_u0647 u0020 u0627_u0644_u0639_u0633_u0643_u0631_u064a_u0647_u000d", 
        "u0627_u0644_u0643_u0644_u064a_u0629 u0020 u0627_u0644_u0645_u0644_u0643_u064a_u0629 u0020 u0627_u0644_u0628_u0631_u064a_u0637_u0627_u0644_u0646_u064a_u0629 u0020 u0644_u0637_u0628 u0020 u0627_u0644_u0623_u0637_u0641_u0627_u0644 u0020 u0648_u0635_u062d_u0629 u0020 u0627_u0644_u0637_u0641_u0644_u000d", 
        "u062c_u0627_u0645_u0639_u0629 u0020 u0645_u0627_u0646_u064a_u062a_u0648_u0628_u0627 u0020 u0627_u0644_u0643_u0646_u062f_u064a_u0629_u000d", 
        "u0627_u0626_u062a_u0644_u0627_u0641 u0020 u0020_u062e_u0628_u0631_u0627_u0621 u0020 u0637_u0628 u0020 u0627_u0644_u0623_u0637_u0641_u0627_u0644 u0020 u0627_u0644_u0645_u0635_u0631_u064a_u0648_u0646 u0020 u0627_u0644_u0639_u0627_u0645_u0644_u0648_u0646 u0020 u0628_u0627_u0644_u062e_u0627_u0631_u062c_u000d", 
        "u0627_u0639_u0636_u0627_u0621 u0020 u0627_u0626_u062a_u0644_u0627_u0641 u0020 u0628_u0648_u0631_u0633_u0639_u064a_u062f u0020 u0644_u062a_u0637_u0648_u064a_u0631 u0020 u0635_u062d_u0629 u0020 u0627_u0644_u0637_u0641_u0644 u0020 u0648_u0627_u0644_u0623_u0645_u000b", 
        "u062a_u062d_u062a u0020 u0631_u0639_u0627_u064a_u0629 u0020 u0633_u0639_u0627_u062f_u0629 u0020 u0645_u062d_u0627_u0641_u0638 u0020 u0628_u0648_u0631_u0633_u0639_u064a_u062f u0020 u000b"
    ]
}