{
    "bounding_box": [
        [
            166, 
            143, 
            388, 
            38
        ]
    ], 
    "image_height": 540, 
    "image_width": 720, 
    "transcription": [
        "u0034_u002e_u0032 u0020 u0627_u0646_u062a_u0647_u0627_u0621 u0020 u0627_u0644_u0645_u0648_u0627_u0647_u0628 u0020 u0627_u0644_u0631_u0648_u062d_u064a_u0629"
    ]
}