{
    "bounding_box": [
        [
            468, 
            37, 
            169, 
            17
        ], 
        [
            64, 
            74, 
            572, 
            18
        ], 
        [
            42, 
            93, 
            630, 
            18
        ], 
        [
            67, 
            113, 
            605, 
            18
        ], 
        [
            623, 
            135, 
            49, 
            14
        ], 
        [
            42, 
            170, 
            594, 
            18
        ], 
        [
            71, 
            189, 
            602, 
            18
        ], 
        [
            147, 
            209, 
            525, 
            18
        ], 
        [
            104, 
            248, 
            568, 
            17
        ], 
        [
            75, 
            266, 
            597, 
            18
        ], 
        [
            74, 
            285, 
            598, 
            18
        ], 
        [
            70, 
            305, 
            603, 
            18
        ], 
        [
            54, 
            324, 
            618, 
            18
        ], 
        [
            73, 
            343, 
            600, 
            18
        ], 
        [
            65, 
            362, 
            608, 
            18
        ], 
        [
            42, 
            381, 
            630, 
            18
        ], 
        [
            648, 
            404, 
            29, 
            15
        ], 
        [
            181, 
            420, 
            495, 
            18
        ], 
        [
            113, 
            440, 
            564, 
            17
        ]
    ], 
    "image_height": 540, 
    "image_width": 720, 
    "transcription": [
        "u0627_u0644_u0645_u0631_u062d_u0644_u0629 u0020 u0627_u0644_u0623_u0648_u0644_u0649_u002d u0020 u0645_u0631_u062d_u0644_u0629 u0020 u0627_u0644_u0645_u0641_u0647_u0648_u0645_u003a_u000d", 
        "u0625_u0630_u0627 u0020 u0643_u0627_u0646 u0020 u0627_u0644_u0645_u0637_u0639_u0645 u0020 u0641_u064a u0020 u062f_u0648_u0631 u0020 u0627_u0644_u0628_u062f_u0627_u064a_u0627_u062a u0020 u0648_u0645_u0627 u0020 u0632_u0627_u0644_u062a u0020 u062a_u062a_u0628_u0644_u0648_u0631 u0020 u0641_u0643_u0631_u0629 u0020 u0625_u0646_u0634_u0627_u0626_u0647 u0020 u0641_u0625_u0646 u0020 u0642_u0627_u0626_u0645_u0629 u0020 u0627_u0644_u0637_u0639_u0627_u0645 u0020 u0627_u0644_u0645_u0642_u062a_u0631_u062d_u0629 u0020 u0633_u062a_u0633_u0627_u0639_u062f u0020 u0639_u0644_u0649 u0020 u062a_u062d_u062f_u064a_u062f u0020 u0646_u0648_u0639_u0020", 
        "u0627_u0644_u0645_u0637_u0639_u0645 u0020 u0627_u0644_u0630_u064a u0020 u0646_u0631_u063a_u0628 u0020 u0628_u0625_u0646_u0634_u0627_u0626_u0647 u0020 u0648_u0643_u064a_u0641 u0020 u0633_u064a_u0643_u0648_u0646_u061f u0020 u0625_u0646 u0020 u062a_u0643_u0648_u064a_u0646 u0020 u0627_u0644_u0635_u0648_u0631_u0629 u0020 u0627_u0644_u0630_u0647_u0646_u064a_u0629 u0020 u0644_u0634_u0643_u0644 u0020 u0627_u0644_u0645_u0637_u0639_u0645 u0020 u0623_u064a_u0627 u0020 u0643_u0627_u0646 u0020 u0646_u0648_u0639_u0647_u060c u0020 u0647_u0648 u0020 u0623_u0645 u0020 u0628_u0627_u0644_u063a u0020 u0627_u0644_u0623_u0647_u0645_u064a_u0629_u060c u0020 u0648_u062a_u062d_u062f_u062f_u0020", 
        "u0647_u0630_u0647 u0020 u0627_u0644_u0635_u0648_u0631_u0629 u0020 u0028_u0628_u0642_u0627_u0626_u0645_u0629 u0020 u0627_u0644_u0637_u0639_u0627_u0645_u0029_u002e u0020 u0648_u0625_u0646 u0020 u0642_u0627_u0626_u0645_u0629 u0020 u0627_u0644_u0637_u0639_u0627_u0645 u0020 u0627_u0644_u062a_u064a u0020 u062a_u0639_u062f u0020 u0628_u0634_u0643_u0644 u0020 u0635_u062d_u064a_u062d u0020 u0633_u062a_u0633_u0627_u0639_u062f u0020 u0639_u0644_u0649 u0020 u0625_u064a_u0635_u0627_u0644 u0020 u0647_u062f_u0641 u0020 u0627_u0644_u0645_u0637_u0639_u0645 u0020 u0648_u0641_u0643_u0631_u062a_u0647 u0020 u0644_u0644_u0636_u064a_u0641_u0020", 
        "u0648_u0644_u0644_u0632_u0628_u0648_u0646_u002e_u000d", 
        "u0643_u064a_u0641 u0020 u062a_u062d_u062f_u062f u0020 u0642_u0627_u0626_u0645_u0629 u0020 u0627_u0644_u0637_u0639_u0627_u0645 u0020 u0647_u0630_u0647 u0020 u0627_u0644_u0635_u0648_u0631_u0629 u0020 u0627_u0644_u0630_u0647_u0646_u064a_u0629_u061f u0020 u0625_u0646_u0647_u0627 u0020 u062a_u0643_u0634_u0641 u0020 u0644_u0646_u0627 u0020 u0639_u0646 u0020 u0646_u0648_u0639_u064a_u0629 u0020 u0627_u0644_u0636_u064a_u0648_u0641 u0020 u0648_u0627_u0644_u0632_u0628_u0627_u0626_u0646 u0020 u0627_u0644_u0630_u064a_u0646 u0020 u064a_u0631_u062a_u0627_u062f_u0648_u0646 u0020 u0627_u0644_u0645_u0637_u0639_u0645 u0020 u0644_u0623_u0646_u0647_u0627_u0020", 
        "u0643_u062a_u0628_u062a u0020 u0644_u062a_u062c_u0630_u0628 u0020 u0636_u064a_u0648_u0641 u0020 u0648_u0632_u0628_u0627_u0626_u0646 u0020 u0645_u0639_u064a_u0646_u064a_u0646_u002e u0020 u0648_u0647_u064a u0020 u0623_u064a_u0636_u0627 u0020 u0639_u0627_u0645_u0644 u0020 u0645_u062d_u062f_u062f u0020 u0644_u0646_u0648_u0639 u0020 u0645_u0639_u062f_u0627_u062a u0020 u0627_u0644_u0645_u0637_u0628_u062e u0020 u0627_u0644_u0645_u0637_u0644_u0648_u0628 u0020 u0634_u0631_u0627_u0624_u0647_u0627_u060c u0020 u0625_u0630 u0020 u0625_u0646 u0020 u0628_u0639_u0636 u0020 u0623_u0635_u0646_u0627_u0641_u0020", 
        "u0627_u0644_u0637_u0639_u0627_u0645 u0020 u0642_u062f u0020 u062a_u062d_u062a_u0627_u062c u0020 u0625_u0644_u0649 u0020 u0645_u0639_u062f_u0627_u062a u0020 u0645_u062a_u062e_u0635_u0635_u0629_u060c u0020 u0648_u0643_u0630_u0644_u0643 u0020 u0643_u0648_u0646_u0647_u0627 u0020 u062a_u0639_u062a_u0628_u0631 u0020 u0639_u0627_u0645_u0644_u0627 u0020 u0645_u062d_u062f_u062f_u0627 u0020 u0644_u0645_u062a_u0637_u0644_u0628_u0627_u062a u0020 u0627_u0644_u0645_u0637_u0639_u0645 u0020 u0645_u0646 u0020 u0627_u0644_u0645_u0633_u0627_u062d_u0627_u062a_u002e_u000d", 
        "u0641_u0639_u0644_u0649 u0020 u0633_u0628_u064a_u0644 u0020 u0627_u0644_u0645_u062b_u0627_u0644 u0020 u0625_u0630_u0627 u0020 u0643_u0627_u0646_u062a u0020 u0643_u0627_u0641_u0629 u0020 u0627_u0644_u0639_u0645_u0644_u064a_u0627_u062a u0020 u062a_u062a_u0645 u0020 u0641_u064a u0020 u0646_u0641_u0633 u0020 u0627_u0644_u0645_u0637_u0639_u0645_u060c u0020 u0641_u0633_u062a_u0643_u0648_u0646 u0020 u0647_u0646_u0627_u0643 u0020 u062d_u0627_u062c_u0629 u0020 u0645_u0644_u062d_u0629 u0020 u0644_u0645_u0637_u0628_u062e u0020 u0643_u0628_u064a_u0631_u002e u0020 u0623_u0645_u0627 u0020 u0625_u0630_u0627 u0020 u0643_u0627_u0646_u0020", 
        "u0627_u0639_u062a_u0645_u0627_u062f u0020 u0627_u0644_u0645_u0637_u0639_u0645 u0020 u0639_u0644_u0649 u0020 u0623_u0637_u0639_u0645_u0629 u0020 u0634_u0628_u0647 u0020 u062c_u0627_u0647_u0632_u0629 u0020 u0028_u0623_u064a u0020 u064a_u062a_u0645 u0020 u0634_u0631_u0627_u0624_u0647_u0627 u0020 u0628_u0634_u0643_u0644 u0020 u0634_u0628_u0647 u0020 u0645_u0635_u0646_u0639 u0020 u0623_u0648 u0020 u0628_u062a_u0635_u0646_u064a_u0639 u0020 u062c_u0632_u0626_u064a_u0029 u0020 u0641_u0633_u062a_u0643_u0648_u0646 u0020 u0647_u0646_u0627_u0643 u0020 u062d_u0627_u062c_u0629 u0020 u0645_u0644_u062d_u0629_u0020", 
        "u0644_u0645_u062e_u0627_u0632_u0646 u0020 u0643_u0628_u064a_u0631_u0629 u0020 u0627_u0644_u062d_u062c_u0645 u0020 u0644_u0623_u063a_u0631_u0627_u0636 u0020 u0627_u0644_u062e_u0632_u0646_u002e u0020 u0648_u0643_u0630_u0644_u0643 u0020 u0641_u0625_u0646 u0020 u0642_u0648_u0627_u0626_u0645 u0020 u0627_u0644_u0637_u0639_u0627_u0645 u0020 u0633_u062a_u0648_u0641_u0631 u0020 u0623_u0633_u0633_u0627 u0020 u0645_u0639_u064a_u0646_u0629 u0020 u0644_u0646_u0648_u0639 u0020 u0627_u0644_u0639_u0627_u0645_u0644_u064a_u0646 u0020 u0648_u0645_u0642_u062f_u0645_u064a u0020 u0627_u0644_u062e_u062f_u0645_u0629 u0020 u0627_u0644_u0630_u064a_u0646_u0020", 
        "u064a_u062a_u0648_u062c_u0628 u0020 u0627_u0633_u062a_u062e_u062f_u0627_u0645_u0647_u0645 u0020 u0648_u0637_u0628_u064a_u0639_u0629 u0020 u0645_u0647_u0627_u0631_u0627_u062a_u0647_u0645 u0020 u0648_u0643_u0641_u0627_u0621_u0627_u062a_u0647_u0645_u002e u0020 u0644_u0630_u0627 u0020 u0639_u0644_u0649 u0020 u0645_u0627_u0644_u0643_u064a u0020 u0627_u0644_u0645_u0637_u0627_u0639_u0645 u0020 u0627_u0644_u0627_u0646_u062a_u0628_u0627_u0647 u0020 u0644_u0644_u0623_u0633_u0626_u0644_u0629 u0020 u0627_u0644_u062a_u0627_u0644_u064a_u0629 u0020 u0648_u062a_u062d_u062f_u064a_u062f u0020 u0627_u0644_u0625_u062c_u0627_u0628_u0627_u062a u0020 u0627_u0644_u0644_u0627_u0632_u0645_u0629_u0020", 
        "u0639_u0646_u0647_u0627_u003a u0020 u0647_u0644 u0020 u0633_u064a_u062d_u062a_u0627_u062c u0020 u0627_u0644_u0645_u0637_u0639_u0645 u0020 u0625_u0644_u0649 u0020 u0643_u0627_u062f_u0631 u0020 u0630_u064a u0020 u062e_u0628_u0631_u0627_u062a u0020 u0645_u0647_u0646_u064a_u0629 u0020 u0645_u0639_u064a_u0646_u0629_u061f u0020 u0623_u0645 u0020 u0647_u0644 u0020 u062a_u0633_u062a_u0637_u064a_u0639 u0020 u0627_u0644_u0625_u062f_u0627_u0631_u0629 u0020 u062a_u062f_u0631_u064a_u0628 u0020 u0639_u0645_u0627_u0644_u0647_u0627 u0020 u0628_u0646_u0641_u0633_u0647_u0627_u061f u0020 u0645_u0627 u0020 u0647_u0648 u0020 u0627_u0644_u062d_u0627_u0644 u0020 u0641_u064a_u0020", 
        "u0645_u0648_u0638_u0641_u064a u0020 u0645_u0637_u0627_u0639_u0645 u0020 u0627_u0644_u062e_u062f_u0645_u0629 u0020 u0627_u0644_u0633_u0631_u064a_u0639_u0629 u0020 u0020_u0028_u0046_u0061_u0073_u0074 u0020 u0046_u006f_u006f_u0064_u0029 u0020 u0644_u064a_u0635_u0628_u062d_u0648_u0627 u0020 u0642_u0627_u062f_u0631_u064a_u0646 u0020 u0639_u0644_u0649 u0020 u0623_u062f_u0627_u0621 u0020 u0627_u0644_u0639_u0645_u0644 u0020 u0636_u0645_u0646 u0020 u0627_u0644_u0645_u0633_u062a_u0648_u0649 u0020 u0627_u0644_u0645_u0637_u0644_u0648_u0628_u061f u0020 u062d_u064a_u062b u0020 u0623_u0646_u0020", 
        "u0627_u0644_u062e_u0628_u0631_u0629 u0020 u0648_u0627_u0644_u0645_u0647_u0627_u0631_u0627_u062a u0020 u0627_u0644_u0645_u0637_u0644_u0648_u0628_u0629 u0020 u062a_u0632_u062f_u0627_u062f u0020 u0643_u0644_u0645_u0627 u0020 u0627_u0632_u062f_u0627_u062f_u062a u0020 u0648_u062a_u0639_u0642_u062f_u062a u0020 u0639_u0645_u0644_u064a_u0627_u062a u0020 u0625_u0646_u062a_u0627_u062c u0020 u0627_u0644_u0637_u0639_u0627_u0645_u002e u0020 u0625_u0646 u0020 u0642_u0648_u0627_u0626_u0645 u0020 u0627_u0644_u0637_u0639_u0627_u0645 u0020 u0644_u0647_u0627 u0020 u062a_u0623_u062b_u064a_u0631 u0020 u0623_u064a_u0636_u0627 u0020 u0639_u0644_u0649 u0020 u0627_u0644_u062f_u064a_u0643_u0648_u0631_u0020", 
        "u0627_u0644_u0645_u0633_u062a_u062e_u062f_u0645 u0020 u0641_u064a u0020 u0627_u0644_u0645_u0637_u0639_u0645_u002e u0020 u0641_u0627_u0644_u0637_u0639_u0627_u0645 u0020 u0627_u0644_u0645_u0642_u062f_u0645 u0020 u0641_u064a u0020 u0627_u0644_u0645_u0637_u0639_u0645 u0020 u064a_u062c_u0628 u0020 u0623_u0646 u0020 u064a_u062a_u0646_u0627_u0633_u0628 u0020 u0645_u0639 u0020 u062f_u064a_u0643_u0648_u0631 u0020 u0627_u0644_u0645_u0637_u0639_u0645_u002e u0020 u0643_u0645_u0627 u0020 u0623_u0646 u0020 u062a_u0637_u0648_u0631 u0020 u0642_u0627_u0626_u0645_u0629 u0020 u0627_u0644_u0637_u0639_u0627_u0645 u0020 u064a_u0633_u0627_u0639_u062f u0020 u0627_u0644_u0645_u0635_u0645_u0645_u0020", 
        "u0639_u0644_u0649 u0020 u000d", 
        "u0623_u0646 u0020 u064a_u062a_u0635_u0648_u0631 u0020 u0627_u0644_u0623_u0644_u0648_u0627_u0646 u0020 u0648_u0631_u0633_u0648_u0645_u0627_u062a u0020 u0627_u0644_u062d_u0627_u0626_u0637 u0020 u0648_u0627_u0644_u062f_u064a_u0643_u0648_u0631 u0020 u0627_u0644_u0639_u0627_u0645 u0020 u0644_u0644_u0645_u0637_u0639_u0645_u002e u0020 u0648_u0627_u0644_u062f_u064a_u0643_u0648_u0631 u0020 u0627_u0644_u0630_u064a u0020 u064a_u0639_u0643_u0633 u0020 u0634_u062e_u0635_u064a_u0629 u0020 u0648_u0630_u0648_u0642 u0020 u000d", 
        "u0627_u0644_u0623_u0634_u062e_u0627_u0635 u0020 u0627_u0644_u0630_u064a_u0646 u0020 u064a_u062e_u0637_u0637_u0648_u0646_u0647_u060c u0020 u0648_u0633_u064a_u062a_u0645 u0020 u0627_u0644_u062a_u0637_u0631_u0642 u0020 u0644_u0647_u0630_u0627 u0020 u0627_u0644_u0645_u0648_u0636_u0648_u0639 u0020 u0628_u0627_u0644_u062a_u0641_u0635_u064a_u0644 u0020 u0641_u064a u0020 u0641_u0635_u0644 u0020 u0644_u0627_u062d_u0642_u002e u0020 u0028_u0627_u0644_u0628_u0644_u062f_u0648_u0627_u064a_u060c u0020 u0032_u0030_u0030_u0038_u060c u0020 u0635_u0032_u0030_u0029_u000d"
    ]
}