{
    "bounding_box": [
        [
            25, 
            502, 
            7, 
            12
        ], 
        [
            63, 
            146, 
            609, 
            28
        ], 
        [
            626, 
            184, 
            56, 
            19
        ], 
        [
            396, 
            216, 
            240, 
            24
        ], 
        [
            444, 
            249, 
            192, 
            26
        ], 
        [
            80, 
            350, 
            592, 
            24
        ], 
        [
            634, 
            384, 
            48, 
            16
        ], 
        [
            62, 
            451, 
            610, 
            26
        ], 
        [
            210, 
            484, 
            472, 
            24
        ], 
        [
            524, 
            73, 
            158, 
            32
        ]
    ], 
    "image_height": 540, 
    "image_width": 720, 
    "transcription": [
        "u0034", 
        "u062a_u06a9_u0646_u0648_u0644_u0648_u0698_u06cc u0020 u0627_u0632 u0020 u062a_u0631_u06a9_u06cc_u0628 u0020 u062f_u0648 u0020 u0644_u063a_u062a u0020 u06cc_u0648_u0646_u0627_u0646_u06cc u0020 u0074_u0065_u0063_u0068_u006e_u0065 u0020 u0648 u0020 u006c_u006f_u0067_u0069_u0061 u0020 u062a_u0634_u06a9_u06cc_u0644 u0020 u0634_u062f_u0647_u0020", 
        "u0627_u0633_u062a_u002e_u000d", 
        "u0054_u0065_u0063_u0068_u006e_u0065 u0020 u003a u0020 u0647_u0646_u0631 u0020 u0648 u0020 u0645_u0647_u0627_u0631_u062a_u000d", 
        "u006c_u006f_u0067_u0069_u0061 u0020 u003a u0020 u0639_u0644_u0645 u0020 u0648 u0020 u062f_u0627_u0646_u0634_u000d", 
        "u0641_u0646_u0627_u0648_u0631_u06cc_u003a u0020 u06a9_u0627_u0631_u0628_u0631_u062f u0020 u0639_u0645_u0644_u06cc u0020 u062f_u0627_u0646_u0634 u0020 u0648 u0020 u0627_u0628_u0632_u0627_u0631_u06cc u0020 u0628_u0631_u0627_u06cc u0020 u06a9_u0645_u06a9 u0020 u0628_u0647 u0020 u062a_u0644_u0627_u0634 u0020 u0627_u0646_u0633_u0627_u0646_u0020", 
        "u0627_u0633_u062a_u000d", 
        "u0641_u0646_u0627_u0648_u0631_u06cc_u003a u0020 u06a9_u0644_u06cc_u0647 u0020 u062f_u0627_u0646_u0634 u0020 u0647_u0627_u060c u0020 u0641_u0631_u0622_u06cc_u0646_u062f_u0647_u0627_u060c u0020 u0627_u0628_u0632_u0627_u0631_u0647_u0627_u060c u0020 u0631_u0648_u0634 u0020 u0647_u0627 u0020 u0648 u0020 u0633_u06cc_u0633_u062a_u0645 u0020 u0647_u0627_u06cc u0020 u0628_u0647_u0020", 
        "u06a9_u0627_u0631 u0020 u0631_u0641_u062a_u0647 u0020 u062f_u0631 u0020 u0633_u0627_u062e_u062a u0020 u0645_u062d_u0635_u0648_u0644_u0627_u062a u0020 u0648 u0020 u0627_u0631_u0627_u0626_u0647 u0020 u062e_u062f_u0645_u0627_u062a u0020 u0627_u0633_u062a_u000d", 
        "u0645_u0641_u0647_u0648_u0645 u0020 u0641_u0646_u0627_u0648_u0631_u06cc"
    ]
}