{
    "bounding_box": [
        [
            176, 
            146, 
            367, 
            56
        ]
    ], 
    "image_height": 540, 
    "image_width": 720, 
    "transcription": [
        "u0627_u0644_u0634_u062e_u0635_u064a_u0629 u0020 u0627_u0644_u0633_u0648_u064a_u0629 u0020 u0644_u0644_u062e_u0627_u062f_u0645"
    ]
}