{
    "bounding_box": [
        [
            301, 
            34, 
            325, 
            30
        ], 
        [
            82, 
            71, 
            530, 
            28
        ], 
        [
            149, 
            101, 
            463, 
            27
        ], 
        [
            130, 
            143, 
            482, 
            21
        ], 
        [
            172, 
            166, 
            440, 
            27
        ], 
        [
            128, 
            207, 
            484, 
            22
        ], 
        [
            76, 
            235, 
            536, 
            22
        ], 
        [
            117, 
            263, 
            495, 
            23
        ], 
        [
            64, 
            301, 
            548, 
            21
        ], 
        [
            438, 
            324, 
            174, 
            27
        ], 
        [
            63, 
            365, 
            549, 
            22
        ], 
        [
            131, 
            393, 
            481, 
            22
        ], 
        [
            334, 
            421, 
            278, 
            23
        ]
    ], 
    "image_height": 540, 
    "image_width": 720, 
    "transcription": [
        "u062b_u0627_u0644_u062b_u0627_u064b u0020 u003a u0020 u0623_u0647_u062f_u0627_u0641 u0020 u062a_u062a_u0635_u0644 u0020 u0628_u0627_u0644_u0645_u0647_u0627_u0631_u0627_u062a u0020 u003a_u000d", 
        "u062a_u0623_u0643_u064a_u062f u0020 u0643_u0631_u0627_u0645_u0629 u0020 u0627_u0644_u0641_u0631_u062f u0020 u0648_u062a_u0648_u0641_u064a_u0631 u0020 u0627_u0644_u0641_u0631_u0635 u0020 u0627_u0644_u0645_u0646_u0627_u0633_u0628_u0629 u0020 u0644_u062a_u0646_u0645_u064a_u0629 u0020 u0642_u062f_u0631_u0627_u062a_u0647_u0020", 
        "u062d_u062a_u0649 u0020 u064a_u0633_u062a_u0637_u064a_u0639 u0020 u0627_u0644_u0645_u0633_u0627_u0647_u0645_u0629 u0020 u0641_u064a u0020 u0631_u0641_u0639 u0020 u0646_u0647_u0636_u0629 u0020 u0627_u0644_u0623_u0645_u0629 u0020 u002e_u000d", 
        "u0627_u0643_u062a_u0633_u0627_u0628 u0020 u0627_u0644_u0642_u062f_u0631_u0629 u0020 u0639_u0644_u0649 u0020 u0627_u0644_u062a_u0639_u0628_u064a_u0631 u0020 u0627_u0644_u0635_u062d_u064a_u062d u0020 u0641_u064a u0020 u0627_u0644_u062a_u062e_u0627_u0637_u0628_u0020", 
        "u0648_u0627_u0644_u062a_u062d_u062f_u062b u0020 u0648_u0627_u0644_u0643_u062a_u0627_u0628_u0629 u0020 u0628_u0644_u063a_u0629 u0020 u0633_u0644_u064a_u0645_u0629 u0020 u0648_u062a_u0641_u0643_u064a_u0631 u0020 u0645_u0646_u062a_u0638_u0645 u0020 u002e_u000d", 
        "u0627_u0643_u0633_u0627_u0628 u0020 u0627_u0644_u0637_u0644_u0627_u0628 u0020 u0627_u0644_u0645_u0647_u0627_u0631_u0627_u062a u0020 u0627_u0644_u062d_u0631_u0643_u064a_u0629 u0020 u0627_u0644_u062a_u064a u0020 u062a_u0633_u062a_u0646_u062f u0020 u0627_u0644_u0649_u0020", 
        "u0627_u0644_u0642_u0648_u0627_u0639_u062f u0020 u0627_u0644_u0631_u064a_u0627_u0636_u064a_u0629 u0020 u0648_u0627_u0644_u0635_u062d_u064a_u0629 u0020 u0644_u0628_u0646_u0627_u0621 u0020 u062c_u0633_u0645 u0020 u0633_u0644_u064a_u0645 u0020 u062d_u062a_u0649 u0020 u064a_u0624_u062f_u064a_u0020", 
        "u0627_u0644_u0641_u0631_u062f u0020 u0648_u0627_u062c_u0628_u0627_u062a_u0647 u0020 u0641_u064a u0020 u062e_u062f_u0645_u0629 u0020 u062f_u064a_u0646_u0647 u0020 u0648_u0645_u062c_u062a_u0645_u0639_u0647 u0020 u0628_u0642_u0648_u0629 u0020 u0648_u062b_u0628_u0627_u062a u0020 u002e_u000d", 
        "u062a_u062f_u0631_u064a_u0628 u0020 u0627_u0644_u0637_u0627_u0642_u0629 u0020 u0627_u0644_u0628_u0634_u0631_u064a_u0629 u0020 u0648_u062a_u0646_u0648_u064a_u0639 u0020 u0627_u0644_u062a_u0639_u0644_u064a_u0645 u0020 u0645_u0639 u0020 u0627_u0644_u0627_u0647_u062a_u0645_u0627_u0645 u0020 u0627_u0644_u062e_u0627_u0635_u0020", 
        "u0628_u0627_u0644_u062a_u0639_u0644_u064a_u0645 u0020 u0627_u0644_u0645_u0647_u0646_u064a u0020 u002e_u000d", 
        "u0627_u0644_u0627_u0647_u062a_u0645_u0627_u0645 u0020 u0628_u0627_u0643_u062a_u0634_u0627_u0641 u0020 u0627_u0644_u0645_u0648_u0647_u0648_u0628_u064a_u0646 u0020 u0648_u0631_u0639_u0627_u064a_u062a_u0647_u0645 u0020 u0648_u0625_u062a_u0627_u062d_u0629 u0020 u0627_u0644_u0625_u0645_u0643_u0627_u0646_u064a_u0627_u062a_u0020", 
        "u0648_u0627_u0644_u0641_u0631_u0635 u0020 u0627_u0644_u0645_u062e_u062a_u0644_u0641_u0629 u0020 u0644_u0646_u0645_u0648 u0020 u0645_u0648_u0627_u0647_u0628_u0647_u0645 u0020 u0641_u064a u0020 u0627_u0637_u0627_u0631 u0020 u0627_u0644_u0645_u0646_u0627_u0647_u062c_u0020", 
        "u0627_u0644_u0639_u0644_u0645_u064a_u0629 u0020 u0648_u0628_u0648_u0636_u0639 u0020 u0628_u0631_u0627_u0645_u062c u0020 u062e_u0627_u0635_u0629 u0020 u002e_u000d"
    ]
}