{
    "bounding_box": [
        [
            251, 
            45, 
            217, 
            46
        ], 
        [
            250, 
            116, 
            425, 
            30
        ], 
        [
            158, 
            207, 
            517, 
            31
        ], 
        [
            402, 
            296, 
            274, 
            34
        ], 
        [
            319, 
            389, 
            357, 
            35
        ], 
        [
            394, 
            481, 
            281, 
            34
        ]
    ], 
    "image_height": 540, 
    "image_width": 720, 
    "transcription": [
        "u0623_u062d_u0643_u0627_u0645 u0020 u0627_u0644_u0625_u062c_u0647_u0627_u0636", 
        "u0041_u064a_u062d_u0631_u0645 u0020 u0627_u0644_u0625_u062c_u0647_u0627_u0636 u0020 u0641_u064a u0020 u062c_u0645_u064a_u0639 u0020 u0645_u0631_u0627_u062d_u0644 u0020 u0627_u0644_u062d_u0645_u0644_u000d", 
        "u0042_u064a_u062c_u0648_u0632 u0020 u0625_u0630_u0627 u0020 u0643_u0627_u0646 u0020 u0627_u0644_u062c_u0646_u064a_u0646 u0020 u0641_u064a u0020 u0645_u0631_u062d_u0644_u0629 u0020 u0627_u0644_u0639_u0644_u0642_u0629 u0020 u0627_u0648 u0020 u0627_u0644_u0645_u0636_u063a_u0629_u000d", 
        "u0043_u064a_u062d_u0631_u0645 u0020 u0628_u0639_u062f u0020 u062a_u062e_u0644_u0642 u0020 u0627_u0644_u0623_u0639_u0636_u0627_u0621_u000d", 
        "u0044_u064a_u062c_u0648_u0632_u0625_u0630_u0627 u0020 u0643_u0627_u0646_u062a u0020 u062d_u064a_u0627_u0629 u0020 u0627_u0644_u0623_u0645 u0020 u0641_u064a u0020 u062e_u0637_u0631_u000d", 
        "u0045 u0020 u064a_u062c_u0648_u0632 u0020 u0625_u0630_u0627 u0020 u0648_u0627_u0641_u0642 u0020 u0627_u0644_u0623_u0628 u0020 u0648_u0627_u0644_u0623_u0645"
    ]
}