{
    "bounding_box": [
        [
            333, 
            19, 
            368, 
            36
        ], 
        [
            39, 
            95, 
            653, 
            37
        ], 
        [
            39, 
            157, 
            653, 
            37
        ], 
        [
            39, 
            222, 
            653, 
            37
        ], 
        [
            39, 
            288, 
            653, 
            38
        ], 
        [
            39, 
            353, 
            653, 
            37
        ], 
        [
            186, 
            418, 
            506, 
            34
        ], 
        [
            209, 
            517, 
            36, 
            10
        ], 
        [
            674, 
            521, 
            9, 
            7
        ]
    ], 
    "image_height": 540, 
    "image_width": 720, 
    "transcription": [
        "u0627_u0644_u0648_u0636_u0639 u0020 u0627_u0644_u062b_u0627_u0646_u064a_u003a u0020 u0627_u0644_u0648_u0636_u0639 u0020 u0627_u0644_u0645_u0633_u064a_u0637_u0631_u0020", 
        "u0648 u0020 u0641_u064a u0020 u0647_u0630_u0627 u0020 u0627_u0644_u0648_u0636_u0639 u0020 u064a_u0643_u0648_u0646 u0020 u0627_u0644_u0645_u062a_u062d_u062f_u062b u0020 u064a_u062a_u062d_u062f_u062b u0020 u0645_u0639 u0020 u0645_u0646 u0020 u0647_u0648_u0020", 
        "u0623_u0635_u063a_u0631 u0020 u0645_u0646_u0647 u0020 u0633_u0646_u0627 u0020 u0623_u0648 u0020 u0645_u0642_u0627_u0645_u0627 u0020 u0643_u0637_u0641_u0644 u0020 u0635_u063a_u064a_u0631 u0020 u0623_u0648 u0020 u0639_u0627_u0645_u0644 u0020 u0623_u0648 u0020 u0645_u0639 u0020 u0623_u062d_u062f_u0020", 
        "u0627_u0644_u0645_u0648_u0638_u0641_u064a_u0646 u0020 u0627_u0644_u0623_u0642_u0644 u0020 u0645_u0646_u0647 u0020 u0631_u062a_u0628_u0629 u0020 u060c u0020 u0641_u062a_u0634_u064a_u0631 u0020 u0627_u0644_u0631_u0627_u062d_u0629 u0020 u0627_u0644_u064a_u062f u0020 u0625_u0644_u0649 u0020 u0623_u0633_u0641_u0644_u0020", 
        "u0628_u0645_u0639_u0646_u0649_u003a u0020 u0028 u0020 u0643_u0644 u0020 u0634_u0626 u0020 u062a_u062d_u062a u0020 u0627_u0644_u0633_u064a_u0637_u0631_u0629 u0020 u0029 u0020 u0648_u0627_u0644_u0630_u064a u0020 u064a_u0642_u0648_u0645 u0020 u0628_u0647_u0630_u0647_u0020", 
        "u0627_u0644_u062d_u0631_u0643_u0629 u0020 u062f_u0627_u0626_u0645_u0627 u0020 u0647_u0648 u0020 u0634_u062e_u0635 u0020 u0645_u0633_u064a_u0637_u0631 u0020 u0648 u0020 u0645_u062a_u0639_u0648_u062f u0020 u0639_u0644_u0649 u0020 u0625_u0635_u062f_u0627_u0631_u0020", 
        "u0627_u0644_u0623_u0648_u0627_u0645_u0631 u0020 u0648_u0644_u0643_u0646 u0020 u0644_u0644_u0623_u0633_u0641 u0020 u0641_u0642_u062f u0020 u064a_u0633_u0626 u0020 u0627_u0644_u0628_u0639_u0636 u0020 u0641_u0647_u0645_u0647_u002e", 
        "u0644_u063a_u0629 u0020 u0627_u0644_u062c_u0633_u062f", 
        "u0031_u0033"
    ]
}