{
    "bounding_box": [
        [
            43, 
            38, 
            651, 
            35
        ], 
        [
            623, 
            97, 
            89, 
            23
        ], 
        [
            29, 
            122, 
            660, 
            22
        ], 
        [
            222, 
            146, 
            468, 
            22
        ], 
        [
            55, 
            170, 
            656, 
            22
        ], 
        [
            655, 
            195, 
            56, 
            21
        ]
    ], 
    "image_height": 540, 
    "image_width": 720, 
    "transcription": [
        "u0033_u002d u0020 u0623_u0646 u0020 u064a_u0630_u0643_u0631 u0020 u0627_u0644_u0637_u0641_u0644 u0020 u0627_u0644_u0634_u0643_u0644 u0020 u0627_u0644_u0646_u0627_u0642_u0635 u0020 u0641_u064a u0020 u0627_u0644_u0635_u0648_u0631_u0629 u0020 u0627_u0644_u062a_u064a u0020 u0642_u062f u0020 u0631_u0622_u0647_u0627 u0020 u0645_u0646 u0020 u0642_u0628_u0644 u0020 u000b", 
        "u0627_u0644_u062a_u0639_u0644_u064a_u0645_u0627_u062a u0020 u003a_u000d", 
        "u062a_u0639_u0631_u0636 u0020 u0627_u0644_u0645_u0639_u0644_u0645_u0629 u0020 u0639_u0644_u0649 u0020 u0627_u0644_u0637_u0641_u0644 u0020 u0628_u0637_u0627_u0642_u0629 u0020 u062a_u062d_u062a_u0648_u064a u0020 u0639_u0644_u0649 u0020 u0623_u0631_u0628_u0639_u0629 u0020 u0635_u0648_u0631 u0020 u0028_u0645_u0648_u0632_u0629 u0020 u2013 u0020 u0628_u0631_u062a_u0642_u0627_u0644_u0629 u0020 u2013 u0020 u0623_u0646_u0627_u0646_u0627_u0633 u0020 u2013 u0020 u062a_u0641_u0627_u062d_u0629_u0029 u0020 u060c_u0628_u0639_u062f u0020 u0630_u0644_u0643_u0020", 
        "u062a_u0639_u0631_u0636 u0020 u0639_u0644_u064a_u0647 u0020 u0628_u0637_u0627_u0642_u0629 u0020 u0623_u062e_u0631_u0649 u0020 u062a_u062d_u062a_u0648_u064a u0020 u0639_u0644_u0649 u0020 u062b_u0644_u0627_u062b_u0629 u0020 u0635_u0648_u0631 u0020 u0028_u0645_u0648_u0632_u0629 u0020 u002d_u0623_u0646_u0627_u0646_u0627_u0633_u002d_u062a_u0641_u0627_u062d_u0629_u0029_u002e_u000d", 
        "u002d u0020 u062a_u0642_u0648_u0644 u0020 u0627_u0644_u0645_u0639_u0644_u0645_u0629 u0020 u0644_u0644_u0637_u0641_u0644 u0020 u003a u0020 u0028 u0020 u0645_u0627 u0020 u0627_u0644_u0634_u0643_u0644 u0020 u0627_u0644_u0630_u064a u0020 u0648_u0631_u062f u0020 u0641_u064a u0020 u0627_u0644_u0628_u0637_u0627_u0642_u0629 u0020 u0627_u0644_u0623_u0648_u0644_u0649 u0020 u0648_u0644_u0645 u0020 u064a_u0631_u062f u0020 u0641_u064a u0020 u0647_u0630_u0647 u0020 u0627_u0644_u0628_u0637_u0627_u0642_u0629 u0020 u061f_u0029 u0020 u0641_u064a_u062c_u064a_u0628 u0020 u0627_u0644_u0637_u0641_u0644_u0020", 
        "u0028_u0628_u0631_u062a_u0642_u0627_u0644_u0629_u0029"
    ]
}