{
    "bounding_box": [
        [
            432, 
            90, 
            258, 
            25
        ], 
        [
            591, 
            120, 
            99, 
            24
        ], 
        [
            186, 
            96, 
            49, 
            23
        ], 
        [
            415, 
            203, 
            268, 
            25
        ], 
        [
            579, 
            233, 
            105, 
            24
        ], 
        [
            129, 
            198, 
            200, 
            24
        ], 
        [
            112, 
            227, 
            217, 
            22
        ], 
        [
            89, 
            256, 
            240, 
            24
        ], 
        [
            133, 
            285, 
            196, 
            24
        ], 
        [
            89, 
            313, 
            241, 
            25
        ], 
        [
            118, 
            339, 
            211, 
            24
        ], 
        [
            130, 
            370, 
            199, 
            23
        ], 
        [
            72, 
            400, 
            258, 
            24
        ]
    ], 
    "image_height": 540, 
    "image_width": 720, 
    "transcription": [
        "u0628_u0623_u064a u0020 u0635_u0648_u0631_u0629_u005c u0020 u0637_u0631_u064a_u0642_u0647 u0020 u064a_u064f_u0645_u062b_u0644 u0020 u0627_u0644_u0646_u0627_u062e_u0628_u064a_u0646_u0020", 
        "u0641_u064a u0020 u0627_u0644_u0643_u0646_u064a_u0633_u062a_u061f", 
        "u0623_u062d_u0632_u0627_u0628", 
        "u0628_u0623_u064a u0020 u0637_u0631_u0642 u0020 u0627_u0644_u0623_u062d_u0632_u0627_u0628 u0020 u062a_u064f_u0645_u062b_u0644 u0020 u0627_u0644_u0645_u0648_u0627_u0637_u0646_u064a_u0646_u0020", 
        "u0641_u064a u0020 u0627_u0644_u0643_u0646_u064a_u0633_u062a_u003f", 
        "u0643_u062a_u0644_u0647_u003d u0020 u0645_u0645_u062b_u0644_u0648 u0020 u0643_u0644 u0020 u062d_u0632_u0628 u0020 u0641_u064a_u0020", 
        "u0627_u0644_u0643_u0646_u064a_u0633_u062a u0020 u064a_u0643_u0648_u0646_u0648_u0646 u0020 u0636_u0645_u0646 u0020 u0643_u062a_u0644_u0647_u0020", 
        "u0648_u064a_u0645_u0643_u0646 u0020 u0644_u0644_u0643_u062a_u0644_u0629 u0020 u0623_u0646 u0020 u062a_u0636_u0645 u0020 u0639_u062f_u062f_u0627 u0020 u0645_u0646_u0020", 
        "u0645_u0645_u062b_u0644_u064a u0020 u0627_u0644_u0623_u062d_u0632_u0627_u0628 u0020 u0627_u0644_u0645_u062e_u062a_u0644_u0641_u0629_u002e_u000d", 
        "u0643_u064f_u062a_u0644 u0020 u0627_u0644_u0627_u0626_u062a_u0644_u0627_u0641 u0020 u003d u0020 u0627_u0644_u0643_u062a_u0644 u0020 u0627_u0644_u062a_u064a u0020 u062a_u0624_u064a_u062f_u0020", 
        "u062a_u0631_u0643_u064a_u0628 u0020 u0627_u0644_u062d_u0643_u0648_u0645_u0629 u0020 u0648_u0627_u0644_u0645_u0634_u0627_u0631_u0643_u0629_u0020", 
        "u0641_u064a_u0647_u0627_u002e_u062a_u0634_u0645_u0644 u0020 u0639_u0627_u062f_u0629 u0020 u0627_u0644_u0623_u0643_u062b_u0631_u064a_u0629_u002e_u000d", 
        "u0643_u064f_u062a_u0644 u0020 u0627_u0644_u0645_u0639_u0627_u0631_u0636_u0629 u0020 u003d_u0644_u0627 u0020 u062a_u062f_u0639_u0645 u0020 u0627_u0644_u062d_u0643_u0648_u0645_u0629_u002e"
    ]
}