{
    "bounding_box": [
        [
            321, 
            100, 
            366, 
            28
        ], 
        [
            53, 
            134, 
            634, 
            28
        ], 
        [
            532, 
            167, 
            154, 
            28
        ], 
        [
            385, 
            204, 
            301, 
            25
        ], 
        [
            53, 
            230, 
            634, 
            32
        ], 
        [
            53, 
            264, 
            634, 
            32
        ], 
        [
            53, 
            298, 
            634, 
            32
        ], 
        [
            310, 
            331, 
            377, 
            32
        ]
    ], 
    "image_height": 540, 
    "image_width": 720, 
    "transcription": [
        "u0633_u0031 u0020 u003a u0020 u0645_u0627 u0020 u0627_u0644_u062d_u0642_u064a_u0642_u0629 u0020 u0627_u0644_u062a_u064a u0020 u064a_u0642_u0631_u0631_u0647_u0627 u0020 u0627_u0644_u0634_u0627_u0639_u0631 u0020 u061f_u000d", 
        "u062c_u0640 u0020 u003a u0020 u064a_u0642_u0631_u0631 u0020 u0648_u062c_u0648_u062f u0020 u0627_u0644_u062d_u0633_u062f u0020 u0628_u064a_u0646 u0020 u0627_u0644_u0646_u0627_u0633 u0020 u060c u0020 u0641_u0627_u0644_u0628_u0639_u0636 u0020 u064a_u062d_u0633_u062f u0020 u0643_u0644 u0020 u0625_u0646_u0633_u0627_u0646 u0020 u0646_u0627_u062c_u062d_u0020", 
        "u0641_u064a u0020 u0647_u0630_u0647 u0020 u0627_u0644_u062d_u064a_u0627_u0629_u00a0 u0020 u002e_u000d", 
        "u0633_u0032 u0020 u003a u0020 u0645_u062a_u0649 u0020 u064a_u0632_u062f_u0627_u062f u0020 u062d_u0633_u062f u0020 u0627_u0644_u0625_u0646_u0633_u0627_u0646 u0020 u061f_u000d", 
        "u062c_u0640 u0020 u003a_u00a0_u064a_u0632_u062f_u0627_u062f u0020 u062d_u0633_u062f u0020 u0627_u0644_u0625_u0646_u0633_u0627_u0646 u0020 u0639_u0646_u062f_u0645_u0627 u0020 u064a_u062c_u062f u0020 u0645_u0646 u0020 u0647_u0648 u0020 u0623_u0639_u0644_u0649 u0020 u0645_u0646_u0647 u0020 u0643_u0635_u0627_u062d_u0628_u0020", 
        "u0645_u0646_u0632_u0644_u0629_u00a0_u0631_u0641_u064a_u0639_u0629 u0020 u0623_u0648 u0020 u063a_u0646_u0649 u0020 u060c u0020 u0623_u0648 u0020 u0639_u0646_u062f_u0645_u0627 u0020 u0644_u0627 u0020 u064a_u0633_u062a_u0637_u064a_u0639 u0020 u0627_u0644_u0648_u0635_u0648_u0644 u0020 u0625_u0644_u0649 u0020 u0645_u0627 u0020 u0648_u0635_u0644 u0020 u0625_u0644_u064a_u0647_u0020", 
        "u0623_u0635_u062d_u0627_u0628 u0020 u0627_u0644_u0647_u0645_u0645 u0020 u0627_u0644_u0631_u0641_u064a_u0639_u0629 u0020 u0645_u0646 u0020 u0645_u0627_u0644 u0020 u0623_u0648 u0020 u062c_u0627_u0647 u0020 u0623_u0648 u0020 u0633_u0644_u0637_u0629 u0020 u002e u0020 u0641_u064a u0020 u0647_u0630_u0647 u0020 u0627_u0644_u0644_u062d_u0638_u0629_u0020", 
        "u064a_u062a_u062d_u0648_u0644 u0020 u0627_u0644_u062d_u0627_u0633_u062f_u0648_u0646 u0020 u0625_u0644_u0649 u0020 u0623_u0639_u062f_u0627_u0621 u0020 u0648_u062e_u0635_u0648_u0645 u0020 u0644_u0647_u0645 u0020 u002e"
    ]
}