{
    "bounding_box": [
        [
            365, 
            497, 
            14, 
            8
        ], 
        [
            26, 
            95, 
            642, 
            26
        ], 
        [
            26, 
            138, 
            642, 
            26
        ], 
        [
            26, 
            182, 
            642, 
            25
        ], 
        [
            26, 
            225, 
            642, 
            25
        ], 
        [
            26, 
            268, 
            642, 
            24
        ], 
        [
            26, 
            311, 
            642, 
            25
        ], 
        [
            225, 
            354, 
            443, 
            26
        ]
    ], 
    "image_height": 540, 
    "image_width": 720, 
    "transcription": [
        "u0034_u0030", 
        "u0648_u0627_u0644_u0623_u0645_u0631 u0020 u0646_u0641_u0633_u0647 u0020 u062a_u0642_u0631_u064a_u0628_u0627 u0020 u0641_u064a_u0645_u0627 u0020 u064a_u062a_u0639_u0644_u0642 u0020 u0628_u0645_u0633_u0645_u064a_u0627_u062a u0020 u0627_u0644_u0648_u0638_u0627_u0626_u0641 u0020 u0627_u0644_u0625_u062f_u0627_u0631_u064a_u0629 u0020 u0648_u0627_u0644_u0645_u0643_u062a_u0628_u064a_u0629 u0020 u0020_u060c u0020 u0641_u0627_u0644_u0635_u062d_u064a_u062d_u0020", 
        "u0637_u0627_u0644_u0645_u0627 u0020 u0643_u0627_u0646_u062a u0020 u0647_u0630_u0647 u0020 u0627_u0644_u0648_u0638_u0627_u0626_u0641 u0020 u062e_u0627_u0636_u0639_u0629 u0020 u0644_u0642_u0627_u0646_u0648_u0646 u0020 u0627_u0644_u062e_u062f_u0645_u0629 u0020 u0627_u0644_u0645_u062f_u0646_u064a_u0629 u0020 u0631_u0642_u0645 u0020 u0028_u0034_u0037_u0029 u0020 u0644_u0633_u0646_u0629 u0020 u0031_u0039_u0037_u0038 u0020 u060c_u0020", 
        "u0623_u0646 u0020 u064a_u062c_u0631_u0649 u0020 u062a_u0642_u0633_u064a_u0645_u0647_u0627 u0020 u0648_u0641_u0642_u0627 u0020 u0644_u062c_u062f_u0648_u0644 u0020 u0627_u0644_u0648_u0638_u0627_u0626_u0641 u0020 u0648_u0627_u0644_u0645_u0633_u0645_u064a_u0627_u062a u0020 u0627_u0644_u0648_u0627_u0631_u062f_u0629 u0020 u0641_u0649 u0020 u0647_u0630_u0627 u0020 u0627_u0644_u0642_u0627_u0646_u0648_u0646 u0020 u0628_u0645_u0627_u0020", 
        "u064a_u062a_u0645_u064a_u0632 u0020 u0628_u0647 u0020 u0647_u0630_u0627 u0020 u0627_u0644_u062a_u0642_u0633_u064a_u0645 u0020 u0627_u0644_u0648_u0638_u064a_u0641_u0649 u0020 u0628_u0627_u0644_u062a_u0633_u0644_u0633_u0644 u0020 u0627_u0644_u0645_u0646_u0637_u0642_u0649 u0020 u060c u0020 u0648_u0644_u0627 u0020 u064a_u062a_u0646_u0627_u0641_u0631 u0020 u0645_u0639 u0020 u0627_u0644_u0642_u0627_u0646_u0648_u0646 u0020 u0020_u0628_u062d_u062c_u0629_u0020", 
        "u0627_u0644_u0643_u0627_u062f_u0631 u0020 u0627_u0644_u062e_u0627_u0635_u060c u0020 u0020_u0627_u0644_u0630_u0649 u0020 u064a_u062d_u0643_u0645 u0020 u0639_u0645_u0644 u0020 u062c_u0647_u0627_u0632 u0020 u0627_u0644_u0645_u062d_u0627_u0633_u0628_u0627_u062a u0020 u002e u0020 u0648_u064a_u062a_u062e_u0641_u0641 u0020 u0642_u0644_u064a_u0644_u0627 u0020 u0645_u0646 u0020 u0627_u0644_u062d_u0633_u0627_u0633_u064a_u0627_u062a_u0020", 
        "u0627_u0644_u062a_u0649 u0020 u062a_u0646_u0634_u0623_u0647_u0627 u0020 u0628_u0639_u0636 u0020 u0627_u0644_u0645_u0633_u0645_u064a_u0627_u062a u0020 u0644_u062f_u0649 u0020 u0627_u0644_u0639_u0627_u0645_u0644_u064a_u0646 u0020 u0627_u0644_u0625_u062f_u0627_u0631_u064a_u064a_u0646 u0020 u0648_u0627_u0644_u0643_u062a_u0627_u0628_u064a_u0646 u0020 u0641_u0649 u0020 u0627_u0644_u062c_u0647_u0627_u0632 u0020 u060c u0020 u0648_u0647_u0645_u0020", 
        "u062c_u0632_u0621 u0020 u0631_u0626_u064a_u0633_u0649 u0020 u0648_u0647_u0627_u0645 u0020 u0641_u0649 u0020 u0646_u062c_u0627_u062d u0020 u0623_u0639_u0645_u0627_u0644 u0020 u0627_u0644_u062c_u0647_u0627_u0632 u0020 u0641_u0649 u0020 u0627_u0644_u0645_u0633_u062a_u0642_u0628_u0644 u0020 u002e u0020 u000d"
    ]
}