{
    "bounding_box": [
        [
            334, 
            30, 
            342, 
            39
        ], 
        [
            64, 
            112, 
            589, 
            37
        ], 
        [
            85, 
            152, 
            568, 
            36
        ], 
        [
            52, 
            193, 
            601, 
            33
        ], 
        [
            70, 
            228, 
            583, 
            36
        ], 
        [
            101, 
            268, 
            552, 
            35
        ], 
        [
            41, 
            305, 
            612, 
            36
        ], 
        [
            61, 
            344, 
            592, 
            36
        ], 
        [
            84, 
            384, 
            569, 
            34
        ], 
        [
            486, 
            422, 
            167, 
            34
        ]
    ], 
    "image_height": 540, 
    "image_width": 720, 
    "transcription": [
        "u062b_u0627_u0646_u064a_u0627 u0020 u003a u0020 u0627_u0644_u0646_u0638_u0631_u064a_u0627_u062a u0020 u0627_u0644_u0637_u0628_u064a_u0639_u064a_u0629 u0020 u003a", 
        "u062a_u0631_u0649 u0020 u0647_u0630_u0647 u0020 u0627_u0644_u0646_u0638_u0631_u064a_u0627_u062a u0020 u0623_u0646 u0020 u0627_u0644_u062f_u0648_u0644_u0629 u0020 u0647_u064a u0020 u0638_u0627_u0647_u0631_u0629 u0020 u0637_u0628_u064a_u0639_u064a_u0629 u0020 u0645_u062b_u0644_u0647_u0627 u0020 u0645_u062b_u0644_u0020", 
        "u062c_u0645_u064a_u0639 u0020 u0627_u0644_u0638_u0648_u0627_u0647_u0631 u0020 u0627_u0644_u0637_u0628_u064a_u0639_u064a_u0629 u0020 u0627_u0644_u0623_u062e_u0631_u0649 u0020 u0623_u064a u0020 u0623_u0646_u0647_u0627 u0020 u0646_u062a_u0627_u062c u0020 u0645_u064a_u0644 u0020 u0627_u0644_u0646_u0627_u0633_u0020", 
        "u0627_u0644_u0637_u0628_u064a_u0639_u064a u0020 u0625_u0644_u0649 u0020 u0627_u0644_u062a_u062c_u0645_u0639 u0020 u0648_u0627_u0644_u0639_u064a_u0634 u0020 u0641_u064a u0020 u0638_u0644 u0020 u0645_u062c_u062a_u0645_u0639 u0020 u0645_u0646_u0638_u0645 u0020 u0633_u064a_u0627_u0633_u064a_u0627 u0020 u002e u0020 u000b", 
        "u0031_u002d u0020 u0646_u0638_u0631_u064a_u0629 u0020 u0627_u0644_u0623_u0628_u0648_u0629 u0020 u003a u0020 u064a_u0631_u0649 u0020 u0623_u0631_u0633_u0637_u0648 u0020 u0623_u0646 u0020 u0627_u0644_u062f_u0648_u0644_u0629 u0020 u0643_u0627_u0646_u062a u0020 u0641_u064a u0020 u0627_u0644_u0628_u062f_u0627_u064a_u0629_u0020", 
        "u0623_u0633_u0631_u0629 u0020 u062a_u0637_u0648_u0631_u062a u0020 u0625_u0644_u0649 u0020 u0639_u0634_u064a_u0631_u0629 u0020 u062b_u0645 u0020 u0625_u0644_u0649 u0020 u0642_u0628_u064a_u0644_u0629 u0020 u062b_u0645 u0020 u0625_u0644_u0649 u0020 u0645_u062f_u064a_u0646_u0629_u002e_u0623_u0645_u0627_u0020", 
        "u0627_u0644_u062d_u0627_u0643_u0645 u0020 u0641_u064a u0020 u0627_u0644_u062f_u0648_u0644_u0629 u0020 u0641_u0647_u0648 u0020 u0628_u0645_u062b_u0627_u0628_u0629 u0020 u0627_u0644_u0623_u0628 u0020 u0641_u064a u0020 u0627_u0644_u0623_u0633_u0631_u0629 u0020 u064a_u0645_u0627_u0631_u0633 u0020 u0627_u0644_u0633_u0644_u0637_u0629_u0020", 
        "u0639_u0644_u0649 u0020 u0627_u0644_u0634_u0639_u0628 u0020 u0643_u0627_u0644_u0623_u0628 u0020 u0639_u0644_u0649 u0020 u0623_u0641_u0631_u0627_u062f u0020 u0623_u0633_u0631_u062a_u0647 u0020 u0627_u0644_u0634_u064a_u0621 u0020 u0627_u0644_u0630_u064a u0020 u064a_u0633_u062a_u0648_u062c_u0628_u0020", 
        "u0637_u0627_u0639_u062a_u0647 u0020 u0648_u0627_u0644_u0631_u0636_u0648_u062e u0020 u0625_u0644_u064a_u0647 u0020 u0645_u0646 u0020 u0637_u0631_u0641 u0020 u0627_u0644_u0631_u0639_u064a_u0629 u0020 u0648_u0627_u0644_u0642_u0628_u0648_u0644 u0020 u0628_u0633_u0644_u0637_u062a_u0647_u0020", 
        "u0627_u0644_u0645_u0637_u0644_u0642_u0629 u0020 u0639_u0644_u064a_u0647_u0645 u0020 u002e_u000b"
    ]
}