{
    "bounding_box": [
        [
            204, 
            8, 
            433, 
            40
        ], 
        [
            443, 
            53, 
            194, 
            38
        ], 
        [
            62, 
            143, 
            587, 
            23
        ], 
        [
            62, 
            172, 
            587, 
            24
        ], 
        [
            62, 
            201, 
            587, 
            24
        ], 
        [
            200, 
            230, 
            450, 
            24
        ], 
        [
            62, 
            247, 
            587, 
            27
        ], 
        [
            62, 
            281, 
            587, 
            22
        ], 
        [
            62, 
            310, 
            587, 
            22
        ], 
        [
            62, 
            337, 
            587, 
            24
        ], 
        [
            62, 
            366, 
            587, 
            23
        ], 
        [
            315, 
            395, 
            335, 
            21
        ]
    ], 
    "image_height": 540, 
    "image_width": 720, 
    "transcription": [
        "u0686_u0627_u0631_u0686_u0648_u0628 u0020 u0646_u0638_u0631_u06cc u0020 u0648_u0627_u0635_u0648_u0644 u0020 u067e_u0630_u06cc_u0631_u0641_u062a_u0647 u0020 u0634_u062f_u0647_u0020", 
        "u06af_u0632_u0627_u0631_u0634_u06af_u0631_u06cc u0020 u0645_u0627_u0644_u06cc", 
        "u0642_u0628_u0644 u0020 u0627_u0632 u0020 u0633_u0627_u0644 u0020 u0031_u0039_u0038_u0037 u0020 u0627_u0635_u0648_u0644 u0020 u0648 u0020 u0627_u0633_u062a_u0627_u0646_u062f_u0627_u0631_u062f_u0647_u0627_u06cc u0020 u062d_u0633_u0627_u0628_u062f_u0627_u0631_u06cc u0020 u062f_u0648_u0644_u062a_u0647_u0627_u06cc u0020 u0627_u06cc_u0627_u0644_u062a_u06cc u0020 u0648_u0020", 
        "u0645_u062d_u0644_u06cc u0020 u0622_u0645_u0631_u06cc_u06a9_u0627 u0020 u0627_u0632 u0020 u0686_u0627_u0631_u0686_u0648_u0628 u0020 u0646_u0638_u0631_u06cc u0020 u0645_u0628_u062a_u0646_u06cc u0020 u0628_u0631 u0020 u062a_u0635_u0645_u06cc_u0645 u0020 u0645_u0635_u0648_u0628 u0020 u0634_u0648_u0631_u0627_u06cc u0020 u0645_u0644_u06cc_u0020", 
        "u062d_u0633_u0627_u0628_u062f_u0627_u0631_u06cc u0020 u062f_u0648_u0644_u062a_u06cc u0020 u067e_u06cc_u0631_u0648_u06cc u0020 u0645_u06cc u0020 u0646_u0645_u0648_u062f u0020 u06a9_u0647 u0020 u0647_u062f_u0641 u0020 u0627_u0635_u0644_u06cc u0020 u062d_u0633_u0627_u0628_u062f_u0627_u0631_u06cc u0020 u0648 u0020 u06af_u0632_u0627_u0631_u0634_u06af_u0631_u06cc_u0020", 
        "u0645_u0627_u0644_u06cc u0020 u062f_u0631 u0020 u0622_u0646 u0020 u062a_u0647_u06cc_u0647 u0020 u0627_u0637_u0644_u0627_u0639_u0627_u062a u0020 u0633_u0648_u062f_u0645_u0646_u062f u0020 u0628_u0631_u0627_u06cc u0020 u062a_u0635_u0645_u06cc_u0645 u0020 u06af_u06cc_u0631_u06cc u0020 u0628_u0648_u062f_u002e", 
        "u0627_u0632 u0020 u0633_u0627_u0644 u0020 u0031_u0039_u0038_u0037 u0020 u0628_u0627 u0020 u062a_u0635_u0648_u06cc_u0628 u0020 u0628_u06cc_u0627_u0646_u06cc_u0647 u0020 u0645_u0641_u0647_u0648_u0645_u06cc u0020 u0634_u0645_u0627_u0631_u0647 u0020 u0031 u0020 u0067_u0061_u0073_u0062 u0020 u0627_u0635_u0648_u0644 u0020 u0648_u0020", 
        "u0627_u0633_u062a_u0627_u0646_u062f_u0627_u0631_u062f_u0647_u0627_u06cc u0020 u062d_u0633_u0627_u0628_u062f_u0627_u0631_u06cc u0020 u062f_u0648_u0644_u062a_u0647_u0627_u06cc u0020 u0627_u06cc_u0627_u0644_u062a_u06cc u0020 u0648 u0020 u0645_u062d_u0644_u06cc u0020 u0648 u0020 u0633_u067e_u0633 u0020 u062f_u0631 u0020 u0633_u0627_u0644 u0020 u0031_u0039_u0039_u0033_u0020", 
        "u0628_u0627 u0020 u062a_u0635_u0648_u06cc_u0628 u0020 u0628_u06cc_u0627_u0646_u06cc_u0647 u0020 u0645_u0641_u0647_u0648_u0645_u06cc u0020 u0634_u0645_u0627_u0631_u0647 u0020 u0031 u0020 u0066_u0061_u0073_u0061_u0062 u0020 u0627_u0635_u0648_u0644 u0020 u0648 u0020 u0627_u0633_u062a_u0627_u0646_u062f_u0627_u0631_u062f_u0647_u0627_u06cc_u0020", 
        "u062d_u0633_u0627_u0628_u062f_u0627_u0631_u06cc u0020 u062f_u0648_u0644_u062a_u06cc u0020 u0641_u062f_u0631_u0627_u0644 u0020 u0627_u0632 u0020 u0686_u0627_u0631_u0686_u0648_u0628 u0020 u0646_u0638_u0631_u06cc u0020 u0645_u0628_u062a_u0646_u06cc u0020 u0628_u0631 u0020 u0645_u0633_u0626_u0648_u0644_u06cc_u062a u0020 u067e_u0627_u0633_u062e_u06af_u0648_u06cc_u06cc_u0020", 
        "u067e_u06cc_u0631_u0648_u06cc u0020 u0645_u06cc u0020 u0646_u0645_u0627_u06cc_u062f u0020 u0648 u0020 u0627_u0632 u0020 u0622_u0646 u0020 u0633_u0627_u0644 u0020 u062a_u0627_u06a9_u0646_u0648_u0646 u0020 u062f_u0627_u0645_u0646_u0647 u0020 u0622_u0646 u0020 u0628_u0647 u0020 u0633_u0627_u06cc_u0631 u0020 u06a9_u0634_u0648_u0631_u0647_u0627 u0020 u0646_u0638_u06cc_u0631_u0020", 
        "u0627_u0633_u062a_u0631_u0627_u0644_u06cc_u0627 u0020 u060c u0020 u0646_u06cc_u0648_u0632_u0644_u0646_u062f u0020 u060c u0020 u06a9_u0627_u0646_u0627_u062f_u0627 u0020 u06a9_u0634_u06cc_u062f_u0647 u0020 u0634_u062f_u0647 u0020 u0627_u0633_u062a_u002e"
    ]
}