{
    "bounding_box": [
        [
            86, 
            134, 
            517, 
            36
        ], 
        [
            37, 
            221, 
            625, 
            35
        ], 
        [
            37, 
            286, 
            624, 
            31
        ], 
        [
            194, 
            355, 
            319, 
            27
        ], 
        [
            59, 
            47, 
            423, 
            56
        ]
    ], 
    "image_height": 540, 
    "image_width": 720, 
    "transcription": [
        "u0645_u0627 u0020 u0647_u0648 u0020 u0627_u0644_u062a_u0631_u0643_u064a_u0628 u0020 u0627_u0644_u0639_u0646_u0635_u0631_u064a u0020 u0644_u0644_u0645_u0631_u0643_u0628_u0627_u062a u0020 u0627_u0644_u0639_u0636_u0648_u064a_u0629 u0020 u061f", 
        "u062a_u062a_u0623_u0644_u0641 u0020 u0627_u0644_u0645_u0631_u0643_u0628_u0627_u062a u0020 u0627_u0644_u0639_u0636_u0648_u064a_u0629 u0020 u0645_u0646 u0020 u0639_u0646_u0635_u0631 u0020 u0627_u0644_u0643_u0631_u0628_u0648_u0646 u0020 u0643_u0639_u0646_u0635_u0631 u0020 u0623_u0633_u0627_u0633_u064a u0020 u000d", 
        "u0628_u0627_u0644_u0625_u0636_u0627_u0641_u0629 u0020 u0625_u0644_u0649 u0020 u0627_u0644_u0647_u064a_u062f_u0631_u0648_u062c_u064a_u0646 u0020 u0020_u0648_u0627_u0644_u0623_u0643_u0633_u062c_u064a_u0646 u0020 u0648_u0627_u0644_u0646_u064a_u062a_u0631_u0648_u062c_u064a_u0646 u0020 u0648_u0627_u0644_u0643_u0628_u0631_u064a_u062a u0020 u000d", 
        "u0648_u0627_u0644_u0641_u0633_u0641_u0648_u0631 u0020 u0648_u063a_u064a_u0631_u0647_u0627 u0020 u0645_u0646 u0020 u0627_u0644_u0639_u0646_u0627_u0635_u0631 u0020 u002e", 
        "u0645_u0642_u062f_u0645_u0629 u0020 u0641_u064a u0020 u0627_u0644_u0643_u064a_u0645_u064a_u0627_u0621 u0020 u0627_u0644_u0639_u0636_u0648_u064a_u0629"
    ]
}