{
    "bounding_box": [
        [
            63, 
            181, 
            565, 
            22
        ], 
        [
            65, 
            205, 
            563, 
            22
        ], 
        [
            501, 
            231, 
            127, 
            20
        ], 
        [
            79, 
            287, 
            549, 
            22
        ], 
        [
            431, 
            310, 
            197, 
            20
        ], 
        [
            99, 
            368, 
            529, 
            23
        ], 
        [
            235, 
            392, 
            393, 
            22
        ], 
        [
            178, 
            452, 
            450, 
            21
        ], 
        [
            244, 
            59, 
            412, 
            52
        ]
    ], 
    "image_height": 540, 
    "image_width": 720, 
    "transcription": [
        "u0642_u0627_u0645_u062a u0020 u0627_u0644_u0634_u0631_u0643_u0629 u0020 u0628_u0625_u0633_u062a_u062b_u0645_u0627_u0631 u0020 u0645_u0628_u0644_u063a u0020 u0038_u0030_u0030_u0030_u0030_u0030 u0020 u062c_u0646_u064a_u0647 u0020 u0641_u064a u0020 u0623_u062d_u062f u0020 u0627_u0644_u0645_u0634_u0627_u0631_u064a_u0639 u0020 u0644_u0645_u062f_u0629 u0020 u0033 u0020 u0633_u0646_u0648_u0627_u062a u0020 u0628_u0645_u0639_u062f_u0644_u0020", 
        "u0641_u0627_u0626_u062f_u0629 u0020 u0628_u0633_u064a_u0637_u0629 u0020 u0036_u0025_u002e u0020 u0627_u0644_u0645_u0637_u0644_u0648_u0628 u0020 u062d_u0633_u0627_u0628 u0020 u0642_u064a_u0645_u0629 u0020 u0627_u0644_u0641_u0627_u0626_u062f_u0629 u0020 u0627_u0644_u0633_u0646_u0648_u064a_u0629 u0020 u0627_u0644_u062a_u064a u0020 u0633_u062a_u062d_u0635_u0644 u0020 u0639_u0644_u064a_u0647_u0627 u0020 u0627_u0644_u0634_u0631_u0643_u0629_u0020", 
        "u0645_u0646 u0020 u0647_u0630_u0627 u0020 u0627_u0644_u0625_u0633_u062a_u062b_u0645_u0627_u0631_u002e_u000d", 
        "u0641_u0627_u0626_u062f_u0629 u0020 u0627_u0644_u0625_u0633_u062a_u062b_u0645_u0627_u0631 u0020 u003d u0020 u0645_u0628_u0644_u063a u0020 u0627_u0644_u0625_u0633_u062a_u062b_u0645_u0627_u0631 u0020 u002a u0020 u0645_u0639_u062f_u0644 u0020 u0627_u0644_u0641_u0627_u0626_u062f_u0629_u003a u0020 u0641_u0627_u0626_u062f_u0629 u0020 u0627_u0644_u0625_u0633_u062a_u062b_u0645_u0627_u0631_u003d u0020 u0038_u0030_u0030_u0030_u0030_u0030 u0020 u002a_u0020", 
        "u0036_u0025 u0020 u003d u0020 u0034_u0038_u0030_u0030_u0030 u0020 u062c_u0646_u064a_u0647 u0020 u0633_u0646_u0648_u064a_u0627_u064b_u002e_u000d", 
        "u0644_u062d_u0633_u0627_u0628 u0020 u0625_u062c_u0645_u0627_u0644_u064a u0020 u0627_u0644_u0641_u0627_u0626_u062f_u0629 u0020 u0627_u0644_u0628_u0633_u064a_u0637_u0629 u0020 u062e_u0644_u0627_u0644 u0020 u0641_u062a_u0631_u0629 u0020 u0627_u0644_u0625_u0633_u062a_u062b_u0645_u0627_u0631_u060c u0020 u0646_u0633_u062a_u062e_u062f_u0645 u0020 u0627_u0644_u0645_u0639_u0627_u062f_u0644_u0629 u0020 u0627_u0644_u062a_u0627_u0644_u064a_u0629_u003a_u000b", 
        "u0641_u0627_u0626_u062f_u0629 u0020 u0627_u0644_u0625_u0633_u062a_u062b_u0645_u0627_u0631 u0020 u003d u0020 u0645_u0628_u0644_u063a u0020 u0627_u0644_u0625_u0633_u062a_u062b_u0645_u0627_u0631 u0020 u002a u0020 u0645_u0639_u062f_u0644 u0020 u0627_u0644_u0641_u0627_u0626_u062f_u0629 u0020 u002a u0020 u0627_u0644_u0645_u062f_u0629_u000d", 
        "u0641_u0627_u0626_u062f_u0629 u0020 u0627_u0644_u0625_u0633_u062a_u062b_u0645_u0627_u0631 u0020 u003d u0020 u0038_u0030_u0030_u0030_u0030_u0030 u0020 u002a u0020 u0036_u0025 u0020 u002a u0020 u0033 u0020 u0633_u0646_u0648_u0627_u062a u0020 u003d u0020 u0031_u0034_u0034_u0030_u0030_u0030 u0020 u062c_u0646_u064a_u0647", 
        "u0623_u0645_u062b_u0644_u0629 u0020 u0639_u0644_u0649 u0020 u0627_u0644_u0641_u0627_u0626_u062f_u0629 u0020 u0627_u0644_u0628_u0633_u064a_u0637_u0629"
    ]
}