{
    "bounding_box": [
        [
            12, 
            61, 
            658, 
            48
        ], 
        [
            12, 
            117, 
            660, 
            45
        ], 
        [
            12, 
            168, 
            660, 
            46
        ], 
        [
            148, 
            221, 
            524, 
            46
        ], 
        [
            12, 
            283, 
            658, 
            46
        ], 
        [
            12, 
            340, 
            660, 
            44
        ], 
        [
            12, 
            394, 
            660, 
            41
        ], 
        [
            289, 
            441, 
            383, 
            46
        ]
    ], 
    "image_height": 540, 
    "image_width": 720, 
    "transcription": [
        "u0643_u0645_u0627 u0020 u062a_u0637_u0644 u0020 u0645_u0639_u0638_u0645 u0020 u0627_u0644_u063a_u0631_u0641 u0020 u0639_u0644_u0649 u0020 u0627_u0644_u0645_u0646_u0627_u0638_u0631 u0020 u0627_u0644_u0623_u062e_u0627_u0630_u0629_u0020", 
        "u0644_u0644_u0645_u062d_u0645_u064a_u0629 u0020 u0645_u0646 u0020 u062e_u0644_u0627_u0644 u0020 u0634_u0631_u0641_u0629 u0020 u062e_u0627_u0635_u0629_u060c u0020 u0648_u064a_u062a_u0633_u0639 u0020 u0627_u0644_u0628_u064a_u062a_u0020", 
        "u0625_u0644_u0649 u0020 u0032_u0033 u0020 u0632_u0627_u0626_u0631_u0627 u0020 u0628_u0627_u0644_u0644_u064a_u0644_u0629_u002e u0020 u0648_u0627_u0644_u063a_u0631_u0641 u0020 u0645_u0624_u062b_u062b_u0629 u0020 u0628_u0637_u0627_u0628_u0639_u0020", 
        "u0627_u0644_u0627_u062b_u0627_u062b u0020 u0627_u0644_u0627_u0631_u062f_u0646_u064a_u060c u0020 u0648_u0645_u0646 u0020 u0645_u0648_u0627_u062f u0020 u0622_u0645_u0646_u0629 u0020 u0628_u064a_u0626_u064a_u0627_u002e_u000d", 
        "u0020_u0643_u0645_u0627 u0020 u064a_u0636_u0645 u0020 u0628_u064a_u062a u0020 u0627_u0644_u0636_u064a_u0627_u0641_u0629_u060c u0020 u0627_u0644_u0645_u0631_u0627_u0641_u0642 u0020 u0648_u0627_u0644_u0645_u0639_u062f_u0627_u062a_u0020", 
        "u0627_u0644_u062a_u064a u0020 u0647_u064a_u0626_u062a_u0647 u0020 u0644_u064a_u0643_u0648_u0646 u0020 u0645_u0643_u0627_u0646_u0627 u0020 u0645_u062b_u0627_u0644_u064a_u0627 u0020 u0644_u062e_u0644_u0648_u0627_u062a u0020 u0627_u0644_u0639_u0645_u0644_u0020", 
        "u0648_u0627_u0644_u0627_u062c_u062a_u0645_u0627_u0639_u0627_u062a u0020 u0648_u0648_u0631_u0634 u0020 u0627_u0644_u0639_u0645_u0644_u002e u0020 u0648_u064a_u0641_u062a_u062d u0020 u0628_u064a_u062a_u0020", 
        "u0627_u0644_u0636_u064a_u0627_u0641_u0629 u0020 u0623_u0628_u0648_u0627_u0628_u0647 u0020 u0637_u0648_u0627_u0644 u0020 u0627_u0644_u0639_u0627_u0645_u002e_u000d"
    ]
}