{
    "bounding_box": [
        [
            271, 
            98, 
            165, 
            35
        ], 
        [
            260, 
            176, 
            313, 
            22
        ], 
        [
            267, 
            210, 
            307, 
            23
        ], 
        [
            128, 
            243, 
            446, 
            24
        ], 
        [
            393, 
            273, 
            180, 
            21
        ], 
        [
            145, 
            309, 
            429, 
            22
        ]
    ], 
    "image_height": 540, 
    "image_width": 720, 
    "transcription": [
        "u0627_u0631_u0627_u0621 u0020 u0628_u0631_u0648_u0646_u0631_u0020", 
        "u0627_u0647_u064a_u0629 u0020 u0627_u0644_u0644_u0639_u0628 u0020 u0641_u064a u0020 u062a_u0646_u0645_u064a_u0629 u0020 u0627_u0644_u0627_u0628_u062a_u0643_u0627_u0631_u064a_u0629 u0020 u0648_u0627_u0644_u0645_u0631_u0648_u0646_u0629 u0020 u000d", 
        "u0627_u0644_u0645_u0647_u0645 u0020 u0641_u064a u0020 u0627_u0644_u0644_u0639_u0628 u0020 u0627_u0644_u0644_u0639_u0628 u0020 u0646_u0641_u0633_u0647 u0020 u0648_u0644_u064a_u0633 u0020 u0646_u062a_u0627_u0626_u062c_u0647_u000d", 
        "u0627_u0644_u062a_u0646_u0648_u0639 u0020 u0641_u064a u0020 u0644_u0639_u0628 u0020 u0627_u0644_u0637_u0641_u0644 u0020 u0644_u0645_u0639_u0627_u0644_u062c_u0629 u0020 u0645_u0634_u0643_u0644_u0627_u062a u0020 u062e_u064a_u0627_u0644_u064a_u0629 u0020 u064a_u0633_u0627_u0639_u062f_u0647 u0020 u0639_u0644_u0649_u0020", 
        "u062d_u0644 u0020 u0627_u0644_u0645_u0634_u0643_u0644_u0627_u062a u0020 u0627_u0644_u0648_u0627_u0642_u0639_u064a_u0629 u0020 u000d", 
        "u0627_u0647_u0645_u064a_u0629 u0020 u0627_u0644_u0639_u0627_u0628 u0020 u0627_u0644_u062a_u0635_u0646_u064a_u0641 u0020 u0648_u0627_u0644_u0645_u0637_u0627_u0628_u0642_u0629 u0020 u0641_u064a u0020 u0646_u0645_u0648 u0020 u0627_u0644_u0637_u0641_u0644 u0020 u0627_u0644_u0645_u0639_u0631_u0641_u0649 u0020 u000d"
    ]
}