{
    "bounding_box": [
        [
            214, 
            201, 
            249, 
            66
        ], 
        [
            227, 
            268, 
            242, 
            45
        ]
    ], 
    "image_height": 540, 
    "image_width": 720, 
    "transcription": [
        "u0054_u0068_u0061_u006e_u006b_u0073 u0020 u000d", 
        "u0046_u006f_u0072 u0020 u006c_u0069_u0073_u0074_u0065_u006e_u0069_u006e_u0067"
    ]
}