{
    "bounding_box": [
        [
            213, 
            101, 
            293, 
            47
        ], 
        [
            141, 
            221, 
            420, 
            48
        ], 
        [
            333, 
            302, 
            45, 
            23
        ], 
        [
            148, 
            353, 
            424, 
            50
        ]
    ], 
    "image_height": 540, 
    "image_width": 720, 
    "transcription": [
        "u0628_u0633_u0645 u0020 u0627_u0644_u0644_u0647 u0020 u0627_u0644_u0631_u062d_u0645_u0646 u0020 u0627_u0644_u0631_u062d_u064a_u0645", 
        "u062f_u0648_u0631_u0629 u0020 u062d_u0633_u0627_u0628 u0020 u0627_u0644_u062a_u0643_u0627_u0644_u064a_u0641_u000d", 
        "u062c_u0034_u000d", 
        "u0648_u0633_u0627_u0626_u0644 u0020 u062e_u0641_u0636 u0020 u0627_u0644_u062a_u0643_u0627_u0644_u064a_u0641"
    ]
}