{
    "bounding_box": [
        [
            119, 
            58, 
            481, 
            39
        ], 
        [
            389, 
            127, 
            272, 
            26
        ], 
        [
            379, 
            164, 
            268, 
            24
        ], 
        [
            444, 
            201, 
            203, 
            25
        ], 
        [
            420, 
            236, 
            227, 
            23
        ], 
        [
            435, 
            274, 
            212, 
            23
        ], 
        [
            422, 
            309, 
            225, 
            24
        ], 
        [
            498, 
            349, 
            148, 
            23
        ]
    ], 
    "image_height": 540, 
    "image_width": 720, 
    "transcription": [
        "u00a0_u0627_u0644_u0642_u0633_u0645 u0020 u0033_u003a u0020 u0627_u0644_u062a_u0628_u0648_u064a_u0628_u0627_u062a u0020 u0627_u0644_u0645_u062a_u0642_u062f_u0645_u0629 u0020 u0648_u0627_u0644_u062a_u062e_u0635_u064a_u0635", 
        "u0641_u064a u0020 u0647_u0630_u0627 u0020 u0627_u0644_u0642_u0633_u0645 u0020 u0633_u0648_u0641 u0020 u062a_u062a_u0639_u0644_u0645 u0020 u0643_u064a_u0641_u064a_u0629_u003a_u000d", 
        "u0627_u0633_u062a_u062e_u062f_u0627_u0645 u0020 u062a_u0628_u0648_u064a_u0628_u0629 u0020 u062a_u062e_u0637_u064a_u0637 u0020 u0627_u0644_u0635_u0641_u062d_u0629_u000d", 
        "u0627_u0633_u062a_u062e_u062f_u0627_u0645 u0020 u062a_u0628_u0648_u064a_u0628_u0629 u0020 u0627_u0644_u0645_u0631_u0627_u062c_u0639_u000d", 
        "u0627_u0633_u062a_u062e_u062f_u0627_u0645 u0020 u062a_u0628_u0648_u064a_u0628_u0629 u0020 u0627_u0644_u0645_u0631_u0627_u0633_u0644_u0627_u062a_u000d", 
        "u0627_u0633_u062a_u062e_u062f_u0627_u0645 u0020 u062a_u0628_u0648_u064a_u0628_u0629 u0020 u0627_u0644_u0645_u0631_u0627_u062c_u0639_u0629_u000d", 
        "u0627_u0633_u062a_u062e_u062f_u0627_u0645 u0020 u0627_u0644_u062a_u0628_u0648_u064a_u0628_u0627_u062a u0020 u0627_u0644_u0633_u064a_u0627_u0642_u064a_u0629_u000d", 
        "u062a_u062e_u0635_u064a_u0635 u0020 u0627_u0644_u0634_u0631_u064a_u0637"
    ]
}