{
    "bounding_box": [
        [
            292, 
            82, 
            339, 
            48
        ], 
        [
            78, 
            169, 
            554, 
            43
        ], 
        [
            113, 
            223, 
            520, 
            42
        ], 
        [
            517, 
            276, 
            115, 
            36
        ], 
        [
            160, 
            329, 
            472, 
            36
        ], 
        [
            110, 
            376, 
            523, 
            42
        ], 
        [
            54, 
            429, 
            578, 
            47
        ], 
        [
            49, 
            487, 
            584, 
            38
        ]
    ], 
    "image_height": 540, 
    "image_width": 720, 
    "transcription": [
        "u0623_u0647_u0645 u0020 u0625_u0646_u062c_u0627_u0632_u0627_u062a u0020 u0645 u0020 u062a u0020 u0641 u0020 u003a", 
        "u0642_u0627_u062f_u062a u0020 u0627_u0644_u0646_u0636_u0627_u0644 u0020 u0627_u0644_u0641_u0644_u0633_u0637_u064a_u0646_u064a u0020 u0643_u0646_u0636_u0627_u0644 u0020 u0633_u064a_u0627_u0633_u064a_u0020", 
        "u0644_u0634_u0639_u0628 u0020 u064a_u062e_u0636_u0639 u0020 u0644_u0644_u0627_u062d_u062a_u0644_u0627_u0644 u0020 u0648_u0644_u064a_u0633 u0020 u0643_u0642_u0636_u064a_u0629_u0020", 
        "u0625_u0646_u0633_u0627_u0646_u064a_u0629_u002e_u000d", 
        "u062d_u0641_u0638_u062a u0020 u0627_u0644_u0647_u0648_u064a_u0629 u0020 u0627_u0644_u0648_u0637_u0646_u064a_u0629 u0020 u0627_u0644_u0641_u0644_u0633_u0637_u064a_u0646_u064a_u0629_u002e_u000d", 
        "u0623_u062d_u0631_u0632_u062a u0020 u0646_u062c_u0627_u062d_u0627_u062a u0020 u062f_u0628_u0644_u0648_u0645_u0627_u0633_u064a_u0629 u0020 u0645_u062b_u0644 u0020 u0642_u0631_u0627_u0631_u0020", 
        "u0033_u0033_u0037_u0039 u0020 u0627_u0644_u0635_u0627_u062f_u0631 u0020 u0639_u0627_u0645 u0020 u0037_u0035_u002c u0020 u0648_u0627_u0644_u0630_u064a u0020 u064a_u0639_u062a_u0628_u0631 u0020 u0623_u0646_u0020", 
        "u0627_u0644_u062d_u0631_u0643_u0629 u0020 u0627_u0644_u0635_u0647_u064a_u0648_u0646_u064a_u0629 u0020 u062d_u0631_u0643_u0629 u0020 u0639_u0646_u0635_u0631_u064a_u0629 u0020 u0648_u063a_u064a_u0631_u0647_u002e"
    ]
}