{
    "bounding_box": [
        [
            150, 
            79, 
            515, 
            19
        ], 
        [
            39, 
            109, 
            626, 
            21
        ], 
        [
            557, 
            142, 
            109, 
            16
        ], 
        [
            36, 
            166, 
            629, 
            22
        ], 
        [
            338, 
            201, 
            327, 
            16
        ], 
        [
            89, 
            224, 
            577, 
            21
        ], 
        [
            119, 
            253, 
            547, 
            21
        ], 
        [
            39, 
            281, 
            627, 
            21
        ], 
        [
            151, 
            310, 
            514, 
            22
        ], 
        [
            140, 
            342, 
            526, 
            24
        ], 
        [
            34, 
            376, 
            631, 
            24
        ], 
        [
            190, 
            412, 
            475, 
            23
        ], 
        [
            47, 
            443, 
            619, 
            21
        ], 
        [
            28, 
            471, 
            637, 
            21
        ]
    ], 
    "image_height": 540, 
    "image_width": 720, 
    "transcription": [
        "u0035_u002e u0020 u062a_u0639_u062f_u062f u0020 u0627_u0644_u0645_u062d_u0627_u0648_u0631 u0020 u003a u0020 u0648_u064a_u062a_u0636_u0645_u0646 u0020 u0627_u0644_u062a_u0634_u062e_u064a_u0635 u0020 u0644_u0644_u0645_u062d_u0627_u0648_u0631 u0020 u0627_u0644_u062a_u0634_u062e_u064a_u0635_u064a_u0629 u0020 u0627_u0644_u062e_u0645_u0633_u0629 u0020 u0627_u0644_u0622_u062a_u064a_u0629 u0020 u003a_u002d u0020 u000d", 
        "u0623_u002d_u0627_u0644_u0645_u062d_u0648_u0631 u0020 u0627_u0644_u0623_u0648_u0644_u003a u0020 u0627_u0644_u062d_u0627_u0644_u0629 u0020 u0627_u0644_u0625_u0643_u0644_u064a_u0646_u064a_u0643_u064a_u0629 u0020 u0627_u0644_u0645_u0631_u0636_u064a_u0629 u0020 u0020_u0028 u0020 u0627_u0644_u062a_u0634_u062e_u064a_u0635 u0020 u0627_u0644_u0627_u0643_u0644_u064a_u0646_u064a_u0643_u0649 u0020 u0029 u0020 u0020 u0020 u0028_u0043_u006c_u0069_u006e_u0069_u0063_u0061_u006c u0020 u0050_u0073_u0079_u0063_u0068_u0069_u0061_u0074_u0072_u0069_u0063_u0020", 
        "u0053_u0079_u006e_u0064_u0072_u006f_u006d_u0065 u0020 u0029 u0020 u000d", 
        "u0020_u0628 u0020 u2013 u0020 u0627_u0644_u0645_u062d_u0648_u0631 u0020 u0627_u0644_u062b_u0627_u0646_u0649 u0020 u003a_u0627_u0636_u0637_u0631_u0627_u0628 u0020 u0627_u0644_u0634_u062e_u0635_u064a_u0629 u0020 u0020_u0028_u0623_u0648 u0020 u0627_u0644_u0627_u0636_u0637_u0631_u0627_u0628_u0627_u062a u0020 u0627_u0644_u062e_u0627_u0635_u0629 u0020 u0628_u0646_u0645_u0648 u0020 u062d_u0627_u0644_u0627_u062a u0020 u0627_u0644_u0623_u0637_u0641_u0627_u0644 u0020 u0648_u0627_u0644_u0645_u0631_u0627_u0647_u0642_u064a_u0646_u0020", 
        "u0029 u0020 u0028_u0053_u0070_u0065_u0063_u0069_u0066_u0069_u0063 u0020 u0044_u0065_u0076_u0065_u006c_u006f_u0070_u006d_u0065_u006e_u0074_u0061_u006c u0020 u0044_u0069_u0073_u006f_u0072_u0064_u0065_u0072_u0073 u0020 u0029 u0020 u000d", 
        "u062c u0020 u2013 u0020 u0627_u0644_u0645_u062d_u0648_u0631 u0020 u0627_u0644_u062b_u0627_u0644_u062b u0020 u003a u0020 u0020_u0627_u0644_u0627_u0636_u0637_u0631_u0627_u0628_u0627_u062a u0020 u0648_u0627_u0644_u0623_u0645_u0631_u0627_u0636 u0020 u0627_u0644_u062c_u0633_u0645_u0627_u0646_u064a_u0629 u0020 u0627_u0644_u0645_u0635_u0627_u062d_u0628_u0629 u0020 u0028_u0627_u0644_u0627_u0645_u0631_u0627_u0636 u0020 u0627_u0644_u0639_u0636_u0648_u064a_u0629_u0029 u0020 u002e u0020 u000d", 
        "u062f u0020 u2013 u0020 u0627_u0644_u0645_u062d_u0648_u0631 u0020 u0627_u0644_u0631_u0627_u0628_u0639 u0020 u003a_u0627_u0644_u0636_u063a_u0648_u0637 u0020 u0627_u0644_u0646_u0641_u0633_u064a_u0629 u0020 u0648_u0627_u0644_u0627_u062c_u062a_u0645_u0627_u0639_u064a_u0629 u0020 u0627_u0644_u0645_u0624_u062b_u0631_u0629 u0020 u0641_u064a u0020 u062d_u062f_u0648_u062b u0020 u0627_u0644_u062d_u0627_u0644_u0629 u0020 u0627_u0644_u0645_u0631_u0636_u064a_u0629 u0020 u002e_u000d", 
        "u0647_u0640_u002d u0020 u0627_u0644_u0645_u062d_u0648_u0631 u0020 u0627_u0644_u062e_u0627_u0645_u0633 u0020 u003a_u0645_u0633_u062a_u0648_u064a u0020 u0627_u0644_u062a_u0643_u064a_u0641 u0020 u062e_u0644_u0627_u0644 u0020 u0627_u0644_u0633_u0646_u0629 u0020 u0627_u0644_u0645_u0627_u0636_u064a_u0629 u0020 u0028_u062a_u0642_u0648_u064a_u0645 u0020 u0627_u0644_u0623_u062f_u0627_u0621 u0020 u0627_u0644_u0639_u0627_u0645 u0020 u0029 u0020 u0648_u064a_u0634_u0645_u0644 u0020 u003a u0020 u002d u0020 u0627_u0644_u0639_u0644_u0627_u0642_u0627_u062a_u0020", 
        "u0627_u0644_u0627_u062c_u062a_u0645_u0627_u0639_u064a_u0629 u0020 u002c u0020 u0020_u0627_u0644_u0625_u0646_u062c_u0627_u0632 u0020 u0627_u0644_u0648_u0638_u064a_u0641_u064a u0020 u002c u0020 u0627_u0633_u062a_u062e_u062f_u0627_u0645 u0020 u0648_u0642_u062a u0020 u0627_u0644_u0641_u0631_u0627_u063a u0020 u0028_u0643_u064a_u0641 u0020 u064a_u0642_u0636_u064a u0020 u0648_u0642_u062a u0020 u0641_u0631_u0627_u063a_u0647_u061f_u0029 u0020 u000d", 
        "u0036_u002e u0020 u0627_u0644_u0627_u0633_u062a_u063a_u0646_u0627_u0621 u0020 u0639_u0646 u0020 u0645_u0635_u0637_u0644_u062d u0020 u0639_u0635_u0627_u0628 u0020 u0648_u0627_u0633_u062a_u062e_u062f_u0627_u0645 u0020 u0630_u0647_u0627_u0646 u0020 u0641_u064a u0020 u0623_u0636_u064a_u0642 u0020 u0627_u0644_u062d_u062f_u0648_u062f u0020 u002e_u000d", 
        "u0037_u002e u0020 u0627_u0644_u062a_u0639_u0627_u0645_u0644 u0020 u0645_u0639 u0020 u0627_u0644_u0634_u062e_u0635_u064a_u0627_u062a u0020 u063a_u064a_u0631 u0020 u0627_u0644_u0648_u0627_u0636_u062d_u0629 u0020 u003a u0020 u0641_u0646_u062c_u062f u0020 u0627_u0646_u0647 u0020 u0645_u0646 u0020 u0645_u0632_u0627_u064a_u0627 u0020 u0647_u0630_u0627 u0020 u0627_u0644_u062f_u0644_u064a_u0644 u0020 u0642_u062f_u0631_u062a_u0647 u0020 u0639_u0644_u064a_u0020", 
        "u062a_u0634_u062e_u064a_u0635 u0020 u0648_u062a_u0635_u0646_u064a_u0641 u0020 u0627_u0644_u062d_u0627_u0644_u0627_u062a u0020 u0627_u0644_u062a_u064a u0020 u064a_u0635_u0639_u0628 u0020 u0627_u0644_u0628_u062a u0020 u0641_u064a_u0647_u0627 u0020 u0648_u0627_u0644_u063a_u064a_u0631 u0020 u0648_u0627_u0636_u062d_u0629 u0020 u002e_u000d", 
        "u0020 u0020 u0020 u0020 u0020 u0020 u0020 u0020 u002a_u002a_u0648_u0646_u0638_u0631_u0627 u0020 u0644_u0647_u0630_u0647 u0020 u0627_u0644_u0645_u0645_u064a_u0632_u0627_u062a u0020 u0641_u0625_u0646_u0646_u0627 u0020 u0633_u0648_u0641 u0020 u0646_u0639_u0631_u0636 u0020 u0627_u0644_u062e_u0637_u0648_u0637 u0020 u0627_u0644_u0639_u0631_u064a_u0636_u0629 u0020 u0644_u0644_u062a_u0635_u0646_u064a_u0641 u0020 u0627_u0644_u0623_u0645_u0631_u064a_u0643_u064a u0020 u0627_u0644_u0625_u062d_u0635_u0627_u0626_u064a_u0020", 
        "u0627_u0644_u0631_u0627_u0628_u0639 u0020 u0028_u0049_u0056_u002d_u004d_u002e_u0053_u002e_u0044_u0029 u0020 u0641_u064a_u0645_u0627 u0020 u064a_u0644_u064a u0020 u062b_u0645 u0020 u0646_u0641_u0635_u0644 u0020 u0627_u0644_u0623_u0645_u0631_u0627_u0636 u0020 u0627_u0644_u0646_u0641_u0633_u064a_u0629 u0020 u0637_u0628_u0642_u0627 u0020 u0644_u0645_u0627 u0020 u062c_u0627_u0621 u0020 u0628_u0647 u0020 u0645_u0646 u0020 u0645_u0648_u0627_u0635_u0641_u0627_u062a u0020 u062a_u0634_u062e_u064a_u0635_u064a_u0629 u0020 u000d"
    ]
}