{
    "bounding_box": [
        [
            96, 
            38, 
            523, 
            37
        ], 
        [
            522, 
            104, 
            164, 
            29
        ], 
        [
            22, 
            165, 
            676, 
            34
        ], 
        [
            41, 
            223, 
            657, 
            33
        ], 
        [
            155, 
            281, 
            543, 
            33
        ], 
        [
            127, 
            341, 
            463, 
            34
        ], 
        [
            74, 
            404, 
            624, 
            32
        ], 
        [
            541, 
            464, 
            157, 
            30
        ]
    ], 
    "image_height": 540, 
    "image_width": 720, 
    "transcription": [
        "u0646_u0645_u0627_u0630_u062c u0020 u0645_u0646 u0020 u0645_u0639_u0627_u0644_u062c_u0629 u0020 u0627_u0644_u0643_u0631_u0645_u0627_u0646_u064a u0020 u0644_u0645_u0627 u0020 u0638_u0627_u0647_u0631_u0647 u0020 u0627_u0644_u062a_u0643_u0631_u0627_u0631_u000d", 
        "u0633_u0648_u0631_u0629 u0020 u0627_u0644_u0641_u0627_u062a_u062d_u0629 u0020 u003a_u000d", 
        "u0623_u002f u0020 u0642_u0627_u0644 u0020 u0627_u0644_u0643_u0631_u0645_u0627_u0646_u064a_u003a u0020 u0623_u0648_u0644 u0020 u0627_u0644_u0645_u062a_u0634_u0627_u0628_u0647_u0627_u062a u0020 u0642_u0648_u0644_u0647 u0020 u0028_u0627_u0644_u0631_u0651_u064e_u062d_u0652_u0645_u064e_u0646_u0650 u0020 u0627_u0644_u0631_u0651_u064e_u062d_u0650_u064a_u0645_u0650_u0029 u0020 u0641_u064a_u0645_u0646 u0020 u062c_u0639_u0644_u0020", 
        "u0028_u0628_u0633_u0652_u0645_u0650 u0020 u0627_u0644_u0644_u0651_u064e_u0647_u0650 u0020 u0627_u0644_u0631_u0651_u064e_u062d_u0652_u0645_u064e_u0646_u0650 u0020 u0627_u0644_u0631_u0651_u064e_u062d_u0650_u064a_u0645_u0650_u0029 u0020 u0622_u064a_u0629 u0020 u0645_u0646 u0020 u0627_u0644_u0641_u0627_u062a_u062d_u0629 u0020 u0648_u0641_u064a u0020 u062a_u0643_u0631_u0627_u0631_u0647 u0020 u0642_u0648_u0644_u0627_u0646_u003a u0020 u0642_u0627_u0644_u0020", 
        "u0639_u0644_u064a u0020 u0628_u0646 u0020 u0639_u064a_u0633_u0649 u0020 u0625_u0646_u0645_u0627 u0020 u0643_u0631_u0631 u0020 u0644_u0644_u062a_u0648_u0643_u064a_u062f_u060c u0020 u0648_u0623_u0646_u0634_u062f u0020 u0642_u0648_u0644 u0020 u0627_u0644_u0634_u0627_u0639_u0631_u003a_u000d", 
        "u002e_u002e_u002e u0020 u0647_u0644_u0627 u0020 u0633_u0623_u0644_u062a u0020 u062c_u0645_u0648_u0639 u0020 u0643_u0646_u062f_u0629 u0020 u064a_u0648_u0645 u0020 u0648_u0644_u0648_u0627 u0020 u0623_u064a_u0646 u0020 u0623_u064a_u0646_u0627 u0020 u002e_u002e_u002e_u000d", 
        "u0648_u0642_u0627_u0644 u0020 u0642_u0627_u0633_u0645 u0020 u0628_u0646 u0020 u062d_u0628_u064a_u0628_u003a u0020 u0625_u0646_u0645_u0627 u0020 u0643_u0631_u0631 u0020 u0644_u0623_u0646 u0020 u0627_u0644_u0645_u0639_u0646_u0649 u0020 u0648_u062c_u0628 u0020 u0627_u0644_u062d_u0645_u062f u0020 u0644_u0644_u0647 u0020 u0644_u0623_u0646_u0647_u0020", 
        "u0627_u0644_u0631_u062d_u0645_u0646 u0020 u0627_u0644_u0631_u062d_u064a_u0645_u002e"
    ]
}