{
    "bounding_box": [
        [
            106, 
            40, 
            544, 
            32
        ], 
        [
            114, 
            78, 
            536, 
            33
        ], 
        [
            119, 
            115, 
            531, 
            31
        ], 
        [
            91, 
            154, 
            558, 
            31
        ], 
        [
            92, 
            193, 
            558, 
            34
        ], 
        [
            94, 
            242, 
            556, 
            30
        ], 
        [
            46, 
            277, 
            603, 
            34
        ], 
        [
            57, 
            316, 
            593, 
            33
        ], 
        [
            100, 
            354, 
            549, 
            32
        ], 
        [
            50, 
            393, 
            600, 
            33
        ], 
        [
            92, 
            432, 
            557, 
            30
        ], 
        [
            40, 
            468, 
            610, 
            34
        ]
    ], 
    "image_height": 540, 
    "image_width": 720, 
    "transcription": [
        "u062a_u0639_u0638_u064a_u0645 u0020 u062a_u0643_u0627_u0645_u0644 u0020 u0627_u0644_u0645_u0646_u0627_u0637_u0642 u0020 u0627_u0644_u062d_u0631_u0629 u0020 u0648_u0627_u0644_u0627_u0642_u062a_u0635_u0627_u062f_u064a_u0629 u0020 u0630_u0627_u062a u0020 u0627_u0644_u0637_u0628_u064a_u0639_u0629_u0020", 
        "u0627_u0644_u062e_u0627_u0635_u0629 u0020 u0648_u0627_u0644_u0645_u0646_u0627_u0637_u0642 u0020 u0627_u0644_u062a_u0646_u0645_u0648_u064a_u0629 u0020 u0648_u0627_u0644_u0627_u0633_u062a_u062b_u0645_u0627_u0631_u064a_u0629 u0020 u0627_u0644_u0639_u0631_u0628_u064a_u0629 u0020 u0641_u064a_u0020", 
        "u0625_u0633_u062a_u062b_u0645_u0627_u0631 u0020 u0627_u0644_u0645_u0648_u0627_u0631_u062f u0020 u0627_u0644_u0645_u062a_u0627_u062d_u0629 u0020 u0648_u0637_u0646_u064a_u0627_u064b u0020 u0628_u0643_u0627_u0641_u0629 u0020 u0627_u0644_u062f_u0648_u0644 u0020 u0627_u0644_u0639_u0631_u0628_u064a_u0629_u060c_u0020", 
        "u0648_u0623_u0633_u062a_u0642_u0637_u0627_u0628 u0020 u0627_u0644_u0625_u0633_u062a_u062b_u0645_u0627_u0631_u0627_u062a u0020 u0627_u0644_u0639_u0631_u0628_u064a_u0629 u0020 u0627_u0644_u0628_u064a_u0646_u064a_u0629_u060c u0020 u0648_u062c_u0630_u0628 u0020 u0631_u0624_u0648_u0633_u0020", 
        "u0627_u0644_u0623_u0645_u0648_u0627_u0644 u0020 u0627_u0644_u0628_u0634_u0631_u064a_u0629 u0020 u0648_u0627_u0644_u0645_u0627_u0644_u064a_u0629 u0020 u0627_u0644_u0647_u0627_u0631_u0628_u0629 u0020 u062e_u0627_u0631_u062c u0020 u0627_u0644_u0648_u0637_u0646 u0020 u0627_u0644_u0639_u0631_u0628_u064a_u002e_u000d", 
        "u062a_u0646_u0638_u064a_u0645 u0020 u062a_u0628_u0627_u062f_u0644 u0020 u0627_u0644_u0639_u0644_u0648_u0645_u0627_u062a u0020 u0648_u0627_u0644_u062e_u0628_u0631_u0627_u062a u0020 u0628_u064a_u0646 u0020 u0627_u0644_u0645_u0646_u0627_u0637_u0642 u0020 u0645_u0646 u0020 u062e_u0644_u0627_u0644_u0020", 
        "u0625_u0646_u0634_u0627_u0621 u0020 u0628_u0646_u0643 u0020 u0644_u0644_u0645_u0639_u0644_u0648_u0645_u0627_u062a u0020 u064a_u062a_u0639_u062a_u0645_u062f u0020 u0639_u0644_u0649 u0020 u0623_u062d_u062f_u062b u0020 u0627_u0644_u0623_u0633_u0627_u0644_u064a_u0628_u0627 u0020 u0644_u062a_u0642_u0646_u064a_u0629 u0020 u0641_u064a_u0020", 
        "u062c_u0645_u0639 u0020 u0627_u0644_u0628_u064a_u0627_u0646_u0627_u062a u0020 u0648_u0627_u0644_u0645_u0639_u0644_u0648_u0645_u0627_u062a u0020 u0639_u0646 u0020 u0627_u0644_u0645_u0646_u0627_u0637_u0642 u0020 u0627_u0644_u062d_u0631_u0629 u0020 u0648_u0627_u0644_u0627_u0642_u062a_u0635_u0627_u062f_u064a_u0629_u0020", 
        "u0630_u0627_u062a u0020 u0627_u0644_u0637_u0628_u064a_u0639_u0629 u0020 u0627_u0644_u062e_u0627_u0635_u0629 u0020 u0648_u0627_u0644_u0645_u0646_u0627_u0637_u0642 u0020 u0627_u0644_u062a_u0646_u0645_u0648_u064a_u0629 u0020 u0648_u0627_u0644_u0627_u0633_u062a_u062b_u0645_u0627_u0631_u064a_u0629_u0020", 
        "u0648_u0627_u0644_u0634_u0631_u0643_u0627_u062a u0020 u0648_u0627_u0644_u0645_u0624_u0633_u0633_u0627_u062a u0020 u0627_u0644_u062a_u064a u0020 u062a_u0639_u0645_u0644 u0020 u0628_u062f_u0627_u062e_u0644_u0647_u0627_u060c u0020 u0648_u0643_u0630_u0627 u0020 u0627_u0644_u0645_u0646_u0638_u0645_u0627_u062a_u0020", 
        "u0627_u0644_u0639_u0627_u0644_u0645_u064a_u0629 u0020 u0648_u0627_u0644_u0625_u0642_u0644_u064a_u0645_u064a_u0629 u0020 u0648_u0627_u0644_u0645_u0635_u0627_u0631_u0641 u0020 u0648_u0628_u064a_u0648_u062a u0020 u0627_u0644_u062e_u0628_u0631_u0629 u0020 u0648_u0625_u062a_u0627_u062d_u062a_u0647_u0627_u0020", 
        "u0644_u0644_u0645_u0646_u0627_u0637_u0642 u0020 u0627_u0644_u062d_u0631_u0629 u0020 u0627_u0644_u0639_u0631_u0628_u064a_u0629 u0020 u0648_u0644_u0628_u0627_u062d_u062b_u064a_u0646 u0020 u0648_u0627_u0644_u062f_u0631_u0627_u0633_u064a_u0646 u0020 u0641_u064a u0020 u0647_u0630_u0627 u0020 u0627_u0644_u0645_u062c_u0627_u0644_u002e_u000d"
    ]
}