{
    "bounding_box": [
        [
            101, 
            26, 
            588, 
            57
        ], 
        [
            574, 
            99, 
            115, 
            40
        ], 
        [
            27, 
            184, 
            619, 
            19
        ], 
        [
            192, 
            264, 
            279, 
            16
        ], 
        [
            146, 
            323, 
            396, 
            19
        ], 
        [
            151, 
            390, 
            393, 
            17
        ]
    ], 
    "image_height": 540, 
    "image_width": 720, 
    "transcription": [
        "u0623_u0630_u0643_u0631 u0020 u0627_u0647_u0645 u0020 u0623_u0639_u0645_u0627_u0644 u0020 u0627_u0644_u062e_u0644_u064a_u0641_u0629 u0020 u0639_u0645_u0631 u0020 u0628_u0646 u0020 u0639_u0628_u062f_u0020", 
        "u0627_u0644_u0639_u0632_u064a_u0632_u061f", 
        "u0635_u064a_u0627_u0646_u0629 u0020 u0627_u0644_u0645_u0627_u0644 u0020 u0627_u0644_u0639_u0627_u0645 u0020 u0641_u0623_u0639_u0627_u062f u0020 u0645_u0627_u0648_u0647_u0628 u0020 u0644_u0647 u0020 u0645_u0646 u0020 u0623_u0645_u0648_u0627_u0644 u0020 u0647_u0648 u0020 u0648_u0632_u0648_u062c_u062a_u0647 u0020 u0644_u0628_u062a u0020 u0627_u0644_u0645_u0627_u0644 u0020 u0648_u0637_u0644_u0628 u0020 u0645_u0646 u0020 u0628_u0646_u0649 u0020 u0623_u0645_u064a_u0629 u0020 u0625_u0631_u062c_u0627_u0639 u0020 u0645_u0627 u0020 u0623_u062e_u0630_u0648_u0647 u0020 u0623_u064a_u0636_u0627", 
        "u0639_u064a_u0646 u0020 u0648_u0644_u0627_u0629 u0020 u0627_u062a_u0635_u0641_u0648_u0627 u0020 u0628_u0627_u0644_u062a_u0642_u0648_u0649 u0020 u0648_u0627_u0644_u0635_u0644_u0627_u062d u0020 u0648_u062d_u0633_u0646 u0020 u0627_u0644_u0633_u064a_u0631_u0020", 
        "u0627_u0646_u0634_u0623 u0020 u0627_u0644_u0645_u0633_u0627_u062c_u062f u0020 u0648_u0645_u0647_u062f u0020 u0627_u0644_u0637_u0631_u0642 u0020 u0648_u062d_u0641_u0631 u0020 u0627_u0644_u0623_u0628_u0627_u0631 u0020 u0648_u0627_u0633_u062a_u0635_u0644_u062d u0020 u0627_u0644_u0623_u0631_u0627_u0636_u0649 u0020 u0641_u0639_u0645 u0020 u0627_u0644_u062e_u064a_u0631_u0020", 
        "u0639_u0645_u0644 u0020 u0639_u0644_u0649 u0020 u0646_u0634_u0631 u0020 u0627_u0644_u0625_u0633_u0644_u0627_u0645 u0020 u0641_u0649 u0020 u0627_u0644_u0628_u0644_u0627_u062f u0020 u0627_u0627_u0644_u0645_u0641_u062a_u0648_u062d_u0629 u0020 u0628_u0627_u0644_u0642_u062f_u0648_u0629 u0020 u0648_u0627_u0644_u0645_u0648_u0639_u0638_u0629 u0020 u0627_u0644_u062d_u0633_u0646_u0629 u0020 u002e"
    ]
}