{
    "bounding_box": [
        [
            54, 
            66, 
            611, 
            28
        ], 
        [
            54, 
            100, 
            611, 
            30
        ], 
        [
            54, 
            133, 
            611, 
            26
        ], 
        [
            54, 
            166, 
            611, 
            28
        ], 
        [
            54, 
            204, 
            611, 
            27
        ], 
        [
            54, 
            236, 
            611, 
            28
        ], 
        [
            310, 
            266, 
            355, 
            30
        ], 
        [
            54, 
            307, 
            611, 
            30
        ], 
        [
            54, 
            343, 
            611, 
            28
        ], 
        [
            54, 
            375, 
            611, 
            30
        ], 
        [
            54, 
            410, 
            611, 
            26
        ], 
        [
            54, 
            445, 
            611, 
            27
        ], 
        [
            173, 
            476, 
            492, 
            27
        ], 
        [
            21, 
            502, 
            15, 
            12
        ]
    ], 
    "image_height": 540, 
    "image_width": 720, 
    "transcription": [
        "u0648_u062c_u0627_u0646_u0628 u0020 u0622_u062e_u0631 u0020 u0645_u0646 u0020 u0627_u0644_u062c_u0648_u0627_u0646_u0628 u0020 u0627_u0644_u0633_u0644_u0628_u064a_u0629 u0020 u0647_u0648 u0020 u0647_u062c_u0631_u0629 u0020 u0627_u0644_u0639_u0642_u0648_u0644 u0020 u0648_u0627_u0644_u0623_u062f_u0645_u063a_u0629 u0020 u0627_u0644_u0639_u0631_u0628_u064a_u0629_u0020", 
        "u0627_u0644_u0649 u0020 u0627_u0644_u062e_u0627_u0631_u062c_u002e u0020 u0648_u0642_u062f u0020 u0623_u0638_u0647_u0631_u062a u0020 u0627_u0644_u062f_u0631_u0627_u0633_u0627_u062a u0020 u0627_u0646_u0647 u0020 u064a_u062a_u0645 u0020 u0641_u0642_u062f_u0627_u0646 u0020 u062d_u0648_u0627_u0644_u064a u0020 u0033_u0030_u066a u0020 u0645_u0646_u0020", 
        "u0627_u0644_u0639_u0644_u0645_u0627_u0621 u0020 u0627_u0644_u0645_u0624_u0647_u0644_u064a_u0646 u0020 u062d_u062f_u064a_u062b_u0627 u0020 u0643_u0644 u0020 u0639_u0627_u0645 u0020 u060c u0020 u0037_u0035_u0025 u0020 u0645_u0646_u0647_u0645 u0020 u064a_u0646_u062a_u0642_u0644_u0648_u0646 u0020 u0625_u0644_u0649 u0020 u0627_u0644_u0645_u0645_u0644_u0643_u0629_u0020", 
        "u0627_u0644_u0645_u062a_u062d_u062f_u0629 u0020 u060c u0020 u0648_u0627_u0644_u0648_u0644_u0627_u064a_u0627_u062a u0020 u0627_u0644_u0645_u062a_u062d_u062f_u0629 u0020 u0627_u0644_u0623_u0645_u0631_u064a_u0643_u064a_u0629 u0020 u0648_u0643_u0646_u062f_u0627_u002e_u0643_u0645_u0627 u0020 u0623_u0646 u0020 u0645_u0627 u0020 u064a_u0642_u0627_u0631_u0628 u0020 u0034_u0030 u0020 u066a_u0020", 
        "u0645_u0646 u0020 u0627_u0644_u0637_u0644_u0627_u0628 u0020 u0627_u0644_u0639_u0631_u0628 u0020 u0627_u0644_u0630_u064a_u0646 u0020 u064a_u062f_u0631_u0633_u0648_u0646 u0020 u0641_u064a u0020 u0627_u0644_u062e_u0627_u0631_u062c u0020 u0644_u0627 u0020 u064a_u0631_u063a_u0628_u0648_u0646 u0020 u0628_u0627_u0644_u0639_u0648_u062f_u0629 u0020 u0625_u0644_u0649_u0020", 
        "u0628_u0644_u062f_u0627_u0646_u0647_u0645 u0020 u0628_u0639_u062f u0020 u0627_u0644_u062a_u062e_u0631_u062c u0020 u060c u0020 u0645_u0645_u0627 u0020 u064a_u062c_u0639_u0644 u0020 u0627_u0644_u063a_u0631_u0628 u0020 u0627_u0644_u0645_u0633_u062a_u0641_u064a_u062f u0020 u0627_u0644_u0627_u0648_u0644 u0020 u0645_u0646 u0020 u0627_u0644_u0639_u0644_u0645_u0627_u0621_u0020", 
        "u0627_u0644_u0639_u0631_u0628 u0020 u0627_u0644_u0645_u0624_u0647_u0644_u064a_u0646 u0020 u062a_u0623_u0647_u064a_u0644_u0627 u0020 u0639_u0627_u0644_u064a_u0627 u0020 u0641_u064a u0020 u0643_u0644 u0020 u0639_u0627_u0645_u002e_u000d", 
        "u0648_u064a_u0645_u0643_u0646 u0020 u0645_u0639_u0627_u0644_u062c_u0629 u0020 u0647_u0630_u0647 u0020 u0627_u0644_u062a_u062d_u062f_u064a_u0627_u062a u0020 u0648_u0627_u0644_u0645_u0639_u0648_u0642_u0627_u062a u0020 u0623_u0645_u0627_u0645 u0020 u0627_u0644_u062a_u0639_u0644_u064a_u0645 u0020 u0627_u0644_u0639_u0627_u0644_u064a u0020 u0648_u0627_u0644_u0628_u062d_u062b_u0020", 
        "u0627_u0644_u0639_u0644_u0645_u064a u0020 u0645_u0646 u0020 u062e_u0644_u0627_u0644 u0020 u0632_u064a_u0627_u062f_u0629 u0020 u0627_u0644_u0645_u064a_u0632_u0627_u0646_u064a_u0627_u062a u0020 u0627_u0644_u0645_u062e_u0635_u0635_u0629 u0020 u0644_u0644_u062a_u0639_u0644_u064a_u0645 u0020 u0627_u0644_u0639_u0627_u0644_u064a u0020 u0648_u0627_u0644_u0628_u062d_u062b_u0020", 
        "u0627_u0644_u0639_u0644_u0645_u064a_u060c u0020 u0648_u062a_u062d_u062f_u064a_u062f u0020 u0623_u0648_u0644_u0648_u064a_u0627_u062a u0020 u0644_u0644_u0628_u062d_u0648_u062b u0020 u0630_u0627_u062a u0020 u0627_u0644_u0623_u0647_u0645_u064a_u0629 u0020 u060c u0020 u0648_u0648_u0636_u0639 u0020 u0623_u0647_u062f_u0627_u0641_u0020", 
        "u0627_u0633_u062a_u0631_u0627_u062a_u064a_u062c_u064a_u0629 u0020 u0648_u062e_u0637_u0637 u0020 u0639_u0645_u0644 u0020 u0642_u0627_u0628_u0644_u0629 u0020 u0644_u0644_u062a_u0646_u0641_u064a_u0630 u0020 u060c u0020 u0648_u0625_u0646_u0634_u0627_u0621 u0020 u0642_u0648_u0627_u0639_u062f u0020 u0628_u064a_u0627_u0646_u0627_u062a u0020 u0643_u0627_u0641_u064a_u0629_u0020", 
        "u0648_u0634_u0628_u0643_u0627_u062a u0020 u0631_u0628_u0637 u0020 u0630_u0627_u062a u0020 u0642_u062f_u0631_u0627_u062a u0020 u0639_u0627_u0644_u064a_u0629 u0020 u060c u0020 u0628_u0627_u0644_u0627_u0636_u0627_u0641_u0629 u0020 u0627_u0644_u0649 u0020 u062a_u0634_u062c_u064a_u0639 u0020 u0627_u0644_u0642_u0637_u0627_u0639 u0020 u0627_u0644_u062e_u0627_u0635_u0020", 
        "u0644_u0644_u0645_u0633_u0627_u0647_u0645_u0629 u0020 u0648_u0627_u0644_u0645_u0634_u0627_u0631_u0643_u0629 u0020 u0641_u064a u0020 u0627_u0644_u0628_u062d_u062b u0020 u0627_u0644_u0639_u0644_u0645_u064a u0020 u0648_u0627_u0644_u062a_u0639_u0644_u064a_u0645 u0020 u0627_u0644_u062c_u0627_u0645_u0639_u064a_u002e_u000d", 
        "u0039_u0036"
    ]
}