{
    "bounding_box": [
        [
            285, 
            49, 
            149, 
            36
        ], 
        [
            517, 
            130, 
            158, 
            26
        ], 
        [
            84, 
            164, 
            592, 
            29
        ], 
        [
            157, 
            195, 
            518, 
            28
        ], 
        [
            72, 
            227, 
            603, 
            31
        ], 
        [
            324, 
            261, 
            352, 
            27
        ], 
        [
            81, 
            289, 
            595, 
            34
        ], 
        [
            59, 
            325, 
            617, 
            26
        ], 
        [
            48, 
            356, 
            627, 
            26
        ], 
        [
            103, 
            383, 
            573, 
            28
        ], 
        [
            228, 
            413, 
            448, 
            27
        ]
    ], 
    "image_height": 540, 
    "image_width": 720, 
    "transcription": [
        "u0627_u0644_u0643_u064a_u0631_u0648_u0633_u064a_u0646", 
        "u0645_u064a_u0643_u0627_u0646_u064a_u0643_u064a_u0629 u0020 u0627_u0644_u062a_u0633_u0645_u0645_u003a_u000d", 
        "u0627_u0646 u0020 u062a_u0646_u0627_u0648_u0644 u0020 u0627_u0644_u0643_u064a_u0631_u0648_u0633_u064a_u0646 u0020 u0639_u0646 u0020 u0637_u0631_u064a_u0642 u0020 u0627_u0644_u0641_u0645 u0020 u064a_u0624_u062b_u0631 u0020 u0639_u0644_u0649 u0020 u0645_u062c_u0645_u0648_u0639_u0629 u0020 u0645_u0646 u0020 u0627_u0644_u0627_u0646_u0633_u062c_u0629_u0020", 
        "u0627_u0628_u062a_u062f_u0627_u0621 u0020 u0645_u0646 u0020 u0627_u0644_u0642_u0646_u0627_u0629 u0020 u0627_u0644_u0647_u0636_u0645_u064a_u0629 u0020 u0648_u0627_u0644_u0631_u0626_u062a_u064a_u0646 u0020 u0648_u0627_u0644_u0643_u0628_u062f u0020 u0648_u0627_u0644_u062c_u0647_u0627_u0632 u0020 u0627_u0644_u0639_u0635_u0628_u064a_u002e_u000d", 
        "u0627_u0647_u0645 u0020 u062a_u0623_u062b_u064a_u0631 u0020 u0644_u0644_u0643_u064a_u0631_u0648_u0633_u064a_u0646 u0020 u0639_u0644_u0649 u0020 u0627_u0644_u062c_u0647_u0627_u0632 u0020 u0627_u0644_u062a_u0646_u0641_u0633_u064a u0020 u0627_u0644_u0630_u064a u0020 u0642_u062f u0020 u064a_u0633_u0628_u0628 u0020 u0627_u0644_u0648_u0641_u0627_u0629 u0020 u0646_u062a_u064a_u062c_u0629_u0020", 
        "u0627_u0644_u062a_u0647_u0627_u0628 u0020 u0627_u0644_u0631_u0626_u062a_u064a_u0646 u0020 u0641_u064a u0020 u0645_u0639_u0638_u0645 u0020 u062d_u0627_u0644_u0627_u062a u0020 u0627_u0644_u0648_u0641_u064a_u0627_u062a_u002e_u000d", 
        "u0644_u0642_u062f u0020 u0643_u0627_u0646 u0020 u064a_u0639_u062a_u0642_u062f u0020 u0633_u0627_u0628_u0642_u0627 u0020 u0627_u0646 u0020 u0627_u0644_u062a_u0623_u062b_u064a_u0631 u0020 u0627_u0644_u0645_u0628_u0627_u0634_u0631 u0020 u0639_u0644_u0649 u0020 u0627_u0644_u062c_u0647_u0627_u0632 u0020 u0627_u0644_u0639_u0635_u0628_u064a u0020 u0647_u0648 u0020 u0633_u0628_u0628_u0020", 
        "u0627_u0644_u0648_u0641_u0627_u0629 u0020 u0648_u0627_u0646_u0647 u0020 u064a_u0633_u062a_u0648_u062c_u0628 u0020 u0627_u0632_u0627_u0644_u0629 u0020 u0627_u0644_u0645_u0627_u062f_u0629 u0020 u0627_u0644_u0645_u062a_u0646_u0627_u0648_u0644_u0629 u0020 u0645_u0646 u0020 u0627_u0644_u0642_u0646_u0627_u0629 u0020 u0627_u0644_u0647_u0636_u0645_u064a_u0629 u0020 u0648_u0642_u062f u0020 u062a_u0628_u064a_u0646_u0020", 
        "u0641_u064a_u0645_u0627 u0020 u0628_u0639_u062f u0020 u0627_u0646 u0020 u062a_u062b_u0628_u064a_u0637 u0020 u0627_u0644_u062c_u0647_u0627_u0632 u0020 u0627_u0644_u0639_u0635_u0628_u064a u0020 u064a_u062d_u062f_u062b u0020 u0641_u064a u0020 u0627_u0642_u0644 u0020 u0645_u0646 u0020 u0033_u0030_u0025 u0020 u0645_u0646 u0020 u0627_u0644_u0645_u0635_u0627_u0628_u064a_u0646_u0020", 
        "u0628_u0627_u0644_u062a_u0633_u0645_u0645 u0020 u0648_u0627_u0646_u0647 u0020 u0644_u064a_u0633 u0020 u0648_u0627_u0636_u062d_u0627 u0020 u0627_u0646 u0020 u0643_u0627_u0646 u0020 u0634_u0645_u0648_u0644 u0020 u0627_u0644_u062c_u0647_u0627_u0632 u0020 u0627_u0644_u0639_u0635_u0628_u064a u0020 u0627_u0644_u0645_u0631_u0643_u0632_u064a_u0020", 
        "u0628_u0627_u0644_u062a_u0633_u0645_u0645 u0020 u0645_u0628_u0627_u0634_u0631 u0020 u0627_u0648 u0020 u062b_u0627_u0646_u0648_u064a u0020 u0628_u0633_u0628_u0628 u0020 u062a_u0644_u0641 u0020 u0627_u0644_u0646_u0633_u064a_u062c u0020 u0627_u0644_u0631_u0626_u0648_u064a_u002e"
    ]
}