{
    "bounding_box": [
        [
            44, 
            70, 
            632, 
            33
        ], 
        [
            61, 
            135, 
            578, 
            22
        ], 
        [
            60, 
            159, 
            579, 
            27
        ], 
        [
            161, 
            188, 
            479, 
            27
        ], 
        [
            276, 
            227, 
            364, 
            23
        ], 
        [
            42, 
            261, 
            597, 
            23
        ], 
        [
            489, 
            289, 
            151, 
            24
        ], 
        [
            53, 
            315, 
            586, 
            33
        ], 
        [
            243, 
            350, 
            396, 
            27
        ]
    ], 
    "image_height": 540, 
    "image_width": 720, 
    "transcription": [
        "u062e_u0637_u0648_u0629_u200f_u200f u0020 u0628_u062e_u0637_u0648_u0629_u003a u0020 u0627_u0644_u0625_u0634_u0627_u0631_u0629 u0020 u0625_u0644_u0649 u0020 u0628_u064a_u0627_u0646_u0627_u062a u0020 u0641_u064a u0020 u0648_u0631_u0642_u0629 u0020 u0639_u0645_u0644 u0020 u0623_u062e_u0631_u0649", 
        "u0636_u0645_u0646 u0020 u0639_u0644_u0627_u0645_u0629 u0020 u0627_u0644_u062a_u0628_u0648_u064a_u0628 u0020 u0022_u0627_u0644_u0635_u0641_u062d_u0629 u0020 u0627_u0644_u0631_u0626_u064a_u0633_u064a_u0629_u0022_u060c u0020 u0627_u0646_u0642_u0631 u0020 u0641_u0648_u0642 u0020 u062a_u0646_u0633_u064a_u0642_u0020", 
        "u062b_u0645 u0020 u0641_u0648_u0642 u0020 u0625_u0639_u0627_u062f_u0629 u0020 u062a_u0633_u0645_u064a_u0629 u0020 u0648_u0631_u0642_u0629_u002e u0020 u0648_u0643_u0645_u0627 u0020 u062a_u0630_u0643_u0631_u060c u0020 u0644_u0642_u062f u0020 u0623_u0639_u062f_u062a u0020 u062a_u0633_u0645_u064a_u0629_u0020", 
        "u0639_u0644_u0627_u0645_u0627_u062a u0020 u062a_u0628_u0648_u064a_u0628 u0020 u0623_u0648_u0631_u0627_u0642 u0020 u0627_u0644_u0639_u0645_u0644 u0020 u0641_u064a u0020 u0627_u0644_u062a_u0645_u0627_u0631_u064a_u0646 u0020 u0627_u0644_u0633_u0627_u0628_u0642_u0629_u002e_u000d", 
        "u0627_u0643_u062a_u0628 u0020 u0645_u0644_u062e_u0635 u0020 u062b_u0645 u0020 u0627_u0636_u063a_u0637 u0020 u0639_u0644_u0649 u0020 u0045_u006e_u0074_u0065_u0072_u002e_u000d", 
        "u0627_u062c_u0639_u0644 u0020 u0648_u0631_u0642_u0629_u0031 u0020 u0627_u0644_u0648_u0631_u0642_u0629 u0020 u0627_u0644_u0646_u0634_u0637_u0629_u002e u0020 u0627_u0646_u0642_u0631 u0020 u0641_u0648_u0642 u0020 u062a_u0646_u0633_u064a_u0642 u0020 u062b_u0645 u0020 u0641_u0648_u0642 u0020 u0625_u0639_u0627_u062f_u0629_u0020", 
        "u062a_u0633_u0645_u064a_u0629 u0020 u0648_u0631_u0642_u0629_u002e_u000d", 
        "u0627_u0643_u062a_u0628 u0020 u0627_u0644_u0645_u0635_u0627_u0631_u064a_u0641 u0020 u062b_u0645 u0020 u0627_u0636_u063a_u0637 u0020 u0639_u0644_u0649 u0020 u0045_u006e_u0074_u0065_u0072_u002e u0020 u0644_u0642_u062f u0020 u062a_u0645_u062a u0020 u0627_u0644_u0622_u0646 u0020 u0625_u0639_u0627_u062f_u0629_u0020", 
        "u062a_u0633_u0645_u064a_u0629 u0020 u0643_u0644_u062a_u0627 u0020 u0639_u0644_u0627_u0645_u062a_u064a u0020 u062a_u0628_u0648_u064a_u0628 u0020 u0648_u0631_u0642_u062a_u064a u0020 u0627_u0644_u0639_u0645_u0644_u002e"
    ]
}