{
    "bounding_box": [
        [
            66, 
            20, 
            618, 
            37
        ], 
        [
            307, 
            150, 
            120, 
            30
        ], 
        [
            293, 
            192, 
            148, 
            29
        ], 
        [
            544, 
            231, 
            122, 
            30
        ], 
        [
            91, 
            264, 
            550, 
            36
        ], 
        [
            85, 
            303, 
            556, 
            35
        ], 
        [
            41, 
            340, 
            600, 
            33
        ], 
        [
            93, 
            382, 
            548, 
            33
        ], 
        [
            62, 
            418, 
            580, 
            35
        ], 
        [
            486, 
            462, 
            155, 
            26
        ]
    ], 
    "image_height": 540, 
    "image_width": 720, 
    "transcription": [
        "u0627_u0644_u0645_u064a_u062b_u0627_u0642 u0020 u0627_u0644_u0625_u0633_u0644_u0627_u0645_u064a u0020 u0627_u0644_u0639_u0627_u0644_u0645_u064a u0020 u0644_u0644_u0623_u062e_u0644_u0627_u0642_u064a_u0627_u062a u0020 u0627_u0644_u0637_u0628_u064a_u0629 u0020 u0648_u0627_u0644_u0635_u062d_u064a_u0629_u000b", 
        "u0627_u0644_u0628_u0627_u0628 u0020 u0627_u0644_u0623_u0648_u0644_u000d", 
        "u0623_u062e_u0644_u0627_u0642 u0020 u0627_u0644_u0637_u0628_u064a_u0628_u000d", 
        "u0627_u0644_u0645_u0627_u062f_u0629 u0020 u0028 u0020 u0031_u0028_u000d", 
        "u0639_u0644_u0649 u0020 u0627_u0644_u0637_u0628_u064a_u0628 u0020 u0623_u0646 u0020 u064a_u0643_u0648_u0646 u0020 u0645_u062e_u0644_u0635_u0627_u064b u0020 u0641_u064a u0020 u0639_u0645_u0644_u0647_u060c u0020 u0645_u062a_u062d_u0644_u0651_u0650_u064a_u0627_u064b u0020 u0628_u0645_u0643_u0627_u0631_u0645_u0020", 
        "u0627_u0644_u0623_u062e_u0644_u0627_u0642_u060c u0020 u0645_u0639_u062a_u0631_u0641_u0627_u064b u0020 u0628_u0627_u0644_u062c_u0645_u064a_u0644 u0020 u0644_u0645_u0639_u0644_u0651_u0645_u064a_u0647 u0020 u0648_u0645_u062f_u0631_u0651_u0650_u0628_u064a_u0647_u060c u0020 u0648_u0623_u0646 u0020 u0644_u0627 u0020 u064a_u0643_u062a_u0645_u0020", 
        "u0639_u0644_u0645_u0627_u064b_u060c u0020 u0648_u0644_u0627 u0020 u064a_u062a_u062c_u0627_u0647_u0644 u0020 u062c_u0647_u062f u0020 u0627_u0644_u0622_u062e_u0631_u064a_u0646_u002e u0020 u0643_u0645_u0627 u0020 u0623_u0646 u0020 u0639_u0644_u064a_u0647 u0020 u0623_u0646 u0020 u064a_u0643_u0648_u0646 u0020 u0642_u062f_u0648_u0629_u0020", 
        "u0641_u064a u0020 u0631_u0639_u0627_u064a_u0629 u0020 u0635_u062d_u062a_u0647 u0020 u0648_u0627_u0644_u0642_u064a_u0627_u0645 u0020 u0628_u062d_u0642 u0020 u0628_u062f_u0646_u0647 u0020 u0648_u0645_u0638_u0647_u0631_u0647 u0020 u0627_u0644_u0639_u0627_u0645_u060c u0020 u0648_u0623_u0646_u0020", 
        "u064a_u062a_u062c_u0646_u0628 u0020 u0643_u0644_u0651_u064e u0020 u0645_u0627 u0020 u0645_u0646 u0020 u0634_u0623_u0646_u0647 u0020 u0623_u0646 u0020 u064a_u064f_u062e_u0650_u0644_u0651_u064e u0020 u0628_u0627_u062d_u062a_u0631_u0627_u0645 u0020 u0627_u0644_u0645_u0647_u0646_u0629 u0020 u062f_u0627_u062e_u0644 u0020 u0645_u0643_u0627_u0646_u0020", 
        "u0627_u0644_u0639_u0645_u0644 u0020 u0648_u062e_u0627_u0631_u062c_u0647_u002e"
    ]
}