{
    "bounding_box": [
        [
            121, 
            43, 
            556, 
            25
        ], 
        [
            37, 
            166, 
            640, 
            21
        ], 
        [
            433, 
            226, 
            244, 
            24
        ], 
        [
            670, 
            311, 
            6, 
            0
        ], 
        [
            44, 
            341, 
            616, 
            28
        ], 
        [
            93, 
            411, 
            527, 
            33
        ]
    ], 
    "image_height": 540, 
    "image_width": 720, 
    "transcription": [
        "u0648_u064a_u0628_u0642_u0649 u0020 u0627_u0644_u0633_u0624_u0627_u0644 u0020 u0627_u0644_u0623_u0633_u0627_u0633_u064a u0020 u0648_u0647_u0648 u0020 u0645_u0627 u0020 u0647_u064a u0020 u0627_u0644_u0645_u062d_u062f_u062f_u0627_u062a u0020 u0627_u0644_u0623_u0633_u0627_u0633_u064a_u0629 u0020 u0644_u0645_u062f_u064a_u0648_u0646_u064a_u0629 u0020 u0627_u0644_u062d_u0643_u0648_u0645_u0629_u061f_u000d", 
        "u0648_u0644_u0644_u0625_u062c_u0627_u0628_u0629 u0020 u0639_u0644_u0649 u0020 u0647_u0630_u0627 u0020 u0627_u0644_u0633_u0624_u0627_u0644 u0020 u0641_u0625_u0646 u0020 u0627_u0644_u0645_u0639_u0627_u062f_u0644_u0629 u0020 u0627_u0644_u0645_u062a_u0639_u0627_u0631_u0641 u0020 u0639_u0644_u064a_u0647_u0627 u0020 u0644_u062f_u0631_u0627_u0633_u0629 u0020 u062a_u0637_u0648_u0631 u0020 u0648_u0645_u062d_u062f_u062f_u0627_u062a_u0020", 
        "u0645_u062f_u064a_u0648_u0646_u064a_u0629 u0020 u0627_u0644_u062d_u0643_u0648_u0645_u0629 u0020 u062a_u062a_u0645_u062b_u0644 u0020 u0643_u0627_u0644_u062a_u0627_u0644_u064a_u003a u0020 u000d", 
        "u00a0", 
        "u0627_u0644_u0646_u0645_u0648 u0020 u0641_u064a u0020 u0645_u062f_u064a_u0648_u0646_u064a_u0629 u0020 u0627_u0644_u062d_u0643_u0648_u0645_u0629 u0020 u003d u0020 u0627_u0644_u0639_u062c_u0632 u0020 u0627_u0644_u0623_u0633_u0627_u0633_u064a u0020 u002f u0020 u062f_u064a_u0646 u0020 u0627_u0644_u062d_u0643_u0648_u0645_u0629 u0020 u0627_u0644_u0627_u0633_u0645_u064a_u0020", 
        "u002b u0020 u0645_u0639_u062f_u0644 u0020 u0627_u0644_u0641_u0627_u0626_u062f_u0629 u0020 u0627_u0644_u0627_u0633_u0645_u064a u0020 u2013 u0020 u0645_u0639_u062f_u0644 u0020 u0646_u0645_u0648 u0020 u0627_u0644_u0646_u0627_u062a_u062c u0020 u0627_u0644_u0645_u062d_u0644_u064a u0020 u0627_u0644_u0625_u062c_u0645_u0627_u0644_u064a"
    ]
}