{
    "bounding_box": [
        [
            190, 
            49, 
            339, 
            42
        ], 
        [
            543, 
            138, 
            104, 
            25
        ], 
        [
            152, 
            180, 
            497, 
            33
        ], 
        [
            139, 
            226, 
            510, 
            34
        ], 
        [
            402, 
            272, 
            247, 
            31
        ], 
        [
            42, 
            318, 
            607, 
            34
        ], 
        [
            150, 
            365, 
            499, 
            33
        ]
    ], 
    "image_height": 540, 
    "image_width": 720, 
    "transcription": [
        "u0627_u0644_u0642_u0636_u0627_u0621 u0020 u0639_u0644_u0649 u0020 u0647_u062f_u0631 u0020 u0627_u0644_u0644_u0648_u0627_u0632_u0645", 
        "u062a_u0648_u0635_u064a_u0627_u062a_u003a_u000d", 
        "u064a_u062c_u0628 u0020 u0627_u0644_u062d_u0631_u0635 u0020 u0639_u0644_u0649 u0020 u0627_u0644_u062d_u0635_u0648_u0644 u0020 u0639_u0644_u0649 u0020 u0623_u0641_u0636_u0644 u0020 u0627_u0644_u0623_u0633_u0639_u0627_u0631_u002e_u000d", 
        "u064a_u062c_u0628 u0020 u062d_u0635_u0631 u0020 u0627_u0644_u0643_u0645_u064a_u0627_u062a u0020 u0639_u0646_u062f u0020 u0627_u0644_u0625_u0633_u062a_u0644_u0627_u0645 u0020 u0644_u0644_u062a_u0623_u0643_u062f u0020 u0645_u0646 u0020 u062f_u0642_u062a_u0647_u0627_u002e_u000d", 
        "u064a_u062c_u0628 u0020 u0627_u0644_u062a_u0623_u0643_u062f u0020 u0645_u0646 u0020 u062c_u0648_u062f_u062a_u0647_u0627_u002e_u000d", 
        "u064a_u062c_u0628 u0020 u0635_u0631_u0641 u0020 u0627_u0644_u0643_u0645_u064a_u0627_u062a u0020 u0627_u0644_u0645_u0646_u0627_u0633_u0628_u0629 u0020 u0648_u0628_u0634_u0643_u0644 u0020 u062f_u0642_u064a_u0642 u0020 u0644_u062e_u0637_u0648_u0637 u0020 u0627_u0644_u0625_u0646_u062a_u0627_u062c_u002e_u000d", 
        "u064a_u0646_u0628_u063a_u064a u0020 u0625_u0633_u062a_u0639_u0627_u062f_u0629 u0020 u0627_u0644_u0643_u0645_u064a_u0627_u062a u0020 u0627_u0644_u0632_u0627_u0626_u062f_u0629 u0020 u0628_u0639_u062f u0020 u0625_u0646_u062a_u0647_u0627_u0621 u0020 u0627_u0644_u0637_u0644_u0628_u064a_u0629_u002e"
    ]
}