{
    "bounding_box": [
        [
            316, 
            81, 
            49, 
            16
        ], 
        [
            113, 
            109, 
            455, 
            23
        ], 
        [
            96, 
            136, 
            490, 
            29
        ], 
        [
            88, 
            197, 
            530, 
            28
        ], 
        [
            103, 
            226, 
            515, 
            29
        ], 
        [
            41, 
            257, 
            577, 
            29
        ], 
        [
            67, 
            287, 
            552, 
            29
        ], 
        [
            61, 
            317, 
            557, 
            29
        ], 
        [
            86, 
            348, 
            532, 
            26
        ], 
        [
            54, 
            379, 
            564, 
            28
        ], 
        [
            83, 
            408, 
            535, 
            27
        ], 
        [
            45, 
            439, 
            573, 
            28
        ], 
        [
            291, 
            468, 
            327, 
            29
        ]
    ], 
    "image_height": 540, 
    "image_width": 720, 
    "transcription": [
        "u0046_u004f_u0042_u000b", 
        "u0028_u002e_u002e_u002e_u004e_u0061_u006d_u0065_u0064 u0020 u0070_u006f_u0072_u0074 u0020 u006f_u0066 u0020 u0073_u0068_u0069_u0070_u006d_u0065_u006e_u0074_u0029 u0020 u0046_u0072_u0065_u0065 u0020 u004f_u006e u0020 u0042_u006f_u0061_u0072_u0064_u000b", 
        "u062a_u062d_u0648_u064a_u0644_u200c u0020 u0643_u0627_u0644_u0627 u0020 u0631_u0648_u064a_u200c u0020 u0639_u0631_u0634_u0647_u200c u0020 u0643_u0634_u062a_u064a_u200c u0020 u0020_u0028_u002e_u002e_u002e u0020 u0646_u0627_u0645_u200c u0020 u0628_u0646_u062f_u0631 u0020 u0628_u0627_u0631_u06af_u064a_u0631_u064a_u200c_u0029_u000b", 
        "u062a_u062d_u0648_u064a_u0644_u200c u0020 u0643_u0627_u0644_u0627 u0020 u0631_u0648_u064a_u200c u0020 u0639_u0631_u0634_u0647_u200c u0020 u0643_u0634_u062a_u064a_u200c_u00bb u0020 u0628_u062f_u064a_u0646_u200c u0020 u0645_u0639_u0646_u0627_u0633_u062a_u200c u0020 u0643_u0647_u200c u0020 u0641_u0631_u0648_u0634_u0646_u062f_u0647_u200c_u0020", 
        "u062a_u062d_u0648_u064a_u0644_u200c u0020 u0643_u0627_u0644_u0627 u0020 u0631_u0627 u0020 u0647_u0646_u06af_u0627_u0645_u064a_u200c u0020 u0628_u0647_u200c u0020 u0627_u0646_u062c_u0627_u0645_u200c u0020 u0645_u064a_u200c_u0631_u0633_u0627_u0646_u062f u0020 u0643_u0647_u200c u0020 u0643_u0627_u0644_u0627 u0020 u062f_u0631 u0020 u0628_u0646_u062f_u0631_u0020", 
        "u0628_u0627_u0631_u06af_u064a_u0631_u064a_u200c u0020 u062a_u0639_u064a_u064a_u0646_u200c u0020 u0634_u062f_u0647_u200c_u060c u0020 u0627_u0632 u0020 u0644_u0628_u0647_u200c u0020 u0643_u0634_u062a_u064a_u200c u0020 u0639_u0628_u0648_u0631 u0020 u0643_u0646_u062f_u002e u0020 u0628_u0647_u200c u0020 u0639_u0628_u0627_u0631_u062a_u064a_u200c u0020 u062e_u0631_u064a_u062f_u0627_u0631_u0020", 
        "u0627_u0632 u0020 u0627_u064a_u0646_u200c u0020 u0644_u062d_u0638_u0647_u200c u0020 u0628_u0647_u200c u0020 u0628_u0639_u062f u0020 u0628_u0627_u064a_u062f u0020 u0643_u0644_u064a_u0629_u200c u0020 u0645_u062e_u0627_u0631_u062c_u200c u0020 u0643_u0627_u0644_u0627 u0020 u0648 u0020 u062e_u0637_u0631_u0647_u0627_u064a_u200c u0020 u0627_u0632 u0020 u0645_u064a_u0627_u0646_u200c_u0020", 
        "u0631_u0641_u062a_u0646_u200c u0020 u064a_u0627 u0020 u0622_u0633_u064a_u0628_u200c u0020 u062f_u064a_u062f_u0646_u200c u0020 u0622_u0646_u200c u0020 u0631_u0627 u0020 u062a_u0642_u0628_u0644_u200c u0020 u0643_u0646_u062f_u002e u0020 u0627_u0635_u0637_u0644_u0627_u062d_u200c u0020 u0020_u0046_u004f_u0042 u0020 u0020_u0645_u0633_u062a_u0644_u0632_u0645_u200c_u0020", 
        "u0622_u0646_u200c u0020 u0627_u0633_u062a_u200c u0020 u0643_u0647_u200c u0020 u0641_u0631_u0648_u0634_u0646_u062f_u0647_u200c u0020 u0643_u0627_u0644_u0627 u0020 u0631_u0627 u0020 u062c_u0647_u062a_u200c u0020 u0635_u062f_u0648_u0631 u0020 u062a_u0631_u062e_u064a_u0635_u200c u0020 u0643_u0646_u062f_u002e u0020 u0627_u064a_u0646_u200c_u0020", 
        "u0627_u0635_u0637_u0644_u0627_u062d_u200c u0020 u0641_u0642_u0637_u200c u0020 u0628_u0631_u0627_u064a_u200c u0020 u062d_u0645_u0644_u200c_u0648_u0646_u0642_u0644_u200c u0020 u0627_u0632 u0020 u0637_u0631_u064a_u0642_u200c u0020 u062f_u0631_u064a_u0627 u0020 u064a_u0627 u0020 u0622_u0628_u0631_u0627_u0647_u0647_u0627_u064a_u200c u0020 u062f_u0627_u062e_u0644_u064a_u200c_u0020", 
        "u0643_u0627_u0631_u0628_u0631_u062f u0020 u062f_u0627_u0631_u062f_u002e u0020 u0627_u06af_u0631 u0020 u0637_u0631_u0641_u064a_u0646_u200c u0020 u0642_u0635_u062f u0020 u062a_u062d_u0648_u064a_u0644_u200c u0020 u0643_u0627_u0644_u0627 u0020 u064a_u0627 u0020 u0639_u0628_u0648_u0631 u0020 u0622_u0646_u200c u0020 u0627_u0632 u0020 u0644_u0628_u0647_u200c_u0020", 
        "u0643_u0634_u062a_u064a_u200c u0020 u0631_u0627 u0020 u0646_u062f_u0627_u0631_u0646_u062f_u060c u0020 u0628_u0627_u064a_u062f u0020 u0627_u0632 u0020 u0627_u0635_u0637_u0644_u0627_u062d_u200c u0020 u00ab_u062a_u062d_u0648_u064a_u0644_u200c u0020 u0643_u0627_u0644_u0627 u0020 u062f_u0631 u0020 u0645_u062d_u0644_u200c u0020 u0645_u0642_u0631_u0631 u0020 u0628_u0647_u200c_u0020", 
        "u062d_u0645_u0644_u200c u0020 u0643_u0646_u0646_u062f_u0647_u200c_u00bb u0020 u0020_u0028_u0046_u0041_u0043_u0029 u0020 u0020_u0627_u0633_u062a_u0641_u0627_u062f_u0647_u200c u0020 u0634_u0648_u062f_u002e"
    ]
}