{
    "bounding_box": [
        [
            271, 
            27, 
            214, 
            18
        ], 
        [
            277, 
            49, 
            209, 
            22
        ], 
        [
            323, 
            75, 
            162, 
            18
        ], 
        [
            351, 
            99, 
            134, 
            18
        ], 
        [
            314, 
            121, 
            171, 
            20
        ], 
        [
            366, 
            147, 
            120, 
            18
        ], 
        [
            280, 
            171, 
            205, 
            18
        ], 
        [
            352, 
            195, 
            134, 
            18
        ], 
        [
            219, 
            218, 
            267, 
            20
        ], 
        [
            271, 
            265, 
            215, 
            22
        ], 
        [
            62, 
            296, 
            423, 
            19
        ], 
        [
            423, 
            320, 
            62, 
            17
        ], 
        [
            52, 
            375, 
            433, 
            20
        ], 
        [
            417, 
            399, 
            69, 
            18
        ], 
        [
            72, 
            425, 
            413, 
            20
        ], 
        [
            45, 
            449, 
            440, 
            22
        ], 
        [
            28, 
            474, 
            458, 
            19
        ], 
        [
            186, 
            498, 
            299, 
            19
        ], 
        [
            309, 
            528, 
            177, 
            17
        ], 
        [
            127, 
            553, 
            358, 
            20
        ], 
        [
            96, 
            581, 
            389, 
            22
        ], 
        [
            22, 
            609, 
            463, 
            22
        ], 
        [
            390, 
            637, 
            95, 
            18
        ], 
        [
            48, 
            656, 
            437, 
            27
        ]
    ], 
    "image_height": 720, 
    "image_width": 540, 
    "transcription": [
        "u0627_u062c_u0632_u0627_u0621 u0020 u0627_u0644_u0643_u0627_u0645_u064a_u0631_u0627 u0020 u0627_u0644_u0631_u0626_u064a_u0633_u064a_u0629 u0020 u0648_u0627_u0644_u062b_u0627_u0646_u0648_u064a_u0629 u0020 u000b", 
        "u0623_u0646_u0648_u0627_u0639 u0020 u0627_u0644_u0641_u064a_u0644_u0645 u0020 u0627_u0644_u062d_u0633_u0627_u0633 u0020 u0648_u0627_u0633_u062a_u062e_u062f_u0627_u0645_u0627_u062a_u0647_u000b", 
        "u0639_u062f_u0633_u0627_u062a u0020 u0648_u0641_u0644_u0627_u062a_u0631 u0020 u0627_u0644_u062a_u0635_u0648_u064a_u0631 u0020 u000b", 
        "u0639_u0645_u0642 u0020 u0645_u062c_u0627_u0644 u0020 u0627_u0644_u0635_u0648_u0631_u0629 u0020 u000b", 
        "u062a_u0635_u0648_u064a_u0631 u0020 u0627_u0644_u0623_u062c_u0633_u0627_u0645 u0020 u0627_u0644_u0645_u062a_u062d_u0631_u0643_u0629 u0020 u000b", 
        "u062a_u0635_u0648_u064a_u0631 u0020 u0627_u0644_u0628_u0648_u0631_u062a_u0631_u064a_u0629 u0020 u000b", 
        "u0627_u0644_u062a_u0635_u0648_u064a_u0631 u0020 u0628_u0627_u0644_u0627_u0634_u0639_u0629 u0020 u062a_u062d_u062a u0020 u0627_u0644_u062d_u0645_u0631_u0627_u0621 u0020 u000b", 
        "u0627_u0644_u062a_u0635_u0648_u064a_u0631 u0020 u062a_u062d_u062a u0020 u0627_u0644_u0645_u0627_u0621 u0020 u000b", 
        "u0645_u0635_u0637_u0644_u062d_u0627_u062a u0020 u0631_u0626_u064a_u0633_u064a_u0629 u0020 u0641_u0649 u0020 u0627_u0644_u062a_u0635_u0648_u064a_u0631 u0020 u0627_u0644_u0636_u0648_u0626_u064a u0020 u000b", 
        "u0623_u0648_u0644_u0627_u064b_u003a u0020 u0627_u0644_u0636_u0648_u0621 u0020 u0648_u0627_u0644_u062a_u0635_u0648_u064a_u0631 u0020 u0627_u0644_u0636_u0648_u0626_u064a u0020 u0627_u000d", 
        "u0644_u0636_u0648_u0621 u0020 u0627_u0633_u0627_u0633 u0020 u0639_u0645_u0644_u064a_u0629 u0020 u0627_u0644_u062a_u0635_u0648_u064a_u0631 u0020 u0627_u0644_u0636_u0648_u0626_u064a u0020 u0648_u0628_u0644_u0627 u0020 u0636_u0648_u0621 u0020 u0644_u0627_u064a_u0645_u0643_u0646 u0020 u0627_u0646_u062c_u0627_u0632 u0020 u0647_u0630_u0629_u0020", 
        "u0627_u0644_u0639_u0645_u0644_u064a_u0629 u0020 u0030_u000d", 
        "u0627_u0644_u0636_u0648_u0621 u0020 u0647_u0648 u0020 u0645_u0648_u062c_u0627_u062a u0020 u0645_u0631_u0626_u064a_u0629 u0020 u064a_u0642_u0639 u0020 u0641_u064a u0020 u0642_u0627_u0626_u0645_u0629 u0020 u0627_u0646_u0648_u0627_u0639 u0020 u0645_u0646 u0020 u0627_u0644_u0645_u0648_u062c_u0627_u062a u0020 u0627_u0644_u062a_u0649 u0020 u062a_u063a_u0645_u0631_u0020", 
        "u0627_u0644_u0643_u0648_u0646 u0020 u0645_u062b_u0644_u000d", 
        "u0020_u0627_u0644_u0627_u0634_u0639_u0629 u0020 u0648_u0627_u0644_u0645_u0648_u062c_u0627_u062a u0020 u0627_u0644_u0643_u0648_u0646_u064a_u0629 u0020 u0623_u0648 u0020 u0627_u0634_u0639_u0629 u0020 u0623_u0648 u0020 u0645_u0648_u062c_u0627_u062a u0020 u062c_u0627_u0645_u0627 u0020 u0648_u0627_u0634_u0639_u0629 u0020 u0627_u0643_u0633_u0020", 
        "u0648_u0627_u0644_u0627_u0634_u0639_u0629 u0020 u0623_u0648 u0020 u0627_u0644_u0645_u0648_u062c_u0627_u062a u0020 u0641_u0648_u0642 u0020 u0627_u0644_u0628_u0646_u0641_u0633_u062c_u064a_u0629 u0020 u062b_u0645 u0020 u0645_u0648_u062c_u0627_u062a u0020 u0627_u0644_u0636_u0648_u0621 u0020 u0627_u0644_u0645_u0631_u0626_u064a u0020 u0648_u064a_u0644_u064a_u0629_u0020", 
        "u0645_u0628_u0627_u0634_u0631_u0629 u0020 u0645_u0648_u062c_u0627_u062a u0020 u0627_u0644_u0627_u0634_u0639_u0629 u0020 u062a_u062d_u062a u0020 u0627_u0644_u062d_u0645_u0631_u0627_u0621 u0020 u0648_u0645_u0648_u062c_u0627_u062a u0020 u0627_u0644_u0627_u0634_u0639_u0629 u0020 u0627_u0644_u0643_u0647_u0631_u0648_u0645_u063a_u0646_u0637_u064a_u0633_u064a_u0629_u0020", 
        "u0648_u0645_u0648_u062c_u0627_u062a u0020 u0627_u0644_u0631_u0627_u062f_u064a_u0648 u0020 u0648_u0645_u0648_u062c_u0627_u062a u0020 u0627_u0644_u0630_u0628_u0630_u0628_u0627_u062a u0020 u0627_u0644_u0643_u0647_u0631_u0628_u0627_u0626_u064a_u0629_u002e_u000d", 
        "u0648_u0647_u0646_u0627_u0643 u0020 u0646_u0648_u0639_u064a_u0646 u0020 u0645_u0646 u0020 u0627_u0644_u0636_u0648_u0621 u0020 u003a_u000d", 
        "u0636_u0648_u0621 u0020 u0627_u0644_u0646_u0647_u0627_u0631 u0020 u0623_u0649 u0020 u0636_u0648_u0621 u0020 u0627_u0644_u0634_u0645_u0633 u0020 u0627_u0644_u0645_u0628_u0627_u0634_u0631 u0020 u0627_u0648 u0020 u063a_u064a_u0631 u0020 u0627_u0644_u0645_u0628_u0627_u0634_u0631 u0020 u000d", 
        "u0627_u0644_u0636_u0648_u0621 u0020 u0627_u0644_u0635_u0646_u0627_u0639_u064a u0020 u0627_u0644_u0630_u0649 u0020 u0646_u0646_u062a_u062c_u0647 u0020 u0628_u0627_u0644_u0637_u0631_u0642 u0020 u0627_u0644_u0643_u064a_u0645_u064a_u0627_u0626_u064a_u0629 u0020 u0623_u0648 u0020 u0627_u0644_u0643_u0647_u0631_u0628_u0627_u0626_u064a_u0629_u000d", 
        "u0648_u0627_u0644_u0636_u0648_u0621 u0020 u064a_u062a_u0643_u0648_u0646 u0020 u0645_u0646 u0020 u0633_u0628_u0639_u0629 u0020 u0627_u0644_u0648_u0627_u0646 u0020 u0636_u0648_u0626_u064a_u0629 u0020 u062a_u0645_u062a_u062f u0020 u0627_u0637_u0648_u0627_u0644_u0647_u0627 u0020 u0645_u0646 u0020 u0034_u0030_u0030 u0020 u0627_u0644_u0649 u0020 u0037_u0030_u0030_u0020", 
        "u0645_u064a_u0643_u0631_u0648_u0646 u0020 u0648_u0647_u064a u0020 u000d", 
        "u0627_u0644_u0628_u0646_u0641_u0633_u062c_u0649 u0020 u060c u0020 u0627_u0644_u0646_u064a_u0644_u0649 u0020 u060c u0020 u0627_u0644_u0627_u0632_u0631_u0642_u060c u0020 u0627_u0644_u0627_u062e_u0636_u0631 u0020 u060c u0020 u0627_u0644_u0627_u0635_u0641_u0631 u0020 u060c u0020 u0627_u0644_u0628_u0631_u062a_u0642_u0627_u0644_u0649 u0020 u0648_u0627_u0644_u0627_u062d_u0645_u0631 u0020 u000d"
    ]
}