{
    "bounding_box": [
        [
            298, 
            31, 
            74, 
            24
        ], 
        [
            471, 
            27, 
            147, 
            28
        ], 
        [
            129, 
            31, 
            52, 
            24
        ], 
        [
            176, 
            80, 
            382, 
            35
        ], 
        [
            71, 
            142, 
            617, 
            36
        ], 
        [
            59, 
            184, 
            629, 
            37
        ], 
        [
            348, 
            227, 
            340, 
            37
        ], 
        [
            645, 
            289, 
            51, 
            33
        ], 
        [
            424, 
            329, 
            273, 
            33
        ], 
        [
            576, 
            370, 
            121, 
            30
        ], 
        [
            51, 
            404, 
            637, 
            34
        ], 
        [
            314, 
            444, 
            383, 
            33
        ], 
        [
            179, 
            481, 
            509, 
            34
        ]
    ], 
    "image_height": 540, 
    "image_width": 720, 
    "transcription": [
        "u0635 u0020 u0034_u0036", 
        "u0643_u062a_u0627_u0628 u0020 u0627_u0644_u0637_u0627_u0644_u0628 u0020 u0032", 
        "u0633 u0020 u0038", 
        "u062e_u0637_u0629_u002f_u0627_u0633_u062a_u0631_u0627_u062a_u064a_u062c_u064a_u0629 u0020 u0627_u0644_u0628_u062d_u062b u0020 u0639_u0646 u0020 u0627_u0644_u0646_u0645_u0637", 
        "u0648_u062c_u062f u0020 u0641_u0631_u064a_u062f u0020 u0038 u0020 u0635_u062f_u0641_u0627_u062a u0020 u0641_u064a u0020 u0627_u0644_u064a_u0648_u0645 u0020 u0627_u0644_u0623_u0648_u0644 u0020 u002c u0020 u0648 u0020 u0032_u0030 u0020 u0641_u064a u0020 u0627_u0644_u064a_u0648_u0645_u0020", 
        "u0627_u0644_u062b_u0627_u0646_u064a u0020 u002c u0020 u0648 u0020 u0033_u0032 u0020 u0641_u064a u0020 u0627_u0644_u064a_u0648_u0645 u0020 u0627_u0644_u062b_u0627_u0644_u062b u0020 u002c u0020 u0625_u0630_u0627 u0020 u0627_u0633_u062a_u0645_u0631 u0020 u0627_u0644_u0646_u0645_u0637 u0020 u002c u0020 u0641_u0643_u0645_u0020", 
        "u064a_u062c_u062f u0020 u0641_u0631_u064a_u062f u0020 u0641_u064a u0020 u0627_u0644_u064a_u0648_u0645 u0020 u0627_u0644_u062e_u0627_u0645_u0633 u0020 u061f_u0020", 
        "u0623_u0641_u0647_u0645_u000d", 
        "u062a_u0639_u0631_u064a_u0641 u0020 u0645_u0639_u0646_u0649 u0020 u0643_u0644_u0645_u0629 u0020 u0635_u062f_u0641_u0627_u062a_u000d", 
        "u0627_u0644_u0645_u0639_u0637_u064a_u0627_u062a u0020 u003a_u000d", 
        "u002d u0020 u0648_u062c_u062f u0020 u0641_u0631_u064a_u062f u0020 u0038 u0020 u0635_u062f_u0641_u0627_u062a u0020 u0641_u064a u0020 u0627_u0644_u064a_u0648_u0645 u0020 u0627_u0644_u0623_u0648_u0644 u0020 u060c u0020 u0648 u0020 u0032_u0030 u0020 u0635_u062f_u0641_u0629 u0020 u0641_u064a u0020 u0627_u0644_u064a_u0648_u0645_u0020", 
        "u0627_u0644_u062b_u0627_u0646_u064a u0020 u002c u0020 u0648 u0020 u0033_u0032 u0020 u0635_u062f_u0641_u0629 u0020 u0641_u064a u0020 u0627_u0644_u064a_u0648_u0645 u0020 u0627_u0644_u062b_u0627_u0644_u062b_u000d", 
        "u0627_u0644_u0645_u0637_u0644_u0648_u0628 u0020 u003a u0020 u0643_u0645 u0020 u0635_u062f_u0641_u0629 u0020 u064a_u062c_u062f u0020 u0641_u0631_u064a_u062f u0020 u0641_u064a u0020 u0627_u0644_u064a_u0648_u0645 u0020 u0627_u0644_u062e_u0627_u0645_u0633 u0020 u061f"
    ]
}