{
    "bounding_box": [
        [
            18, 
            40, 
            654, 
            45
        ], 
        [
            18, 
            91, 
            669, 
            47
        ], 
        [
            18, 
            144, 
            669, 
            47
        ], 
        [
            18, 
            197, 
            669, 
            47
        ], 
        [
            18, 
            249, 
            669, 
            46
        ], 
        [
            18, 
            302, 
            669, 
            47
        ], 
        [
            18, 
            356, 
            669, 
            45
        ], 
        [
            18, 
            409, 
            669, 
            45
        ], 
        [
            553, 
            462, 
            135, 
            40
        ]
    ], 
    "image_height": 540, 
    "image_width": 720, 
    "transcription": [
        "u0641_u0627_u062c_u062a_u0645_u0639_u062a u0020 u0639_u0644_u064a_u0647_u0645 u0020 u062e_u0637_u0627_u064a_u0627_u0647_u0645 u0020 u0648_u062f_u0639_u0648_u0629 u0020 u0646_u0628_u064a_u0647_u0645_u060c_u00a0_u0648_u0639_u0646_u062f_u0020", 
        "u0630_u0644_u0643 u0020 u0623_u0645_u0631_u0647 u0020 u0627_u0644_u0644_u0647 u0020 u062a_u0639_u0627_u0644_u0649 u0020 u0623_u0646 u0020 u064a_u0635_u0646_u0639 u0020 u0627_u0644_u0641_u0644_u0643_u061b u0020 u0648_u0647_u064a_u0020", 
        "u0627_u0644_u0633_u0641_u064a_u0646_u0629 u0020 u0627_u0644_u0639_u0638_u064a_u0645_u0629 u0020 u0627_u0644_u062a_u064a u0020 u0644_u0645 u0020 u064a_u0643_u0646 u0020 u0644_u0647_u0627 u0020 u0646_u0638_u064a_u0631 u0020 u0642_u0628_u0644_u0647_u0627_u060c_u0020", 
        "u0648_u0644_u0627 u0020 u064a_u0643_u0648_u0646 u0020 u0628_u0639_u062f_u0647_u0627 u0020 u0645_u062b_u0644_u0647_u0627_u002e u0020 u0648_u0642_u062f_u0645 u0020 u0627_u0644_u0644_u0647 u0020 u062a_u0639_u0627_u0644_u0649 u0020 u0625_u0644_u064a_u0647 u0020 u0623_u0646_u0647_u003a_u0020", 
        "u0625_u0630_u0627 u0020 u062c_u0627_u0621 u0020 u0623_u0645_u0631_u0647_u060c u0020 u0648_u062d_u0644_u0651_u064e u0020 u0628_u0647_u0645 u0020 u0628_u0623_u0633_u0647_u060c u0020 u0627_u0644_u0630_u064a u0020 u0644_u0627 u0020 u064a_u0631_u062f u0020 u0639_u0646_u0020", 
        "u0627_u0644_u0642_u0648_u0645 u0020 u0627_u0644_u0645_u062c_u0631_u0645_u064a_u0646_u060c u0020 u0623_u0646_u0647 u0020 u0644_u0627 u0020 u064a_u0639_u0627_u0648_u062f_u0647 u0020 u0641_u064a_u0647_u0645_u060c u0020 u0648_u0644_u0627_u0020", 
        "u064a_u0631_u0627_u062c_u0639_u0647_u060c u0020 u0641_u0625_u0646_u0647 u0020 u0644_u0639_u0644_u0647 u0020 u0642_u062f u0020 u062a_u062f_u0631_u0643_u0647 u0020 u0631_u0642_u0629 u0020 u0639_u0644_u0649 u0020 u0642_u0648_u0645_u0647 u0020 u0639_u0646_u062f_u0020", 
        "u0645_u0639_u0627_u064a_u0646_u0629 u0020 u0627_u0644_u0639_u0630_u0627_u0628 u0020 u0627_u0644_u0646_u0627_u0632_u0644 u0020 u0628_u0647_u0645_u060c u0020 u0641_u0625_u0646_u0647 u0020 u0644_u064a_u0633 u0020 u0627_u0644_u062e_u0628_u0631_u0020", 
        "u0643_u0627_u0644_u0645_u0639_u0627_u064a_u0646_u0629_u002e"
    ]
}