{
    "bounding_box": [
        [
            88, 
            45, 
            531, 
            46
        ], 
        [
            45, 
            133, 
            603, 
            29
        ], 
        [
            110, 
            166, 
            539, 
            30
        ], 
        [
            265, 
            198, 
            384, 
            31
        ], 
        [
            72, 
            240, 
            577, 
            28
        ], 
        [
            61, 
            272, 
            587, 
            31
        ], 
        [
            56, 
            309, 
            593, 
            27
        ], 
        [
            320, 
            340, 
            329, 
            30
        ], 
        [
            118, 
            381, 
            558, 
            28
        ], 
        [
            47, 
            415, 
            601, 
            29
        ], 
        [
            314, 
            449, 
            335, 
            29
        ]
    ], 
    "image_height": 540, 
    "image_width": 720, 
    "transcription": [
        "u0627_u0644_u0623_u0633_u0633 u0020 u0627_u0644_u062a_u064a u0020 u0628_u0646_u064a u0020 u0639_u0644_u064a_u0647_u0627 u0020 u062d_u0643_u0645 u0020 u0627_u0644_u0625_u062c_u0647_u0627_u0636_u0020", 
        "u0645_u0644_u0627_u062d_u0638_u0629 u0020 u0627_u0644_u062d_u0642_u0648_u0642 u0020 u0627_u0644_u0631_u0626_u064a_u0633_u0629 u0020 u0627_u0644_u062b_u0644_u0627_u062b_u0629 u0020 u0648_u0647_u064a u0020 u062d_u0642 u0020 u0627_u0644_u062c_u0646_u064a_u0646 u0020 u0641_u064a u0020 u0627_u0644_u0646_u0645_u0648 u0020 u0648_u0627_u0644_u062d_u064a_u0627_u0629 u0020 u060c_u0020", 
        "u0648_u062d_u0642 u0020 u0627_u0644_u0623_u0628_u0648_u064a_u0646 u0020 u0641_u064a u0020 u0627_u0644_u0645_u062d_u0627_u0641_u0638_u0629 u0020 u0639_u0644_u0649 u0020 u062d_u064a_u0627_u0629 u0020 u0627_u0644_u0623_u0635_u0644 u0020 u0648_u0647_u064a u0020 u0627_u0644_u0623_u0645_u002c u0020 u0648_u062d_u0642_u0020", 
        "u0627_u0644_u0645_u062c_u062a_u0645_u0639 u0020 u0641_u064a u0020 u0632_u064a_u0627_u062f_u0629 u0020 u0623_u0641_u0631_u0627_u062f_u0647 u0020 u0628_u0627_u0644_u0637_u0631_u0642 u0020 u0627_u0644_u0634_u0631_u0639_u064a_u0629_u002e u0020 u000d", 
        "u0627_u0644_u0623_u062d_u0627_u062f_u064a_u062b u0020 u0627_u0644_u0646_u0628_u0648_u064a_u0629 u0020 u0641_u064a u0020 u0645_u0648_u0636_u0648_u0639 u0020 u0627_u0644_u0625_u062c_u0647_u0627_u0636 u0020 u0020_u0648_u0645_u0646 u0020 u0630_u0644_u0643 u0020 u0642_u0648_u0644_u0647 u0020 u0635_u0644_u0649 u0020 u0627_u0644_u0644_u0647_u0020", 
        "u0639_u0644_u064a_u0647 u0020 u0648_u0633_u0644_u0645 u0020 u003a u0020 u0028_u0028_u0625_u0646 u0020 u0623_u062d_u062f_u0643_u0645 u0020 u064a_u062c_u0645_u0639 u0020 u062e_u0644_u0642_u0647 u0020 u0641_u064a u0020 u0628_u0637_u0646 u0020 u0623_u0645_u0647 u0020 u0623_u0631_u0628_u0639_u064a_u0646 u0020 u064a_u0648_u0645_u0627_u064b u0020 u0646_u0637_u0641_u0629_u0020", 
        "u062b_u0645 u0020 u064a_u0643_u0648_u0646 u0020 u0639_u0644_u0642_u0647 u0020 u0645_u062b_u0644 u0020 u0630_u0644_u0643 u0020 u062b_u0645 u0020 u064a_u0643_u0648_u0646 u0020 u0645_u0636_u063a_u0629 u0020 u0645_u062b_u0644 u0020 u0630_u0644_u0643 u0020 u062b_u0645 u0020 u064a_u0631_u0633_u0644 u0020 u0625_u0644_u064a_u0647 u0020 u0627_u0644_u0645_u0644_u0643_u0020", 
        "u0641_u064a_u0646_u0641_u062e u0020 u0641_u064a_u0647 u0020 u0627_u0644_u0631_u0648_u062d_u0029_u0029_u002e u0020 u0623_u062e_u0631_u062c_u0647 u0020 u0627_u0644_u0634_u064a_u062e_u0627_u0646_u002e u0020 u000d", 
        "u0020 u0020 u0020_u0648_u0642_u0648_u0644_u0647 u0020 u0635_u0644_u0649 u0020 u0627_u0644_u0644_u0647 u0020 u0639_u0644_u064a_u0647 u0020 u0648_u0633_u0644_u0645 u0020 u003a u0020 u0028_u0028_u0625_u0630 u0020 u0645_u0631 u0020 u0628_u0627_u0644_u0646_u0637_u0641_u0629 u0020 u0627_u062b_u0646_u062a_u0627_u0646 u0020 u0648_u0623_u0631_u0628_u0639_u0648_u0646 u0020 u0644_u064a_u0644_u0647 u0020 u0628_u0639_u062b u0020 u0627_u0644_u0644_u0647 u0020 u0645_u0644_u0643_u0627_u064b_u0020", 
        "u0641_u0635_u0648_u0631_u0647_u0627 u0020 u0648_u062e_u0644_u0642 u0020 u0633_u0645_u0639_u0647_u0627 u0020 u0648_u0628_u0635_u0631_u0647_u0627 u0020 u0648_u062c_u0644_u062f_u0647_u0627 u0020 u0648_u0644_u062d_u0645_u0647_u0627 u0020 u0648_u0639_u0638_u0627_u0645_u0647_u0627 u0020 u2013 u0020 u062b_u0645 u0020 u064a_u0642_u0648_u0644_u0020", 
        "u0623_u064a u0020 u0631_u0628_u003a u0020 u0623_u0630_u0643_u0631 u0020 u0623_u0645 u0020 u0623_u0646_u062b_u0649_u061f u0020 u0029_u0029 u0020 u0631_u0648_u0627_u0647 u0020 u0645_u0633_u0644_u0645 u0020 u002e"
    ]
}