{
    "bounding_box": [
        [
            307, 
            37, 
            103, 
            54
        ], 
        [
            194, 
            162, 
            343, 
            22
        ], 
        [
            209, 
            186, 
            328, 
            22
        ], 
        [
            209, 
            209, 
            328, 
            23
        ], 
        [
            202, 
            233, 
            335, 
            23
        ], 
        [
            354, 
            258, 
            183, 
            22
        ], 
        [
            214, 
            307, 
            323, 
            21
        ], 
        [
            206, 
            331, 
            331, 
            21
        ], 
        [
            440, 
            354, 
            91, 
            22
        ], 
        [
            40, 
            425, 
            33, 
            19
        ]
    ], 
    "image_height": 540, 
    "image_width": 720, 
    "transcription": [
        "u0627_u0644_u063a_u0632_u0627_u0644", 
        "u0627_u0644_u063a_u0632_u0627_u0644 u0020 u0647_u0648 u0020 u062b_u062f_u064a_u064a u0020 u0645_u0646 u0020 u0630_u0648_u0627_u062a u0020 u0627_u0644_u062d_u0648_u0627_u0641_u0631_u060c u0020 u062c_u0633_u0645_u0647 u0020 u0645_u0644_u0627_u0621_u0645 u0020 u0644_u0644_u0639_u062f_u0648_u000d", 
        "u0627_u0644_u0633_u0631_u064a_u0639_u002e u0020 u0623_u0631_u062c_u0644_u0647 u0020 u0648_u0631_u0642_u0628_u062a_u0647 u0020 u0637_u0648_u064a_u0644_u0629_u060c u0020 u0627_u0644_u0630_u0646_u0628 u0020 u0642_u0635_u064a_u0631_u060c u0020 u0627_u0644_u0625_u0646_u0627_u062b u0020 u000d", 
        "u0623_u0635_u063a_u0631 u0020 u0645_u0646 u0020 u0627_u0644_u0630_u0643_u0648_u0631_u002e u0020 u0644_u0644_u0630_u0643_u0631 u0020 u0648_u0644_u0644_u0623_u0646_u062b_u0649 u0020 u0642_u0631_u0646_u0627_u0646 u0020 u0625_u0644_u0627 u0020 u0623_u0646_u0651 u0020 u0642_u0631_u0646_u0651_u064a_u000d", 
        "u0627_u0644_u0623_u0646_u062b_u0649 u0020 u0623_u062f_u0642_u0651 u0020 u0645_u0646 u0020 u0642_u0631_u0646_u0651_u064a u0020 u0627_u0644_u0630_u0643_u0631_u002e u0020 u0641_u0631_u0648_u0629 u0020 u0627_u0644_u063a_u0632_u0627_u0644 u0020 u0628_u0646_u064a_u0629 u0020 u002d u0020 u0638_u0647_u0631_u0647_u000d", 
        "u0623_u0643_u062b_u0631 u0020 u063a_u0645_u0642_u064b_u0627_u060c u0020 u0648_u0628_u0637_u0646_u0647 u0020 u0641_u0627_u062a_u062d u0020 u0623_u0643_u062b_u0631_u002e_u000d", 
        "u064a_u0639_u064a_u0634 u0020 u0641_u064a u0020 u0634_u0645_u0627_u0644_u064a u0020 u0627_u0644_u0628_u0644_u0627_u062f u0020 u0648_u0645_u0631_u0643_u0632_u0647_u0627 u0020 u0627_u0644_u063a_u0632_u0627_u0644 u0020 u0627_u0644_u0625_u0633_u0631_u0627_u0626_u064a_u0644_u064a_u000d", 
        "u0648_u063a_u0632_u0627_u0644 u0020 u0627_u0644_u0635_u062d_u0631_u0627_u0621 u0020 u0627_u0644_u0630_u064a u0020 u064a_u0639_u064a_u0634 u0020 u0641_u064a u0020 u062c_u0646_u0648_u0628_u064a u0020 u0627_u0644_u0628_u0644_u0627_u062f u0020 u002d u0020 u0641_u064a u0020 u000d", 
        "u0627_u0644_u0646_u0642_u0628 u0020 u0648_u0627_u0644_u0639_u0631_u0627_u0628_u0627_u002e", 
        "u0627_u0644_u0639_u0648_u062f_u0629"
    ]
}