{
    "bounding_box": [
        [
            634, 
            83, 
            168, 
            32
        ], 
        [
            651, 
            188, 
            133, 
            23
        ], 
        [
            440, 
            223, 
            344, 
            25
        ], 
        [
            556, 
            261, 
            229, 
            23
        ], 
        [
            203, 
            296, 
            581, 
            24
        ], 
        [
            225, 
            331, 
            559, 
            25
        ], 
        [
            888, 
            90, 
            40, 
            26
        ]
    ], 
    "image_height": 540, 
    "image_width": 960, 
    "transcription": [
        "u0647_u0644 u0020 u0623_u0646_u062a u0020 u0642_u0627_u0626_u062f u0020 u061f_u0020", 
        "u0646_u062d_u0646 u0020 u0646_u062a_u0641_u0642 u0020 u0627_u0644_u0622_u0646 u0020 u003a_u000d", 
        "u0645_u0639_u0638_u0645 u0020 u0627_u0644_u0642_u0627_u062f_u0629 u0020 u0644_u0627_u064a_u0648_u0644_u062f_u0648_u0646 u0020 u0628_u0633_u0645_u0627_u062a u0020 u062e_u0627_u0635_u0629 u0020 u0645_u0645_u064a_u0632_u0629 u0020 u002e_u000d", 
        "u0645_u0639_u0638_u0645_u0647_u0645 u0020 u064a_u062a_u0639_u0644_u0645_u0648_u0646 u0020 u0641_u0646 u0020 u0627_u0644_u0642_u064a_u0627_u062f_u0629 u0020 u002e_u000d", 
        "u064a_u0628_u062f_u0623 u0020 u0627_u0644_u0642_u0627_u062f_u0647 u0020 u0641_u064a u0020 u0645_u0646_u0627_u0635_u0628 u0020 u0635_u063a_u064a_u0631_u0629 u0020 u0648_u064a_u062a_u0639_u0644_u0645_u0648_u0646 u0020 u0645_u0647_u0627_u0631_u0627_u062a u0020 u0627_u0644_u0642_u064a_u0627_u062f_u0629 u0020 u0641_u064a u0020 u0633_u064a_u0627_u0642 u0020 u062a_u0642_u062f_u0645_u0647_u0645 u0020 u002e u0020 u000d", 
        "u064a_u0645_u064a_u0644 u0020 u0627_u0644_u0623_u0634_u062e_u0627_u0635 u0020 u0625_u0644_u0649 u0020 u0627_u0644_u0631_u0628_u0637 u0020 u0628_u064a_u0646 u0020 u0643_u0644_u0645_u062a_u064a u0020 u0645_u062f_u064a_u0631 u0020 u0648_u0642_u0627_u0626_u062f_u060c u0020 u0641_u0647_u0644 u0020 u0647_u0645_u0627 u0020 u0645_u062a_u0633_u0627_u0648_u064a_u062a_u0627_u0646_u061f_u0021_u0021_u0021", 
        "u0031_u0036"
    ]
}