{
    "bounding_box": [
        [
            41, 
            25, 
            563, 
            47
        ], 
        [
            313, 
            91, 
            360, 
            32
        ], 
        [
            409, 
            137, 
            264, 
            32
        ], 
        [
            369, 
            182, 
            304, 
            37
        ], 
        [
            293, 
            229, 
            380, 
            37
        ], 
        [
            74, 
            274, 
            599, 
            38
        ], 
        [
            289, 
            316, 
            384, 
            38
        ], 
        [
            272, 
            362, 
            401, 
            37
        ], 
        [
            384, 
            409, 
            289, 
            32
        ], 
        [
            123, 
            452, 
            550, 
            40
        ]
    ], 
    "image_height": 540, 
    "image_width": 720, 
    "transcription": [
        "u062e_u0635_u0627_u0626_u0635 u0020 u0627_u0644_u0646_u0638_u0627_u0645 u0020 u0627_u0644_u0634_u0645_u0648_u0644_u064a_u002f_u0627_u0644_u062f_u0643_u062a_u0627_u062a_u0648_u0631_u064a", 
        "u0631_u0641_u0636 u0020 u0633_u064a_u0627_u062f_u0629 u0020 u0627_u0644_u0633_u0644_u0637_u0629 u0020 u0627_u0644_u062a_u0634_u0631_u064a_u0639_u064a_u0629_u002e_u000d", 
        "u0631_u0641_u0636 u0020 u0645_u0628_u0627_u062f_u0626 u0020 u0627_u0644_u0645_u0633_u0627_u0648_u0627_u0629_u002e_u000d", 
        "u0639_u062f_u0645 u0020 u0648_u062c_u0648_u062f u0020 u0623_u062d_u0632_u0627_u0628 u0020 u0645_u0646_u0627_u0641_u0633_u0629_u002e_u000d", 
        "u0639_u062f_u0645 u0020 u0648_u062c_u0648_u062f u0020 u062d_u0631_u064a_u0629 u0020 u0627_u0644_u0645_u0646_u0627_u0642_u0634_u0629 u0020 u0648_u0627_u0644_u0646_u0642_u062f_u002e_u000d", 
        "u0631_u0641_u0636 u0020 u0646_u0638_u0631_u064a_u0629 u0020 u062d_u0643_u0645 u0020 u0627_u0644_u0623_u063a_u0644_u0628_u064a_u0629_u002e u0020 u0646_u0638_u0627_u0645 u0020 u0627_u0644_u062d_u0632_u0628 u0020 u0627_u0644_u0648_u0627_u062d_u062f u0020 u0028_u0623_u0642_u0644_u064a_u0629_u0020", 
        "u0645_u0646_u0638_u0645_u0629 u0020 u0639_u0644_u0649 u0020 u0631_u0623_u0633_u0647_u0627 u0020 u0631_u0626_u064a_u0633 u0020 u0645_u0637_u0644_u0642_u0029_u002e_u000d", 
        "u0631_u0642_u0627_u0628_u0629 u0020 u0634_u062f_u064a_u062f_u0629 u0020 u0639_u0644_u0649 u0020 u0627_u0644_u0623_u0641_u0643_u0627_u0631 u0020 u0627_u0644_u0633_u064a_u0627_u0633_u064a_u0629_u002e_u000d", 
        "u062a_u0644_u0642_u064a_u0646 u0020 u0627_u0644_u0646_u0638_u0631_u064a_u0627_u062a u0020 u0627_u0644_u0639_u0642_u0627_u0626_u062f_u064a_u0629_u002e_u000d", 
        "u0627_u0644_u062f_u0639_u0627_u064a_u0629 u0020 u0627_u0644_u0642_u0648_u064a_u0629 u0020 u0648_u0627_u0644_u0628_u0648_u0644_u064a_u0633 u0020 u0627_u0644_u0645_u0633_u064a_u0637_u0631 u0020 u0648_u062a_u0639_u0638_u064a_u0645 u0020 u0627_u0644_u062f_u0648_u0644_u0629_u002e"
    ]
}