{
    "bounding_box": [
        [
            621, 
            76, 
            248, 
            38
        ], 
        [
            116, 
            176, 
            753, 
            41
        ], 
        [
            88, 
            220, 
            781, 
            37
        ], 
        [
            730, 
            266, 
            139, 
            36
        ]
    ], 
    "image_height": 540, 
    "image_width": 960, 
    "transcription": [
        "u0032_u002d u0020 u0627_u0644_u0634_u0639_u0631 u0020 u0627_u0644_u0645_u0644_u062d_u0645_u064a_u003a_u000d", 
        "u0627_u0644_u0645_u0644_u062d_u0645_u0629_u003a u0020 u0642_u0635_u0629 u0020 u0634_u0639_u0631_u064a_u0629 u0020 u0628_u0637_u0648_u0644_u064a_u0629 u0020 u0642_u0648_u0645_u064a_u0629 u0020 u062a_u0642_u0648_u0645 u0020 u0639_u0644_u0649 u0020 u062e_u0648_u0627_u0631_u0642 u0020 u0627_u0644_u0623_u0645_u0648_u0631_u0020", 
        "u0648_u062a_u062e_u062a_u0644_u0637 u0020 u0641_u064a_u0647_u0627 u0020 u0627_u0644_u062d_u0642_u0627_u0626_u0642 u0020 u0628_u0627_u0644_u0623_u0633_u0627_u0637_u064a_u0631 u0020 u0648_u062a_u062a_u063a_u0644_u063a_u0644 u0020 u0627_u0644_u0639_u0642_u0627_u0626_u062f u0020 u0627_u0644_u062f_u064a_u0646_u064a_u0629 u0020 u0648_u0627_u0644_u0631_u0648_u062d_u064a_u0629_u0020", 
        "u0641_u064a u0020 u062b_u0646_u0627_u064a_u0627_u0647_u0627_u002e_u000d"
    ]
}