{
    "bounding_box": [
        [
            23, 
            76, 
            609, 
            33
        ], 
        [
            25, 
            110, 
            608, 
            31
        ], 
        [
            18, 
            145, 
            615, 
            33
        ], 
        [
            229, 
            179, 
            403, 
            33
        ], 
        [
            76, 
            266, 
            557, 
            31
        ], 
        [
            96, 
            305, 
            536, 
            28
        ], 
        [
            48, 
            340, 
            585, 
            30
        ], 
        [
            551, 
            375, 
            81, 
            24
        ]
    ], 
    "image_height": 540, 
    "image_width": 720, 
    "transcription": [
        "u0631_u0648_u0634 u0020 u0647_u0627 u0020 u064a u0020 u0646_u06af_u0647 u0020 u062f_u0627_u0631_u064a u0020 u0645_u0648_u0627_u062f u0020 u063a_u0630_u0627_u064a_u064a u0020 u0628_u0647 u0020 u0645_u0646_u0638_u0648_u0631 u0020 u0627_u0631_u062a_u0642_u0627_u0621 u0020 u0643_u064a_u0641_u064a_u062a_u0020", 
        "u0648 u0020 u0627_u064a_u0645_u0646_u064a u0020 u0645_u062d_u0635_u0648_u0644_u0627_u062a u0020 u063a_u0630_u0627_u064a_u064a u0020 u0628_u0647 u0020 u0643_u0627_u0631 u0020 u0645_u064a_u0631_u0648_u0646_u062f u0020 u002e u0020 u0627_u064a_u0646 u0020 u0631_u0648_u0634 u0020 u0647_u0627 u0020 u0628_u0627_u0020", 
        "u062a_u0627_u062b_u064a_u0631_u064a u0020 u0643_u0647 u0020 u0628_u0631 u0020 u0645_u064a_u0643_u0631_u0648 u0020 u0627_u0631_u06af_u0627_u0646_u064a_u0633_u0645 u0020 u0647_u0627_u064a u0020 u0639_u0627_u0645_u0644 u0020 u0641_u0633_u0627_u062f u0020 u0648 u0020 u0628_u064a_u0645_u0627_u0631_u064a u0020 u0632_u0627_u0020", 
        "u0645_u064a_u06af_u0630_u0627_u0631_u0646_u062f u0020 u0628_u0647 u0020 u0633_u0647 u0020 u062f_u0633_u062a_u0647 u0020 u062a_u0642_u0633_u064a_u0645 u0020 u0645_u064a_u0634_u0648_u0646_u062f u0020 u0020_u000d", 
        "u002d u0020 u0641_u0646 u0020 u0622_u0648_u0631_u064a u0020 u0648 u0020 u0631_u0648_u0634_u0647_u0627_u064a_u064a u0020 u0643_u0647 u0020 u0627_u0632 u0020 u0628_u0631_u0648_u0632 u0020 u0622_u0644_u0648_u062f_u06af_u064a u0020 u062c_u0644_u0648_u06af_u064a_u0631_u064a u0020 u0645_u064a_u0643_u0646_u0646_u062f u0020 u000d", 
        "u002d u0020 u0641_u0646 u0020 u0622_u0648_u0631_u064a u0020 u0648 u0020 u0631_u0648_u0634 u0020 u0647_u0627_u064a_u064a u0020 u0643_u0647 u0020 u0631_u0634_u062f u0020 u0645_u064a_u0643_u0631_u0648_u0628 u0020 u0631_u0627 u0020 u0643_u0646_u062a_u0631_u0644 u0020 u0645_u0643_u0646_u0646_u062f u0020 u000d", 
        "u002d u0020 u0641_u0646 u0020 u0622_u0648_u0631_u064a u0020 u0648 u0020 u0631_u0648_u0634_u0647_u0627_u064a_u064a u0020 u0643_u0647 u0020 u0628_u0627_u0639_u062b u0020 u0627_u0632 u0020 u0628_u064a_u0646 u0020 u0631_u0641_u062a_u0646 u0020 u0645_u064a_u0643_u0631_u0648_u0627_u0631_u06af_u0627_u0646_u064a_u0633_u0645 u0020 u0647_u0627_u0020", 
        "u0645_u064a_u0634_u0648_u0646_u062f u0020 u000d"
    ]
}