{
    "bounding_box": [
        [
            35, 
            80, 
            606, 
            26
        ], 
        [
            575, 
            112, 
            66, 
            22
        ], 
        [
            35, 
            148, 
            606, 
            27
        ], 
        [
            35, 
            178, 
            606, 
            28
        ], 
        [
            563, 
            212, 
            78, 
            25
        ], 
        [
            35, 
            247, 
            606, 
            27
        ], 
        [
            333, 
            278, 
            308, 
            28
        ], 
        [
            35, 
            316, 
            606, 
            27
        ], 
        [
            483, 
            349, 
            158, 
            25
        ], 
        [
            94, 
            384, 
            587, 
            28
        ], 
        [
            570, 
            419, 
            71, 
            24
        ], 
        [
            273, 
            455, 
            409, 
            25
        ]
    ], 
    "image_height": 540, 
    "image_width": 720, 
    "transcription": [
        "u062a_u0642_u062f_u064a_u0645 u0020 u0631_u0624_u0633_u0627_u0621 u0020 u0627_u0644_u0628_u0639_u062b_u0627_u062a u0020 u0627_u0644_u0645_u0639_u062a_u0645_u062f_u064a_u0646 u0020 u0641_u064a u0020 u0639_u0627_u0635_u0645_u0629 u0020 u062f_u0648_u0644_u0629 u0020 u0627_u0644_u0627_u0633_u062a_u0642_u0628_u0627_u0644 u0020 u0022 u0020 u0641_u0642_u0637 u0020 u0644_u0631_u0624_u0633_u0627_u0621_u0020", 
        "u0627_u0644_u062f_u0648_u0644_u0022_u002e_u000d", 
        "u062d_u0636_u0648_u0631 u0020 u0627_u0644_u0645_u0633_u0631_u062d_u064a_u0627_u062a u0020 u0623_u0648 u0020 u0627_u0644_u0627_u0633_u062a_u0639_u0631_u0627_u0636_u0627_u062a u0020 u0627_u0644_u0641_u0646_u064a_u0629 u0020 u0028_u0647_u0630_u0627 u0020 u0641_u064a u0020 u062d_u0627_u0644 u0020 u0643_u0627_u0646 u0020 u0647_u0646_u0627_u0643 u0020 u0631_u063a_u0628_u0629_u0020", 
        "u0645_u0646 u0020 u0627_u0644_u0632_u0627_u0626_u0631 u0020 u0628_u062d_u0636_u0648_u0631 u0020 u0645_u062b_u0644 u0020 u0647_u0630_u0647 u0020 u0627_u0644_u0639_u0631_u0648_u0636 u0020 u0648_u0627_u062a_u0641_u0642 u0020 u0639_u0644_u064a_u0647_u0627 u0020 u0633_u0644_u0641_u0627_u064b u0020 u0636_u0645_u0646 u0020 u0628_u0631_u0646_u0627_u0645_u062c_u0020", 
        "u0627_u0644_u0632_u064a_u0627_u0631_u0629_u0029_u002e_u000d", 
        "u0632_u064a_u0627_u0631_u0629 u0020 u0627_u0644_u0645_u0639_u0627_u0644_u0645 u0020 u0627_u0644_u0635_u0646_u0627_u0639_u064a_u0629 u0020 u0623_u0648 u0020 u0627_u0644_u0639_u0644_u0645_u064a_u0629 u0020 u0623_u0648 u0020 u0627_u0644_u062b_u0642_u0627_u0641_u064a_u0629 u0020 u0648_u0627_u0644_u062a_u0639_u0631_u0641 u0020 u0639_u0644_u0649 u0020 u0627_u0644_u0645_u0639_u0627_u0644_u0645_u0020", 
        "u0627_u0644_u0633_u064a_u0627_u062d_u064a_u0629 u0020 u0641_u064a u0020 u0627_u0644_u0639_u0627_u0635_u0645_u0629 u0020 u0623_u0648 u0020 u0641_u064a u0020 u0645_u062d_u064a_u0637_u0647_u0627_u002e_u000d", 
        "u062a_u0631_u062a_u064a_u0628 u0020 u0632_u064a_u0627_u0631_u0627_u062a u0020 u0644_u0644_u0636_u064a_u0641 u0020 u0627_u0644_u0643_u0628_u064a_u0631 u0020 u0627_u0644_u0649 u0020 u0623_u0642_u0627_u0644_u064a_u0645 u0020 u0648_u0645_u062f_u0646 u0020 u0627_u062e_u0631_u0649 u0020 u0641_u064a u0020 u062f_u0648_u0644_u0629 u0020 u0627_u0644_u0627_u0633_u062a_u0642_u0628_u0627_u0644_u0020", 
        "u0028_u0628_u0646_u0627_u0621 u0020 u0639_u0644_u0649 u0020 u0631_u063a_u0628_u062a_u0647_u0029_u002e_u000d", 
        "u0031_u0030_u002e u0020 u062a_u0631_u062a_u064a_u0628 u0020 u0645_u0642_u0627_u0628_u0644_u0629 u0020 u062a_u0644_u0641_u0632_u064a_u0648_u0646_u064a_u0629 u0020 u0623_u0648 u0020 u0645_u0624_u062a_u0645_u0631 u0020 u0635_u062d_u0641_u064a u0020 u0644_u0644_u0636_u064a_u0641 u0020 u0627_u0644_u0632_u0627_u0626_u0631 u0020 u0028_u0628_u0646_u0627_u0621 u0020 u0639_u0644_u0649_u0020", 
        "u0631_u063a_u0628_u062a_u0647_u0029_u002e_u000d", 
        "u0031_u0031_u002e u0020 u0628_u0646_u0647_u0627_u064a_u0629 u0020 u0627_u0644_u0632_u064a_u0627_u0631_u0629 u0020 u064a_u062a_u0645 u0020 u062a_u0648_u062f_u064a_u0639 u0020 u0627_u0644_u0636_u064a_u0641 u0020 u0645_u062b_u0644_u0645_u0627 u0020 u0627_u0633_u062a_u0642_u0628_u0644_u002e"
    ]
}