{
    "bounding_box": [
        [
            24, 
            26, 
            674, 
            41
        ], 
        [
            14, 
            70, 
            692, 
            66
        ], 
        [
            14, 
            147, 
            692, 
            43
        ], 
        [
            14, 
            200, 
            692, 
            52
        ], 
        [
            14, 
            257, 
            692, 
            51
        ], 
        [
            14, 
            311, 
            692, 
            56
        ], 
        [
            14, 
            369, 
            692, 
            55
        ], 
        [
            316, 
            427, 
            390, 
            53
        ]
    ], 
    "image_height": 540, 
    "image_width": 720, 
    "transcription": [
        "u062a_u0639_u062f_u062f u0020 u0627_u0644_u062c_u0647_u0627_u062a u0020 u0627_u0644_u0645_u0639_u0646_u064a_u0629 u0020 u0628_u062d_u0642_u0648_u0642 u0020 u0627_u0644_u0625_u0646_u0633_u0627_u0646 u0020 u0641_u064a u0020 u0627_u0644_u0623_u0645_u0645 u0020 u0627_u0644_u0645_u062a_u062d_u062f_u0629_u000d", 
        "u0643_u062b_u064a_u0631_u0627 u0020 u0645_u0627 u0020 u064a_u062a_u0645 u0020 u0627_u0644_u062e_u0644_u0637 u0020 u0628_u064a_u0646 u0020 u0627_u062e_u062a_u0635_u0627_u0635 u0020 u0648_u0622_u0644_u064a_u0627_u062a_u0020", 
        "u0639_u0645_u0644 u0020 u0627_u0644_u0647_u064a_u0626_u0627_u062a u0020 u0627_u0644_u0645_u0639_u0646_u064a_u0629 u0020 u0628_u062d_u0642_u0648_u0642 u0020 u0627_u0644_u0625_u0646_u0633_u0627_u0646 u0020 u062f_u0627_u062e_u0644_u0020", 
        "u0645_u0646_u0638_u0648_u0645_u0629 u0020 u0627_u0644_u0623_u0645_u0645 u0020 u0627_u0644_u0645_u062a_u062d_u062f_u0629_u060c u0020 u0648_u0645_u0645_u0627 u0020 u064a_u0633_u0627_u0647_u0645 u0020 u0641_u064a u0020 u0647_u0630_u0627_u0020", 
        "u0627_u0644_u062e_u0644_u0637 u0020 u0623_u0646 u0020 u0627_u0644_u0627_u0647_u062a_u0645_u0627_u0645 u0020 u0628_u062d_u0642_u0648_u0642 u0020 u0627_u0644_u0625_u0646_u0633_u0627_u0646 u0020 u064a_u062f_u062e_u0644_u0020", 
        "u0636_u0645_u0646 u0020 u0648_u0644_u0627_u064a_u0629 u0020 u0627_u0644_u0639_u062f_u064a_u062f u0020 u0645_u0646 u0020 u0627_u0644_u0644_u062c_u0627_u0646 u0020 u0648_u0627_u0644_u0647_u064a_u0626_u0627_u062a_u0020", 
        "u0648_u0627_u0644_u0648_u0643_u0627_u0644_u0627_u062a u0020 u0627_u0644_u062f_u0627_u062e_u0644_u0629 u0020 u0636_u0645_u0646 u0020 u0645_u0646_u0638_u0648_u0645_u0629 u0020 u0627_u0644_u0623_u0645_u0645_u0020", 
        "u0627_u0644_u0645_u062a_u062d_u062f_u0629 u0020 u0623_u0648 u0020 u0627_u0644_u0645_u0631_u062a_u0628_u0637_u0629 u0020 u0628_u0647_u0627_u002e u0020 u000d"
    ]
}