{
    "bounding_box": [
        [
            153, 
            22, 
            343, 
            36
        ], 
        [
            197, 
            78, 
            265, 
            43
        ], 
        [
            485, 
            196, 
            142, 
            23
        ], 
        [
            441, 
            232, 
            187, 
            24
        ], 
        [
            168, 
            274, 
            459, 
            26
        ]
    ], 
    "image_height": 540, 
    "image_width": 720, 
    "transcription": [
        "u0628_u0639_u0636 u0020 u062f_u0644_u0627_u0644_u0627_u062a u0020 u0644_u063a_u0629 u0020 u0627_u0644_u062c_u0633_u062f u0020 u000b", 
        "u0641_u064a u0020 u0627_u0644_u0645_u064a_u062f_u0627_u0646 u0020 u0627_u0644_u062a_u0631_u0628_u0648_u064a_u0020", 
        "u0633_u062d_u0628 u0020 u064a_u0627_u0642_u0629 u0020 u0020_u0627_u0644_u062b_u0648_u0628_u000d", 
        "u0645_u0624_u0634_u0631 u0020 u0639_u0644_u0649 u0020 u0623_u0646 u0020 u0627_u0644_u0637_u0627_u0644_u0628 u0020 u003a_u000d", 
        "u063a_u064a_u0631 u0020 u0645_u0631_u062a_u0627_u062d u0020 u0644_u0645_u0627 u0020 u064a_u0633_u062a_u0645_u0639 u0020 u0625_u0644_u064a_u0647 u0020 u060c u0020 u0644_u0623_u0646 u0020 u0627_u0644_u0643_u0644_u0627_u0645 u0020 u0642_u062f u0020 u064a_u0643_u0648_u0646 u0020 u0645_u062d_u0631_u062c u0020 u0644_u0647_u002e_u002e_u000d"
    ]
}