{
    "bounding_box": [
        [
            88, 
            32, 
            615, 
            35
        ], 
        [
            74, 
            93, 
            614, 
            34
        ], 
        [
            7, 
            208, 
            696, 
            34
        ], 
        [
            326, 
            267, 
            377, 
            33
        ], 
        [
            184, 
            323, 
            505, 
            33
        ], 
        [
            64, 
            382, 
            625, 
            33
        ], 
        [
            606, 
            440, 
            97, 
            27
        ]
    ], 
    "image_height": 540, 
    "image_width": 720, 
    "transcription": [
        "u064a_u0645_u062b_u0644 u0020 u062a_u0627_u0631_u064a_u062e u0020 u0627_u0646_u0634_u0627_u0621 u0020 u0627_u0644_u0645_u0645_u0644_u0643_u0629 u0020 u0628_u062f_u0627_u064a_u0629 u0020 u0627_u0646_u0637_u0644_u0627_u0642_u0647_u0627 u0020 u0641_u064a u0020 u0627_u0644_u062a_u0637_u0648_u0631 u0020 u002e_u002e_u000d", 
        "u0020_u0627_u062a_u062e_u0630 u0020 u0627_u0644_u0645_u0644_u0643 u0020 u0639_u0628_u062f u0020 u0627_u0644_u0639_u0632_u064a_u0632 u0020 u0642_u0631_u0627_u0631_u0647 u0020 u0627_u0644_u0623_u0648_u0644 u0020 u0628_u0627_u0644_u0633_u0645_u0627_u062d u0020 u0644_u0628_u0639_u0636 u0020 u0627_u0644_u0634_u0631_u0643_u0627_u062a_u0020", 
        "u0627_u0644_u062a_u0646_u0645_u064a_u0629 u0020 u0627_u0644_u0648_u0637_u0646_u064a_u0629 u0020 u0648_u062a_u0632_u0627_u064a_u062f u0020 u0627_u0646_u062a_u0627_u062c u0020 u0627_u0644_u0646_u0641_u0637 u0020 u0628_u0639_u062f u0020 u0627_u0644_u062d_u0631_u0628 u0020 u0627_u0644_u0639_u0627_u0644_u0645_u064a_u0629 u0020 u0627_u0644_u062b_u0627_u0646_u064a_u0629 u0020 u0648_u0623_u0635_u0628_u062d_u0020", 
        "u0639_u0635_u0628 u0020 u0627_u0644_u062d_u064a_u0627_u0629 u0020 u0627_u0644_u0625_u0642_u062a_u0635_u0627_u062f_u064a_u0629 u0020 u0641_u064a u0020 u0627_u0644_u0645_u0645_u0644_u0643_u0629 u0020 u000d", 
        "u0628_u0627_u0644_u062a_u0627_u0644_u064a u0020 u0627_u0631_u062a_u0641_u0639_u062a u0020 u0645_u0643_u0627_u0646_u0629 u0020 u0627_u0644_u0645_u0645_u0644_u0643_u0629 u0020 u0641_u064a u0020 u0627_u0644_u0645_u062c_u062a_u0645_u0639 u0020 u0627_u0644_u062f_u0648_u0644_u064a u0020 u000d", 
        "u0648_u0628_u0639_u062f u0020 u0630_u0644_u0643 u0020 u0627_u062a_u062e_u0630 u0020 u0642_u0631_u0627_u0631_u0647 u0020 u0628_u0627_u0637_u0644_u0627_u0642 u0020 u0627_u0644_u0633_u064a_u0627_u0633_u0627_u062a u0020 u0627_u0644_u062a_u0639_u0644_u064a_u0645_u064a_u0629 u0020 u0648_u0627_u0644_u0634_u0627_u0645_u0644_u0629 u0020 u0641_u064a_u0020", 
        "u0627_u0644_u0645_u0645_u0644_u0643_u0629 u0020 u002e_u0020"
    ]
}