{
    "bounding_box": [
        [
            249, 
            20, 
            215, 
            35
        ], 
        [
            325, 
            127, 
            341, 
            25
        ], 
        [
            68, 
            179, 
            599, 
            22
        ], 
        [
            67, 
            203, 
            599, 
            22
        ], 
        [
            169, 
            251, 
            497, 
            22
        ], 
        [
            51, 
            299, 
            615, 
            22
        ], 
        [
            38, 
            323, 
            629, 
            22
        ], 
        [
            339, 
            371, 
            327, 
            22
        ], 
        [
            79, 
            419, 
            587, 
            22
        ], 
        [
            265, 
            443, 
            401, 
            22
        ]
    ], 
    "image_height": 540, 
    "image_width": 720, 
    "transcription": [
        "u0627_u0644_u062c_u0627_u0647_u0632_u064a_u0629 u0020 u0627_u0644_u0627_u0644_u0643_u062a_u0631_u0648_u0646_u064a_u0629_u0020", 
        "u064a_u062c_u0628 u0020 u0623_u0646 u0020 u062a_u063a_u0637_u064a u0020 u0627_u0644_u062c_u0627_u0647_u0632_u064a_u0629 u0020 u0627_u0644_u0627_u0644_u0643_u062a_u0631_u0648_u0646_u064a_u0629 u0020 u0645_u0627 u0020 u064a_u0644_u064a u0020 u003a_u000d", 
        "u0627_u0644_u0645_u062f_u0649 u0020 u0627_u0644_u0632_u0645_u0646_u064a u0020 u0627_u0644_u0630_u064a u0020 u062a_u062a_u0637_u0644_u0628_u0647 u0020 u0627_u0644_u0645_u0647_u0645_u0629 u0020 u0644_u0627_u0646_u062c_u0627_u0632 u0020 u0627_u0644_u0639_u0645_u0644_u064a_u0629 u0020 u062d_u0648_u0633_u0628_u0629 u0020 u0627_u0644_u0645_u0643_u0627_u062a_u0628 u0020 u0627_u0644_u062e_u0644_u0641_u064a_u0629 u0020 u0627_u0644_u0645_u0633_u0627_u0646_u062f_u0629 u0020 u0648_u0627_u0644_u062a_u064a u0020 u062a_u0634_u0645_u0644_u0020", 
        "u0627_u0644_u0623_u062c_u0647_u0632_u0629 u0020 u0648_u0627_u0644_u0628_u0631_u0645_u062c_u064a_u0627_u062a u0020 u0648_u0627_u0644_u0628_u0646_u064a_u0629 u0020 u0627_u0644_u062a_u062d_u062a_u064a_u0629 u0020 u0644_u0644_u0634_u0628_u0643_u0629 u0020 u0648_u0627_u0644_u062a_u064a u0020 u062a_u0648_u0641_u0631 u0020 u0646_u0642_u0627_u0637 u0020 u0646_u0641_u0627_u0630 u0020 u0644_u0644_u0632_u0628_u0627_u0626_u0646 u0020 u0645_u0646 u0020 u0627_u0644_u0648_u0627_u062c_u0647_u0629 u0020 u0627_u0644_u0623_u0645_u0627_u0645_u064a_u0629_u002e_u000d", 
        "u062a_u0648_u062c_u0647 u0020 u0642_u0648_u064a u0020 u0645_u062f_u0639_u0648_u0645 u0020 u0644_u0644_u0625_u0635_u0644_u0627_u062d u0020 u0627_u0644_u0625_u062f_u0627_u0631_u064a u0020 u0645_u0646 u0020 u0642_u0628_u0644 u0020 u0627_u0644_u0625_u062f_u0627_u0631_u0629 u0020 u0627_u0644_u0633_u064a_u0627_u0633_u064a_u0629 u0020 u0648_u0627_u0644_u0625_u062f_u0627_u0631_u0627_u062a u0020 u0627_u0644_u0639_u0644_u064a_u0627_u002e u0020 u000d", 
        "u0627_u0644_u0642_u062f_u0631_u0629 u0020 u0639_u0644_u0649 u0020 u062a_u0635_u0645_u064a_u0645_u00a0_u0648_u062a_u0637_u0628_u064a_u0642_u00a0_u0623_u0646_u0638_u0645_u0629 u0020 u0627_u0644_u062d_u0648_u0643_u0645_u0629 u0020 u0627_u0644_u0627_u0644_u0643_u062a_u0631_u0648_u0646_u064a_u0629_u00a0_u062d_u0633_u0628 u0020 u0645_u0627 u0020 u064a_u062a_u0636_u062d u0020 u0645_u0646 u0020 u0627_u0644_u0645_u0624_u0633_u0633_u0627_u062a u0020 u0627_u0644_u0645_u0648_u062c_u0648_u062f_u0629_u060c_u0020", 
        "u0627_u0644_u062a_u064a u0020 u064a_u0645_u0643_u0646 u0020 u0623_u0646 u0020 u062a_u0633_u0627_u0639_u062f_u00a0_u0641_u064a_u00a0_u062a_u062d_u0644_u064a_u0644 u0020 u0627_u0644_u0627_u0646_u0638_u0645_u0629_u060c u0020 u0648_u062a_u0635_u0645_u064a_u0645_u00a0_u0639_u0645_u0644_u064a_u0629_u00a0_u0625_u0639_u0627_u062f_u0629 u0020 u0647_u0646_u062f_u0633_u0629_u00a0_u0627_u0644_u0645_u0624_u0633_u0633_u0629 u0020 u0648_u062a_u0637_u0648_u064a_u0631 u0020 u0627_u0644_u0628_u0631_u0645_u062c_u064a_u0627_u062a_u002e_u000d", 
        "u062a_u0648_u0641_u0631 u0020 u0627_u0644_u062f_u0639_u0645 u0020 u0627_u0644_u0645_u0627_u0644_u064a u0020 u0644_u062f_u0639_u0645 u0020 u062c_u0647_u0648_u062f u0020 u0627_u0644_u062d_u0648_u0643_u0645_u0629 u0020 u0627_u0644_u0627_u0644_u0643_u062a_u0631_u0648_u0646_u064a_u0629_u002e_u000d", 
        "u062a_u0648_u0641_u0631 u0020 u0625_u0637_u0627_u0631 u0020 u0642_u0627_u0646_u0648_u0646_u064a u0020 u062a_u0645_u0643_u064a_u0646_u064a u0020 u0634_u0627_u0645_u0644 u0020 u0644_u062e_u0635_u0648_u0635_u064a_u0629 u0020 u0648_u0623_u0645_u0646 u0020 u0627_u0644_u0645_u0639_u0644_u0648_u0645_u0627_u062a_u060c u0020 u0648_u0627_u0644_u0648_u0633_u0627_u0626_u0637 u0020 u0627_u0644_u062c_u062f_u064a_u062f_u0629 u0020 u0648_u0627_u0644_u062d_u062f_u064a_u062b_u0629 u0020 u0645_u0646_u0020", 
        "u0627_u0644_u062a_u062e_u0632_u064a_u0646 u0020 u0020_u0648_u0627_u0644_u0623_u0631_u0634_u0641_u0629 u0020 u060c u0020 u0648_u0627_u0644_u0642_u0648_u0627_u0646_u064a_u0646 u0020 u0627_u0644_u062a_u064a u0020 u062a_u0642_u0628_u0644 u0020 u0627_u0644_u0645_u0639_u0627_u0645_u0644_u0627_u062a u0020 u0627_u0644_u0627_u0644_u0643_u062a_u0631_u0648_u0646_u064a_u0629_u002e"
    ]
}