{
    "bounding_box": [
        [
            52, 
            195, 
            604, 
            47
        ], 
        [
            55, 
            244, 
            598, 
            51
        ], 
        [
            293, 
            298, 
            133, 
            44
        ]
    ], 
    "image_height": 540, 
    "image_width": 720, 
    "transcription": [
        "u0623_u0634_u062c_u0627_u0631 u0020 u0627_u0644_u062c_u0646_u0629 u0020 u003a u0020 u0648_u062c_u0645_u064a_u0639_u0647_u0627 u0020 u0633_u064a_u0642_u0627_u0646_u0647_u0627 u0020 u0645_u0646 u0020 u0627_u0644_u0630_u0647_u0628_u0020", 
        "u0648_u0623_u0648_u0631_u0627_u0642_u0647_u0627 u0020 u0645_u0646 u0020 u0627_u0644_u0632_u0645_u0631_u062f u0020 u0627_u0644_u0623_u062e_u0636_u0631 u0020 u0648_u0627_u0644_u062c_u0648_u0647_u0631 u0020 u0648_u0642_u062f_u0020", 
        "u0630_u0643_u0631 u0020 u0645_u0646_u0647_u0627_u003a"
    ]
}