{
    "bounding_box": [
        [
            59, 
            11, 
            361, 
            39
        ], 
        [
            35, 
            63, 
            368, 
            22
        ], 
        [
            205, 
            87, 
            199, 
            27
        ], 
        [
            43, 
            116, 
            361, 
            34
        ], 
        [
            35, 
            157, 
            368, 
            22
        ], 
        [
            261, 
            186, 
            143, 
            17
        ], 
        [
            35, 
            222, 
            368, 
            21
        ], 
        [
            256, 
            245, 
            147, 
            27
        ], 
        [
            35, 
            274, 
            368, 
            34
        ], 
        [
            35, 
            314, 
            368, 
            23
        ], 
        [
            106, 
            344, 
            298, 
            21
        ], 
        [
            35, 
            379, 
            368, 
            22
        ], 
        [
            35, 
            403, 
            368, 
            27
        ], 
        [
            254, 
            437, 
            149, 
            22
        ], 
        [
            35, 
            473, 
            368, 
            22
        ], 
        [
            337, 
            499, 
            67, 
            20
        ]
    ], 
    "image_height": 540, 
    "image_width": 720, 
    "transcription": [
        "u0627_u0644_u064a_u0648_u0645 u0020 u0627_u0644_u062b_u0627_u0646_u064a u0020 u0020_u0032_u002d_u0037_u002d_u0032_u0030_u0031_u0032_u0020", 
        "u0627_u0644_u0648_u0635_u0648_u0644 u0020 u0627_u0644_u0649 u0020 u0645_u0637_u0627_u0631 u0020 u0043_u0068_u0061_u006e_u0067_u0069 u0020 u0020_u0627_u0644_u062f_u0648_u0644_u064a_u0020", 
        "u0627_u0644_u0633_u0627_u0639_u0629 u0020 u0032_u003a_u0034_u0035 u0020 u0639_u0635_u0631_u0627_u064b_u002e_u000d", 
        "u0627_u0646_u0647_u0627_u0621 u0020 u0627_u0644_u0627_u062c_u0631_u0627_u0621_u0627_u062a u0020 u0648_u0627_u0644_u062a_u0648_u062c_u0647 u0020 u0627_u0644_u0649 u0020 u0627_u0644_u0641_u0646_u062f_u0642_u0020", 
        "u004f_u0072_u0063_u0068_u0061_u0072_u0064 u0020 u0050_u0061_u0072_u0061_u0064_u0065 u0020 u0048_u006f_u0074_u0065_u006c u0020 u0648_u0627_u0644_u0648_u0635_u0648_u0644_u0020", 
        "u0627_u0644_u0633_u0627_u0639_u0629 u0020 u0034_u003a_u0030_u0030_u002e_u000d", 
        "u062f_u062e_u0648_u0644 u0020 u0627_u0644_u063a_u0631_u0641_u0629 u0020 u0648_u0627_u062e_u0630 u0020 u0642_u0633_u0637 u0020 u0645_u0646 u0020 u0627_u0644_u0631_u0627_u062d_u0629_u0020", 
        "u0644_u0645_u062f_u0629 u0020 u0633_u0627_u0639_u062a_u064a_u0646_u002e_u000d", 
        "u0627_u0644_u062e_u0631_u0648_u062c u0020 u0648_u0627_u0644_u062a_u0646_u0632_u0647 u0020 u0627_u0644_u062d_u0631 u0020 u0641_u064a u0020 u0634_u0627_u0631_u0639_u0020", 
        "u004f_u0072_u0063_u0068_u0061_u0072_u0064 u0020 u0020 u0020 u0627_u0644_u0645_u0639_u0631_u0648_u0641 u0020 u0628_u0627_u0644_u0645_u062d_u0644_u0627_u062a_u0020", 
        "u0648_u0627_u0644_u0645_u0637_u0627_u0639_u0645 u0020 u062d_u062a_u0649 u0020 u0627_u0644_u0633_u0627_u0639_u0629 u0020 u0038_u003a_u0030_u0030_u002e_u000d", 
        "u062a_u0646_u0627_u0648_u0644 u0020 u0648_u062c_u0628_u0629 u0020 u0627_u0644_u0639_u0634_u0627_u0621 u0020 u0641_u064a u0020 u0645_u0637_u0639_u0645_u0020", 
        "u0043_u0072_u0079_u0073_u0074_u0061_u006c u0020 u004a_u0061_u0064_u0065 u0020 u0050_u0061_u006c_u0061_u0063_u0065 u0020 u0627_u0644_u0635_u064a_u0646_u064a u0020 u0028_u0031_u0038_u0030_u0020", 
        "u0631_u064a_u0627_u0644 u0020 u0644_u0644_u0634_u062e_u0635_u0029_u002e_u000d", 
        "u0627_u0644_u0631_u062c_u0648_u0639 u0020 u0644_u0644_u0641_u0646_u062f_u0642 u0020 u0627_u0644_u0633_u0627_u0639_u0629 u0020 u0031_u0030_u003a_u0030_u0030_u0020", 
        "u0645_u0633_u0627_u0621_u0627_u064b_u002e"
    ]
}