{
    "bounding_box": [
        [
            368, 
            501, 
            7, 
            4
        ], 
        [
            60, 
            64, 
            557, 
            24
        ], 
        [
            60, 
            93, 
            558, 
            24
        ], 
        [
            60, 
            121, 
            558, 
            24
        ], 
        [
            60, 
            150, 
            558, 
            25
        ], 
        [
            60, 
            179, 
            558, 
            25
        ], 
        [
            320, 
            208, 
            297, 
            24
        ], 
        [
            60, 
            284, 
            557, 
            24
        ], 
        [
            60, 
            313, 
            558, 
            24
        ], 
        [
            352, 
            343, 
            265, 
            21
        ]
    ], 
    "image_height": 540, 
    "image_width": 720, 
    "transcription": [
        "u0032", 
        "u062a_u0623_u0633_u0633_u062a u0020 u0641_u0649 u0020 u0645_u0635_u0631 u0020 u0637_u0648_u0627_u0644 u0020 u0627_u0644_u0623_u0631_u0628_u0639_u064a_u0646 u0020 u0639_u0627_u0645_u0627 u0020 u0627_u0644_u0645_u0627_u0636_u064a_u0629 u0020 u060c u0020 u062f_u0648_u0644_u0629 u0020 u0645_u062a_u0643_u0627_u0645_u0644_u0629 u0020 u0627_u0644_u0623_u0631_u0643_u0627_u0646_u0020", 
        "u0644_u0644_u0641_u0633_u0627_u062f u0020 u060c u0020 u062a_u0642_u0648_u0645 u0020 u0639_u0644_u0649 u0020 u0623_u0633_u0633 u0020 u0648_u0642_u0648_u0627_u0639_u062f u0020 u0639_u0645_u0644 u0020 u060c u0020 u062a_u0638_u0644_u0644_u0647_u0627 u0020 u0645_u0646_u0638_u0648_u0645_u0629 u0020 u0642_u0627_u0646_u0648_u0646_u064a_u0629_u0020", 
        "u062a_u0634_u0631_u064a_u0639_u064a_u0629 u0020 u060c u0020 u0633_u0648_u0627_u0621 u0020 u0641_u0649 u0020 u0635_u0648_u0631_u0629 u0020 u0642_u0648_u0627_u0646_u064a_u0646 u0020 u0645_u0634_u0631_u0639_u0629 u0020 u0623_u0648 u0020 u063a_u064a_u0631 u0020 u0645_u0634_u0631_u0639_u0629 u0020 u060c u0020 u0628_u062d_u064a_u062b_u0020", 
        "u0634_u0643_u0644_u062a u0020 u0645_u0638_u0644_u0629 u0020 u0022 u0020 u0642_u0627_u0646_u0648_u0646_u064a_u0629 u0020 u0022 u0020 u0647_u0627_u0626_u0644_u0629 u0020 u062a_u0642_u0648_u0645 u0020 u0639_u0644_u0649 u0020 u062d_u0645_u0627_u064a_u0629 u0020 u0623_u0635_u062d_u0627_u0628 u0020 u0627_u0644_u0645_u0635_u0627_u0644_u062d u0020 u0627_u0644_u062c_u062f_u062f_u0020", 
        "u0645_u0646 u0020 u0637_u0628_u0642_u0629 u0020 u0631_u062c_u0627_u0644 u0020 u0627_u0644_u0645_u0627_u0644 u0020 u0648_u0627_u0644_u0623_u0639_u0645_u0627_u0644 u0020 u060c u0020 u0648_u0625_u0633_u062a_u0645_u0631_u062a u0020 u0641_u0649 u0020 u062a_u0639_u0632_u064a_u0632 u0020 u0645_u0648_u0627_u0642_u0639_u0647_u0627 u0020 u0641_u0649 u0020 u0643_u0627_u0641_u0629_u0020", 
        "u0645_u0646_u0627_u062d_u0649 u0020 u0627_u0644_u062d_u064a_u0627_u0629 u0020 u0627_u0644_u0627_u0642_u062a_u0635_u0627_u062f_u064a_u0629 u0020 u0648_u0627_u0644_u0633_u064a_u0627_u0633_u064a_u0629 u0020 u002e u0020 u000d", 
        "u0020_u062b_u0645 u0020 u0631_u0633_u062e_u062a u0020 u0648_u062c_u0648_u062f_u0647_u0627 u0020 u0648_u0647_u064a_u0645_u0646_u062a_u0647_u0627 u0020 u0639_u0628_u0631 u0020 u0022 u0020 u0020_u0632_u0648_u0627_u062c u0020 u0627_u0644_u0645_u062d_u0627_u0631_u0645 u0020 u0022 u0020 u0628_u064a_u0646_u0647_u0627 u0020 u0648_u0631_u062c_u0627_u0644_u0020", 
        "u0627_u0644_u062d_u0643_u0645 u0020 u0648_u0627_u0644_u0625_u062f_u0627_u0631_u0629 u0020 u0645_u0646_u0630 u0020 u0630_u0644_u0643 u0020 u0639_u0627_u0645 u0020 u0031_u0039_u0039_u0032 u0020 u0648_u062d_u062a_u0649 u0020 u0625_u0646_u062f_u0644_u0627_u0639 u0020 u062b_u0648_u0631_u0629 u0020 u0627_u0644_u062e_u0627_u0645_u0633_u0020", 
        "u0648_u0627_u0644_u0639_u0634_u0631_u064a_u0646 u0020 u0645_u0646 u0020 u064a_u0646_u0627_u064a_u0631 u0020 u0639_u0627_u0645 u0020 u0032_u0030_u0031_u0031 u0020 u002e u0020 u000d"
    ]
}