{
    "bounding_box": [
        [
            164, 
            24, 
            398, 
            35
        ], 
        [
            18, 
            63, 
            687, 
            43
        ], 
        [
            48, 
            109, 
            657, 
            35
        ], 
        [
            192, 
            156, 
            340, 
            29
        ], 
        [
            18, 
            201, 
            687, 
            35
        ], 
        [
            18, 
            237, 
            687, 
            37
        ], 
        [
            385, 
            277, 
            321, 
            36
        ], 
        [
            32, 
            320, 
            660, 
            39
        ], 
        [
            235, 
            360, 
            255, 
            32
        ], 
        [
            18, 
            400, 
            687, 
            43
        ], 
        [
            157, 
            445, 
            549, 
            36
        ]
    ], 
    "image_height": 540, 
    "image_width": 720, 
    "transcription": [
        "u0627_u0644_u0645_u0627_u062f_u0629 u0020 u0031_u0033_u003a u0020 u0625_u0645_u0643_u0627_u0646_u064a_u0629 u0020 u0627_u0644_u0644_u062c_u0648_u0621 u0020 u0625_u0644_u0649 u0020 u0627_u0644_u0642_u0636_u0627_u0621_u000d", 
        "u0644_u0644_u0623_u0634_u062e_u0627_u0635 u0020 u0630_u0648_u064a u0020 u0627_u0644_u0625_u0639_u0627_u0642_u0629 u0020 u0627_u0644_u062d_u0642 u0020 u0641_u064a u0020 u0627_u0644_u0644_u062c_u0648_u0621 u0020 u0627_u0644_u0641_u0639_u0627_u0644 u0020 u0625_u0644_u0649 u0020 u0627_u0644_u0642_u0636_u0627_u0621 u0020 u0639_u0644_u0649_u0020", 
        "u0642_u062f_u0645 u0020 u0627_u0644_u0645_u0633_u0627_u0648_u0627_u0629 u0020 u0645_u0639 u0020 u0627_u0644_u063a_u064a_u0631_u060c u0020 u062f_u0648_u0646 u0020 u0627_u0633_u062a_u0628_u0639_u0627_u062f_u0647_u0645 u0020 u0645_u0646 u0020 u0627_u0644_u0625_u062c_u0631_u0627_u0621_u0627_u062a u0020 u0627_u0644_u0642_u0627_u0646_u0648_u0646_u064a_u0629_u002e_u000d", 
        "u0627_u0644_u0645_u0627_u062f_u0629 u0020 u0031_u0034_u003a u0020 u062d_u0631_u064a_u0629 u0020 u0627_u0644_u0634_u062e_u0635 u0020 u0648_u0623_u0645_u0646_u0647_u000d", 
        "u064a_u0643_u0641_u0644 u0020 u0644_u0644_u0623_u0634_u062e_u0627_u0635 u0020 u0630_u0648_u064a u0020 u0627_u0644_u0625_u0639_u0627_u0642_u0629 u0020 u0627_u0644_u062a_u0645_u062a_u0639 u0020 u0628_u0627_u0644_u062d_u0642 u0020 u0641_u064a u0020 u0627_u0644_u062d_u0631_u064a_u0629 u0020 u0648_u0627_u0644_u0623_u0645_u0646_u0020", 
        "u0627_u0644_u0634_u062e_u0635_u064a u0020 u0648_u0639_u062f_u0645 u0020 u062d_u0631_u0645_u0627_u0646_u0647_u0645 u0020 u0645_u0646 u0020 u062d_u0631_u064a_u062a_u0647_u0645_u060c u0020 u0628_u0634_u0643_u0644 u0020 u063a_u064a_u0631 u0020 u0642_u0627_u0646_u0648_u0646_u064a u0020 u0623_u0648_u0020", 
        "u062a_u0639_u0633_u0641_u064a_u060c u0020 u0628_u0633_u0628_u0628 u0020 u0648_u062c_u0648_u062f u0020 u0625_u0639_u0627_u0642_u0629 u0020 u0645_u0627_u002e_u000d", 
        "u0627_u0644_u0645_u0627_u062f_u0629 u0020 u0031_u0035_u003a u0020 u0639_u062f_u0645 u0020 u0627_u0644_u062a_u0639_u0631_u0636 u0020 u0644_u0644_u062a_u0639_u0630_u064a_u0628 u0020 u0623_u0648 u0020 u0627_u0644_u0645_u0639_u0627_u0645_u0644_u0629 u0020 u0623_u0648 u0020 u0627_u0644_u0639_u0642_u0648_u0628_u0629 u0020 u0627_u0644_u0642_u0627_u0633_u064a_u0629_u0020", 
        "u0623_u0648 u0020 u0627_u0644_u0644_u0627_u0625_u0646_u0633_u0627_u0646_u064a_u0629 u0020 u0623_u0648 u0020 u0627_u0644_u0645_u0647_u064a_u0646_u0629_u000d", 
        "u0627_u0644_u0623_u0634_u062e_u0627_u0635 u0020 u0630_u0648_u064a u0020 u0627_u0644_u0625_u0639_u0627_u0642_u0629 u0020 u0627_u0644_u062d_u0642 u0020 u0641_u064a u0020 u0627_u0644_u062d_u0645_u0627_u064a_u0629 u0020 u0645_u0646 u0020 u0627_u0644_u062a_u0639_u0631_u0636 u0020 u0644_u0644_u062a_u0639_u0630_u064a_u0628 u0020 u0623_u0648_u0020", 
        "u0627_u0644_u0645_u0639_u0627_u0645_u0644_u0629 u0020 u0623_u0648 u0020 u0627_u0644_u0639_u0642_u0648_u0628_u0629 u0020 u0627_u0644_u0642_u0627_u0633_u064a_u0629 u0020 u0623_u0648 u0020 u0627_u0644_u0644_u0627_u0625_u0646_u0633_u0627_u0646_u064a_u0629 u0020 u0623_u0648 u0020 u0627_u0644_u0645_u0647_u064a_u0646_u0629_u002e_u000d"
    ]
}