{
    "bounding_box": [
        [
            548, 
            81, 
            151, 
            27
        ], 
        [
            81, 
            131, 
            570, 
            22
        ], 
        [
            376, 
            169, 
            275, 
            20
        ], 
        [
            82, 
            210, 
            569, 
            17
        ], 
        [
            303, 
            247, 
            348, 
            17
        ], 
        [
            342, 
            287, 
            309, 
            18
        ], 
        [
            565, 
            352, 
            113, 
            22
        ], 
        [
            305, 
            417, 
            346, 
            19
        ], 
        [
            557, 
            456, 
            94, 
            15
        ], 
        [
            184, 
            14, 
            351, 
            36
        ]
    ], 
    "image_height": 540, 
    "image_width": 720, 
    "transcription": [
        "u0020_u0634_u0641_u0627_u0641_u064a_u0629 u0020 u0627_u0644_u0645_u064a_u0632_u0627_u0646_u064a_u0629", 
        "u0627_u0644_u0639_u0645_u0644 u0020 u0639_u0644_u0649 u0020 u0646_u0634_u0631 u0020 u0645_u0639_u0644_u0648_u0645_u0627_u062a u0020 u0623_u0633_u0627_u0633_u064a_u0629 u0020 u0641_u064a u0020 u0645_u062c_u0627_u0644 u0020 u0627_u0644_u0645_u064a_u0632_u0627_u0646_u064a_u0629 u0020 u0648_u0627_u0644_u062d_u0633_u0627_u0628_u0627_u062a u0020 u0627_u0644_u0639_u0627_u0645_u0629 u0020 u0648_u062a_u0637_u0648_u064a_u0631 u0020 u0646_u0638_u0627_u0645 u0020 u064a_u0633_u0645_u062d_u0020", 
        "u0628_u0627_u0644_u0648_u0644_u0648_u062c u0020 u0625_u0644_u0649 u0020 u0627_u0644_u0645_u0639_u0644_u0648_u0645_u0627_u062a u0020 u0627_u0644_u0645_u0631_u062a_u0628_u0637_u0629 u0020 u0628_u0627_u0644_u0645_u064a_u0632_u0627_u0646_u064a_u0629_u061b_u000d", 
        "u062f_u0639_u0645 u0020 u0634_u0641_u0627_u0641_u064a_u0629 u0020 u0627_u0644_u0645_u064a_u0632_u0627_u0646_u064a_u0629 u0020 u0627_u0644_u0639_u0627_u0645_u0629 u0020 u060c u0020 u0644_u0627_u0633_u064a_u0645_u0627 u0020 u0639_u0646 u0020 u0637_u0631_u064a_u0642 u0020 u0020_u0625_u063a_u0646_u0627_u0621 u0020 u0627_u0644_u0645_u0639_u0644_u0648_u0645_u0627_u062a u0020 u0627_u0644_u0645_u062a_u0627_u062d_u0629 u0020 u0644_u0644_u0628_u0631_u0644_u0645_u0627_u0646 u0020 u0648_u0627_u0644_u0639_u0645_u0648_u0645_u0020", 
        "u0628_u0645_u0646_u0627_u0633_u0628_u0629 u0020 u0639_u0631_u0636 u0020 u0642_u0627_u0646_u0648_u0646 u0020 u0627_u0644_u0645_u0627_u0644_u064a_u0629_u060c u0020 u0648_u0646_u0634_u0631 u0020 u0627_u0644_u0645_u064a_u0632_u0627_u0646_u064a_u0629 u0020 u0627_u0644_u0645_u0648_u0627_u0637_u0646_u0629_u061b_u000d", 
        "u0625_u0639_u062f_u0627_u062f u0020 u0646_u0634_u0631_u0629 u0020 u0634_u0647_u0631_u064a_u0629 u0020 u062d_u0648_u0644 u0020 u0625_u062d_u0635_u0627_u0626_u064a_u0627_u062a u0020 u0627_u0644_u0645_u0627_u0644_u064a_u0629 u0020 u0627_u0644_u0639_u0627_u0645_u0629_u000d", 
        "u0627_u0644_u0625_u064a_u062c_u0627_u0628_u064a_u0627_u062a_u003a u0020 u000d", 
        "u062a_u062d_u0633_u064a_u0646 u0020 u0627_u0644_u0642_u0631_u0627_u0631_u0627_u062a u0020 u0627_u0644_u0627_u0642_u062a_u0635_u0627_u062f_u064a_u0629 u0020 u0648_u0627_u0644_u0645_u0627_u0644_u064a_u0629 u0020 u0644_u0644_u062f_u0648_u0644_u0629 u0020 u0648_u0627_u0644_u0642_u0637_u0627_u0639 u0020 u0627_u0644_u062e_u0627_u0635_u061b_u000d", 
        "u062a_u0639_u0632_u064a_u0632 u0020 u0627_u0644_u0645_u0633_u0627_u0621_u0644_u0629_u002e_u000d", 
        "u0627_u0644_u062d_u0643_u0648_u0645_u0629 u0020 u0627_u0644_u0645_u0646_u0641_u062a_u062d_u0629_u003a u0020 u0627_u0644_u0634_u0641_u0627_u0641_u064a_u0629"
    ]
}