{
    "bounding_box": [
        [
            17, 
            128, 
            656, 
            26
        ], 
        [
            17, 
            172, 
            656, 
            26
        ], 
        [
            106, 
            215, 
            567, 
            23
        ], 
        [
            17, 
            263, 
            656, 
            25
        ], 
        [
            17, 
            306, 
            656, 
            25
        ], 
        [
            226, 
            349, 
            447, 
            26
        ], 
        [
            17, 
            399, 
            656, 
            25
        ], 
        [
            17, 
            442, 
            656, 
            26
        ], 
        [
            72, 
            487, 
            601, 
            25
        ], 
        [
            276, 
            74, 
            436, 
            28
        ], 
        [
            137, 
            23, 
            569, 
            38
        ]
    ], 
    "image_height": 540, 
    "image_width": 720, 
    "transcription": [
        "u0642_u062f u0020 u062a_u0643_u0648_u0646 u0020 u0627_u0644_u0625_u062f_u0627_u0631_u0629 u0020 u0627_u0646_u062a_u0647_u062a u0020 u0645_u0646 u0020 u0625_u062c_u0631_u0627_u0621 u0020 u062a_u0642_u062f_u064a_u0631 u0020 u0623_u0648_u0644_u064a u0020 u0639_u0646_u062f u0020 u0642_u064a_u0627_u0645 u0020 u0627_u0644_u0645_u062f_u0642_u0642 u0020 u0628_u0625_u062c_u0631_u0627_u0621_u0627_u062a u0020 u062a_u0642_u062f_u064a_u0631_u0020", 
        "u0627_u0644_u0645_u062e_u0627_u0637_u0631_u002e u0020 u0648_u0641_u064a u0020 u062a_u0644_u0643 u0020 u0627_u0644_u062d_u0627_u0644_u0629 u0020 u064a_u0642_u0648_u0645 u0020 u0627_u0644_u0645_u062f_u0642_u0642 u0020 u0628_u0645_u0631_u0627_u062c_u0639_u0629 u0020 u0627_u0644_u062a_u0642_u062f_u064a_u0631 u0020 u0644_u0628_u064a_u0627_u0646 u0020 u0645_u0627 u0020 u0625_u0630_u0627 u0020 u0643_u0627_u0646_u062a u0020 u0627_u0644_u0625_u062f_u0627_u0631_u0629 u0020 u0642_u062f_u0020", 
        "u062d_u062f_u062f_u062a u0020 u0627_u0644_u0623_u062d_u062f_u0627_u062b u0020 u0623_u0648 u0020 u0627_u0644_u0623_u062d_u0648_u0627_u0644 u0020 u0643_u0645_u0627 u0020 u0647_u0648 u0020 u0645_u0628_u064a_u0646 u0020 u0623_u0639_u0644_u0627_u0647 u0020 u0648_u062e_u0637_u0629 u0020 u0627_u0644_u0625_u062f_u0627_u0631_u0629 u0020 u0644_u0644_u062a_u0639_u0627_u0645_u0644 u0020 u0645_u0639_u0647_u0627_u002e_u000d", 
        "u0625_u0630_u0627 u0020 u0644_u0645 u0020 u062a_u0643_u0646 u0020 u0627_u0644_u0625_u062f_u0627_u0631_u0629 u0020 u0642_u062f u0020 u0623_u0639_u062f_u062a u0020 u062a_u0642_u062f_u064a_u0631_u0627 u0020 u0623_u0648_u0644_u064a_u0627_u060c u0020 u0641_u0625_u0646 u0020 u0627_u0644_u0645_u062f_u0642_u0642 u0020 u064a_u0646_u0627_u0642_u0634 u0020 u0645_u0639 u0020 u0627_u0644_u0625_u062f_u0627_u0631_u0629 u0020 u0627_u0644_u0627_u0633_u0627_u0633 u0020 u0627_u0644_u0630_u064a_u0020", 
        "u062a_u0639_u062a_u0645_u062f_u0647 u0020 u0627_u0644_u0627_u062f_u0627_u0631_u0629 u0020 u0644_u0645_u0628_u062f_u0623 u0020 u0627_u0644_u0627_u0633_u062a_u0645_u0631_u0627_u0631_u064a_u0629_u060c u0020 u0648_u064a_u0645_u0643_u0646 u0020 u0644_u0644_u0645_u062f_u0642_u0642 u0020 u0627_u0644_u0637_u0644_u0628 u0020 u0645_u0646 u0020 u0627_u0644_u0627_u062f_u0627_u0631_u0629 u0020 u062a_u0642_u064a_u064a_u0645 u0020 u0645_u0628_u062f_u0623_u0020", 
        "u0627_u0644_u0627_u0633_u062a_u0645_u0631_u0627_u0631_u064a_u0629 u0020 u0641_u064a u0020 u062d_u0627_u0644 u0020 u0648_u062c_u062f u0020 u0627_u0644_u0645_u062f_u0642_u0642 u0020 u0627_u062d_u062f_u0627_u062b u0020 u062a_u062e_u0635 u0020 u0647_u0630_u0627 u0020 u0627_u0644_u0645_u0628_u062f_u0623_u002e_u000d", 
        "u0627_u0644_u0646_u0638_u0631 u0020 u0641_u064a u0020 u062a_u0623_u062b_u064a_u0631 u0020 u0627_u0644_u0623_u062d_u062f_u0627_u062b u0020 u0623_u0648 u0020 u0627_u0644_u0623_u062d_u0648_u0627_u0644 u0020 u0627_u0644_u062a_u064a u0020 u062a_u0645 u0020 u062a_u062d_u062f_u064a_u062f_u0647_u0627 u0020 u0639_u0646_u062f u0020 u062a_u0642_u062f_u064a_u0631 u0020 u0645_u062e_u0627_u0637_u0631 u0020 u0627_u0644_u0628_u064a_u0627_u0646_u0627_u062a_u0020", 
        "u0627_u0644_u062c_u0648_u0647_u0631_u064a_u0629 u0020 u0627_u0644_u062e_u0627_u0637_u0626_u0629 u0020 u0648_u0628_u0627_u0644_u062a_u0627_u0644_u064a u0020 u062a_u0623_u062b_u064a_u0631 u0020 u0648_u062c_u0648_u062f_u0647_u0627 u0020 u0639_u0644_u0649 u0020 u0637_u0628_u064a_u0639_u0629 u0020 u0627_u0644_u0625_u062c_u0631_u0627_u0621_u0627_u062a u0020 u0627_u0644_u0625_u0636_u0627_u0641_u064a_u0629 u0020 u0627_u0644_u062a_u064a u0020 u064a_u0642_u0648_u0645_u0020", 
        "u0628_u0647_u0627 u0020 u0627_u0644_u0645_u062f_u0642_u0642 u0020 u0631_u062f_u0627 u0020 u0639_u0644_u0649 u0020 u0627_u0644_u0645_u062e_u0627_u0637_u0631 u0020 u0627_u0644_u062a_u064a u0020 u064a_u062a_u0645 u0020 u062a_u0642_u062f_u064a_u0631_u0647_u0627 u0020 u0648_u062a_u0648_u0642_u064a_u062a u0020 u0647_u0630_u0647 u0020 u0627_u0644_u0625_u062c_u0631_u0627_u0621_u0627_u062a u0020 u0648_u0645_u062f_u0627_u0647_u0627_u002e_u000d", 
        "u0627_u0644_u062a_u062e_u0637_u064a_u0637 u0020 u0644_u0644_u062a_u062f_u0642_u064a_u0642 u0020 u0648_u0627_u0644_u0642_u064a_u0627_u0645 u0020 u0628_u0625_u062c_u0631_u0627_u0621_u0627_u062a u0020 u062a_u0642_u062f_u064a_u0631 u0020 u0627_u0644_u0645_u062e_u0627_u0637_u0631", 
        "u0628_u0631_u0646_u0627_u0645_u062c u0020 u062a_u062f_u0642_u064a_u0642 u0020 u0641_u062d_u0635 u0020 u0627_u0644_u062a_u062d_u0645_u0644 u0020 u2013 u0020 u0627_u0633_u062a_u0645_u0631_u0627_u0631_u064a_u0629 u0020 u0627_u0644_u0645_u0646_u0634_u0623_u0629"
    ]
}