{
    "bounding_box": [
        [
            315, 
            51, 
            88, 
            36
        ], 
        [
            260, 
            133, 
            198, 
            34
        ]
    ], 
    "image_height": 540, 
    "image_width": 720, 
    "transcription": [
        "u0627_u0644_u0633_u064a_u0627_u0642", 
        "u0627_u0644_u0623_u0637_u0631 u0020 u062a_u062e_u0644_u0642 u0020 u0627_u0644_u0645_u0639_u0627_u0646_u064a"
    ]
}