{
    "bounding_box": [
        [
            245, 
            63, 
            557, 
            36
        ], 
        [
            50, 
            200, 
            735, 
            33
        ], 
        [
            455, 
            235, 
            330, 
            29
        ], 
        [
            43, 
            272, 
            741, 
            32
        ], 
        [
            320, 
            305, 
            464, 
            27
        ], 
        [
            263, 
            345, 
            522, 
            29
        ], 
        [
            60, 
            384, 
            724, 
            31
        ], 
        [
            700, 
            418, 
            84, 
            25
        ], 
        [
            147, 
            456, 
            637, 
            29
        ], 
        [
            346, 
            497, 
            439, 
            28
        ]
    ], 
    "image_height": 540, 
    "image_width": 960, 
    "transcription": [
        "u062a_u0648_u0627_u0641_u0642 u0020 u0645_u0647_u0627_u0645 u0020 u0627_u0644_u0628_u0631_u0627_u0645_u062c u0020 u0627_u0644_u0648_u0637_u0646_u064a_u0629 u0020 u0645_u0639 u0020 u0627_u0644_u0635_u0643_u0648_u0643 u0020 u0627_u0644_u062f_u0648_u0644_u064a_u0629_u000b", 
        "u0625_u0639_u062a_u0645_u0627_u062f u0020 u0648_u0635_u064a_u0627_u0646_u0629 u0020 u0625_u0637_u0627_u0631 u0020 u0648_u0637_u0646_u064a u0020 u0644_u0645_u062c_u0645_u0648_u0639_u0629 u0020 u0645_u0624_u0634_u0631_u0627_u062a u0020 u0644_u062a_u0644_u0628_u064a_u0629 u0020 u0627_u0644_u0627_u062d_u062a_u064a_u0627_u062c_u0627_u062a u0020 u0627_u0644_u0648_u0637_u0646_u064a_u0629 u0020 u0648_u0627_u0644_u0625_u0642_u0644_u064a_u0645_u064a_u0629_u0020", 
        "u0648_u0627_u0644_u062f_u0648_u0644_u064a_u0629 u0020 u0648_u0627_u0644_u0625_u0635_u062f_u0627_u0631 u0020 u0627_u0644_u0645_u0646_u0638_u0645 u0020 u0644_u0645_u0624_u0634_u0631_u0627_u062a_u0647_u061b_u000d", 
        "u062a_u062d_u0633_u064a_u0646 u0020 u062a_u0646_u0633_u064a_u0642 u0020 u0627_u0644_u0639_u0645_u0644 u0020 u0627_u0644_u0627_u062d_u0635_u0627_u0626_u064a u0020 u0641_u064a u0020 u0627_u0644_u0646_u0638_u0627_u0645 u0020 u0627_u0644_u0627_u062d_u0635_u0627_u0626_u064a u0020 u0644_u062c_u0645_u0639 u0020 u0628_u064a_u0627_u0646_u0627_u062a u0020 u0648_u0637_u0646_u064a_u0629 u0020 u0645_u062a_u0646_u0627_u0633_u0642_u0629 u0020 u0645_u0639_u0020", 
        "u0627_u0644_u0645_u0646_u0647_u062c_u064a_u0627_u062a u0020 u0648_u0627_u0644_u062a_u0639_u0627_u0631_u064a_u0641 u0020 u0648_u0627_u0644_u062a_u0635_u0646_u064a_u0641_u0627_u062a u0020 u0648_u0627_u0644_u0645_u0639_u0627_u064a_u064a_u0631 u0020 u0627_u0644_u062f_u0648_u0644_u064a_u0629_u061b_u000d", 
        "u0020_u0625_u0633_u062a_u0645_u0631_u0627_u0631 u0020 u0627_u0644_u062a_u0648_u0627_u0635_u0644 u0020 u0645_u0639 u0020 u0645_u0633_u062a_u062e_u062f_u0645_u064a u0020 u0627_u0644_u0628_u064a_u0627_u0646_u0627_u062a u0020 u0644_u062a_u0644_u0628_u064a_u0629 u0020 u0627_u062d_u062a_u064a_u0627_u062c_u0627_u062a_u0647_u0645_u061b_u000d", 
        "u062a_u0639_u0632_u064a_u0632 u0020 u062f_u0645_u062c u0020 u0645_u0646_u0638_u0648_u0631 u0020 u0627_u0644_u0646_u0648_u0639 u0020 u0627_u0644_u0627_u062c_u062a_u0645_u0627_u0639_u064a u0020 u0641_u064a u0020 u062c_u0645_u064a_u0639 u0020 u0627_u0644_u0639_u0645_u0644_u064a_u0627_u062a u0020 u0627_u0644_u0625_u062d_u0635_u0627_u0626_u064a_u0629 u0020 u0648_u0646_u0638_u0645 u0020 u0627_u0644_u0633_u062c_u0644_u0627_u062a_u0020", 
        "u0627_u0644_u0625_u062f_u0627_u0631_u064a_u0629_u061b_u000d", 
        "u062f_u0639_u0645 u0020 u0648_u062a_u0639_u0632_u064a_u0632 u0020 u0627_u0644_u062c_u0647_u0648_u062f u0020 u0627_u0644_u0648_u0637_u0646_u064a_u0629 u0020 u0644_u0625_u062c_u0631_u0627_u0621 u0020 u0627_u0644_u062f_u0631_u0627_u0633_u0627_u062a u0020 u0627_u0644_u0643_u0645_u064a_u0629 u0020 u0648_u0627_u0644_u0646_u0648_u0639_u064a_u0629 u0020 u0627_u0644_u062a_u062d_u0644_u064a_u0644_u064a_u0629_u061b_u000d", 
        "u0625_u062a_u0627_u062d_u0629 u0020 u0627_u0644_u0628_u064a_u0627_u0646_u0627_u062a u0020 u0648_u0627_u0644_u0645_u0639_u0644_u0648_u0645_u0627_u062a u0020 u0625_u0644_u0649 u0020 u062c_u0645_u064a_u0639 u0020 u0627_u0644_u0645_u0633_u062a_u062e_u062f_u0645_u064a_u0646_u002e_u0020"
    ]
}