{
    "bounding_box": [
        [
            32, 
            55, 
            608, 
            39
        ], 
        [
            341, 
            103, 
            299, 
            39
        ], 
        [
            32, 
            161, 
            608, 
            43
        ], 
        [
            435, 
            209, 
            205, 
            37
        ], 
        [
            32, 
            268, 
            608, 
            39
        ], 
        [
            508, 
            314, 
            131, 
            38
        ], 
        [
            32, 
            373, 
            608, 
            42
        ], 
        [
            32, 
            421, 
            608, 
            42
        ], 
        [
            422, 
            469, 
            217, 
            41
        ]
    ], 
    "image_height": 540, 
    "image_width": 720, 
    "transcription": [
        "u062a_u062d_u062f_u064a_u062f u0020 u0627_u0644_u0645_u0634_u0627_u0643_u0644 u0020 u0648_u0627_u0644_u0623_u0647_u062f_u0627_u0641 u0020 u0648_u062d_u0635_u0631 u0020 u0627_u0644_u0645_u062a_u063a_u064a_u0631_u0627_u062a_u0020", 
        "u0627_u0644_u0645_u062a_u0639_u0644_u0642_u0629 u0020 u0628_u0647_u0630_u0647 u0020 u0627_u0644_u0645_u0634_u0627_u0643_u0644_u002e_u000d", 
        "u0020_u062f_u0631_u0627_u0633_u0629 u0020 u0627_u0644_u0645_u062a_u063a_u064a_u0631_u0627_u062a u0020 u0627_u0644_u0633_u064a_u0627_u062d_u064a_u0629 u0020 u0648_u062a_u062d_u0644_u064a_u0644_u0647_u0627 u0020 u0648_u0625_u0642_u062a_u0631_u0627_u062d_u0020", 
        "u0627_u0644_u0628_u062f_u0627_u0626_u0644 u0020 u0627_u0644_u0645_u0645_u0643_u0646_u0629_u002e_u000d", 
        "u0020_u0625_u062e_u062a_u064a_u0627_u0631 u0020 u0627_u0644_u062d_u0644 u0020 u0627_u0644_u0623_u0646_u0633_u0628 u0020 u0644_u062a_u062d_u0642_u064a_u0642 u0020 u0623_u0647_u062f_u0627_u0641 u0020 u0627_u0644_u062e_u0637_u0629_u0020", 
        "u0627_u0644_u0633_u064a_u0627_u062d_u064a_u0629_u002e_u000d", 
        "u0020_u062a_u0646_u0641_u064a_u0630 u0020 u0627_u0644_u0645_u0634_u0631_u0648_u0639_u0627_u062a u0020 u062e_u0644_u0627_u0644 u0020 u0641_u062a_u0631_u0629 u0020 u0632_u0645_u0646_u064a_u0629 u0020 u0645_u062d_u062f_u062f_u0629 u0020 u0645_u0639_u0020", 
        "u062a_u0648_u0641_u064a_u0631 u0020 u0643_u0627_u0641_u0629 u0020 u0627_u0644_u0648_u0633_u0627_u0626_u0644 u0020 u0627_u0644_u0623_u062e_u0631_u0649 u0020 u0625_u0644_u0649 u0020 u0627_u0644_u0625_u0637_u0627_u0631_u0020", 
        "u0627_u0644_u0645_u0631_u0633_u0648_u0645 u0020 u0644_u0644_u062e_u0637_u0629_u002e_u000d"
    ]
}