{
    "bounding_box": [
        [
            70, 
            154, 
            606, 
            56
        ], 
        [
            94, 
            212, 
            545, 
            56
        ], 
        [
            326, 
            278, 
            107, 
            39
        ]
    ], 
    "image_height": 540, 
    "image_width": 720, 
    "transcription": [
        "u0627_u0644_u0645_u0633_u0627_u0647_u0645_u0629 u0020 u0641_u064a u0020 u062a_u0637_u0648_u064a_u0631 u0020 u0627_u0644_u062a_u0634_u0631_u064a_u0639_u0627_u062a u0020 u0627_u0644_u0648_u0637_u0646_u064a_u0629_u0020", 
        "u0648 u0020 u0627_u0644_u062f_u0648_u0644_u064a_u0629 u0020 u0627_u0644_u062e_u0627_u0635_u0629 u0020 u0628_u0627_u0644_u0639_u0645_u0644 u0020 u0648 u0020 u0639_u0644_u0627_u0642_u0627_u062a_u0020", 
        "u0627_u0644_u0639_u0645_u0644 u0020 u000d"
    ]
}