{
    "bounding_box": [
        [
            196, 
            90, 
            342, 
            55
        ], 
        [
            71, 
            152, 
            576, 
            52
        ], 
        [
            323, 
            342, 
            85, 
            33
        ], 
        [
            199, 
            387, 
            321, 
            44
        ]
    ], 
    "image_height": 540, 
    "image_width": 720, 
    "transcription": [
        "u0627_u0644_u0627_u0642_u062a_u0635_u0627_u062f u0020 u0627_u0644_u0648_u0637_u0646_u064a u0020 u003a u0020 u000d", 
        "u0627_u0644_u0645_u062e_u0627_u0637_u0631 u0020 u0627_u0644_u0627_u0642_u062a_u0635_u0627_u062f_u064a_u0629 u0020 u0648_u0633_u0628_u0644 u0020 u0625_u062f_u0627_u0631_u062a_u0647_u0627", 
        "u0625_u0639_u062f_u0627_u062f_u000d", 
        "u0627_u0644_u062f_u0643_u062a_u0648_u0631 u0020 u0639_u0628_u062f_u0627_u0644_u0644_u0647 u0020 u0627_u0644_u0635_u0627_u062f_u0642"
    ]
}