{
    "bounding_box": [
        [
            299, 
            56, 
            132, 
            28
        ], 
        [
            32, 
            126, 
            668, 
            24
        ], 
        [
            29, 
            152, 
            644, 
            24
        ], 
        [
            81, 
            178, 
            592, 
            24
        ], 
        [
            115, 
            204, 
            558, 
            24
        ], 
        [
            25, 
            230, 
            648, 
            24
        ], 
        [
            177, 
            256, 
            496, 
            24
        ], 
        [
            50, 
            319, 
            650, 
            26
        ], 
        [
            464, 
            347, 
            209, 
            24
        ], 
        [
            26, 
            377, 
            673, 
            27
        ], 
        [
            129, 
            405, 
            544, 
            24
        ], 
        [
            31, 
            436, 
            6, 
            21
        ]
    ], 
    "image_height": 540, 
    "image_width": 720, 
    "transcription": [
        "u0645_u0644_u0627_u062d_u0638_u0627_u062a", 
        "u0031_u002d_u062a_u062e_u062a_u0644_u0641 u0020 u0639_u062c_u0644_u0629 u0020 u0627_u0644_u062c_u0627_u0630_u0628_u064a_u0629 u0020 u0645_u0646 u0020 u0645_u0643_u0627_u0646 u0020 u0627_u0644_u0649 u0020 u0622_u062e_u0631 u0020 u0639_u0644_u0649 u0020 u0633_u0637_u062d_u0020", 
        "u0627_u0644_u0623_u0631_u0636 u0020 u0627_u062e_u062a_u0644_u0627_u0641_u0627 u0020 u0628_u0633_u064a_u0637_u0627 u0020 u0648_u0630_u0644_u0643 u0020 u062a_u0628_u0639_u0627 u0020 u0644_u0642_u0631_u0628 u0020 u0627_u0644_u0645_u0643_u0627_u0646 u0020 u0623_u0648 u0020 u0628_u0639_u062f_u0647_u0020", 
        "u0639_u0646 u0020 u0633_u0637_u062d u0020 u0627_u0644_u0623_u0631_u0636 u0020 u0648_u0646_u0638_u0631_u0627 u0020 u0644_u062a_u0641_u0644_u0637_u062d u0020 u0627_u0644_u0627_u0631_u0636 u0020 u0642_u0644_u064a_u0644_u0627 u0020 u0639_u0646_u062f_u0020", 
        "u0642_u0637_u0628_u064a_u0647_u0627 u0020 u062a_u0643_u0648_u0646 u0020 u0639_u062c_u0644_u0629 u0020 u0627_u0644_u062c_u0627_u0630_u0628_u064a_u0629 u0020 u0623_u0643_u0628_u0631 u0020 u0645_u0627 u0020 u064a_u0645_u0643_u0646 u0020 u0639_u0646_u062f_u0020", 
        "u0627_u0644_u0642_u0637_u0628_u064a_u0646 u0020 u0644_u0642_u0631_u0628_u0647_u0645_u0627 u0020 u0645_u0646 u0020 u0645_u0631_u0643_u0632 u0020 u0627_u0644_u0623_u0631_u0636 u0020 u0648_u062a_u0643_u0648_u0646 u0020 u0623_u0642_u0644 u0020 u0645_u0627 u0020 u064a_u0645_u0643_u0646_u0020", 
        "u0639_u0646_u062f u0020 u062e_u0637 u0020 u0627_u0644_u0627_u0633_u062a_u0648_u0627_u0621 u0020 u0644_u0628_u0639_u062f_u0647 u0020 u0639_u0646 u0020 u0645_u0631_u0643_u0632 u0020 u0627_u0644_u0623_u0631_u0636 u0020 u000d", 
        "u0020_u0032_u002d_u062a_u0642_u0644 u0020 u0639_u062c_u0644_u0629 u0020 u0627_u0644_u062c_u0627_u0630_u0628_u064a_u0629 u0020 u0641_u064a u0020 u0627_u0644_u0645_u0643_u0627_u0646 u0020 u0627_u0644_u0648_u0627_u062d_u062f u0020 u0643_u0644_u0645_u0627 u0020 u0627_u0631_u062a_u0641_u0639_u0646_u0627_u0020", 
        "u0639_u0646 u0020 u0633_u0637_u062d u0020 u0627_u0644_u0628_u062d_u0631 u0020 u000d", 
        "u0033_u002d_u0639_u0646_u062f_u0645_u0627 u0020 u064a_u0633_u0642_u0637 u0020 u0627_u0644_u062c_u0633_u0645 u0020 u0633_u0642_u0648_u0637_u0627 u0020 u062d_u0631_u0627 u0020 u0641_u064a u0020 u0645_u062c_u0627_u0644 u0020 u0627_u0644_u062c_u0627_u0630_u0628_u064a_u0629_u0020", 
        "u0627_u0644_u0623_u0631_u0636_u064a_u0629 u0020 u0641_u0625_u0646 u0020 u0633_u0631_u0639_u062a_u0647 u0020 u0627_u0644_u0627_u0628_u062a_u062f_u0627_u0626_u064a_u0629 u0020 u062a_u0633_u0627_u0648_u064a u0020 u0635_u0641_u0631_u0627 u0020 u000d", 
        "u0627"
    ]
}