{
    "bounding_box": [
        [
            447, 
            41, 
            253, 
            37
        ], 
        [
            449, 
            130, 
            170, 
            28
        ], 
        [
            469, 
            175, 
            151, 
            26
        ], 
        [
            507, 
            217, 
            113, 
            29
        ]
    ], 
    "image_height": 540, 
    "image_width": 720, 
    "transcription": [
        "u062d_u0645_u0627_u064a_u0629 u0020 u0627_u0644_u0639_u064a_u0646 u0020 u0648_u0627_u0644_u0648_u062c_u0647", 
        "u0646_u0638_u0627_u0631_u0627_u062a u0020 u0627_u0644_u0633_u0644_u0627_u0645_u0629_u000d", 
        "u0648_u0627_u0642_u064a_u0627_u062a u0020 u0627_u0644_u0639_u064a_u0646_u064a_u0646_u000d", 
        "u0648_u0627_u0642_u064a u0020 u0627_u0644_u0648_u062c_u0647"
    ]
}