{
    "bounding_box": [
        [
            65, 
            77, 
            547, 
            27
        ], 
        [
            65, 
            106, 
            547, 
            30
        ], 
        [
            65, 
            137, 
            547, 
            30
        ], 
        [
            65, 
            170, 
            547, 
            29
        ], 
        [
            65, 
            203, 
            547, 
            28
        ], 
        [
            65, 
            234, 
            547, 
            28
        ], 
        [
            65, 
            266, 
            547, 
            26
        ], 
        [
            73, 
            298, 
            540, 
            29
        ], 
        [
            65, 
            330, 
            547, 
            29
        ], 
        [
            65, 
            362, 
            547, 
            29
        ], 
        [
            65, 
            394, 
            547, 
            27
        ], 
        [
            65, 
            429, 
            547, 
            26
        ], 
        [
            440, 
            458, 
            172, 
            29
        ]
    ], 
    "image_height": 540, 
    "image_width": 720, 
    "transcription": [
        "u062b_u0645 u0020 u0638_u0647_u0631 u0020 u0627_u0644_u0625_u0635_u062f_u0627_u0631 u0020 u0627_u0644_u0631_u0627_u0628_u0639 u0020 u0645_u0646 u0020 u004f_u0072_u0061_u0063_u006c_u0065 u0020 u0641_u064a u0020 u0639_u0627_u0645 u0020 u0031_u0039_u0038_u0034_u0020", 
        "u0648_u0628_u0639_u062f_u0647_u0627 u0020 u0628_u062d_u0648_u0627_u0644_u064a u0020 u0633_u0646_u0629 u0020 u0645_u0646 u0020 u0647_u0630_u0627 u0020 u0627_u0644_u0625_u0635_u062f_u0627_u0631 u0020 u062a_u0645 u0020 u0638_u0647_u0648_u0631 u0020 u0627_u0644_u0625_u0635_u062f_u0627_u0631_u0020", 
        "u0627_u0644_u062e_u0627_u0645_u0633 u0020 u0648_u0642_u062f u0020 u0643_u0627_u0646 u0020 u0647_u0630_u0627 u0020 u0627_u0644_u0625_u0635_u062f_u0627_u0631 u0020 u0623_u0648_u0644 u0020 u0628_u0631_u0646_u0627_u0645_u062c u0020 u064a_u062f_u062e_u0644 u0020 u0645_u0641_u0647_u0648_u0645_u0020", 
        "u0043_u006c_u0069_u0065_u006e_u0074_u002f_u0053_u0065_u0072_u0076_u0065_u0072 u0020 u0627_u0644_u0628_u0631_u0645_u062c_u064a u0020 u0627_u0644_u0649 u0020 u0627_u0644_u0644_u063a_u0627_u062a u0020 u0627_u0644_u0628_u0631_u0645_u062c_u064a_u0629 u0020 u0628_u0627_u0633_u062a_u062e_u062f_u0627_u0645_u0020", 
        "u0053_u0051_u004c u0020 u002e u0020 u004e_u0065_u0074 u0020 u062b_u0645 u0020 u0638_u0647_u0631 u0020 u0627_u0644_u0625_u0635_u062f_u0627_u0631 u0020 u0627_u0644_u062b_u0627_u0645_u0646 u0020 u004f_u0072_u0061_u0063_u006c_u0065 u0020 u0038 u0020 u0641_u064a u0020 u0639_u0627_u0645_u0020", 
        "u0031_u0039_u0039_u0037 u0020 u0648_u0642_u062f u0020 u0623_u0636_u0627_u0641 u0020 u0625_u0645_u0643_u0627_u0646_u064a_u0627_u062a u0020 u062c_u062f_u064a_u062f_u0629 u0020 u0625_u0644_u0649 u0020 u0625_u062f_u0627_u0631_u0629 u0020 u0642_u0648_u0627_u0639_u062f u0020 u0627_u0644_u0628_u064a_u0627_u0646_u0627_u062a_u002e_u0020", 
        "u0648_u062e_u0644_u0627_u0644 u0020 u0641_u062a_u0631_u0629 u0020 u0644_u064a_u0633_u062a u0020 u0628_u0627_u0644_u0628_u0639_u064a_u062f_u0629 u0020 u0638_u0647_u0631_u062a u0020 u0646_u0633_u062e_u0629 u0020 u004f_u0072_u0061_u0063_u006c_u0065 u0020 u0038_u0069_u0020", 
        "u0627_u0644_u0645_u062d_u062f_u062b_u0629 u0020 u0648_u062a_u0644_u062a_u0647_u0627 u0020 u0627_u0644_u0646_u0633_u062e_u062a_u064a_u0646 u0020 u004f_u0072_u0061_u0063_u006c_u0065 u0020 u0039 u0020 u002c u0020 u0020_u004f_u0072_u0061_u0063_u006c_u0065 u0020 u0039_u0069 u0020 u0020", 
        "u0648_u0623_u062e_u064a_u0631_u0627 u0020 u0641_u0642_u062f u0020 u062a_u0645 u0020 u0625_u0635_u062f_u0627_u0631 u0020 u004f_u0072_u0061_u0063_u006c_u0065 u0020 u0031_u0030_u0067 u0020 u0644_u064a_u0645_u062b_u0644 u0020 u062b_u0648_u0631_u0629 u0020 u062d_u0642_u064a_u0642_u064a_u0629 u0020 u0641_u064a_u0020", 
        "u0623_u0633_u0644_u0648_u0628 u0020 u0631_u0628_u0637 u0020 u0627_u0644_u0633_u064a_u0631_u0641_u0631_u0627_u062a u0020 u0648_u0627_u0644_u0639_u0645_u0644 u0020 u0641_u064a u0020 u0628_u064a_u0626_u0629 u0020 u0623_u0643_u062b_u0631 u0020 u0633_u0647_u0648_u0644_u0629 u0020 u0648_u0627_u0644_u0630_u064a_u0020", 
        "u064a_u062a_u0636_u0645_u0646 u0020 u0627_u0644_u0639_u062f_u064a_u062f u0020 u0645_u0646 u0020 u0627_u0644_u0645_u064a_u0632_u0627_u062a u0020 u0648_u0627_u0644_u062a_u0642_u0646_u064a_u0627_u062a u0020 u0648_u0623_u062f_u0648_u0627_u062a u0020 u0625_u062f_u0627_u0631_u0629 u0020 u0642_u0648_u0627_u0639_u062f_u0020", 
        "u0627_u0644_u0628_u064a_u0627_u0646_u0627_u062a u0020 u0648_u0627_u0644_u0633_u0645_u0627_u062d u0020 u0644_u0648_u062c_u0648_u062f u0020 u062d_u0642_u0648_u0644 u0020 u062a_u062a_u0633_u0639 u0020 u0625_u0644_u0649 u0020 u062d_u062f u0020 u0034_u0047_u0042 u0020 u0020 u0020 u0644_u0644_u062d_u0642_u0644_u0020", 
        "u0627_u0644_u0648_u0627_u062d_u062f u0020 u0643_u062d_u062f u0020 u0623_u0642_u0635_u0649_u002e_u000d"
    ]
}