{
    "bounding_box": [
        [
            123, 
            35, 
            453, 
            26
        ], 
        [
            495, 
            87, 
            149, 
            25
        ], 
        [
            79, 
            122, 
            564, 
            29
        ], 
        [
            104, 
            152, 
            539, 
            29
        ], 
        [
            106, 
            185, 
            538, 
            29
        ], 
        [
            528, 
            261, 
            116, 
            27
        ], 
        [
            79, 
            301, 
            564, 
            25
        ], 
        [
            126, 
            329, 
            517, 
            29
        ], 
        [
            107, 
            363, 
            537, 
            28
        ], 
        [
            486, 
            395, 
            157, 
            28
        ]
    ], 
    "image_height": 540, 
    "image_width": 720, 
    "transcription": [
        "u0627_u0644_u062f_u0631_u0633 u0020 u0036_u002d_u0033_u003a u0020 u062a_u062d_u0636_u064a_u0631 u0020 u0627_u0644_u0639_u0631_u0636 u0020 u0627_u0644_u062a_u0642_u062f_u064a_u0645_u064a u0020 u0627_u0644_u062e_u0627_u0635 u0020 u0628_u0643_u0020", 
        "u0627_u0644_u062a_u062f_u0642_u064a_u0642 u0020 u0627_u0644_u0625_u0645_u0644_u0627_u0626_u064a_u000d", 
        "u0645_u0646 u0020 u0623_u062c_u0644 u0020 u062a_u062f_u0642_u064a_u0642 u0020 u0627_u0644_u0623_u062e_u0637_u0627_u0621 u0020 u0627_u0644_u0625_u0645_u0644_u0627_u0626_u064a_u0629 u0020 u0641_u064a u0020 u0627_u0644_u0639_u0631_u0636 u0020 u0627_u0644_u062a_u0642_u062f_u064a_u0645_u064a u0020 u0627_u0644_u062e_u0627_u0635 u0020 u0628_u0643_u060c_u0020", 
        "u0642_u0645 u0020 u0628_u0627_u0644_u0646_u0642_u0631 u0020 u0639_u0644_u0649 u0020 u0645_u0631_u0627_u062c_u0639_u0629 u0020 u2190 u0020 u062a_u062f_u0642_u064a_u0642 u0020 u0625_u0645_u0644_u0627_u0626_u064a_u060c u0020 u0623_u0648 u0020 u0642_u0645 u0020 u0628_u0627_u0644_u0646_u0642_u0631 u0020 u0639_u0644_u0649 u0020 u0631_u0645_u0632_u0020", 
        "u0627_u0644_u062a_u062f_u0642_u064a_u0642 u0020 u0627_u0644_u0625_u0645_u0644_u0627_u0626_u064a u0020 u0641_u064a u0020 u0634_u0631_u064a_u0637 u0020 u0627_u0644_u0645_u0639_u0644_u0648_u0645_u0627_u062a_u060c u0020 u0623_u0648 u0020 u0627_u0633_u062a_u062e_u062f_u0645 u0020 u0627_u062e_u062a_u0635_u0627_u0631 u0020 u0046_u0037_u000d", 
        "u062a_u063a_u064a_u064a_u0631 u0020 u0627_u0644_u0646_u0633_u0642_u000d", 
        "u0628_u0627_u0644_u0634_u0643_u0644 u0020 u0627_u0644_u0627_u0641_u062a_u0631_u0627_u0636_u064a_u060c u0020 u062a_u0633_u062a_u062e_u062f_u0645 u0020 u062c_u0645_u064a_u0639 u0020 u0627_u0644_u0639_u0631_u0648_u0636 u0020 u0627_u0644_u062a_u0642_u062f_u064a_u0645_u064a_u0629 u0020 u0627_u0644_u0641_u0627_u0631_u063a_u0629 u0020 u0646_u0633_u0642_u0020", 
        "u0623_u0648_u0641_u064a_u0633_u002e u0020 u0028_u064a_u0645_u0643_u0646 u0020 u0623_u0646 u0020 u062a_u0633_u062a_u062e_u062f_u0645 u0020 u0627_u0644_u0642_u0648_u0627_u0644_u0628 u0020 u0646_u064f_u0633_u0642 u0020 u0645_u062e_u062a_u0644_u0641_u0629_u060c u0020 u0623_u0648 u0020 u062d_u062a_u0649 u0020 u0646_u0633_u0642_u0020", 
        "u0645_u062e_u0635_u0635_u002e_u0029 u0020 u0648_u0645_u0646 u0020 u0623_u062c_u0644 u0020 u062a_u063a_u064a_u064a_u0631 u0020 u0627_u0644_u0646_u0633_u0642_u060c u0020 u0642_u0645 u0020 u0628_u0627_u0644_u0646_u0642_u0631 u0020 u0639_u0644_u0649 u0020 u0635_u0648_u0631_u0629 u0020 u0643_u0628_u064a_u0631_u0629_u0020", 
        "u0641_u064a u0020 u0645_u0639_u0631_u0636 u0020 u0627_u0644_u0646_u064f_u0633_u0642_u000d"
    ]
}