{
    "bounding_box": [
        [
            17, 
            116, 
            678, 
            93
        ], 
        [
            42, 
            232, 
            653, 
            104
        ], 
        [
            78, 
            346, 
            617, 
            93
        ]
    ], 
    "image_height": 540, 
    "image_width": 720, 
    "transcription": [
        "u0020_u0627_u0644_u0639_u0644_u0627_u0642_u0627_u062a u0020 u0627_u0644_u0645_u062a_u0628_u0627_u062f_u0644_u0629 u0020 u0628_u064a_u0646_u0020", 
        "u0627_u0644_u0645_u062e_u0644_u0648_u0642_u0627_u062a u0020 u0627_u0644_u062d_u064a_u0651_u0629 u0020 u0641_u064a u0020 u0020", 
        "u0020 u0020 u0020_u0627_u0644_u0645_u0646_u0638_u0648_u0645_u0629 u0020 u0627_u0644_u0628_u064a_u0626_u064a_u0629 u0020 u0020"
    ]
}