{
    "bounding_box": [
        [
            14, 
            26, 
            666, 
            43
        ], 
        [
            14, 
            75, 
            675, 
            42
        ], 
        [
            14, 
            123, 
            675, 
            42
        ], 
        [
            14, 
            170, 
            675, 
            43
        ], 
        [
            14, 
            218, 
            675, 
            37
        ], 
        [
            14, 
            268, 
            675, 
            41
        ], 
        [
            14, 
            314, 
            675, 
            43
        ], 
        [
            14, 
            362, 
            675, 
            43
        ], 
        [
            14, 
            411, 
            675, 
            42
        ], 
        [
            377, 
            457, 
            312, 
            43
        ]
    ], 
    "image_height": 540, 
    "image_width": 720, 
    "transcription": [
        "u0648_u0631_u063a_u0645 u0020 u0627_u0644_u0627_u0647_u0645_u064a_u0629 u0020 u0627_u0644_u0643_u0628_u064a_u0631_u0629 u0020 u0644_u0644_u0645_u0648_u0642_u0639 u0020 u0627_u0644_u0627 u0020 u0627_u0646 u0020 u0647_u0646_u0627_u0643 u0020 u0628_u0639_u0636_u0020", 
        "u0627_u0644_u0645_u0644_u0627_u062d_u0638_u0627_u062a u0020 u0627_u0644_u062a_u064a u0020 u064a_u062c_u0628 u0020 u0627_u0646 u0020 u062a_u0639_u0627_u0644_u062c u0020 u0643_u062c_u0627_u0646_u0628 u0020 u062a_u0637_u0648_u064a_u0631_u064a u0020 u0644_u0647_u0630_u0627_u0020", 
        "u0627_u0644_u0645_u0648_u0642_u0639 u0020 u0627_u0644_u0645_u0647_u0645 u0020 u0643_u0636_u0631_u0648_u0631_u0629 u0020 u062a_u0637_u0648_u064a_u0631 u0020 u0627_u0644_u0645_u0648_u0627_u0642_u0639 u0020 u0648_u0627_u0644_u0645_u0631_u0627_u0641_u0642_u0020", 
        "u0627_u0644_u0635_u062d_u064a_u0629_u060c u0020 u0648_u0648_u062c_u0648_u062f u0020 u0645_u0631_u0643_u0632 u0020 u0637_u0628_u064a u0020 u0645_u062a_u062e_u0635_u0635_u060c u0020 u062a_u0648_u0641_u064a_u0631_u0020", 
        "u062d_u0627_u0641_u0644_u0627_u062a u0020 u0628_u0645_u0648_u0627_u0635_u0641_u0627_u062a u0020 u062e_u0627_u0635_u0629 u0020 u0644_u0644_u062a_u0646_u0642_u0644 u0020 u062f_u0627_u062e_u0644 u0020 u0645_u0646_u0637_u0642_u0629_u0020", 
        "u0627_u0644_u063a_u0637_u0633 u0020 u0628_u0627_u0639_u062f_u0627_u062f u0020 u062a_u062a_u0646_u0627_u0633_u0628 u0020 u0645_u0639 u0020 u0627_u0639_u062f_u0627_u062f u0020 u0627_u0644_u0632_u0627_u0626_u0631_u064a_u0646_u060c u0020 u0648_u0631_u063a_u0645_u0020", 
        "u0627_u0644_u062d_u0627_u062c_u0629 u0020 u0627_u0644_u0649 u0020 u0627_u0644_u062a_u0648_u0633_u0639 u0020 u0641_u064a u0020 u0628_u0646_u0627_u0621 u0020 u0627_u0644_u0643_u0646_u0627_u0626_u0633 u0020 u0627_u0644_u0627 u0020 u0627_u0646_u0647 u0020 u064a_u062c_u0628_u0020", 
        "u0627_u0644_u0645_u062d_u0627_u0641_u0638_u0629 u0020 u0639_u0644_u0649 u0020 u062e_u0635_u0648_u0635_u064a_u0629 u0020 u0627_u0644_u0645_u0648_u0642_u0639_u060c u0020 u0627_u064a u0020 u0627_u0646 u0020 u062a_u0628_u0642_u0649 u0020 u0647_u0646_u0627_u0643_u0020", 
        "u0645_u0646_u0627_u0637_u0642 u0020 u062a_u062d_u0627_u0641_u0638 u0020 u0628_u062f_u0627_u0626_u064a_u062a_u0647_u0627 u0020 u0648_u0628_u0631_u064a_u062a_u0647_u0627 u0020 u0022 u0020 u0643_u0627_u0646 u0020 u064a_u0648_u062d_u0646_u0627 u0020 u064a_u0639_u0645_u062f u0020 u0641_u064a_u0020", 
        "u0627_u0644_u0628_u0631_u064a_u0629_u0022 u0020 u0645_u0631_u0642_u0633 u0020 u0028_u0031_u003a_u0034_u0029_u002e u0020 u000d"
    ]
}