{
    "bounding_box": [
        [
            89, 
            24, 
            617, 
            39
        ], 
        [
            17, 
            129, 
            688, 
            38
        ], 
        [
            17, 
            172, 
            688, 
            39
        ], 
        [
            17, 
            215, 
            688, 
            35
        ], 
        [
            17, 
            256, 
            688, 
            41
        ], 
        [
            17, 
            299, 
            688, 
            41
        ], 
        [
            17, 
            343, 
            688, 
            41
        ], 
        [
            17, 
            385, 
            688, 
            42
        ], 
        [
            335, 
            428, 
            371, 
            36
        ]
    ], 
    "image_height": 540, 
    "image_width": 720, 
    "transcription": [
        "u0627_u0644_u062a_u0632_u0627_u0645 u0020 u0627_u0644_u062f_u0648_u0644 u0020 u0627_u0644_u0623_u0637_u0631_u0627_u0641 u0020 u0641_u064a u0020 u0627_u0644_u0627_u062a_u0641_u0627_u0642_u064a_u0629 u0020 u0628_u062a_u0642_u062f_u064a_u0645 u0020 u062a_u0642_u0627_u0631_u064a_u0631 u0020 u0644_u0644_u062c_u0646_u0629_u000d", 
        "u062a_u0644_u062a_u0632_u0645 u0020 u0627_u0644_u062f_u0648_u0644 u0020 u0627_u0644_u0623_u0637_u0631_u0627_u0641 u0020 u0641_u064a u0020 u0627_u0644_u0627_u062a_u0641_u0627_u0642_u064a_u0629 u0020 u0628_u0623_u0646 u0020 u062a_u0642_u062f_u0645 u0020 u0625_u0644_u0649 u0020 u0627_u0644_u0644_u062c_u0646_u0629 u0020 u062a_u0642_u0631_u064a_u0631_u0020", 
        "u0623_u0648_u0644_u064a u0020 u0641_u064a u0020 u063a_u0636_u0648_u0646 u0020 u0633_u0646_u0629 u0020 u062b_u0645 u0020 u062a_u0642_u0631_u064a_u0631 u0020 u062f_u0648_u0631_u064a u0020 u0643_u0644 u0020 u0623_u0631_u0628_u0639 u0020 u0633_u0646_u0648_u0627_u062a_u060c_u0020", 
        "u0639_u0645_u0627 u0020 u0627_u062a_u062e_u0630_u062a_u0647 u0020 u0645_u0646 u0020 u062a_u062f_u0627_u0628_u064a_u0631 u0020 u062a_u0634_u0631_u064a_u0639_u064a_u0629 u0020 u0648_u0642_u0636_u0627_u0626_u064a_u0629 u0020 u0648_u0625_u062f_u0627_u0631_u064a_u0629 u0020 u0648_u063a_u064a_u0631_u0647_u0627_u0020", 
        "u0645_u0646 u0020 u0623_u062c_u0644 u0020 u0625_u0646_u0641_u0627_u0630 u0020 u0623_u062d_u0643_u0627_u0645 u0020 u0627_u0644_u0627_u062a_u0641_u0627_u0642_u064a_u0629 u0020 u0648_u0645_u0627 u0020 u062d_u0642_u0642_u062a_u0647 u0020 u0645_u0646 u0020 u062a_u0642_u062f_u0645 u0020 u0628_u0647_u0630_u0627_u0020", 
        "u0627_u0644_u062e_u0635_u0648_u0635_u060c u0020 u0648_u0628_u0639_u062f u0020 u0641_u062d_u0635 u0020 u0627_u0644_u0644_u062c_u0646_u0629 u0020 u0644_u062a_u0642_u0631_u064a_u0631 u0020 u0627_u0644_u062f_u0648_u0644_u0629 u0020 u0627_u0644_u0645_u0639_u0646_u064a_u0629 u0020 u062a_u0642_u062f_u0645_u0020", 
        "u062a_u0648_u0635_u064a_u0627_u062a_u0647_u0627 u0020 u0648_u0645_u0644_u0627_u062d_u0638_u0627_u062a_u0647_u0627 u0020 u0628_u062e_u0635_u0648_u0635 u0020 u0645_u062f_u0649 u0020 u0648_u0641_u0627_u0621 u0020 u062a_u0644_u0643 u0020 u0627_u0644_u062f_u0648_u0644_u0629_u0020", 
        "u0628_u0627_u0644_u062a_u0632_u0627_u0645_u0627_u062a_u0647_u0627 u0020 u0628_u0645_u0642_u062a_u0636_u0649 u0020 u0627_u0644_u0627_u062a_u0641_u0627_u0642_u064a_u0629 u0020 u0648_u0627_u0644_u062a_u062f_u0627_u0628_u064a_u0631 u0020 u0627_u0644_u062a_u064a u0020 u064a_u062c_u0628 u0020 u0639_u0644_u064a_u0647_u0627_u0020", 
        "u0627_u062a_u062e_u0630_u0647_u0640_u0627 u0020 u0644_u0644_u0648_u0641_u0627_u0621 u0020 u0628_u062a_u0644_u0643 u0020 u0627_u0644_u0627_u0644_u062a_u0632_u0627_u0645_u0627_u062a_u002e u0020 u000d"
    ]
}