{
    "bounding_box": [
        [
            615, 
            20, 
            83, 
            27
        ], 
        [
            93, 
            64, 
            569, 
            25
        ], 
        [
            480, 
            96, 
            181, 
            28
        ], 
        [
            501, 
            141, 
            197, 
            26
        ], 
        [
            309, 
            183, 
            91, 
            27
        ], 
        [
            339, 
            220, 
            41, 
            32
        ]
    ], 
    "image_height": 540, 
    "image_width": 720, 
    "transcription": [
        "u0633_u0624_u0627_u0644_u003a_u000d", 
        "u0627_u0630_u0627 u0020 u0648_u0642_u0641_u0646_u0627 u0020 u0639_u0644_u0649 u0020 u0645_u064a_u0632_u0627_u0646 u0020 u0632_u0646_u0628_u0631_u0643 u0020 u0648_u0627_u0634_u0627_u0631 u0020 u0627_u0644_u0649 u0020 u0035_u0030 u0020 u0643_u063a_u0645_u002c u0020 u0643_u0645_u0020", 
        "u064a_u0633_u0627_u0648_u064a u0020 u0628_u0646_u064a_u0648_u062a_u0646_u061f_u000d", 
        "u0627_u0644_u0643_u062a_u0644_u0629_u003d u0020 u0035_u0030 u0020 u0643_u063a_u0645_u002e_u000d", 
        "u0077_u003d_u006d_u002a_u0067_u000d", 
        "u0623_u064a_u003a"
    ]
}