{
    "bounding_box": [
        [
            251, 
            50, 
            277, 
            30
        ], 
        [
            148, 
            124, 
            518, 
            31
        ], 
        [
            150, 
            158, 
            517, 
            36
        ], 
        [
            364, 
            201, 
            302, 
            27
        ], 
        [
            543, 
            246, 
            124, 
            26
        ], 
        [
            410, 
            292, 
            257, 
            29
        ], 
        [
            556, 
            335, 
            110, 
            27
        ], 
        [
            458, 
            380, 
            208, 
            30
        ]
    ], 
    "image_height": 540, 
    "image_width": 720, 
    "transcription": [
        "u062a_u0641_u0627_u0639_u0644_u0627_u062a u0020 u0627_u0644_u0627_u0644_u0643_u0627_u0646_u0627_u062a u0020 u0020_u0020", 
        "u0627_u0644_u0627_u0644_u0643_u0627_u0646_u0627_u062a u0020 u0645_u0631_u0643_u0628_u0627_u062a u0020 u063a_u064a_u0631 u0020 u0642_u0637_u0628_u064a_u0647 u0020 u0648_u0644_u0630_u0644_u0643 u0020 u0646_u062a_u0648_u0642_u0639 u0020 u0627_u0646 u0020 u062a_u0643_u0648_u0646_u0020", 
        "u063a_u064a_u0631 u0020 u0646_u0634_u0637_u0647 u0020 u0643_u064a_u0645_u064a_u0627_u0626_u064a_u0627_u064b u0020 u002c u0020 u0641_u0647_u064a u0020 u062a_u062f_u062e_u0644 u0020 u0641_u064a u0020 u0639_u062f_u062f u0020 u0645_u062d_u062f_u0648_u062f u0020 u0645_u0646_u0020", 
        "u0627_u0644_u062a_u0641_u0627_u0639_u0644_u0627_u062a u0020 u0627_u0644_u0643_u064a_u0645_u064a_u0627_u0626_u064a_u0647 u0020 u0627_u0647_u0645_u0647_u0627 u0020 u003a_u002d u0020 u000d", 
        "u0031_u002d u0020 u0627_u0644_u0647_u0644_u062c_u0646_u0647 u0020 u000d", 
        "u0032_u002d u0020 u0627_u0644_u0627_u0643_u0633_u062f_u0647 u0020 u0028 u0020 u0627_u0644_u0627_u062d_u062a_u0631_u0627_u0642 u0020 u0029_u000d", 
        "u0033_u002d_u0627_u0644_u0646_u062a_u0631_u062a_u0647 u0020 u000d", 
        "u0034_u002d u0020 u0627_u0644_u062a_u0643_u0633_u064a_u0631 u0020 u0627_u0644_u062d_u0631_u0627_u0631_u064a"
    ]
}