{
    "bounding_box": [
        [
            351, 
            24, 
            308, 
            33
        ], 
        [
            57, 
            59, 
            602, 
            29
        ], 
        [
            462, 
            89, 
            197, 
            30
        ], 
        [
            59, 
            121, 
            599, 
            30
        ], 
        [
            64, 
            152, 
            594, 
            30
        ], 
        [
            534, 
            187, 
            125, 
            26
        ], 
        [
            370, 
            214, 
            288, 
            30
        ], 
        [
            45, 
            245, 
            614, 
            30
        ], 
        [
            467, 
            280, 
            192, 
            25
        ], 
        [
            457, 
            311, 
            202, 
            27
        ], 
        [
            63, 
            340, 
            596, 
            29
        ], 
        [
            54, 
            370, 
            605, 
            30
        ], 
        [
            507, 
            402, 
            152, 
            29
        ], 
        [
            81, 
            434, 
            578, 
            29
        ], 
        [
            179, 
            464, 
            480, 
            34
        ]
    ], 
    "image_height": 540, 
    "image_width": 720, 
    "transcription": [
        "u0033_u002d u0020 u0646_u0638_u0631_u064a_u0629 u0020 u0627_u0644_u062a_u0636_u0627_u0645_u0646 u0020 u0627_u0644_u0627_u062c_u062a_u0645_u0627_u0639_u064a_u003a u0020 u000d", 
        "u0646_u0627_u062f_u0649 u0020 u0628_u0647_u0627 u0020 u0022 u0020 u0644_u064a_u0648_u0646 u0020 u062f_u0648_u062c_u064a_u0022 u0020 u0648_u062d_u0633_u0628_u0647 u0020 u0627_u0644_u062f_u0648_u0644_u0629 u0020 u062a_u0642_u0648_u0645 u0020 u0639_u0644_u0649 u0020 u0623_u0631_u0628_u0639 u0020 u0639_u0646_u0627_u0635_u0631 u0020 u0623_u0633_u0627_u0633_u064a_u0629_u003a_u000b", 
        "u0623_u002d u0020 u0627_u0644_u0627_u062e_u062a_u064a_u0627_u0631 u0020 u0627_u0644_u0627_u062c_u062a_u0645_u0627_u0639_u064a_u003a u0020 u000d", 
        "u0648_u062a_u0646_u0634_u0623 u0020 u0627_u0644_u062f_u0648_u0644_u0629 u0020 u0647_u0646_u0627 u0020 u0628_u0633_u0628_u0628 u0020 u0641_u0631_u0636 u0020 u0628_u0627_u0644_u0645_u062c_u0645_u0648_u0639_u0629 u0020 u0627_u0644_u0642_u0648_u0645_u064a_u0629 u0020 u0627_u0644_u0645_u0647_u064a_u0645_u0646_u0629 u0020 u0644_u0625_u0631_u0627_u062f_u062a_u0647_u0627 u0020 u0639_u0644_u0649_u0020", 
        "u0627_u0644_u0641_u0626_u0629 u0020 u0627_u0644_u0636_u0639_u064a_u0641_u0629 u0020 u0648_u0628_u0627_u0644_u062a_u0627_u0644_u064a u0020 u062a_u0643_u0648_u0646 u0020 u0627_u0644_u0623_u0648_u0644_u0649 u0020 u0647_u064a u0020 u0627_u0644_u0647_u064a_u0626_u0629 u0020 u0627_u0644_u062d_u0627_u0643_u0645_u0629 u0020 u0623_u0645_u0627 u0020 u0627_u0644_u062b_u0627_u0646_u064a_u0629 u0020 u0641_u062a_u0643_u0648_u0646_u0020", 
        "u0647_u064a u0020 u0627_u0644_u0645_u062d_u0643_u0648_u0645_u0629_u002e_u000b", 
        "u0628_u002d u0020 u0627_u0644_u062a_u0645_u0627_u064a_u0632 u0020 u0623_u0648 u0020 u0627_u0644_u0625_u062e_u062a_u0644_u0627_u0641 u0020 u0627_u0644_u0633_u064a_u0627_u0633_u064a_u003a u0020 u000d", 
        "u0623_u064a u0020 u0623_u0646 u0020 u0627_u0644_u062f_u0648_u0644_u0629 u0020 u062a_u0646_u0634_u0623 u0020 u0639_u0646_u062f_u0645_u0627 u0020 u062a_u0643_u0648_u0646 u0020 u0647_u0646_u0627_u0643 u0020 u0641_u0626_u062a_u0627_u0646 u0020 u0641_u0626_u0629 u0020 u062d_u0627_u0643_u0645_u0629 u0020 u062a_u0641_u0631_u0636 u0020 u0633_u0644_u0637_u0627_u0646_u0647_u0627 u0020 u0639_u0644_u0649_u0020", 
        "u0627_u0644_u0641_u0626_u0629 u0020 u0627_u0644_u062b_u0627_u0646_u064a_u0629 u0020 u0627_u0644_u0645_u062d_u0643_u0648_u0645_u0629_u002e_u000b", 
        "u062c_u002d u0020 u0642_u0648_u0629 u0020 u0627_u0644_u062c_u0628_u0631 u0020 u0648_u0627_u0644_u0625_u0643_u0631_u0627_u0647_u003a u0020 u000d", 
        "u0625_u0646 u0020 u0627_u0644_u0633_u0644_u0637_u0629 u0020 u062a_u0639_u062f u0020 u0627_u0644_u062f_u0639_u0627_u0645_u0629 u0020 u0627_u0644_u0623_u0633_u0627_u0633_u064a_u0629 u0020 u0644_u0642_u064a_u0627_u0645 u0020 u0627_u0644_u062f_u0648_u0644_u0629 u0020 u0623_u064a u0020 u0628_u0647_u064a u0020 u0627_u0644_u062a_u064a u0020 u062a_u0639_u0637_u064a u0020 u0627_u0644_u0623_u0648_u0627_u0645_u0631_u0020", 
        "u0648_u062a_u0647_u064a_u0645_u0646 u0020 u0639_u0644_u0649 u0020 u0627_u0644_u0641_u0626_u0629 u0020 u0627_u0644_u0645_u062d_u0643_u0648_u0645_u0629 u0020 u062f_u0648_u0646 u0020 u0623_u0646 u0020 u062a_u0643_u0648_u0646 u0020 u0647_u0646_u0627_u0643 u0020 u0633_u0644_u0637_u0629 u0020 u062a_u0646_u0627_u0641_u0633_u0647_u0627 u0020 u0623_u0648 u0020 u062a_u0645_u0646_u0639_u0647_u0627_u0020", 
        "u0645_u0646 u0020 u062a_u0646_u0641_u064a_u0630 u0020 u0623_u0648_u0627_u0645_u0631_u0647_u0627_u002e_u000b", 
        "u062f_u002d u0020 u0627_u0644_u062a_u0636_u0627_u0645_u0646 u0020 u0627_u0644_u0627_u062c_u062a_u0645_u0627_u0639_u064a_u003a u0020 u0625_u0630 u0020 u0644_u0627_u0628_u062f u0020 u0645_u0646 u0020 u0627_u0644_u062a_u0644_u0627_u062d_u0645 u0020 u0648_u0627_u0644_u062a_u0643_u0627_u0645_u0644 u0020 u0628_u064a_u0646 u0020 u0623_u0641_u0631_u0627_u062f u0020 u0627_u0644_u0645_u062c_u062a_u0645_u0639_u0020", 
        "u0627_u0644_u0648_u0627_u062d_u062f u0020 u0648_u0644_u0627_u0628_u062f u0020 u0623_u0646 u0020 u064a_u0643_u0648_u0646 u0020 u0647_u0646_u0627_u0643 u0020 u062a_u0639_u0627_u0648_u0646 u0020 u0628_u064a_u0646 u0020 u0627_u0644_u062d_u0643_u0627_u0645 u0020 u0648_u0627_u0644_u0645_u062d_u0643_u0648_u0645_u064a_u0646_u002e"
    ]
}