{
    "bounding_box": [
        [
            102, 
            169, 
            556, 
            34
        ], 
        [
            224, 
            215, 
            434, 
            35
        ], 
        [
            107, 
            251, 
            551, 
            45
        ], 
        [
            53, 
            302, 
            605, 
            32
        ], 
        [
            53, 
            335, 
            605, 
            37
        ], 
        [
            44, 
            374, 
            614, 
            37
        ], 
        [
            419, 
            416, 
            239, 
            33
        ], 
        [
            39, 
            451, 
            619, 
            45
        ], 
        [
            85, 
            497, 
            573, 
            37
        ], 
        [
            582, 
            536, 
            76, 
            34
        ], 
        [
            174, 
            99, 
            370, 
            35
        ]
    ], 
    "image_height": 540, 
    "image_width": 720, 
    "transcription": [
        "u0034_u002d u0020 u0623_u0646 u0020 u062a_u0643_u0648_u0646 u0020 u0627_u0644_u062a_u0639_u0644_u064a_u0645_u0627_u062a u0020 u0641_u064a u0020 u0627_u0644_u0625_u062c_u0627_u0628_u0629 u0020 u0639_u0646 u0020 u0627_u0644_u0633_u0624_u0627_u0644 u0020 u0648_u0627_u0636_u062d_u0629_u002e_u000d", 
        "u0645_u062b_u0627_u0644 u0020 u062e_u0637_u0623_u003a u0020 u0635_u0644_u064a u0020 u0628_u064a_u0646 u0020 u0627_u0644_u0639_u0645_u0648_u062f_u064a_u0646 u0020 u0028_u0623_u0029 u0020 u0648 u0020 u0028_u0628_u0029_u002e_u000d", 
        "u0627_u0644_u062e_u0637_u0623_u003a u0020 u0627_u0644_u062a_u0639_u0644_u064a_u0645_u0627_u062a u0020 u0646_u0627_u0642_u0635_u0629 u0020 u0648_u063a_u064a_u0631 u0020 u0648_u0627_u0636_u062d_u0629_u002e u0020 u0641_u0647_u0644 u0020 u062a_u0635_u0644 u0020 u0628_u064a_u0646_u0020", 
        "u0627_u0644_u0639_u0645_u0648_u062f_u064a_u0646 u0020 u0628_u0642_u0644_u0645 u0020 u0627_u0644_u0631_u0635_u0627_u0635_u061f u0020 u0648_u0647_u0644 u0020 u062a_u0635_u0644 u0020 u0628_u064a_u0646 u0020 u0627_u0644_u0639_u0645_u0648_u062f_u064a_u0646 u0020 u0641_u064a u0020 u0648_u0631_u0642_u0629_u0020", 
        "u0627_u0644_u0623_u0633_u0626_u0644_u0629 u0020 u0623_u0645 u0020 u0641_u064a u0020 u0643_u0631_u0627_u0633_u0629 u0020 u0627_u0644_u0625_u062c_u0627_u0628_u0629_u061f u0020 u0648_u0625_u0630_u0627 u0020 u0643_u0627_u0646 u0020 u0641_u064a u0020 u0643_u0631_u0627_u0633_u0629 u0020 u0627_u0644_u0625_u062c_u0627_u0628_u0629 u0020 u0644_u0627_u0020", 
        "u0628_u062f u0020 u0645_u0646 u0020 u0643_u062a_u0627_u0628_u0629 u0020 u0627_u0644_u0642_u0627_u0626_u0645_u062a_u064a_u0646 u0020 u0623_u0648_u0644_u0627 u0020 u0623_u0648 u0020 u0639_u0644_u0649 u0020 u0627_u0644_u0637_u0627_u0644_u0628_u0629 u0020 u0646_u0642_u0644 u0020 u0631_u0645_u0648_u0632 u0020 u0627_u0644_u0642_u0627_u0626_u0645_u062a_u064a_u0646_u0020", 
        "u0641_u064a u0020 u0643_u0631_u0627_u0633_u0629 u0020 u0627_u0644_u0625_u062c_u0627_u0628_u0629 u0020 u0641_u0642_u0637_u002e_u000d", 
        "u062a_u0635_u062d_u064a_u062d u0020 u0627_u0644_u0641_u0642_u0631_u0629_u003a u0020 u0635_u0644_u064a u0020 u0628_u0642_u0644_u0645 u0020 u0627_u0644_u0631_u0635_u0627_u0635 u0020 u0628_u064a_u0646 u0020 u0643_u0644 u0020 u0639_u0627_u0644_u0645 u0020 u0625_u0633_u0644_u0627_u0645_u064a u0020 u0641_u064a_u0020", 
        "u0627_u0644_u0639_u0645_u0648_u062f u0020 u0028_u0623_u0029 u0020 u0648_u0627_u0644_u0645_u0641_u0647_u0648_u0645 u0020 u0627_u0644_u0645_u0631_u062a_u0628_u0637 u0020 u0628_u0647 u0020 u0641_u064a u0020 u0627_u0644_u0639_u0645_u0648_u062f u0020 u0028_u0628_u0029 u0020 u0641_u064a u0020 u0648_u0631_u0642_u0629_u0020", 
        "u0627_u0644_u0623_u0633_u0626_u0644_u0629_u002e", 
        "u0634_u0631_u0648_u0637 u0020 u0625_u0639_u062f_u0627_u062f u0020 u0627_u062e_u062a_u0628_u0627_u0631 u0020 u0627_u0644_u0645_u0632_u0627_u0648_u062c_u0629"
    ]
}