{
    "bounding_box": [
        [
            418, 
            37, 
            246, 
            29
        ], 
        [
            91, 
            90, 
            570, 
            29
        ], 
        [
            584, 
            124, 
            77, 
            23
        ]
    ], 
    "image_height": 540, 
    "image_width": 720, 
    "transcription": [
        "u0625_u063a_u0644_u0627_u0642 u0020 u0625_u0637_u0627_u0631 u0020 u0633_u0644_u0629 u0020 u0627_u0644_u0645_u062d_u0630_u0648_u0641_u0627_u062a", 
        "u0644_u0625_u063a_u0644_u0627_u0642 u0020 u0633_u0644_u0629 u0020 u0627_u0644_u0645_u062d_u0630_u0648_u0641_u0627_u062a_u060c u0020 u0642_u0645 u0020 u0628_u0627_u0644_u0646_u0642_u0631 u0020 u0639_u0644_u0649 u0020 u0632_u0631 u0020 u0625_u063a_u0644_u0627_u0642 u0020 u0641_u064a u0020 u0623_u0639_u0644_u0649 u0020 u0627_u0644_u0632_u0627_u0648_u064a_u0629_u0020", 
        "u0627_u0644_u064a_u0633_u0631_u0649_u002e_u0020"
    ]
}