{
    "bounding_box": [
        [
            145, 
            136, 
            438, 
            72
        ], 
        [
            458, 
            519, 
            64, 
            8
        ], 
        [
            691, 
            509, 
            11, 
            18
        ], 
        [
            691, 
            509, 
            11, 
            18
        ]
    ], 
    "image_height": 540, 
    "image_width": 720, 
    "transcription": [
        "u0050_u0053_u0059_u0043_u004f_u0054_u0044", 
        "u0064_u0072 u0020 u0074_u0061_u0062_u0061_u0074_u0061_u0062_u0061_u0065_u0069", 
        "u0031_u0030_u0033", 
        "u0031_u0030_u0033"
    ]
}