{
    "bounding_box": [
        [
            97, 
            54, 
            525, 
            58
        ], 
        [
            430, 
            127, 
            194, 
            27
        ], 
        [
            364, 
            166, 
            261, 
            29
        ], 
        [
            35, 
            207, 
            589, 
            28
        ], 
        [
            242, 
            237, 
            383, 
            30
        ], 
        [
            35, 
            281, 
            589, 
            28
        ], 
        [
            535, 
            315, 
            89, 
            25
        ], 
        [
            35, 
            353, 
            589, 
            28
        ], 
        [
            515, 
            388, 
            109, 
            26
        ], 
        [
            77, 
            427, 
            548, 
            30
        ], 
        [
            71, 
            465, 
            553, 
            31
        ]
    ], 
    "image_height": 540, 
    "image_width": 720, 
    "transcription": [
        "u0645_u0641_u0631_u062f_u0627_u062a u0020 u0627_u0644_u0645_u0646_u0647_u062c u0020 u0641_u064a u0020 u0627_u0644_u0645_u0631_u062d_u0644_u0629 u0020 u0627_u0644_u062b_u0627_u0646_u064a_u0629", 
        "u0627_u0644_u0627_u0633_u0645 u0020 u0627_u0644_u062c_u0627_u0645_u062f u0020 u0648_u0627_u0644_u0645_u0634_u062a_u0642_u000d", 
        "u0623_u0648_u0632_u0627_u0646 u0020 u0627_u0644_u0627_u0633_u0645 u0020 u0627_u0644_u0645_u062c_u0631_u062f u0020 u0648_u0627_u0644_u0645_u0632_u064a_u062f_u002e_u000d", 
        "u0627_u0644_u0645_u0634_u062a_u0642_u0627_u062a_u003a u0020 u0028_u0627_u0633_u0645 u0020 u0627_u0644_u0641_u0627_u0639_u0644_u060c u0020 u0627_u0633_u0645 u0020 u0627_u0644_u0645_u0641_u0639_u0648_u0644_u060c u0020 u0627_u0644_u0635_u0641_u0629 u0020 u0627_u0644_u0645_u0634_u0628_u0647_u0629_u060c u0020 u0627_u0633_u0645_u0020", 
        "u0627_u0644_u062a_u0641_u0636_u064a_u0644_u060c u0020 u0623_u0633_u0645_u0627_u0621 u0020 u0627_u0644_u0632_u0645_u0627_u0646 u0020 u0648_u0627_u0644_u0645_u0643_u0627_u0646_u060c u0020 u0627_u0633_u0645 u0020 u0627_u0644_u0622_u0644_u0629_u002e_u000d", 
        "u0627_u0644_u0627_u0633_u0645 u0020 u0627_u0644_u0635_u062d_u064a_u062d u0020 u0648_u0627_u0644_u0645_u0639_u062a_u0644_u003a u0020 u0028_u0627_u0644_u0627_u0633_u0645 u0020 u0627_u0644_u0645_u0646_u0642_u0648_u0635_u060c u0020 u0627_u0644_u0627_u0633_u0645 u0020 u0627_u0644_u0645_u0642_u0635_u0648_u0631_u060c u0020 u0627_u0644_u0627_u0633_u0645_u0020", 
        "u0627_u0644_u0645_u0645_u062f_u0648_u062f_u0029_u002e_u000d", 
        "u0627_u0644_u062a_u062b_u0646_u064a_u0629_u003a u0020 u0028_u062a_u062b_u0646_u064a_u0629 u0020 u0627_u0644_u0623_u0633_u0645_u0627_u0621 u0020 u0627_u0644_u0635_u062d_u064a_u062d_u0629 u0020 u0648_u0627_u0644_u0645_u0646_u0642_u0648_u0635_u0629 u0020 u0627_u0644_u0645_u0642_u0635_u0648_u0631_u0629_u0020", 
        "u0648_u0627_u0644_u0645_u0645_u062f_u0648_u062f_u0629_u0029_u002e_u000d", 
        "u0627_u0644_u062c_u0645_u0639_u003a u0020 u0028_u0627_u0644_u0645_u0630_u0643_u0631 u0020 u0627_u0644_u0633_u0627_u0644_u0645_u060c u0020 u0627_u0644_u0645_u0624_u0646_u062b u0020 u0627_u0644_u0633_u0627_u0644_u0645_u060c u0020 u062c_u0645_u0639 u0020 u0627_u0644_u062a_u0643_u0633_u064a_u0631 u0020 u0648_u0623_u0648_u0632_u0627_u0646_u0647_u0029_u002e_u000d", 
        "u0627_u0644_u062a_u0635_u063a_u064a_u0631_u002d u0020 u0627_u0644_u0646_u0633_u0628_u002d u0020 u0627_u0644_u0623_u0639_u0644_u0627_u0644_u002d u0020 u0627_u0644_u0625_u0628_u062f_u0627_u0644_u002d u0020 u0627_u0644_u0648_u0642_u0641 u0020 u2013 u0020 u0627_u0644_u0625_u062f_u063a_u0627_u0645 u0020 u2013 u0020 u0627_u0644_u0625_u0645_u0627_u0644_u0629_u002e"
    ]
}