{
    "bounding_box": [
        [
            848, 
            184, 
            107, 
            40
        ], 
        [
            408, 
            239, 
            547, 
            22
        ], 
        [
            422, 
            265, 
            533, 
            24
        ], 
        [
            908, 
            297, 
            48, 
            19
        ], 
        [
            413, 
            353, 
            543, 
            24
        ], 
        [
            424, 
            382, 
            532, 
            23
        ], 
        [
            433, 
            409, 
            522, 
            23
        ], 
        [
            617, 
            438, 
            339, 
            22
        ], 
        [
            355, 
            32, 
            192, 
            27
        ]
    ], 
    "image_height": 540, 
    "image_width": 960, 
    "transcription": [
        "u062f_u0627_u062f_u06af_u0627_u0647_u003a_u000b", 
        "u062f_u0631 u0020 u0635_u0640_u0648_u0631_u062a_u06cc u0020 u06a9_u0647 u0020 u06a9_u0645_u064a_u0633_u0640_u064a_u0648_u0646 u0020 u064a_u0627 u0020 u0634_u0640_u0648_u0631_u0627 u0020 u0628_u0631 u0020 u062e_u0644_u0627_u0641 u0020 u0627_u0635_u0640_u0648_u0644 u0020 u06a9_u0627_u0631 u0020 u0627_u062a_u062d_u0640_u0627_u062f_u064a_u0647 u0020 u0639_u0645_u0644_u0020", 
        "u06a9_u0631_u062f_u0647 u0020 u0628_u0627_u0634_u062f_u060c u0020 u067e_u0627_u0631_u0644_u0645_u0627_u0646 u0020 u0645_u06cc u0020 u062a_u0648_u0627_u0646_u062f u0020 u0628_u0631 u0020 u0639_u0644_u064a_u0647 u0020 u0622_u0646_u0647_u0627 u0020 u062f_u0631 u0020 u062f_u0627_u062f_u06af_u0627_u0647 u0020 u062f_u0631_u062e_u0648_u0627_u0633_u062a u0020 u062f_u0639_u0648_u06cc_u0020", 
        "u0646_u0645_u0627_u064a_u062f_u002e_u000b", 
        "u067e_u0627_u0631_u0644_u0645_u0640_u0627_u0646 u0020 u0648 u0020 u0634_u0640_u0648_u0631_u0627_u06cc u0020 u0648_u0632_u064a_u0631_u0627_u0646 u0020 u0645_u06cc u0020 u062a_u0648_u0627_u0646_u0646_u062f u0020 u0627_u0632 u0020 u062f_u0627_u062f_u06af_u0627_u0647 u0020 u0627_u062a_u062d_u0627_u062f_u064a_u0647 u0020 u0627_u0631_u0648_u067e_u0627 u0020 u0628_u062e_u0648_u0627_u0647_u0646_u062f_u060c_u0020", 
        "u06a9_u0647 u0020 u0628_u0631_u0627_u06cc u0020 u0631_u0633_u064a_u062f_u06af_u06cc u0020 u0628_u0647 u0020 u0627_u0645_u0648_u0631 u0020 u0648_u064a_u0698_u0647_u060c u0020 u0634_u0639_u0628 u0020 u062f_u0627_u062f_u06af_u0627_u0647_u0647_u0627_u06cc u0020 u062c_u062f_u064a_u062f_u06cc u0020 u062a_u0623_u0633_u064a_u0633 u0020 u06a9_u0646_u062f_u002e_u0020", 
        "u0628_u0631_u0627_u06cc u0020 u0645_u062b_u0627_u0644_u060c u0020 u062f_u0631 u0020 u0633_u0627_u0644 u0020 u0032_u0030_u0030_u0035 u0020 u0645_u064a_u0644_u0627_u062f_u06cc_u060c u0020 u0628_u0631_u0627_u06cc u0020 u0631_u0633_u064a_u062f_u06af_u06cc u0020 u0628_u0647 u0020 u062f_u0639_u0627_u0648_u06cc u0020 u0645_u0627_u0628_u064a_u0646_u0020", 
        "u0645_u0623_u0645_u0648_u0631_u064a_u0646 u0020 u0627_u062f_u0627_u0631_u06cc_u060c u0020 u062f_u0627_u062f_u06af_u0627_u0647 u0020 u0627_u062f_u0627_u0631_u06cc u0020 u062a_u0623_u0633_u064a_u0633 u0020 u06af_u0631_u062f_u064a_u062f_u002e", 
        "u0627_u0647_u0645 u0020 u0639_u0645_u0644_u06a9_u0631_u062f u0020 u067e_u0627_u0631_u0644_u0645_u0627_u0646 u0020 u003a"
    ]
}