{
    "bounding_box": [
        [
            82, 
            82, 
            574, 
            22
        ], 
        [
            364, 
            110, 
            292, 
            22
        ], 
        [
            21, 
            138, 
            634, 
            22
        ], 
        [
            185, 
            162, 
            470, 
            22
        ], 
        [
            312, 
            190, 
            344, 
            22
        ], 
        [
            516, 
            219, 
            140, 
            21
        ], 
        [
            80, 
            15, 
            516, 
            24
        ], 
        [
            302, 
            48, 
            78, 
            19
        ]
    ], 
    "image_height": 540, 
    "image_width": 720, 
    "transcription": [
        "u0623_u062e_u0630 u0020 u0646_u0638_u0627_u0645 u0020 u0627_u0644_u0627_u0646_u062a_u062e_u0627_u0628 u0020 u0627_u0644_u0641_u0644_u0633_u0637_u064a_u0646_u064a u0020 u0628_u0646_u0638_u0627_u0645 u0020 u0627_u0644_u0627_u0646_u062a_u062e_u0627_u0628 u0020 u0627_u0644_u0645_u062e_u062a_u0644_u0637 u0020 u0644_u0625_u062c_u0631_u0627_u0621 u0020 u0627_u0646_u062a_u062e_u0627_u0628_u0627_u062a u0020 u0627_u0644_u0645_u062c_u0644_u0633 u0020 u0627_u0644_u062a_u0634_u0631_u064a_u0639_u064a u0020 u002e_u000d", 
        "u062c_u0645_u0639 u0020 u0628_u064a_u0646 u0020 u0627_u0644_u0627_u0646_u062a_u062e_u0627_u0628 u0020 u0627_u0644_u0641_u0631_u062f_u064a u0020 u0648_u0627_u0644_u0627_u0646_u062a_u062e_u0627_u0628 u0020 u0628_u0627_u0644_u0642_u0627_u0626_u0645_u0629_u002e_u000d", 
        "u062d_u062f_u062f u0020 u0646_u0638_u0627_u0645 u0020 u0627_u0644_u0627_u0646_u062a_u062e_u0627_u0628 u0020 u0627_u0644_u0641_u0644_u0633_u0637_u064a_u0646_u064a u0020 u0646_u0638_u0627_u0645_u064a_u0646 u0020 u0644_u0644_u0639_u0645_u0644 u0020 u0628_u0645_u0648_u062c_u0628_u0647_u0627 u0020 u0641_u064a u0020 u0639_u0645_u0644_u064a_u0629 u0020 u0627_u062d_u062a_u0633_u0627_u0628 u0020 u0627_u0644_u0623_u0635_u0648_u0627_u062a u0020 u0627_u0644_u0627_u0646_u062a_u062e_u0627_u0628_u064a_u0629 u0020 u0648_u062a_u062d_u062f_u064a_u062f_u0020", 
        "u0646_u062a_u0627_u0626_u062c u0020 u0627_u0644_u0627_u0642_u062a_u0631_u0627_u0639 u0020 u0648_u062a_u0648_u0632_u064a_u0639 u0020 u0627_u0644_u0645_u0642_u0627_u0639_u062f u0020 u0627_u0644_u0628_u0631_u0644_u0645_u0627_u0646_u064a_u0629 u0020 u0639_u0644_u0649 u0020 u0627_u0644_u0641_u0627_u0626_u0632_u064a_u0646 u0020 u0641_u064a u0020 u0647_u0630_u0647 u0020 u0627_u0644_u0627_u0646_u062a_u062e_u0627_u0628_u0627_u062a_u002e_u000d", 
        "u0031_u002d_u0646_u0638_u0627_u0645 u0020 u0627_u0644_u0623_u063a_u0644_u0628_u064a_u0629 u0020 u0627_u0644_u0628_u0633_u064a_u0637_u0629_u0028_u0627_u0644_u0627_u0646_u062a_u062e_u0627_u0628 u0020 u0639_u0644_u0649 u0020 u062f_u0631_u062c_u0629 u0020 u0648_u0627_u062d_u062f_u0629_u0029_u002e_u000d", 
        "u0032_u002d_u0646_u0638_u0627_u0645 u0020 u0627_u0644_u062a_u0645_u062b_u064a_u0644 u0020 u0627_u0644_u0646_u0633_u0628_u064a", 
        "u062b_u0627_u0646_u064a_u0627_u064b_u003a u0020 u0646_u0638_u0645 u0020 u062a_u0648_u0632_u064a_u0639 u0020 u0627_u0644_u0645_u0642_u0627_u0639_u062f u0020 u0627_u0644_u0628_u0631_u0644_u0645_u0627_u0646_u064a_u0629 u0020 u0639_u0644_u0649 u0020 u0627_u0644_u0641_u0627_u0626_u0632_u064a_u0646 u0020 u0641_u064a u0020 u0646_u0638_u0627_u0645 u0020 u0627_u0644_u0627_u0646_u062a_u062e_u0627_u0628_u0020", 
        "u0627_u0644_u0641_u0644_u0633_u0637_u064a_u0646_u064a"
    ]
}