{
    "bounding_box": [
        [
            79, 
            150, 
            135, 
            20
        ], 
        [
            70, 
            248, 
            159, 
            20
        ], 
        [
            76, 
            347, 
            151, 
            20
        ], 
        [
            70, 
            460, 
            187, 
            20
        ], 
        [
            311, 
            145, 
            110, 
            23
        ], 
        [
            311, 
            245, 
            139, 
            23
        ], 
        [
            297, 
            344, 
            182, 
            23
        ], 
        [
            311, 
            457, 
            220, 
            23
        ], 
        [
            152, 
            50, 
            235, 
            47
        ]
    ], 
    "image_height": 540, 
    "image_width": 720, 
    "transcription": [
        "u004e_u0065_u006f_u006e u0020 u0028_u007a u0020 u003d u0020 u0031_u0030_u0029", 
        "u0053_u006f_u0064_u0069_u0075_u006d u0020 u0028_u007a u0020 u003d u0020 u0031_u0031_u0029", 
        "u0053_u0069_u006c_u0069_u0063_u006f_u006e u0020 u0028_u007a u0020 u003d u0020 u0031_u0034_u0029", 
        "u0050_u006f_u0074_u0061_u0073_u0073_u0069_u0075_u006d u0020 u0028_u007a u0020 u003d u0020 u0031_u0039_u0029", 
        "u0031_u0073_u0032 u0020 u0032_u0073_u0032 u0020 u0032_u0070_u0036_u0020", 
        "u0031_u0073_u0032 u0020 u0032_u0073_u0032 u0020 u0032_u0070_u0036 u0020 u0033_u0073_u0031", 
        "u0031_u0073_u0032 u0020 u0032_u0073_u0032 u0020 u0032_u0070_u0036 u0020 u0033_u0073_u0032 u0020 u0033_u0070 u0020 u0032", 
        "u0031_u0073_u0032 u0020 u0032_u0073_u0032 u0020 u0032_u0070_u0036 u0020 u0033_u0073_u0032 u0020 u0033_u0070 u0020 u0036 u0020 u0034_u0073 u0020 u0031", 
        "u0627_u0644_u0645_u062f_u0627_u0631_u0627_u062a u0020 u0627_u0644_u0630_u0631_u064a_u0629"
    ]
}