{
    "bounding_box": [
        [
            487, 
            33, 
            205, 
            29
        ], 
        [
            53, 
            67, 
            639, 
            33
        ], 
        [
            506, 
            106, 
            186, 
            32
        ]
    ], 
    "image_height": 540, 
    "image_width": 720, 
    "transcription": [
        "u0627_u0644_u062f_u0631_u0633 u0020 u0627_u0644_u062b_u0627_u0644_u062b_u000d", 
        "u0628_u0029 u0020 u0627_u0644_u062d_u0627_u0644_u0629 u0020 u0627_u0644_u0633_u064a_u0627_u0633_u064a_u0629 u0020 u0641_u064a u0020 u0634_u0628_u0647 u0020 u062c_u0632_u064a_u0631_u0629 u0020 u0627_u0644_u0639_u0631_u0628_u0020", 
        "u0642_u0628_u0644 u0020 u0627_u0644_u0625_u0633_u0644_u0627_u0645_u0020"
    ]
}