{
    "bounding_box": [
        [
            217, 
            49, 
            285, 
            36
        ], 
        [
            68, 
            130, 
            580, 
            27
        ], 
        [
            52, 
            159, 
            597, 
            27
        ], 
        [
            576, 
            188, 
            73, 
            21
        ], 
        [
            42, 
            223, 
            607, 
            29
        ], 
        [
            59, 
            253, 
            590, 
            27
        ], 
        [
            501, 
            281, 
            148, 
            27
        ], 
        [
            77, 
            316, 
            571, 
            29
        ], 
        [
            124, 
            346, 
            525, 
            26
        ], 
        [
            381, 
            375, 
            268, 
            23
        ], 
        [
            193, 
            410, 
            455, 
            27
        ], 
        [
            421, 
            446, 
            228, 
            25
        ]
    ], 
    "image_height": 540, 
    "image_width": 720, 
    "transcription": [
        "u0645_u062f_u0629 u0020 u0627_u0644_u0645_u0631_u062d_u0644_u0629 u0020 u0627_u0644_u0627_u0646_u062a_u0642_u0627_u0644_u064a_u0629", 
        "u0628_u0644_u062c_u064a_u0643_u0627_u003a u0020 u0627_u0644_u0641_u064a_u062f_u0631_u0627_u0644_u064a_u0629 u0020 u0641_u064a u0020 u0623_u0631_u0628_u0639 u0020 u0645_u0631_u0627_u062d_u0644_u060c u0020 u0628_u062f_u0623_u062a u0020 u0641_u064a u0020 u0627_u0644_u0633_u0628_u0639_u064a_u0646_u0627_u062a_u060c u0020 u0648_u0643_u0627_u0646_u0020", 
        "u0627_u0644_u062a_u0639_u062f_u064a_u0644 u0020 u0627_u0644_u062f_u0633_u062a_u0648_u0631_u064a u0020 u0627_u0644_u0643_u0628_u064a_u0631 u0020 u0641_u064a u0020 u0639_u0627_u0645 u0020 u0031_u0039_u0039_u0033_u060c u0020 u0625_u0646_u0634_u0627_u0621 u0020 u0627_u0644_u0627_u0642_u0627_u0644_u064a_u0645 u0020 u0641_u064a u0020 u0639_u0627_u0645_u0020", 
        "u0031_u0039_u0039_u0034_u000d", 
        "u0627_u0633_u0628_u0627_u0646_u064a_u0627_u003a u0020 u0627_u0644_u0627_u0646_u062a_u0642_u0627_u0644 u0020 u0627_u0644_u0645_u0633_u062a_u0645_u0631_u060c u0020 u0031_u0039_u0037_u0038 u0020 u002d u0020 u0031_u0039_u0038_u0033_u002f_u0031_u0039_u0038_u0037 u0020 u0645_u062f_u0629 u0020 u0627_u0644_u0627_u0646_u062a_u0638_u0627_u0631_u0020", 
        "u0644_u0645_u062f_u0629 u0020 u0035 u0020 u0633_u0646_u0648_u0627_u062a u0020 u0644_u0644_u0648_u062d_u062f_u0627_u062a u0020 u0627_u0644_u0627_u062a_u062d_u0627_u062f_u064a_u0629 u0020 u0627_u0644_u062a_u064a u0020 u0623_u0646_u0634_u0626_u062a u0020 u0645_u0624_u062e_u0631_u0627_u064b u0020 u0644_u0627_u0643_u062a_u0633_u0627_u0628_u0020", 
        "u062d_u0643_u0645 u0020 u0630_u0627_u062a_u064a u0020 u0643_u0627_u0645_u0644_u000d", 
        "u062c_u0646_u0648_u0628 u0020 u0627_u0641_u0631_u064a_u0642_u064a_u0627_u003a u0020 u0644_u0627_u0646_u062a_u0642_u0627_u0644 u0020 u0644_u0644_u0645_u062d_u0627_u0641_u0638_u0627_u062a u0020 u0031_u0039_u0039_u0033 u0020 u002d u0020 u0031_u0039_u0039_u0039_u060c u0020 u0627_u0644_u0627_u0646_u062a_u0642_u0627_u0644_u0020", 
        "u0639_u0644_u0649 u0020 u0627_u0644_u0645_u0633_u062a_u0648_u0649 u0020 u0627_u0644_u0645_u062d_u0644_u064a u0020 u0031_u0039_u0039_u0033 u0020 u002d u0020 u0032_u0030_u0030_u0034_u060c u0020 u0648_u0627_u0644_u0639_u0644_u0627_u0642_u0627_u062a u0020 u0628_u064a_u0646_u0020", 
        "u0627_u0644_u062d_u0643_u0648_u0645_u0627_u062a u0020 u0031_u0039_u0039_u0036 u0020 u002d u0020 u0032_u0030_u0030_u0035_u000d", 
        "u0627_u0644_u0639_u0631_u0627_u0642_u060c u0020 u0627_u0644_u0633_u0648_u062f_u0627_u0646_u003a u0020 u0644_u0645 u0020 u064a_u062a_u0645 u0020 u0627_u0644_u0627_u0646_u062a_u0647_u0627_u0621 u0020 u0645_u0646 u0020 u0627_u0644_u0639_u0645_u0644_u064a_u0629 u0020 u0628_u0639_u062f u0020 u000d", 
        "u0031_u0030 u0020 u0633_u0646_u0648_u0627_u062a u0020 u062a_u0643_u0648_u0646 u0020 u0648_u0627_u0642_u0639_u064a_u0629"
    ]
}