{
    "bounding_box": [
        [
            249, 
            45, 
            222, 
            51
        ], 
        [
            107, 
            136, 
            542, 
            31
        ], 
        [
            81, 
            176, 
            568, 
            30
        ], 
        [
            85, 
            207, 
            564, 
            34
        ]
    ], 
    "image_height": 540, 
    "image_width": 720, 
    "transcription": [
        "u0627_u0644_u0627_u063a_u0631_u064a_u0642 u0020 u0627_u0644_u0642_u062f_u0645_u0627_u0621", 
        "u0643_u0630_u0644_u0643 u0020 u062a_u0634_u0628_u0647 u0020 u0639_u0642_u064a_u062f_u0629 u0020 u0627_u0644_u0645_u0635_u0631_u064a_u064a_u0646 u0020 u0627_u0644_u0642_u062f_u0645_u0627_u0621 u0020 u0641_u064a u0020 u0639_u062f_u0627_u0644_u0629 u0020 u0627_u0644_u062d_u0633_u0627_u0628_u0020", 
        "u0641_u062a_u0641_u062d_u0635 u0020 u0627_u0644_u0631_u0648_u062d u0020 u0639_u0646_u062f u0020 u0627_u0644_u0645_u0648_u062a u0020 u0627_u0646 u0020 u0643_u0627_u0646_u062a u0020 u0635_u0627_u0644_u062d_u0629 u0020 u0627_u0644_u0649 u0020 u0627_u0644_u062c_u0632_u0627_u0626_u0631_u0020", 
        "u0627_u0644_u0633_u0639_u064a_u062f_u0629 u0020 u0648_u0627_u0646 u0020 u0643_u0627_u0646 u0020 u0641_u0627_u0633_u062f_u0629 u0020 u0627_u0631_u0633_u0644_u062a u0020 u0627_u0644_u0649 u0020 u0627_u0644_u0633_u062c_u0646 u0020 u0644_u062a_u0644_u0642_u0649 u0020 u0627_u0644_u0639_u0642_u0627_u0628_u0030"
    ]
}