{
    "bounding_box": [
        [
            88, 
            50, 
            594, 
            36
        ], 
        [
            71, 
            89, 
            575, 
            31
        ], 
        [
            411, 
            124, 
            235, 
            30
        ], 
        [
            37, 
            192, 
            610, 
            29
        ], 
        [
            26, 
            224, 
            621, 
            31
        ], 
        [
            564, 
            259, 
            82, 
            27
        ], 
        [
            69, 
            324, 
            577, 
            31
        ], 
        [
            28, 
            359, 
            618, 
            30
        ], 
        [
            68, 
            392, 
            579, 
            31
        ], 
        [
            79, 
            424, 
            567, 
            32
        ], 
        [
            43, 
            459, 
            603, 
            31
        ], 
        [
            366, 
            494, 
            280, 
            29
        ]
    ], 
    "image_height": 540, 
    "image_width": 720, 
    "transcription": [
        "u0020 u0020 u0020 u0020 u0020 u0020 u0020 u0020 u0020 u0020 u0020 u0020 u0020 u0020 u0020 u0020 u0020 u0020 u0020_u0645_u0627_u062f_u0629 u0020 u0020_u0643_u062a_u0627_u0628 u0020 u0028 u0020 u0627_u0644_u0643_u0627_u0645_u0644 u0020 u0029 u0020 u0648_u0642_u064a_u0645_u062a_u0647 u0020 u0627_u0644_u0639_u0644_u0645_u064a_u0629_u000d", 
        "u0647_u0630_u0627 u0020 u0627_u0644_u0643_u062a_u0627_u0628 u0020 u064a_u0639_u062f u0020 u0645_u0646 u0020 u0623_u0648_u0633_u0639 u0020 u0648_u0623_u063a_u0632_u0631 u0020 u0643_u062a_u0628 u0020 u0627_u0644_u0642_u0631_u0627_u0621_u0627_u062a u0020 u0631_u0648_u0627_u064a_u0629_u060c u0020 u0641_u0647_u0648 u0020 u0623_u0634_u0645_u0644_u0020", 
        "u0643_u062a_u0627_u0628 u0020 u0639_u0631_u0641 u0020 u0641_u064a u0020 u0627_u0644_u0642_u0631_u0627_u0621_u0627_u062a u0020 u002e_u000d", 
        "u062c_u0645_u0639 u0020 u0628_u064a_u0646 u0020 u062f_u0641_u062a_u064a_u0647 u0020 u0627_u0644_u0642_u0631_u0627_u0621_u0627_u062a u0020 u0627_u0644_u0639_u0634_u0631 u0020 u0627_u0644_u0645_u0634_u0647_u0648_u0631_u0629 u0020 u0648 u0020 u0627_u0644_u0627_u0631_u0628_u0639_u064a_u0646 u0020 u0627_u0644_u0632_u0627_u0626_u062f_u0629 u0020 u0639_u0644_u064a_u0647_u0627 u0020 u060c_u0020", 
        "u0645_u0646 u0020 u062e_u0645_u0633_u064a_u0646 u0020 u0631_u0648_u0627_u064a_u0629 u0020 u0648 u0020 u0623_u0643_u062b_u0631 u0020 u0645_u0646 u0020 u0623_u0644_u0641 u0020 u0637_u0631_u064a_u0642 u0020 u060c u0020 u0628_u0627_u0644_u0627_u0636_u0627_u0641_u0629 u0020 u0627_u0644_u0649 u0020 u0628_u0627_u0628 u0020 u0648_u0627_u0633_u0639 u0020 u0641_u064a_u0020", 
        "u0627_u0644_u0623_u0633_u0627_u0646_u064a_u062f_u002e_u000d", 
        "u0643_u0645_u0627 u0020 u0623_u0634_u062a_u0645_u0644 u0020 u0639_u0644_u0649 u0020 u0623_u0633_u0645_u0627_u0621 u0020 u0639_u062f_u062f u0020 u0643_u0628_u064a_u0631 u0020 u0645_u0646 u0020 u0627_u0644_u0642_u0631_u0627_u0621 u0020 u0644_u0627 u0020 u0630_u0643_u0631 u0020 u0644_u0647_u0645 u0020 u0641_u064a u0020 u063a_u064a_u0631_u0647 u0020 u060c_u0020", 
        "u0648_u0641_u064a u0020 u0643_u0644 u0020 u0648_u0631_u0642_u0629 u0020 u0645_u0646 u0020 u0648_u0631_u0642_u0627_u062a u0020 u0643_u062a_u0627_u0628 u0020 u0028_u063a_u0627_u064a_u0629 u0020 u0627_u0644_u0646_u0647_u0627_u064a_u0629 u0020 u0641_u064a u0020 u0637_u0628_u0642_u0627_u062a u0020 u0627_u0644_u0642_u0631_u0627_u0621_u0029 u0020 u0644_u0644_u0625_u0645_u0627_u0645_u0020", 
        "u0627_u0644_u062d_u0627_u0641_u0638 u0020 u0627_u0628_u0646 u0020 u0627_u0644_u062c_u0632_u0631_u064a u0020 u062f_u0644_u064a_u0644 u0020 u0639_u0644_u0649 u0020 u0630_u0644_u0643 u0020 u060c u0020 u0641_u0647_u0648 u0020 u0623_u0635_u0644 u0020 u0645_u0646 u0020 u0623_u0635_u0648_u0644_u0647 u0020 u060c u0020 u0648_u0631_u0643_u0646_u0020", 
        "u0627_u0633_u0627_u0633_u064a u0020 u0645_u0646 u0020 u0623_u0631_u0643_u0627_u0646_u0647 u0020 u060c u0020 u0648_u0623_u0635_u0644 u0020 u0645_u0646 u0020 u0627_u0635_u0648_u0644 u0020 u0643_u062a_u0627_u0628_u0647 u0020 u0028_u0627_u0644_u0646_u0634_u0631 u0020 u0641_u064a u0020 u0627_u0644_u0642_u0631_u0627_u0621_u0627_u062a_u0020", 
        "u0627_u0644_u0639_u0634_u0631_u0029_u060c u0020 u0648_u0623_u062b_u0631_u0647 u0020 u0648_u0627_u0636_u062d u0020 u0641_u064a u0020 u0643_u062a_u0628 u0020 u0627_u0644_u0625_u0645_u0627_u0645 u0020 u0627_u0644_u062d_u0627_u0641_u0638 u0020 u0627_u0644_u0630_u0647_u0628_u064a u0020 u0648 u0020 u063a_u064a_u0631_u0647 u0020 u0645_u0646 u0020 u0643_u062a_u0628_u0020", 
        "u0637_u0628_u0642_u0627_u062a u0020 u0627_u0644_u0642_u0631_u0627_u0621 u0020 u0648 u0020 u0631_u062c_u0627_u0644 u0020 u0627_u0644_u0642_u0631_u0627_u0621_u0627_u062a_u002e"
    ]
}