{
    "bounding_box": [
        [
            504, 
            36, 
            183, 
            27
        ], 
        [
            42, 
            67, 
            653, 
            32
        ], 
        [
            223, 
            104, 
            489, 
            28
        ], 
        [
            66, 
            136, 
            621, 
            30
        ], 
        [
            14, 
            167, 
            681, 
            32
        ], 
        [
            139, 
            201, 
            573, 
            32
        ], 
        [
            349, 
            235, 
            338, 
            32
        ], 
        [
            378, 
            269, 
            307, 
            29
        ], 
        [
            325, 
            305, 
            360, 
            29
        ], 
        [
            389, 
            335, 
            296, 
            32
        ], 
        [
            317, 
            369, 
            367, 
            30
        ], 
        [
            523, 
            404, 
            162, 
            31
        ]
    ], 
    "image_height": 540, 
    "image_width": 720, 
    "transcription": [
        "u0645_u0627 u0020 u0627_u0644_u0645_u0642_u0635_u0648_u062f u0020 u0628_u0627_u0644_u062c_u0646_u0629_u061f_u000d", 
        "u0627_u0644_u062c_u0646_u0629_u003a_u0647_u064a u0020 u062f_u0627_u0631 u0020 u0627_u0644_u0646_u0639_u064a_u0645 u0020 u0648_u0627_u0644_u062b_u0648_u0627_u0628 u0020 u0627_u0644_u062c_u0632_u064a_u0644 u0020 u0627_u0644_u0630_u064a u0020 u064a_u062b_u064a_u0628 u0020 u0628_u0647 u0020 u0627_u0644_u0644_u0647 u0020 u0639_u0628_u0627_u062f_u0647 u0020 u0627_u0644_u0645_u0624_u0645_u0646_u064a_u0646 u0020 u0639_u0644_u0649_u0020", 
        "u0625_u064a_u0645_u0627_u0646_u0647_u0645 u0020 u0648_u062a_u0642_u0648_u0627_u0647_u0645 u0020 u0648_u0635_u0628_u0631_u0647_u0645 u0020 u062d_u064a_u062b u0020 u064a_u062e_u0644_u062f_u0648_u0646 u0020 u0641_u064a_u0647_u0627 u0020 u062d_u064a_u0627_u0629 u0020 u062f_u0627_u0626_u0645_u0629_u002e_u000d", 
        "u0647_u0627_u062a_u064a u0020 u062f_u0644_u064a_u0644 u0020 u0645_u0646 u0020 u0627_u0644_u0642_u0631_u0622_u0646 u0020 u0639_u0644_u0649 u0020 u0623_u0646 u0020 u0627_u0644_u0645_u0624_u0645_u0646_u064a_u0646 u0020 u064a_u062e_u0644_u062f_u0648_u0646 u0020 u0641_u064a u0020 u0627_u0644_u062c_u0646_u0629 u0020 u062d_u064a_u0627_u0629 u0020 u0623_u0628_u062f_u064a_u0629_u061f_u000d", 
        "u0642_u0627_u0644 u0020 u062a_u0639_u0627_u0644_u0649_u201c_u0625_u0650_u0646_u0651_u064e u0020 u0627_u0644_u0651_u064e_u0630_u0650_u064a_u0646_u064e u0020 u0622_u0645_u064e_u0646_u064f_u0648_u0627 u0020 u0648_u064e_u0639_u064e_u0645_u0650_u0644_u064f_u0648_u0627 u0020 u0627_u0644_u0635_u0651_u064e_u0627_u0644_u0650_u062d_u064e_u0627_u062a_u0650 u0020 u0623_u064f_u0648_u0644_u064e_u0626_u0650_u0643_u064e u0020 u0647_u064f_u0645_u0652 u0020 u062e_u064e_u064a_u0652_u0631_u064f u0020 u0627_u0644_u0652_u0628_u064e_u0631_u0650_u064a_u0651_u064e_u0629_u0650 u0020 u002a u0020 u062c_u064e_u0632_u064e_u0627_u0624_u064f_u0647_u064f_u0645_u0652_u0020", 
        "u0639_u0650_u0646_u0652_u062f_u064e u0020 u0631_u064e_u0628_u0651_u0650_u0647_u0650_u0645_u0652 u0020 u062c_u064e_u0646_u0651_u064e_u0627_u062a_u064f u0020 u0639_u064e_u062f_u0652_u0646_u064d u0020 u062a_u064e_u062c_u0652_u0631_u0650_u064a u0020 u0645_u0650_u0646_u0652 u0020 u062a_u064e_u062d_u0652_u062a_u0650_u0647_u064e_u0627 u0020 u0627_u0644_u0652_u0623_u064e_u0646_u0652_u0647_u064e_u0627_u0631_u064f u0020 u062e_u064e_u0627_u0644_u0650_u062f_u0650_u064a_u0646_u064e u0020 u0641_u0650_u064a_u0647_u064e_u0627 u0020 u0623_u064e_u0628_u064e_u062f_u064b_u0627_u201c_u000d", 
        "u0635_u0641_u064a u0020 u0627_u0644_u062c_u0646_u0629 u0020 u0643_u0645_u0627 u0020 u0630_u0643_u0631_u0647_u0627 u0020 u0627_u0644_u0642_u0631_u0622_u0646 u0020 u0627_u0644_u0643_u0631_u064a_u0645_u061f_u000d", 
        "u0639_u0631_u0636_u0647_u0627 u0020 u0643_u0639_u0631_u0636 u0020 u0627_u0644_u0633_u0645_u0627_u0621 u0020 u0648_u0627_u0644_u0623_u0631_u0636_u002e_u000d", 
        "u0623_u0643_u0644 u0020 u062f_u0627_u0626_u0645 u0020 u0644_u0627 u0020 u064a_u0646_u0642_u0637_u0639 u0020 u0645_u0646 u0020 u0641_u0648_u0627_u0643_u0647 u0020 u0648_u0644_u062d_u0645 u0020 u0627_u0644_u0637_u064a_u0631_u002e_u000d", 
        "u064a_u0637_u0648_u0641 u0020 u0639_u0644_u064a_u0647_u0645 u0020 u063a_u0644_u0645_u0627_u0646 u0020 u0643_u0623_u0646_u0647_u0645 u0020 u0627_u0644_u0644_u0624_u0644_u0624_u002e_u000d", 
        "u0644_u0628_u0627_u0633_u0647_u0645 u0020 u0627_u0644_u062d_u0631_u064a_u0631 u0020 u0648_u064a_u062d_u0644_u0648_u0646 u0020 u0623_u0633_u0627_u0648_u0631 u0020 u0645_u0646 u0020 u0627_u0644_u0630_u0647_u0628_u002e_u000d", 
        "u0627_u0644_u062a_u062d_u064a_u0629 u0020 u0641_u064a_u0647_u0627 u0020 u0020_u0633_u0644_u0627_u0645_u002e_u000d"
    ]
}