{
    "bounding_box": [
        [
            310, 
            103, 
            175, 
            35
        ], 
        [
            124, 
            146, 
            547, 
            42
        ], 
        [
            117, 
            192, 
            562, 
            39
        ], 
        [
            280, 
            239, 
            235, 
            36
        ]
    ], 
    "image_height": 540, 
    "image_width": 720, 
    "transcription": [
        "u0648_u0641_u064a u0020 u0627_u0644_u0633_u0627_u0628_u0642_u0020", 
        "u0644_u0645 u0020 u064a_u0643_u0646 u0020 u0647_u0646_u0627_u0643 u0020 u062d_u0627_u062c_u0629 u0020 u0644_u062f_u0631_u0627_u0633_u0629 u0020 u0646_u0638_u0631_u064a_u0627_u062a u0020 u0627_u0644_u062a_u0639_u0644_u0645 u0020 u0641_u0627_u0644_u0623_u0628_u0020", 
        "u064a_u0639_u0644_u0645 u0020 u0625_u0628_u0646_u0647 u0020 u0648_u0631_u062c_u0627_u0644 u0020 u0627_u0644_u0623_u0639_u0645_u0627_u0644 u0020 u064a_u0639_u0644_u0645_u0648_u0646 u0020 u0627_u0644_u0635_u0646_u0627_u0639 u0020 u0648_u0627_u0644_u0645_u0639_u0644_u0645_u0020", 
        "u064a_u0639_u0644_u0645 u0020 u0627_u0644_u0637_u0627_u0644_u0628 u0020 u0628_u0627_u0644_u062a_u0644_u0642_u064a_u0646_u0020"
    ]
}