{
    "bounding_box": [
        [
            17, 
            26, 
            688, 
            38
        ], 
        [
            17, 
            65, 
            688, 
            42
        ], 
        [
            17, 
            112, 
            688, 
            39
        ], 
        [
            17, 
            156, 
            688, 
            37
        ], 
        [
            17, 
            198, 
            688, 
            39
        ], 
        [
            17, 
            240, 
            688, 
            40
        ], 
        [
            17, 
            281, 
            688, 
            42
        ], 
        [
            17, 
            325, 
            688, 
            42
        ], 
        [
            17, 
            368, 
            688, 
            42
        ], 
        [
            376, 
            411, 
            330, 
            41
        ]
    ], 
    "image_height": 540, 
    "image_width": 720, 
    "transcription": [
        "u064a_u062d_u062a_u0627_u062c u0020 u0627_u0644_u0645_u0639_u0646_u064a_u064a_u0646 u0020 u0625_u0644_u0649 u0020 u0627_u0644_u0648_u0642_u0648_u0641 u0020 u0639_u0644_u0649 u0020 u0627_u0644_u062a_u0637_u0648_u0631_u0627_u062a u0020 u0627_u0644_u062a_u064a u0020 u062a_u0642_u0639 u0020 u0641_u064a_u0020", 
        "u0645_u062c_u0627_u0644 u0020 u0627_u0644_u0642_u0627_u0646_u0648_u0646 u0020 u0627_u0644_u062f_u0648_u0644_u064a u0020 u0644_u062d_u0642_u0648_u0642 u0020 u0627_u0644_u0625_u0646_u0633_u0627_u0646 u0020 u0628_u0634_u0643_u0644 u0020 u0645_u0633_u062a_u0645_u0631 u0020 u0646_u0638_u0631_u0627 u0020 u0644_u0645_u0627_u0020", 
        "u064a_u0634_u0647_u062f_u0647 u0020 u0647_u0630_u0627 u0020 u0627_u0644_u062d_u0642_u0644 u0020 u0645_u0646 u0020 u062a_u0637_u0648_u0631 u0020 u0633_u0631_u064a_u0639_u002e u0020 u0641_u0639_u0644_u0649 u0020 u0633_u0628_u064a_u0644 u0020 u0627_u0644_u0645_u062b_u0627_u0644_u060c u0020 u062a_u0645_u0020", 
        "u062e_u0644_u0627_u0644 u0020 u0627_u0644_u0623_u0639_u0648_u0627_u0645 u0020 u0627_u0644_u062b_u0644_u0627_u062b_u0629 u0020 u0627_u0644_u0623_u062e_u064a_u0631_u0629 u0020 u0641_u0642_u0637 u0020 u0627_u0639_u062a_u0645_u0627_u062f u0020 u0639_u062f_u062f u0020 u0645_u0646 u0020 u0627_u0644_u0635_u0643_u0648_u0643_u0020", 
        "u0627_u0644_u062f_u0648_u0644_u064a_u0629 u0020 u0645_u0646 u0020 u0628_u064a_u0646_u0647_u0627_u003a u0020 u0627_u0644_u0628_u0631_u0648_u062a_u0648_u0643_u0648_u0644 u0020 u0627_u0644_u0627_u062e_u062a_u064a_u0627_u0631_u064a u0020 u0627_u0644_u0645_u0644_u062d_u0642 u0020 u0628_u0627_u0644_u0639_u0647_u062f_u0020", 
        "u0627_u0644_u062f_u0648_u0644_u064a u0020 u0627_u0644_u062e_u0627_u0635 u0020 u0628_u0627_u0644_u062d_u0642_u0648_u0642 u0020 u0627_u0644_u0627_u0642_u062a_u0635_u0627_u062f_u064a_u0629 u0020 u0648_u0627_u0644_u0627_u062c_u062a_u0645_u0627_u0639_u064a_u0629 u0020 u0648_u0627_u0644_u062b_u0642_u0627_u0641_u064a_u0629_u060c_u0020", 
        "u0648_u0627_u0644_u0627_u062a_u0641_u0627_u0642_u064a_u0629 u0020 u0627_u0644_u062f_u0648_u0644_u064a_u0629 u0020 u0644_u062d_u0645_u0627_u064a_u0629 u0020 u062c_u0645_u064a_u0639 u0020 u0627_u0644_u0623_u0634_u062e_u0627_u0635 u0020 u0645_u0646 u0020 u0627_u0644_u0627_u062e_u062a_u0641_u0627_u0621_u0020", 
        "u0627_u0644_u0642_u0633_u0631_u064a_u060c u0020 u0648_u0627_u062a_u0641_u0627_u0642_u064a_u0629 u0020 u062d_u0642_u0648_u0642 u0020 u0627_u0644_u0623_u0634_u062e_u0627_u0635 u0020 u0630_u0648_u064a u0020 u0627_u0644_u0625_u0639_u0627_u0642_u0629_u0020", 
        "u0648_u0627_u0644_u0628_u0631_u0648_u062a_u0648_u0643_u0648_u0644 u0020 u0627_u0644_u0645_u0644_u062d_u0642 u0020 u0628_u0647_u0627 u0020 u0648_u0642_u062f u0020 u062f_u062e_u0644 u0020 u0627_u0644_u0635_u0643_u064a_u0646 u0020 u0627_u0644_u0623_u062e_u064a_u0631_u064a_u0646 u0020 u062d_u064a_u0632_u0020", 
        "u0627_u0644_u0646_u0641_u0627_u0630 u0020 u0641_u064a u0020 u0623_u064a_u0627_u0631_u002f_u0645_u0627_u064a_u0648 u0020 u0032_u0030_u0030_u0038_u002e u0020 u000d"
    ]
}