{
    "bounding_box": [
        [
            449, 
            87, 
            263, 
            36
        ], 
        [
            204, 
            183, 
            508, 
            38
        ], 
        [
            204, 
            230, 
            508, 
            37
        ], 
        [
            204, 
            278, 
            508, 
            42
        ], 
        [
            204, 
            327, 
            508, 
            41
        ], 
        [
            204, 
            374, 
            508, 
            43
        ], 
        [
            271, 
            426, 
            441, 
            39
        ]
    ], 
    "image_height": 540, 
    "image_width": 720, 
    "transcription": [
        "u0627_u0644_u0642_u064a_u0627_u062f_u0629 u0020 u0627_u0644_u0643_u0627_u0631_u064a_u0632_u0645_u064a_u0629 u0020 u003a u0020 u000d", 
        "u0647_u0630_u0647 u0020 u0627_u0644_u0642_u064a_u0627_u062f_u0629 u0020 u062a_u0633_u062a_u0645_u062f u0020 u0633_u0644_u0637_u062a_u0647_u0627 u0020 u0648_u0642_u0648_u062a_u0647_u0627 u0020 u0645_u0646_u0020", 
        "u0642_u062f_u0631_u0627_u062a u0020 u0634_u062e_u0635_u064a_u0629 u0020 u062e_u0627_u0635_u0629 u0020 u062a_u0645_u064a_u0632_u0647_u0627 u0020 u0639_u0646_u0020", 
        "u0627_u0644_u0623_u0641_u0631_u0627_u062f u0020 u0627_u0644_u0627_u062e_u0631_u064a_u0646 u0020 u0648_u062a_u0624_u0647_u0644_u0647_u0627 u0020 u0639_u0644_u0649 u0020 u0642_u064a_u0627_u062f_u062a_u0647_u0645_u0020", 
        "u0645_u0645_u0627 u0020 u064a_u0633_u0627_u0639_u062f u0020 u0627_u0644_u0642_u0627_u0626_u062f u0020 u0639_u0644_u0649 u0020 u0641_u0631_u0636 u0020 u0646_u0641_u0648_u0630_u0647_u0020", 
        "u0648_u0622_u0631_u0627_u0626_u0647 u0020 u0639_u0644_u0649 u0020 u0627_u0644_u0645_u062c_u062a_u0645_u0639 u0020 u0628_u0648_u0627_u0633_u0637_u0629 u0020 u062a_u0623_u062b_u064a_u0631_u0647_u0020", 
        "u0627_u0644_u0634_u062e_u0635_u064a u0020 u0639_u0644_u0649 u0020 u0639_u0642_u0648_u0644_u0647_u0645 u0020 u0648_u0633_u0644_u0648_u0643_u0647_u0645 u0020 u002e_u000d"
    ]
}