{
    "bounding_box": [
        [
            94, 
            63, 
            539, 
            20
        ], 
        [
            109, 
            87, 
            524, 
            20
        ], 
        [
            313, 
            111, 
            320, 
            18
        ], 
        [
            77, 
            157, 
            556, 
            22
        ], 
        [
            543, 
            183, 
            90, 
            18
        ], 
        [
            109, 
            229, 
            524, 
            22
        ], 
        [
            143, 
            255, 
            490, 
            20
        ], 
        [
            90, 
            301, 
            543, 
            22
        ], 
        [
            104, 
            327, 
            529, 
            20
        ], 
        [
            587, 
            352, 
            46, 
            17
        ], 
        [
            88, 
            397, 
            545, 
            22
        ], 
        [
            227, 
            423, 
            406, 
            20
        ]
    ], 
    "image_height": 540, 
    "image_width": 720, 
    "transcription": [
        "u0037 u0020 u0030_u0627_u0644_u0627_u062a_u0635_u0627_u0644_u003a u0020 u064a_u0639_u062a_u0628_u0631 u0020 u0627_u0644_u0627_u062a_u0635_u0627_u0644 u0020 u0645_u0646 u0020 u0627_u0644_u0639_u0648_u0627_u0645_u0644 u0020 u0627_u0644_u0645_u0624_u062b_u0631_u0629 u0020 u0639_u0644_u064a u0020 u062a_u0639_u0644_u0645 u0020 u0627_u0644_u0633_u0644_u0648_u0643 u0020 u0628_u0627_u0644_u0646_u0633_u0628_u0629 u0020 u0644_u0644_u0641_u0631_u062f u0020 u0641_u0643_u0644_u0645_u0627_u0020", 
        "u0643_u0627_u0646 u0020 u0647_u0646_u0627_u0643 u0020 u0627_u062a_u0635_u0627_u0644 u0020 u0641_u0639_u0627_u0644 u0020 u0643_u0644_u0645_u0627 u0020 u062a_u0648_u0627_u0641_u0631_u062a u0020 u0645_u0639_u0644_u0648_u0645_u0627_u062a u0020 u0644_u062f_u064a u0020 u0627_u0644_u0641_u0631_u062f u0020 u0645_u0645_u0627 u0020 u064a_u0633_u0647_u0644 u0020 u0639_u0644_u064a u0020 u0627_u0644_u0641_u0631_u062f u0020 u0639_u0645_u0644_u064a_u0629_u0020", 
        "u0627_u062e_u062a_u064a_u0627_u0631 u0020 u0627_u0644_u0633_u0644_u0648_u0643 u0020 u0648_u0627_u0644_u062a_u0646_u0628_u0624 u0020 u0628_u0627_u0644_u0639_u0648_u0627_u0626_u062f u0020 u0627_u0644_u0645_u062a_u0639_u0644_u0642_u0629 u0020 u0628_u0647_u0630_u0627 u0020 u0627_u0644_u0633_u0644_u0648_u0643_u000d", 
        "u0038 u0020 u0030_u0627_u0647_u0645_u064a_u0629 u0020 u0627_u0644_u0633_u0644_u0648_u0643 u0020 u0645_u062d_u0644 u0020 u0627_u0644_u062a_u0639_u0644_u064a_u0645_u003a u0020 u0625_u0630_u0627 u0020 u0643_u0627_u0646 u0020 u0627_u0644_u0633_u0644_u0648_u0643 u0020 u0645_u062d_u0644 u0020 u0627_u0644_u062a_u0639_u0644_u0645 u0020 u0630_u0627 u0020 u0623_u0647_u0645_u064a_u0629 u0020 u0623_u0648 u0020 u0646_u0641_u0639 u0020 u0644_u062f_u064a u0020 u0627_u0644_u0641_u0631_u062f u0020 u0632_u0627_u0630_u0020", 
        "u0627_u062d_u062a_u0645_u0627_u0644 u0020 u0627_u0644_u062a_u0639_u0644_u0645 u0020 u000d", 
        "u0020_u0039 u0020 u0030 u0020 u0627_u0644_u062a_u062f_u0639_u064a_u0645_u003a u0020 u0625_u0630_u0627 u0020 u0642_u0627_u0645 u0020 u0627_u0644_u0641_u0631_u062f u0020 u0628_u0633_u0644_u0648_u0643 u0020 u0645_u0639_u064a_u0646 u0020 u0648_u062d_u0642_u0642 u0020 u0644_u0647 u0020 u0627_u0644_u0631_u0636_u0627 u0020 u0648_u0627_u0644_u0646_u0641_u0639 u0020 u0641_u0645_u0639_u0646_u064a u0020 u0630_u0644_u0643 u0020 u0623_u0646 u0020 u0627_u0644_u0641_u0631_u062f_u0020", 
        "u0633_u0648_u0641 u0020 u064a_u0643_u0631_u0631 u0020 u0647_u0630_u0627 u0020 u0627_u0644_u0633_u0644_u0648_u0643 u0020 u0648_u0647_u0630_u0627 u0020 u0627_u0644_u0646_u0641_u0639 u0020 u0648_u0627_u0644_u0631_u0636_u0627 u0020 u064a_u0635_u0628_u062d u0020 u0645_u062f_u0639_u0645 u0020 u0644_u0647_u0630_u0627 u0020 u0627_u0644_u0633_u0644_u0648_u0643 u0020 u0648_u0628_u0627_u0644_u0639_u0643_u0633_u000d", 
        "u0031_u0030 u0020 u0030 u0020 u0627_u0644_u062a_u0634_u0627_u0628_u0647_u003a u0020 u0625_u0630_u0627 u0020 u0643_u0627_u0646 u0020 u0647_u0646_u0627_u0643 u0020 u062a_u0634_u0627_u0628_u0647 u0020 u0628_u064a_u0646 u0020 u0627_u0644_u0645_u0648_u0642_u0641 u0020 u0627_u0644_u062d_u0627_u0644_u064a u0020 u0648_u0645_u0648_u0627_u0642_u0641 u0020 u0633_u0627_u0628_u0642_u0629 u0020 u0641_u0623_u0646 u0020 u0627_u0644_u0633_u0644_u0648_u0643 u0020 u0627_u0644_u0630_u064a_u0020", 
        "u0633_u0648_u0641 u0020 u064a_u062e_u062a_u0627_u0631_u0647 u0020 u0627_u0644_u0641_u0631_u062f u0020 u0647_u0648 u0020 u0646_u0641_u0633 u0020 u0627_u0644_u0633_u0644_u0648_u0643 u0020 u0627_u0644_u0630_u064a u0020 u0627_u0631_u062a_u0628_u0637 u0020 u0628_u0627_u0644_u0645_u0648_u0627_u0642_u0641 u0020 u0627_u0644_u0633_u0627_u0628_u0642_u0629 u0020 u0648_u0647_u0630_u0627 u0020 u0645_u0627 u0020 u064a_u0637_u0644_u0642 u0020 u0639_u0644_u064a_u0647_u0020", 
        "u0627_u0644_u062a_u0639_u0645_u064a_u0645_u000d", 
        "u0031_u0031 u0020 u0030_u062a_u0643_u0631_u0627_u0631 u0020 u0627_u0644_u0645_u062d_u0627_u0648_u0644_u0627_u062a_u003a u0020 u064a_u062a_u0623_u062b_u0631 u0020 u062a_u0643_u0648_u064a_u0646 u0020 u0648_u062a_u0634_u0643_u064a_u0644 u0020 u0627_u0644_u0633_u0644_u0648_u0643 u0020 u0625_u0644_u064a u0020 u0645_u062d_u0627_u0648_u0644_u0627_u062a_u0646_u0627 u0020 u0627_u0644_u0639_u062f_u064a_u062f_u0629 u0020 u0644_u0644_u062a_u0639_u0644_u064a_u0645 u0020 u0641_u0643_u0644_u0645_u0627_u0020", 
        "u0632_u0627_u062f_u062a u0020 u0627_u0644_u0645_u062d_u0648_u0644_u0627_u062a u0020 u0648_u062a_u0643_u0631_u0631_u062a u0020 u0643_u0644_u0645_u0627 u0020 u0643_u0627_u0646 u0020 u0647_u0646_u0627_u0643 u0020 u0645_u064a_u0644 u0020 u0625_u0644_u064a u0020 u062a_u0643_u0631_u0627_u0631 u0020 u0627_u0644_u0633_u0644_u0648_u0643_u000d"
    ]
}