{
    "bounding_box": [
        [
            395, 
            67, 
            286, 
            22
        ], 
        [
            395, 
            117, 
            286, 
            20
        ], 
        [
            395, 
            165, 
            286, 
            20
        ], 
        [
            395, 
            211, 
            286, 
            22
        ], 
        [
            627, 
            262, 
            54, 
            17
        ], 
        [
            395, 
            307, 
            286, 
            21
        ], 
        [
            395, 
            355, 
            286, 
            22
        ], 
        [
            395, 
            403, 
            286, 
            22
        ], 
        [
            509, 
            453, 
            172, 
            20
        ]
    ], 
    "image_height": 540, 
    "image_width": 720, 
    "transcription": [
        "u0628_u0627_u0644_u0625_u0636_u0627_u0641_u0629 u0020 u0625_u0644_u0649 u0020 u0623_u0646 u0020 u0647_u0646_u0627_u0643 u0020 u062e_u0637_u0637 u0020 u0648_u0628_u0631_u0627_u0645_u062c u0020 u0623_u062e_u0631_u0649_u0020", 
        "u0644_u0644_u0646_u0638_u0631 u0020 u0641_u064a u0020 u062a_u062d_u0648_u064a_u0644 u0020 u0639_u062f_u062f u0020 u0645_u0646 u0020 u0627_u0644_u062d_u0627_u0631_u0627_u062a u0020 u0627_u0644_u0642_u062f_u064a_u0645_u0629_u0020", 
        "u0627_u0644_u062c_u0627_u0631_u064a u0020 u062a_u0631_u0645_u064a_u0645_u0647_u0627 u0020 u0645_u062b_u0644 u0020 u062d_u0627_u0631_u0629 u0020 u0627_u0644_u0628_u0644_u0627_u062f u0020 u0628_u0648_u0644_u0627_u064a_u0629 u0020 u0645_u0646_u062d_u060c_u0020", 
        "u0648_u062d_u0627_u0631_u0629 u0020 u0627_u0644_u062c_u0627_u0645_u0639 u0020 u0628_u0648_u0644_u0627_u064a_u0629 u0020 u0623_u062f_u0645 u0020 u0625_u0644_u0649 u0020 u0645_u0632_u0627_u0631_u0627_u062a_u0020", 
        "u0633_u064a_u0627_u062d_u064a_u0629_u002e_u000d", 
        "u0643_u0630_u0644_u0643 u0020 u0020_u064a_u062a_u0645 u0020 u062d_u0627_u0644_u064a_u0627 u0020 u0627_u062e_u062a_u064a_u0627_u0631 u0020 u0645_u062c_u0645_u0648_u0639_u0629 u0020 u0623_u062e_u0631_u0649 u0020 u0645_u0646_u0020", 
        "u0647_u0630_u0647 u0020 u0627_u0644_u062d_u0627_u0631_u0627_u062a u0020 u0627_u0644_u0645_u0645_u064a_u0632_u0629 u0020 u0627_u0644_u062a_u064a u0020 u0644_u0645 u0020 u062a_u0628_u062f_u0623 u0020 u0623_u0639_u0645_u0627_u0644_u0020", 
        "u0627_u0644_u062a_u0631_u0645_u064a_u0645 u0020 u0641_u064a_u0647_u0627_u060c u0020 u0644_u0625_u0639_u062f_u0627_u062f u0020 u062a_u0648_u062b_u064a_u0642 u0020 u062a_u0627_u0631_u064a_u062e_u064a u0020 u0648_u0623_u062b_u0631_u064a_u0020", 
        "u0648_u0647_u0646_u062f_u0633_u064a u0020 u0645_u062a_u0643_u0627_u0645_u0644 u0020 u0644_u0645_u0643_u0648_u0646_u0627_u062a_u0647_u0627 u0020 u002e"
    ]
}