{
    "bounding_box": [
        [
            168, 
            14, 
            390, 
            42
        ], 
        [
            144, 
            132, 
            538, 
            31
        ], 
        [
            189, 
            174, 
            468, 
            31
        ], 
        [
            89, 
            217, 
            567, 
            30
        ], 
        [
            178, 
            259, 
            479, 
            30
        ], 
        [
            113, 
            299, 
            544, 
            31
        ], 
        [
            103, 
            342, 
            554, 
            30
        ], 
        [
            128, 
            383, 
            529, 
            31
        ]
    ], 
    "image_height": 540, 
    "image_width": 720, 
    "transcription": [
        "u002a_u0627_u0633_u062a_u062b_u0645_u0627_u0631_u0627_u062a u0020 u0641_u064a u0020 u0634_u0631_u0643_u0627_u062a u0020 u0632_u0645_u064a_u0644_u0629_u000b", 
        "u0627_u0644_u0634_u0631_u0643_u0629 u0020 u0627_u0644_u0623_u0648_u0644_u0649 u0020 u0644_u0644_u062a_u0623_u0645_u064a_u0646 u0020 u0627_u0644_u062a_u0643_u0627_u0641_u0644_u064a u0020 u0634_u002e_u0645_u002e_u0643_u002e u0020 u0028_u0645_u0642_u0641_u0644_u0629_u0029 u0020 u002d u0020 u0627_u0644_u0643_u0648_u064a_u062a_u000d", 
        "u0628_u064a_u062a u0020 u0627_u0644_u0627_u0633_u062a_u062b_u0645_u0627_u0631 u0020 u0627_u0644_u062e_u0644_u064a_u062c_u064a u0020 u0634_u002e_u0645_u002e_u0643_u002e u0020 u0028_u0645_u0642_u0641_u0644_u0629_u0029 u0020 u002d u0020 u0627_u0644_u0643_u0648_u064a_u062a_u000d", 
        "u0634_u0631_u0643_u0629 u0020 u0645_u0631_u0643_u0632 u0020 u0625_u062f_u0627_u0631_u0629 u0020 u0627_u0644_u0633_u064a_u0648_u0644_u0629 u0020 u0627_u0644_u0645_u0627_u0644_u064a_u0629 u0020 u0634_u002e_u0645_u002e_u0628 u0020 u0028_u0645_u0642_u0641_u0644_u0629_u0029 u0020 u002d u0020 u0627_u0644_u0628_u062d_u0631_u064a_u0646_u000d", 
        "u0645_u0635_u0631_u0641 u0020 u0627_u0644_u0634_u0627_u0631_u0642_u0629 u0020 u0627_u0644_u0648_u0637_u0646_u064a u0020 u002d u0020 u0627_u0644_u0625_u0645_u0627_u0631_u0627_u062a u0020 u0627_u0644_u0639_u0631_u0628_u064a_u0629 u0020 u0627_u0644_u0645_u062a_u062d_u062f_u0629_u000d", 
        "u0634_u0631_u0643_u0629 u0020 u0623_u0639_u064a_u0627_u0646 u0020 u0644_u0644_u0625_u062c_u0627_u0631_u0629 u0020 u0648_u0627_u0644_u0627_u0633_u062a_u062b_u0645_u0627_u0631 u0020 u0634_u002e_u0645_u002e_u0643 u0020 u0028_u0645_u0642_u0641_u0644_u0629_u0029 u0020 u002d u0020 u0627_u0644_u0643_u0648_u064a_u062a_u000d", 
        "u0634_u0631_u0643_u0629 u0020 u0645_u0646_u0634_u0622_u062a u0020 u0644_u0644_u0645_u0634_u0627_u0631_u064a_u0639 u0020 u0627_u0644_u0639_u0642_u0627_u0631_u064a_u0629 u0020 u0634_u002e_u0645_u002e_u0643_u002e u0020 u0028_u0645_u0642_u0641_u0644_u0629_u0029 u0020 u002d u0020 u0627_u0644_u0643_u0648_u064a_u062a_u000d", 
        "u0634_u0631_u0643_u0629 u0020 u0635_u0643_u0648_u0643 u0020 u0644_u0644_u062a_u0637_u0648_u064a_u0631 u0020 u0627_u0644_u0639_u0642_u0627_u0631_u064a u0020 u0634_u002e_u0645_u002e_u0643_u002e u0020 u0028_u0645_u0642_u0641_u0644_u0629_u0029 u0020 u002d u0020 u0627_u0644_u0643_u0648_u064a_u062a"
    ]
}