{
    "bounding_box": [
        [
            59, 
            68, 
            510, 
            32
        ], 
        [
            58, 
            131, 
            540, 
            30
        ], 
        [
            80, 
            163, 
            496, 
            29
        ], 
        [
            275, 
            196, 
            301, 
            27
        ], 
        [
            44, 
            259, 
            532, 
            27
        ], 
        [
            46, 
            287, 
            530, 
            30
        ], 
        [
            58, 
            319, 
            518, 
            29
        ], 
        [
            70, 
            351, 
            506, 
            28
        ], 
        [
            66, 
            381, 
            510, 
            29
        ], 
        [
            98, 
            412, 
            478, 
            30
        ], 
        [
            124, 
            448, 
            452, 
            25
        ]
    ], 
    "image_height": 540, 
    "image_width": 720, 
    "transcription": [
        "u0627_u0644_u0625_u062a_u064a_u0643_u064a_u062a u0020 u0641_u064a u0020 u0627_u0644_u0639_u0644_u0627_u0642_u0627_u062a u0020 u0628_u064a_u0646 u0020 u0627_u0644_u0646_u0651_u0627_u0633_u002e", 
        "u0031_u002d u0020 u0625_u0646_u0651_u064b u0020 u0627_u0644_u062a_u0639_u0627_u0645_u0644 u0020 u0628_u0650_u062d_u0633_u0646_u0650 u0020 u0627_u0644_u062e_u064f_u0644_u0642 u0020 u0645_u0639 u0020 u0627_u0644_u0622_u062e_u0631_u064a_u0646 u0020 u0644_u0647 u0020 u062f_u0648_u0631 u0020 u0643_u0628_u064a_u0631_u0020", 
        "u0641_u064a u0020 u062a_u062d_u0633_u064a_u0646 u0020 u0627_u0644_u0639_u0644_u0627_u0642_u0627_u062a u0020 u0628_u064a_u0646 u0020 u0627_u0644_u0646_u0651_u0627_u0633 u0020 u060c u0020 u0641_u0633_u0648_u0621_u0650 u0020 u0627_u0644_u062e_u0644_u0642_u0020", 
        "u064a_u064f_u062c_u0644_u0628 u0020 u0627_u0644_u0646_u0641_u0648_u0631 u0020 u0648_u0627_u0644_u0627_u0628_u062a_u0639_u0627_u062f u0020 u0639_u0646_u0647_u0645 u0020 u002e_u000b", 
        "u0032_u002d u0020 u062d_u062b u0020 u0627_u0644_u0631_u0633_u0648_u0644 u0020 u0635_u0644 u0020 u0627_u0644_u0644_u0647 u0020 u0639_u0644_u064a_u0647 u0020 u0648_u0633_u0644_u0645 u0020 u0639_u0644_u0649 u0020 u0627_u0644_u0639_u0644_u0627_u0642_u0627_u062a_u0020", 
        "u0627_u0644_u0648_u062f_u064a_u0629 u0020 u0628_u064a_u0646 u0020 u0627_u0644_u0645_u0633_u0644_u0645_u064a_u0646 u0020 u0641_u064a_u0642_u0648_u0644 u0020 u201d u0020 u0645_u0646 u0020 u0639_u0627_u062f u0020 u0623_u0648 u0020 u0632_u0627_u0631 u0020 u0623_u062e_u0627 u0020 u0644_u0647_u0020", 
        "u0641_u064a u0020 u0627_u0644_u0644_u0647 u0020 u0646_u0627_u062f_u0627_u0647 u0020 u0645_u0646_u0627_u062f u0020 u0628_u0623_u0646 u0020 u0637_u0628_u062a u0020 u0648_u0637_u0627_u0628 u0020 u0645_u0645_u0634_u0627_u0643 u0020 u0648_u062a_u0628_u0648_u0623_u062a_u0020", 
        "u0645_u0646 u0020 u0627_u0644_u062c_u0646_u0629 u0020 u0645_u0646_u0632_u0644_u0627 u0020 u201d_u002e u0020 u0020_u0648_u0644_u0645 u0020 u064a_u0642_u062a_u0635_u0631 u0020 u0639_u0644_u0649 u0020 u0627_u0644_u0632_u064a_u0627_u0631_u0629 u0020 u0623_u0648 u0020 u0627_u0644_u0648_u062f_u0020", 
        "u0628_u0627_u0644_u0628_u0634_u0627_u0634_u0629 u0020 u0648_u0625_u0646_u0645_u0627 u0020 u0623_u0643_u062f u0020 u0639_u0644_u0649 u0020 u062a_u0648_u0637_u064a_u062f u0020 u0627_u0644_u0639_u0644_u0627_u0642_u0627_u062a u0020 u0628_u0627_u0644_u0647_u062f_u0627_u064a_u0627_u0020", 
        "u0641_u064a_u0642_u0648_u0644 u0020 u003a_u0028_u062a_u0647_u0627_u062f_u0648_u0627 u0020 u062a_u062d_u0627_u0628_u0648_u0627 u0020 u0029 u0020 u060c u0020 u0644_u0623_u0646_u0647_u0627 u0020 u0645_u0646 u0020 u0623_u0647_u0645 u0020 u0648_u0633_u0627_u0626_u0644_u0020", 
        "u0627_u0644_u062a_u0639_u0628_u064a_u0631 u0020 u0639_u0646 u0020 u0645_u0634_u0627_u0639_u0631 u0020 u0627_u0644_u062a_u0642_u062f_u064a_u0631 u0020 u0648_u0627_u0644_u062d_u0628 u0020 u0648_u0627_u0644_u0625_u0639_u062c_u0627_u0628_u0020"
    ]
}