{
    "bounding_box": [
        [
            15, 
            31, 
            666, 
            39
        ], 
        [
            413, 
            75, 
            280, 
            38
        ], 
        [
            15, 
            129, 
            666, 
            36
        ], 
        [
            15, 
            169, 
            679, 
            39
        ], 
        [
            15, 
            213, 
            679, 
            39
        ], 
        [
            15, 
            257, 
            679, 
            38
        ], 
        [
            15, 
            299, 
            679, 
            39
        ], 
        [
            15, 
            344, 
            679, 
            37
        ], 
        [
            15, 
            385, 
            679, 
            39
        ], 
        [
            135, 
            430, 
            558, 
            37
        ]
    ], 
    "image_height": 540, 
    "image_width": 720, 
    "transcription": [
        "u0646_u062c_u062f u0020 u0627_u064a_u0636_u0627 u0020 u0636_u0631_u064a_u062d u0020 u0646_u0628_u064a u0020 u0627_u0644_u0644_u0647_u00a0_u064a_u0648_u0634_u0639_u00a0_u0641_u064a u0020 u0642_u0631_u064a_u0629 u0020 u0639_u0648_u0631_u062a_u0627 u0020 u0627_u0644_u062a_u064a u0020 u062a_u0642_u0639_u0020", 
        "u0641_u064a u0020 u062c_u0646_u0648_u0628 u0020 u0645_u062f_u064a_u0646_u0629 u0020 u0646_u0627_u0628_u0644_u0633_u002e_u000d", 
        "u064a_u0630_u0643_u0631 u0020 u0627_u0644_u062e_u0637_u064a_u0628 u0020 u0627_u0644_u0628_u063a_u062f_u0627_u062f_u064a u0020 u0627_u0646 u0020 u0627_u0644_u0646_u0628_u064a u0020 u064a_u0648_u0634_u0639 u0020 u0645_u062f_u0641_u0648_u0646 u0020 u0641_u064a u0020 u0628_u063a_u062f_u0627_u062f_u0020", 
        "u0641_u064a u0020 u0627_u0644_u062c_u0627_u0646_u0628 u0020 u0627_u0644_u063a_u0631_u0628_u064a u0020 u0628_u0645_u0646_u0637_u0642_u0629 u0020 u064a_u0642_u0627_u0644 u0020 u0644_u0647_u0627_u00a0_u0627_u0644_u0634_u0648_u064a_u0646_u0632_u064a_u0629_u00a0_u0645_u0633_u062a_u0646_u062f_u0627 u0020 u0625_u0644_u0649_u0020", 
        "u0648_u0635_u064a_u0629 u0020 u0639_u0628_u062f u0020 u0627_u0644_u0644_u0647 u0020 u0628_u0646_u00a0_u0627_u062d_u0645_u062f u0020 u0628_u0646 u0020 u062d_u0646_u0628_u0644_u00a0_u0628_u0627_u0646 u0020 u064a_u062f_u0641_u0646 u0020 u0625_u0644_u0649 u0020 u062c_u0648_u0627_u0631 u0020 u0646_u0628_u064a_u0020", 
        "u0627_u062d_u0628 u0020 u0627_u0644_u064a_u0647 u0020 u0645_u0646 u0020 u0623_u0646 u0020 u064a_u0643_u0648_u0646 u0020 u0641_u064a u0020 u062c_u0648_u0627_u0631 u0020 u0627_u0628_u064a_u0647_u002e u0020 u0648_u0647_u0630_u0647 u0020 u0627_u0644_u0648_u0635_u064a_u0629 u0020 u062a_u0624_u0643_u062f_u0020", 
        "u0639_u0644_u0649 u0020 u0648_u062c_u0648_u062f u0020 u0627_u0644_u0646_u0628_u064a u0020 u064a_u0648_u0634_u0639 u0020 u0641_u064a u0020 u0647_u0630_u0647 u0020 u0627_u0644_u0645_u0646_u0637_u0642_u0629_u002e_u00a0_u0648_u0632_u0627_u0631_u0647 u0020 u0627_u0644_u0631_u062d_u0627_u0644_u0629_u0020", 
        "u0627_u0644_u062f_u0646_u0645_u0627_u0631_u0643_u064a u0020 u0646_u064a_u0628_u0647_u0631 u0020 u0648_u0642_u0627_u0644 u0020 u0639_u0646_u0647 u0020 u0028_u0628_u0642_u0631_u0628_u00a0_u0628_u0647_u0644_u0648_u0644_u00a0_u062f_u0627_u0646_u0647_u005f u0020 u064a_u0642_u0635_u062f_u0020", 
        "u0628_u0647_u0644_u0648_u0644 u0020 u0628_u0646 u0020 u062f_u0627_u0646_u0629 u0020 u0627_u0644_u0643_u0648_u0641_u064a_u005f u0020 u064a_u0631_u0649 u0020 u0627_u0644_u064a_u0648_u0645 u0020 u0628_u0646_u0627_u0621 u0020 u0635_u063a_u064a_u0631 u0020 u0641_u064a_u0647 u0020 u0642_u0628_u0631_u0020", 
        "u064a_u0633_u0645_u0649 u0020 u0627_u0644_u0646_u0628_u0649 u0020 u064a_u0648_u0634_u0639 u0020 u0627_u0644_u0630_u064a u0020 u064a_u0643_u062b_u0631_u00a0_u0627_u0644_u064a_u0647_u0648_u062f_u00a0_u0645_u0646 u0020 u0632_u064a_u0627_u0631_u062a_u0647_u0029_u002e"
    ]
}