{
    "bounding_box": [
        [
            211, 
            53, 
            687, 
            37
        ], 
        [
            231, 
            172, 
            640, 
            20
        ], 
        [
            262, 
            194, 
            609, 
            20
        ], 
        [
            212, 
            215, 
            658, 
            19
        ], 
        [
            275, 
            237, 
            596, 
            20
        ], 
        [
            236, 
            259, 
            635, 
            20
        ], 
        [
            215, 
            280, 
            655, 
            20
        ], 
        [
            235, 
            302, 
            635, 
            20
        ], 
        [
            228, 
            323, 
            643, 
            20
        ], 
        [
            232, 
            345, 
            639, 
            20
        ], 
        [
            255, 
            367, 
            616, 
            20
        ], 
        [
            233, 
            391, 
            638, 
            17
        ], 
        [
            302, 
            410, 
            569, 
            20
        ]
    ], 
    "image_height": 540, 
    "image_width": 960, 
    "transcription": [
        "u0627_u0644_u0625_u0645_u0627_u0645 u0020 u0623_u0628_u0648 u0020 u0632_u0643_u0631_u064a_u0627 u0020 u064a_u062d_u064a u0020 u0628_u0646 u0020 u0634_u0631_u0641 u0020 u0627_u0644_u0646_u0648_u0648_u064a u0020 u062a u0020 u0036_u0037_u0036 u0020 u0647_u0640_u000b", 
        "u0642_u0627_u0644 u0020 u0639_u0646_u0647 u0020 u0627_u0644_u0630_u0647_u0628_u064a u0020 u003a u0020 u0627_u0644_u062d_u0627_u0641_u0638 u0020 u0627_u0644_u0623_u0648_u062d_u062f u0020 u060c u0020 u0634_u064a_u062e u0020 u0627_u0644_u0625_u0633_u0644_u0627_u0645 u0020 u060c u0020 u0639_u0644_u0645_u064f u0020 u0627_u0644_u0623_u0648_u0644_u064a_u0627_u0621 u0020 u0643_u0627_u0646 u0020 u064a_u0642_u0631_u0623 u0020 u0643_u0644 u0020 u064a_u0648_u0645_u0020", 
        "u0627_u062b_u0646_u0649 u0020 u0639_u0634_u0631 u0020 u062f_u0631_u0633_u0627_u064b u0020 u0645_u0639 u0020 u0627_u0644_u0636_u0628_u0637 u0020 u0648_u0627_u0644_u062a_u0639_u0644_u064a_u0642 u0020 u003a u0020 u062f_u0631_u0633_u064a_u0646 u0020 u0641_u064a u0020 u0022 u0020 u0627_u0644_u0648_u0633_u064a_u0637 u0020 u0022 u0020 u0641_u064a u0020 u0627_u0644_u0641_u0642_u0647 u0020 u060c_u0020", 
        "u0648_u062f_u0631_u0633_u0627_u064b u0020 u0641_u064a u0020 u0022 u0020 u0627_u0644_u0645_u0647_u0630_u0651_u0628 u0020 u0022 u0020 u0641_u064a u0020 u0627_u0644_u0641_u0642_u0647 u0020 u0623_u064a_u0636_u0627_u064b u0020 u0648_u062f_u0631_u0633_u0627_u064b u0020 u0641_u064a u0020 u0022 u0020 u0635_u062d_u064a_u062d u0020 u0645_u0633_u0644_u0645 u0020 u0022 u0020 u0648_u062f_u0631_u0633_u0627_u064b u0020 u0641_u064a u0020 u0022_u0020", 
        "u0627_u0644_u0644_u064c_u0645_u064e_u0639 u0020 u0022 u0020 u0644_u0627_u0628_u0646 u0020 u062c_u0646_u064a u0020 u0641_u064a u0020 u0627_u0644_u0646_u062d_u0648 u0020 u060c u0020 u0648_u062f_u0631_u0633_u0627_u064b u0020 u0641_u064a u0020 u0022 u0020 u0625_u0635_u0644_u0627_u062d u0020 u0627_u0644_u0645_u0646_u0637_u0642 u0020 u0022 u0020 u0648_u062f_u0631_u0633_u0627_u064b u0020 u0641_u064a u0020 u0022_u0020", 
        "u0627_u0644_u062a_u0635_u0631_u064a_u0641 u0020 u0022 u0020 u0648_u062f_u0631_u0633_u0627_u064b u0020 u0641_u064a u0020 u0022 u0020 u0623_u0635_u0648_u0644 u0020 u0627_u0644_u0641_u0642_u0647 u0020 u0022 u0020 u0030_u0030 u0020 u0627_u0644_u062e u0020 u2013 u0020 u0642_u0627_u0644 u0020 u0639_u0646_u0647 u0020 u062a_u0644_u0645_u064a_u0630_u0647 u0020 u0623_u0628_u0648 u0020 u0627_u0644_u062d_u0633_u0646 u0020 u0628_u0646_u0020", 
        "u0627_u0644_u0639_u0637_u0627_u0631 u0020 u003a u0020 u0644_u0627 u0020 u064a_u064f_u0636_u064a_u0651_u0639_u064f u0020 u0644_u0647 u0020 u0648_u0642_u062a_u0627_u064b u0020 u0644_u0627 u0020 u0641_u064a u0020 u0644_u064a_u0644 u0020 u0648_u0644_u0627 u0020 u0641_u064a u0020 u0646_u0647_u0627_u0631 u0020 u0625_u0644_u0627 u0020 u0641_u064a u0020 u0627_u0644_u0627_u0634_u062a_u063a_u0627_u0644 u0020 u0628_u0627_u0644_u0639_u0644_u0645 u0020 u062d_u062a_u0649 u0020 u0641_u064a_u0020", 
        "u0627_u0644_u0637_u0631_u064a_u0642 u0020 u064a_u0643_u0631_u0651_u0631 u0020 u0623_u0648 u0020 u064a_u0637_u0627_u0644_u0639 u0020 u060c u0020 u0648_u0623_u0646_u0647 u0020 u062f_u0627_u0645 u0020 u0639_u0644_u0649 u0020 u0647_u0630_u0627 u0020 u0633_u062a u0020 u0633_u0646_u064a_u0646 u0020 u060c u0020 u0648_u0643_u0627_u0646 u0020 u0644_u0627 u0020 u064a_u0623_u0643_u0644 u0020 u0641_u064a u0020 u0627_u0644_u064a_u0648_u0645_u0020", 
        "u0648_u0627_u0644_u0644_u064a_u0644_u0629 u0020 u0625_u0644_u0627 u0020 u0623_u0643_u0644_u0629 u0020 u0628_u0639_u062f u0020 u0639_u0634_u0627_u0621 u0020 u0627_u0644_u0622_u062e_u0631_u0629 u0020 u060c u0020 u0648_u064a_u0634_u0631_u0628 u0020 u0634_u0631_u0628_u0629 u0020 u0648_u0627_u062d_u062f_u0629 u0020 u0639_u0646_u062f u0020 u0627_u0644_u0633_u0651_u064e_u062d_u0631 u0020 u060c u0020 u0648_u064a_u0645_u062a_u0646_u0639_u064f u0020 u0645_u0646_u0020", 
        "u0623_u0643_u0644 u0020 u0627_u0644_u0641_u0648_u0627_u0643_u0647 u0020 u0648_u0627_u0644_u062e_u064a_u0627_u0631 u0020 u060c u0020 u0648_u064a_u0642_u0648_u0644 u0020 u003a u0020 u0623_u062e_u0627_u0641_u064f u0020 u0623_u0646 u0020 u064a_u0631_u0651_u0637_u0628_u064e u0020 u062c_u0633_u0645_u064a u0020 u060c u0020 u0648_u064a_u062c_u0644_u0628 u0020 u0644_u064a u0020 u0627_u0644_u0646_u0648_u0645 u0020 u060c u0020 u0648_u0644_u0645_u0627_u0020", 
        "u0633_u0623_u0644_u0648_u0647 u0020 u0639_u0646 u0020 u0639_u062f_u0645 u0020 u062a_u0632_u0648_u062c_u0647 u0020 u060c u0020 u0642_u0627_u0644 u0020 u003a u0020 u0644_u0648 u0020 u0630_u0643_u0631_u062a_u0645_u0648_u0646_u064a u0020 u0644_u0641_u0639_u0644_u062a_u064f u0020 u0644_u0623_u0646_u0647 u0020 u0643_u0627_u0646 u0020 u064a_u0642_u0648_u0644 u0020 u0628_u0627_u0633_u062a_u062d_u0628_u0627_u0628_u0020", 
        "u0627_u0644_u0646_u0643_u0627_u062d u0020 u0639_u0644_u0649 u0020 u062e_u0644_u0627_u0641 u0020 u0627_u0644_u0634_u0627_u0641_u0639_u064a u0020 u0627_u0644_u0642_u0627_u0626_u0644 u0020 u0628_u0625_u0628_u0627_u062d_u062a_u0647 u0020 u2013 u0020 u0639_u0627_u0634 u0020 u0034_u0035 u0020 u0633_u0646_u0629 u0020 u0648_u062a_u0631_u0643 u0020 u0645_u0646 u0020 u0627_u0644_u0645_u0624_u0644_u0641_u0627_u062a_u0020", 
        "u0627_u0644_u0643_u062b_u064a_u0631_u0629 u0020 u0645_u0627 u0020 u0642_u0633_u0651_u0645_u0648_u0647 u0020 u0639_u0644_u0649 u0020 u0623_u064a_u0627_u0645 u0020 u062d_u064a_u0627_u062a_u0647 u0020 u0641_u0643_u0627_u0646 u0020 u0644_u0643_u0644 u0020 u064a_u0648_u0645 u0020 u0641_u064a_u0647_u0627 u0020 u0623_u0631_u0628_u0639_u0629 u0020 u0643_u0631_u0627_u0631_u064a_u0633 u0020 u0030_u000d"
    ]
}