{
    "bounding_box": [
        [
            283, 
            32, 
            387, 
            26
        ], 
        [
            157, 
            85, 
            379, 
            46
        ], 
        [
            54, 
            167, 
            619, 
            13
        ], 
        [
            59, 
            182, 
            614, 
            13
        ], 
        [
            66, 
            196, 
            606, 
            13
        ], 
        [
            74, 
            211, 
            599, 
            12
        ], 
        [
            384, 
            226, 
            288, 
            12
        ], 
        [
            70, 
            240, 
            603, 
            12
        ], 
        [
            46, 
            254, 
            626, 
            13
        ], 
        [
            74, 
            268, 
            598, 
            13
        ], 
        [
            49, 
            282, 
            624, 
            13
        ], 
        [
            46, 
            297, 
            626, 
            13
        ], 
        [
            58, 
            311, 
            614, 
            13
        ], 
        [
            588, 
            326, 
            85, 
            13
        ], 
        [
            65, 
            340, 
            607, 
            13
        ], 
        [
            54, 
            355, 
            618, 
            12
        ], 
        [
            253, 
            370, 
            420, 
            12
        ], 
        [
            60, 
            384, 
            613, 
            12
        ], 
        [
            66, 
            398, 
            606, 
            13
        ], 
        [
            269, 
            413, 
            404, 
            12
        ], 
        [
            642, 
            476, 
            12, 
            18
        ], 
        [
            318, 
            488, 
            209, 
            15
        ], 
        [
            60, 
            485, 
            140, 
            24
        ]
    ], 
    "image_height": 540, 
    "image_width": 720, 
    "transcription": [
        "u0627_u0644_u0645_u062f_u0631_u0633_u0629 u0020 u0627_u0644_u0627_u0628_u062a_u062f_u0627_u0626_u064a_u0629 u0020 u0628_u0627_u0644_u0641_u0631_u0634 u0020 u0627_u0644_u062c_u0646_u0648_u0628_u064a_u0629", 
        "u0648_u0638_u064a_u0641_u0629 u0020 u0627_u0644_u0642_u0635_u0648_u0631 u0020 u0627_u0644_u062a_u0627_u0631_u064a_u062e_u064a_u0629_u00a0", 
        "u0644_u0639_u0628_u062a u0020 u0627_u0644_u0642_u0635_u0648_u0631 u0020 u0639_u0628_u0631 u0020 u0627_u0644_u062a_u0627_u0631_u064a_u062e u0020 u062f_u0648_u0631_u0627_u064b u0020 u0645_u0631_u0643_u0632_u064a_u0627_u064b u0020 u0641_u064a u0020 u062d_u064a_u0627_u0629 u0020 u0633_u0643_u0627_u0646 u0020 u0627_u0644_u0645_u0646_u0637_u0642_u0629 u0020 u0643_u0645_u0638_u0647_u0631 u0020 u0645_u0646 u0020 u0645_u0638_u0627_u0647_u0631 u0020 u0627_u0644_u0627_u0633_u062a_u0642_u0631_u0627_u0631_u060c u0020 u0639_u0644_u0649 u0020 u0639_u0643_u0633 u0020 u0627_u0644_u062e_u064a_u0645_u0629 u0020 u0627_u0644_u062a_u064a u0020 u0645_u062b_u0644_u062a u0020 u0645_u0638_u0647_u0631_u0627_u064b u0020 u0645_u0646 u0020 u0645_u0638_u0627_u0647_u0631 u0020 u0627_u0644_u062a_u0631_u062d_u0627_u0644 u0020 u0648_u0627_u0644_u0627_u0646_u062a_u062c_u0627_u0639_u002e_u0020", 
        "u0648_u062a_u0639_u0643_u0633 u0020 u0648_u0638_u0627_u0626_u0641 u0020 u0627_u0644_u0642_u0635_u0631 u0020 u0627_u0644_u0645_u062a_u0639_u062f_u062f_u0629 u0020 u0627_u0644_u062a_u062f_u0627_u062e_u0644 u0020 u0627_u0644_u0630_u064a u0020 u0643_u0627_u0646 u0020 u0642_u0627_u0626_u0645_u0627_u064b u0020 u0628_u064a_u0646 u0020 u0623_u0635_u0646_u0627_u0641 u0020 u0627_u0644_u0645_u0639_u064a_u0634_u0629_u060c u0020 u0648_u0627_u0644_u0642_u062f_u0631_u0629 u0020 u0639_u0644_u0649 u0020 u0627_u0644_u062a_u0623_u0642_u0644_u0645 u0020 u0645_u0639 u0020 u0645_u0646_u0627_u062e u0020 u0635_u062d_u0631_u0627_u0648_u064a u0020 u0642_u0627_u0633_u002e u0020 u0648_u0628_u0631_u0632_u062a u0020 u062e_u0635_u0648_u0635_u064a_u0629 u0020 u0627_u0644_u062d_u064a_u0627_u0629 u0020 u0627_u0644_u0628_u062f_u0648_u064a_u0629 u0020 u0641_u064a_u0020", 
        "u0647_u0630_u0647 u0020 u0627_u0644_u0645_u0646_u0637_u0642_u0629 u0020 u0627_u0644_u062c_u0646_u0648_u0628_u064a_u0629 u0020 u0648_u0627_u0644_u0635_u062d_u0631_u0627_u0648_u064a_u0629 u0020 u0645_u0646 u0020 u062e_u0644_u0627_u0644 u0020 u0647_u0630_u0627 u0020 u0627_u0644_u062a_u0643_u0627_u0645_u0644 u0020 u0628_u064a_u0646 u0020 u0627_u0644_u062e_u064a_u0645_u0629 u0020 u0648_u0627_u0644_u0642_u0635_u0631 u0020 u0648_u0647_u0648 u0020 u0645_u0627 u0020 u064a_u062c_u0639_u0644_u0647_u0627 u0020 u062a_u062a_u0645_u064a_u0632 u0020 u0641_u064a u0020 u0628_u0639_u0636 u0020 u062e_u0635_u0627_u0626_u0635_u0647_u0627 u0020 u0639_u0646 u0020 u0623_u0646_u0645_u0627_u0637 u0020 u0627_u0644_u0628_u062f_u0627_u0648_u0629 u0020 u0641_u064a u0020 u0645_u062c_u062a_u0645_u0639_u0627_u062a u0020 u0623_u062e_u0631_u0649_u002e_u0020", 
        "u0641_u0627_u0644_u0642_u0635_u0631 u0020 u064a_u0642_u0648_u0645 u0020 u0628_u0648_u0638_u064a_u0641_u0629 u0020 u062a_u062e_u0632_u064a_u0646 u0020 u0627_u0644_u0645_u0646_u062a_u0648_u062c_u0627_u062a u0020 u0627_u0644_u0641_u0644_u0627_u062d_u064a_u0629 u0020 u0627_u0644_u0645_u062d_u0644_u064a_u0629 u0020 u0028_u0643_u0627_u0644_u062d_u0628_u0648_u0628 u0020 u0648_u0627_u0644_u0632_u064a_u062a u0020 u0648_u0627_u0644_u062a_u064a_u0646 u0020 u0627_u0644_u0645_u062c_u0641_u0641 u0020 u0648_u0627_u0644_u062a_u0645_u0631 u0020 u0648_u0627_u0644_u0635_u0648_u0641 u0020 u0648_u0627_u0644_u0639_u0644_u0641 u0020 u0648_u063a_u064a_u0631_u0647_u0627_u0029 u0020 u0645_u0627 u0020 u064a_u0639_u0643_u0633 u0020 u062b_u0631_u0627_u0621 u0020 u0627_u0644_u0646_u0634_u0627_u0637 u0020 u0627_u0644_u0641_u0644_u0627_u062d_u064a_u0020", 
        "u0627_u0644_u062a_u0642_u0644_u064a_u062f_u064a u0020 u0648_u062a_u0646_u0648_u0639_u0647 u0020 u0645_u0646 u0020 u062e_u0644_u0627_u0644 u0020 u0627_u0644_u0634_u0648_u0627_u0647_u062f u0020 u0643_u0645_u0639_u0627_u0635_u0631 u0020 u0627_u0644_u0632_u064a_u062a u0020 u0648_u0628_u0642_u0627_u064a_u0627 u0020 u0645_u0637_u0627_u0645_u064a_u0631 u0020 u0627_u0644_u062d_u0628_u0648_u0628_u002e_u00a0_u000d", 
        "u0648_u062a_u062e_u062a_u0644_u0641 u0020 u0648_u0638_u064a_u0641_u0629 u0020 u0643_u0644 u0020 u0642_u0635_u0631 u0020 u0648_u0641_u0642_u0627_u064b u0020 u0644_u0645_u0648_u0642_u0639_u0647_u060c u0020 u0641_u0627_u0644_u0642_u0635_u0648_u0631 u0020 u0627_u0644_u062c_u0628_u0644_u064a_u0629 u0020 u0639_u0644_u0649 u0020 u0633_u0628_u064a_u0644 u0020 u0627_u0644_u0645_u062b_u0627_u0644 u0020 u063a_u0627_u0644_u0628_u0627_u064b u0020 u0645_u0627 u0020 u062a_u0633_u062a_u062e_u062f_u0645 u0020 u0644_u062a_u062e_u0632_u064a_u0646 u0020 u0627_u0644_u0645_u062d_u0627_u0635_u064a_u0644 u0020 u0627_u0644_u0632_u0631_u0627_u0639_u064a_u0629 u0020 u0646_u0638_u0631_u0627_u064b u0020 u0644_u0635_u0639_u0648_u0628_u0629 u0020 u0627_u0644_u0648_u0635_u0648_u0644 u0020 u0625_u0644_u064a_u0647_u0627_u002e u0020 u0641_u0627_u0644_u0648_u0638_u064a_u0641_u0629_u0020", 
        "u0627_u0644_u0623_u0633_u0627_u0633_u064a_u0629 u0020 u0644_u0644_u0642_u0635_u0648_u0631 u0020 u0644_u0645 u0020 u062a_u0643_u0646 u0020 u0644_u0644_u0633_u0643_u0646_u0649 u0020 u0648_u0627_u0644_u0631_u0627_u062d_u0629 u0020 u0643_u0645_u0627 u0020 u064a_u062a_u0628_u0627_u062f_u0631 u0020 u0625_u0644_u0649 u0020 u0627_u0644_u0630_u0647_u0646_u060c u0020 u0628_u0644 u0020 u0625_u0646 u0020 u0627_u0644_u0642_u0635_u0631 u0020 u0643_u0627_u0646 u0020 u064a_u0645_u062b_u0644 u0020 u0645_u062e_u0632_u0646_u0627_u064b u0020 u062c_u0645_u0627_u0639_u064a_u0627_u064b u0020 u062a_u0645_u0644_u0643_u0647 u0020 u0627_u0644_u0642_u0628_u064a_u0644_u0629 u0020 u0623_u0648 u0020 u0627_u0644_u0639_u0634_u064a_u0631_u0629_u060c u0020 u0643_u0645_u0627 u0020 u062a_u062a_u0639_u062f_u062f u0020 u062f_u0627_u062e_u0644 u0020 u0627_u0644_u0642_u0635_u0631 u0020 u0627_u0644_u063a_u0631_u0641 u0020 u0627_u0644_u062a_u064a_u0020", 
        "u062a_u0645_u0644_u0643_u0647_u0627 u0020 u0627_u0644_u0639_u0627_u0626_u0644_u0627_u062a u0020 u0648_u0627_u0644_u0623_u0641_u0631_u0627_u062f u0020 u0628_u064a_u0646_u0645_u0627 u0020 u064a_u0643_u0648_u0646 u0020 u0627_u0644_u0633_u0643_u0646 u0020 u0632_u0645_u0646 u0020 u0627_u0644_u0633_u0644_u0645 u0020 u0648_u0627_u0644_u0627_u0633_u062a_u0642_u0631_u0627_u0631 u0020 u062e_u0627_u0631_u062c u0020 u0627_u0644_u0642_u0635_u0631_u002e u0020 u0648_u062a_u0632_u062f_u0627_u062f u0020 u0648_u062a_u064a_u0631_u0629 u0020 u0627_u0644_u0625_u0642_u0627_u0645_u0629 u0020 u062d_u0648_u0644 u0020 u0627_u0644_u0642_u0635_u0631 u0020 u0648_u0627_u0644_u062a_u0648_u0627_u062c_u062f u0020 u0628_u0647 u0020 u0648_u0642_u062a u0020 u0627_u0644_u062a_u0647_u062f_u064a_u062f_u0627_u062a u0020 u0627_u0644_u0623_u0645_u0646_u064a_u0629 u0020 u0648_u0623_u062b_u0646_u0627_u0621_u0020", 
        "u0627_u0644_u062c_u0641_u0627_u0641_u002e u0020 u0648_u0641_u064a u0020 u0641_u062a_u0631_u0627_u062a u0020 u0627_u0644_u0631_u062e_u0627_u0621 u0020 u062a_u0643_u062b_u0641 u0020 u0627_u0644_u0642_u0628_u0627_u0626_u0644 u0020 u0645_u0646 u0020 u0627_u0644_u062a_u0646_u0642_u0644 u0020 u0648_u0627_u0644_u0627_u0646_u062a_u0634_u0627_u0631 u0020 u0641_u064a u0020 u0627_u0644_u0623_u0631_u0627_u0636_u064a u0020 u0627_u0644_u0633_u0647_u0644_u0629 u0020 u062d_u064a_u062b u0020 u0627_u0644_u0645_u0631_u0627_u0639_u064a u0020 u0648_u0627_u0644_u0632_u0631_u0627_u0639_u0629 u0020 u0648_u0627_u0644_u062a_u062c_u0627_u0631_u0629_u002e u0020 u0648_u0644_u0644_u0642_u0635_u0631 u0020 u0648_u0638_u0627_u0626_u0641 u0020 u0623_u062e_u0631_u0649 u0020 u062b_u0627_u0646_u0648_u064a_u0629 u0020 u062a_u062e_u062a_u0644_u0641 u0020 u0648_u062a_u062a_u0646_u0648_u0639_u0020", 
        "u0628_u062d_u0633_u0628 u0020 u0627_u0644_u0645_u0648_u0627_u0633_u0645 u0020 u0648_u0627_u0644_u0638_u0631_u0648_u0641 u0020 u0627_u0644_u0623_u0645_u0646_u064a_u0629 u0020 u0639_u0644_u0649 u0020 u063a_u0631_u0627_u0631 u0020 u062a_u0623_u0645_u064a_u0646 u0020 u0627_u0644_u0646_u0634_u0627_u0637_u0627_u062a u0020 u0627_u0644_u062a_u0631_u0628_u0648_u064a_u0629 u0020 u0648_u0627_u0644_u062f_u064a_u0646_u064a_u0629 u0020 u0648_u0627_u0644_u062a_u062c_u0627_u0631_u064a_u0629 u0020 u002e u0020 u0648_u0645_u0646 u0020 u0627_u0644_u062f_u0627_u062e_u0644 u0020 u062a_u0645_u062b_u0644 u0020 u0627_u0644_u063a_u0631_u0641_u0629 u0020 u0627_u0644_u0648_u062d_u062f_u0629 u0020 u0627_u0644_u0623_u0633_u0627_u0633_u064a_u0629 u0020 u0644_u0644_u0642_u0635_u0631_u060c u0020 u0648_u062a_u0633_u062a_u0639_u0645_u0644 u0020 u0644_u0644_u062e_u0632_u0646 u0020 u0648_u0644_u0647_u0627_u0020", 
        "u0647_u0646_u062f_u0633_u0629 u0020 u062e_u0627_u0635_u0629 u0020 u062a_u0631_u0627_u0639_u064a u0020 u0634_u0631_u0648_u0637 u0020 u062d_u0641_u0638 u0020 u0627_u0644_u0645_u062d_u0627_u0635_u064a_u0644 u0020 u0627_u0644_u0632_u0631_u0627_u0639_u064a_u0629 u0020 u0648_u0627_u0644_u062d_u064a_u0648_u0627_u0646_u064a_u0629 u0020 u0644_u0645_u062f_u0629 u0020 u0637_u0648_u064a_u0644_u0629 u0020 u0648_u062a_u0641_u0636_u064a u0020 u0627_u0644_u063a_u0631_u0641 u0020 u0625_u0644_u0649 u0020 u0628_u0639_u0636_u0647_u0627 u0020 u0627_u0644_u0628_u0639_u0636 u0020 u0628_u0648_u0627_u0633_u0637_u0629 u0020 u0645_u062f_u0627_u0631_u062c_u060c u0020 u0623_u0648 u0020 u0633_u0644_u0633_u0644_u0629 u0020 u0645_u0646 u0020 u0627_u0644_u0623_u0639_u0645_u062f_u0629 u0020 u0627_u0644_u062e_u0634_u0628_u064a_u0629_u0020", 
        "u0627_u0644_u0645_u063a_u0631_u0648_u0633_u0629 u0020 u0641_u064a u0020 u0627_u0644_u062d_u0627_u0626_u0637_u002e_u000d", 
        "u0648_u0645_u0646 u0020 u0627_u0644_u062f_u0627_u062e_u0644 u0020 u062a_u062a_u0636_u0645_u0646 u0020 u0627_u0644_u0642_u0635_u0648_u0631 u0020 u0627_u0644_u0645_u0633_u0627_u062c_u062f u0020 u0627_u0644_u062a_u064a u0020 u062a_u0642_u0648_u0645 u0020 u0628_u0648_u0638_u064a_u0641_u062a_u064a u0020 u0627_u0644_u062a_u0639_u0628_u062f u0020 u0648_u0627_u0644_u062a_u0639_u0644_u064a_u0645_u060c u0020 u0648_u062f_u0648_u0631 u0020 u0627_u0644_u0639_u0628_u0627_u062f_u0629 u0020 u0645_u0646 u0020 u0627_u0644_u0623_u062c_u0632_u0627_u0621 u0020 u0627_u0644_u0645_u062a_u0645_u0645_u0629 u0020 u0628_u0634_u0643_u0644 u0020 u064a_u062a_u0641_u0627_u0648_u062a u0020 u0628_u064a_u0646 u0020 u0642_u0635_u0631 u0020 u0648_u0622_u062e_u0631 u0020 u062d_u0633_u0628 u0020 u0627_u0644_u0645_u0648_u0642_u0639 u0020 u0648_u062a_u0627_u0631_u064a_u062e_u0020", 
        "u0627_u0644_u0642_u0635_u0631 u0020 u0648_u062d_u0633_u0628 u0020 u0642_u0648_u0629 u0020 u0648_u062a_u0639_u062f_u062f u0020 u0623_u0641_u0631_u0627_u062f u0020 u0627_u0644_u0642_u0628_u064a_u0644_u0629_u060c u0020 u0625_u0644_u0649 u0020 u062c_u0627_u0646_u0628 u0020 u0645_u0639_u0627_u0635_u0631 u0020 u0627_u0644_u0632_u064a_u062a_u0648_u0646 u0020 u0648_u0623_u0628_u0631_u0627_u062c u0020 u0627_u0644_u0645_u0631_u0627_u0642_u0628_u0629 u0020 u0648_u0627_u0644_u0622_u0628_u0627_u0631_u002e u0020 u0648_u0642_u062f u0020 u064a_u0630_u0647_u0628 u0020 u0627_u0644_u0628_u0639_u0636 u0020 u0625_u0644_u0649 u0020 u0627_u0644_u0638_u0646 u0020 u0623_u0646 u0020 u0627_u0644_u0642_u0635_u0648_u0631 u0020 u0627_u0644_u0635_u062d_u0631_u0627_u0648_u064a_u0629 u0020 u062a_u0645_u062b_u0644 u0020 u0642_u0635_u0648_u0631_u0627_u064b u0020 u0623_u062b_u0631_u064a_u0629_u0020", 
        "u0641_u062e_u0645_u0629_u060c u0020 u0648_u0644_u0643_u0646_u0647_u0627 u0020 u0644_u064a_u0633_u062a u0020 u0643_u0630_u0644_u0643 u0020 u0641_u0647_u064a u0020 u0623_u0634_u0628_u0647 u0020 u0628_u0627_u0644_u0642_u0644_u0627_u0639 u0020 u0627_u0644_u062d_u0635_u064a_u0646_u0629 u0020 u0627_u0644_u062a_u064a u0020 u062a_u062d_u0645_u064a u0020 u0627_u0644_u0633_u0643_u0627_u0646 u0020 u0641_u064a u0020 u0627_u0644_u063a_u0627_u0644_u0628 u0020 u0645_u0646 u0020 u0627_u0644_u0627_u0639_u062a_u062f_u0627_u0621_u0627_u062a u0020 u0627_u0644_u062e_u0627_u0631_u062c_u064a_u0629_u002e_u000d", 
        "u0648 u0020 u0642_u062f u0020 u0627_u0643_u062a_u0633_u0628_u062a u0020 u0627_u0644_u0642_u0635_u0648_u0631 u0020 u0627_u0644_u064a_u0648_u0645 u0020 u0648_u0638_u0627_u0626_u0641 u0020 u0633_u064a_u0627_u062d_u064a_u0629 u0020 u062a_u0633_u0645_u062d u0020 u0628_u0627_u0644_u062a_u0639_u0631_u0641 u0020 u0639_u0644_u0649 u0020 u062a_u0627_u0631_u064a_u062e u0020 u0634_u0639_u0648_u0628 u0020 u0647_u0630_u0647 u0020 u0627_u0644_u0631_u0628_u0648_u0639 u0020 u0627_u0644_u0635_u062d_u0631_u0627_u0648_u064a_u0629 u0020 u0648_u0622_u062b_u0627_u0631_u0647_u0645 u0020 u0627_u0644_u0634_u0627_u0645_u062e_u0629 u0020 u0648_u0631_u0648_u062d_u0647_u0627 u0020 u0627_u0644_u0636_u0627_u0631_u0628_u0629 u0020 u0641_u064a u0020 u0627_u0644_u0642_u062f_u0645 u0020 u0648_u062a_u0643_u0634_u0641 u0020 u0639_u0646_u0020", 
        "u0646_u0645_u0637 u0020 u0645_u0639_u064a_u0634_u0629 u0020 u0623_u0647_u0644_u0647_u0627_u060c u0020 u0628_u0627_u0639_u062a_u0628_u0627_u0631_u0647_u0627 u0020 u0643_u0646_u0632_u0627_u064b u0020 u062a_u0627_u0631_u064a_u062e_u064a_u0627_u064b u0020 u0641_u0631_u064a_u062f_u0627_u064b u0020 u064a_u062d_u0642 u0020 u0644_u0646_u0627 u0020 u0623_u0646 u0020 u0646_u062a_u0639_u0631_u0641 u0020 u0639_u0644_u064a_u0647 u0020 u0648_u0646_u0637_u0651_u0644_u0639 u0020 u0639_u0644_u0649 u0020 u0642_u0648_u0629 u0020 u0648_u062d_u0636_u0627_u0631_u0629 u0020 u062a_u0644_u0643 u0020 u0627_u0644_u0641_u062a_u0631_u0627_u062a u0020 u0627_u0644_u062a_u064a u0020 u0639_u0645_u0631 u0020 u0641_u064a_u0647_u0627 u0020 u0623_u062c_u062f_u0627_u062f_u0646_u0627 u0020 u0627_u0644_u0623_u0631_u0636 u0020 u0648_u0639_u0627_u0634_u0648_u0627 u0020 u0641_u064a u0020 u0623_u0645_u0646_u0020", 
        "u0648_u0633_u0644_u0627_u0645 u0020 u0642_u0631_u0648_u0646_u0627_u064b u0020 u0645_u062f_u064a_u062f_u0629_u060c u0020 u0648_u0647_u0648 u0020 u062c_u0632_u0621 u0020 u0628_u0633_u064a_u0637 u0020 u0645_u0646 u0020 u062a_u0627_u0631_u064a_u062e_u0647_u0645 u0020 u0627_u0644_u0645_u062c_u064a_u062f u0020 u0627_u0644_u0634_u0627_u0645_u062e u0020 u0639_u0644_u0649 u0020 u0627_u0644_u0623_u0631_u0636 u0020 u0641_u064a u0020 u0623_u0639_u0645_u0627_u0642 u0020 u0627_u0644_u0635_u062d_u0631_u0627_u0621 u0020 u0627_u0644_u0647_u0627_u062f_u0626_u0629", 
        "u0037", 
        "u0645_u062c_u0645_u0648_u0639_u0629 u0020 u0627_u0644_u0639_u0635_u0627_u0641_u064a_u0631 u0020 u0032_u0030_u0031_u0033 u0020 u002f u0020 u0020_u0032_u0030_u0031_u0034", 
        "u0032_u0037 u0020 u006d_u0061_u0069 u0020 u0032_u0030_u0031_u0034"
    ]
}