{
    "bounding_box": [
        [
            139, 
            62, 
            442, 
            35
        ], 
        [
            79, 
            129, 
            582, 
            23
        ], 
        [
            72, 
            162, 
            590, 
            25
        ], 
        [
            57, 
            193, 
            604, 
            27
        ], 
        [
            73, 
            223, 
            588, 
            26
        ], 
        [
            74, 
            257, 
            587, 
            28
        ], 
        [
            491, 
            289, 
            170, 
            22
        ]
    ], 
    "image_height": 540, 
    "image_width": 720, 
    "transcription": [
        "u0627_u0644_u0642_u0633_u0645_u0033_u003a u0020 u0627_u0644_u062f_u0631_u0633 u0020 u0033_u002d_u0031_u003a u0020 u0623_u0633_u0627_u0633_u064a_u0627_u062a u0020 u0627_u0644_u062f_u0641_u062a_u0631", 
        "u0644_u0642_u062f u0020 u0627_u0633_u062a_u062e_u062f_u0645_u0646_u0627 u0020 u062a_u0637_u0628_u064a_u0642 u0020 u0627_u0644_u062f_u0641_u062a_u0631 u0020 u0645_u0646 u0020 u0642_u0628_u0644 u0020 u0644_u0639_u0631_u0636 u0020 u0627_u0644_u0645_u0641_u0627_u0647_u064a_u0645 u0020 u0648_u0627_u0644_u0633_u0645_u0627_u062a u0020 u0627_u0644_u0645_u062e_u062a_u0644_u0641_u0629_u0020", 
        "u0641_u064a u0020 u0648_u064a_u0646_u062f_u0648_u0632 u0020 u0037_u002e u0020 u0648_u0633_u0646_u0642_u0648_u0645 u0020 u0627_u0644_u0622_u0646 u0020 u0628_u0627_u0633_u062a_u062e_u062f_u0627_u0645 u0020 u062a_u0637_u0628_u064a_u0642 u0020 u0627_u0644_u062f_u0641_u062a_u0631 u0020 u0643_u0628_u0631_u0646_u0627_u0645_u062c u0020 u0628_u062d_u062f u0020 u0630_u0627_u062a_u0647_u002e_u0020", 
        "u064a_u0639_u062a_u0628_u0631 u0020 u062a_u0637_u0628_u064a_u0642 u0020 u0627_u0644_u062f_u0641_u062a_u0631 u0020 u0645_u0639_u0627_u0644_u062c u0020 u0646_u0635_u0648_u0635 u0020 u0623_u0633_u0627_u0633_u064a u0020 u0645_u0635_u0645_u0645 u0020 u0644_u0644_u062d_u0631_u0648_u0641 u0020 u0648_u0627_u0644_u0645_u0633_u062a_u0646_u062f_u0627_u062a_u0020", 
        "u0627_u0644_u0628_u0633_u064a_u0637_u0629_u002e u0020 u0648_u0647_u0648 u0020 u062c_u0632_u0621 u0020 u0645_u0646 u0020 u0639_u0627_u0626_u0644_u0629 u0020 u0648_u064a_u0646_u062f_u0648_u0632 u0020 u0644_u0623_u0646_u0638_u0645_u0629 u0020 u0627_u0644_u062a_u0634_u063a_u064a_u0644 u0020 u0645_u0646_u0630 u0020 u0632_u0645_u0646 u0020 u0637_u0648_u064a_u0644_u0020", 
        "u0648_u0647_u0627 u0020 u0647_u0648 u0020 u064a_u0639_u0648_u062f u0020 u0645_u062c_u062f_u062f_u0627 u0020 u0645_u0639 u0020 u0648_u064a_u0646_u062f_u0648_u0632 u0020 u0037 u0020 u063a_u064a_u0631 u0020 u0627_u0646_u0647 u0020 u0641_u064a u0020 u0647_u0630_u0647 u0020 u0627_u0644_u0645_u0631_u0629 u0020 u064a_u0623_u062a_u064a u0020 u0628_u0648_u0627_u062c_u0647_u0629_u0020", 
        "u0627_u0633_u062a_u062e_u062f_u0627_u0645 u0020 u062c_u062f_u064a_u062f_u0629 u0020 u0643_u0644_u064a_u0627_u002e_u0020"
    ]
}