{
    "bounding_box": [
        [
            58, 
            48, 
            602, 
            37
        ], 
        [
            63, 
            130, 
            586, 
            29
        ], 
        [
            106, 
            160, 
            542, 
            29
        ], 
        [
            389, 
            193, 
            260, 
            27
        ], 
        [
            54, 
            226, 
            594, 
            30
        ], 
        [
            85, 
            258, 
            564, 
            29
        ], 
        [
            585, 
            294, 
            64, 
            19
        ], 
        [
            181, 
            327, 
            468, 
            24
        ], 
        [
            81, 
            364, 
            568, 
            26
        ], 
        [
            84, 
            392, 
            565, 
            27
        ], 
        [
            413, 
            424, 
            235, 
            25
        ]
    ], 
    "image_height": 540, 
    "image_width": 720, 
    "transcription": [
        "u0645_u0627 u0020 u0647_u064a u0020 u0623_u0647_u0645 u0020 u0627_u0644_u062a_u062d_u062f_u064a_u0627_u062a u0020 u0627_u0644_u062a_u064a u0020 u062a_u0648_u0627_u062c_u0647_u0647_u0627 u0020 u0627_u0644_u0623_u0642_u0644_u064a_u0629 u0020 u0627_u0644_u0641_u0644_u0633_u0637_u064a_u0646_u064a_u0629 u0020 u0627_u0644_u064a_u0648_u0645_u061f", 
        "u0645_u0633_u0623_u0644_u0629 u0020 u0627_u0644_u0623_u0631_u0627_u0636_u064a_u002d u0020 u062a_u0639_u064a_u0634 u0020 u0627_u0644_u0623_u0642_u0644_u064a_u0629 u0020 u0627_u0644_u0641_u0644_u0633_u0637_u064a_u0646_u064a_u0629 u0020 u0020_u0648_u0627_u0644_u062a_u064a u0020 u062a_u0628_u0644_u063a u0020 u0025_u0032_u0030_u002e_u0035 u0020 u0645_u0646_u0020", 
        "u0633_u0643_u0627_u0646 u0020 u0627_u0633_u0631_u0627_u0626_u064a_u0644 u0020 u0639_u0644_u0649 u0020 u0623_u0642_u0644 u0020 u0645_u0646 u0020 u0025_u0033 u0020 u0645_u0646 u0020 u0627_u0644_u0627_u0631_u0627_u0636_u064a u0020 u0628_u0633_u0628_u0628 u0020 u0639_u0645_u0644_u064a_u0627_u062a_u0020", 
        "u0645_u0635_u0627_u062f_u0631_u0629 u0020 u0627_u0644_u0627_u0631_u0627_u0636_u064a u0020 u0627_u0644_u0645_u0633_u062a_u0645_u0631_u0629_u002e_u000d", 
        "u0623_u0632_u0645_u0629 u0020 u0627_u0644_u0633_u0643_u0646 u0020 u0627_u0644_u062a_u064a u0020 u062a_u0648_u0627_u062c_u0647 u0020 u0627_u0644_u0623_u0632_u0648_u0627_u062c u0020 u0627_u0644_u0634_u0627_u0628_u0629_u003a u0020 u0645_u0646_u0630 u0020 u0639_u0627_u0645 u0020 u0031_u0039_u0034_u0038 u0020 u0623_u0642_u064a_u0645_u062a u0020 u0646_u062d_u0648_u0020", 
        "u0037_u0030_u0030 u0020 u0628_u0644_u062f_u0629 u0020 u0648_u0645_u062f_u064a_u0646_u0629 u0020 u064a_u0647_u0648_u062f_u064a_u0629 u0020 u062c_u062f_u064a_u062f_u0629_u060c u0020 u0628_u064a_u0646_u0645_u0627 u0020 u0644_u0645 u0020 u062a_u062a_u0645 u0020 u0625_u0642_u0627_u0645_u0629 u0020 u0623_u064a_u0629 u0020 u0628_u0644_u062f_u0629 u0020 u0639_u0631_u0628_u064a_u0629_u0020", 
        "u062c_u062f_u064a_u062f_u0629_u002e_u000d", 
        "u0025_u0035_u0033_u002e_u0035 u0020 u0645_u0646 u0020 u0627_u0644_u0639_u0627_u0626_u0644_u0627_u062a u0020 u0627_u0644_u0639_u0631_u0628_u064a_u0629 u0020 u062a_u0639_u064a_u0634 u0020 u062a_u062d_u062a u0020 u062e_u0637 u0020 u0627_u0644_u0641_u0642_u0631_u002e_u000d", 
        "u0646_u0633_u0628_u0629 u0020 u0627_u0644_u0637_u0644_u0627_u0628 u0020 u0627_u0644_u0639_u0631_u0628 u0020 u0627_u0644_u062d_u0627_u0635_u0644_u064a_u0646 u0020 u0639_u0644_u0649 u0020 u0634_u0647_u0627_u062f_u0629 u0020 u0628_u062c_u0631_u0648_u062a u0020 u062a_u0633_u062a_u0648_u0641_u064a u0020 u0627_u0644_u062d_u062f_u0020", 
        "u0627_u0644_u0623_u062f_u0646_u0649 u0020 u0645_u0646 u0020 u0634_u0631_u0648_u0637 u0020 u0627_u0644_u0627_u0644_u062a_u062d_u0627_u0642 u0020 u0628_u0627_u0644_u062c_u0627_u0645_u0639_u0627_u062a u0020 u0647_u0648 u0020 u0025_u0033_u0033 u0020 u0628_u064a_u0646_u0645_u0627 u0020 u064a_u0635_u0644 u0020 u0627_u0644_u0649_u0020", 
        "u0025_u0034_u0038 u0020 u0644_u062f_u0649 u0020 u0627_u0644_u0637_u0644_u0627_u0628 u0020 u0627_u0644_u064a_u0647_u0648_u062f_u000d"
    ]
}