{
    "bounding_box": [
        [
            145, 
            80, 
            428, 
            52
        ], 
        [
            51, 
            157, 
            603, 
            22
        ], 
        [
            75, 
            182, 
            579, 
            20
        ], 
        [
            53, 
            204, 
            601, 
            22
        ], 
        [
            64, 
            228, 
            590, 
            21
        ], 
        [
            169, 
            252, 
            485, 
            22
        ], 
        [
            59, 
            279, 
            595, 
            24
        ], 
        [
            91, 
            304, 
            563, 
            22
        ], 
        [
            486, 
            329, 
            169, 
            19
        ], 
        [
            63, 
            357, 
            591, 
            23
        ], 
        [
            371, 
            383, 
            283, 
            18
        ], 
        [
            131, 
            409, 
            523, 
            24
        ], 
        [
            95, 
            439, 
            559, 
            23
        ], 
        [
            130, 
            463, 
            524, 
            22
        ]
    ], 
    "image_height": 540, 
    "image_width": 720, 
    "transcription": [
        "u0627_u0644_u0646_u0645_u0648_u0630_u062c u0020 u0627_u0644_u0633_u0644_u0648_u0643_u0649 u0020 u0627_u0644_u0645_u0639_u0631_u0641_u0649_u003a", 
        "u002a u0020 u064a_u0641_u0633_u0631 u0020 u0627_u0644_u0646_u0645_u0648_u0630_u062c u0020 u0627_u0644_u0633_u0644_u0648_u0643_u0649 u0020 u0627_u0644_u0645_u0639_u0631_u0641_u0649 u0020 u0627_u0636_u0637_u0631_u0627_u0628 u0020 u0627_u0644_u0647_u0644_u0639 u0020 u0639_u0644_u0649 u0020 u0623_u0646_u0647 u0020 u0633_u0648_u0621 u0020 u0627_u0644_u062a_u0641_u0633_u064a_u0631 u0020 u0627_u0644_u0645_u0641_u062c_u0639 u0020 u0645_u0646 u0020 u0642_u0628_u0644_u0020", 
        "u0627_u0644_u0641_u0631_u062f u0020 u0644_u0627_u062d_u0633_u0627_u0633_u0627_u062a_u0647 u0020 u0627_u0644_u062c_u0633_u0645_u064a_u0629 u0020 u0627_u0644_u0639_u0627_u062f_u064a_u0629_u0028_u0632_u064a_u0627_u062f_u0629 u0020 u0636_u0631_u0628_u0627_u062a u0020 u0627_u0644_u0642_u0644_u0628_u002d_u0633_u0631_u0639_u0629 u0020 u0627_u0644_u062a_u0646_u0641_u0633_u002d_u062a_u063a_u064a_u0631_u0627_u062a u0020 u062c_u0633_u0645_u064a_u0629_u0020", 
        "u0623_u062e_u0631_u0649 u0020 u0029 u0020 u0648_u0642_u062f u0020 u062a_u0643_u0648_u0646 u0020 u0625_u0633_u062a_u062c_u0627_u0628_u0629 u0020 u0644_u0644_u0645_u062b_u064a_u0631_u0627_u062a u0020 u0627_u0644_u062f_u0627_u062e_u0644_u064a_u0629 u0020 u0623_u0648 u0020 u0627_u0644_u062e_u0627_u0631_u062c_u064a_u0629 u0020 u0643_u0627_u0644_u063a_u0636_u0628 u0020 u0645_u062b_u0644_u0627_u064b u0020 u002c u0020 u0641_u064a_u062a_u0645 u0020 u062a_u0641_u0633_u064a_u0631_u0647_u0627_u0020", 
        "u0639_u0644_u0649 u0020 u0623_u0646_u0647_u0627 u0020 u0645_u0624_u0634_u0631 u0020 u0644_u062d_u062f_u0648_u062b u0020 u0623_u0632_u0645_u0629 u0020 u0642_u0644_u0628_u064a_u0629 u0020 u002c u0020 u0641_u064a_u062d_u062f_u062b u0020 u0627_u0644_u0642_u0644_u0642 u0020 u0627_u0644_u0630_u0649 u0020 u064a_u0624_u062f_u0649 u0020 u0625_u0644_u0649 u0020 u0632_u064a_u0627_u062f_u0629 u0020 u062d_u062f_u0629 u0020 u0627_u0644_u0625_u062d_u0633_u0627_u0633_u0020", 
        "u0628_u0627_u0644_u0623_u0639_u0631_u0627_u0636 u0020 u0627_u0644_u0633_u0644_u0628_u064a_u0629 u0020 u0648_u062a_u0643_u0648_u0646 u0020 u0643_u062d_u0644_u0642_u0629 u0020 u0645_u0641_u0631_u063a_u0629 u0020 u0644_u0627_u062a_u0646_u062a_u0647_u0649 u0020 u0020_u0028_u0639_u0646 u0020 u0643_u0644_u0627_u0631_u0643_u0031_u0039_u0038_u0036_u0029_u002e_u000d", 
        "u0020_u0623_u0645_u0627 u0020 u0628_u0627_u0631_u0644_u0648 u0020 u0031_u0039_u0038_u0038 u0020 u0641_u064a_u0631_u062c_u0639 u0020 u0630_u0644_u0643 u0020 u0625_u0644_u0649 u0020 u0639_u062f_u0645 u0020 u0627_u0644_u0642_u062f_u0631_u0629 u0020 u0639_u0644_u0649 u0020 u0627_u0644_u062a_u0646_u0628_u0624 u0020 u0627_u0644_u062c_u064a_u062f u0020 u0648_u0639_u062f_u0645 u0020 u0627_u0644_u0642_u062f_u0631_u0629 u0020 u0639_u0644_u0649 u0020 u0636_u0628_u0637_u0020", 
        "u0627_u0644_u0623_u062d_u062f_u0627_u062b u0020 u002c_u0648_u0642_u062f u0020 u0648_u0636_u0639 u0020 u062b_u0644_u0627_u062b u0020 u0645_u0639_u0627_u064a_u064a_u0631 u0020 u064a_u0645_u0643_u0646 u0020 u0020_u0645_u0646 u0020 u062e_u0644_u0627_u0644_u0647_u0627 u0020 u0627_u062e_u062a_u0628_u0627_u0631_u0627_u0644_u062a_u0646_u0628_u0624 u0020 u0641_u064a u0020 u0636_u0648_u0621 u0020 u0627_u0644_u0646_u0645_u0648_u0630_u062c_u0020", 
        "u0627_u0644_u0633_u0644_u0648_u0643_u0649 u0020 u0627_u0644_u0645_u0639_u0631_u0641_u0649 u0020 u0648_u0647_u0649_u003a_u000d", 
        "u0031_u002d u0020 u0020_u0623_u0646 u0020 u064a_u0641_u0633_u0631 u0020 u0645_u0631_u0636_u0649 u0020 u0627_u0644_u0647_u0644_u0639 u0020 u0628_u0634_u0643_u0644 u0020 u062e_u0627_u0637_u0649_u0621 u0020 u0627_u0644_u0627_u062d_u0633_u0627_u0633_u0627_u062a u0020 u0627_u0644_u062c_u0633_u0645_u064a_u0629 u0020 u0628_u0635_u0648_u0631_u0629 u0020 u0645_u0641_u062c_u0639_u0629 u0020 u0648_u0628_u0634_u0643_u0644_u0020", 
        "u0645_u062a_u0643_u0631_u0631 u0020 u0639_u0645_u0627 u0020 u064a_u0641_u0639_u0644_u0647 u0020 u0645_u0631_u0636_u0649 u0020 u0627_u0644_u0642_u0644_u0642 u0020 u0627_u0644_u0622_u062e_u0631_u064a_u0646_u002e_u000d", 
        "u0032_u002d u0020 u0623_u0646 u0020 u062a_u0624_u062f_u0649 u0020 u0627_u0644_u0625_u062b_u0627_u0631_u0629 u0020 u0627_u0644_u0645_u0639_u0631_u0641_u064a_u0629 u0020 u0020_u0628_u0634_u0643_u0644 u0020 u0645_u0641_u062c_u0639 u0020 u0625_u0644_u0649 u0020 u062d_u062f_u0648_u062b u0020 u0627_u0636_u0637_u0631_u0627_u0628 u0020 u0627_u0644_u0647_u0644_u0639 u0020 u0641_u0639_u0644_u0627_u064b_u002e_u000d", 
        "u0033_u002d u0020 u0623_u0646 u0020 u064a_u062d_u0642_u0642 u0020 u0627_u0644_u0639_u0644_u0627_u062c u0020 u0639_u0646 u0020 u0637_u0631_u064a_u0642 u0020 u062a_u0635_u062d_u064a_u062d u0020 u0623_u0648 u0020 u062a_u063a_u064a_u064a_u0631 u0020 u0627_u0644_u062a_u0641_u0633_u064a_u0631_u0627_u062a u0020 u0627_u0644_u0645_u0641_u062c_u0639_u0629 u0020 u0020_u0644_u0644_u0627_u062d_u0633_u0627_u0633_u0627_u062a_u0020", 
        "u0627_u0644_u062c_u0633_u0645_u064a_u0629 u0020 u0625_u0644_u0649 u0020 u0625_u062e_u062a_u0632_u0627_u0644 u0020 u0623_u0648 u0020 u062e_u0641_u0636 u0020 u0645_u0639_u062f_u0644 u0020 u0646_u0648_u0628_u0627_u062a u0020 u0627_u0644_u0647_u0644_u0639_u002e_u0028 u0020 u0648_u0642_u062f u0020 u0623_u062b_u0628_u062a u0020 u0630_u0644_u0643 u0020 u0628_u0627_u0644_u062a_u062c_u0631_u0628_u0629_u0029_u002e_u0020"
    ]
}