{
    "bounding_box": [
        [
            230, 
            43, 
            443, 
            48
        ], 
        [
            289, 
            138, 
            363, 
            32
        ], 
        [
            166, 
            178, 
            378, 
            31
        ], 
        [
            278, 
            253, 
            397, 
            29
        ], 
        [
            478, 
            293, 
            198, 
            28
        ], 
        [
            297, 
            330, 
            379, 
            32
        ], 
        [
            296, 
            367, 
            379, 
            30
        ]
    ], 
    "image_height": 540, 
    "image_width": 720, 
    "transcription": [
        "u0645_u062d_u0627_u0648_u0631 u0020 u0627_u0644_u062a_u062e_u0627_u0637_u0628 u0020 u0627_u0644_u0628_u064a_u0646_u064a u0020 u0627_u0644_u0639_u0631_u0627_u0642_u064a", 
        "u064a_u0642_u0648_u0645 u0020 u0628_u0645_u0639_u0627_u0644_u062c_u0629 u0020 u0645_u062d_u0648_u0631_u064a_u0646 u0020 u0631_u0626_u064a_u0633_u064a_u062a_u064a_u0646 u0020 u003a_u002d_u000d", 
        "u0028_u0028 u0020 u0627_u0644_u0645_u062d_u0648_u0631 u0020 u0627_u0644_u062a_u0642_u0646_u064a u0020 u0648_u0627_u0644_u0645_u062d_u0648_u0631 u0020 u0627_u0644_u062f_u0644_u0627_u0644_u064a u0020 u0029_u0029_u000d", 
        "u0031_u002d u0020 u062f_u0644_u064a_u0644 u0020 u0645_u0639_u0644_u0648_u0645_u0627_u062a u0020 u0627_u0644_u062d_u0648_u0643_u0645_u0629 u0020 u0627_u0644_u0627_u0644_u0643_u062a_u0631_u0648_u0646_u064a_u0629 u0020 u000d", 
        "u0032_u002d u0020 u0645_u062e_u0637_u0637 u0020 u0627_u0644_u0628_u064a_u0627_u0646_u0627_u062a u0020 u000d", 
        "u0033_u002d u0020 u0628_u064a_u0627_u0646_u0627_u062a u0020 u0627_u0644_u062a_u0639_u0631_u064a_u0641 u0020 u0028_u0627_u0644_u0628_u064a_u0627_u0646_u0627_u062a u0020 u0627_u0644_u0641_u0648_u0642_u064a_u0629_u0029_u000d", 
        "u0034_u002d u0020 u0633_u062c_u0644 u0020 u062e_u062f_u0645_u0627_u062a u0020 u0627_u0644_u062d_u0643_u0648_u0645_u0629 u0020 u0627_u0644_u0627_u0644_u0643_u062a_u0631_u0648_u0646_u064a_u0629_u00a0"
    ]
}