{
    "bounding_box": [
        [
            220, 
            48, 
            278, 
            42
        ], 
        [
            247, 
            136, 
            402, 
            31
        ], 
        [
            247, 
            182, 
            402, 
            32
        ], 
        [
            291, 
            229, 
            358, 
            28
        ], 
        [
            270, 
            274, 
            379, 
            28
        ]
    ], 
    "image_height": 540, 
    "image_width": 720, 
    "transcription": [
        "u0627_u0644_u0627_u0637_u0627_u0631 u0020 u0627_u0644_u0639_u0627_u0645 u0020 u0644_u0644_u0639_u0631_u0636", 
        "u0648_u0636_u0639 u0020 u0644_u0633_u0644_u0627_u0645_u0629 u0020 u0627_u0644_u0637_u0631_u0642_u064a_u0629 u0020 u0641_u064a u0020 u0628_u0644_u062f_u0627_u0646 u0020 u0627_u0644_u0627_u0633_u0643_u0648_u0627_u000d", 
        "u0627_u062f_u0627_u0631_u0629 u0020 u0627_u0644_u0633_u0644_u0627_u0645_u0629 u0020 u0627_u0644_u0637_u0631_u0642_u064a_u0629 u0020 u0641_u064a u0020 u0628_u0644_u062f_u0627_u0646 u0020 u0627_u0644_u0627_u0633_u0643_u0648_u0627_u000d", 
        "u0627_u062c_u0631_u0627_u0621_u0627_u062a u0020 u0627_u0644_u0639_u0642_u062f u0020 u0627_u0644_u062e_u0627_u0635_u0629 u0020 u0628_u0639_u0642_u062f u0020 u0627_u0644_u0639_u0645_u0644 u0020 u000d", 
        "u0627_u0644_u0645_u0645_u0627_u0631_u0633_u0627_u062a u0020 u0627_u0644_u062d_u0633_u0646_u0629 u0020 u0648_u0627_u0644_u062e_u0628_u0631_u0627_u062a u0020 u0627_u0644_u0639_u0627_u0644_u0645_u064a_u0629_u000d"
    ]
}