{
    "bounding_box": [
        [
            209, 
            517, 
            36, 
            10
        ], 
        [
            672, 
            521, 
            11, 
            7
        ], 
        [
            224, 
            48, 
            434, 
            37
        ], 
        [
            605, 
            123, 
            50, 
            33
        ], 
        [
            63, 
            197, 
            623, 
            35
        ], 
        [
            43, 
            275, 
            643, 
            32
        ], 
        [
            90, 
            351, 
            605, 
            33
        ], 
        [
            97, 
            428, 
            589, 
            33
        ]
    ], 
    "image_height": 540, 
    "image_width": 720, 
    "transcription": [
        "u0644_u063a_u0629 u0020 u0627_u0644_u062c_u0633_u062f", 
        "u0033_u0032", 
        "u0623_u0634_u0647_u0631 u0020 u0627_u0644_u0639_u0644_u0627_u0645_u0627_u062a u0020 u0627_u0644_u0648_u0627_u0636_u062d_u0629 u0020 u0644_u0643_u0634_u0641 u0020 u0627_u0644_u0643_u0630_u0628", 
        "u0627_u0644_u0641_u0645_u0020", 
        "u0643_u0645_u062d_u0627_u0648_u0644_u0629 u0020 u0645_u0646 u0020 u0627_u0644_u0639_u0642_u0644 u0020 u0627_u0644_u0627_u0648_u0627_u0639_u064a u0020 u0644_u0645_u062f_u0627_u0631_u0627_u0629 u0020 u0627_u0644_u0643_u0630_u0628 u0020 u060c u0020 u0028 u0020 u0627_u0644_u0639_u0642_u0644 u0020 u0627_u0644_u0644_u0627_u0648_u0627_u0639_u064a_u0020", 
        "u064a_u0631_u0641_u0636 u0020 u0627_u0644_u0633_u0644_u0628_u064a_u0627_u062a u0020 u0648_u0627_u0644_u0643_u0630_u0628 u0020 u0029 u0020 u064a_u0642_u0648_u0645 u0020 u0628_u062f_u0641_u0639 u0020 u0627_u0644_u0631_u062c_u0644 u0020 u0625_u0644_u0649 u0020 u0648_u0636_u0639 u0020 u064a_u062f_u0647 u0020 u0639_u0644_u0649_u0020", 
        "u0641_u0645_u0647 u0020 u0648 u0020 u0643_u0623_u0646_u0645_u0627 u0020 u064a_u062d_u0627_u0648_u0644 u0020 u0645_u0646_u0639 u0020 u0627_u0644_u0643_u0630_u0628_u002e_u002e_u002e u0020 u062d_u064a_u062b u0020 u0623_u0646 u0020 u0627_u0644_u0634_u062e_u0635 u0020 u0641_u064a u0020 u0647_u0630_u0627 u0020 u000d", 
        "u002e_u0627_u0644_u0645_u0648_u0642_u0641 u0020 u064a_u0642_u0648_u0645 u0020 u0644_u0627 u0020 u0634_u0639_u0648_u0631_u064a_u0627 u0020 u0628_u0645_u062d_u0627_u0648_u0644_u0629 u0020 u0643_u062a_u0645_u0627_u0646 u0020 u0641_u0645_u0647 u0020 u0648 u0020 u0639_u062f_u0645 u0020 u0627_u0644_u0643_u0630_u0628"
    ]
}