{
    "bounding_box": [
        [
            247, 
            49, 
            225, 
            36
        ], 
        [
            91, 
            101, 
            593, 
            22
        ], 
        [
            389, 
            125, 
            295, 
            22
        ], 
        [
            526, 
            173, 
            158, 
            22
        ], 
        [
            104, 
            197, 
            580, 
            22
        ], 
        [
            110, 
            221, 
            574, 
            22
        ], 
        [
            327, 
            245, 
            357, 
            20
        ], 
        [
            524, 
            293, 
            159, 
            20
        ], 
        [
            421, 
            317, 
            226, 
            20
        ], 
        [
            537, 
            344, 
            110, 
            17
        ], 
        [
            532, 
            368, 
            116, 
            17
        ], 
        [
            559, 
            389, 
            88, 
            22
        ], 
        [
            399, 
            413, 
            249, 
            20
        ], 
        [
            366, 
            437, 
            281, 
            22
        ], 
        [
            495, 
            461, 
            152, 
            22
        ], 
        [
            420, 
            485, 
            227, 
            22
        ]
    ], 
    "image_height": 540, 
    "image_width": 720, 
    "transcription": [
        "u0627_u0644_u0641_u0639_u0627_u0644_u064a_u0629 u0020 u0627_u0644_u062a_u0646_u0638_u064a_u0645_u064a_u0629", 
        "u062a_u0633_u0639_u064a u0020 u0643_u0644 u0020 u0627_u0644_u0645_u0646_u0638_u0645_u0627_u062a u0020 u0625_u0644_u064a u0020 u062a_u062d_u0642_u064a_u0642 u0020 u0623_u0647_u062f_u0627_u0641_u0647_u0627 u0020 u0627_u0644_u062a_u064a u0020 u0623_u0646_u0634_u0623_u062a u0020 u0645_u0646 u0020 u0623_u062c_u0644_u0647_u0627 u0020 u0648_u0644_u0643_u064a u0020 u062a_u062a_u062d_u0642_u0642 u0020 u0647_u0630_u0647 u0020 u0627_u0644_u0623_u0647_u062f_u0627_u0641 u0020 u062a_u0639_u0645_u0644_u0020", 
        "u0627_u0644_u0645_u0646_u0638_u0645_u0627_u062a u0020 u0639_u0644_u064a u0020 u0627_u0644_u0648_u0635_u0648_u0644 u0020 u0625_u0644_u064a u0020 u0627_u0644_u0641_u0639_u0627_u0644_u064a_u0629 u0020 u0627_u0644_u062a_u0646_u0638_u064a_u0645_u064a_u0629_u000d", 
        "u0645_u0639_u0646_u064a u0020 u0627_u0644_u0641_u0639_u0627_u0644_u064a_u0629 u0020 u0627_u0644_u062a_u0646_u0638_u064a_u0645_u064a_u0629 u0020 u000d", 
        "u062a_u0639_u0643_u0633 u0020 u0627_u0644_u0641_u0639_u0627_u0644_u064a_u0629 u0020 u0642_u062f_u0631_u0629 u0020 u0627_u0644_u0645_u0646_u0638_u0645_u0629 u0020 u0639_u0644_u064a u0020 u062a_u062d_u0642_u064a_u0642 u0020 u0623_u0647_u062f_u0627_u0641_u0647_u0627 u0020 u0641_u0627_u0644_u0641_u0639_u0627_u0644_u064a_u0629 u0020 u062a_u0648_u0636_u062d u0020 u0639_u0646 u0020 u0637_u0631_u064a_u0642 u0020 u0645_u0642_u0627_u0631_u0646_u0629 u0020 u0627_u0644_u0646_u062a_u0627_u0626_u062c_u0020", 
        "u0627_u0644_u0645_u062d_u0642_u0642_u0629 u0020 u0628_u0627_u0644_u0623_u0647_u062f_u0627_u0641 u0020 u0627_u0644_u0645_u0648_u0636_u0648_u0639_u0629 u0020 u0648_u0647_u064a u0020 u062a_u062e_u062a_u0644_u0641 u0020 u0639_u0646 u0020 u0645_u0641_u0647_u0648_u0645 u0020 u0627_u0644_u0643_u0641_u0627_u0621_u0629 u0020 u0648_u0627_u0644_u062a_u064a u0020 u062a_u0639_u0643_u0633 u0020 u062d_u0633_u0646 u0020 u0627_u0633_u062a_u062e_u062f_u0627_u0645_u0020", 
        "u0627_u0644_u0645_u0648_u0627_u0631_u062f u0020 u0648_u064a_u0639_u0628_u0631 u0020 u0639_u0646_u0647_u0627 u0020 u0628_u0627_u0644_u0639_u0644_u0627_u0642_u0629 u0020 u0628_u064a_u0646 u0020 u0627_u0644_u0645_u062e_u0631_u062c_u0627_u062a u0020 u0648_u0627_u0644_u0645_u062f_u062e_u0644_u0627_u062a u0020 u000d", 
        "u0645_u0639_u0627_u064a_u064a_u0631 u0020 u0627_u0644_u0641_u0639_u0627_u0644_u064a_u0629 u0020 u0627_u0644_u062a_u0646_u0638_u064a_u0645_u064a_u0629_u000d", 
        "u0625_u0646_u062c_u0627_u0632 u0020 u0627_u0644_u0623_u0646_u0634_u0637_u0629 u0020 u0627_u0644_u0648_u0638_u064a_u0641_u064a_u0629 u0020 u0648_u0627_u0644_u062a_u0634_u063a_u064a_u0644_u064a_u0629_u000d", 
        "u0627_u0644_u0627_u0647_u062a_u0645_u0627_u0645 u0020 u0628_u0627_u0644_u0639_u0645_u0644_u0627_u0621_u000d", 
        "u0627_u0644_u0627_u0647_u062a_u0645_u0627_u0645 u0020 u0628_u0627_u0644_u0639_u0627_u0645_u0644_u064a_u0646_u000d", 
        "u0631_u0641_u0639 u0020 u0627_u0644_u0625_u0646_u062a_u0627_u062c_u064a_u0629_u000d", 
        "u0020_u0636_u0631_u0648_u0631_u0629 u0020 u0641_u0647_u0645 u0020 u0627_u0644_u0639_u0627_u0645_u0644_u064a_u0646 u0020 u0644_u0623_u0647_u062f_u0627_u0641 u0020 u0627_u0644_u0645_u0646_u0638_u0645_u0629_u000d", 
        "u0627_u0644_u0627_u0631_u062a_u0628_u0627_u0637 u0020 u0628_u0639_u0644_u0627_u0642_u0627_u062a u0020 u062c_u064a_u062f_u0629 u0020 u0645_u0639 u0020 u0627_u0644_u0645_u0646_u0638_u0645_u0627_u062a u0020 u0627_u0644_u0623_u062e_u0631_u0649_u000d", 
        "u0628_u0633_u0627_u0637_u0629 u0020 u0627_u0644_u0647_u064a_u0643_u0644 u0020 u0627_u0644_u062a_u0646_u0638_u064a_u0645_u064a_u000d", 
        "u0645_u0646_u062d u0020 u062f_u0631_u062c_u0627_u062a u0020 u0639_u0627_u0644_u064a_u0629 u0020 u0644_u0644_u0625_u0628_u062f_u0627_u0639 u0020 u0648_u0627_u0644_u0627_u0628_u062a_u0643_u0627_u0631_u0020"
    ]
}