{
    "bounding_box": [
        [
            287, 
            129, 
            137, 
            30
        ], 
        [
            69, 
            160, 
            623, 
            30
        ], 
        [
            29, 
            196, 
            663, 
            29
        ], 
        [
            58, 
            229, 
            634, 
            29
        ], 
        [
            45, 
            265, 
            647, 
            26
        ], 
        [
            235, 
            297, 
            456, 
            29
        ]
    ], 
    "image_height": 540, 
    "image_width": 720, 
    "transcription": [
        "u062a_u062d_u0644_u06cc_u0641_u0028_u0633_u0648_u06af_u0646_u062f_u0029_u000d", 
        "u062f_u0631 u0020 u0645_u0631_u062d_u0644_u0647 u0020 u06cc u0020 u0628_u0639_u062f_u060c u0020 u0631_u0626_u06cc_u0633 u0020 u062c_u0645_u0647_u0648_u0631 u0020 u062f_u0631 u0020 u0645_u062c_u0644_u0633 u0020 u0634_u0648_u0631_u0627_u06cc u0020 u0627_u0633_u0644_u0627_u0645_u06cc u0020 u0628_u0627 u0020 u062d_u0636_u0648_u0631_u0020", 
        "u0646_u0645_u0627_u06cc_u0646_u062f_u06af_u0627_u0646 u0020 u0645_u062c_u0644_u0633 u0020 u0648 u0020 u0634_u0648_u0631_u0627_u06cc u0020 u0646_u06af_u0647_u0628_u0627_u0646 u0020 u0648 u0020 u0631_u0626_u06cc_u0633 u0020 u0642_u0648_u0651_u0647 u0020 u06cc u0020 u0642_u0636_u0627_u0626_u06cc_u0647 u0020 u062f_u0631 u0020 u067e_u06cc_u0634_u06af_u0627_u0647 u0020 u0642_u0631_u0622_u0646_u0020", 
        "u06a9_u0631_u06cc_u0645 u0020 u0633_u0648_u06af_u0646_u062f u0020 u06cc_u0627_u062f u0020 u0645_u06cc u0020 u06a9_u0646_u062f u0020 u06a9_u0647 u0020 u0648_u0638_u0627_u06cc_u0641 u0020 u062e_u0648_u062f u0020 u0631_u0627 u0020 u0628_u0647 u0020 u062f_u0631_u0633_u062a_u06cc u0020 u0627_u0646_u062c_u0627_u0645 u0020 u062f_u0647_u062f_u002e u0020 u0631_u0626_u06cc_u0633_u0020", 
        "u062c_u0645_u0647_u0648_u0631 u0020 u0648 u0020 u062f_u0648_u0644_u062a_u06cc u0020 u06a9_u0647 u0020 u062a_u0634_u06a9_u06cc_u0644 u0020 u0645_u06cc u0020 u062f_u0647_u062f u0020 u062f_u0631 u0020 u0628_u0631_u0627_u0628_u0631 u0020 u0645_u0644_u062a u0020 u0627_u06cc_u0631_u0627_u0646_u060c u0020 u0631_u0647_u0628_u0631 u0020 u0648 u0020 u0645_u062c_u0644_u0633_u0020", 
        "u0634_u0648_u0631_u0627_u06cc u0020 u0627_u0633_u0644_u0627_u0645_u06cc u0020 u0645_u0633_u0626_u0648_u0644 u0020 u0647_u0633_u062a_u0646_u062f u0020 u0648 u0020 u0628_u0627_u06cc_u062f u0020 u067e_u0627_u0633_u062e_u06af_u0648 u0020 u0628_u0627_u0634_u0646_u062f_u002e"
    ]
}