{
    "bounding_box": [
        [
            253, 
            181, 
            201, 
            37
        ], 
        [
            249, 
            228, 
            210, 
            42
        ]
    ], 
    "image_height": 540, 
    "image_width": 720, 
    "transcription": [
        "u0627_u0644_u0641_u0635_u0644 u0020 u0627_u0644_u0639_u0627_u0634_u0631_u000b", 
        "u0627_u0644_u0623_u0635_u0648_u0644 u0020 u0627_u0644_u062b_u0627_u0628_u062a_u0629_u0020"
    ]
}