{
    "bounding_box": [
        [
            613, 
            132, 
            80, 
            36
        ], 
        [
            70, 
            215, 
            612, 
            33
        ], 
        [
            582, 
            256, 
            109, 
            30
        ], 
        [
            36, 
            299, 
            646, 
            36
        ], 
        [
            624, 
            344, 
            66, 
            29
        ], 
        [
            75, 
            390, 
            607, 
            37
        ], 
        [
            638, 
            433, 
            53, 
            25
        ], 
        [
            480, 
            474, 
            202, 
            30
        ]
    ], 
    "image_height": 540, 
    "image_width": 720, 
    "transcription": [
        "u062a_u062d_u0642_u0642_u000d", 
        "u0631_u0627_u062c_u0639 u0020 u0627_u0644_u062d_u0644 u0020 u003a u0020 u0628_u0645_u0627 u0020 u0623_u0646 u0020 u0639_u062f_u062f u0020 u0627_u0644_u0639_u0645_u0627_u0644 u0020 u062a_u0636_u0627_u0639_u0641 u0020 u0028_u0033 u0020 u0639_u0645_u0627_u0644 u0020 u0623_u0635_u0628_u062d_u0648_u0627 u0020 u0020", 
        "u0036_u0639_u0645_u0627_u0644_u0029 u0020 u060c_u000d", 
        "u0625_u0630_u0646 u0020 u0623_u0635_u0628_u062d u0020 u0628_u0627_u0644_u0625_u0645_u0643_u0627_u0646 u0020 u062d_u0635_u062f u0020 u0020_u0033 u0020 u00d7 u0020 u0032 u0020 u0623_u0648 u0020 u0036 u0020 u062d_u0642_u0648_u0644 u0020 u0641_u064a u0020 u0033 u0020 u0633_u0627_u0639_u0627_u062a u0020 u060c_u0020", 
        "u0648_u0644_u0630_u0644_u0643_u000d", 
        "u064a_u0633_u062a_u0637_u064a_u0639 u0020 u0036 u0020 u0639_u0645_u0627_u0644 u0020 u0641_u064a u0020 u0039 u0020 u0633_u0627_u0639_u0627_u062a u0020 u0623_u0646 u0020 u064a_u062d_u0635_u062f_u0648_u0627 u0020 u0036 u0020 u00d7 u0020 u0033 u0020 u0623_u0648 u0020 u0031_u0038_u0020", 
        "u062d_u0642_u0644_u0627_u064b_u000d", 
        "u0625_u0630_u0646 u0020 u0627_u0644_u0625_u062c_u0627_u0628_u0629 u0020 u0635_u062d_u064a_u062d_u0629"
    ]
}