{
    "bounding_box": [
        [
            35, 
            92, 
            606, 
            26
        ], 
        [
            35, 
            123, 
            606, 
            26
        ], 
        [
            411, 
            153, 
            230, 
            25
        ], 
        [
            35, 
            193, 
            606, 
            25
        ], 
        [
            221, 
            224, 
            420, 
            24
        ], 
        [
            35, 
            259, 
            606, 
            27
        ], 
        [
            359, 
            292, 
            282, 
            24
        ], 
        [
            35, 
            330, 
            606, 
            25
        ], 
        [
            175, 
            360, 
            466, 
            25
        ], 
        [
            35, 
            397, 
            606, 
            27
        ], 
        [
            35, 
            429, 
            606, 
            24
        ], 
        [
            497, 
            461, 
            144, 
            22
        ]
    ], 
    "image_height": 540, 
    "image_width": 720, 
    "transcription": [
        "u0631_u0641_u0639 u0020 u0627_u0644_u0637_u0627_u0628_u0642 u0020 u0627_u0644_u0631_u0633_u0645_u064a u0020 u0639_u0646 u0020 u0647_u0630_u0647 u0020 u0627_u0644_u0632_u064a_u0627_u0631_u0629 u0020 u064a_u062e_u0631_u062c_u0647_u0627 u0020 u0645_u0646 u0020 u062f_u0627_u0626_u0631_u0629 u0020 u0627_u0644_u0645_u0631_u0627_u0633_u0645 u0020 u0627_u0644_u062f_u0642_u064a_u0642_u0629_u0020", 
        "u0627_u0644_u0649 u0020 u0627_u0644_u062d_u0641_u0627_u0648_u0629 u0020 u0627_u0644_u062a_u064a u0020 u062a_u0648_u062c_u0628_u0647_u0627 u0020 u0627_u0644_u0645_u062c_u0627_u0645_u0644_u0627_u062a u0020 u0627_u0644_u062f_u0648_u0644_u064a_u0629 u0020 u0648_u0639_u0644_u0627_u0642_u0627_u062a u0020 u0627_u0644_u0635_u062f_u0627_u0642_u0629 u0020 u0648_u062a_u0631_u0627_u0639_u064a_u0020", 
        "u0628_u0635_u0641_u0629 u0020 u0639_u0627_u0645_u0629 u0020 u0627_u0644_u0623_u0635_u0648_u0644 u0020 u0627_u0644_u062a_u0627_u0644_u064a_u0629_u003a_u000d", 
        "u062a_u062a_u0648_u0644_u0649 u0020 u0627_u062f_u0627_u0631_u062a_u0627 u0020 u0627_u0644_u0645_u0631_u0627_u0633_u0645 u0020 u0641_u064a u0020 u0631_u0626_u0627_u0633_u0629 u0020 u0627_u0644_u062f_u0648_u0644_u0629 u0020 u0648_u0641_u064a u0020 u0648_u0632_u0627_u0631_u0629 u0020 u0627_u0644_u062e_u0627_u0631_u062c_u064a_u0629 u0020 u0628_u0627_u0644_u062a_u0646_u0633_u064a_u0642 u0020 u0645_u0639_u0020", 
        "u0627_u0644_u0628_u0639_u062b_u0629 u0020 u0627_u0644_u062f_u0628_u0644_u0648_u0645_u0627_u0633_u064a_u0629 u0020 u0627_u0644_u0645_u0639_u062a_u0645_u062f_u0629 u0020 u0644_u0644_u0636_u064a_u0641 u0020 u062a_u0646_u0638_u064a_u0645 u0020 u0627_u0644_u0627_u0633_u062a_u0642_u0628_u0627_u0644_u002e_u000d", 
        "u064a_u0633_u062a_u0642_u0628_u0644 u0020 u0627_u0644_u0636_u064a_u0641 u0020 u0639_u0646_u062f u0020 u0627_u0644_u0648_u0635_u0648_u0644 u0020 u0648_u0632_u064a_u0631 u0020 u0623_u0648 u0020 u0645_u062f_u064a_u0631 u0020 u0639_u0627_u0645 u0020 u0631_u0626_u0627_u0633_u0629 u0020 u0627_u0644_u062f_u0648_u0644_u0629 u0020 u0644_u0627_u0628_u0644_u0627_u063a_u0020", 
        "u062a_u062d_u064a_u0627_u062a u0020 u0631_u0626_u064a_u0633 u0020 u0627_u0644_u062f_u0648_u0644_u0629 u0020 u0627_u0644_u0649 u0020 u0627_u0644_u0645_u0636_u064a_u0641_u002e_u000d", 
        "u064a_u062a_u0648_u062c_u0647 u0020 u0627_u0644_u0636_u064a_u0641 u0020 u0645_u0639 u0020 u0645_u062f_u064a_u0631 u0020 u0631_u0626_u0627_u0633_u0629 u0020 u0627_u0644_u062f_u0648_u0644_u0629 u0020 u0628_u0627_u0644_u0633_u064a_u0627_u0631_u0629 u0020 u0627_u0644_u062e_u0627_u0635_u0629 u0020 u0627_u0644_u0645_u0648_u0636_u0648_u0639_u0629 u0020 u062a_u062d_u062a_u0020", 
        "u062a_u0635_u0631_u0641_u0647 u0020 u0644_u0632_u064a_u0627_u0631_u0629 u0020 u0631_u0626_u064a_u0633 u0020 u0627_u0644_u062f_u0648_u0644_u0629_u060c u0020 u062b_u0645 u0020 u064a_u0646_u062a_u0642_u0644_u0627_u0646 u0020 u0627_u0644_u0649 u0020 u062f_u0627_u0631 u0020 u0627_u0644_u0636_u064a_u0627_u0641_u0629_u002e_u000d", 
        "u062a_u0642_u0627_u0645 u0020 u0645_u0623_u062f_u0628_u0629 u0020 u063a_u062f_u0627_u0621 u0020 u0623_u0648 u0020 u0639_u0634_u0627_u0621 u0020 u063a_u064a_u0631 u0020 u0631_u0633_u0645_u064a_u0629 u0020 u0641_u064a u0020 u0642_u0635_u0631 u0020 u0627_u0644_u0631_u0626_u0627_u0633_u0629 u0020 u064a_u062f_u0639_u0649 u0020 u0627_u0644_u064a_u0647_u0627 u0020 u0643_u0628_u0627_u0631_u0020", 
        "u0645_u0631_u0627_u0641_u0642_u064a_u0647 u0020 u0648_u0631_u0626_u064a_u0633 u0020 u0628_u0639_u062b_u0629 u0020 u062f_u0648_u0644_u062a_u0647 u0020 u0627_u0644_u0649 u0020 u062c_u0627_u0646_u0628 u0020 u0648_u0632_u064a_u0631 u0020 u0627_u0644_u062e_u0627_u0631_u062c_u064a_u0629 u0020 u0648_u0643_u0628_u0627_u0631 u0020 u0631_u062c_u0627_u0644 u0020 u0631_u0626_u0627_u0633_u0629_u0020", 
        "u0627_u0644_u062f_u0648_u0644_u0629 u0020 u0648_u0627_u0644_u062e_u0627_u0631_u062c_u064a_u0629_u002e"
    ]
}