{
    "bounding_box": [
        [
            464, 
            85, 
            406, 
            46
        ], 
        [
            458, 
            149, 
            400, 
            30
        ], 
        [
            417, 
            188, 
            441, 
            28
        ], 
        [
            403, 
            221, 
            454, 
            30
        ], 
        [
            586, 
            254, 
            271, 
            28
        ], 
        [
            474, 
            287, 
            384, 
            31
        ], 
        [
            505, 
            327, 
            353, 
            26
        ], 
        [
            405, 
            360, 
            453, 
            30
        ], 
        [
            399, 
            391, 
            459, 
            29
        ], 
        [
            790, 
            423, 
            68, 
            25
        ]
    ], 
    "image_height": 540, 
    "image_width": 960, 
    "transcription": [
        "u0627_u0644_u0631_u0643_u0627_u0632 u0020 u2013 u0020 u0641_u064a u0020 u0625_u062b_u0631 u0020 u0627_u0628_u0646 u0020 u0628_u0637_u0648_u0637_u0629", 
        "u0644_u0623_u0648_u0644 u0020 u0645_u0631_u0629 u0020 u0644_u0639_u0628_u0629 u0020 u0639_u0631_u0628_u064a_u0629 u0020 u062a_u0646_u062a_u062c u0020 u0639_u0644_u0649 u0020 u0627_u0644_u0628_u0644_u064a_u0633_u062a_u064a_u0634_u0646 u0020 u0033_u000d", 
        "u0627_u0644_u0645_u0633_u062a_u0648_u0649 u0020 u0642_u0631_u064a_u0628 u0020 u0645_u0646 u0020 u062a_u062d_u062a u0020 u0627_u0644_u062d_u0635_u0627_u0631 u0020 u0641_u064a u0020 u0627_u0644_u0639_u0642_u062f u0020 u0627_u0644_u0633_u0627_u0628_u0642_u000d", 
        "u0644_u0643_u0646 u0020 u0627_u0644_u0645_u0642_u0627_u0631_u0646_u0629 u0020 u0627_u0644_u0622_u0646 u0020 u0623_u0635_u0628_u062d_u062a u0020 u0623_u0643_u062b_u0631 u0020 u0639_u0627_u0644_u0645_u064a_u0629_u060c u0020 u0644_u0627 u0020 u0633_u064a_u0645_u0627 u0020 u0645_u0639_u0020", 
        "u0637_u0631_u062d u0020 u0627_u0644_u0644_u0639_u0628_u0629 u0020 u0639_u0644_u0649 u0020 u0627_u0644_u0628_u0644_u064a_u0633_u062a_u064a_u0634_u0646 u0020 u0033_u000d", 
        "u0627_u0644_u0645_u0642_u0627_u0631_u0646_u0629 u0020 u0645_u0639 u0020 u0646_u0638_u064a_u0631_u0627_u062a_u0647_u0627 u0020 u0623_u0646_u062a_u0634_u0627_u0631_u062a_u062f u0020 u0642_u0632_u0645_u062a_u0647_u0627 u0020 u0644_u0644_u063a_u0627_u064a_u0629_u000d", 
        "u0627_u0644_u0645_u0646_u0627_u0641_u0633_u0629 u0020 u063a_u064a_u0631 u0020 u0639_u0627_u062f_u0644_u0629_u060c u0020 u0644_u0643_u0646 u0020 u0647_u0643_u0630_u0627 u0020 u0647_u0648 u0020 u0627_u0644_u0639_u0627_u0644_u0645_u000d", 
        "u064a_u062c_u0628 u0020 u0627_u062a_u062e_u0627_u0630 u0020 u0645_u062b_u0644 u0020 u0647_u0630_u0647 u0020 u0627_u0644_u062e_u0637_u0648_u0627_u062a u0020 u0627_u0644_u0643_u0628_u064a_u0631_u0629 u0020 u0628_u062d_u0630_u0631 u0020 u0644_u0623_u0646 u0020 u0644_u0647_u0627_u0020", 
        "u0627_u0646_u0639_u0643_u0627_u0633 u0020 u0643_u0628_u064a_u0631 u0020 u0639_u0644_u0649 u0020 u0635_u064a_u062a u0020 u062a_u0637_u0648_u064a_u0631 u0020 u0627_u0644_u0623_u0644_u0639_u0627_u0628 u0020 u0641_u064a u0020 u0627_u0644_u0645_u0646_u0637_u0642_u0629_u0020", 
        "u0627_u0644_u0639_u0631_u0628_u064a_u0629_u000d"
    ]
}