{
    "bounding_box": [
        [
            155, 
            55, 
            493, 
            23
        ], 
        [
            201, 
            224, 
            385, 
            33
        ], 
        [
            216, 
            266, 
            355, 
            35
        ], 
        [
            340, 
            309, 
            108, 
            26
        ]
    ], 
    "image_height": 540, 
    "image_width": 720, 
    "transcription": [
        "u0648_u0645_u0646 u0020 u0647_u0630_u0627 u0020 u0627_u0644_u0645_u0646_u0637_u0644_u0642 u0020 u0646_u0633_u062a_u0637_u064a_u0639 u0020 u0627_u0644_u0642_u0648_u0644 u0020 u0623_u0646_u0020", 
        "u0627_u0644_u0642_u0648_u0627_u0646_u064a_u0646 u0020 u0627_u0644_u0639_u0644_u0645_u064a_u0629 u0020 u0625_u0630_u0627 u0020 u0645_u0627 u0020 u062a_u0623_u0644_u0641_u062a u0020 u0641_u064a_u0645_u0627_u0020", 
        "u0628_u064a_u0646_u0647_u0627 u0020 u0641_u0625_u0646_u0647_u0627 u0020 u062a_u0634_u0643_u0644 u0020 u0646_u0638_u0631_u064a_u0629 u0020 u0639_u0644_u0645_u064a_u0629_u0020", 
        "u0645_u062a_u0645_u0627_u0633_u0643_u0629_u0020"
    ]
}