{
    "bounding_box": [
        [
            82, 
            30, 
            565, 
            35
        ], 
        [
            59, 
            69, 
            588, 
            35
        ], 
        [
            47, 
            108, 
            599, 
            34
        ], 
        [
            102, 
            145, 
            545, 
            35
        ], 
        [
            38, 
            184, 
            609, 
            35
        ], 
        [
            54, 
            221, 
            593, 
            36
        ], 
        [
            507, 
            264, 
            139, 
            32
        ], 
        [
            71, 
            303, 
            576, 
            31
        ], 
        [
            69, 
            337, 
            578, 
            31
        ], 
        [
            33, 
            378, 
            614, 
            30
        ], 
        [
            83, 
            414, 
            564, 
            35
        ], 
        [
            412, 
            454, 
            235, 
            34
        ]
    ], 
    "image_height": 540, 
    "image_width": 720, 
    "transcription": [
        "u0648_u064a_u0631_u062a_u0628_u0648_u0646 u0020 u0627_u0644_u0635_u0631_u0641 u0020 u0645_u0646 u0020 u0623_u0645_u0648_u0627_u0644 u0020 u0627_u0644_u0645_u0635_u0627_u0644_u062d u0020 u0639_u0644_u064a u0020 u0627_u0644_u0646_u062d_u0648 u0020 u0627_u0644_u062a_u0627_u0644_u064a_u003a_u000d", 
        "u0645_u0646 u0020 u0627_u0644_u0645_u0646_u062f_u0648_u0628 u0020 u0623_u0646 u0020 u064a_u0628_u062f_u0627 u0020 u0641_u064a u0020 u0627_u0644_u0635_u0631_u0641 u0020 u0628_u0622_u0644_u0647 u0020 u0639_u0644_u064a_u0647 u0020 u0627_u0644_u0635_u0644_u0627_u0629 u0020 u0648_u0627_u0644_u0633_u0644_u0627_u0645_u0020", 
        "u0648_u064a_u0648_u0641_u0631 u0020 u0646_u0635_u064a_u0628_u0647_u0645 u0020 u0644_u0639_u062f_u0645 u0020 u062c_u0648_u0627_u0632 u0020 u0627_u0639_u0637_u0627_u0621 u0020 u0627_u0644_u0632_u0643_u0627_u0629 u0020 u0644_u0647_u0645_u002e u0020 u062b_u0645 u0020 u0645_u0646 u0020 u0627_u0644_u0648_u0627_u062c_u0628_u0020", 
        "u0623_u0646 u0020 u064a_u0628_u062f_u0627 u0020 u0628_u0627_u0644_u0635_u0631_u0641 u0020 u0639_u0644_u064a u0020 u0645_u0635_u0627_u0644_u062d u0020 u0645_u0646 u0020 u0641_u064a u0020 u0628_u0644_u062f_u0647_u0645 u0020 u0627_u0644_u062e_u0631_u0627_u062c u0020 u0623_u0648_u0020", 
        "u0627_u0644_u062e_u0645_u0633 u0020 u0623_u0648 u0020 u0627_u0644_u062c_u0632_u064a_u0629 u0020 u0020_u060c u0020 u0648_u064a_u0631_u0648_u0646 u0020 u0623_u0646_u0647 u0020 u0625_u0630_u0627 u0020 u0648_u062c_u062f u0020 u0627_u0644_u0623_u062d_u0648_u062c u0020 u0641_u064a u0020 u063a_u064a_u0631 u0020 u0628_u0644_u062f_u0020", 
        "u0627_u0644_u062e_u0631_u0627_u062c u0020 u0641_u0625_u0646_u0647 u0020 u064a_u0646_u0642_u0644 u0020 u0623_u0643_u062b_u0631 u0020 u0627_u0644_u062e_u0631_u0627_u062c u0020 u0627_u0644_u064a u0020 u0627_u0644_u0623_u062d_u0648_u062c u0020 u0648_u064a_u0628_u0642_u064a u0020 u0627_u0644_u0623_u0642_u0644 u0020 u0628_u0628_u0644_u062f_u0020", 
        "u0627_u0644_u062e_u0631_u0627_u062c_u002e_u0028_u0034_u0030_u0029_u000d", 
        "u0648_u0645_u0639_u064a_u0627_u0631 u0020 u0627_u0644_u0645_u0635_u0627_u0644_u062d u0020 u0639_u0646_u062f_u0647_u0645 u0020 u0647_u0648 u0020 u0645_u0627 u0020 u0639_u0627_u062f u0020 u0646_u0641_u0639_u0647 u0020 u0639_u0644_u064a u0020 u0627_u0644_u0645_u0633_u0644_u0645_u064a_u0646 u0020 u060c_u0020", 
        "u0648_u0645_u062b_u0644_u0648_u0627 u0020 u0644_u0647 u0020 u0628_u0628_u0646_u0627_u0621 u0020 u0648_u0635_u064a_u0627_u0646_u0629 u0020 u0633_u0627_u062c_u062f_u060c u0020 u0648_u0627_u0644_u0642_u0646_u0627_u0637_u0631_u060c u0020 u0648_u0639_u0645_u0627_u0631_u0629 u0020 u0627_u0644_u062b_u063a_u0648_u0631_u0020", 
        "u0648_u0627_u0644_u062a_u062c_u0647_u064a_u0632 u0020 u0644_u0644_u063a_u0632_u0648_u060c u0020 u0648_u0645_u0631_u062a_u0628_u0627_u062a u0020 u0627_u0644_u0642_u0636_u0627_u0629_u060c u0020 u0648_u0648_u0641_u0627_u0621 u0020 u062f_u064a_u0646 u0020 u0627_u0644_u0645_u0639_u0633_u0631 u0020 u0648_u0639_u0642_u0644_u0020", 
        "u062c_u0631_u0627_u062d_u0647_u060c u0020 u0648_u062a_u062c_u0647_u064a_u0632 u0020 u0645_u064a_u062a_u0647_u060c u0020 u0648_u0625_u0639_u0627_u0646_u0629 u0020 u0627_u0644_u062d_u0627_u062c_u060c u0020 u0648_u062a_u0632_u0648_u064a_u062c u0020 u0627_u0644_u0627_u0639_u0632_u0628_u060c_u0020", 
        "u0648_u0625_u0639_u0627_u0646_u0629 u0020 u0623_u0647_u0644 u0020 u0627_u0644_u0639_u0644_u0645_u0028_u0034_u0031_u0029_u002e_u000d"
    ]
}