{
    "bounding_box": [
        [
            67, 
            125, 
            580, 
            26
        ], 
        [
            597, 
            160, 
            50, 
            21
        ], 
        [
            72, 
            195, 
            575, 
            26
        ], 
        [
            106, 
            224, 
            541, 
            28
        ], 
        [
            36, 
            256, 
            611, 
            29
        ], 
        [
            74, 
            291, 
            573, 
            26
        ], 
        [
            581, 
            322, 
            66, 
            22
        ], 
        [
            52, 
            49, 
            614, 
            36
        ], 
        [
            689, 
            520, 
            12, 
            7
        ], 
        [
            475, 
            520, 
            47, 
            9
        ]
    ], 
    "image_height": 540, 
    "image_width": 720, 
    "transcription": [
        "u0641_u0631_u0627_u064a_u0646_u062f_u064a u0020 u0627_u0633_u062a u0020 u0643_u0647 u0020 u062f_u0631 u0020 u0632_u0645_u0627_u0646 u0020 u0622_u0645_u0627_u062f_u0647 u0020 u0633_u0627_u0632_u06cc u0020 u064a_u0643 u0020 u0641_u0639_u0627_u0644_u064a_u062a u0020 u0622_u0645_u0648_u0632_u0634_u064a u0020 u0637_u064a u0020 u0645_u064a_u0020", 
        "u0634_u0648_u062f_u002e_u000d", 
        "u0020_u0648_u062c_u0648_u062f u0020 u064a_u06a9 u0020 u0686_u0627_u0631_u0686_u0648_u0628 u0020 u0645_u0634_u062e_u0635 u0020 u0648 u0020 u0646_u0638_u0627_u0645 u0020 u0645_u0646_u062f u0020 u0628_u0631_u0627_u06cc u0020 u0628_u0631_u0627_u064a u0020 u200c_u062a_u0646_u0638_u064a_u0645 u0020 u0627_u0647_u062f_u0627_u0641_u0020", 
        "u064a_u0627_u062f_u06af_u064a_u0631_u064a_u060c u0020 u062a_u0647_u064a_u0647 u0020 u0645_u062d_u062a_u0648_u0627_u064a u0020 u0622_u0645_u0648_u0632_u0634_u064a u0020 u0648 u0020 u0627_u0646_u062a_u062e_u0627_u0628 u0020 u0631_u0648_u0634 u0020 u0647_u0627_u064a u0020 u0622_u0645_u0648_u0632_u0634_u064a_u0020", 
        "u0645_u0646_u0627_u0633_u0628_u060c u0020 u062a_u0635_u0645_u064a_u0645 u0020 u06af_u064a_u0631_u064a u0020 u062f_u0631 u0020 u0645_u0648_u0631_u062f u0020 u0622_u0646_u0686_u0647 u0020 u0643_u0647 u0020 u0642_u0631_u0627_u0631 u0020 u0627_u0633_u062a u0020 u062f_u0631 u0020 u0637_u06cc u0020 u064a_u06a9 u0020 u0641_u0639_u0627_u0644_u064a_u062a_u0020", 
        "u0622_u0645_u0648_u0632_u0634_u06cc u0020 u0628_u0647 u0020 u062f_u0633_u062a u0020 u0622_u064a_u062f u0020 u0648 u0020 u0646_u062d_u0648_u0647 u0020 u0628_u0647 u0020 u062f_u0633_u062a u0020 u0622_u0648_u0631_u062f_u0646 u0020 u0622_u0646 u0020 u0631_u0627 u0020 u0627_u0645_u06a9_u0627_u0646 u0020 u067e_u0630_u064a_u0631 u0020 u0645_u06cc_u0020", 
        "u0633_u0627_u0632_u062f_u002e u0020 u000d", 
        "u0637_u0631_u0627_u062d_u06cc u0020 u0622_u0645_u0648_u0632_u0634_u064a u0020 u0028_u0045_u0064_u0075_u0063_u0061_u0074_u0069_u006f_u006e_u0061_u006c u0020 u0050_u006c_u0061_u006e_u006e_u0069_u006e_u0067_u0029_u003a", 
        "u0031_u0038", 
        "u062f_u06a9_u062a_u0631 u0020 u0637_u0628_u0627_u0637_u0628_u0627_u06cc_u06cc"
    ]
}