{
    "bounding_box": [
        [
            345, 
            32, 
            316, 
            29
        ], 
        [
            168, 
            200, 
            518, 
            23
        ], 
        [
            381, 
            233, 
            237, 
            23
        ], 
        [
            484, 
            269, 
            135, 
            20
        ], 
        [
            370, 
            304, 
            249, 
            22
        ], 
        [
            55, 
            336, 
            563, 
            25
        ], 
        [
            71, 
            372, 
            547, 
            24
        ], 
        [
            383, 
            403, 
            235, 
            22
        ], 
        [
            508, 
            437, 
            178, 
            23
        ], 
        [
            342, 
            470, 
            344, 
            23
        ], 
        [
            64, 
            113, 
            584, 
            20
        ], 
        [
            55, 
            137, 
            602, 
            20
        ], 
        [
            192, 
            159, 
            335, 
            22
        ], 
        [
            692, 
            511, 
            14, 
            9
        ]
    ], 
    "image_height": 540, 
    "image_width": 720, 
    "transcription": [
        "u0625_u0639_u062f_u0627_u062f u0020 u062e_u0637_u0629 u0020 u0627_u0633_u062a_u0631_u0627_u062a_u064a_u062c_u064a_u0629 u0020 u0645_u062c_u0645_u0639_u0629_u0020", 
        "u062a_u0634_u0645_u0644 u0020 u0627_u0644_u062e_u0637_u0629 u0020 u0627_u0644_u0645_u062c_u0645_u0639_u0629 u0020 u062c_u0645_u064a_u0639 u0020 u0627_u0644_u062a_u0648_u062c_u0647_u0627_u062a u0020 u0627_u0644_u0627_u0633_u062a_u0631_u0627_u062a_u064a_u062c_u064a_u0629 u0020 u0648_u0631_u0628_u0637_u0647_u0627 u0020 u0628_u0645_u0627 u0020 u064a_u0644_u064a_u003a_u000d", 
        "u0623_u0647_u062f_u0627_u0641 u0020 u0648_u0645_u0624_u0634_u0631_u0627_u062a u0020 u0645_u062a_u0627_u0628_u0639_u0629 u0020 u0627_u0644_u0623_u062f_u0627_u0621_u000d", 
        "u0627_u0633_u062a_u0631_u0627_u062a_u064a_u062c_u064a_u0629 u0020 u0627_u0644_u062a_u0646_u0641_u064a_u0630_u000d", 
        "u062e_u0637_u0629 u0020 u0627_u0644_u062a_u0646_u0641_u064a_u0630 u0020 u0028_u062a_u0648_u0642_u064a_u062a u0020 u0648_u0627_u0644_u0645_u0633_u0624_u0648_u0644_u064a_u0629_u0029_u000d", 
        "u0627_u0644_u0645_u0648_u0627_u0631_u062f u0020 u0627_u0644_u0645_u0637_u0644_u0648_u0628_u0629 u0020 u0028_u0627_u0644_u0642_u0648_u0649 u0020 u0627_u0644_u0639_u0627_u0645_u0644_u0629 u0020 u0648_u0631_u0623_u0633 u0020 u0627_u0644_u0645_u0627_u0644_u0029 u0020 u0639_u0644_u0649 u0020 u0645_u062f_u0649 u0020 u0641_u062a_u0631_u0629 u0020 u0627_u0644_u062e_u0637_u0629 u0020 u0633_u0646_u0648_u064a_u0627_u064b_u000d", 
        "u0627_u0644_u0627_u0646_u0639_u0643_u0627_u0633_u0627_u062a u0020 u0627_u0644_u0645_u0627_u0644_u064a_u0629 u0020 u0627_u0644_u0634_u0627_u0645_u0644_u0629 u0020 u0639_u0644_u0649 u0020 u0645_u062f_u0649 u0020 u0641_u062a_u0631_u0629 u0020 u0627_u0644_u062e_u0637_u0629 u0020 u0028_u0635_u0627_u0641_u064a u0020 u0627_u0644_u062f_u062e_u0644_u060c u0020 u0648_u0627_u0644_u062a_u062f_u0641_u0642_u0020", 
        "u0627_u0644_u0646_u0642_u062f_u064a u0020 u0645_u0646 u0020 u0627_u0644_u0639_u0645_u0644_u064a_u0627_u062a u0020 u060c u0020 u0648_u063a_u064a_u0631_u0647_u0627_u0029_u000d", 
        "u0639_u0648_u0627_u0645_u0644 u0020 u0627_u0644_u0646_u062c_u0627_u062d u0020 u0627_u0644_u0631_u0626_u064a_u0633_u064a_u0629_u000d", 
        "u062a_u062d_u062f_u064a_u062f u0020 u0646_u0638_u0627_u0645 u0020 u0627_u0644_u062d_u0648_u0643_u0645_u0629 u0020 u0644_u062a_u0646_u0641_u064a_u0630 u0020 u0627_u0644_u062e_u0637_u0629 u0020 u0627_u0644_u0627_u0633_u062a_u0631_u0627_u062a_u064a_u062c_u064a_u0629", 
        "u0627_u0644_u0647_u062f_u0641 u0020 u0645_u0646 u0020 u0625_u0639_u062f_u0627_u062f u0020 u062e_u0637_u0629 u0020 u0645_u062c_u0645_u0639_u0629 u0020 u0644_u0644_u0645_u0624_u0633_u0633_u0629 u0020 u0647_u0648 u0020 u0645_u0633_u0627_u0639_u062f_u0629 u0020 u0627_u0644_u0625_u062f_u0627_u0631_u0629 u0020 u0627_u0644_u0639_u0644_u064a_u0627 u0020 u0641_u064a u0020 u0645_u0639_u0631_u0641_u0629 u0020 u0645_u0633_u062a_u0642_u0628_u0644 u0020 u0627_u0644_u0645_u0624_u0633_u0633_u0629_u060c_u0020", 
        "u0648_u0644_u0636_u0645_u0627_u0646 u0020 u0645_u0648_u0627_u0621_u0645_u0629 u0020 u0648_u062a_u0646_u0627_u0633_u0642 u0020 u0628_u064a_u0646 u0020 u062c_u0645_u064a_u0639 u0020 u0627_u0644_u0642_u0637_u0627_u0639_u0627_u062a u0020 u0627_u0644_u0645_u0624_u0633_u0633_u0629 u0020 u0627_u0644_u0645_u0631_u062a_u0628_u0637_u0629_u060c u0020 u0648_u0645_u0639_u0631_u0641_u0629 u0020 u0627_u0644_u0642_u062f_u0631_u0629 u0020 u0639_u0644_u0649 u0020 u062a_u062e_u0635_u064a_u0635_u0020", 
        "u0627_u0644_u0645_u0648_u0627_u0631_u062f u0020 u0628_u0643_u0641_u0627_u0621_u0629 u0020 u0648_u0628_u0635_u0648_u0631_u0629 u0020 u062a_u0633_u0647_u0644 u0020 u0639_u0645_u0644_u064a_u0629 u0020 u062a_u062d_u0642_u064a_u0642 u0020 u0627_u0644_u0623_u0648_u0644_u0648_u064a_u0627_u062a", 
        "u0031_u0039"
    ]
}