{
    "bounding_box": [
        [
            158, 
            78, 
            461, 
            42
        ], 
        [
            125, 
            274, 
            550, 
            29
        ], 
        [
            116, 
            308, 
            569, 
            31
        ]
    ], 
    "image_height": 595, 
    "image_width": 793, 
    "transcription": [
        "u062a_u0639_u0631_u064a_u0641 u0020 u0637_u064a_u0641 u0020 u0627_u0644_u0627_u0646_u0628_u0639_u0627_u062b u0020 u0627_u0644_u0630_u0631_u064a", 
        "u0647_u0648 u0020 u0639_u0628_u0627_u0631_u0629 u0020 u0639_u0646 u0020 u0645_u062c_u0645_u0648_u0639_u0647 u0020 u0645_u0646 u0020 u062a_u0631_u062f_u062f_u0627_u062a u0020 u0627_u0644_u0645_u0648_u062c_u0627_u062a_u0020", 
        "u0627_u0644_u0643_u0647_u0631_u0648_u0645_u063a_u0646_u0627_u0637_u064a_u0633_u064a_u0629 u0020 u0627_u0644_u0645_u0646_u0637_u0644_u0642_u0629 u0020 u0645_u0646 u0020 u0630_u0631_u0627_u062a u0020 u0627_u0644_u0639_u0646_u0635_u0631_u0020"
    ]
}