{
    "bounding_box": [
        [
            70, 
            148, 
            588, 
            16
        ], 
        [
            437, 
            169, 
            221, 
            15
        ], 
        [
            66, 
            233, 
            245, 
            15
        ], 
        [
            61, 
            63, 
            597, 
            16
        ], 
        [
            53, 
            82, 
            605, 
            17
        ], 
        [
            439, 
            106, 
            219, 
            16
        ], 
        [
            585, 
            14, 
            76, 
            14
        ], 
        [
            197, 
            301, 
            32, 
            15
        ], 
        [
            61, 
            327, 
            200, 
            18
        ], 
        [
            61, 
            407, 
            200, 
            17
        ], 
        [
            157, 
            381, 
            32, 
            15
        ], 
        [
            361, 
            237, 
            155, 
            17
        ], 
        [
            418, 
            211, 
            32, 
            15
        ], 
        [
            452, 
            211, 
            32, 
            15
        ], 
        [
            361, 
            322, 
            148, 
            17
        ], 
        [
            457, 
            296, 
            32, 
            15
        ], 
        [
            457, 
            351, 
            32, 
            17
        ]
    ], 
    "image_height": 540, 
    "image_width": 720, 
    "transcription": [
        "u0645_u062b_u0627_u0644_u003a u0020 u0644_u0644_u0635_u064a_u063a_u0629_u0043_u0036_u0048_u0031_u0034 u0020 u0020_u0645_u0645_u0643_u0646 u0020 u062a_u0643_u0648_u064a_u0646 u0020 u0035 u0020 u0635_u064a_u063a u0020 u0628_u0646_u0627_u0626_u064a_u0629 u0020 u0645_u062e_u062a_u0644_u0641_u0629_u060c u0020 u0648_u0643_u0644 u0020 u0648_u0627_u062d_u062f_u0629 u0020 u0645_u0646_u0647_u0627 u0020 u062a_u0645_u062b_u0644 u0020 u0645_u0631_u0643_u0628 u0020 u0645_u062e_u062a_u0644_u0641_u002e u0020 u0638_u0627_u0647_u0631_u0629_u0020", 
        "u0627_u0644_u0627_u064a_u0632_u0648_u0645_u064a_u0631_u064a_u0627 u0020 u0647_u0630_u0647 u0020 u062a_u0645_u064a_u0632 u0020 u0645_u0631_u0643_u0628_u0627_u062a u0020 u0627_u0644_u0643_u0631_u0628_u0648_u0646_u002e", 
        "u0031_u002e u0020 u0043_u0048_u0033_u002d_u0043_u0048_u0032_u002d_u0043_u0048_u0032_u002d_u0043_u0048_u0032_u002d_u0043_u0048_u0032_u002d_u0043_u0048_u0033", 
        "u0627_u064a_u0632_u0648_u0645_u064a_u0631_u0627_u062a u0020 u0647_u064a u0020 u0645_u0648_u0627_u062f u0020 u0644_u0647_u0627 u0020 u0635_u064a_u063a u0020 u062c_u0632_u0626_u064a_u0629 u0020 u0645_u062a_u0634_u0627_u0628_u0647_u0629_u060c u0020 u0644_u0643_u0646 u0020 u0645_u0628_u0646_u0649 u0020 u062c_u0632_u064a_u0626_u064a u0020 u0645_u062e_u062a_u0644_u0641_u002e u0020 u0627_u0644_u0627_u064a_u0632_u0648_u0645_u064a_u0631_u0627_u062a u0020 u0627_u0644_u0645_u062e_u062a_u0644_u0641_u0629 u0020 u062a_u0645_u062b_u0644 u0020 u0645_u0648_u0627_u062f_u0020", 
        "u0645_u062e_u062a_u0644_u0641_u0629_u060c u0020 u0644_u0643_u0646_u0647_u0627 u0020 u062a_u062e_u062a_u0644_u0641 u0020 u0639_u0646 u0020 u0628_u0639_u0636_u0647_u0627 u0020 u0627_u0644_u0628_u0639_u0636 u0020 u0628_u062a_u0631_u062a_u064a_u0628 u0020 u0627_u0644_u062a_u0631_u0627_u0628_u0637 u0020 u0628_u064a_u0646 u0020 u0627_u0644_u0630_u0631_u0627_u062a_u060c u0020 u0648_u0644_u0647_u0630_u0627 u0020 u062a_u062e_u062a_u0644_u0641 u0020 u0627_u064a_u0636_u0627 u0020 u0628_u062c_u0632_u0621 u0020 u0645_u0646 u0020 u0635_u0641_u0627_u062a_u0647_u0627_u002e_u0020", 
        "u0627_u0644_u0627_u064a_u0632_u0648_u0645_u064a_u0631_u0627_u062a u0020 u0627_u0644_u0645_u062e_u062a_u0644_u0641_u0629 u0020 u0647_u064a u0020 u0645_u0648_u0627_u062f u0020 u0645_u062e_u062a_u0644_u0641_u0629_u002e", 
        "u0627_u0644_u0627_u064a_u0632_u0648_u0645_u064a_u0631_u0627_u062a", 
        "u0043_u0048_u0033", 
        "u0032_u002e u0020 u0043_u0048_u0033_u002d_u0043_u0048_u0032_u002d_u0043_u0048_u0032_u002d_u0043_u0048_u002d_u0043_u0048_u0033", 
        "u0033_u002e u0020 u0043_u0048_u0033_u002d_u0043_u0048_u0032_u002d_u0043_u0048_u002d_u0043_u0048_u0032_u002d_u0043_u0048_u0033", 
        "u0043_u0048_u0033", 
        "u0034_u002e u0020 u0043_u0048_u0033_u002d_u0043_u0048_u002d_u0043_u0048_u002d_u0043_u0048_u0033", 
        "u0043_u0048_u0033", 
        "u0043_u0048_u0033", 
        "u0035_u002e u0020 u0043_u0048_u0033_u002d_u0043_u0048_u0032_u002d_u0043_u002d_u0043_u0048_u0033", 
        "u0043_u0048_u0033", 
        "u0043_u0048_u0033"
    ]
}