{
    "bounding_box": [
        [
            358, 
            40, 
            318, 
            33
        ], 
        [
            358, 
            79, 
            318, 
            30
        ], 
        [
            358, 
            113, 
            318, 
            33
        ], 
        [
            358, 
            153, 
            318, 
            35
        ], 
        [
            358, 
            194, 
            318, 
            33
        ], 
        [
            358, 
            228, 
            318, 
            37
        ], 
        [
            358, 
            268, 
            318, 
            35
        ], 
        [
            358, 
            305, 
            318, 
            37
        ], 
        [
            358, 
            344, 
            318, 
            36
        ], 
        [
            358, 
            384, 
            318, 
            33
        ], 
        [
            358, 
            421, 
            318, 
            36
        ], 
        [
            385, 
            458, 
            291, 
            37
        ]
    ], 
    "image_height": 540, 
    "image_width": 720, 
    "transcription": [
        "u0634_u0627_u0647_u062f_u064a_u0646 u0020 u0627_u062b_u0646_u064a_u0646_u003a u0020 u0020_u0645_u0631_u064a_u0645 u0020 u0627_u0644_u0639_u0630_u0631_u0627_u0621_u0020", 
        "u0627_u0644_u062a_u064a u0020 u0644_u0627 u0020 u062a_u0646_u0638_u0631 u0020 u0627_u0628_u0646_u0647_u0627 u0020 u0628_u0644 u0020 u062a_u0646_u0638_u0631_u0020", 
        "u0646_u062d_u0648_u0646_u0627 u0020 u0648_u0646_u062d_u0646 u0020 u0646_u062d_u062a_u0641_u0644 u0020 u0628_u0627_u0644_u0633_u0651_u0631_u0020", 
        "u0627_u0644_u0641_u0635_u062d_u064a_u0651 u0020 u0644_u0623_u0646_u0646_u0627 u0020 u062c_u0645_u064a_u0639_u0646_u0627 u0020 u0646_u0646_u0633_u062c_u0020", 
        "u062c_u0633_u062f u0020 u0627_u0644_u0645_u0633_u064a_u062d u0020 u0627_u0644_u0633_u0631_u0651_u064a u0020 u0028 u0020 u0627_u0644_u062e_u064a_u0637_u0020", 
        "u0627_u0644_u0623_u062d_u0645_u0631 u0020 u0627_u0644_u0630_u064a u0020 u064a_u062e_u0631_u062c u0020 u0645_u0646 u0020 u064a_u062f_u0647_u0627_u0020", 
        "u0646_u062d_u0648 u0020 u0627_u0644_u0645_u063a_u0632_u0644_u0029_u002e u0020 u064a_u0648_u062d_u0646_u0627 u0020 u0627_u0644_u062a_u0644_u0645_u064a_u0630_u0020", 
        "u0627_u0644_u0630_u064a u0020 u0631_u0623_u0649 u0020 u0648_u0622_u0645_u0646_u060c u0020 u064a_u0646_u0638_u0631 u0020 u064a_u0633_u0648_u0639_u0020", 
        "u0627_u0644_u0642_u0627_u0626_u0645 u0020 u0648_u064a_u0643_u062a_u0628 u0020 u0644_u0646_u0627 u0020 u0627_u062e_u062a_u0628_u0627_u0631_u0647_u0020", 
        "u0648_u0634_u0647_u0627_u062f_u062a_u0647_u002e u0020 u0022 u0020 u0647_u0630_u0627 u0020 u0647_u0648 u0020 u0627_u0628_u0646_u0643_u061b u0020 u0647_u0630_u0647_u0020", 
        "u0647_u064a u0020 u0623_u0645_u0643 u0020 u0022 u0020 u062a_u062f_u0651_u0644 u0020 u0639_u0644_u0649 u0020 u0627_u0644_u0639_u0644_u0627_u0642_u0629_u0020", 
        "u0627_u0644_u0623_u0633_u0631_u064a_u0629 u0020 u0627_u0644_u062c_u062f_u064a_u062f_u0629 u0020 u0641_u064a u0020 u0627_u0644_u0643_u0646_u064a_u0633_u0629_u002e"
    ]
}