{
    "bounding_box": [
        [
            55, 
            100, 
            635, 
            37
        ], 
        [
            92, 
            159, 
            598, 
            45
        ], 
        [
            414, 
            225, 
            276, 
            38
        ], 
        [
            73, 
            343, 
            617, 
            43
        ], 
        [
            31, 
            406, 
            659, 
            42
        ], 
        [
            662, 
            473, 
            28, 
            23
        ]
    ], 
    "image_height": 540, 
    "image_width": 720, 
    "transcription": [
        "uf03f u0020 u0020_u0623_u0644_u0627 u0020 u062a_u0643_u0634_u0641 u0020 u0647_u0630_u0647 u0020 u0627_u0644_u0627_u0633_u062a_u0631_u0627_u062a_u064a_u062c_u064a_u0629 u0020 u0627_u0644_u0623_u0645_u0631_u064a_u0643_u064a_u0629 u0020 u060c u0020 u0648_u0647_u0630_u0627_u0020", 
        "u0627_u0644_u062a_u062d_u0627_u0644_u0641 u0020 u0627_u0644_u062b_u0644_u0627_u062b_u064a u0020 u062c_u0627_u0646_u0628_u0627_u064b u0020 u0645_u0646 u0020 u062c_u0648_u0627_u0646_u0628 u0020 u062f_u0648_u0627_u0641_u0639 u0020 u0627_u0644_u062d_u0645_u0644_u0629_u0020", 
        "u0627_u0644_u0625_u0639_u0644_u0627_u0645_u064a_u0629 u0020 u0627_u0644_u0623_u0645_u0631_u064a_u0643_u064a_u0629 u0020 u061f_u000d", 
        "uf03f u0020 u0020_u0623_u0644_u064a_u0633_u062a u0020 u0647_u0630_u0647 u0020 u0627_u0644_u0627_u0633_u062a_u0631_u0627_u062a_u064a_u062c_u064a_u0629 u0020 u062a_u062a_u0639_u0631_u0636 u0020 u0645_u0639 u0020 u0631_u0633_u0627_u0644_u0629_u0020", 
        "u0627_u0644_u062d_u0642 u0020 u0648_u0627_u0644_u0639_u062f_u0644 u0020 u0648_u0627_u0644_u0633_u0644_u0627_u0645 u0020 u0644_u0644_u0645_u0624_u0633_u0633_u0627_u062a u0020 u0627_u0644_u062e_u064a_u0631_u064a_u0629 u0020 u0627_u0644_u0625_u0633_u0644_u0627_u0645_u064a_u0629_u0020", 
        "u061f_u061f"
    ]
}