{
    "bounding_box": [
        [
            52, 
            100, 
            54, 
            17
        ], 
        [
            52, 
            131, 
            452, 
            26
        ], 
        [
            60, 
            165, 
            475, 
            26
        ], 
        [
            52, 
            212, 
            590, 
            28
        ], 
        [
            49, 
            244, 
            593, 
            30
        ], 
        [
            103, 
            277, 
            539, 
            30
        ], 
        [
            52, 
            313, 
            590, 
            26
        ], 
        [
            62, 
            346, 
            580, 
            29
        ], 
        [
            68, 
            380, 
            574, 
            28
        ], 
        [
            51, 
            417, 
            591, 
            23
        ], 
        [
            83, 
            446, 
            559, 
            29
        ], 
        [
            537, 
            479, 
            105, 
            27
        ]
    ], 
    "image_height": 540, 
    "image_width": 720, 
    "transcription": [
        "u0044_u0041_u0046_u000b", 
        "u0028_u002e_u002e_u002e_u004e_u0061_u006d_u0065_u0064 u0020 u0070_u006c_u0061_u0063_u0065_u0029 u0020 u0044_u0065_u006c_u0069_u0076_u0065_u0072_u0065_u0064 u0020 u0041_u0074 u0020 u0046_u0072_u006f_u006e_u0074_u0069_u0065_u0072_u000b", 
        "u062a_u062d_u0648_u064a_u0644_u200c u0020 u0643_u0627_u0644_u0627 u0020 u062f_u0631 u0020 u0645_u0631_u0632 u0020 u0020_u0028_u002e_u002e_u002e_u0646_u0627_u0645_u200c u0020 u0645_u062d_u0644_u200c u0020 u062a_u0639_u064a_u064a_u0646_u200c u0020 u0634_u062f_u0647_u200c u0020 u062f_u0631 u0020 u0645_u0631_u0632_u0029_u00a0", 
        "u0627_u0635_u0637_u0644_u0627_u062d_u200c u0020 u00ab_u062a_u062d_u0648_u064a_u0644_u200c u0020 u0643_u0627_u0644_u0627 u0020 u062f_u0631 u0020 u0645_u0631_u0632_u00bb u0020 u0628_u062f_u064a_u0646_u200c u0020 u0645_u0639_u0646_u0627_u0633_u062a_u200c u0020 u0643_u0647_u200c u0020 u0641_u0631_u0648_u0634_u0646_u062f_u0647_u200c u0020 u062a_u062d_u0648_u064a_u0644_u200c_u0020", 
        "u0643_u0627_u0644_u0627 u0020 u0631_u0627 u0020 u0647_u0646_u06af_u0627_u0645_u064a_u200c u0020 u0628_u0647_u200c u0020 u0627_u0646_u062c_u0627_u0645_u200c u0020 u0645_u064a_u200c_u0631_u0633_u0627_u0646_u062f u0020 u0643_u0647_u200c u0020 u0622_u0646_u200c u0020 u0631_u0627 u0020 u067e_u0633_u200c u0020 u0627_u0632 u0020 u062a_u0631_u062e_u064a_u0635_u200c u0020 u0628_u0631_u0627_u064a_u200c_u0020", 
        "u0635_u062f_u0648_u0631_u060c u0020 u0648 u0020 u0646_u0647_u200c u0020 u0628_u0631_u0627_u064a_u200c u0020 u0648_u0631_u0648_u062f_u060c u0020 u0631_u0648_u064a_u200c u0020 u0648_u0633_u064a_u0644_u0647_u200c u0020 u0646_u0642_u0644_u064a_u0647_u200c u0020 u0622_u0648_u0631_u0646_u062f_u0647_u200c u0020 u0643_u0627_u0644_u0627_u060c u0020 u0628_u0647_u200c_u0020", 
        "u0635_u0648_u0631_u062a_u200c u0020 u062a_u062e_u0644_u064a_u0647_u200c u0020 u0646_u0634_u062f_u0647_u200c_u060c u0020 u062f_u0631 u0020 u0646_u0642_u0637_u0647_u200c u0020 u0648 u0020 u0645_u062d_u0644_u200c u0020 u062a_u0639_u064a_u064a_u0646_u200c u0020 u0634_u062f_u0647_u200c u0020 u062f_u0631 u0020 u0645_u0631_u0632 u0020 u0640 u0020 u0627_u0645_u0627 u0020 u0642_u0628_u0644_u200c_u0020", 
        "u0627_u0632 u0020 u0645_u0631_u0632 u0020 u06af_u0645_u0631_u0643_u064a_u200c u0020 u0643_u0634_u0648_u0631 u0020 u0645_u062c_u0627_u0648_u0631 u0020 u0640 u0020 u062f_u0631 u0020 u0627_u062e_u062a_u064a_u0627_u0631 u0020 u062e_u0631_u064a_u062f_u0627_u0631 u0020 u0642_u0631_u0627_u0631 u0020 u062f_u0647_u062f_u002e u0020 u0648_u0627_u0698_u0647_u200c_u0020", 
        "u00ab_u0645_u0631_u0632_u00bb u0020 u0645_u0645_u0643_u0646_u200c u0020 u0627_u0633_u062a_u200c u0020 u0628_u0631_u0627_u064a_u200c u0020 u0647_u0631 u0020 u0645_u0631_u0632_u064a_u200c_u060c u0020 u0627_u0632 u0020 u062c_u0645_u0644_u0647_u200c u0020 u0645_u0631_u0632 u0020 u0643_u0634_u0648_u0631 u0020 u0635_u0627_u062f_u0631_u0020", 
        "u0643_u0646_u0646_u062f_u0647_u200c u0020 u0628_u0647_u200c u0020 u0643_u0627_u0631 u0020 u0631_u0648_u062f_u002e u0020 u0628_u0646_u0627_u0628_u0631_u0627_u064a_u0646_u200c u0020 u062d_u0627_u0626_u0632 u0020 u0627_u0647_u0645_u064a_u062a_u200c u0020 u0628_u0633_u064a_u0627_u0631 u0020 u0627_u0633_u062a_u200c u0020 u0643_u0647_u200c u0020 u0645_u0631_u0632 u0020 u0645_u0648_u0631_u062f_u0020", 
        "u0646_u0638_u0631 u0020 u0647_u0645_u0648_u0627_u0631_u0647_u200c u0020 u0628_u0627 u0020 u0630_u0643_u0631 u0020 u0646_u0627_u0645_u200c u0020 u0646_u0642_u0637_u0647_u200c u0020 u0648 u0020 u0645_u062d_u0644_u200c u0020 u062f_u0631 u0020 u0627_u0635_u0637_u0644_u0627_u062d_u200c u0020 u0645_u0632_u0628_u0648_u0631_u060c u0020 u062f_u0642_u064a_u0642_u0627_u064b_u0020", 
        "u062a_u0639_u064a_u064a_u0646_u200c u0020 u06af_u0631_u062f_u062f_u002e"
    ]
}