{
    "bounding_box": [
        [
            28, 
            26, 
            657, 
            41
        ], 
        [
            23, 
            74, 
            675, 
            29
        ], 
        [
            439, 
            104, 
            237, 
            26
        ], 
        [
            377, 
            139, 
            321, 
            30
        ], 
        [
            15, 
            179, 
            682, 
            27
        ], 
        [
            226, 
            215, 
            472, 
            25
        ], 
        [
            306, 
            249, 
            392, 
            29
        ], 
        [
            78, 
            287, 
            598, 
            27
        ], 
        [
            411, 
            321, 
            286, 
            28
        ], 
        [
            230, 
            358, 
            446, 
            27
        ], 
        [
            268, 
            393, 
            430, 
            30
        ], 
        [
            76, 
            431, 
            621, 
            28
        ], 
        [
            354, 
            462, 
            322, 
            25
        ], 
        [
            21, 
            502, 
            15, 
            12
        ]
    ], 
    "image_height": 540, 
    "image_width": 720, 
    "transcription": [
        "u0020_u0645_u0639_u0648_u0642_u0627_u062a u0020 u0648_u0645_u0634_u0643_u0644_u0627_u062a u0020 u0627_u0644_u0628_u062d_u062b u0020 u0627_u0644_u0639_u0644_u0645_u064a u0020 u0641_u064a u0020 u0627_u0644_u0648_u0637_u0646 u0020 u0627_u0644_u0639_u0631_u0628_u064a_u000d", 
        "u0020 u0020 u0028_u0031_u0029 u0020 u063a_u064a_u0627_u0628 u0020 u0633_u064a_u0627_u0633_u0627_u062a u0020 u0648_u0627_u0633_u062a_u0631_u0627_u062a_u064a_u062c_u064a_u0627_u062a u0020 u0648_u0627_u0636_u062d_u0629 u0020 u0648_u062e_u0637_u0637 u0020 u0645_u0633_u062a_u0642_u0628_u0644_u064a_u0629 u0020 u0644_u0644_u0628_u062d_u062b u0020 u0627_u0644_u0639_u0644_u0645_u064a_u0020", 
        "u062a_u062d_u062f_u062f u0020 u0627_u0644_u0623_u0647_u062f_u0627_u0641 u0020 u0648_u0627_u0644_u0623_u0648_u0644_u0648_u064a_u0627_u062a u0020 u000d", 
        "u0020 u0020 u0028_u0032_u0029 u0020 u0642_u0644_u0629 u0020 u0648_u062c_u0648_u062f u0020 u0627_u0644_u0625_u0645_u0643_u0627_u0646_u064a_u0627_u062a u0020 u0627_u0644_u0628_u062d_u062b_u064a_u0629 u0020 u000d", 
        "u002d u0020 u0639_u062f_u0645 u0020 u0648_u062c_u0648_u062f u0020 u0642_u0627_u0639_u062f_u0629 u0020 u0628_u064a_u0627_u0646_u0627_u062a u0020 u0648_u0627_u0636_u062d_u0629 u0020 u0648_u062c_u0627_u062f_u0629 u0020 u0644_u0644_u0625_u0645_u0643_u0627_u0646_u064a_u0627_u062a u0020 u0627_u0644_u0628_u062d_u062b_u064a_u0629 u0020 u0627_u0644_u0628_u0634_u0631_u064a_u0629 u0020 u0648_u0627_u0644_u0645_u0627_u062f_u064a_u0629 u0020 u000d", 
        "u002d u0020 u0627_u0641_u062a_u0642_u0627_u062f u0020 u0627_u0644_u062a_u0639_u0627_u0648_u0646 u0020 u0627_u0644_u062c_u0627_u062f u0020 u0628_u064a_u0646 u0020 u0627_u0644_u0645_u0624_u0633_u0633_u0627_u062a u0020 u0627_u0644_u0628_u062d_u062b_u064a_u0629 u0020 u0627_u0644_u0645_u062e_u062a_u0644_u0641_u0629_u002e_u000d", 
        "u0020 u0020 u0028_u0033_u0029 u0020 u0639_u062f_u0645 u0020 u062a_u0648_u0641_u0631 u0020 u0627_u0644_u0648_u0642_u062a u0020 u0627_u0644_u0644_u0627_u0632_u0645 u0020 u0644_u0644_u0628_u062d_u062b u0020 u0627_u0644_u0639_u0644_u0645_u0649_u000d", 
        "u0627_u0646_u0634_u063a_u0627_u0644 u0020 u0627_u0644_u0628_u0627_u062d_u062b_u064a_u0646 u0020 u0628_u0627_u0644_u0645_u0634_u0627_u0643_u0644 u0020 u0627_u0644_u0625_u062f_u0627_u0631_u064a_u0629 u0020 u0627_u0644_u0645_u062e_u062a_u0644_u0641_u0629 u0020 u0648_u0627_u0644_u0645_u0627_u062f_u064a_u0629 u0020 u0627_u0644_u062e_u0627_u0635_u0629 u0020 u0628_u0639_u0645_u0644_u0647_u0645_u002e_u000d", 
        "u0020 u0020 u0028_u0034_u0029 u0020 u0639_u062f_u0645 u0020 u0648_u062c_u0648_u062f u0020 u062c_u0647_u0627_u062a u0020 u0645_u0645_u0648_u0644_u0629 u0020 u000d", 
        "u0627_u0639_u062a_u0645_u0627_u062f u0020 u0627_u0644_u0628_u0627_u062d_u062b_u064a_u0646 u0020 u0628_u0634_u0643_u0644 u0020 u0643_u0628_u064a_u0631 u0020 u0639_u0644_u0649 u0020 u0627_u0644_u062a_u0645_u0648_u064a_u0644 u0020 u0627_u0644_u062d_u0643_u0648_u0645_u0649 u0020 u000d", 
        "u0020 u0020 u0028_u0035_u0029 u0020 u0639_u062f_u0645 u0020 u0627_u0633_u062a_u0641_u0627_u062f_u0629 u0020 u0627_u0644_u0645_u062c_u062a_u0645_u0639 u0020 u0645_u0646 u0020 u0627_u0644_u0623_u0628_u062d_u0627_u062b u0020 u0627_u0644_u0639_u0644_u0645_u064a_u0629_u000d", 
        "u002d u0020 u0627_u0644_u0627_u0641_u062a_u0642_u0627_u0631 u0020 u0625_u0644_u0649 u0020 u0627_u0644_u062a_u0646_u0633_u064a_u0642 u0020 u0648_u0627_u0644_u062a_u0639_u0627_u0648_u0646 u0020 u0627_u0644_u0645_u062b_u0645_u0631 u0020 u0648_u0627_u0644_u062d_u0642_u064a_u0642_u0649 u0020 u0628_u064a_u0646 u0020 u0645_u0624_u0633_u0633_u0627_u062a u0020 u0627_u0644_u0645_u062c_u062a_u0645_u0639_u0020", 
        "u0627_u0644_u0645_u062f_u0646_u0649 u0020 u0648_u0627_u0644_u0645_u0624_u0633_u0633_u0627_u062a u0020 u0627_u0644_u0628_u062d_u062b_u064a_u0629 u0020 u0627_u0644_u0645_u062e_u062a_u0644_u0641_u0629_u002e_u000d", 
        "u0037_u0031"
    ]
}