{
    "bounding_box": [
        [
            422, 
            159, 
            270, 
            49
        ], 
        [
            61, 
            218, 
            627, 
            50
        ], 
        [
            36, 
            272, 
            646, 
            27
        ], 
        [
            56, 
            304, 
            626, 
            27
        ], 
        [
            69, 
            332, 
            613, 
            30
        ], 
        [
            35, 
            366, 
            646, 
            27
        ], 
        [
            439, 
            394, 
            250, 
            30
        ]
    ], 
    "image_height": 540, 
    "image_width": 720, 
    "transcription": [
        "u0648_u0641_u064a u0020 u0627_u0644_u062e_u062a_u0627_u0645 u0020 u0646_u0630_u0643_u0631 u0020 u000d", 
        "u0642_u0648_u0644 u0020 u0647_u0640 u0020 u002e u0020 u062c_u002e u0020 u0648_u0644_u0632 u0020 u0641_u064a u0020 u0643_u062a_u0627_u0628 u0020 u0645_u0648_u062c_u0632 u0020 u0627_u0644_u062a_u0627_u0631_u064a_u062e u0020 u000d", 
        "u062d_u0648_u0644 u0020 u062a_u062c_u0631_u0628_u0629 u0020 u0628_u0646_u064a u0020 u0625_u0633_u0631_u0627_u0626_u064a_u0644 u0020 u0641_u064a u0020 u0641_u0644_u0633_u0637_u064a_u0646 u0020 u0628_u0639_u062f u0020 u0627_u0644_u0633_u0628_u064a u0020 u0627_u0644_u0628_u0627_u0628_u0644_u064a u0020 u0028_u0643_u0627_u0646_u062a u0020 u062d_u064a_u0627_u0629 u0020 u0627_u0644_u0639_u0628_u0631_u0627_u0646_u064a_u064a_u0646_u0020", 
        "u0641_u064a u0020 u0641_u0644_u0633_u0637_u064a_u0646 u0020 u062a_u0634_u0628_u0647 u0020 u062d_u064a_u0627_u0629 u0020 u0631_u062c_u0644 u0020 u064a_u0635_u0631 u0020 u0639_u0644_u0649 u0020 u0627_u0644_u0625_u0642_u0627_u0645_u0629 u0020 u0648_u0633_u0637 u0020 u0637_u0631_u064a_u0642 u0020 u0645_u0632_u062f_u062d_u0645 u0020 u0641_u062a_u062f_u0648_u0633_u0647 u0020 u0020", 
        "u0627_u0644_u062d_u0627_u0641_u0644_u0627_u062a u0020 u0648_u0627_u0644_u0634_u0627_u062d_u0646_u0627_u062a u0020 u0628_u0627_u0633_u062a_u0645_u0631_u0627_u0631 u0020 u002e_u002e_u002e u0020 u0648_u0645_u0646 u0020 u0627_u0644_u0623_u0648_u0644 u0020 u0625_u0644_u0649 u0020 u0627_u0644_u0622_u062e_u0631 u0020 u0644_u0645 u0020 u062a_u0643_u0646 u0020 u0028_u0645_u0645_u0644_u0643_u062a_u0647_u0645_u0029_u0020", 
        "u0633_u0648_u0649 u0020 u062d_u0627_u062f_u062b u0020 u0637_u0627_u0631_u0626 u0020 u0641_u064a u0020 u062a_u0627_u0631_u064a_u062e u0020 u0645_u0635_u0631 u0020 u0648_u0633_u0648_u0631_u064a_u0627 u0020 u0648_u0622_u0634_u0648_u0631 u0020 u0648_u0641_u064a_u0646_u064a_u0642_u064a_u0629 u0020 u0630_u0644_u0643 u0020 u0627_u0644_u062a_u0627_u0631_u064a_u062e u0020 u0627_u0644_u0630_u064a_u0020", 
        "u0647_u0648 u0020 u0623_u0643_u0628_u0631 u0020 u0648_u0623_u0639_u0638_u0645 u0020 u0645_u0646 u0020 u062a_u0627_u0631_u064a_u062e_u0645_u002e_u0029 u0020 u000d"
    ]
}