{
    "bounding_box": [
        [
            17, 
            39, 
            657, 
            50
        ], 
        [
            17, 
            97, 
            665, 
            44
        ], 
        [
            17, 
            154, 
            665, 
            51
        ], 
        [
            17, 
            212, 
            665, 
            50
        ], 
        [
            17, 
            270, 
            665, 
            46
        ], 
        [
            17, 
            327, 
            665, 
            50
        ], 
        [
            17, 
            390, 
            665, 
            46
        ], 
        [
            282, 
            438, 
            400, 
            52
        ]
    ], 
    "image_height": 540, 
    "image_width": 720, 
    "transcription": [
        "u0648_u0633_u062a_u062a_u0636_u0645_u0646 u0020 u062d_u0645_u0644_u0629 u0020 u0627_u0644_u0623_u0631_u062f_u0646 u0020 u0623_u062d_u0644_u0649 u0020 u0032_u0031 u0020 u0628_u0631_u0646_u0627_u0645_u062c_u0627_u0020", 
        "u0645_u062a_u0646_u0648_u0639_u0627 u0020 u0628_u064a_u0646 u0020 u0633_u064a_u0627_u062d_u0629 u0020 u0628_u064a_u0626_u064a_u0629 u0020 u0648_u0623_u062b_u0631_u064a_u0629 u0020 u0648_u0628_u062d_u0631_u064a_u0629_u060c_u0020", 
        "u0648_u0633_u062a_u0643_u0648_u0646 u0020 u0623_u0633_u0639_u0627_u0631 u0020 u0627_u0644_u0631_u062d_u0644_u0627_u062a u0020 u0645_u063a_u0631_u064a_u0629 u0020 u0648_u062a_u0631_u0627_u0639_u064a_u0020", 
        "u0630_u0648_u064a u0020 u0627_u0644_u062f_u062e_u0644 u0020 u0627_u0644_u0645_u062d_u062f_u0648_u062f u0020 u0648_u062a_u0646_u0627_u0633_u0628 u0020 u0627_u0644_u0641_u0626_u0627_u062a_u0020", 
        "u0627_u0644_u0645_u0633_u062a_u0647_u062f_u0641_u0629 u0020 u0645_u0646 u0020 u0627_u0644_u062d_u0645_u0644_u0629 u0020 u0643_u0627_u0641_u0629 u0020 u0645_u0646 u0020 u0637_u0644_u0627_u0628_u0020", 
        "u0627_u0644_u0645_u062f_u0627_u0631_u0633 u0020 u0648_u0627_u0644_u062c_u0627_u0645_u0639_u0627_u062a_u060c u0020 u0628_u0627_u0644_u0625_u0636_u0627_u0641_u0629 u0020 u0625_u0644_u0649_u0020", 
        "u0627_u0644_u0639_u0627_u0626_u0644_u0627_u062a_u060c u0020 u062d_u064a_u062b u0020 u0633_u062a_u062a_u0631_u0627_u0648_u062d u0020 u0628_u064a_u0646 u0020 u0039_u0648_u0033_u0030_u0020", 
        "u062f_u064a_u0646_u0627_u0631_u0627_u060c u0020 u0648_u0641_u0642_u0627 u0020 u0644_u0646_u0648_u0639 u0020 u0627_u0644_u0631_u062d_u0644_u0629_u002e_u0020"
    ]
}