{
    "bounding_box": [
        [
            558, 
            61, 
            327, 
            43
        ], 
        [
            63, 
            148, 
            805, 
            34
        ], 
        [
            774, 
            191, 
            94, 
            30
        ]
    ], 
    "image_height": 540, 
    "image_width": 960, 
    "transcription": [
        "u0028_u0033_u0029 u0020 u0627_u0644_u0627_u062f_u062e_u0627_u0644 u0020 u0648 u0020 u0627_u0644_u062a_u0639_u0631_u064a_u0628_u0020", 
        "u0627_u0644_u062a_u0639_u0631_u064a_u0628 u0020 u0647_u0648 u0020 u0627_u0644_u062d_u0627_u0642 u0020 u0627_u0644_u0623_u0644_u0641_u0627_u0638 u0020 u0627_u0644_u0645_u0623_u062e_u0648_u0630_u0629 u0020 u0645_u0646 u0020 u0627_u0644_u0644_u063a_u0627_u062a u0020 u0627_u0644_u0623_u062e_u0631_u0649 u0020 u0628_u0623_u0628_u0646_u064a_u0629 u0020 u0643_u0644_u0645_u0627_u062a_u0020", 
        "u0645_u0639_u0631_u0648_u0641_u0629_u0020"
    ]
}