{
    "bounding_box": [
        [
            46, 
            23, 
            649, 
            48
        ], 
        [
            578, 
            79, 
            117, 
            48
        ], 
        [
            125, 
            164, 
            523, 
            49
        ], 
        [
            58, 
            227, 
            596, 
            49
        ]
    ], 
    "image_height": 540, 
    "image_width": 720, 
    "transcription": [
        "u0643_u0645 u0020 u0639_u062f_u062f u0020 u062e_u0644_u0641_u0627_u0621 u0020 u0628_u0646 u0020 u0623_u0645_u064a_u0629 u0020 u061f_u0648_u0643_u0645 u0020 u0627_u0633_u062a_u0645_u0631_u062a u0020 u0627_u0644_u062e_u0644_u0627_u0641_u0629_u0020", 
        "u0627_u0644_u0623_u0645_u0648_u064a_u0629_u061f", 
        "u0639_u062f_u062f u0020 u062e_u0644_u0641_u0627_u0621 u0020 u0628_u0646 u0020 u0623_u0645_u064a_u0629 u0020 u0031_u0034 u0020 u062e_u0644_u064a_u0641_u0629_u0020", 
        "u0648_u0627_u0633_u062a_u0645_u0631_u062a u0020 u0627_u0644_u062e_u0644_u0627_u0641_u0629 u0020 u0627_u0644_u0623_u0645_u0648_u064a_u0629 u0020 u0039_u0031_u0633_u0646_u0629_u0020"
    ]
}