{
    "bounding_box": [
        [
            101, 
            117, 
            556, 
            37
        ], 
        [
            79, 
            160, 
            591, 
            37
        ], 
        [
            579, 
            203, 
            90, 
            31
        ], 
        [
            52, 
            247, 
            605, 
            37
        ], 
        [
            57, 
            289, 
            612, 
            38
        ], 
        [
            31, 
            332, 
            639, 
            38
        ], 
        [
            91, 
            375, 
            579, 
            38
        ], 
        [
            364, 
            419, 
            306, 
            38
        ], 
        [
            286, 
            27, 
            139, 
            37
        ]
    ], 
    "image_height": 540, 
    "image_width": 720, 
    "transcription": [
        "u0627_u0644_u0646_u0638_u0627_u0645 u0020 u0627_u0644_u0625_u0639_u0644_u0627_u0645_u064a u0020 u0627_u0644_u0642_u0648_u064a u0020 u0648_u0627_u0644_u0641_u0639_u0651_u0627_u0644 u0020 u064a_u0633_u0627_u0647_u0645 u0020 u0641_u064a u0020 u062a_u0631_u0634_u064a_u062f_u0020", 
        "u0627_u0644_u0645_u062c_u062a_u0645_u0639 u0020 u0641_u064a u0020 u0645_u062e_u062a_u0644_u0641 u0020 u0627_u0644_u0645_u062c_u0627_u0644_u0627_u062a u0020 u0648_u062a_u0648_u062c_u064a_u0647_u0647 u0020 u0646_u062d_u0648 u0020 u062a_u062d_u0642_u064a_u0642_u0020", 
        "u0623_u0647_u062f_u0627_u0641_u0647_u002e_u000d", 
        "u0627_u0644_u0625_u0639_u0644_u0627_u0645 u0020 u064a_u0624_u062b_u0631 u0020 u0648_u064a_u062a_u0623_u062b_u0631 u0020 u0628_u0645_u062d_u064a_u0637_u0647 u0020 u0641_u0641_u064a u0020 u0628_u0639_u0636 u0020 u0627_u0644_u0623_u062d_u064a_u0627_u0646 u0020 u0646_u062c_u062f_u0647_u0020", 
        "u0641_u0627_u0639_u0644 u0020 u0648_u0641_u064a u0020 u0623_u062d_u064a_u0627_u0646 u0020 u0623_u062e_u0631_u0649 u0020 u062a_u0627_u0628_u0639 u0020 u0648_u0641_u064a u0020 u0638_u0631_u0648_u0641 u0020 u0623_u062e_u0631_u0649 u0020 u0646_u062c_u062f_u0647_u0020", 
        "u064a_u0644_u0639_u0628 u0020 u0627_u0644_u0623_u062f_u0648_u0627_u0631 u0020 u0627_u0644_u0623_u0648_u0644_u0649 u0020 u0641_u064a u0020 u062a_u062d_u062f_u064a_u062f u0020 u0627_u0644_u0623_u062c_u0646_u062f_u0629 u0020 u0648_u0627_u0644_u0623_u0648_u0644_u0648_u064a_u0627_u062a_u060c u0020 u0648_u0641_u064a_u0020", 
        "u0627_u0644_u062a_u0631_u0643_u064a_u0632 u0020 u0639_u0644_u0649 u0020 u0645_u0648_u0627_u0636_u064a_u0639 u0020 u062f_u0648_u0646 u0020 u0623_u062e_u0631_u0649 u0020 u0648_u0647_u0630_u0627 u0020 u0633_u0648_u0627_u0621 u0020 u0639_u0644_u0649_u0020", 
        "u0627_u0644_u0635_u0639_u064a_u062f u0020 u0627_u0644_u0645_u062d_u0644_u064a u0020 u0623_u0648 u0020 u0627_u0644_u062f_u0648_u0644_u064a_u002e_u0020", 
        "u0627_u0644_u0645_u0642_u062f_u0645_u0629_u000d"
    ]
}