{
    "bounding_box": [
        [
            205, 
            185, 
            309, 
            50
        ]
    ], 
    "image_height": 540, 
    "image_width": 720, 
    "transcription": [
        "u0645_u062f_u062e_u0644 u0020 u0627_u0644_u0639_u0635_u0631 u0020 u0627_u0644_u0631_u0627_u0634_u062f_u064a"
    ]
}