{
    "bounding_box": [
        [
            380, 
            27, 
            278, 
            26
        ], 
        [
            54, 
            74, 
            638, 
            24
        ], 
        [
            48, 
            103, 
            643, 
            24
        ], 
        [
            72, 
            138, 
            620, 
            25
        ], 
        [
            69, 
            168, 
            622, 
            24
        ], 
        [
            282, 
            196, 
            409, 
            25
        ], 
        [
            109, 
            233, 
            583, 
            24
        ], 
        [
            66, 
            263, 
            625, 
            22
        ], 
        [
            37, 
            293, 
            654, 
            24
        ], 
        [
            75, 
            320, 
            616, 
            27
        ], 
        [
            82, 
            353, 
            609, 
            24
        ], 
        [
            551, 
            381, 
            140, 
            24
        ]
    ], 
    "image_height": 540, 
    "image_width": 720, 
    "transcription": [
        "u0645_u0627 u0020 u0627_u0644_u0645_u0642_u0635_u0648_u062f u0020 u0628_u0627_u0644_u0639_u0645_u064a_u0644 u0020 u0020_u0043_u006c_u0069_u0065_u006e_u0074_u061f", 
        "u0639_u0646_u062f u0020 u0627_u062a_u0635_u0627_u0644 u0020 u062c_u0647_u0627_u0632_u064a u0020 u0643_u0645_u0628_u064a_u0648_u062a_u0631 u0020 u0639_u0628_u0631 u0020 u0634_u0628_u0643_u0629 u0020 u0028_u0639_u0644_u0649 u0020 u0633_u0628_u064a_u0644 u0020 u0627_u0644_u0645_u062b_u0627_u0644_u060c u0020 u0627_u0644_u0648_u0635_u0648_u0644 u0020 u0625_u0644_u0649 u0020 u0635_u0641_u062d_u0627_u062a_u0020", 
        "u0627_u0644_u0648_u064a_u0628 u0020 u0639_u0628_u0631 u0020 u0627_u0644_u0625_u0646_u062a_u0631_u0646_u062a_u0029_u060c u0020 u0641_u0625_u0646_u0647_u0627 u0020 u063a_u0627_u0644_u0628_u0627 u0020 u062a_u062a_u0628_u0639 u0020 u0646_u0645_u0648_u0630_u062c u0020 u0627_u0644_u0639_u0645_u064a_u0644_u002f_u0063_u006c_u0069_u0065_u006e_u0074 u0020 u0020_u0627_u0644_u062e_u0627_u062f_u0645_u0073_u0065_u0072_u0076_u0065_u0072 u0020 u002e_u000d", 
        "u064a_u0645_u0643_u0646 u0020 u0627_u0639_u062a_u0628_u0627_u0631 u0020 u0627_u0644_u062c_u0647_u0627_u0632 u0020 u0627_u0644_u0630_u064a u0020 u064a_u062a_u0635_u0644 u0020 u0628_u062c_u0647_u0627_u0632 u0020 u0622_u062e_u0631 u0020 u0648_u064a_u0637_u0644_u0628 u0020 u062a_u0628_u0627_u062f_u0644 u0020 u0645_u0639_u0644_u0648_u0645_u0627_u062a u0020 u0645_u0646 u0020 u0646_u0648_u0639 u0020 u0645_u0627_u0020", 
        "u0639_u0644_u0649 u0020 u0623_u0646_u0647 u0020 u0627_u0644_u0639_u0645_u064a_u0644_u002e u0020 u0639_u0644_u0649 u0020 u0633_u0628_u064a_u0644 u0020 u0627_u0644_u0645_u062b_u0627_u0644_u060c u0020 u064a_u0639_u062a_u0628_u0631 u0020 u0627_u0644_u0643_u0645_u0628_u064a_u0648_u062a_u0631 u0020 u0627_u0644_u0630_u064a u0020 u064a_u0637_u0644_u0628 u0020 u0635_u0641_u062d_u0629 u0020 u0648_u064a_u0628 u0020 u0645_u0646_u0020", 
        "u062e_u0627_u062f_u0645 u0020 u0648_u064a_u0628 u0020 u0639_u0644_u0649 u0020 u0623_u0646_u0647 u0020 u0627_u0644_u0639_u0645_u064a_u0644 u0020 u0641_u064a u0020 u0646_u0645_u0648_u0630_u062c u0020 u0627_u0644_u0639_u0645_u064a_u0644 u0020 u0627_u0644_u062e_u0627_u062f_u0645_u002e_u000d", 
        "u0648_u0645_u0639 u0020 u0630_u0644_u0643_u060c u0020 u064a_u0645_u0643_u0646 u0020 u062a_u0637_u0628_u064a_u0642 u0020 u0645_u0635_u0637_u0644_u062d u0020 u0627_u0644_u0639_u0645_u064a_u0644 u0020 u0639_u0644_u0649 u0020 u062a_u0637_u0628_u064a_u0642 u0020 u0645_u0639_u064a_u0646 u0020 u064a_u0639_u0645_u0644 u0020 u0639_u0644_u0649 u0020 u062c_u0647_u0627_u0632_u0020", 
        "u0627_u0644_u0643_u0645_u0628_u064a_u0648_u062a_u0631_u002e u0020 u0639_u0644_u0649 u0020 u0633_u0628_u064a_u0644 u0020 u0627_u0644_u0645_u062b_u0627_u0644_u060c u0020 u0639_u0646_u062f_u0645_u0627 u0020 u064a_u0633_u062a_u0639_u0631_u0636 u0020 u0627_u0644_u0645_u0633_u062a_u062e_u062f_u0645 u0020 u0635_u0641_u062d_u0629 u0020 u0648_u064a_u0628 u0020 u0639_u0646 u0020 u0637_u0631_u064a_u0642_u0020", 
        "u0627_u0644_u0645_u062a_u0635_u0641_u062d_u060c u0020 u064a_u0645_u0643_u0646 u0020 u0627_u0639_u062a_u0628_u0627_u0631 u0020 u062a_u0637_u0628_u064a_u0642 u0020 u0645_u062a_u0635_u0641_u062d u0020 u0627_u0644_u0648_u064a_u0628 u0020 u0639_u0644_u0649 u0020 u062c_u0647_u0627_u0632 u0020 u0643_u0645_u0628_u064a_u0648_u062a_u0631 u0020 u0627_u0644_u0645_u0633_u062a_u062e_u062f_u0645 u0020 u0639_u0644_u0649 u0020 u0627_u0646_u0647_u0020", 
        "u0639_u0645_u064a_u0644 u0020 u0643_u0630_u0644_u0643_u002e u0020 u0648_u0647_u0630_u0627 u0020 u064a_u0639_u0646_u064a u0020 u0623_u0646_u0647 u0020 u0645_u0646 u0020 u0627_u0644_u0645_u0645_u0643_u0646 u0020 u0648_u062c_u0648_u062f u0020 u0639_u062f_u0629 u0020 u062a_u0637_u0628_u064a_u0642_u0627_u062a u0020 u0639_u0645_u064a_u0644 u0020 u062a_u0639_u0645_u0644 u0020 u062c_u0645_u064a_u0639_u0647_u0627_u0020", 
        "u0639_u0644_u0649 u0020 u062c_u0647_u0627_u0632 u0020 u0627_u0644_u0643_u0645_u0628_u064a_u0648_u062a_u0631 u0020 u0630_u0627_u062a_u0647_u060c u0020 u0645_u062b_u0644 u0020 u0645_u062a_u0635_u0641_u062d u0020 u0627_u0644_u0625_u0646_u062a_u0631_u0646_u062a u0020 u0648_u062a_u0637_u0628_u064a_u0642 u0020 u0646_u0642_u0644 u0020 u0627_u0644_u0645_u0644_u0641_u0627_u062a u0020 u0648_u062a_u0637_u0628_u064a_u0642_u0020", 
        "u0627_u0644_u0628_u0631_u064a_u062f u0020 u0627_u0644_u0625_u0644_u0643_u062a_u0631_u0648_u0646_u064a_u002e"
    ]
}