{
    "bounding_box": [
        [
            227, 
            96, 
            354, 
            44
        ], 
        [
            117, 
            177, 
            562, 
            39
        ], 
        [
            118, 
            218, 
            560, 
            38
        ], 
        [
            140, 
            258, 
            514, 
            38
        ], 
        [
            317, 
            301, 
            170, 
            33
        ]
    ], 
    "image_height": 540, 
    "image_width": 720, 
    "transcription": [
        "u0625_u0630_u0646 u0020 u062a_u0643_u0648_u0646 u0020 u0646_u0638_u0631_u064a_u0627_u062a u0020 u0627_u0644_u062a_u0639_u0644_u0645 u0020 u003a", 
        "u0647_u064a u0020 u0020_u0639_u0645_u0644_u064a_u0627_u062a u0020 u0020_u0646_u0641_u0633 u0020 u062a_u0631_u0628_u0648_u064a_u0629 u0020 u062a_u062a_u0645 u0020 u0628_u062a_u0641_u0627_u0639_u0644 u0020 u0627_u0644_u0641_u0631_u062f u0020 u0645_u0639_u0020", 
        "u0627_u0644_u0628_u064a_u0626_u0629 u0020 u0648_u064a_u0646_u062a_u062c u0020 u0639_u0646 u0020 u0627_u0644_u062a_u0641_u0627_u0639_u0644 u0020 u0020_u0632_u064a_u0627_u062f_u0629 u0020 u0641_u0649 u0020 u0627_u0644_u0645_u0639_u0627_u0631_u0641 u0020 u0623_u0648_u0020", 
        "u0627_u0644_u0645_u064a_u0648_u0644 u0020 u0623_u0648 u0020 u0627_u0644_u0642_u064a_u0645 u0020 u0623_u0648 u0020 u0627_u0644_u0645_u0647_u0627_u0631_u0627_u062a u0020 u0020_u0627_u0644_u0633_u0644_u0648_u0643_u064a_u0629 u0020 u0627_u0644_u062a_u0649_u0020", 
        "u064a_u0645_u062a_u0644_u0643_u0647_u0627 u0020 u0020_u0627_u0644_u0641_u0631_u062f_u002c"
    ]
}