{
    "bounding_box": [
        [
            670, 
            516, 
            6, 
            1
        ], 
        [
            503, 
            23, 
            173, 
            38
        ], 
        [
            52, 
            98, 
            620, 
            42
        ], 
        [
            429, 
            149, 
            242, 
            39
        ], 
        [
            456, 
            239, 
            231, 
            37
        ], 
        [
            28, 
            337, 
            676, 
            41
        ], 
        [
            429, 
            383, 
            275, 
            43
        ]
    ], 
    "image_height": 540, 
    "image_width": 720, 
    "transcription": [
        "u0034", 
        "u0641_u0643_u0631_u0629 u0020 u0631_u0626_u064a_u0633_u0629 u0020 u003a", 
        "u0020_u062a_u0628_u064a_u0646 u0020 u0627_u0644_u0635_u064a_u063a u0020 u0648_u0627_u0644_u0643_u064a_u0645_u064a_u0627_u0626_u064a_u0629 u0020 u0646_u0648_u0639 u0020 u0627_u0644_u0630_u0631_u0627_u062a u0020 u0641_u064a u0020 u0627_u0644_u0645_u0631_u0643_u0628_u0020", 
        "u0627_u0644_u0643_u064a_u0645_u064a_u0627_u0626_u064a u0020 u0648_u0639_u062f_u062f_u0647_u0627 u0020 u002e", 
        "u0627_u0644_u0635_u064a_u063a_u0629 u0020 u0627_u0644_u0643_u064a_u0645_u064a_u0627_u0626_u064a_u0629_u0020", 
        "u062a_u062f_u0644 u0020 u0639_u0644_u0649 u0020 u0627_u0644_u0639_u062f_u062f u0020 u0627_u0644_u0646_u0633_u0628_u064a u0020 u0644_u0643_u0644 u0020 u0646_u0648_u0639 u0020 u0645_u0646 u0020 u0627_u0644_u0630_u0631_u0627_u062a u0020 u0627_u0644_u0645_u0648_u062c_u0648_u062f_u0629_u0020", 
        "u0641_u064a u0020 u0627_u0644_u0645_u0631_u0643_u0628 u0020 u0627_u0644_u0643_u064a_u0645_u064a_u0627_u0626_u064a_u0020"
    ]
}