{
    "bounding_box": [
        [
            353, 
            35, 
            299, 
            26
        ], 
        [
            74, 
            96, 
            581, 
            29
        ], 
        [
            56, 
            130, 
            600, 
            28
        ], 
        [
            311, 
            161, 
            344, 
            27
        ], 
        [
            442, 
            237, 
            214, 
            24
        ], 
        [
            59, 
            271, 
            596, 
            28
        ], 
        [
            97, 
            307, 
            559, 
            25
        ], 
        [
            89, 
            335, 
            567, 
            27
        ]
    ], 
    "image_height": 540, 
    "image_width": 720, 
    "transcription": [
        "u0646_u0642_u0644 u0020 u0634_u0631_u064a_u0637 u0020 u0623_u062f_u0648_u0627_u062a u0020 u0627_u0644_u0648_u0635_u0648_u0644 u0020 u0627_u0644_u0633_u0631_u064a_u0639", 
        "u064a_u0645_u0643_u0646 u0020 u0623_u0646 u0020 u064a_u0638_u0647_u0631 u0020 u0634_u0631_u064a_u0637 u0020 u0623_u062f_u0648_u0627_u062a u0020 u0627_u0644_u0648_u0635_u0648_u0644 u0020 u0627_u0644_u0633_u0631_u064a_u0639 u0020 u0641_u0648_u0642 u0020 u0623_u0648 u0020 u062a_u062d_u062a u0020 u0627_u0644_u0634_u0631_u064a_u0637_u002e_u0020", 
        "u0648_u0645_u0646 u0020 u0623_u062c_u0644 u0020 u062a_u063a_u064a_u064a_u0631 u0020 u0627_u0644_u0645_u0648_u0642_u0639_u060c u0020 u0642_u0645 u0020 u0628_u0627_u0644_u0646_u0642_u0631 u0020 u0639_u0644_u0649 u0020 u0627_u0644_u0633_u0647_u0645 u0020 u0627_u0644_u0645_u0646_u0633_u062f_u0644 u0020 u0639_u0644_u0649 u0020 u064a_u0633_u0627_u0631 u0020 u0634_u0631_u064a_u0637_u0020", 
        "u0627_u0644_u0623_u062f_u0648_u0627_u062a u0020 u0648_u0627_u0646_u0642_u0631 u0020 u0639_u0644_u0649 u0020 u0625_u0638_u0647_u0627_u0631 u0020 u0623_u0633_u0641_u0644 u0020 u0627_u0644_u0634_u0631_u064a_u0637_u000d", 
        "u062a_u062e_u0635_u064a_u0635 u0020 u0634_u0631_u064a_u0637 u0020 u0627_u0644_u0623_u062f_u0648_u0627_u062a_u000d", 
        "u0625_u0646 u0020 u0642_u0627_u0626_u0645_u0629 u0020 u0627_u0644_u062e_u064a_u0627_u0631_u0627_u062a u0020 u0627_u0644_u0645_u062a_u0627_u062d_u0629 u0020 u0644_u0644_u0625_u0636_u0627_u0641_u0629 u0020 u0625_u0644_u0649 u0020 u0634_u0631_u064a_u0637 u0020 u0623_u062f_u0648_u0627_u062a u0020 u0627_u0644_u0648_u0635_u0648_u0644 u0020 u0627_u0644_u0633_u0631_u064a_u0639_u0020", 
        "u0639_u0646 u0020 u0637_u0631_u064a_u0642 u0020 u0627_u0633_u062a_u062e_u062f_u0627_u0645 u0020 u0627_u0644_u0642_u0627_u0626_u0645_u0629 u0020 u0627_u0644_u0645_u0646_u0633_u062f_u0644_u0629 u0020 u0647_u064a u0020 u0642_u0627_u0626_u0645_u0629 u0020 u0645_u0641_u064a_u062f_u0629 u0020 u0644_u0643_u0646_u0647_u0627 u0020 u0645_u062d_u062f_u0648_u062f_u0629_u002e_u0020", 
        "u0648_u0628_u0627_u0644_u0646_u0633_u0628_u0629 u0020 u0644_u062e_u064a_u0627_u0631_u0627_u062a u0020 u0627_u0644_u062a_u062e_u0635_u064a_u0635 u0020 u0627_u0644_u0645_u062a_u0642_u062f_u0645_u0629_u060c u0020 u0642_u0645 u0020 u0628_u0627_u0644_u0646_u0642_u0631 u0020 u0639_u0644_u0649 u0020 u0623_u0648_u0627_u0645_u0631 u0020 u0625_u0636_u0627_u0641_u064a_u0629"
    ]
}