{
    "bounding_box": [
        [
            613, 
            112, 
            21, 
            20
        ], 
        [
            330, 
            139, 
            304, 
            30
        ], 
        [
            22, 
            173, 
            611, 
            32
        ], 
        [
            74, 
            208, 
            560, 
            30
        ], 
        [
            71, 
            240, 
            562, 
            32
        ], 
        [
            28, 
            273, 
            606, 
            32
        ], 
        [
            261, 
            308, 
            372, 
            31
        ]
    ], 
    "image_height": 540, 
    "image_width": 720, 
    "transcription": [
        "u002e u0020 u000d", 
        "u0627_u0644_u0623_u0647_u062f_u0627_u0641 u0020 u0627_u0644_u062a_u0631_u0628_u0648_u064a_u0629 u0020 u0644_u0644_u0623_u0633_u0626_u0644_u0629 u0020 u0627_u0644_u0635_u0641_u064a_u0629 u0020 u000d", 
        "u062a_u0641_u0633_u064a_u0631 u0020 u0627_u0644_u0628_u064a_u0627_u0646_u0627_u062a u0020 u0627_u0644_u0645_u062a_u0648_u0641_u0631_u0629 u0020 u0020_u002d u0020 u0627_u0644_u0643_u0634_u0641 u0020 u0639_u0646 u0020 u0645_u064a_u0648_u0644 u0020 u0627_u0644_u062a_u0644_u0627_u0645_u064a_u0630 u0020 u0648_u0627_u0647_u062a_u0645_u0627_u0645_u0627_u062a_u0647_u0645 u0020 u0020_u002d u0020 u0020", 
        "u0627_u0644_u062a_u0646_u0628_u0624 u0020 u0628_u0645_u0627 u0020 u064a_u062f_u0648_u0631 u0020 u0641_u064a u0020 u0639_u0642_u0648_u0644 u0020 u0627_u0644_u062a_u0644_u0627_u0645_u064a_u0630 u0020 u2013 u0020 u062a_u0634_u062e_u064a_u0635 u0020 u0635_u0639_u0648_u0628_u0627_u062a u0020 u0627_u0644_u062a_u0639_u0644_u0645 u0020 u2013_u0020", 
        "u0627_u0644_u0643_u0634_u0641 u0020 u0639_u0646 u0020 u0628_u0639_u0636 u0020 u0627_u0644_u0645_u0634_u0643_u0644_u0627_u062a u0020 u0627_u0644_u0634_u062e_u0635_u064a_u0629 u0020 u0648_u0627_u0644_u0646_u0641_u0633_u064a_u0629 u0020 u0644_u062f_u064a u0020 u0627_u0644_u062a_u0644_u0627_u0645_u064a_u0630 u0020 u2013_u0020", 
        "u062a_u062f_u0631_u064a_u0628 u0020 u0627_u0644_u062a_u0644_u0627_u0645_u064a_u0630 u0020 u0639_u0644_u064a u0020 u0627_u0644_u062a_u0641_u0643_u064a_u0631 u0020 u0627_u0644_u0635_u062d_u064a_u062d u0020 u2013 u0020 u062c_u0630_u0628 u0020 u0627_u0646_u062a_u0628_u0627_u0647 u0020 u0627_u0644_u0637_u0644_u0627_u0628 u0020 u2013 u0020 u0627_u0644_u062a_u0639_u0631_u0641_u0020", 
        "u0639_u0644_u0649 u0020 u0623_u0631_u0627_u0626_u0647_u0645 u0020 u062a_u0646_u0638_u064a_u0645 u0020 u0639_u0631_u0636 u0020 u0627_u0644_u0645_u0627_u062f_u0629 u0020 u0627_u0644_u062f_u0631_u0627_u0633_u064a_u0629 u0020 u002e"
    ]
}