{
    "bounding_box": [
        [
            224, 
            41, 
            282, 
            30
        ], 
        [
            91, 
            102, 
            570, 
            29
        ], 
        [
            97, 
            139, 
            564, 
            25
        ], 
        [
            406, 
            168, 
            256, 
            26
        ]
    ], 
    "image_height": 540, 
    "image_width": 720, 
    "transcription": [
        "u00a0_u0627_u0644_u062f_u0631_u0633_u0037_u002d_u0032_u003a u0020 u0639_u0631_u0636 u0020 u0645_u0644_u0641_u0627_u062a_u0643", 
        "u0643_u0644_u0645_u0627 u0020 u0639_u0645_u0644_u062a u0020 u0623_u0643_u062b_u0631 u0020 u0645_u0639 u0020 u0645_u0639_u0627_u0644_u062c u0020 u0627_u0644_u0646_u0635_u0648_u0635 u0020 u0022_u0648_u0648_u0631_u062f_u0022 u0020 u0641_u0633_u0648_u0641 u0020 u062a_u062c_u062f u0020 u0646_u0641_u0633_u0643 u0020 u0641_u064a_u0020", 
        "u0648_u0636_u0639 u0020 u0641_u064a_u0647 u0020 u0627_u0644_u0639_u062f_u064a_u062f u0020 u0645_u0646 u0020 u0627_u0644_u0645_u0644_u0641_u0627_u062a u0020 u0645_u0641_u062a_u0648_u062d_u0629_u002e u0020 u0648_u0641_u064a u0020 u0647_u0630_u0627 u0020 u0627_u0644_u062f_u0631_u0633_u060c u0020 u0633_u0648_u0641 u0020 u0646_u062a_u0639_u0644_u0645_u0020", 
        "u0643_u064a_u0641 u0020 u0627_u0644_u0639_u0645_u0644 u0020 u0645_u0639 u0020 u0645_u0644_u0641_u0627_u062a u0020 u0645_u062a_u0639_u062f_u062f_u0629_u002e_u000d"
    ]
}