{
    "bounding_box": [
        [
            294, 
            57, 
            75, 
            38
        ], 
        [
            199, 
            104, 
            279, 
            41
        ], 
        [
            115, 
            157, 
            433, 
            40
        ], 
        [
            256, 
            263, 
            153, 
            43
        ], 
        [
            32, 
            314, 
            612, 
            47
        ], 
        [
            214, 
            373, 
            260, 
            40
        ]
    ], 
    "image_height": 540, 
    "image_width": 720, 
    "transcription": [
        "u0032 u0020 u0029 u0020 u000d", 
        "u0623_u0646_u0647 u0020 u0639_u0628_u062f_u0627_u0644_u0644_u0647 u0020 u0648_u0631_u0633_u0648_u0644_u0647_u000d", 
        "u0020_u0627_u0635_u0637_u0641_u0627_u0647 u0020 u0627_u0644_u0644_u0647 u0020 u0628_u0627_u0644_u0646_u0628_u0648_u0647 u0020 u0648_u0627_u0644_u0631_u0633_u0627_u0644_u0647 u0020 u000d", 
        "u0642_u0627_u0644 u0020 u062a_u0639_u0627_u0644_u0649 u0020 u000d", 
        "u0028 u0020 u064a_u0627 u0020 u0623_u0647_u0644 u0020 u0627_u0644_u0643_u062a_u0627_u0628 u0020 u0644_u0627 u0020 u062a_u063a_u0644_u0648 u0020 u0641_u064a u0020 u062f_u064a_u0646_u0643_u0645 u0020 u0648_u0644_u0627 u0020 u062a_u0642_u0648_u0644_u0648_u0627_u0020", 
        "u0639_u0644_u0649 u0020 u0627_u0644_u0644_u0647 u0020 u0625_u0644_u0627 u0020 u0627_u0644_u062d_u0642 u0020 u0029"
    ]
}