{
    "bounding_box": [
        [
            125, 
            50, 
            468, 
            37
        ], 
        [
            285, 
            130, 
            364, 
            26
        ], 
        [
            123, 
            165, 
            512, 
            28
        ], 
        [
            51, 
            197, 
            584, 
            26
        ], 
        [
            102, 
            225, 
            533, 
            27
        ], 
        [
            59, 
            262, 
            576, 
            25
        ], 
        [
            349, 
            290, 
            286, 
            27
        ], 
        [
            168, 
            326, 
            467, 
            24
        ], 
        [
            64, 
            360, 
            571, 
            28
        ], 
        [
            119, 
            395, 
            517, 
            28
        ], 
        [
            82, 
            426, 
            554, 
            27
        ]
    ], 
    "image_height": 540, 
    "image_width": 720, 
    "transcription": [
        "u0645_u0642_u0648_u0645_u0627_u062a u0020 u0627_u0644_u062a_u062d_u0648_u0644 u0020 u0627_u0644_u0649 u0020 u0627_u0644_u0628_u0646_u0648_u0643 u0020 u0627_u0644_u0634_u0627_u0645_u0644_u0629", 
        "u0645_u0642_u0648_u0645_u0627_u062a u0020 u0645_u0631_u062a_u0628_u0637_u0629 u0020 u0628_u0627_u0644_u0628_u0646_u0643_u003a u0020 u0648_u062a_u062a_u0639_u0644_u0642 u0020 u0623_u0633_u0627_u0633_u0627 u0020 u0628_u003a_u000d", 
        "u0643_u0641_u0627_u0621_u0629 u0020 u0627_u0644_u0623_u062f_u0627_u0621 u0020 u0627_u0644_u0628_u0634_u0631_u064a u0020 u0627_u0644_u0630_u064a u0020 u064a_u0634_u0645_u0644 u0020 u0643_u0627_u0641_u0629 u0020 u0627_u0644_u0648_u0638_u0627_u0626_u0641 u0020 u0627_u0644_u0641_u0646_u064a_u0629 u0020 u0648_u0627_u0644_u0645_u0627_u0644_u064a_u0629_u0020", 
        "u0648_u0627_u0644_u062a_u0633_u0648_u064a_u0642_u064a_u0629 u0020 u0648_u0627_u0644_u0642_u0627_u0646_u0648_u0646_u064a_u0629 u0020 u0648_u0627_u0644_u0627_u0633_u062a_u0634_u0627_u0631_u064a_u0629 u0020 u0648_u0627_u0644_u0625_u062f_u0627_u0631_u064a_u0629 u0020 u0627_u0644_u0645_u062a_u0635_u0644_u0629 u0020 u0628_u0627_u0644_u0646_u0634_u0627_u0637 u0020 u0627_u0644_u0628_u0646_u0643_u064a_u060c_u0020", 
        "u0648 u0020 u062a_u062d_u0643_u0645 u0020 u062a_u0643_u0646_u0648_u0644_u0648_u062c_u064a u0020 u0641_u064a u0020 u0627_u0644_u0645_u0639_u0644_u0648_u0645_u0627_u062a u0020 u0627_u0644_u062a_u064a u0020 u0647_u064a u0020 u0645_u0646 u0020 u0645_u062a_u0637_u0644_u0628_u0627_u062a u0020 u0627_u0644_u062a_u062d_u0648_u0644_u000d", 
        "u062a_u0648_u0641_u0631 u0020 u0645_u0648_u0627_u0631_u062f u0020 u0645_u0627_u0644_u064a_u0629 u0020 u0636_u062e_u0645_u0629 u0020 u062a_u0633_u0645_u062d u0020 u0644_u0644_u0628_u0646_u0643 u0020 u0628_u062a_u0642_u062f_u064a_u0645 u0020 u062e_u062f_u0645_u0627_u062a u0020 u0645_u062a_u0646_u0648_u0639_u0629 u0020 u0644_u0645_u062e_u062a_u0644_u0641_u0020", 
        "u0623_u0646_u0648_u0627_u0639 u0020 u0627_u0644_u0639_u0645_u0644_u0627_u0621 u0020 u0641_u064a u0020 u0623_u064a u0020 u0648_u0642_u062a u0020 u0648_u0645_u0643_u0627_u0646_u000d", 
        "u0648_u062c_u0648_u062f u0020 u0625_u062f_u0627_u0631_u0629 u0020 u062a_u0633_u0648_u064a_u0642_u064a_u0629 u0020 u0641_u0639_u0627_u0644_u0629 u0020 u0639_u0644_u0649 u0020 u0645_u0633_u062a_u0648_u0649 u0020 u0639_u0627_u0644 u0020 u0645_u0646 u0020 u0627_u0644_u0643_u0641_u0627_u0621_u0629_u000d", 
        "u0646_u0634_u0631 u0020 u0627_u0644_u0648_u0639_u064a u0020 u0627_u0644_u0645_u0635_u0631_u0641_u064a u0020 u0628_u0635_u0641_u0629 u0020 u0639_u0627_u0645_u0629 u0020 u0644_u062a_u0641_u0647_u0645 u0020 u062f_u0648_u0631 u0020 u0648_u0623_u0647_u0645_u064a_u0629 u0020 u0627_u0644_u0628_u0646_u0648_u0643 u0020 u0627_u0644_u0634_u0627_u0645_u0644_u0629_u000d", 
        "u062a_u0648_u0641_u0631 u0020 u0645_u0644_u0627_u0621_u0629 u0020 u0645_u0627_u0644_u064a_u0629 u0020 u0643_u0627_u0641_u064a_u0629 u0020 u062a_u0624_u0647_u0644 u0020 u0627_u0644_u0628_u0646_u0643 u0020 u0644_u0644_u062f_u062e_u0648_u0644 u0020 u0641_u064a u0020 u0645_u062c_u0627_u0644 u0020 u0627_u0644_u0623_u0639_u0645_u0627_u0644_u0020", 
        "u0627_u0644_u0645_u0635_u0631_u0641_u064a_u0629 u0020 u0627_u0644_u0634_u0627_u0645_u0644_u0629_u060c u0020 u0645_u0645_u062b_u0644_u0629 u0020 u0641_u064a u0020 u062d_u062c_u0645 u0020 u0631_u0623_u0633 u0020 u0627_u0644_u0645_u0627_u0644 u0020 u0627_u0644_u0643_u0627_u0641_u064a u0020 u0648_u0627_u0644_u0627_u062d_u062a_u064a_u0627_u0637_u0627_u062a"
    ]
}