{
    "bounding_box": [
        [
            482, 
            74, 
            160, 
            25
        ], 
        [
            68, 
            176, 
            549, 
            26
        ], 
        [
            68, 
            222, 
            552, 
            30
        ], 
        [
            95, 
            273, 
            524, 
            29
        ], 
        [
            64, 
            444, 
            588, 
            21
        ], 
        [
            323, 
            468, 
            68, 
            18
        ]
    ], 
    "image_height": 540, 
    "image_width": 720, 
    "transcription": [
        "u062a_u0639_u0631_u064a_u0641 u0020 u0627_u0644_u0645_u0644_u0627_u0626_u0643_u0629 u0020 u003a_u000d", 
        "u0627_u0644_u0645_u0644_u0627_u0626_u0643_u0629 u0020 u0639_u0627_u0644_u0645 u0020 u063a_u064a_u0631 u0020 u0639_u0627_u0644_u0645 u0020 u0627_u0644_u0625_u0646_u0633 u0020 u0648_u0639_u0627_u0644_u0645 u0020 u0627_u0644_u062c_u0646 u0020 u060c u0020 u0648_u0647_u0648 u0020 u0639_u0627_u0644_u0645 u0020 u0643_u0631_u064a_u0645 u0020 u060c_u0020", 
        "u0643_u0644_u0647 u0020 u0637_u0647_u0631 u0020 u0648_u0635_u0641_u0627_u0621 u0020 u0648_u0646_u0642_u0627_u0621 u0020 u060c u0020 u0648_u0647_u0645 u0020 u0643_u0631_u0627_u0645 u0020 u0623_u062a_u0642_u064a_u0627_u0621 u0020 u060c u0020 u064a_u0639_u0628_u062f_u0648_u0646 u0020 u0627_u0644_u0644_u0647 u0020 u062d_u0642_u0020", 
        "u0627_u0644_u0639_u0628_u0627_u062f_u0629 u0020 u060c u0020 u0648_u064a_u0642_u0648_u0645_u0648_u0646 u0020 u0628_u062a_u0646_u0641_u064a_u0630 u0020 u0645_u0627 u0020 u064a_u0623_u0645_u0631_u0647_u0645 u0020 u0628_u0647 u0020 u060c u0020 u0648_u0644_u0627 u0020 u064a_u0639_u0635_u0648_u0646 u0020 u0627_u0644_u0644_u0647 u0020 u0623_u0628_u062f_u0627 u0020 u002e", 
        "u0020_u0639_u0627_u0644_u0645 u0020 u0627_u0644_u0645_u0644_u0627_u0626_u0643_u0629 u0020 u0627_u0644_u0627_u0628_u0631_u0627_u0631 u0020 u0028 u0020 u0627_u0644_u062f_u0643_u062a_u0648_u0631 u0020 u0639_u0645_u0631 u0020 u0633_u0644_u064a_u0645_u0627_u0646 u0020 u0627_u0644_u0627_u0634_u0642_u0631 u0020 u0029 u0020 u0020_u0627_u0644_u0637_u0628_u0639_u0639_u0629 u0020 u0627_u0644_u0633_u0627_u0628_u0639_u0629 u0020 u0031_u0034_u0031_u0030 u0020 u0647 u0020 u2013 u0020 u0031_u0039_u0039_u0035 u0020 u0645 u0020 u060c_u0020", 
        "u0627_u0644_u0635_u0641_u062d_u0629 u0020 u0037_u0020"
    ]
}