{
    "bounding_box": [
        [
            6, 
            76, 
            687, 
            44
        ], 
        [
            6, 
            129, 
            687, 
            42
        ], 
        [
            6, 
            180, 
            687, 
            41
        ], 
        [
            6, 
            235, 
            687, 
            45
        ], 
        [
            6, 
            287, 
            687, 
            44
        ], 
        [
            6, 
            340, 
            687, 
            45
        ], 
        [
            376, 
            399, 
            317, 
            39
        ]
    ], 
    "image_height": 540, 
    "image_width": 720, 
    "transcription": [
        "u062a_u0648_u062c_u0647 u0020 u0647_u064a_u0631_u0648_u062f u0020 u0628_u0639_u062f u0020 u0630_u0644_u0643 u0020 u0625_u0644_u0649 u0020 u0645_u0635_u0631_u060c u0020 u0648_u062e_u0644_u0627_u0644 u0020 u0630_u0644_u0643 u0020 u0628_u0639_u062b_u0020", 
        "u0644_u0647 u0020 u0645_u0627_u0644_u0643 u0020 u0627_u0644_u0631_u0633_u0644 u0020 u0644_u0625_u062e_u0628_u0627_u0631_u0647 u0020 u0628_u0639_u062f_u0648_u0644_u0647 u0020 u0639_u0646 u0020 u0642_u0631_u0627_u0631 u0020 u0631_u0641_u0636_u0020", 
        "u0627_u0644_u0645_u0633_u0627_u0639_u062f_u0629_u060c u0020 u0648_u0644_u0643_u0646 u0020 u0628_u0639_u062f u0020 u0641_u0648_u0627_u062a u0020 u0627_u0644_u0623_u0648_u0627_u0646_u060c u0020 u0641_u0642_u062f u0020 u0643_u0627_u0646_u0020", 
        "u0647_u064a_u0631_u0648_u062f u0020 u0641_u064a u0020 u0637_u0631_u064a_u0642_u0647 u0020 u0625_u0644_u0649 u0020 u0631_u0648_u0645_u0627_u002e u0020 u0020_u0648_u0639_u0646_u062f u0020 u0648_u0635_u0648_u0644_u0647_u0020", 
        "u0644_u0631_u0648_u0645_u0627 u0020 u0639_u064a_u0651_u0646_u0647 u0020 u0627_u0644_u0631_u0648_u0645_u0627_u0646 u0020 u062d_u0627_u0643_u0645 u0020 u064a_u0647_u0648_u0630_u0627 u0020 u0648_u0633_u0627_u0639_u062f_u0648_u0647 u0020 u0639_u0644_u0649_u0020", 
        "u062f_u062e_u0648_u0644_u0647_u0627 u0020 u0648_u0637_u0631_u062f u0020 u0627_u0644_u0628_u0627_u0631_u062b_u064a_u064a_u0646 u0020 u0645_u0646_u0647_u0627_u060c u0020 u0648_u0643_u0627_u0646 u0020 u0630_u0644_u0643 u0020 u0641_u064a_u0020", 
        "u062d_u062f_u0648_u062f u0020 u0639_u0627_u0645 u0020 u0028_u0033_u0037 u0020 u0642_u002e_u0645_u0029_u002e_u0020"
    ]
}