{
    "bounding_box": [
        [
            211, 
            53, 
            678, 
            42
        ], 
        [
            542, 
            176, 
            329, 
            16
        ], 
        [
            391, 
            194, 
            479, 
            30
        ], 
        [
            212, 
            238, 
            658, 
            17
        ], 
        [
            250, 
            257, 
            621, 
            20
        ], 
        [
            238, 
            279, 
            632, 
            20
        ], 
        [
            231, 
            300, 
            639, 
            20
        ], 
        [
            206, 
            322, 
            665, 
            20
        ], 
        [
            232, 
            343, 
            639, 
            20
        ], 
        [
            717, 
            365, 
            154, 
            20
        ], 
        [
            278, 
            387, 
            593, 
            30
        ], 
        [
            228, 
            418, 
            643, 
            20
        ], 
        [
            327, 
            440, 
            544, 
            20
        ]
    ], 
    "image_height": 540, 
    "image_width": 960, 
    "transcription": [
        "u062b_u0627_u0644_u062b_u0627_u064b_u003a u0020 u062f_u0639 u0020 u0639_u0646_u0643 u0020 u0631_u0627_u062d_u0629 u0020 u0627_u0644_u0628_u062f_u0646 u0020 u0648_u062d_u0628 u0020 u0627_u0644_u062a_u0648_u0627_u0646_u064a u0020 u0648_u0627_u0644_u0643_u0633_u0644", 
        "u0644_u0630_u0644_u0643 u0020 u0642_u0627_u0644_u0648_u0627_u003a_u0628_u0642_u062f_u0631 u0020 u0645_u0627 u0020 u062a_u062a_u0639_u0646_u0649 u0020 u062a_u0646_u0627_u0644 u0020 u0645_u0627 u0020 u062a_u062a_u0645_u0646_u0649_u002e_u000d", 
        "u0642_u0627_u0644 u0020 u0627_u0644_u0645_u062a_u0646_u0628_u064a u0020 u003a u0020 u0648_u0625_u0630_u0627 u0020 u0643_u0627_u0646_u062a u0020 u0627_u0644_u0646_u0641_u0648_u0633 u0020 u0643_u0628_u0627_u0631_u0627_u064b u0020 u062a_u0639_u0628_u062a u0020 u0641_u064a u0020 u0645_u0631_u0627_u062f_u0647_u0627 u0020 u0627_u0644_u0623_u062c_u0633_u0627_u0645_u000d", 
        "u0648_u0642_u0627_u0644 u0020 u0627_u0644_u0634_u0627_u0641_u0639_u064a_u003a u0020 u003a u0020 u0627_u0644_u0639_u0644_u0645 u0020 u0628_u0637_u0626 u0020 u0627_u0644_u0644_u0632_u0627_u0645 u0020 u060c u0020 u0628_u0639_u064a_u062f u0020 u0627_u0644_u0645_u0631_u0627_u0645 u0020 u060c u0020 u0644_u0627 u0020 u064a_u062f_u0631_u0643 u0020 u0628_u0627_u0644_u0633_u0647_u0627_u0645 u0020 u060c u0020 u0648_u0644_u0627 u0020 u064a_u0631_u0649 u0020 u0641_u064a_u0020", 
        "u0627_u0644_u0645_u0646_u0627_u0645 u0020 u060c u0020 u0648_u0644_u0627 u0020 u064a_u0648_u0631_u062b u0020 u0639_u0646 u0020 u0627_u0644_u0622_u0628_u0627_u0621 u0020 u0648_u0627_u0644_u0623_u0639_u0645_u0627_u0645 u0020 u060c u0020 u0625_u0646_u0645_u0627 u0020 u0647_u0648 u0020 u0634_u062c_u0631_u0629 u0020 u0644_u0627 u0020 u062a_u0635_u0644_u062d u0020 u0625_u0644_u0627 u0020 u0628_u0627_u0644_u063a_u0631_u0633 u0020 u060c u0020 u0648_u0644_u0627_u0020", 
        "u062a_u063a_u0631_u0633 u0020 u0625_u0644_u0627 u0020 u0641_u064a u0020 u0627_u0644_u0646_u0641_u0633_u060c u0020 u0648_u0644_u0627 u0020 u062a_u0633_u0642_u0649 u0020 u0625_u0644_u0627 u0020 u0628_u0627_u0644_u062f_u0631_u0633 u0020 u060c u0020 u0648_u0644_u0627 u0020 u0645_u062d_u0635_u0644 u0020 u0625_u0644_u0627 u0020 u0645_u0646 u0020 u0623_u0646_u0641_u0642 u0020 u0627_u0644_u0639_u064a_u0646_u064a_u0646_u060c_u0020", 
        "u0648_u062c_u062b_u0627 u0020 u0639_u0644_u0649 u0020 u0627_u0644_u0631_u0643_u0628_u062a_u064a_u0646 u0020 u060c u0020 u0648_u0627_u0633_u062a_u0646_u062f u0020 u0627_u0644_u062d_u062c_u0631 u0020 u060c u0020 u0648_u0627_u0641_u062a_u0631_u0634 u0020 u0627_u0644_u0645_u062f_u0631_u060c u0020 u0648_u0623_u0642_u0644 u0020 u0627_u0644_u0646_u0648_u0645 u0020 u0648_u0623_u062f_u0645_u0646 u0020 u0627_u0644_u0633_u0647_u0631 u0020 u060c_u0020", 
        "u0627_u0646_u0638_u0631 u0020 u0625_u0644_u0649 u0020 u0645_u0646 u0020 u0634_u063a_u0644 u0020 u0646_u0647_u0627_u0631_u0647 u0020 u0628_u0627_u0644_u062c_u0645_u0639 u0020 u0648_u0644_u064a_u0644_u0647 u0020 u0628_u0627_u0644_u062c_u0645_u0627_u0639 u0020 u060c u0020 u0623_u064a_u062e_u0631_u062c u0020 u0645_u0646 u0020 u0630_u0644_u0643 u0020 u0641_u0642_u064a_u0647_u0627_u064b u0020 u061f u0020 u0021_u0021 u0020 u0643_u0644_u0627 u0020 u0648_u0627_u0644_u0644_u0647_u0020", 
        "u062d_u062a_u0649 u0020 u064a_u0639_u062a_u0636_u062f u0020 u0627_u0644_u062f_u0641_u0627_u062a_u0631 u0020 u060c u0020 u0648_u064a_u0633_u062a_u062d_u0635_u0644 u0020 u0627_u0644_u0645_u062d_u0627_u0628_u0631 u0020 u060c u0020 u0648_u064a_u0642_u0637_u0639 u0020 u0627_u0644_u0642_u0641_u0627_u0631 u0020 u060c u0020 u0648_u0644_u0627 u0020 u064a_u0641_u0635_u0644 u0020 u0641_u064a u0020 u0627_u0644_u0637_u0644_u0628_u0020", 
        "u0628_u064a_u0646 u0020 u0627_u0644_u0644_u064a_u0644 u0020 u0648_u0627_u0644_u0646_u0647_u0627_u0631 u0020 u0030_u000d", 
        "u0020_u064a_u0642_u0648_u0644 u0020 u0627_u0644_u0634_u064a_u062e u0020 u0627_u0644_u062e_u0636_u0631 u0020 u062d_u0633_u064a_u0646 u0020 u003a_u0643_u0628_u064a_u0631 u0020 u0627_u0644_u0647_u0645_u0629 u0020 u062f_u0648_u0645_u0627_u064b u0020 u0641_u064a u0020 u0639_u0646_u0627_u0621_u060c u0020 u0648_u0647_u0648 u0020 u0623_u0628_u062f_u0627_u064b u0020 u0641_u064a u0020 u0646_u0635_u0628 u0020 u0644_u0627_u0020", 
        "u064a_u0646_u0642_u0636_u064a_u060c u0020 u0648_u062a_u0639_u0628 u0020 u0644_u0627 u0020 u064a_u0641_u0631_u063a_u061b u0020 u0644_u0623_u0646 u0020 u0645_u0646 u0020 u0639_u0644_u062a u0020 u0647_u0645_u062a_u0647 u0020 u0648_u0643_u0628_u0631_u062a u0020 u0637_u0644_u0628 u0020 u0627_u0644_u0639_u0644_u0648_u0645 u0020 u0643_u0644_u0647_u0627_u060c u0020 u0648_u0644_u0646 u0020 u062a_u0642_u062a_u0635_u0631_u0020", 
        "u0647_u0645_u062a_u0647 u0020 u0639_u0644_u0649 u0020 u0628_u0639_u0636_u0647_u0627_u060c u0020 u0648_u0637_u0644_u0628 u0020 u0645_u0646 u0020 u0643_u0644 u0020 u0639_u0644_u0645 u0020 u0646_u0647_u0627_u064a_u062a_u0647_u060c u0020 u0648_u0647_u0630_u0627 u0020 u0644_u0627 u0020 u064a_u062d_u062a_u0645_u0644_u0647 u0020 u0627_u0644_u0628_u062f_u0646_u002e"
    ]
}