{
    "bounding_box": [
        [
            159, 
            195, 
            331, 
            45
        ]
    ], 
    "image_height": 540, 
    "image_width": 720, 
    "transcription": [
        "u0627_u0644_u0623_u0633_u0631 u0020 u0648_u0638_u0631_u0648_u0641 u0020 u0627_u0644_u0639_u064a_u0634"
    ]
}