{
    "bounding_box": [
        [
            578, 
            143, 
            218, 
            26
        ], 
        [
            372, 
            191, 
            425, 
            27
        ], 
        [
            596, 
            244, 
            201, 
            26
        ], 
        [
            569, 
            293, 
            227, 
            27
        ], 
        [
            462, 
            342, 
            335, 
            28
        ], 
        [
            437, 
            392, 
            359, 
            29
        ], 
        [
            457, 
            445, 
            339, 
            28
        ], 
        [
            519, 
            52, 
            191, 
            35
        ]
    ], 
    "image_height": 540, 
    "image_width": 959, 
    "transcription": [
        "u0633_u062c_u0644 u0020 u0627_u0644_u0643_u062a_u0631_u0648_u0646_u0649 u0020 u0644_u0644_u0646_u0627_u062e_u0628_u064a_u0646_u000d", 
        "u0633_u062c_u0644 u0020 u0627_u0644_u0646_u0627_u062e_u0628_u064a_u0646 u0020 u0645_u0633_u0626_u0648_u0644_u064a_u0629 u0020 u0627_u0644_u0644_u062c_u0646_u0629 u0020 u0627_u0644_u0639_u0644_u064a_u0627 u0020 u0644_u0644_u0627_u0646_u062a_u062e_u0627_u0628_u0627_u062a_u000d", 
        "u062a_u0633_u062c_u064a_u0644 u0020 u062a_u0644_u0642_u0627_u0626_u0649 u0020 u0627_u062c_u0628_u0627_u0631_u0649_u000d", 
        "u0627_u0644_u062a_u0633_u062c_u064a_u0644 u0020 u0639_u0644_u0649 u0020 u0645_u062f_u0627_u0631 u0020 u0627_u0644_u0639_u0627_u0645 u0020 u000d", 
        "u0627_u0644_u0645_u0648_u0637_u0646 u0020 u0627_u0644_u0627_u0646_u062a_u062e_u0627_u0628_u0649 u0020 u0645_u062d_u062f_u062f u0020 u0628_u0645_u062d_u0644 u0020 u0627_u0644_u0625_u0642_u0627_u0645_u0629_u000d", 
        "u0628_u0637_u0627_u0642_u0629 u0020 u0627_u0644_u0631_u0642_u0645 u0020 u0627_u0644_u0642_u0648_u0645_u0649 u0020 u0648_u0633_u064a_u0644_u0629 u0020 u0625_u062b_u0628_u0627_u062a u0020 u0627_u0644_u0647_u0648_u064a_u0629_u000d", 
        "u0633_u062c_u0644 u0020 u0644_u0644_u0646_u0627_u062e_u0628_u064a_u0646 u0020 u0627_u0644_u0645_u0642_u064a_u0645_u064a_u0646 u0020 u062e_u0627_u0631_u062c u0020 u0627_u0644_u062d_u062f_u0648_u062f_u000d", 
        "u0020_u0627_u0644_u0648_u0636_u0639 u0020 u0627_u0644_u062d_u0627_u0644_u0649 u0020 u0020"
    ]
}