{
    "bounding_box": [
        [
            198, 
            34, 
            314, 
            33
        ], 
        [
            237, 
            74, 
            227, 
            28
        ], 
        [
            195, 
            117, 
            467, 
            26
        ], 
        [
            20, 
            174, 
            629, 
            27
        ], 
        [
            20, 
            233, 
            629, 
            25
        ], 
        [
            20, 
            292, 
            629, 
            23
        ], 
        [
            20, 
            349, 
            629, 
            24
        ], 
        [
            235, 
            406, 
            413, 
            25
        ], 
        [
            137, 
            470, 
            511, 
            24
        ]
    ], 
    "image_height": 540, 
    "image_width": 720, 
    "transcription": [
        "u062b_u0627_u0644_u062b_u0627_u064b_u003a u0020 u0627_u0644_u062e_u0637_u0629 u0020 u0627_u0644_u0646_u0642_u062f_u064a_u0629 u0020 u0644_u0644_u0631_u0628_u0639 u0020 u0627_u0644_u0623_u0648_u0644 u0020 u000b", 
        "u0028_u064a_u0646_u0627_u064a_u0631_u002d u0020 u0020_u0645_u0627_u0631_u0633_u0029_u0032_u0030_u0031_u0036_u0645", 
        "u0646_u062a_u0627_u0626_u062c u0020 u0627_u0644_u062a_u0642_u064a_u064a_u0645 u0020 u0627_u0644_u0623_u0648_u0644_u064a_u0629 u0020 u0644_u0644_u062e_u0637_u0629 u0020 u0627_u0644_u0646_u0642_u062f_u064a_u0629 u0020 u0644_u0644_u0631_u0628_u0639 u0020 u0627_u0644_u0623_u0648_u0644 u0020 u0032_u0030_u0031_u0036_u0645_u002e_u000d", 
        "u0628_u0627_u0644_u0631_u063a_u0645 u0020 u0645_u0646 u0020 u0627_u0644_u0628_u064a_u0627_u0646_u0627_u062a u0020 u0627_u0644_u0641_u0639_u0644_u064a_u0629 u0020 u0627_u0644_u0623_u0648_u0644_u064a_u0629 u0020 u0644_u0644_u0631_u0628_u0639 u0020 u0627_u0644_u0623_u0648_u0644 u0020 u0032_u0030_u0031_u0036_u0645 u0020 u062a_u0634_u064a_u0631 u0020 u0625_u0644_u0649 u0020 u062a_u062d_u0633_u0646 u0020 u0625_u064a_u062c_u0627_u0628_u064a u0020 u0641_u064a_u0020", 
        "u0627_u0644_u062a_u0646_u0641_u064a_u0630 u0020 u0627_u0644_u0641_u0639_u0644_u064a u0020 u0645_u0642_u0627_u0631_u0646_u0629 u0020 u0628_u0627_u0644_u0645_u062e_u0637_u0637 u0020 u0644_u0644_u0631_u0628_u0639 u0020 u0627_u0644_u0623_u0648_u0644 u0020 u0032_u0030_u0031_u0036_u0645_u060c u0020 u062d_u064a_u062b u0020 u0632_u0627_u062f_u062a u0020 u0627_u0644_u0625_u064a_u0631_u0627_u062f_u0627_u062a u0020 u0628_u062d_u0648_u0627_u0644_u064a_u0020", 
        "u0028_u0032_u0035_u0029 u0020 u0645_u0644_u064a_u0627_u0631 u0020 u0631_u064a_u0627_u0644 u0020 u0645_u0642_u0627_u0631_u0646_u0629 u0020 u0628_u0627_u0644_u0645_u062e_u0637_u0637_u060c u0020 u0641_u064a u0020 u062d_u064a_u0646 u0020 u0643_u0627_u0646 u0020 u0627_u0644_u0648_u0641_u0631 u0020 u0641_u064a u0020 u0627_u0644_u0646_u0641_u0642_u0627_u062a u0020 u0628_u062d_u0648_u0627_u0644_u064a u0020 u0028_u0031_u0034_u0029_u0020", 
        "u0645_u0644_u064a_u0627_u0631 u0020 u0631_u064a_u0627_u0644_u060c u0020 u0644_u064a_u0643_u0648_u0646 u0020 u0627_u0644_u0627_u0646_u062e_u0641_u0627_u0636 u0020 u0641_u064a u0020 u0627_u0644_u0639_u062c_u0632 u0020 u0639_u0646 u0020 u0627_u0644_u0645_u062e_u0637_u0637 u0020 u0628_u062d_u0648_u0627_u0644_u064a u0020 u0028_u0033_u0039_u0029 u0020 u0645_u0644_u064a_u0627_u0631 u0020 u0631_u064a_u0627_u0644_u060c u0020 u0625_u0644_u0627_u0020", 
        "u0623_u0646_u0647 u0020 u062f_u0631_u0627_u0633_u0629 u0020 u062a_u0641_u0627_u0635_u064a_u0644 u0020 u0646_u062a_u0627_u0626_u062c u0020 u0627_u0644_u062a_u0646_u0641_u064a_u0630 u0020 u0627_u0644_u0641_u0639_u0644_u064a_u060c u0020 u0633_u064a_u0644_u0627_u062d_u0638 u0020 u0627_u0644_u0622_u062a_u0640_u064a_u003a_u000d", 
        "u0625_u0646 u0020 u0647_u0646_u0627_u0643 u0020 u0028_u0033_u0036_u002e_u0036_u0029 u0020 u0645_u0644_u064a_u0627_u0631 u0020 u0631_u064a_u0627_u0644 u0020 u0645_u0646 u0020 u0627_u0644_u0645_u0648_u0627_u0631_u062f u0020 u0647_u064a u0020 u0644_u0645_u0631_u0629 u0020 u0648_u0627_u062d_u062f_u0629 u0020 u0648_u0627_u0633_u062a_u062b_u0646_u0627_u0626_u064a_u0629_u002e_u000d"
    ]
}