{
    "bounding_box": [
        [
            529, 
            26, 
            129, 
            28
        ], 
        [
            143, 
            87, 
            513, 
            26
        ], 
        [
            127, 
            118, 
            528, 
            26
        ], 
        [
            504, 
            154, 
            152, 
            24
        ], 
        [
            198, 
            296, 
            458, 
            28
        ], 
        [
            121, 
            330, 
            534, 
            26
        ], 
        [
            129, 
            359, 
            526, 
            29
        ], 
        [
            352, 
            391, 
            304, 
            25
        ]
    ], 
    "image_height": 540, 
    "image_width": 720, 
    "transcription": [
        "u0623_u062f_u0648_u0627_u062a u0020 u0627_u0644_u0645_u0639_u0627_u062f_u0644_u0629", 
        "u0627_u0644_u062a_u0628_u0648_u064a_u0628_u0629 u0020 u0627_u0644_u062a_u0627_u0644_u064a_u0629 u0020 u0627_u0644_u062a_u064a u0020 u0633_u0646_u0637_u0644_u0639 u0020 u0639_u0644_u064a_u0647_u0627 u0020 u0647_u064a u0020 u062a_u0628_u0648_u064a_u0628_u0629 u0020 u0627_u0644_u062a_u0635_u0645_u064a_u0645 u0020 u0627_u0644_u062e_u0627_u0635_u0629_u0020", 
        "u0628_u0623_u062f_u0648_u0627_u062a u0020 u0627_u0644_u0645_u0639_u0627_u062f_u0644_u0629_u002e u0020 u0648_u062a_u0638_u0647_u0631 u0020 u0647_u0630_u0647 u0020 u0627_u0644_u062a_u0628_u0648_u064a_u0628_u0629 u0020 u0639_u0646_u062f_u0645_u0627 u0020 u062a_u0642_u0648_u0645 u0020 u0628_u0625_u0646_u0634_u0627_u0621 u0020 u0645_u0639_u0627_u062f_u0644_u0629_u0020", 
        "u0645_u0646 u0020 u062a_u0628_u0648_u064a_u0628_u0629 u0020 u0625_u062f_u0631_u0627_u062c_u002e_u000d", 
        "u062a_u0642_u062f_u0645 u0020 u0644_u0643 u0020 u0647_u0630_u0647 u0020 u0627_u0644_u062a_u0628_u0648_u064a_u0628_u0629 u0020 u0623_u062f_u0648_u0627_u062a u0020 u0644_u0625_u0646_u0634_u0627_u0621 u0020 u0648_u062a_u062d_u0631_u064a_u0631 u0020 u0643_u0627_u0641_u0629 u0020 u0623_u0646_u0648_u0627_u0639_u0020", 
        "u0627_u0644_u0645_u0639_u0627_u062f_u0644_u0627_u062a_u002e u0020 u0625_u0630_u0627 u0020 u0643_u0646_u062a u0020 u062a_u0633_u062a_u062e_u062f_u0645 u0020 u0644_u0648_u062d_u0629 u0020 u0625_u062f_u062e_u0627_u0644 u0020 u0627_u0644_u0639_u0645_u0644_u064a_u0627_u062a u0020 u0627_u0644_u0631_u064a_u0627_u0636_u064a_u0629 u0020 u0641_u064a_u0020", 
        "u0648_u064a_u0646_u062f_u0648_u0632 u0020 u0037 u0020 u0644_u0625_u062f_u0631_u0627_u062c u0020 u0645_u0639_u0627_u062f_u0644_u0627_u062a_u0643_u060c u0020 u0641_u0625_u0646 u0020 u0634_u0631_u064a_u0637 u0020 u0623_u062f_u0648_u0627_u062a u0020 u062a_u0628_u0648_u064a_u0628_u0629 u0020 u0627_u0644_u062a_u0635_u0645_u064a_u0645_u0020", 
        "u0627_u0644_u062e_u0627_u0635_u0629 u0020 u0628_u0623_u062f_u0648_u0627_u062a u0020 u0627_u0644_u0645_u0639_u0627_u062f_u0644_u0627_u062a u0020 u0633_u064a_u0638_u0647_u0631_u002e_u000d"
    ]
}