{
    "bounding_box": [
        [
            98, 
            43, 
            577, 
            41
        ], 
        [
            183, 
            89, 
            512, 
            42
        ], 
        [
            54, 
            137, 
            621, 
            38
        ], 
        [
            26, 
            185, 
            668, 
            42
        ], 
        [
            385, 
            237, 
            310, 
            38
        ], 
        [
            67, 
            281, 
            608, 
            42
        ], 
        [
            75, 
            329, 
            620, 
            43
        ], 
        [
            368, 
            377, 
            327, 
            38
        ]
    ], 
    "image_height": 540, 
    "image_width": 720, 
    "transcription": [
        "u064a_u0639_u0631_u0641 u0020 u0627_u0644_u0646_u0638_u0627_u0645 u0020 u0627_u0644_u0627_u062c_u062a_u0645_u0627_u0639_u064a u0020 u0641_u064a u0020 u0627_u0644_u0625_u0633_u0644_u0627_u0645 u0020 u0645_u0646 u0020 u062e_u0644_u0627_u0644_u0020", 
        "u0639_u0644_u0627_u0642_u0629 u0020 u0627_u0644_u0641_u0631_u062f u0020 u0628_u0623_u0633_u0631_u062a_u0647 u0020 u0648_u0641_u0642 u0020 u0623_u062d_u0643_u0627_u0645 u0020 u0627_u0644_u0625_u0633_u0644_u0627_u0645 u0020 u000d", 
        "u064a_u062d_u0633_u0646 u0020 u0627_u062e_u062a_u064a_u0627_u0631 u0020 u0627_u0644_u0642_u062f_u0648_u0629 u0020 u0645_u0646 u0020 u062e_u0644_u0627_u0644 u0020 u0645_u0639_u0631_u0641_u0629 u0020 u0645_u0648_u0627_u0642_u0641 u0020 u0645_u0646_u0020", 
        "u0633_u064a_u0631_u0629 u0020 u0627_u0644_u0631_u0633_u0648_u0644 u0020 u0635_u0644_u0649 u0020 u0627_u0644_u0644_u0647 u0020 u0639_u0644_u064a_u0647 u0020 u0648 u0020 u0633_u0644_u0645 u0020 u0648 u0020 u0628_u0639_u0636 u0020 u0627_u0644_u0623_u0646_u0628_u064a_u0627_u0621_u0020", 
        "u0639_u0644_u064a_u0647_u0645 u0020 u0627_u0644_u0635_u0644_u0627_u0629 u0020 u0648 u0020 u0627_u0644_u0633_u0644_u0627_u0645 u0020 u000d", 
        "u064a_u062a_u0641_u0627_u0639_u0644 u0020 u0645_u0639 u0020 u0627_u0644_u0645_u062d_u064a_u0637_u002c u0020 u0641_u064a_u062a_u0645_u0633_u0643 u0020 u0628_u0627_u0644_u0623_u062e_u0644_u0627_u0642 u0020 u0627_u0644_u062d_u0633_u0646_u0629 u0020 u0648_u0020", 
        "u064a_u062a_u062c_u0646_u0628 u0020 u0627_u0644_u0623_u062e_u0644_u0627_u0642 u0020 u0627_u0644_u0633_u064a_u0626_u0629 u0020 u0641_u064a u0020 u0627_u0644_u062d_u064a_u0627_u0629 u0020 u0648 u0020 u0627_u0644_u0648_u0642_u0648_u0641 u0020 u0639_u0644_u0649_u0020", 
        "u062d_u064a_u0627_u0629 u0020 u0628_u0639_u0636 u0020 u0639_u0638_u0645_u0627_u0621 u0020 u0627_u0644_u0623_u0645_u0629_u002e_u000d"
    ]
}