{
    "bounding_box": [
        [
            416, 
            211, 
            136, 
            54
        ]
    ], 
    "image_height": 540, 
    "image_width": 960, 
    "transcription": [
        "u0627_u0644_u0627_u0642_u062a_u0631_u0627_u062d_u0627_u062a"
    ]
}