{
    "bounding_box": [
        [
            6, 
            26, 
            687, 
            47
        ], 
        [
            6, 
            80, 
            687, 
            46
        ], 
        [
            6, 
            131, 
            687, 
            48
        ], 
        [
            6, 
            187, 
            687, 
            45
        ], 
        [
            6, 
            235, 
            687, 
            49
        ], 
        [
            6, 
            288, 
            687, 
            49
        ], 
        [
            6, 
            345, 
            687, 
            45
        ], 
        [
            6, 
            395, 
            687, 
            48
        ], 
        [
            378, 
            451, 
            315, 
            45
        ]
    ], 
    "image_height": 540, 
    "image_width": 720, 
    "transcription": [
        "u0628_u062f_u0623_u062a u0020 u0627_u0644_u0642_u0648_u0629 u0020 u0627_u0644_u0631_u0648_u0645_u0627_u0646_u064a_u0629 u0020 u0641_u064a u0020 u062a_u0644_u0643 u0020 u0627_u0644_u0645_u0631_u062d_u0644_u0629 u0020 u062a_u0641_u0631_u0636_u0020", 
        "u0633_u064a_u0637_u0631_u062a_u0647_u0627 u0020 u0641_u064a u0020 u0627_u0644_u0645_u0646_u0637_u0642_u0629 u0020 u0628_u0639_u062f u0020 u063a_u0632_u0648_u0647_u0645 u0020 u0644_u064a_u0647_u0648_u0630_u0627_u060c u0020 u0641_u0642_u062f_u0020", 
        "u0627_u0633_u062a_u0648_u0644_u0649 u0020 u0028_u0628_u0648_u0645_u0628_u064a_u0029 u0020 u0639_u0644_u0649 u0020 u0627_u0644_u0645_u0634_u0631_u0642 u0020 u0627_u0644_u0639_u0631_u0628_u064a u0020 u0628_u0639_u062f u0020 u0623_u0646_u0020", 
        "u0627_u0646_u062a_u0632_u0639_u0647 u0020 u0645_u0646 u0020 u0627_u0644_u062d_u0643_u0645 u0020 u0627_u0644_u064a_u0648_u0646_u0627_u0646_u064a u0020 u0627_u0644_u0633_u0644_u0648_u0642_u064a_u060c u0020 u0648_u0645_u0646_u062d_u0020", 
        "u0627_u0644_u0639_u062f_u064a_u062f u0020 u0645_u0646 u0020 u0627_u0644_u0645_u062f_u0646 u0020 u0627_u0644_u0645_u0647_u0645_u0629 u0020 u0641_u064a u0020 u0627_u0644_u0645_u0646_u0637_u0642_u0629 u0020 u0627_u0633_u062a_u0642_u0644_u0627_u0644_u0627_u064b_u0020", 
        "u0630_u0627_u062a_u064a_u0627_u064b_u060c u0020 u0648_u0623_u0642_u064a_u0645 u0020 u062d_u0644_u0641 u0020 u0627_u0644_u062f_u064a_u0643_u0627_u0628_u0648_u0644_u0633 u0020 u0645_u0646 u0020 u0623_u0647_u0645 u0020 u0639_u0634_u0631_u0629_u0020", 
        "u0645_u062f_u0646 u0020 u062a_u0642_u0639 u0020 u0641_u064a u0020 u0627_u0644_u0645_u0646_u0637_u0642_u0629 u0020 u0627_u0644_u0634_u0645_u0627_u0644_u064a_u0629 u0020 u0645_u0646 u0020 u0627_u0644_u0623_u0631_u062f_u0646_u060c_u0020", 
        "u0648_u062c_u0646_u0648_u0628 u0020 u0633_u0648_u0631_u064a_u0627_u060c u0020 u0648_u0623_u0635_u0628_u062d u0020 u0644_u0647_u0627 u0020 u0637_u0627_u0628_u0639_u0647_u0627 u0020 u0627_u0644_u0633_u064a_u0627_u0633_u064a_u0020", 
        "u0648_u0627_u0644_u0627_u0642_u062a_u0635_u0627_u062f_u064a u0020 u0648_u0627_u0644_u062b_u0642_u0627_u0641_u064a_u002e_u0020"
    ]
}