{
    "bounding_box": [
        [
            305, 
            56, 
            310, 
            44
        ], 
        [
            501, 
            113, 
            94, 
            22
        ], 
        [
            468, 
            148, 
            128, 
            23
        ], 
        [
            540, 
            184, 
            55, 
            22
        ], 
        [
            417, 
            219, 
            179, 
            23
        ], 
        [
            512, 
            253, 
            84, 
            25
        ], 
        [
            284, 
            291, 
            311, 
            27
        ], 
        [
            532, 
            327, 
            63, 
            23
        ], 
        [
            527, 
            371, 
            68, 
            14
        ], 
        [
            536, 
            396, 
            59, 
            27
        ], 
        [
            386, 
            436, 
            209, 
            26
        ], 
        [
            512, 
            471, 
            83, 
            20
        ]
    ], 
    "image_height": 540, 
    "image_width": 720, 
    "transcription": [
        "u0627_u0644_u0627_u062f_u0648_u0627_u062a u0020 u0627_u0644_u0645_u0633_u062a_u062e_u062f_u0645_u0629 u0020 u003a", 
        "u0627_u0644_u0633_u0628_u0648_u0631_u0647 u0020 u000d", 
        "u0643_u0634_u0643_u0648_u0644 u0020 u0631_u0633_u0645_u000d", 
        "u0631_u0645_u0644 u0020 u000d", 
        "u062d_u0628_u0631 u0020 u0627_u0644_u0648_u0646 u0020 u0627_u0644_u0627_u0633_u0648_u062f u0020 u000d", 
        "u0628_u0637_u0627_u0642_u0627_u062a u0020 u000d", 
        "u0635_u0648_u0631 u0020 u0639_u0646 u0020 u0645_u0635_u0627_u0646_u0639 u0020 u0627_u0644_u0646_u0641_u0637 u0020 u0648_u0627_u0644_u0627_u0628_u0627_u0631 u0020 u000d", 
        "u0645_u0642_u0635_u000d", 
        "u062f_u0628_u0648_u0633_u000d", 
        "u0627_u0642_u0644_u0627_u0645 u0020 u000d", 
        "u0050_u006f_u0077_u0065_u0072 u0020 u0070_u006f_u0069_u006e_u0074 u0020 u000d", 
        "u0057_u006f_u0072_u0064"
    ]
}