{
    "bounding_box": [
        [
            173, 
            46, 
            372, 
            45
        ], 
        [
            38, 
            135, 
            638, 
            80
        ], 
        [
            397, 
            230, 
            279, 
            71
        ], 
        [
            244, 
            323, 
            432, 
            42
        ], 
        [
            40, 
            380, 
            636, 
            48
        ], 
        [
            119, 
            433, 
            557, 
            48
        ]
    ], 
    "image_height": 540, 
    "image_width": 720, 
    "transcription": [
        "u0645_u0646 u0020 u0623_u0642_u0648_u0627_u0644 u0020 u0627_u0644_u0645_u0635_u0637_u0641_u0649 u0020 u0028 u0020 u0635_u0029", 
        "u0028_u0028 u0020 u0631_u062d_u0645 u0020 u0627_u0644_u0644_u0647 u0020 u0648_u0627_u0644_u062f_u0627_u064b u0020 u0623_u0639_u0627_u0646_u064e u0020 u0648_u064e_u0644_u062f_u064e_u0647_u0020", 
        "u0639_u0644_u0649 u0020 u0628_u0650_u0631_u0651_u0650_u0647 u0020 u0029_u0029_u000d", 
        "u0648_u0631_u0648_u064a u0020 u0639_u0646 u0020 u0627_u0644_u0627_u0645_u0627_u0645 u0020 u0627_u0644_u0628_u0627_u0642_u0631 u0020 u0028_u0639_u0029 u0020 u003a u0020 u000d", 
        "u0028 u0020 u0634_u064e_u0631_u0651_u064f u0020 u0627_u0644_u0622_u0628_u0627_u0621 u0020 u0645_u064e_u0646_u0652 u0020 u062f_u064e_u0639_u064e_u0627_u0647_u064f u0020 u0627_u0644_u0628_u0650_u0631_u0651_u064f u0020 u0625_u0644_u0649 u0020 u0627_u0644_u0625_u0641_u0631_u0627_u0637 u0020 u060c u0020 u0648_u0634_u064e_u0631_u0651_u0020", 
        "u0627_u0644_u0623_u0628_u0646_u0627_u0621 u0020 u0645_u0646 u0020 u062f_u0639_u0627_u0647 u0020 u0627_u0644_u062a_u0642_u0635_u064a_u0631 u0020 u0625_u0644_u0649 u0020 u0627_u0644_u0639_u0642_u0648_u0642 u0020 u0029 u0020 u002e"
    ]
}