{
    "bounding_box": [
        [
            195, 
            53, 
            279, 
            25
        ], 
        [
            599, 
            119, 
            111, 
            17
        ], 
        [
            435, 
            142, 
            248, 
            16
        ], 
        [
            613, 
            164, 
            70, 
            13
        ], 
        [
            467, 
            185, 
            216, 
            17
        ], 
        [
            524, 
            208, 
            159, 
            16
        ], 
        [
            541, 
            232, 
            142, 
            15
        ], 
        [
            457, 
            256, 
            226, 
            15
        ], 
        [
            458, 
            277, 
            225, 
            17
        ], 
        [
            566, 
            301, 
            117, 
            15
        ], 
        [
            429, 
            325, 
            254, 
            15
        ], 
        [
            403, 
            347, 
            280, 
            16
        ], 
        [
            599, 
            367, 
            84, 
            13
        ], 
        [
            117, 
            120, 
            230, 
            16
        ], 
        [
            20, 
            143, 
            305, 
            16
        ], 
        [
            138, 
            161, 
            187, 
            17
        ], 
        [
            21, 
            185, 
            304, 
            16
        ], 
        [
            34, 
            205, 
            291, 
            15
        ], 
        [
            85, 
            223, 
            241, 
            17
        ], 
        [
            182, 
            247, 
            143, 
            16
        ], 
        [
            34, 
            271, 
            291, 
            15
        ], 
        [
            20, 
            289, 
            305, 
            15
        ], 
        [
            213, 
            308, 
            113, 
            15
        ], 
        [
            22, 
            331, 
            303, 
            16
        ], 
        [
            33, 
            351, 
            292, 
            15
        ], 
        [
            249, 
            371, 
            77, 
            15
        ], 
        [
            542, 
            406, 
            123, 
            16
        ], 
        [
            294, 
            425, 
            371, 
            16
        ], 
        [
            536, 
            445, 
            130, 
            15
        ], 
        [
            334, 
            464, 
            331, 
            16
        ], 
        [
            558, 
            482, 
            108, 
            16
        ], 
        [
            297, 
            503, 
            369, 
            16
        ], 
        [
            489, 
            27, 
            222, 
            17
        ], 
        [
            482, 
            48, 
            230, 
            17
        ], 
        [
            559, 
            70, 
            152, 
            16
        ], 
        [
            43, 
            422, 
            184, 
            17
        ], 
        [
            69, 
            443, 
            158, 
            17
        ], 
        [
            166, 
            465, 
            61, 
            14
        ], 
        [
            28, 
            28, 
            154, 
            17
        ]
    ], 
    "image_height": 540, 
    "image_width": 720, 
    "transcription": [
        "u062a_u062f_u0627_u0628_u064a_u0631 u0020 u0627_u062b_u0628_u062a_u062a u0020 u0641_u0639_u0627_u0644_u064a_u062a_u0647_u0627 u0020 u0648_u064a_u0648_u0635_u0649 u0020 u0628_u0647_u0627", 
        "u062a_u0635_u0645_u064a_u0645 u0020 u0623_u0641_u0636_u0644 u0020 u0644_u0644_u0637_u0631_u064a_u0642_u000d", 
        "u0625_u0632_u0627_u0644_u0629 u0020 u0627_u0644_u0645_u062e_u0627_u0637_u0631 u0020 u0639_u0644_u0649 u0020 u062c_u0627_u0646_u0628 u0020 u0627_u0644_u0637_u0631_u064a_u0642 u0020 u002d_u0623_u0634_u062c_u0627_u0631 u0020 u0648_u0623_u0639_u0645_u062f_u0629_u000b", 
        "u062a_u062b_u0628_u064a_u062a u0020 u062d_u0648_u0627_u062c_u0632_u000d", 
        "u0020_u0648_u0636_u0639 u0020 u0644_u0627_u0641_u062a_u0627_u062a u0020 u0627_u0644_u0637_u0631_u0642 u0020 u0623_u0645_u0646_u0629 u0020 u0648_u0645_u0641_u064a_u062f_u0629 u0020 u0648_u0627_u0636_u062d_u0629_u060c u0020 u000d", 
        "u0020 u0020 u062c_u0632_u0631 u0020 u0648_u0633_u0637_u064a_u0629_u060c u0020 u0022_u0648_u0645_u0644_u062c_u0623 u0020 u0644_u0644_u0645_u0634_u0627_u0629_u00ab_u000d", 
        "u0020_u0645_u0639_u0627_u0628_u0631 u0020 u0627_u0644_u0645_u0634_u0627_u0629 u0020 u0627_u0644_u0645_u0635_u0645_u0645_u0629 u0020 u062c_u064a_u062f_u0627_u000d", 
        "u0641_u0635_u0644 u0020 u0020_u0627_u0644_u0645_u0631_u0643_u0628_u0627_u062a u0020 u0645_u0646 u0020 u0627_u0644_u0645_u0634_u0627_u0629 u0020 u0648_u0631_u0627_u0643_u0628_u064a u0020 u0627_u0644_u062f_u0631_u0627_u062c_u0627_u062a_u000d", 
        "u0020_u062d_u0648_u0627_u0641 u0020 u0637_u0631_u064a_u0642 u0020 u0628_u062a_u0623_u062b_u064a_u0631 u0020 u0633_u0645_u0639_u064a_u060c u0020 u0627_u0643_u062a_u0627_u0641_u060c u0020 u0645_u0633_u0627_u0631_u0628 u0020 u000d", 
        "u0020_u0639_u0644_u0627_u0645_u0627_u062a u0020 u0623_u0641_u0636_u0644 u0020 u0644_u0644_u0637_u0631_u0642_u000d", 
        "u0020_u062a_u0647_u062f_u0626_u0629 u0020 u062d_u0631_u0643_u0629 u0020 u0627_u0644_u0645_u0631_u0648_u0631 u0020 u002d_u0645_u0637_u0628_u0627_u062a u0020 u0635_u0646_u0627_u0639_u064a_u0629_u060c u0020 u0648_u0627_u0644_u0643_u0627_u0645_u064a_u0631_u0627_u062a_u000d", 
        "u0020_u062a_u062d_u0633_u064a_u0646 u0020 u0627_u0644_u0646_u0642_u0644 u0020 u0627_u0644_u0639_u0627_u0645 u0020 u0648_u062a_u062d_u0633_u064a_u0646 u0020 u0627_u0633_u062a_u062e_u062f_u0627_u0645 u0020 u0627_u0644_u0623_u0631_u0627_u0636_u064a u0020 u0644_u0644_u062a_u0642_u0644_u064a_u0644 u0020 u0645_u0646_u0020", 
        "u0627_u0644_u062a_u0646_u0642_u0644 u0020 u0628_u0627_u0644_u0645_u0631_u0643_u0628_u0627_u062a_u000d", 
        "u062a_u063a_u064a_u064a_u0631 u0020 u0627_u0644_u0633_u0644_u0648_u0643 u0020 u002d u0020 u0627_u0644_u062a_u0639_u0644_u064a_u0645 u0020 u0648_u0627_u0644_u0642_u0627_u0646_u0648_u0646 u0020 u002f u0020 u0627_u0644_u0646_u0638_u0627_u0645 u0020 u0625_u0646_u0641_u0627_u0630_u000d", 
        "u062d_u062f_u0648_u062f u0020 u0627_u0644_u0633_u0631_u0639_u0629 u0020 u0033_u0030 u0020 u0643_u0645 u0020 u002f u0020 u0633_u0627_u0639_u0629 u0020 u0641_u064a u0020 u0627_u0644_u0645_u0646_u0627_u0637_u0642 u0020 u0627_u0644_u0633_u0643_u0646_u064a_u0629_u060c u0020 u0648 u0020 u0035_u0030 u0020 u0643_u0645 u0020 u002f_u0020", 
        "u0633_u0627_u0639_u0629 u0020 u0641_u064a u0020 u0627_u0644_u0645_u0646_u0627_u0637_u0642 u0020 u0627_u0644_u062d_u0636_u0631_u064a_u0629 u0020 u0627_u0644_u0623_u062e_u0631_u0649_u002e_u000d", 
        "u0020_u0627_u0644_u0643_u062d_u0648_u0644 u0020 u0641_u064a u0020 u0627_u0644_u062f_u0645 u0020 u0641_u0631_u0636 u0020 u062d_u062f u0020 u0645_u0633_u062a_u0648_u0649 u0020 u2264 u0020 u0030_u002e_u0030_u0035_u0067_u002f_u0064_u006c u0020 u064a_u0645_u0643_u0646 u0020 u0645_u0646_u0639 u0020 u0035_u002d", 
        "u0034_u0030_u066a u0020 u0645_u0646 u0020 u0648_u0641_u064a_u0627_u062a u0020 u062a_u0635_u0627_u062f_u0645_u0627_u062a u0020 u0627_u0644_u0637_u0631_u0642 u0020 u0028_u0627_u0644_u062a_u0646_u0641_u0633 u0020 u0627_u0644_u0639_u0634_u0648_u0627_u0626_u064a u0020 u0627_u062e_u062a_u0628_u0627_u0631_u0020", 
        "u0623_u0641_u0636_u0644 u0020 u0645_u0646 u0020 u0646_u0642_u0627_u0637 u0020 u0627_u0644_u062a_u0641_u062a_u064a_u0634 u0020 u0627_u0644_u062b_u0627_u0628_u062a_u0629_u0029 u0020 u0020_u0636_u0628_u0637 u0020 u0627_u0644_u0645_u0628_u064a_u0639_u0627_u062a_u0029 u0020 u000d", 
        "u0625_u0644_u0632_u0627_u0645_u064a_u0629 u0020 u0627_u0633_u062a_u062e_u062f_u0627_u0645 u0020 u062d_u0632_u0627_u0645 u0020 u0627_u0644_u0623_u0645_u0627_u0646_u000d", 
        "u0645_u0646_u0639 u0020 u062a_u0634_u062a_u064a_u062a u0020 u0627_u0644_u0642_u064a_u0627_u062f_u0629 u0020 u0628_u0633_u0628_u0628 u0020 u0627_u0633_u062a_u062e_u062f_u0627_u0645 u0020 u0627_u0644_u0647_u0648_u0627_u062a_u0641 u0020 u0648_u0627_u0644_u0631_u0633_u0627_u0626_u0644 u0020 u0627_u0644_u0646_u0635_u064a_u0629_u000b", 
        "u0020_u0627_u0644_u062a_u063a_u0637_u064a_u0629 u0020 u0627_u0644_u0625_u0639_u0644_u0627_u0645_u064a_u0629_u060c u0020 u0648_u062d_u0645_u0644_u0627_u062a u0020 u0627_u0644_u062a_u0639_u0644_u064a_u0645 u0020 u002b u0020 u0641_u0631_u0636 u0020 u0639_u0642_u0648_u0628_u0627_u062a u0020 u0635_u0627_u0631_u0645_u0629_u0020", 
        "u0639_u0644_u0649 u0020 u0627_u0644_u0645_u062e_u0627_u0644_u0641_u0627_u062a u0020 u0627_u0644_u062e_u0637_u0631_u000d", 
        "u0020_u0631_u062e_u0635 u0020 u0627_u0644_u0642_u064a_u0627_u062f_u0629 u0020 u0627_u0644_u062c_u062f_u064a_u062f_u0629_u002d u0020 u0020_u062d_u0638_u0631 u0020 u0646_u0642_u0644 u0020 u0627_u0644_u0631_u0643_u0627_u0628 u0020 u0645_u0639 u0020 u0627_u0644_u0633_u0627_u0626_u0642_u064a_u0646 u0020 u0627_u0644_u062c_u062f_u062f_u060c_u0020", 
        "u0648_u0627_u0644_u0645_u0632_u064a_u062f u0020 u0645_u0646 u0020 u0627_u0644_u062a_u062f_u0631_u064a_u0628 u0020 u062e_u0644_u0627_u0644 u0020 u0627_u0644_u0641_u062a_u0631_u0629 u0020 u062a_u062f_u0631_u064a_u0628 u0020 u0644_u0644_u062a_u0642_u0644_u064a_u0644 u0020 u0627_u0644_u0648_u0641_u064a_u0627_u062a u0020 u0628_u064a_u0646_u0020", 
        "u0627_u0644_u0633_u0627_u0626_u0642_u064a_u0646 u0020 u0627_u0644_u0634_u0628_u0627_u0628", 
        "u062a_u062d_u0633_u064a_u0646 u0020 u0633_u0644_u0627_u0645_u0629 u0020 u0627_u0644_u0645_u0631_u0643_u0628_u0627_u062a_u000d", 
        "u062d_u0645_u0627_u064a_u0629 u0020 u0627_u0644_u0631_u0643_u0627_u0628 u0020 u0645_u0646 u0020 u062f_u0627_u062e_u0644 u0020 u0627_u0644_u0633_u064a_u0627_u0631_u0629 u0020 u0627_u062b_u0646_u0627_u0621 u0020 u0627_u0644_u062a_u0635_u0627_u062f_u0645 u0020 u002d_u0648_u0633_u0627_u0626_u062f u0020 u0647_u0648_u0627_u0626_u064a_u0629_u060c u0020 u0623_u062d_u0632_u0645_u0629 u0020 u0627_u0644_u0623_u0645_u0627_u0646_u0020", 
        "u0648_u0645_u0642_u0627_u0639_u062f u0020 u0627_u0644_u0633_u064a_u0627_u0631_u0627_u062a u0020 u0644_u0644_u0623_u0637_u0641_u0627_u0644_u000d", 
        "u062a_u0631_u062e_u064a_u0635 u0020 u062f_u0648_u0631_u064a u0020 u0644_u0644_u0645_u0631_u0643_u0628_u0627_u062a u0020 u0648_u0627_u0644_u0641_u062d_u0635 u0020 u0644_u062a_u0637_u0628_u064a_u0642 u0020 u0645_u0639_u0627_u064a_u064a_u0631 u0020 u0635_u0627_u0644_u062d_u064a_u062a_u0647_u0627 u0020 u0644_u0644_u0633_u064a_u0631_u000d", 
        "u0020_u062a_u0634_u063a_u064a_u0644 u0020 u0623_u0636_u0648_u0627_u0621 u0020 u0627_u0644_u0646_u0647_u0627_u0631_u000d", 
        "u062a_u0634_u0631_u064a_u0639 u0020 u0648_u0625_u0646_u0641_u0627_u0630 u0020 u0627_u0633_u062a_u062e_u062f_u0627_u0645 u0020 u062e_u0648_u0630_u0629 u0020 u0645_u0639 u0020 u0627_u0644_u0645_u0648_u062a_u0648_u0633_u064a_u0643_u0644_u0627_u062a u0020 u0648_u0627_u0644_u062f_u0631_u0627_u062c_u0627_u062a u0020 u0648_u0645_u0642_u064a_u062f_u0627_u062a u0020 u0627_u0644_u0627_u0637_u0641_u0627_u0644", 
        "u0627_u062f_u0627_u0631_u0629 u0020 u0627_u0641_u0636_u0644 u0020 u0644_u0644_u0633_u0644_u0627_u0645_u0629 u0020 u0627_u0644_u0637_u0631_u0642_u064a_u0629_u003a u0020 u0645_u0624_u0633_u0633_u0629_u0020", 
        "u0631_u0627_u0626_u062f_u0629 u0020 u0628_u0643_u0648_u0627_u062f_u0631 u0020 u0645_u062f_u0631_u0628_u0629 u0020 u0648_u062a_u0645_u0648_u064a_u0644 u0020 u0643_u0627_u0641 u0020 u0644_u0627_u0639_u062f_u0627_u062f_u0020", 
        "u0627_u0633_u062a_u0631_u0627_u062a_u064a_u062c_u064a_u0629 u0020 u0645_u062d_u062f_u062f_u0629 u0020 u0627_u0644_u0627_u0647_u062f_u0627_u0641", 
        "u062e_u062f_u0645_u0627_u062a u0020 u0627_u0646_u0642_u0627_u0630 u0020 u0641_u0639_u0627_u0644_u0629 u0020 u0648 u0020 u0627_u0644_u0639_u0645_u0644 u0020 u0639_u0644_u0649_u0020", 
        "u0627_u0644_u062a_u0639_u0627_u0645_u0644 u0020 u0627_u0641_u0636_u0644 u0020 u0645_u0639 u0020 u0627_u0644_u0627_u0635_u0627_u0628_u0627_u062a_u0020", 
        "u0648_u0627_u0644_u0627_u0639_u0627_u0642_u0627_u062a_u0020", 
        "u0646_u0638_u0627_u0645 u0020 u0628_u064a_u0627_u0646_u0627_u062a u0020 u0645_u062a_u0627_u062d u0020 u0648_u0645_u0648_u062b_u0648_u0642_u0020"
    ]
}