{
    "bounding_box": [
        [
            103, 
            39, 
            575, 
            38
        ], 
        [
            86, 
            82, 
            592, 
            38
        ], 
        [
            598, 
            131, 
            80, 
            27
        ], 
        [
            31, 
            168, 
            629, 
            37
        ], 
        [
            577, 
            215, 
            101, 
            31
        ], 
        [
            86, 
            255, 
            574, 
            34
        ], 
        [
            300, 
            298, 
            378, 
            37
        ], 
        [
            265, 
            341, 
            395, 
            34
        ], 
        [
            65, 
            384, 
            595, 
            34
        ], 
        [
            90, 
            429, 
            588, 
            35
        ], 
        [
            506, 
            471, 
            172, 
            34
        ]
    ], 
    "image_height": 540, 
    "image_width": 720, 
    "transcription": [
        "u0645_u0644_u0645_u062d u0020 u062a_u062e_u0631_u062c u0020 u0627_u0644_u062a_u0644_u0645_u064a_u0630 u0020 u0641_u064a u0020 u0646_u0647_u0627_u064a_u0629 u0020 u0627_u0644_u0633_u0646_u0629 u0020 u0623_u0648_u0644_u0649 u0020 u0645_u062a_u0648_u0633_u0637_u003a_u000d", 
        "u064a_u062a_u0648_u0642_u0639 u0020 u0645_u0646 u0020 u0627_u0644_u062a_u0644_u0645_u064a_u0630 u0020 u0641_u064a u0020 u0646_u0647_u0627_u064a_u0629 u0020 u0627_u0644_u0633_u0646_u0629 u0020 u0627_u0644_u0623_u0648_u0644_u0649 u0020 u0645_u062a_u0648_u0633_u0637 u0020 u0623_u0646_u0020", 
        "u064a_u0643_u0648_u0646_u003a_u000d", 
        "u0645_u062a_u0642_u0646_u0627 u0020 u0644_u0642_u0631_u0627_u0621_u0629 u0020 u0627_u0644_u0646_u0635_u0648_u0635 u0020 u0627_u0644_u0634_u0631_u0639_u064a_u0629 u0020 u0627_u0644_u0645_u0642_u0631_u0631_u0629 u0020 u002c u0020 u0648_u0642_u0627_u062f_u0631_u0627 u0020 u0639_u0644_u0649_u0020", 
        "u0634_u0631_u062d_u0647_u0627_u002e_u000d", 
        "u062d_u0627_u0641_u0638_u0627 u0020 u0644_u0642_u062f_u0631 u0020 u0645_u0646 u0020 u0627_u0644_u0642_u0631_u0621_u0627_u0646 u0020 u0627_u0644_u0643_u0631_u064a_u0645 u0020 u0648 u0020 u0627_u0644_u0623_u062d_u0627_u062f_u064a_u062b u0020 u0627_u0644_u0646_u0628_u0648_u064a_u0629_u0020", 
        "u0627_u0644_u0634_u0631_u064a_u0641_u0629 u0020 u0648 u0020 u0641_u0627_u0647_u0645_u0627 u0020 u0644_u0644_u0645_u0639_u0646_u0649 u0020 u0625_u062c_u0645_u0627_u0644_u0627 u0020 u002e_u000d", 
        "u0639_u0627_u0631_u0641_u0627 u0020 u0628_u0623_u0631_u0643_u0627_u0646 u0020 u0627_u0644_u0625_u064a_u0645_u0627_u0646 u0020 u0648 u0020 u0641_u0627_u0647_u0645_u0627 u0020 u0644_u0647_u0627_u002e_u000d", 
        "u0639_u0627_u0631_u0641_u0627 u0020 u0628_u062d_u0642_u064a_u0642_u0629 u0020 u0627_u0644_u0625_u064a_u0645_u0627_u0646 u0020 u0628_u0627_u0644_u0644_u0647 u0020 u0645_u0646 u0020 u062e_u0644_u0627_u0644 u0020 u0628_u0639_u0636 u0020 u0623_u0633_u0645_u0627_u0626_u0647 u0020 u0648_u0020", 
        "u0635_u0641_u0627_u062a_u0647 u0020 u0648 u0020 u0642_u0627_u062f_u0631_u0627 u0020 u0639_u0644_u0649 u0020 u0627_u0644_u0627_u0633_u062a_u062f_u0644_u0627_u0644 u0020 u0639_u0644_u064a_u0647 u0020 u0645_u0646 u0020 u062e_u0644_u0627_u0644 u0020 u0628_u0639_u0636_u0020", 
        "u0627_u0644_u062f_u0644_u0627_u0626_u0644 u0020 u0627_u0644_u0643_u0648_u0646_u064a_u0629_u002e"
    ]
}