{
    "bounding_box": [
        [
            470, 
            21, 
            188, 
            29
        ], 
        [
            135, 
            78, 
            521, 
            29
        ], 
        [
            114, 
            112, 
            541, 
            28
        ], 
        [
            136, 
            143, 
            520, 
            29
        ], 
        [
            75, 
            175, 
            580, 
            29
        ], 
        [
            113, 
            207, 
            543, 
            28
        ]
    ], 
    "image_height": 540, 
    "image_width": 720, 
    "transcription": [
        "u062d_u0648_u0644 u0020 u0627_u0644_u062a_u0648_u0627_u0642_u064a_u0639 u0020 u0627_u0644_u0631_u0642_u0645_u064a_u0629", 
        "u062a_u0624_u062f_u064a u0020 u0627_u0644_u062a_u0648_u0627_u0642_u064a_u0639 u0020 u0627_u0644_u0631_u0642_u0645_u064a_u0629 u0020 u0646_u0641_u0633 u0020 u063a_u0631_u0636 u0020 u0627_u0644_u062a_u0648_u0627_u0642_u064a_u0639 u0020 u0627_u0644_u062e_u0637_u064a_u0629 u0020 u0623_u0648 u0020 u0627_u0644_u0634_u0647_u0627_u062f_u0629_u0020", 
        "u0627_u0644_u0645_u0639_u062a_u0645_u062f_u0629 u0020 u0627_u0644_u0628_u0627_u0631_u0632_u0629 u0020 u0627_u0644_u062e_u062a_u0645_u003a u0020 u0627_u0644_u062a_u064a u0020 u062a_u062d_u062f_u062f u0020 u0647_u0648_u064a_u0629 u0020 u0634_u062e_u0635 u0020 u0645_u0627 u0020 u0623_u0648 u0020 u062a_u062d_u062f_u062f u0020 u0647_u0648_u064a_u0629_u0020", 
        "u0634_u064a_u0621 u0020 u0645_u0627_u060c u0020 u062d_u064a_u062b u0020 u0623_u0646_u0647 u0020 u0644_u0627 u0020 u064a_u0648_u062c_u062f u0020 u062a_u0648_u0642_u064a_u0639_u064a_u0646 u0020 u0645_u062a_u0634_u0627_u0628_u0647_u064a_u0646 u0020 u0628_u0627_u0644_u0636_u0628_u0637 u0020 u0644_u0641_u0631_u062f_u064a_u0646_u0020", 
        "u0645_u062e_u062a_u0644_u0641_u064a_u0646_u002e u0020 u0641_u0627_u0644_u0623_u0645_u0631 u0020 u0630_u0627_u062a_u0647 u0020 u0628_u0627_u0644_u0646_u0633_u0628_u0629 u0020 u0644_u0644_u062a_u0648_u0627_u0642_u064a_u0639 u0020 u0627_u0644_u0631_u0642_u0645_u064a_u0629_u002e u0020 u0645_u0639 u0020 u0623_u0646 u0020 u0645_u0648_u0636_u0648_u0639 u0020 u062a_u0637_u0628_u064a_u0642_u0020", 
        "u0627_u0644_u062a_u0648_u0642_u064a_u0639 u0020 u0627_u0644_u0631_u0642_u0645_u064a u0020 u062e_u0627_u0631_u062c u0020 u0646_u0637_u0627_u0642 u0020 u0647_u0630_u0627 u0020 u0627_u0644_u062f_u0644_u064a_u0644_u060c u0020 u0625_u0644_u0627 u0020 u0623_u0646 u0020 u0627_u0644_u0645_u0628_u062f_u0623 u0020 u0628_u0633_u064a_u0637 u0020 u0644_u0644_u063a_u0627_u064a_u0629_u002e"
    ]
}