{
    "bounding_box": [
        [
            150, 
            40, 
            418, 
            33
        ], 
        [
            55, 
            104, 
            606, 
            27
        ], 
        [
            42, 
            136, 
            619, 
            28
        ], 
        [
            112, 
            168, 
            550, 
            26
        ], 
        [
            43, 
            199, 
            619, 
            29
        ], 
        [
            66, 
            233, 
            595, 
            28
        ], 
        [
            56, 
            264, 
            605, 
            29
        ], 
        [
            376, 
            298, 
            286, 
            26
        ]
    ], 
    "image_height": 540, 
    "image_width": 720, 
    "transcription": [
        "u0627_u0644_u062f_u0631_u0633 u0020 u0034_u002d_u0032_u003a u0020 u0627_u0644_u0645_u0641_u0627_u0647_u064a_u0645 u0020 u0627_u0644_u0623_u0633_u0627_u0633_u064a_u0629 u0020 u0644_u0644_u0625_u0646_u062a_u0631_u0646_u062a", 
        "u0627_u0644_u0625_u0646_u062a_u0631_u0646_u062a u0020 u0647_u0648 u0020 u0634_u0628_u0643_u0629 u0020 u0627_u0644_u0643_u0645_u0628_u064a_u0648_u062a_u0631 u0020 u0627_u0644_u0623_u0643_u062b_u0631 u0020 u0627_u0633_u062a_u062e_u062f_u0627_u0645_u0627 u0020 u0641_u064a u0020 u0627_u0644_u0639_u0627_u0644_u0645_u060c u0020 u0648_u0647_u064a u0020 u0641_u064a u0020 u0627_u0644_u0648_u0627_u0642_u0639_u0020", 
        "u0634_u0628_u0643_u0629 u0020 u0623_u0646_u0634_u0623_u062a u0020 u0645_u0646 u0020 u063a_u064a_u0631_u0647_u0627 u0020 u0645_u0646 u0020 u0627_u0644_u0634_u0628_u0643_u0627_u062a u0020 u0627_u0644_u0623_u062e_u0631_u0649 u0020 u0028_u0628_u0645_u0627 u0020 u0641_u064a u0020 u0630_u0644_u0643 u0020 u0627_u0644_u0628_u0646_u064a_u0629 u0020 u0627_u0644_u0623_u0633_u0627_u0633_u064a_u0629_u0020", 
        "u0644_u0634_u0628_u0643_u0629 u0020 u0627_u0644_u0647_u0648_u0627_u062a_u0641 u0020 u0627_u0644_u0639_u0627_u0645_u0629 u0020 u0050_u0053_u0054_u004e_u0029_u002e u0020 u0648_u064a_u0633_u062a_u062e_u062f_u0645 u0020 u0645_u0639_u0638_u0645 u0020 u0645_u0633_u062a_u062e_u062f_u0645_u064a u0020 u062c_u0647_u0627_u0632_u0020", 
        "u0627_u0644_u0643_u0645_u0628_u064a_u0648_u062a_u0631 u0020 u0641_u064a u0020 u0627_u0644_u0645_u0646_u0627_u0632_u0644_u060c u0020 u0648_u0643_u062b_u064a_u0631 u0020 u0645_u0646 u0020 u0645_u0633_u062a_u062e_u062f_u0645_u064a u0020 u062c_u0647_u0627_u0632 u0020 u0627_u0644_u0643_u0645_u0628_u064a_u0648_u062a_u0631 u0020 u0641_u064a u0020 u0627_u0644_u0623_u0639_u0645_u0627_u0644_u060c_u0020", 
        "u0627_u0644_u0625_u0646_u062a_u0631_u0646_u062a u0020 u0644_u0645_u062c_u0645_u0648_u0639_u0629 u0020 u0648_u0627_u0633_u0639_u0629 u0020 u0645_u0646 u0020 u0627_u0644_u0623_u063a_u0631_u0627_u0636_u002e u0020 u0648_u0646_u0638_u0631_u0627 u0020 u0644_u0627_u0646_u062a_u0634_u0627_u0631 u0020 u0627_u0644_u0625_u0646_u062a_u0631_u0646_u062a u0020 u0641_u064a_u0020", 
        "u0639_u0627_u0644_u0645 u0020 u0623_u062c_u0647_u0632_u0629 u0020 u0627_u0644_u0643_u0645_u0628_u064a_u0648_u062a_u0631_u060c u0020 u0633_u064a_u062a_u0645 u0020 u062a_u062e_u0635_u064a_u0635 u0020 u0647_u0630_u0627 u0020 u0627_u0644_u062f_u0631_u0633 u0020 u0644_u0634_u0631_u062d u0020 u0628_u0639_u0636 u0020 u0627_u0644_u0645_u0641_u0627_u0647_u064a_u0645_u0020", 
        "u0648_u0627_u0644_u0645_u0635_u0637_u0644_u062d_u0627_u062a u0020 u0627_u0644_u0623_u0633_u0627_u0633_u064a_u0629 u0020 u0644_u0644_u0625_u0646_u062a_u0631_u0646_u062a_u002e"
    ]
}