{
    "bounding_box": [
        [
            60, 
            34, 
            601, 
            37
        ], 
        [
            320, 
            74, 
            341, 
            35
        ], 
        [
            48, 
            119, 
            645, 
            29
        ], 
        [
            37, 
            155, 
            498, 
            31
        ], 
        [
            37, 
            195, 
            552, 
            24
        ], 
        [
            37, 
            233, 
            314, 
            24
        ], 
        [
            37, 
            272, 
            252, 
            20
        ], 
        [
            73, 
            298, 
            605, 
            22
        ], 
        [
            73, 
            328, 
            615, 
            21
        ], 
        [
            73, 
            357, 
            229, 
            21
        ], 
        [
            73, 
            386, 
            595, 
            21
        ], 
        [
            73, 
            415, 
            285, 
            21
        ], 
        [
            73, 
            442, 
            556, 
            22
        ], 
        [
            73, 
            473, 
            187, 
            18
        ], 
        [
            73, 
            501, 
            619, 
            21
        ], 
        [
            73, 
            530, 
            344, 
            21
        ]
    ], 
    "image_height": 540, 
    "image_width": 720, 
    "transcription": [
        "u0648_u064e_u0625_u0650_u0646_u0652 u0020 u062e_u0650_u0641_u0652_u062a_u064f_u0645_u0652 u0020 u0634_u0650_u0642_u064e_u0627_u0642_u064e u0020 u0628_u064e_u064a_u0652_u0646_u0650_u0647_u0650_u0645_u064e_u0627 u0020 u0641_u064e_u0627_u0628_u0652_u0639_u064e_u062b_u064f_u0648_u0627 u0020 u062d_u064e_u0643_u064e_u0645_u064b_u0627 u0020 u0645_u0650_u0651_u0646_u0652 u0020 u0623_u064e_u0647_u0652_u0644_u0650_u0647_u0650 u0020 u0648_u064e_u062d_u064e_u0643_u064e_u0645_u064b_u0627 u0020 u0645_u0650_u0651_u0646_u0652 u0020 u0623_u064e_u0647_u0652_u0644_u0650_u0647_u064e_u0627_u0020", 
        "u0625_u0650_u0646 u0020 u064a_u064f_u0631_u0650_u064a_u062f_u064e_u0627 u0020 u0625_u0650_u0635_u0652_u0644_u064e_u0627_u062d_u064b_u0627 u0020 u064a_u064f_u0648_u064e_u0641_u0650_u0651_u0642_u0650 u0020 u0627_u0644_u0644_u0651_u064e_u0640_u0647_u064f u0020 u0628_u064e_u064a_u0652_u0646_u064e_u0647_u064f_u0645_u064e_u0627_u000d", 
        "u0049_u0066 u0020 u0074_u0068_u0065_u0072_u0065 u0020 u0061_u0070_u0070_u0065_u0061_u0072_u0073 u0020 u0074_u006f u0020 u0062_u0065 u0020 u0064_u0069_u0073_u0063_u006f_u0072_u0064 u0020 u0062_u0065_u0074_u0077_u0065_u0065_u006e u0020 u0061 u0020 u0077_u0069_u0066_u0065_u0020", 
        "u0061_u006e_u0064 u0020 u0068_u0065_u0072 u0020 u0068_u0075_u0073_u0062_u0061_u006e_u0064 u0020 u0061_u006e_u0064 u0020 u0069_u0066 u0020 u0074_u0068_u0065_u0079 u0020 u0064_u0065_u0073_u0069_u0072_u0065_u0020", 
        "u0072_u0065_u0063_u006f_u006e_u0063_u0069_u006c_u0069_u0061_u0074_u0069_u006f_u006e u0020 u0063_u0068_u006f_u006f_u0073_u0065 u0020 u0061_u0072_u0062_u0069_u0074_u0065_u0072_u0073 u0020 u0066_u0072_u006f_u006d u0020 u0074_u0068_u0065_u0020", 
        "u0066_u0061_u006d_u0069_u006c_u0069_u0065_u0073 u0020 u006f_u0066 u0020 u0062_u006f_u0074_u0068 u0020 u0073_u0069_u0064_u0065_u0073_u002e_u000d", 
        "u0051_u003a_u0009_u0057_u0068_u0079 u0020 u0066_u0061_u006d_u0069_u006c_u0079 u0020 u006d_u0065_u006d_u0062_u0065_u0072_u0073_u003f_u000d", 
        "u004d_u0065_u006d_u0062_u0065_u0072_u0073 u0020 u0066_u0072_u006f_u006d u0020 u0065_u0061_u0063_u0068 u0020 u0073_u0069_u0064_u0065 u0020 u006f_u0066 u0020 u0074_u0068_u0065 u0020 u0066_u0061_u006d_u0069_u006c_u0079 u0020 u0077_u0069_u006c_u006c u0020 u0068_u0061_u0076_u0065 u0020 u006d_u006f_u0072_u0065 u0020 u0063_u006f_u006e_u0063_u0065_u0072_u006e_u0020", 
        "u0061_u006e_u0064 u0020 u0074_u0068_u0065_u0079 u0020 u0077_u0069_u006c_u006c u0020 u0062_u0065 u0020 u0077_u0065_u006c_u006c_u002d_u0077_u0069_u0073_u0068_u0065_u0072_u0073 u0020 u0061_u006e_u0064 u0020 u0073_u0074_u0072_u0069_u0076_u0065 u0020 u0074_u006f u0020 u0072_u0065_u0073_u006f_u006c_u0076_u0065 u0020 u0061_u006e_u0064 u0020 u006b_u0065_u0065_u0070 u0020 u0074_u0068_u0065_u0020", 
        "u0069_u0073_u0073_u0075_u0065 u0020 u0077_u0069_u0074_u0068_u0069_u006e u0020 u0074_u0068_u0065 u0020 u0066_u0061_u006d_u0069_u006c_u0079_u002e_u000d", 
        "u0054_u0068_u0069_u0073 u0020 u0063_u006f_u0075_u0072_u0074 u0020 u0069_u0073 u0020 u0065_u0061_u0073_u0079 u0020 u0074_u006f u0020 u0065_u0073_u0074_u0061_u0062_u006c_u0069_u0073_u0068_u002c u0020 u0072_u0065_u0073_u0075_u006c_u0074_u0073 u0020 u0061_u0072_u0065 u0020 u0071_u0075_u0069_u0063_u006b_u0065_u0072_u002c u0020 u0072_u0065_u0071_u0075_u0069_u0072_u0065_u0073 u0020 u006e_u006f_u0020", 
        "u0070_u0061_u0070_u0065_u0072 u0020 u0077_u006f_u0072_u006b u0020 u006f_u0066 u0020 u0072_u0065_u0067_u0075_u006c_u0061_u0072 u0020 u0063_u006f_u0075_u0072_u0074_u0073_u002e_u000d", 
        "u0053_u0065_u0063_u0072_u0065_u0074_u0073 u0020 u006f_u0066 u0020 u0074_u0068_u0065 u0020 u0066_u0061_u006d_u0069_u006c_u0079 u0020 u0069_u0073_u0073_u0075_u0065_u0073 u0020 u0064_u006f u0020 u006e_u006f_u0074 u0020 u0072_u0065_u0061_u0063_u0068 u0020 u006f_u0075_u0074_u0073_u0069_u0064_u0065 u0020 u006f_u0066 u0020 u0068_u006f_u0075_u0073_u0065_u000d", 
        "u0053_u006f_u006d_u0065 u0020 u004b_u0065_u0079 u0020 u0050_u006f_u0069_u006e_u0074_u0073_u003a_u000d", 
        "u0648_u0627_u0646 u0020 u062e_u0641_u062a_u0645 u0020 u0070_u006f_u0069_u006e_u0074_u0073 u0020 u006f_u0075_u0074 u0020 u0074_u0068_u0061_u0074 u0020 u0063_u006f_u0075_u006e_u0073_u0065_u006c_u0069_u006e_u0067 u0020 u006d_u0075_u0073_u0074 u0020 u0062_u0065 u0020 u0064_u006f_u006e_u0065 u0020 u0070_u0072_u0069_u006f_u0072 u0020 u0074_u006f u0020 u0064_u0069_u0073_u0063_u006f_u0072_u0064_u002c_u0020", 
        "u0074_u0068_u0061_u0074_u2019_u0073 u0020 u0077_u0068_u0079 u0020 u0051_u0075_u0072_u0061_u006e u0020 u0073_u0061_u0079_u0073_u002c u0020 u201c_u0069_u0066 u0020 u0079_u006f_u0075 u0020 u0066_u0065_u0061_u0072_u201d"
    ]
}