{
    "bounding_box": [
        [
            137, 
            15, 
            445, 
            34
        ], 
        [
            84, 
            85, 
            592, 
            34
        ], 
        [
            614, 
            128, 
            70, 
            28
        ], 
        [
            353, 
            174, 
            282, 
            30
        ], 
        [
            401, 
            205, 
            234, 
            45
        ], 
        [
            378, 
            264, 
            257, 
            29
        ], 
        [
            420, 
            311, 
            215, 
            31
        ]
    ], 
    "image_height": 540, 
    "image_width": 720, 
    "transcription": [
        "u0646_u0645_u0627_u0630_u062c u0020 u0627_u0644_u0623_u0639_u0645_u0627_u0644 u0020 u0641_u064a u0020 u062a_u062c_u0627_u0631_u0629 u0020 u0627_u0644_u062a_u062c_u0632_u0626_u0629 u0020 u0627_u0644_u0625_u0644_u0643_u062a_u0631_u0648_u0646_u064a_u0629", 
        "u064a_u0645_u0643_u0646 u0020 u062a_u0635_u0646_u064a_u0641 u0020 u0646_u0645_u0627_u0630_u062c u0020 u0623_u0639_u0645_u0627_u0644 u0020 u062a_u062c_u0627_u0631_u0629 u0020 u0627_u0644_u062a_u062c_u0632_u0626_u0629 u0020 u0627_u0644_u0627_u0644_u0643_u062a_u0631_u0648_u0646_u064a_u0629 u0020 u0628_u0639_u062f_u0629_u0020", 
        "u0637_u0631_u0642_u003a_u000d", 
        "u0648_u0641_u0642_u0627 u0020 u0644_u0645_u062c_u0627_u0644 u0020 u0627_u0644_u0633_u0644_u0639 u0020 u0648_u0627_u0644_u062e_u062f_u0645_u0627_u062a_u000d", 
        "u062d_u0633_u0628 u0020 u0646_u0645_u0627_u0630_u062c u0020 u0627_u0644_u0627_u064a_u0631_u0627_u062f_u0627_u062a_u000d", 
        "u0628_u062d_u0633_u0628 u0020 u0627_u0644_u0645_u0646_u0637_u0642_u0629 u0020 u0627_u0644_u062c_u063a_u0631_u0627_u0641_u064a_u0629_u000d", 
        "u0628_u062d_u0633_u0628 u0020 u0642_u0646_u0648_u0627_u062a u0020 u0627_u0644_u062a_u0648_u0632_u064a_u0639"
    ]
}