{
    "bounding_box": [
        [
            18, 
            22, 
            657, 
            41
        ], 
        [
            18, 
            70, 
            672, 
            43
        ], 
        [
            18, 
            117, 
            672, 
            45
        ], 
        [
            18, 
            165, 
            672, 
            41
        ], 
        [
            18, 
            212, 
            672, 
            46
        ], 
        [
            18, 
            260, 
            672, 
            46
        ], 
        [
            18, 
            307, 
            672, 
            46
        ], 
        [
            18, 
            355, 
            672, 
            46
        ], 
        [
            18, 
            404, 
            672, 
            44
        ], 
        [
            88, 
            450, 
            602, 
            44
        ]
    ], 
    "image_height": 540, 
    "image_width": 720, 
    "transcription": [
        "u0648_u0633_u062a_u0643_u0648_u0646 u0020 u0645_u062a_u0646_u0648_u0639_u0629 u0020 u0628_u064a_u0646 u0020 u0633_u064a_u0627_u062d_u0629 u0020 u0627_u0644_u0645_u0628_u064a_u062a_u0020", 
        "u0648_u0627_u0644_u0645_u063a_u0627_u0645_u0631_u0629 u0020 u0648_u0627_u0644_u062a_u0646_u0632_u0647_u060c u0020 u0648_u0633_u062a_u0634_u0645_u0644 u0020 u0645_u0646_u0627_u0637_u0642 u0020 u0627_u0644_u0645_u0645_u0644_u0643_u0629_u0020", 
        "u0643_u0627_u0641_u0629_u002e u0020 u0648_u0633_u062a_u0633_u062a_u0645_u0631 u0020 u0639_u0644_u0649 u0020 u0645_u062f_u0627_u0631 u0020 u0627_u0644_u0639_u0627_u0645 u0020 u0648_u0645_u0641_u062a_u0648_u062d_u0629_u0020", 
        "u0644_u0644_u0645_u0643_u0627_u062a_u0628 u0020 u0627_u0644_u0633_u064a_u0627_u062d_u064a_u0629 u0020 u0643_u0627_u0641_u0629_u060c u0020 u0628_u0647_u062f_u0641 u0020 u062a_u0646_u0634_u064a_u0637 u0020 u0627_u0644_u0633_u064a_u0627_u062d_u0629_u0020", 
        "u0627_u0644_u062f_u0627_u062e_u0644_u064a_u0629 u0020 u0628_u062a_u0639_u0627_u0648_u0646 u0020 u062c_u0645_u064a_u0639 u0020 u0627_u0644_u0641_u0639_u0627_u0644_u064a_u0627_u062a u0020 u0627_u0644_u0633_u064a_u0627_u062d_u064a_u0629_u0020", 
        "u0644_u0625_u0646_u062c_u0627_u062d u0020 u0627_u0644_u062d_u0645_u0644_u0629_u060c u0020 u0648_u0625_u0637_u0644_u0627_u0642 u0020 u0627_u0644_u062d_u0645_u0644_u0627_u062a u0020 u0627_u0644_u0625_u0639_u0644_u0627_u0646_u064a_u0629 u0020 u0639_u0628_u0631_u0020", 
        "u0648_u0633_u0627_u0626_u0644 u0020 u0627_u0644_u0625_u0639_u0644_u0627_u0645 u0020 u0648_u0627_u0644_u0635_u062d_u0641 u0020 u0627_u0644_u064a_u0648_u0645_u064a_u0629 u0020 u0644_u0639_u0631_u0636 u0020 u0622_u0644_u064a_u0627_u062a_u0020", 
        "u0648_u0623_u0633_u0633 u0020 u0647_u0630_u0647 u0020 u0627_u0644_u0628_u0631_u0627_u0645_u062c u0020 u0627_u0644_u062a_u064a u0020 u0633_u064a_u062a_u0645 u0020 u0637_u0631_u062d_u0647_u0627 u0020 u0641_u064a_u0020", 
        "u0627_u0644_u0625_u0639_u0644_u0627_u0645 u0020 u0644_u064a_u062a_u0645_u0643_u0646 u0020 u0627_u0644_u0645_u0648_u0627_u0637_u0646_u0648_u0646 u0020 u0645_u0646 u0020 u0645_u0634_u0627_u0647_u062f_u062a_u0647_u0627_u0020", 
        "u0648_u0627_u062e_u062a_u064a_u0627_u0631 u0020 u0627_u0644_u0645_u0646_u0627_u0633_u0628 u0020 u062d_u0633_u0628 u0020 u0623_u0648_u0642_u0627_u062a_u0647_u0645 u0020 u0648_u0642_u062f_u0631_u0627_u062a_u0647_u0645_u002e_u000d"
    ]
}