{
    "bounding_box": [
        [
            128, 
            50, 
            548, 
            33
        ], 
        [
            156, 
            88, 
            520, 
            34
        ], 
        [
            48, 
            127, 
            628, 
            33
        ], 
        [
            38, 
            161, 
            638, 
            37
        ], 
        [
            83, 
            202, 
            593, 
            35
        ], 
        [
            42, 
            241, 
            634, 
            34
        ], 
        [
            264, 
            280, 
            412, 
            34
        ], 
        [
            73, 
            317, 
            603, 
            34
        ], 
        [
            38, 
            356, 
            638, 
            34
        ], 
        [
            98, 
            395, 
            577, 
            34
        ], 
        [
            119, 
            431, 
            557, 
            36
        ], 
        [
            75, 
            471, 
            600, 
            35
        ]
    ], 
    "image_height": 540, 
    "image_width": 720, 
    "transcription": [
        "u0627_u0644_u062d_u0627_u062f_u064a u0020 u0639_u0634_u0631 u0020 u002d u0020 u062d_u0630_u0641 u0020 u0627_u0644_u0645_u0636_u0627_u0641_u060c u0020 u0648_u062d_u0630_u0641 u0020 u0627_u0644_u0645_u0636_u0627_u0641 u0020 u0625_u0644_u064a_u0647 u0020 u003a_u000d", 
        "u0623_u0648_u0644_u0627 u0020 u002d u0020 u062d_u0630_u0641 u0020 u0627_u0644_u0645_u0636_u0627_u0641 u0020 u060c u0020 u0648_u0625_u0642_u0627_u0645_u0629 u0020 u0627_u0644_u0645_u0636_u0627_u0641 u0020 u0625_u0644_u064a_u0647 u0020 u0645_u0642_u0627_u0645_u0647_u003a_u000d", 
        "u0020 u0020 u0020 u0020 u0627_u0644_u0644_u063a_u0629 u0020 u0627_u0644_u0639_u0631_u0628_u064a_u0629 u0020 u0642_u0627_u0626_u0645_u0629 u0020 u0639_u0644_u0649 u0020 u0627_u0644_u0625_u064a_u062c_u0627_u0632_u060c u0020 u0648_u0642_u062f u0020 u0642_u0627_u0644 u0020 u0627_u0644_u0628_u0644_u0627_u063a_u064a_u0648_u0646_u003a u0020 u0020 u0020 u0020 u0020 u0020 u0020 u0020_u0020", 
        "u0028 u0020 u0627_u0644_u0628_u0644_u0627_u063a_u0629 u0020 u0627_u0644_u0625_u064a_u062c_u0627_u0632_u0029 u0020 u0648_u062d_u0630_u0641 u0020 u0627_u0644_u0645_u0636_u0627_u0641 u0020 u0643_u062b_u064a_u0631 u0020 u062c_u062f_u0651_u064b_u0627 u0020 u0641_u064a u0020 u0627_u0644_u0644_u063a_u0629_u060c u0020 u0648_u0647_u0648 u0020 u0645_u0646_u0020", 
        "u0628_u0627_u0628 u0020 u0627_u0644_u062a_u0648_u0633_u0639 u0020 u0648_u0627_u0644_u0627_u062e_u062a_u0635_u0627_u0631_u060c u0020 u0648_u0641_u064a u0020 u0627_u0644_u0642_u0631_u0622_u0646 u0020 u0645_u062b_u0644 u0020 u0647_u0630_u0627 u0020 u0627_u0644_u0645_u0648_u0636_u0639 u0020 u0646_u064a_u0651_u0650_u0641_u064b_u0627_u0020", 
        "u0639_u0644_u0649 u0020 u0623_u0644_u0641 u0020 u0645_u0648_u0636_u0639 u0020 u061b_u0639_u0644_u0649 u0020 u062d_u0630_u0641 u0020 u0627_u0644_u0645_u0636_u0627_u0641 u0020 u0644_u0627 u0020 u063a_u064a_u0631_u060c u0020 u0648_u062d_u0630_u0641 u0020 u0627_u0644_u0645_u0636_u0627_u0641_u0020", 
        "u0641_u064a u0020 u0627_u0644_u0642_u0631_u0622_u0646 u0020 u0648_u0627_u0644_u0634_u0639_u0631 u0020 u0648_u0641_u0635_u064a_u062d u0020 u0627_u0644_u0643_u0644_u0627_u0645 u0020 u0633_u0639_u0629 u0020 u002e u0020 u000d", 
        "u0020 u0020 u0020 u0020 u0648_u0642_u062f u0020 u0630_u0647_u0628 u0020 u062c_u0645_u0647_u0648_u0631 u0020 u0627_u0644_u0646_u0651_u064f_u062d_u0627_u0629 u0020 u0625_u0644_u0649 u0020 u062c_u0648_u0627_u0632 u0020 u062d_u0630_u0641 u0020 u0627_u0644_u0645_u0636_u0627_u0641 u0020 u0648_u0625_u0642_u0627_u0645_u0629_u0020", 
        "u0627_u0644_u0645_u0636_u0627_u0641 u0020 u0625_u0644_u064a_u0647 u0020 u0645_u0642_u0627_u0645_u0647 u0020 u0641_u064a u0020 u0627_u0644_u0625_u0639_u0631_u0627_u0628_u060c u0020 u0625_u0630_u0627 u0020 u0623_u0645_u0646 u0020 u0627_u0644_u0644_u0628_u0633_u060c_u0648_u0642_u0627_u0645_u062a u0020 u0627_u0644_u0642_u0631_u064a_u0646_u0629_u0020", 
        "u0627_u0644_u062a_u064a u0020 u062a_u062f_u0644 u0020 u0639_u0644_u064a_u0647 u0020 u060c u0020 u0648_u0645_u0646_u0647_u0645 u0020 u0633_u064a_u0628_u0648_u064a_u0647 u0020 u0648_u0627_u0644_u0645_u0628_u0631_u0651_u0650_u062f u0020 u0648_u0627_u0644_u0641_u0631_u0651_u0627_u0621 u0020 u0648_u0627_u0644_u0632_u0651_u062c_u0651_u0627_u062c_u0020", 
        "u0648_u0623_u0628_u0648_u0639_u0644_u064a u0020 u0627_u0644_u0641_u0627_u0631_u0633_u064a u0020 u0648_u0627_u0628_u0646 u0020 u062c_u0646_u0651_u0650_u064a u0020 u0648_u0627_u0628_u0646 u0020 u064a_u0639_u064a_u0634 u0020 u0648_u0627_u0628_u0646 u0020 u0627_u0644_u062d_u0627_u062c_u0628_u0020", 
        "u0648_u0627_u0644_u0631_u0651_u064e_u0636_u064a u0020 u0648_u0627_u0628_u0646 u0020 u0645_u0627_u0644_u0643 u0020 u0648_u0623_u0628_u0648 u0020 u062d_u064a_u0651_u0627_u0646 u0020 u0648_u0627_u0644_u0633_u0651_u064f_u064a_u0648_u0637_u064a u0020 u0648_u0627_u0644_u0623_u062f_u0644_u0629 u0020 u0639_u0644_u0649 u0020 u0630_u0644_u0643_u0020"
    ]
}