{
    "bounding_box": [
        [
            19, 
            23, 
            686, 
            31
        ], 
        [
            19, 
            56, 
            686, 
            32
        ], 
        [
            19, 
            89, 
            686, 
            32
        ], 
        [
            19, 
            126, 
            686, 
            29
        ], 
        [
            19, 
            161, 
            686, 
            28
        ], 
        [
            19, 
            190, 
            686, 
            32
        ], 
        [
            19, 
            225, 
            686, 
            31
        ], 
        [
            19, 
            257, 
            686, 
            32
        ], 
        [
            19, 
            291, 
            686, 
            32
        ], 
        [
            19, 
            325, 
            686, 
            32
        ], 
        [
            19, 
            358, 
            686, 
            32
        ], 
        [
            19, 
            393, 
            686, 
            31
        ], 
        [
            19, 
            425, 
            686, 
            31
        ], 
        [
            19, 
            460, 
            686, 
            31
        ], 
        [
            597, 
            497, 
            108, 
            28
        ]
    ], 
    "image_height": 540, 
    "image_width": 720, 
    "transcription": [
        "u062a_u0639_u062f u0020 u0627_u062a_u0641_u0627_u0642_u064a_u0629 u0020 u0627_u0644_u0642_u0636_u0627_u0621 u0020 u0639_u0644_u0649 u0020 u062c_u0645_u064a_u0639 u0020 u0623_u0634_u0643_u0627_u0644 u0020 u0627_u0644_u062a_u0645_u064a_u064a_u0632 u0020 u0636_u062f u0020 u0627_u0644_u0645_u0631_u0623_u0629 u0020 u0648_u0627_u0644_u062a_u064a u0020 u0627_u0639_u062a_u0645_u062f_u062a_u0647_u0627_u0020", 
        "u0627_u0644_u062c_u0645_u0639_u064a_u0629 u0020 u0627_u0644_u0639_u0627_u0645_u0629 u0020 u0644_u0644_u0623_u0645_u0645 u0020 u0627_u0644_u0645_u062a_u062d_u062f_u0629 u0020 u0641_u064a u0020 u0031_u0038 u0020 u0643_u0627_u0646_u0648_u0646 u0020 u0627_u0644_u0623_u0648_u0644_u002f_u062f_u064a_u0633_u0645_u0628_u0631 u0020 u0031_u0039_u0037_u0039 u0020 u0648_u0628_u062f_u0623_u0020", 
        "u0646_u0641_u0627_u0630_u0647_u0627 u0020 u0641_u064a u0020 u0033 u0020 u0623_u064a_u0644_u0648_u0644_u002f_u0633_u0628_u062a_u0645_u0628_u0631 u0020 u0031_u0039_u0038_u0031 u0020 u0628_u0645_u062b_u0627_u0628_u0629 u0020 u0627_u0644_u0634_u0631_u0639_u0629 u0020 u0627_u0644_u062f_u0648_u0644_u064a_u0629 u0020 u0644_u062d_u0642_u0648_u0642 u0020 u0627_u0644_u0645_u0631_u0623_u0629_u060c_u0020", 
        "u0648_u0641_u064a u0020 u0634_u0628_u0627_u0637_u002f_u0641_u0628_u0631_u0627_u064a_u0631 u0020 u0032_u0030_u0031_u0032 u0020 u0643_u0627_u0646 u0020 u0647_u0646_u0627_u0643 u0020 u0031_u0038_u0037 u0020 u062f_u0648_u0644_u0629 u0020 u0637_u0631_u0641 u0020 u0641_u064a_u0647_u0627_u060c u0020 u0628_u064a_u0646_u0645_u0627 u0020 u0643_u0627_u0646 u0020 u0647_u0646_u0627_u0643_u0020", 
        "u0037 u0020 u062f_u0648_u0644 u0020 u0641_u0642_u0637 u0020 u0644_u0645 u0020 u062a_u0635_u0628_u062d u0020 u0637_u0631_u0641_u0627 u0020 u0641_u064a_u0647_u0627_u060c u0020 u0648_u0647_u064a_u003a u0020 u0625_u064a_u0631_u0627_u0646_u060c u0020 u0648_u0628_u0627_u0644_u0627_u0648_u060c u0020 u0648_u062a_u0648_u0646_u063a_u0627_u060c u0020 u0648_u0627_u0644_u0633_u0648_u062f_u0627_u0646_u060c_u0020", 
        "u0648_u0627_u0644_u0635_u0648_u0645_u0627_u0644_u060c u0020 u0648_u062f_u0648_u0644_u0629 u0020 u0627_u0644_u0641_u0627_u062a_u064a_u0643_u0627_u0646_u060c u0020 u0648_u0627_u0644_u0648_u0644_u0627_u064a_u0627_u062a u0020 u0627_u0644_u0645_u062a_u062d_u062f_u0629 u0020 u0627_u0644_u0623_u0645_u0631_u064a_u0643_u064a_u0629_u002e u0020 u0648_u0641_u064a u0020 u0036 u0020 u062a_u0634_u0631_u064a_u0646_u0020", 
        "u0627_u0644_u0623_u0648_u0644_u002f_u0623_u0643_u062a_u0648_u0628_u0631 u0020 u0031_u0039_u0039_u0039_u060c u0020 u0627_u0639_u062a_u0645_u062f_u062a u0020 u0627_u0644_u062c_u0645_u0639_u064a_u0629 u0020 u0627_u0644_u0639_u0627_u0645_u0629 u0020 u0623_u064a_u0636_u0627 u0020 u0628_u0631_u0648_u062a_u0648_u0643_u0648_u0644 u0020 u0627_u062e_u062a_u064a_u0627_u0631_u064a_u0020", 
        "u0623_u0644_u062d_u0642 u0020 u0628_u0627_u0644_u0627_u062a_u0641_u0627_u0642_u064a_u0629_u060c u0020 u0645_u0646_u062d_u062a u0020 u0628_u0645_u0642_u062a_u0636_u0627_u0647 u0020 u0627_u0644_u0644_u062c_u0646_u0629 u0020 u0627_u0644_u0645_u0639_u0646_u064a_u0629 u0020 u0628_u0627_u0644_u0642_u0636_u0627_u0621 u0020 u0639_u0644_u0649 u0020 u0627_u0644_u062a_u0645_u064a_u064a_u0632 u0020 u0636_u062f_u0020", 
        "u0627_u0644_u0645_u0631_u0623_u0629 u0020 u0648_u0627_u0644_u062a_u064a u0020 u062a_u0634_u0643_u0644_u062a u0020 u0628_u0645_u0648_u062c_u0628 u0020 u0627_u0644_u0645_u0627_u062f_u0629 u0020 u0031_u0037 u0020 u0645_u0646 u0020 u0627_u0644_u0627_u062a_u0641_u0627_u0642_u064a_u0629 u0020 u0635_u0644_u0627_u062d_u064a_u0629 u0020 u0641_u062d_u0635 u0020 u0634_u0643_u0627_u0648_u0649_u0020", 
        "u0627_u0644_u0623_u0641_u0631_u0627_u062f u0020 u0648_u0627_u0644_u062c_u0645_u0627_u0639_u0627_u062a u0020 u0627_u0644_u062e_u0627_u0636_u0639_u064a_u0646 u0020 u0644_u0648_u0644_u0627_u064a_u0629 u0020 u062f_u0648_u0644_u0629 u0020 u0637_u0631_u0641 u0020 u0641_u064a u0020 u0627_u0644_u0628_u0631_u0648_u062a_u0648_u0643_u0648_u0644 u0020 u0628_u0634_u0623_u0646_u0020", 
        "u0627_u0646_u062a_u0647_u0627_u0643 u0020 u0627_u0644_u062d_u0642_u0648_u0642 u0020 u0627_u0644_u0645_u0642_u0631_u0631_u0629 u0020 u0641_u064a u0020 u0627_u0644_u0627_u062a_u0641_u0627_u0642_u064a_u0629_u060c u0020 u0643_u0645_u0627 u0020 u064a_u0645_u0646_u062d u0020 u0627_u0644_u0628_u0631_u0648_u062a_u0648_u0643_u0648_u0644 u0020 u0644_u0644_u062c_u0646_u0629 u0020 u0635_u0644_u0627_u062d_u064a_u0629_u0020", 
        "u0641_u062a_u062d u0020 u062a_u062d_u0642_u064a_u0642 u0020 u0625_u0630_u0627 u0020 u0645_u0627 u0020 u062a_u0644_u0642_u062a u0020 u0645_u0639_u0644_u0648_u0645_u0627_u062a u0020 u0645_u0648_u062b_u0648_u0642_u0629 u0020 u062a_u062f_u0644 u0020 u0639_u0644_u0649 u0020 u0648_u0642_u0648_u0639 u0020 u0627_u0646_u062a_u0647_u0627_u0643_u0627_u062a u0020 u062c_u0633_u064a_u0645_u0629 u0020 u0623_u0648_u0020", 
        "u0645_u0646_u062a_u0638_u0645_u0629 u0020 u0644_u0644_u062d_u0642_u0648_u0642 u0020 u0627_u0644_u0645_u0639_u062a_u0631_u0641 u0020 u0628_u0647_u0627 u0020 u0641_u064a u0020 u0627_u0644_u0627_u062a_u0641_u0627_u0642_u064a_u0629 u0020 u0645_u0646 u0020 u062c_u0627_u0646_u0628 u0020 u062f_u0648_u0644_u0629 u0020 u0637_u0631_u0641 u0020 u0641_u064a_u0020", 
        "u0627_u0644_u0628_u0631_u0648_u062a_u0648_u0643_u0648_u0644_u002e u0020 u0648_u0641_u064a u0020 u0634_u0628_u0627_u0637_u002f_u0641_u0628_u0631_u0627_u064a_u0631 u0020 u0032_u0030_u0031_u0032 u0020 u0020_u0643_u0627_u0646 u0020 u0647_u0646_u0627_u0643 u0020 u0031_u0030_u0034 u0020 u062f_u0648_u0644_u0629 u0020 u0637_u0631_u0641 u0020 u0641_u064a_u0020", 
        "u0627_u0644_u0628_u0631_u0648_u062a_u0648_u0643_u0648_u0644_u002e"
    ]
}