{
    "bounding_box": [
        [
            327, 
            513, 
            64, 
            6
        ], 
        [
            43, 
            517, 
            13, 
            1
        ], 
        [
            315, 
            277, 
            100, 
            26
        ]
    ], 
    "image_height": 540, 
    "image_width": 720, 
    "transcription": [
        "u0041_u006c_u0069_u006f_u0062_u0065_u0069_u0064_u002e_u0063_u006f_u006d", 
        "u0034_u0034", 
        "u0627_u0644_u0641_u0631_u0636_u064a_u0627_u062a"
    ]
}