{
    "bounding_box": [
        [
            7, 
            92, 
            700, 
            31
        ], 
        [
            413, 
            128, 
            293, 
            27
        ], 
        [
            7, 
            170, 
            700, 
            27
        ], 
        [
            7, 
            202, 
            700, 
            29
        ], 
        [
            7, 
            276, 
            700, 
            30
        ], 
        [
            7, 
            309, 
            700, 
            29
        ], 
        [
            212, 
            343, 
            494, 
            29
        ], 
        [
            7, 
            384, 
            700, 
            29
        ], 
        [
            7, 
            416, 
            700, 
            31
        ], 
        [
            7, 
            452, 
            700, 
            29
        ], 
        [
            26, 
            487, 
            681, 
            27
        ], 
        [
            172, 
            13, 
            355, 
            55
        ]
    ], 
    "image_height": 540, 
    "image_width": 720, 
    "transcription": [
        "u0031_u002d u0020 u062a_u0641_u0639_u064a_u0644 u0020 u0648_u062a_u0637_u0648_u064a_u0631 u0020 u0643_u0644 u0020 u0645_u0627 u0020 u062c_u0627_u0621 u0020 u0628_u0627_u0644_u062a_u0648_u0635_u064a_u0627_u062a u0020 u0627_u0644_u0631_u0626_u064a_u0633_u064a_u0629 u0020 u0641_u064a u0020 u0627_u0644_u0645_u0624_u062a_u0645_u0631 u0020 u0627_u0644_u0623_u0648_u0644 u0020 u0644_u0644_u062d_u062f u0020 u0645_u0646_u0020", 
        "u0645_u062e_u0627_u0637_u0631 u0020 u0627_u0644_u0643_u0648_u0627_u0631_u062b u0020 u0648_u0625_u0639_u0644_u0627_u0646 u0020 u0627_u0644_u0639_u0642_u0628_u0629_u0030_u000d", 
        "u0032_u002d u0020 u0632_u064a_u0627_u062f_u0629 u0020 u0642_u062f_u0631_u0627_u062a u0020 u0627_u0644_u0628_u0646_u064a_u0629 u0020 u0627_u0644_u062a_u062d_u062a_u064a_u0629 u0020 u0628_u0627_u0646_u0634_u0627_u0621 u0020 u0645_u0631_u0627_u0643_u0632 u0020 u0641_u0646_u064a_u0647 u0020 u0648_u0637_u0646_u064a_u0647 u0020 u0648_u0627_u0642_u0644_u064a_u0645_u064a_u0647 u0020 u0645_u0632_u0648_u062f_u0647_u0020", 
        "u0628_u0627_u0644_u0645_u0639_u062f_u0627_u062a u0020 u0644_u0645_u062c_u0627_u0628_u0647_u0629 u0020 u0645_u062e_u0627_u0637_u0631 u0020 u0627_u0644_u0643_u0648_u0627_u0631_u062b u0020 u0648_u0627_u0644_u0623_u0632_u0645_u0627_u062a u0020 u0648_u062a_u062f_u0627_u0639_u064a_u0627_u062a_u0647_u0627 u0020 u0645_u0645_u0627 u0020 u064a_u062a_u0637_u0644_u0628 u0020 u062f_u0639_u0645_u0020", 
        "u0033_u002d u0020 u0625_u0646_u0634_u0627_u0621 u0020 u0635_u0646_u062f_u0648_u0642 u0020 u062f_u0627_u0626_u0645 u0020 u0639_u0644_u0649 u0020 u0627_u0644_u0645_u0633_u062a_u0648_u0649 u0020 u0627_u0644_u0648_u0637_u0646_u064a u0020 u0648_u0627_u0644_u0627_u0642_u0644_u064a_u0645_u0649 u0020 u0644_u0645_u062c_u0627_u0628_u0647_u0629 u0020 u0648_u0627_u0644_u062d_u062f u0020 u0645_u0646_u0020", 
        "u0627_u0644_u0643_u0648_u0627_u0631_u062b u0020 u0648_u064a_u062f_u0639_u0645 u0020 u0645_u0627_u0644_u064a_u0627_u0651 u0020 u0645_u0646 u0020 u0643_u0627_u0641_u0629 u0020 u0627_u0644_u0645_u0646_u0638_u0645_u0627_u062a u0020 u0627_u0644_u062f_u0648_u0644_u064a_u0629 u0020 u0648_u0627_u0644_u0625_u0642_u0644_u064a_u0645_u064a_u0629 u0020 u0648_u0627_u0644_u062f_u0648_u0644 u0020 u0627_u0644_u0645_u0627_u0646_u062d_u0629_u0020", 
        "u0648_u0627_u0644_u0645_u0633_u062a_u062b_u0645_u0631_u064a_u0646 u0020 u0648_u0644_u0627 u0020 u064a_u0642_u062a_u0635_u0631 u0020 u0639_u0644_u0649 u0020 u0627_u0644_u0645_u0648_u0627_u0631_u062f u0020 u0627_u0644_u0648_u0637_u0646_u064a_u0629 u0020 u0644_u0644_u062f_u0648_u0644_u0030 u0020 u000d", 
        "u0034_u002d u0020 u0627_u0644_u0627_u0647_u062a_u0645_u0627_u0645 u0020 u0628_u062a_u0646_u0641_u064a_u0630 u0020 u062a_u062c_u0627_u0631_u0628 u0020 u0639_u0645_u0644_u064a_u0629 u0020 u0633_u0646_u0648_u064a_u0627 u0020 u0639_u0644_u0649 u0020 u0645_u0633_u062a_u0648_u0649 u0020 u0627_u0644_u062f_u0648_u0644 u0020 u0028 u0020 u0641_u0631_u062f_u064a_u0627 u0020 u2013 u0020 u062b_u0646_u0627_u0626_u064a_u0627 u0020 u2013_u0020", 
        "u0645_u062a_u0639_u062f_u062f_u0629 u0020 u0627_u0644_u0623_u0637_u0631_u0627_u0641 u0020 u0029 u0020 u0644_u0645_u062c_u0627_u0628_u0647_u0629 u0020 u0648_u0627_u0644_u062d_u062f u0020 u0645_u0646 u0020 u0625_u062e_u0637_u0627_u0631 u0020 u0627_u0644_u0643_u0648_u0627_u0631_u062b u0020 u0627_u0644_u0645_u062a_u0648_u0642_u0639_u0629 u0020 u0639_u0644_u0649 u0020 u063a_u0631_u0627_u0631 u0020 u0645_u0627_u0020", 
        "u062a_u0642_u0648_u0645 u0020 u0628_u0647 u0020 u062f_u0648_u0644 u0020 u0639_u062f_u064a_u062f_u0629 u0020 u0645_u062b_u0644 u0020 u0028 u0020 u0627_u0644_u064a_u0627_u0628_u0627_u0646 u0020 u0029 u0020 u0644_u0645_u062c_u0627_u0628_u0647_u0629 u0020 u0627_u0644_u0632_u0644_u0627_u0632_u0644 u0020 u062a_u063a_u0637_u0649 u0020 u062a_u0643_u0644_u0641_u062a_u0647_u0627 u0020 u0645_u0646_u0020", 
        "u0627_u0644_u0635_u0646_u062f_u0648_u0642 u0020 u0627_u0644_u062f_u0627_u0626_u0645 u0020 u0627_u0644_u0645_u0642_u062a_u0631_u062d u0020 u0625_u0646_u0634_u0627_u0626_u0647 u0020 u0648_u062a_u0628_u0627_u062f_u0644 u0020 u0627_u0648_u0633_u0639 u0020 u0644_u0644_u0645_u0639_u0644_u0648_u0645_u0627_u062a u0020 u0648_u0627_u0644_u062a_u0642_u0646_u064a_u0627_u062a u0020 u0627_u0644_u062d_u062f_u064a_u062b_u0647 u0020 u002e_u000d", 
        "u0627_u0644_u062a_u0648_u0635_u064a_u0627_u062a u0020 u0648_u0627_u0644_u0645_u0642_u062a_u0631_u062d_u0627_u062a_u0020"
    ]
}