{
    "bounding_box": [
        [
            88, 
            101, 
            615, 
            30
        ], 
        [
            88, 
            150, 
            615, 
            31
        ], 
        [
            88, 
            202, 
            615, 
            30
        ], 
        [
            88, 
            251, 
            615, 
            30
        ], 
        [
            88, 
            305, 
            615, 
            27
        ], 
        [
            88, 
            353, 
            615, 
            30
        ], 
        [
            571, 
            404, 
            131, 
            26
        ], 
        [
            359, 
            26, 
            337, 
            38
        ]
    ], 
    "image_height": 540, 
    "image_width": 720, 
    "transcription": [
        "u062a_u0634_u0643_u0644 u0020 u0645_u064a_u0627_u0647 u0020 u0627_u0644_u0628_u0632_u0644 u0020 u0641_u064a u0020 u0645_u0639_u0638_u0645 u0020 u0627_u0644_u062f_u0648_u0644 u0020 u0627_u0644_u0639_u0631_u0628_u064a_u0629 u0020 u0643_u0645_u064a_u0629 u0020 u0020_u0643_u0628_u064a_u0631_u0629 u0020 u0645_u0646 u0020 u0627_u0644_u0645_u064a_u0627_u0647 u0020 u063a_u064a_u0631_u0020", 
        "u0627_u0644_u062a_u0642_u0644_u064a_u062f_u064a_u0629_u002c u0020 u0641_u0641_u064a u0020 u0633_u0648_u0631_u064a_u0627 u0020 u064a_u062a_u0645 u0020 u0627_u0639_u0627_u062f_u0629 u0020 u0627_u0633_u062a_u0639_u0645_u0627_u0644 u0020 u0645_u064a_u0627_u0647 u0020 u0628_u0632_u0644 u0020 u062a_u062a_u0631_u0627_u0648_u062d u0020 u0645_u0644_u0648_u062d_u062a_u0647_u0627_u0020", 
        "u0028_u0031_u0031_u0032_u0030_u0030_u002d_u0038_u0032_u0030_u0030_u0029 u0020 u0645_u0627_u064a_u0643_u0631_u0648_u0645_u0648_u0632_u002f_u0633_u0645 u0020 u0648_u0628_u062d_u062c_u0645 u0020 u0020_u0032_u002e_u0031_u0645_u0644_u064a_u0627_u0631_u0645_u00b3_u002f_u0633_u0646_u0629 u0020 u0627_u0645_u0627 u0020 u0641_u064a_u0020", 
        "u0645_u0635_u0631 u0020 u0641_u0627_u0646 u0020 u062d_u062c_u0645 u0020 u0645_u064a_u0627_u0647 u0020 u0627_u0644_u0628_u0632_u0644 u0020 u062a_u0635_u0644 u0020 u0627_u0644_u0649 u0020 u0031_u0035_u0645_u0644_u064a_u0627_u0631_u0645_u00b3_u002f_u0633_u0646_u0629 u0020 u0645_u0644_u0648_u062d_u062a_u0647_u0627 u0020 u0628_u064a_u0646_u0020", 
        "u0028_u0031_u0038_u0038_u0030_u0030_u002d_u0037_u0038_u0030_u0030_u0029 u0020 u0645_u0627_u064a_u0643_u0631_u0648_u0645_u0648_u0632_u002f_u0633_u0645 u0020 u064a_u0639_u0627_u062f u0020 u0627_u0633_u062a_u0639_u0645_u0627_u0644 u0020 u0035_u002e_u0039 u0020 u0645_u0644_u064a_u0627_u0631 u0020 u0645_u0646_u0647_u0627_u002e u0020 u0627_u0645_u0627_u0020", 
        "u062d_u062c_u0645 u0020 u0645_u064a_u0627_u0647 u0020 u0627_u0644_u0628_u0632_u0644 u0020 u0641_u064a u0020 u0627_u0644_u0639_u0631_u0627_u0642 u0020 u0641_u062a_u0635_u0644 u0020 u0627_u0644_u0649 u0020 u0036_u002e_u0036_u0645_u0644_u064a_u0627_u0631_u0645_u00b3_u002f_u0633_u0646_u0629 u0020 u0644_u0645 u0020 u064a_u062a_u0645_u0020", 
        "u0627_u0644_u0627_u0633_u062a_u0641_u0627_u062f_u0629 u0020 u0645_u0646_u0647_u0627_u002e", 
        "u0627_u0644_u0645_u0642_u062f_u0645_u0629 u0020 u0028_u002d_u003a_u0028_u0049_u006e_u0074_u0072_u006f_u0064_u0075_u0063_u0074_u0069_u006f_u006e"
    ]
}