{
    "bounding_box": [
        [
            36, 
            95, 
            399, 
            46
        ], 
        [
            75, 
            199, 
            579, 
            34
        ], 
        [
            72, 
            236, 
            582, 
            35
        ], 
        [
            561, 
            279, 
            94, 
            30
        ], 
        [
            93, 
            326, 
            561, 
            30
        ], 
        [
            545, 
            362, 
            109, 
            31
        ]
    ], 
    "image_height": 540, 
    "image_width": 720, 
    "transcription": [
        "u0048_u0041_u0043_u0043_u0050 u0020 u0041_u0070_u0070_u0072_u006f_u0061_u0063_u0068_u0032", 
        "u064a_u064f_u0628_u0646_u0649 u0020 u0628_u0631_u0646_u0627_u0645_u062c u0020 u0627_u0644_u0647_u0627_u0633_u0628 u0020 u062e_u0635_u064a_u0635_u0627_u064b u0020 u0644_u062e_u062f_u0645_u0629 u0020 u0639_u0645_u0644_u064a_u0629 u0020 u0625_u0646_u062a_u0627_u062c u0020 u0645_u062d_u062f_u062f_u0629_u0020", 
        "u0648_u064a_u062a_u0637_u0644_u0628 u0020 u0020_u062a_u062d_u0644_u064a_u0644 u0020 u0645_u0641_u0635_u0644 u0020 u0644_u0643_u0644 u0020 u0645_u0631_u062d_u0644_u0629 u0020 u0645_u0646 u0020 u0639_u0645_u0644_u064a_u0629 u0020 u0627_u0644_u062a_u0635_u0646_u064a_u0639 u0020 u0641_u064a_u0020", 
        "u0627_u0644_u0645_u0635_u0646_u0639_u002e_u000d", 
        "u0648_u064a_u0646_u0635_u062d u0020 u0628_u0625_u0633_u062a_u062e_u062f_u0627_u0645 u0020 u062e_u0628_u064a_u0631 u0020 u0645_u062a_u0645_u0631_u0633 u0020 u0628_u0628_u0631_u0627_u0645_u062c u0020 u0627_u0644_u0647_u0627_u0633_u0628 u0020 u0644_u0625_u0639_u062f_u0627_u062f_u0020", 
        "u0627_u0644_u0628_u0631_u0646_u0627_u0645_u062c_u002e u0020 u000d"
    ]
}