{
    "bounding_box": [
        [
            178, 
            26, 
            499, 
            46
        ], 
        [
            33, 
            130, 
            603, 
            37
        ], 
        [
            429, 
            171, 
            206, 
            31
        ], 
        [
            268, 
            219, 
            367, 
            30
        ], 
        [
            33, 
            267, 
            603, 
            34
        ], 
        [
            272, 
            304, 
            363, 
            31
        ], 
        [
            219, 
            353, 
            416, 
            30
        ], 
        [
            33, 
            401, 
            603, 
            34
        ], 
        [
            539, 
            440, 
            96, 
            29
        ]
    ], 
    "image_height": 540, 
    "image_width": 720, 
    "transcription": [
        "u0627_u0644_u0645_u0628_u0627_u062f_u0626 u0020 u0627_u0644_u0623_u0633_u0627_u0633_u064a_u0629 u0020 u0644_u0644_u0628_u0631_u0646_u0627_u0645_u062c u0020 u0627_u0644_u062c_u0645_u0627_u0639_u064a", 
        "u0625_u0631_u0633_u0627_u0621 u0020 u0627_u0644_u0628_u0631_u0646_u0627_u0645_u062c u0020 u0627_u0644_u062c_u0645_u0627_u0639_u064a u0020 u0644_u0644_u062a_u0646_u0645_u064a_u0629 u0020 u0639_u0644_u0649 u0020 u0623_u0633_u0627_u0633 u0020 u0646_u0638_u0631_u0629_u0020", 
        "u0645_u0633_u062a_u0642_u0628_u0644_u064a_u0629 u0020 u0645_u0634_u062a_u0631_u0643_u0629_u061b_u000d", 
        "u062a_u0631_u0634_u064a_u062f u0020 u0627_u0644_u0645_u0648_u0627_u0631_u062f u0020 u0627_u0644_u0645_u0627_u062f_u064a_u0629 u0020 u0648_u0627_u0644_u0628_u0634_u0631_u064a_u0629_u061b_u000d", 
        "u0627_u0639_u062a_u0645_u0627_u062f u0020 u0627_u0644_u0628_u0631_u0646_u0627_u0645_u062c u0020 u0627_u0644_u062c_u0645_u0627_u0639_u064a u0020 u0639_u0644_u0649 u0020 u0645_u0634_u0627_u0631_u064a_u0639 u0020 u064a_u0645_u0643_u0646 u0020 u0645_u0646_u0020", 
        "u062a_u0636_u0627_u0641_u0631 u0020 u0627_u0644_u062c_u0647_u0648_u062f u0020 u0648_u062a_u0648_u0641_u064a_u0631 u0020 u0627_u0644_u0637_u0627_u0642_u0627_u062a_u061b_u000d", 
        "u0645_u0631_u0627_u0639_u0627_u0629 u0020 u0627_u0644_u062a_u0648_u062c_u0647_u0627_u062a u0020 u0627_u0644_u0648_u0637_u0646_u064a_u0629 u0020 u0648_u0627_u0644_u062c_u0647_u0648_u064a_u0629_u061b_u000d", 
        "u0627_u062d_u062a_u0631_u0627_u0645 u0020 u0628_u0646_u0648_u062f u0020 u0627_u0644_u0627_u062a_u0641_u0627_u0642_u064a_u0627_u062a u0020 u0627_u0644_u062f_u0648_u0644_u064a_u0629 u0020 u0627_u0644_u062a_u064a u0020 u0635_u0627_u062f_u0642 u0020 u0639_u0644_u064a_u0647_u0627_u0020", 
        "u0627_u0644_u0645_u063a_u0631_u0628_u002e"
    ]
}