{
    "bounding_box": [
        [
            36, 
            92, 
            229, 
            47
        ], 
        [
            35, 
            157, 
            619, 
            25
        ], 
        [
            35, 
            187, 
            619, 
            24
        ], 
        [
            35, 
            213, 
            619, 
            27
        ], 
        [
            35, 
            241, 
            619, 
            25
        ], 
        [
            35, 
            271, 
            619, 
            23
        ], 
        [
            35, 
            299, 
            619, 
            24
        ], 
        [
            35, 
            325, 
            619, 
            27
        ], 
        [
            35, 
            353, 
            619, 
            27
        ], 
        [
            35, 
            381, 
            619, 
            27
        ], 
        [
            390, 
            410, 
            264, 
            24
        ], 
        [
            64, 
            445, 
            134, 
            25
        ]
    ], 
    "image_height": 540, 
    "image_width": 720, 
    "transcription": [
        "u0627_u0644_u0623_u062f_u0648_u0627_u062a u0020 u0627_u0644_u0637_u0628_u064a_u0629", 
        "u0623_u0645_u0627 u0020 u0628_u0627_u0644_u0646_u0633_u0628_u0629 u0020 u0644_u0644_u0623_u062f_u0648_u0627_u062a u0020 u0627_u0644_u0637_u0628_u064a_u0629 u0020 u0648_u0627_u0644_u0645_u0633_u062a_u0644_u0632_u0645_u0627_u062a u0020 u0627_u0644_u0623_u062e_u0631_u0649 u0020 u0644_u0644_u062d_u0641_u0627_u0638 u0020 u0639_u0644_u0649 u0020 u0627_u0644_u0635_u062d_u0629_u0020", 
        "u0627_u0644_u0639_u0627_u0645_u0629 u0020 u0648_u0627_u0644_u0644_u064a_u0627_u0642_u0629 u0020 u0627_u0644_u0628_u062f_u0646_u064a_u0629_u060c u0020 u0641_u0625_u0646 u0020 u0642_u0627_u0646_u0648_u0646 u0020 u0627_u0644_u0633_u0641_u0646 u0020 u0627_u0644_u0628_u0631_u064a_u0637_u0627_u0646_u064a u0020 u2013 u0020 u0627_u0644_u0647_u0646_u062f_u064a u0020 u0644_u0646_u0642_u0644 u0020 u0627_u0644_u0631_u0643_u0627_u0628_u0020", 
        "u0627_u0644_u0648_u0637_u0646_u064a_u064a_u0646 u0020 u0623_u0643_u062f u0020 u0639_u0644_u0649 u0020 u0623_u0646 u0020 u0643_u0644 u0020 u0633_u0641_u064a_u0646_u0629 u0020 u0631_u0643_u0627_u0628 u0020 u0648_u0637_u0646_u064a_u0629 u0020 u0642_u0628_u0644 u0020 u0623_u0646 u0020 u062a_u0645_u0646_u062d u0020 u0634_u0647_u0627_u062f_u0629 u0020 u0635_u062d_u064a_u0629_u0020", 
        "u0628_u0627_u0644_u0625_u0628_u062d_u0627_u0631 u0020 u0628_u0627_u0644_u0631_u0643_u0627_u0628 u0020 u060c u0020 u064a_u062c_u0628 u0020 u0623_u0646 u0020 u064a_u0643_u0648_u0646 u0020 u0639_u0644_u0649 u0020 u0645_u062a_u0646_u0647_u0627 u0020 u0020_u0623_u062f_u0648_u064a_u0629 u0020 u0648_u0623_u062c_u0647_u0632_u0629 u0020 u0644_u0644_u062c_u0631_u0627_u062d_u0629 u0020 u0625_u0630_u0627_u0020", 
        "u0643_u0627_u0646 u0020 u0639_u0644_u0649 u0020 u0645_u062a_u0646_u0647_u0627 u0020 u0631_u0643_u0627_u0628 u0020 u0645_u0635_u0627_u0628_u064a_u0646_u060c u0020 u0648_u0643_u062a_u0627_u0628_u0629 u0020 u062a_u0639_u0644_u064a_u0645_u0627_u062a u0020 u062a_u062a_u0639_u0644_u0642 u0020 u0628_u0627_u0644_u062d_u0641_u0627_u0638 u0020 u0639_u0644_u0649 u0020 u0627_u0644_u0635_u062d_u0629_u0020", 
        "u0627_u0644_u0639_u0627_u0645_u0629_u060c u0020 u062a_u0643_u0648_u0646 u0020 u0645_u0637_u0628_u0648_u0639_u0629 u0020 u0628_u0627_u0644_u0644_u063a_u0629 u0020 u0627_u0644_u062a_u0649 u0020 u064a_u062c_u064a_u062f_u0647_u0627 u0020 u0627_u0644_u0642_u0628_u0637_u0627_u0646 u0020 u0648_u0627_u0644_u0636_u0628_u0627_u0637 u0020 u0627_u0644_u0622_u062e_u0631_u064a_u0646_u0020", 
        "u0628_u0627_u0644_u0633_u0641_u064a_u0646_u0629_u060c u0020 u0643_u0645_u0627 u0020 u064a_u062c_u0628 u0020 u0623_u0646 u0020 u062a_u0632_u0648_u062f u0020 u0627_u0644_u0633_u0641_u0646 u0020 u0628_u0625_u0645_u062f_u0627_u062f_u0627_u062a u0020 u0643_u0627_u0641_u064a_u0629 u0020 u0645_u0646 u0020 u0627_u0644_u0633_u0648_u0627_u0626_u0644 u0020 u0648_u0627_u0644_u0645_u0633_u0627_u062d_u064a_u0642_u0020", 
        "u0627_u0644_u0637_u0628_u064a_u0629 u0020 u0627_u0644_u0645_u0639_u0642_u0645_u0629_u002e u0020 u0648_u0623_u0646 u0020 u0643_u0644 u0020 u0633_u0641_u064a_u0646_u0629 u0020 u0631_u0643_u0627_u0628 u0020 u0648_u0637_u0646_u064a_u0629 u0020 u0639_u0644_u0649 u0020 u0645_u062a_u0646_u0647_u0627 u0020 u0031_u0030_u0030 u0020 u0631_u0627_u0643_u0628 u0020 u064a_u0646_u0628_u063a_u064a_u0020", 
        "u0623_u0646 u0020 u062a_u062e_u0635_u0635 u0020 u062d_u062c_u0631_u0629 u0020 u0645_u0646_u0627_u0633_u0628_u0629 u0020 u062a_u0633_u062a_u062e_u062f_u0645 u0020 u0643_u0645_u0633_u062a_u0634_u0641_u064a u0020 u0644_u0639_u0632_u0644 u0020 u0627_u0644_u0623_u0634_u062e_u0627_u0635 u0020 u0627_u0644_u0630_u064a_u0646_u0020", 
        "u064a_u062a_u0639_u0631_u0636_u0648_u0646 u0020 u0644_u0647_u062c_u0648_u0645 u0020 u0645_u0631_u0636 u0020 u0645_u0639_u062f_u002e u0020 u0028_u0029_u000d", 
        "u0028_u0029 u0020 u0020_u0049_u0062_u0069_u0064_u002c u0020 u0070_u002e u0020 u0033_u000d"
    ]
}