{
    "bounding_box": [
        [
            42, 
            52, 
            707, 
            42
        ], 
        [
            92, 
            140, 
            627, 
            27
        ], 
        [
            311, 
            169, 
            408, 
            28
        ], 
        [
            158, 
            212, 
            561, 
            26
        ], 
        [
            209, 
            259, 
            510, 
            23
        ], 
        [
            240, 
            297, 
            479, 
            28
        ], 
        [
            239, 
            340, 
            480, 
            28
        ]
    ], 
    "image_height": 595, 
    "image_width": 793, 
    "transcription": [
        "u062f_u0631_u0627_u0633_u0629 u0020 u0639_u0646 u0020 u062a_u0623_u062b_u064a_u0631 u0020 u0627_u0644_u062f_u062e_u0644_u0627_u0621 u0020 u0639_u0644_u0649 u0020 u0635_u0641_u062d_u0627_u062a u0020 u0627_u0644_u0648_u064a_u0628", 
        "u0627_u0644_u062f_u062e_u0644_u0627_u0621 u0020 u0641_u064a u0020 u0627_u0644_u0648_u064a_u0628 u0020 u0647_u064a u0020 u0639_u0645_u0644_u064a_u0629 u0020 u0632_u0631_u0639 u0020 u0639_u0645_u0644_u064a_u0627_u062a u0020 u0627_u0635_u0637_u0646_u0627_u0639_u064a_u0629 u0020 u0644_u0644_u062a_u0623_u062b_u064a_u0631 u0020 u0639_u0644_u0649_u0020", 
        "u0645_u062d_u0631_u0643_u0627_u062a u0020 u0627_u0644_u0628_u062d_u062b u0020 u0644_u0644_u062d_u0635_u0648_u0644 u0020 u0639_u0644_u0649 u0020 u0623_u0648_u0644_u0648_u064a_u0629 u0020 u0623_u0641_u0636_u0644_u000d", 
        "u0644_u0645_u062d_u0631_u0643_u0627_u062a u0020 u0627_u0644_u0628_u062d_u062b u0020 u0637_u0631_u0642 u0020 u0639_u062f_u064a_u062f_u0629 u0020 u0644_u0645_u0639_u0631_u0641_u0629 u0020 u0627_u0644_u062f_u062e_u0644_u0627_u0621 u0020 u0648_u0645_u0646_u0639 u0020 u062a_u0623_u062b_u064a_u0631_u0647_u0645_u000d", 
        "u0647_u0646_u0627_u0643 u0020 u0633_u062c_u0627_u0644 u0020 u0641_u064a u0020 u0627_u0644_u062d_u0631_u0628 u0020 u0628_u064a_u0646 u0020 u0627_u0644_u062f_u062e_u0644_u0627_u0621 u0020 u0648_u0645_u062d_u0631_u0643_u0627_u062a u0020 u0627_u0644_u0628_u062d_u062b_u000d", 
        "u0644_u0627 u0020 u062a_u0648_u062c_u062f u0020 u062f_u0631_u0627_u0633_u0629 u0020 u0639_u0644_u0649 u0020 u062a_u0623_u062b_u064a_u0631 u0020 u0627_u0644_u0644_u063a_u0629 u0020 u0641_u064a u0020 u0648_u062c_u0648_u062f u0020 u0627_u0644_u062f_u062e_u0644_u0627_u0621 u0020 u000d", 
        "u0642_u0645_u0646_u0627 u0020 u0628_u062f_u0631_u0627_u0633_u0629 u0020 u062a_u0623_u062b_u064a_u0631 u0020 u0627_u0644_u0644_u063a_u0629 u0020 u0639_u0644_u0649 u0020 u0627_u0644_u062a_u0639_u0631_u0641 u0020 u0639_u0644_u0649 u0020 u0627_u0644_u062f_u062e_u0644_u0627_u0621_u000d"
    ]
}