{
    "bounding_box": [
        [
            315, 
            22, 
            89, 
            21
        ], 
        [
            200, 
            96, 
            332, 
            20
        ], 
        [
            187, 
            119, 
            345, 
            19
        ], 
        [
            183, 
            141, 
            349, 
            18
        ], 
        [
            190, 
            161, 
            342, 
            20
        ], 
        [
            207, 
            183, 
            325, 
            19
        ], 
        [
            209, 
            204, 
            322, 
            20
        ], 
        [
            196, 
            226, 
            336, 
            20
        ], 
        [
            193, 
            247, 
            338, 
            20
        ], 
        [
            213, 
            269, 
            319, 
            20
        ], 
        [
            207, 
            290, 
            324, 
            20
        ], 
        [
            219, 
            313, 
            313, 
            19
        ], 
        [
            182, 
            334, 
            350, 
            20
        ], 
        [
            205, 
            356, 
            327, 
            19
        ], 
        [
            245, 
            378, 
            286, 
            19
        ], 
        [
            328, 
            398, 
            209, 
            20
        ], 
        [
            46, 
            449, 
            33, 
            17
        ]
    ], 
    "image_height": 540, 
    "image_width": 720, 
    "transcription": [
        "u0627_u0644_u0627_u0633_u062f", 
        "u0627_u0644_u0623_u0633_u062f u0020 u062d_u064a_u0648_u0627_u0646 u0020 u0636_u062e_u0645 u0020 u0645_u0646 u0020 u0641_u0635_u064a_u0644_u0629 u0020 u0627_u0644_u0633_u0646_u0648_u0631_u064a_u0627_u062a u0020 u0648_u0623_u062d_u062f u0020 u0627_u0644_u0633_u0646_u0648_u0631_u064a_u0627_u062a_u0020", 
        "u0627_u0644_u0623_u0631_u0628_u0639_u0629 u0020 u0627_u0644_u0643_u0628_u064a_u0631_u0629 u0020 u0627_u0644_u0645_u0646_u062a_u0645_u064a_u0629 u0020 u0644_u062c_u0646_u0633 u0020 u0627_u0644_u0646_u0645_u0631 u0020 u0028_u0628_u0627_u0644_u0644_u0627_u062a_u064a_u0646_u064a_u0629_u003a u0020 u0050_u0061_u006e_u0074_u0068_u0065_u0072_u0061_u0029_u060c_u0020", 
        "u0648_u0647_u0648 u0020 u064a_u064f_u0639_u062f u0020 u062b_u0627_u0646_u064a u0020 u0623_u0643_u0628_u0631 u0020 u0627_u0644_u0633_u0646_u0648_u0631_u064a_u0627_u062a u0020 u0641_u064a u0020 u0627_u0644_u0639_u0627_u0644_u0645 u0020 u0628_u0639_u062f u0020 u0627_u0644_u0628_u0628_u0631_u060c u0020 u062d_u064a_u062b u0020 u064a_u0641_u0648_u0642_u0020", 
        "u0648_u0632_u0646 u0020 u0627_u0644_u0630_u0643_u0648_u0631 u0020 u0627_u0644_u0643_u0628_u064a_u0631_u0629 u0020 u0645_u0646_u0647 u0020 u0032_u0035_u0030 u0020 u0643_u064a_u0644_u0648_u063a_u0631_u0627_u0645_u0627 u0020 u0028_u0035_u0035_u0030 u0020 u0631_u0637_u0644_u0627_u0029_u002e_u005b_u0031_u005d_u0020", 
        "u062a_u0639_u064a_u0634 u0020 u0645_u0639_u0638_u0645 u0020 u0627_u0644_u0623_u0633_u0648_u062f u0020 u0627_u0644_u0628_u0631_u064a_u0629 u0020 u0627_u0644_u0645_u062a_u0628_u0642_u064a_u0629 u0020 u0627_u0644_u064a_u0648_u0645 u0020 u0641_u064a u0020 u0625_u0641_u0631_u064a_u0642_u064a_u0627 u0020 u062c_u0646_u0648_u0628_u0020", 
        "u0627_u0644_u0635_u062d_u0631_u0627_u0621 u0020 u0627_u0644_u0643_u0628_u0631_u0649_u060c u0020 u0648_u0644_u0627 u0020 u062a_u0632_u0627_u0644 u0020 u062c_u0645_u0647_u0631_u0629 u0020 u0648_u0627_u062d_u062f_u0629 u0020 u0635_u063a_u064a_u0631_u0629 u0020 u0645_u0647_u062f_u062f_u0629_u0020", 
        "u0628_u0627_u0644_u0627_u0646_u0642_u0631_u0627_u0636 u0020 u062a_u0639_u064a_u0634 u0020 u0641_u064a u0020 u0622_u0633_u064a_u0627 u0020 u0628_u0648_u0644_u0627_u064a_u0629 u0020 u063a_u0648_u062c_u0631_u0627_u062a u0020 u0641_u064a u0020 u0634_u0645_u0627_u0644 u0020 u063a_u0631_u0628_u064a_u0020", 
        "u0627_u0644_u0647_u0646_u062f_u002e u0020 u0643_u0627_u0646 u0020 u0645_u0648_u0637_u0646 u0020 u0627_u0644_u0623_u0633_u0648_u062f u0020 u0634_u0627_u0633_u0639_u0627 u0020 u062c_u062f_u0627 u0020 u0641_u064a u0020 u0627_u0644_u0633_u0627_u0628_u0642_u060c u0020 u062d_u064a_u062b u0020 u0643_u0627_u0646_u062a_u0020", 
        "u062a_u062a_u0648_u0627_u062c_u062f u0020 u0641_u064a u0020 u0634_u0645_u0627_u0644 u0020 u0625_u0641_u0631_u064a_u0642_u064a_u0627_u060c u0020 u0627_u0644_u0634_u0631_u0642 u0020 u0627_u0644_u0623_u0648_u0633_u0637_u060c u0020 u0648_u0622_u0633_u064a_u0627 u0020 u0627_u0644_u063a_u0631_u0628_u064a_u0629_u060c_u0020", 
        "u062d_u064a_u062b u0020 u0627_u0646_u0642_u0631_u0636_u062a u0020 u0645_u0646_u0630 u0020 u0628_u0636_u0639_u0629 u0020 u0642_u0631_u0648_u0646 u0020 u0641_u0642_u0637_u002e u0020 u0648_u062d_u062a_u0649 u0020 u0628_u062f_u0627_u064a_u0629 u0020 u0627_u0644_u0639_u0635_u0631_u0020", 
        "u0627_u0644_u062d_u062f_u064a_u062b u0020 u0028_u0627_u0644_u0647_u0648_u0644_u0648_u0633_u064a_u0646_u060c u0020 u0645_u0646_u0630 u0020 u062d_u0648_u0627_u0644_u064a u0020 u0031_u0030_u002c_u0030_u0030_u0030 u0020 u0633_u0646_u0629_u0029_u060c u0020 u0643_u0627_u0646_u062a_u0020", 
        "u0627_u0644_u0623_u0633_u0648_u062f u0020 u062a_u064f_u0639_u062a_u0628_u0631 u0020 u0623_u0643_u062b_u0631 u0020 u062b_u062f_u064a_u064a_u0627_u062a u0020 u0627_u0644_u064a_u0627_u0628_u0633_u0629 u0020 u0627_u0644_u0643_u0628_u0631_u0649 u0020 u0627_u0646_u062a_u0634_u0627_u0631_u0627 u0020 u0628_u0639_u062f u0020 u0627_u0644_u0625_u0646_u0633_u0627_u0646_u060c_u0020", 
        "u062d_u064a_u062b u0020 u0643_u0627_u0646_u062a u0020 u062a_u0648_u062c_u062f u0020 u0641_u064a u0020 u0645_u0639_u0638_u0645 u0020 u0623_u0646_u062d_u0627_u0621 u0020 u0625_u0641_u0631_u064a_u0642_u064a_u0627_u060c u0020 u0627_u0644_u0643_u062b_u064a_u0631 u0020 u0645_u0646 u0020 u0623_u0646_u062d_u0627_u0621_u0020", 
        "u0623_u0648_u0631_u0627_u0633_u064a_u0627 u0020 u0645_u0646 u0020 u0623_u0648_u0631_u0648_u0628_u0627 u0020 u0627_u0644_u063a_u0631_u0628_u064a_u0629 u0020 u0648_u0635_u0648_u0644_u0627 u0020 u0625_u0644_u0649 u0020 u0627_u0644_u0647_u0646_u062f_u060c u0020 u0648_u0641_u064a_u0020", 
        "u0627_u0644_u0623_u0645_u0631_u064a_u0643_u064a_u062a_u064a_u0646_u060c u0020 u0645_u0646 u0020 u064a_u0648_u0643_u0648_u0646 u0020 u062d_u062a_u0649 u0020 u0627_u0644_u0628_u064a_u0631_u0648_u002e_u000d", 
        "u0627_u0644_u0639_u0648_u062f_u0629"
    ]
}