{
    "bounding_box": [
        [
            307, 
            32, 
            352, 
            33
        ], 
        [
            175, 
            146, 
            484, 
            34
        ], 
        [
            45, 
            185, 
            614, 
            34
        ], 
        [
            94, 
            223, 
            565, 
            34
        ], 
        [
            79, 
            262, 
            579, 
            34
        ], 
        [
            49, 
            299, 
            610, 
            35
        ], 
        [
            55, 
            337, 
            604, 
            35
        ], 
        [
            478, 
            378, 
            181, 
            33
        ]
    ], 
    "image_height": 540, 
    "image_width": 720, 
    "transcription": [
        "u0033_u002d u0020 u0627_u0644_u0627_u062e_u062a_u064a_u0627_u0631 u0020 u0627_u0644_u0625_u0644_u0647_u064a u0020 u063a_u064a_u0631 u0020 u0627_u0644_u0645_u0628_u0627_u0634_u0631 u0020 u003a u0020 u000d", 
        "u0627_u0644_u062f_u0648_u0644_u0629 u0020 u0645_u0646 u0020 u0635_u0646_u0639 u0020 u0627_u0644_u0625_u0644_u0647 u0020 u0648_u0647_u0648 u0020 u0645_u0635_u062f_u0631 u0020 u0627_u0644_u0633_u0644_u0637_u0629 u0020 u0641_u064a_u0647_u0627 u0020 u060c_u000d", 
        "u063a_u064a_u0631 u0020 u0623_u0646 u0020 u0627_u0644_u0628_u0634_u0631 u0020 u0647_u0645 u0020 u0627_u0644_u0630_u064a_u0646 u0020 u064a_u062e_u062a_u0627_u0631_u0648_u0646 u0020 u0627_u0644_u062d_u0643_u0627_u0645 u0020 u0628_u062a_u0641_u0648_u064a_u0636 u0020 u0648_u0639_u0646_u0627_u064a_u0629 u0020 u0645_u0646_u0020", 
        "u0627_u0644_u0625_u0644_u0647 u0020 u0627_u0644_u0630_u064a u0020 u064a_u0648_u062c_u0647 u0020 u062a_u0635_u0631_u0641_u0627_u062a u0020 u0648_u0627_u062e_u062a_u064a_u0627_u0631_u0627_u062a u0020 u0627_u0644_u0634_u0639_u0628 u0020 u0646_u062d_u0648 u0020 u0627_u0644_u062d_u0643_u0627_u0645_u0020", 
        "u0648_u0628_u0627_u0644_u062a_u0627_u0644_u064a u0020 u064a_u062a_u0645 u0020 u0627_u062e_u062a_u064a_u0627_u0631 u0020 u0627_u0644_u062d_u0627_u0643_u0645 u0020 u0628_u0637_u0631_u064a_u0642_u0629 u0020 u063a_u064a_u0631 u0020 u0645_u0628_u0627_u0634_u0631_u0629 u0020 u002e_u062a_u0631_u0649 u0020 u0647_u0630_u0647_u0020", 
        "u0627_u0644_u0646_u0638_u0631_u064a_u0629 u0020 u0623_u0646 u0020 u0647_u0646_u0627_u0643 u0020 u0642_u0648_u0627_u0646_u064a_u0646 u0020 u0637_u0628_u064a_u0639_u064a_u0629 u0020 u062a_u062d_u0643_u0645 u0020 u0627_u0644_u0643_u0648_u0646 u0020 u0648_u0627_u0644_u0628_u0634_u0631 u0020 u0648_u064a_u0647_u062a_u062f_u064a_u0020", 
        "u0628_u0647_u0627 u0020 u0627_u0644_u062d_u0643_u0627_u0645 u0020 u0648_u064a_u0642_u062a_u062f_u064a u0020 u0628_u0647_u0627 u0020 u0648_u0644_u0647_u0630_u0627 u0020 u0641_u0625_u0646 u0020 u0647_u0630_u0647 u0020 u0627_u0644_u0642_u0648_u0627_u0646_u064a_u0646 u0020 u0647_u064a u0020 u0627_u0644_u062a_u064a u0020 u062a_u062d_u062f_u0020", 
        "u0645_u0646 u0020 u0633_u0644_u0637_u0629 u0020 u0627_u0644_u062d_u0643_u0627_u0645 u0020 u002e"
    ]
}