{
    "bounding_box": [
        [
            202, 
            25, 
            425, 
            40
        ], 
        [
            8, 
            74, 
            619, 
            43
        ], 
        [
            299, 
            125, 
            329, 
            36
        ]
    ], 
    "image_height": 540, 
    "image_width": 720, 
    "transcription": [
        "u0033_u002e_u0623_u062d_u064a_u0627_u0621 u0020 u0645_u062a_u063a_u0627_u064a_u0631_u0629 u0020 u0627_u0644_u062a_u063a_u0630_u064a_u0629 u0020 u0643_u064a_u0645_u064a_u0627_u0626_u064a_u0627_u064b u0020 u003a u0020 u000d", 
        "u0020_u0648_u0647_u064a u0020 u0627_u0644_u0623_u062d_u064a_u0627_u0621 u0020 u0627_u0644_u062a_u064a u0020 u062a_u0633_u062a_u0639_u0645_u0644 u0020 u0627_u0644_u0645_u0631_u0643_u0628_u0627_u062a u0020 u0627_u0644_u0639_u0636_u0648_u064a_u0629_u0020", 
        "u0643_u0645_u0635_u062f_u0631 u0020 u0644_u0644_u0643_u0627_u0631_u0628_u0648_u0646 u0020 u0648_u0627_u0644_u0637_u0627_u0642_u0629_u0020"
    ]
}