{
    "bounding_box": [
        [
            812, 
            60, 
            88, 
            38
        ], 
        [
            16, 
            134, 
            952, 
            43
        ], 
        [
            16, 
            206, 
            952, 
            43
        ], 
        [
            16, 
            282, 
            952, 
            39
        ], 
        [
            29, 
            350, 
            939, 
            39
        ], 
        [
            16, 
            426, 
            952, 
            39
        ], 
        [
            760, 
            498, 
            208, 
            33
        ], 
        [
            16, 
            570, 
            952, 
            39
        ], 
        [
            16, 
            627, 
            952, 
            0
        ], 
        [
            71, 
            715, 
            897, 
            47
        ], 
        [
            33, 
            60, 
            505, 
            34
        ]
    ], 
    "image_height": 768, 
    "image_width": 1024, 
    "transcription": [
        "u0050_u004e_u0047", 
        "u0635_u0645_u0645 u0020 u0647_u0630_u0627 u0020 u0627_u0644_u0646_u0648_u0639 u0020 u0644_u064a_u0643_u0648_u0646 u0020 u0628_u062f_u064a_u0644_u0627 u0020 u0644_u0644_u0635_u0648_u0631 u0020 u0645_u0646 u0020 u0646_u0648_u0639_u00a0_u0047_u0049_u0046_u00a0_u063a_u064a_u0631 u0020 u0623_u0646_u0647 u0020 u0644_u0627_u0020", 
        "u064a_u062f_u0639_u0645 u0020 u0627_u0644_u0635_u0648_u0631 u0020 u0627_u0644_u0645_u062a_u062d_u0631_u0643_u0629_u002e u0020 u064a_u0645_u0643_u0646 u0020 u0627_u0633_u062a_u0639_u0645_u0627_u0644_u0647 u0020 u0641_u064a u0020 u062c_u0645_u064a_u0639 u0020 u0623_u0646_u0638_u0645_u0629_u0020", 
        "u0627_u0644_u062a_u0634_u063a_u064a_u0644_u002e u0020 u0639_u0646_u062f u0020 u0636_u063a_u0637 u0020 u0627_u0644_u0635_u0648_u0631_u0629 u0020 u0628_u0647_u0630_u0627 u0020 u0627_u0644_u0627_u0645_u062a_u062f_u0627_u062f u0020 u0641_u0625_u0646_u0647 u0020 u064a_u062d_u0641_u0638 u0020 u062c_u0645_u064a_u0639_u0020", 
        "u0623_u0644_u0648_u0627_u0646_u0647_u0627 u0020 u062f_u0648_u0646 u0020 u0625_u062a_u0644_u0627_u0641 u0020 u0628_u062c_u0648_u062f_u0629 u0020 u062a_u0635_u0644 u0020 u0625_u0644_u0649 u0020 u0032_u0035 u0020 u0025 u0020 u0623_u0641_u0636_u0644 u0020 u0645_u0646_u00a0_u0047_u0049_u0046_u002e_u0020", 
        "u0648_u062a_u062a_u0641_u0648_u0642 u0020 u0639_u0644_u064a_u0647_u0627 u0020 u0641_u064a u0020 u062a_u0648_u0641_u0631 u0020 u0628_u0639_u0636 u0020 u0627_u0644_u0645_u0632_u0627_u064a_u0627 u0020 u0627_u0644_u062a_u064a u0020 u0644_u0627 u0020 u062a_u062a_u0648_u0641_u0631 u0020 u0641_u064a_u0020", 
        "u0627_u0644_u0647_u064a_u0626_u0629_u00a0_u0047_u0049_u0046_u00a0_u002e_u000d", 
        "u0020_u064a_u0634_u062a_u0645_u0644 u0020 u0647_u0630_u0627 u0020 u0627_u0644_u0627_u0645_u062a_u062f_u0627_u062f u0020 u0032_u0035_u0034 u0020 u0645_u0633_u062a_u0648_u0649 u0020 u0634_u0641_u0627_u0641_u064a_u0629_u002c u0020 u0641_u064a u0020 u062d_u064a_u0646_u0020", 
        "u0623_u0646_u00a0_u0047_u0049_u0046_u00a0_u064a_u062f_u0639_u0645 u0020 u0645_u0633_u062a_u0648_u0649 u0020 u0648_u0627_u062d_u062f u0020 u0641_u0642_u0637_u002c u0020 u0648_u0641_u064a_u0647 u0020 u062a_u062d_u0643_u0651_u0645 u0020 u0623_u0643_u0628_u0631 u0020 u0628_u062f_u0631_u062c_u0629 u0020 u0633_u0637_u0648_u0639_u0020", 
        "u0627_u0644_u0635_u0648_u0631_u0629_u002c u0020 u0648_u062f_u0639_u0645 u0020 u0644_u0646_u0638_u0627_u0645 u0020 u00a0_u0034_u0038_u002d_u0062_u0069_u0074_u00a0_u0028_u0031_u0036 u0020 u0645_u0644_u064a_u0648_u0646 u0020 u0644_u0648_u0646_u0029 u0020 u0644_u0643_u0644 u0020 u0628_u0643_u0633_u0644_u002e", 
        "u0022_u0050_u006f_u0072_u0074_u0061_u0062_u006c_u0065 u0020 u004e_u0065_u0074_u0077_u006f_u0072_u006b u0020 u0047_u0072_u0061_u0070_u0068_u0069_u0063_u0073_u0022_u000d"
    ]
}