{
    "bounding_box": [
        [
            155, 
            23, 
            550, 
            27
        ], 
        [
            410, 
            52, 
            296, 
            34
        ], 
        [
            45, 
            94, 
            661, 
            27
        ], 
        [
            225, 
            124, 
            480, 
            26
        ], 
        [
            49, 
            156, 
            657, 
            29
        ], 
        [
            23, 
            194, 
            683, 
            27
        ], 
        [
            240, 
            222, 
            466, 
            28
        ], 
        [
            374, 
            251, 
            332, 
            34
        ], 
        [
            369, 
            289, 
            336, 
            32
        ], 
        [
            320, 
            322, 
            386, 
            34
        ], 
        [
            201, 
            357, 
            505, 
            34
        ], 
        [
            276, 
            400, 
            429, 
            27
        ], 
        [
            316, 
            429, 
            390, 
            33
        ], 
        [
            185, 
            464, 
            520, 
            33
        ], 
        [
            34, 
            499, 
            672, 
            33
        ]
    ], 
    "image_height": 540, 
    "image_width": 720, 
    "transcription": [
        "u0627_u0644_u062a_u0648_u0635_u064a_u0629 u0020 u0627_u0644_u0639_u0627_u0645_u0629 u0020 u0631_u0642_u0645 u0020 u0031_u0033_u003a u0020 u062a_u0633_u0627_u0648_u064a u0020 u0627_u0644_u0623_u062c_u0648_u0631 u0020 u0639_u0646 u0020 u0627_u0644_u0623_u0639_u0645_u0627_u0644 u0020 u0627_u0644_u0645_u062a_u0633_u0627_u0648_u064a_u0629 u0020 u0627_u0644_u0642_u064a_u0645_u0629_u000d", 
        "u0627_u0644_u062a_u0648_u0635_u064a_u0629 u0020 u0627_u0644_u0639_u0627_u0645_u0629 u0020 u0631_u0642_u0645 u0020 u0031_u0034_u003a u0020 u062e_u062a_u0627_u0646 u0020 u0627_u0644_u0625_u0646_u0627_u062b_u000d", 
        "u0627_u0644_u062a_u0648_u0635_u064a_u0629 u0020 u0627_u0644_u0639_u0627_u0645_u0629 u0020 u0631_u0642_u0645 u0020 u0031_u0035_u003a u0020 u062a_u062c_u0646_u0628 u0020 u0627_u0644_u062a_u0645_u064a_u064a_u0632 u0020 u0636_u062f u0020 u0627_u0644_u0645_u0631_u0623_u0629 u0020 u0641_u064a u0020 u0627_u0644_u0627_u0633_u062a_u0631_u0627_u062a_u064a_u062c_u064a_u0627_u062a u0020 u0627_u0644_u0648_u0637_u0646_u064a_u0629 u0020 u0644_u0644_u0648_u0642_u0627_u064a_u0629_u0020", 
        "u0645_u0646 u0020 u0645_u0631_u0636 u0020 u0645_u062a_u0644_u0627_u0632_u0645_u0629 u0020 u0646_u0642_u0635 u0020 u0627_u0644_u0645_u0646_u0627_u0639_u0629 u0020 u0627_u0644_u0645_u0643_u062a_u0633_u0628 u0020 u0028_u0627_u0644_u0625_u064a_u062f_u0632_u0029 u0020 u0648_u0645_u0643_u0627_u0641_u062d_u062a_u0647_u000d", 
        "u0627_u0644_u062a_u0648_u0635_u064a_u0629 u0020 u0627_u0644_u0639_u0627_u0645_u0629 u0020 u0631_u0642_u0645 u0020 u0031_u0036_u003a u0020 u0627_u0644_u0639_u0627_u0645_u0644_u0627_u062a u0020 u0628_u0644_u0627 u0020 u0623_u062c_u0631 u0020 u0641_u064a u0020 u0627_u0644_u0645_u0634_u0627_u0631_u064a_u0639 u0020 u0627_u0644_u0623_u0633_u0631_u064a_u0629 u0020 u0641_u064a u0020 u0627_u0644_u0631_u064a_u0641 u0020 u0648_u0627_u0644_u062d_u0636_u0631_u000d", 
        "u0627_u0644_u062a_u0648_u0635_u064a_u0629 u0020 u0627_u0644_u0639_u0627_u0645_u0629 u0020 u0631_u0642_u0645 u0020 u0031_u0037_u003a u0020 u0642_u064a_u0627_u0633 u0020 u0648_u062a_u0642_u062f_u064a_u0631 u0020 u0627_u0644_u0623_u0646_u0634_u0637_u0629 u0020 u0627_u0644_u0645_u0646_u0632_u0644_u064a_u0629 u0020 u0627_u0644_u062a_u064a u0020 u062a_u0642_u0648_u0645 u0020 u0628_u0647_u0627 u0020 u0627_u0644_u0646_u0633_u0627_u0621 u0020 u062f_u0648_u0646 u0020 u0623_u062c_u0631_u0020", 
        "u0648_u0627_u0644_u0627_u0639_u062a_u0631_u0627_u0641 u0020 u0628_u0647_u0630_u0647 u0020 u0627_u0644_u0623_u0646_u0634_u0637_u0629 u0020 u0641_u064a u0020 u062d_u0633_u0627_u0628 u0020 u0627_u0644_u0646_u0627_u062a_u062c u0020 u0627_u0644_u0642_u0648_u0645_u064a u0020 u0627_u0644_u0625_u062c_u0645_u0627_u0644_u064a_u000d", 
        "u0627_u0644_u062a_u0648_u0635_u064a_u0629 u0020 u0627_u0644_u0639_u0627_u0645_u0629 u0020 u0631_u0642_u0645 u0020 u0031_u0038_u003a u0020 u0627_u0644_u0646_u0633_u0627_u0621 u0020 u0627_u0644_u0645_u0639_u0648_u0642_u0627_u062a_u000d", 
        "u0627_u0644_u062a_u0648_u0635_u064a_u0629 u0020 u0627_u0644_u0639_u0627_u0645_u0629 u0020 u0631_u0642_u0645 u0020 u0031_u0039_u003a u0020 u0627_u0644_u0639_u0646_u0641 u0020 u0636_u062f u0020 u0627_u0644_u0645_u0631_u0623_u0629_u000d", 
        "u0627_u0644_u062a_u0648_u0635_u064a_u0629 u0020 u0627_u0644_u0639_u0627_u0645_u0629 u0020 u0631_u0642_u0645 u0020 u0032_u0030_u003a u0020 u0627_u0644_u062a_u062d_u0641_u0638_u0627_u062a u0020 u0639_u0644_u0649 u0020 u0627_u0644_u0627_u062a_u0641_u0627_u0642_u064a_u0629_u000d", 
        "u0627_u0644_u062a_u0648_u0635_u064a_u0629 u0020 u0627_u0644_u0639_u0627_u0645_u0629 u0020 u0631_u0642_u0645 u0020 u0032_u0031_u003a u0020 u0627_u0644_u0645_u0633_u0627_u0648_u0627_u0629 u0020 u0641_u064a u0020 u0627_u0644_u0632_u0648_u0627_u062c u0020 u0648_u0627_u0644_u0639_u0644_u0627_u0642_u0627_u062a u0020 u0627_u0644_u0623_u0633_u0631_u064a_u0629_u000d", 
        "u0627_u0644_u062a_u0648_u0635_u064a_u0629 u0020 u0627_u0644_u0639_u0627_u0645_u0629 u0020 u0631_u0642_u0645 u0020 u0032_u0032_u003a u0020 u062a_u0639_u062f_u064a_u0644 u0020 u0627_u0644_u0645_u0627_u062f_u0629 u0020 u0032_u0030 u0020 u0645_u0646 u0020 u0627_u0644_u0627_u062a_u0641_u0627_u0642_u064a_u0629_u000d", 
        "u0627_u0644_u062a_u0648_u0635_u064a_u0629 u0020 u0627_u0644_u0639_u0627_u0645_u0629 u0020 u0631_u0642_u0645 u0020 u0032_u0033_u003a u0020 u0627_u0644_u062d_u064a_u0627_u0629 u0020 u0627_u0644_u0633_u064a_u0627_u0633_u064a_u0629 u0020 u0648_u0627_u0644_u0639_u0627_u0645_u0629_u000d", 
        "u0627_u0644_u062a_u0648_u0635_u064a_u0629 u0020 u0627_u0644_u0639_u0627_u0645_u0629 u0020 u0631_u0642_u0645 u0020 u0032_u0034_u003a u0020 u0627_u0644_u0645_u0627_u062f_u0629 u0020 u0031_u0032 u0020 u0645_u0646 u0020 u0627_u0644_u0627_u062a_u0641_u0627_u0642_u064a_u0629 u0020 u0028_u0627_u0644_u0645_u0631_u0623_u0629 u0020 u0648_u0627_u0644_u0635_u062d_u0629_u0029_u000d", 
        "u0627_u0644_u062a_u0648_u0635_u064a_u0629 u0020 u0627_u0644_u0639_u0627_u0645_u0629 u0020 u0631_u0642_u0645 u0020 u0032_u0035_u003a u0020 u0627_u0644_u0641_u0642_u0631_u0629 u0020 u0031 u0020 u0645_u0646 u0020 u0627_u0644_u0645_u0627_u062f_u0629 u0020 u0034 u0020 u0645_u0646 u0020 u0627_u0644_u0627_u062a_u0641_u0627_u0642_u064a_u0629 u0020 u0028_u0627_u0644_u062a_u062f_u0627_u0628_u064a_u0631 u0020 u0627_u0644_u062e_u0627_u0635_u0629 u0020 u0627_u0644_u0645_u0624_u0642_u062a_u0629_u0029"
    ]
}