{
    "bounding_box": [
        [
            196, 
            134, 
            456, 
            33
        ], 
        [
            80, 
            168, 
            572, 
            33
        ], 
        [
            587, 
            204, 
            65, 
            32
        ], 
        [
            148, 
            237, 
            504, 
            33
        ], 
        [
            74, 
            272, 
            579, 
            32
        ], 
        [
            491, 
            309, 
            162, 
            31
        ], 
        [
            42, 
            341, 
            611, 
            33
        ], 
        [
            35, 
            376, 
            618, 
            33
        ], 
        [
            73, 
            410, 
            580, 
            33
        ], 
        [
            545, 
            447, 
            108, 
            27
        ]
    ], 
    "image_height": 540, 
    "image_width": 720, 
    "transcription": [
        "u0020_u062a_u0648_u0632_u064a_u0639 u0020 u0627_u0644_u0623_u0633_u0626_u0644_u0629 u0020 u0639_u0644_u0649 u0020 u0632_u0645_u0646 u0020 u0627_u0644_u062d_u0635_u0629 u0020 u0627_u0644_u062f_u0631_u0627_u0633_u064a_u0629 u0020 u002e u0020 u000d", 
        "u0627_u0644_u0623_u0633_u0626_u0644_u0629 u0020 u0627_u0644_u062a_u0645_u0647_u064a_u062f_u064a_u0629 u0020 u003a u0020 u0648_u062a_u0643_u0648_u0646 u0020 u0641_u064a u0020 u0628_u062f_u0627_u064a_u0629 u0020 u0627_u0644_u062f_u0631_u0633 u0020 u0020_u0648_u062a_u0647_u062f_u0641 u0020 u0625_u0644_u064a_u0020", 
        "u0627_u0644_u0623_u062a_u064a u0020 u000d", 
        "u0020 u0020 u0020_u002d u0020 u0020 u0020 u0623_u062b_u0627_u0631_u0629 u0020 u0627_u0644_u0637_u0644_u0627_u0628 u0020 u0020_u0648_u062a_u0634_u0648_u064a_u0642_u0647_u0645 u0020 u0648_u062d_u062b_u0647_u0645 u0020 u0639_u0644_u0649 u0020 u0627_u0644_u062a_u0639_u0644_u0645 u0020 u000d", 
        "u0020_u002d u0020 u0020_u0627_u0644_u0648_u0642_u0648_u0641 u0020 u0639_u0644_u0649 u0020 u0627_u0644_u062e_u0628_u0631_u0627_u062a u0020 u0627_u0644_u0633_u0627_u0628_u0642_u0629 u0020 u0644_u0644_u0637_u0644_u0627_u0628 u0020 u0644_u0627_u062a_u062e_u0627_u0630_u0647_u0627 u0020 u0623_u0633_u0627_u0633_u0627_u0020", 
        "u0644_u0644_u062f_u0631_u0633 u0020 u0627_u0644_u062c_u062f_u064a_u062f u0020 u002e_u000d", 
        "u002d u0020 u0020 u0020 u0632_u064a_u0627_u062f_u0629 u0020 u0645_u0639_u0631_u0641_u0629 u0020 u0627_u0644_u0637_u0644_u0627_u0628 u0020 u0628_u0628_u0639_u0636 u0020 u0627_u0644_u0645_u0639_u0644_u0648_u0645_u0627_u062a u0020 u0627_u0644_u0636_u0631_u0648_u0631_u064a_u0629 u0020 u0644_u0644_u062f_u0631_u0633_u0020", 
        "u0627_u0644_u062c_u062f_u064a_u062f u0020 u0020_u002d_u002d_u002d u0020 u0644_u0630_u0627 u0020 u0641_u0627_u0646 u0020 u0627_u0644_u0623_u0633_u0626_u0644_u0629 u0020 u0627_u0644_u0635_u0641_u064a_u0629 u0020 u062a_u0633_u0627_u0639_u062f u0020 u0627_u0644_u0645_u0639_u0644_u0645 u0020 u0639_u0644_u0649 u0020 u0627_u0644_u062a_u0645_u064a_u064a_u0632_u0020", 
        "u0628_u064a_u0646 u0020 u0645_u0627 u0020 u064a_u0639_u0644_u0645_u0647 u0020 u0627_u0644_u0637_u0644_u0627_u0628 u0020 u0648_u0645_u0627 u0020 u064a_u062c_u0647_u0644_u0648_u0646_u0647 u0020 u002e u0020 u0648_u064a_u0633_u062a_u062e_u062f_u0645 u0020 u0647_u0646_u0627 u0020 u0627_u0644_u0623_u0633_u0626_u0644_u0629_u0020", 
        "u0627_u0644_u0645_u062d_u062f_u0648_u062f_u0629 u0020 u0020"
    ]
}