{
    "bounding_box": [
        [
            16, 
            8, 
            686, 
            51
        ], 
        [
            390, 
            141, 
            322, 
            41
        ], 
        [
            442, 
            206, 
            270, 
            44
        ], 
        [
            445, 
            271, 
            267, 
            48
        ]
    ], 
    "image_height": 540, 
    "image_width": 720, 
    "transcription": [
        "u0020_u062d_u0648_u0627_u062f_u062b u0020 u0646_u0627_u062a_u062c_u0629 u0020 u0639_u0646 u0020 u0639_u064a_u0648_u0628 u0020 u0627_u0644_u0645_u0631_u0643_u0628_u0627_u062a", 
        "u0627_u0644_u0627_u0637_u0627_u0631_u0627_u062a u0020 u0627_u0644_u0645_u0627_u0633_u062d_u0629_u000d", 
        "u062e_u0644_u0644 u0020 u0641_u064a u0020 u0627_u0644_u0627_u0646_u0648_u0627_u0631_u000d", 
        "u062e_u0644_u0644 u0020 u0641_u064a u0020 u0627_u0644_u0643_u0648_u0627_u0628_u062d"
    ]
}