{
    "bounding_box": [
        [
            329, 
            41, 
            354, 
            58
        ], 
        [
            300, 
            136, 
            350, 
            59
        ], 
        [
            316, 
            197, 
            318, 
            63
        ], 
        [
            282, 
            262, 
            385, 
            63
        ], 
        [
            291, 
            327, 
            368, 
            63
        ], 
        [
            290, 
            392, 
            383, 
            63
        ], 
        [
            42, 
            145, 
            208, 
            38
        ], 
        [
            20, 
            268, 
            253, 
            52
        ], 
        [
            50, 
            337, 
            193, 
            52
        ], 
        [
            7, 
            393, 
            292, 
            62
        ]
    ], 
    "image_height": 540, 
    "image_width": 720, 
    "transcription": [
        "u0623_u062f_u0648_u0627_u062a u0020 u0625_u062f_u062e_u0627_u0644 u0020 u0627_u0644_u0628_u064a_u0646_u0627_u062a_u003a", 
        "u0031_u002a u0020 u0623_u062f_u0627_u0629 u0020 u0645_u0631_u0628_u0639 u0020 u0627_u0644_u0646_u0635_u000d", 
        "u0032_u002a u0020 u0623_u062f_u0627_u0629 u0020 u0632_u0631 u0020 u0627_u0644_u062e_u064a_u0627_u0631_u000d", 
        "u0033_u002a u0020 u0623_u062f_u0627_u0629 u0020 u0645_u0631_u0628_u0639 u0020 u0627_u0644_u0623_u062e_u062a_u064a_u0627_u0631_u000d", 
        "u0034_u002a u0020 u0623_u062f_u0627_u0629 u0020 u0645_u0631_u0628_u0639 u0020 u0627_u0644_u0642_u0627_u0626_u0645_u0629_u000d", 
        "u0035_u002a u0020 u0623_u062f_u0627_u0629 u0020 u0627_u0644_u062e_u0627_u0646_u0629 u0020 u0627_u0644_u0645_u0631_u0643_u0628_u0629", 
        "u0054_u0065_u0078_u0074_u0042_u006f_u0078_u000d", 
        "u0043_u0068_u0065_u0063_u006b_u0042_u006f_u0078_u000d", 
        "u004c_u0069_u0073_u0074_u0042_u006f_u0078_u000d", 
        "u0043_u006f_u006d_u0062_u006f_u0042_u006f_u0078 u0020 u0020"
    ]
}