{
    "bounding_box": [
        [
            224, 
            58, 
            253, 
            46
        ], 
        [
            114, 
            147, 
            496, 
            42
        ], 
        [
            194, 
            198, 
            348, 
            35
        ], 
        [
            75, 
            242, 
            564, 
            42
        ], 
        [
            81, 
            290, 
            573, 
            43
        ], 
        [
            130, 
            339, 
            475, 
            37
        ], 
        [
            67, 
            386, 
            580, 
            43
        ], 
        [
            234, 
            434, 
            257, 
            43
        ]
    ], 
    "image_height": 540, 
    "image_width": 720, 
    "transcription": [
        "u0645_u0644_u0627_u062d_u0638_u0629 u0020 u0647_u0627_u0645_u0629", 
        "u0020_u064a_u062e_u062a_u0644_u0641 u0020 u0627_u0644_u0637_u0644_u0627_u0628 u0020 u0641_u064a u0020 u0639_u062f_u062f u0020 u0627_u0644_u062e_u0637_u0648_u0627_u062a u0020 u0627_u0644_u062a_u064a_u0020", 
        "u064a_u0633_u062a_u062e_u062f_u0645_u0648_u0646_u0647_u0627 u0020 u0644_u0644_u0648_u0635_u0648_u0644 u0020 u0644_u0644_u062d_u0644_u000d", 
        "u0641_u0642_u062f u0020 u064a_u0628_u062f_u0623 u0020 u0637_u0627_u0644_u0628 u0020 u0628_u062a_u062e_u0645_u064a_u0646 u0020 u0623_u0630_u0643_u0649 u0020 u0645_u0646 u0020 u0637_u0627_u0644_u0628 u0020 u0622_u062e_u0631 u0020 u060c_u0020", 
        "u0628_u0645_u0639_u0646_u0649 u0020 u0623_u0646 u0020 u062a_u062e_u0645_u064a_u0646_u0647 u0020 u0627_u0644_u0623_u0648_u0644 u0020 u0633_u064a_u0648_u0635_u0644_u0647 u0020 u0623_u0633_u0631_u0639 u0020 u0644_u0644_u062d_u0644_u000d", 
        "u0648_u064a_u062c_u0628 u0020 u0645_u0631_u0627_u0639_u0627_u0629 u0020 u0627_u062e_u062a_u0644_u0627_u0641 u0020 u0642_u062f_u0631_u0627_u062a u0020 u0627_u0644_u0637_u0644_u0627_u0628_u000d", 
        "u0648_u062a_u0631_u0643 u0020 u0643_u0644 u0020 u0637_u0627_u0644_u0628 u0020 u0644_u064a_u0635_u0644 u0020 u0628_u0633_u0631_u0639_u062a_u0647 u0020 u0627_u0644_u062e_u0627_u0635_u0629 u0020 u0648_u0627_u0644_u062a_u064a_u0020", 
        "u0633_u062a_u0646_u0645_u0648 u0020 u0645_u0639 u0020 u0627_u0644_u0645_u0645_u0627_u0631_u0633_u0629"
    ]
}