{
    "bounding_box": [
        [
            61, 
            48, 
            596, 
            42
        ], 
        [
            198, 
            145, 
            478, 
            34
        ], 
        [
            190, 
            211, 
            486, 
            34
        ], 
        [
            331, 
            277, 
            345, 
            33
        ]
    ], 
    "image_height": 540, 
    "image_width": 720, 
    "transcription": [
        "u0627_u0644_u0634_u064a_u062e u0020 u062d_u0645_u062f u0020 u0628_u0646 u0020 u0639_u0628_u062f u0020 u0627_u0644_u0644_u0647 u0020 u0622_u0644 u0020 u062b_u0627_u0646_u064a u0020 u0028 u0020 u0031_u0039_u0034_u0030_u0640_u0031_u0039_u0034_u0038_u0029", 
        "u0021 u0020 u0640_u0640 u0020 u062a_u0633_u0644_u0645 u0020 u0627_u0644_u062d_u0643_u0645 u0020 u0641_u064a u0020 u0639_u0647_u062f u0020 u0648_u0627_u0644_u062f_u0647 u0020 u0627_u0644_u0634_u064a_u062e u0020 u0639_u0628_u062f u0020 u0627_u0644_u0644_u0647 u0020 u002e_u000d", 
        "u0032 u0020 u0640_u0640 u0020 u0639_u0631_u0641 u0020 u0628_u0627_u0644_u062a_u062f_u064a_u0646 u0020 u0648_u0643_u0627_u0646 u0020 u064a_u062a_u0645_u062a_u0639 u0020 u0628_u0634_u0639_u0628_u064a_u0629 u0020 u0648_u0627_u0633_u0639_u0629 u0020 u002e_u000d", 
        "u0033 u0020 u0640_u0640 u0020 u0648_u0627_u0641_u062a_u0647 u0020 u0627_u0644_u0645_u0646_u064a_u0629 u0020 u0641_u064a u0020 u062d_u064a_u0627_u0629 u0020 u0648_u0627_u0644_u062f_u0647 u0020 u002e_u0020"
    ]
}