{
    "bounding_box": [
        [
            59, 
            57, 
            636, 
            38
        ], 
        [
            152, 
            108, 
            543, 
            44
        ], 
        [
            35, 
            163, 
            660, 
            38
        ], 
        [
            671, 
            222, 
            24, 
            22
        ], 
        [
            123, 
            312, 
            572, 
            42
        ], 
        [
            68, 
            364, 
            627, 
            42
        ], 
        [
            85, 
            417, 
            610, 
            38
        ], 
        [
            48, 
            470, 
            648, 
            42
        ], 
        [
            319, 
            523, 
            377, 
            46
        ]
    ], 
    "image_height": 540, 
    "image_width": 720, 
    "transcription": [
        "u0020_uf03f u0020 u0647_u0644 u0020 u0647_u0630_u0647 u0020 u0627_u0644_u062a_u0640_u0639_u0627_u0645_u0644_u0627_u062a u0020 u0623_u0648 u0020 u0627_u0644_u0639_u0644_u0627_u0642_u0627_u062a u0020 u0623_u0648 u0020 u0627_u0644_u0623_u062e_u0637_u0627_u0621 u0020 u0625_u0646_u0020", 
        "u0648_u062c_u062f_u062a u0020 u0628_u0647_u0630_u0627 u0020 u0627_u0644_u062d_u062c_u0645 u0020 u0645_u0628_u0631_u0631_u0627_u064b u0020 u0644_u062d_u0645_u0640_u0644_u0627_u062a u0020 u0627_u0644_u062a_u0634_u0647_u064a_u0631_u0020", 
        "u0648_u0627_u0644_u0627_u062a_u0647_u0627_u0645_u0627_u062a u0020 u0639_u062f_u0627 u0020 u0639_u0646 u0020 u062a_u062c_u0645_u064a_u062f u0020 u0627_u0644_u062d_u0633_u0627_u0628_u0627_u062a u0020 u0623_u0648 u0020 u0627_u0644_u0645_u0635_u0627_u062f_u0631_u0627_u062a_u0020", 
        "u061f_u000d", 
        "uf03f u0020 u0020_u0648_u0645_u0627_u0630_u0627 u0020 u0633_u064a_u0643_u0648_u0646 u0020 u0645_u0646 u0020 u0639_u0640_u0642_u0627_u0628 u0020 u0639_u0644_u0649 u0020 u0623_u0645_u0631_u064a_u0643_u0627 u0020 u0641_u064a_u0020", 
        "u0636_u0631_u0628_u0627_u062a_u0647_u0627 u0020 u0627_u0644_u062c_u0648_u064a_u0629 u0020 u0639_u0646 u0020 u0637_u0640_u0631_u064a_u0642 u0020 u0028 u0020 u0627_u0644_u062e_u0640_u0637_u0623 u0020 u0641_u0642_u0640_u0637 u0020 u0029 u0020 u0639_u0644_u0649_u0020", 
        "u0627_u0644_u0645_u0633_u0640_u0627_u062c_u062f u0020 u0648_u0627_u0644_u0645_u0633_u062a_u0634_u0641_u064a_u0627_u062a u0020 u0648_u0627_u0644_u0623_u0639_u0640_u0631_u0627_u0633 u0020 u0648_u0627_u0644_u0627_u062d_u062a_u0641_u0627_u0644_u0627_u062a_u0020", 
        "u0648_u0627_u0644_u062a_u064a u0020 u0643_u0627_u0646 u0020 u0646_u0635_u064a_u0640_u0628_u0647_u0627 u0020 u0641_u0642_u0637 u0020 u0028_u0034_u0030_u0030_u0030_u0029 u0020 u062d_u0633_u0628 u0020 u0645_u0627 u0020 u0623_u0634_u0627_u0631_u062a_u0020", 
        "u0625_u0644_u064a_u0647 u0020 u0635_u062d_u064a_u0641_u0629 u0020 u0646_u064a_u0648_u064a_u0648_u0631_u0643 u0020 u062a_u0627_u064a_u0645_u0632 u0020 u002e_u0020"
    ]
}