{
    "bounding_box": [
        [
            78, 
            136, 
            596, 
            43
        ], 
        [
            408, 
            189, 
            284, 
            38
        ], 
        [
            327, 
            232, 
            347, 
            38
        ], 
        [
            321, 
            281, 
            353, 
            42
        ], 
        [
            268, 
            328, 
            406, 
            43
        ], 
        [
            51, 
            376, 
            623, 
            43
        ], 
        [
            555, 
            424, 
            137, 
            35
        ], 
        [
            227, 
            16, 
            290, 
            56
        ], 
        [
            155, 
            82, 
            447, 
            31
        ], 
        [
            61, 
            500, 
            15, 
            10
        ]
    ], 
    "image_height": 540, 
    "image_width": 720, 
    "transcription": [
        "u0643_u062b_u064a_u0631_u0627 u0020 u0645_u0627 u0020 u062a_u0633_u062a_u062e_u062f_u0645 u0020 u062a_u0644_u0643 u0020 u0627_u0644_u0628_u0631_u0627_u0645_u062c u0020 u0644_u0623_u063a_u0631_u0627_u0636 u0020 u0625_u0639_u0644_u0627_u0646_u064a_u0629_u0020", 
        "u0648_u0644_u062c_u0645_u0639 u0020 u0645_u0639_u0644_u0648_u0645_u0627_u062a u0020 u0639_u0646_u003a_u000d", 
        "u0639_u0627_u062f_u0627_u062a u0020 u0627_u0644_u0634_u062e_u0635 u0020 u0627_u0644_u0634_u0631_u0627_u0626_u064a_u0629 u0020 u0020_u000d", 
        "u0639_u0627_u062f_u0627_u062a_u0647 u0020 u0641_u064a u0020 u062a_u0635_u0641_u062d u0020 u0627_u0644_u0625_u0646_u062a_u0631_u0646_u062a u0020 u000d", 
        "u0623_u0633_u0644_u0648_u0628_u0647 u0020 u0641_u064a u0020 u0627_u0644_u062a_u0633_u0648_u0642 u0020 u0627_u0644_u0625_u0644_u0643_u062a_u0631_u0648_u0646_u064a u0020 u000d", 
        "u062a_u0633_u062a_u063a_u0644 u0020 u062a_u0644_u0643 u0020 u0627_u0644_u0645_u0639_u0644_u0648_u0645_u0627_u062a u0020 u0641_u064a u0020 u062a_u0648_u062c_u064a_u0647 u0020 u0625_u0639_u0644_u0627_u0646_u0627_u062a u0020 u062a_u062c_u0627_u0631_u064a_u0629_u0020", 
        "u062e_u0627_u0635_u0629 u0020 u0644_u0647_u002e_u000d", 
        "u0647_u062c_u0645_u0627_u062a u0020 u0627_u0644_u0623_u0639_u062f_u0627_u0621", 
        "u0628_u0631_u0645_u062c_u064a_u0627_u062a u0020 u0627_u0644_u062a_u062c_u0633_u0633 u0020 u0020_u0053_u0070_u0079_u0077_u0061_u0072_u0065 u0020 u003a u0020 u0627_u0644_u0645_u062e_u0627_u0637_u0631", 
        "u0039_u0038"
    ]
}