{
    "bounding_box": [
        [
            242, 
            49, 
            235, 
            36
        ], 
        [
            227, 
            136, 
            422, 
            31
        ], 
        [
            53, 
            179, 
            596, 
            35
        ], 
        [
            579, 
            225, 
            70, 
            22
        ], 
        [
            82, 
            265, 
            567, 
            33
        ], 
        [
            441, 
            305, 
            207, 
            28
        ], 
        [
            65, 
            348, 
            584, 
            34
        ], 
        [
            68, 
            388, 
            581, 
            33
        ], 
        [
            202, 
            425, 
            447, 
            30
        ]
    ], 
    "image_height": 540, 
    "image_width": 720, 
    "transcription": [
        "u0033_u002e u0020 u062a_u0639_u0631_u064a_u0641_u0627_u062a u0020 u0639_u0627_u0645_u0629", 
        "u0627_u0644_u062e_u0644_u064a_u0629_u003a u0020 u0647_u064a u0020 u0646_u0627_u062a_u062c u0020 u062a_u0642_u0627_u0637_u0639 u0020 u0627_u0644_u0635_u0641 u0020 u0645_u0639 u0020 u0627_u0644_u0639_u0645_u0648_u062f_u002e_u000d", 
        "u0627_u0644_u0635_u0641_u003a u0020 u0647_u0648 u0020 u0633_u0637_u0631 u0020 u0623_u0641_u0642_u064a u0020 u0645_u0646 u0020 u0627_u0644_u062e_u0644_u0627_u064a_u0627 u0020 u0648_u064a_u0648_u062c_u062f u0020 u0631_u0642_u0645 u0020 u064a_u0634_u064a_u0631 u0020 u0625_u0644_u0649 u0020 u0643_u0644_u0020", 
        "u0635_u0641_u002e_u000d", 
        "u0627_u0644_u0639_u0645_u0648_u062f_u003a u0020 u0639_u0628_u0627_u0631_u0629 u0020 u0639_u0646 u0020 u0633_u0637_u0631 u0020 u0631_u0623_u0633_u064a u0020 u0645_u0646 u0020 u0627_u0644_u062e_u0644_u0627_u064a_u0627 u0020 u0648_u064a_u0648_u062c_u062f u0020 u062d_u0631_u0641_u0020", 
        "u064a_u0634_u064a_u0631 u0020 u0625_u0644_u0649 u0020 u0643_u0644 u0020 u0639_u0645_u0648_u062f_u002e_u000d", 
        "u0639_u0644_u0627_u0645_u0627_u062a u0020 u062a_u0628_u0648_u064a_u0628 u0020 u0648_u0631_u0642_u0629 u0020 u0627_u0644_u0639_u0645_u0644_u003a u0020 u0647_u064a u0020 u0627_u0644_u0639_u0644_u0627_u0645_u0627_u062a u0020 u0627_u0644_u0645_u0648_u062c_u0648_u062f_u0629 u0020 u0623_u0633_u0641_u0644_u0020", 
        "u0648_u0631_u0642_u0629 u0020 u0627_u0644_u0639_u0645_u0644 u0020 u062d_u064a_u062b u0020 u064a_u0646_u0642_u0633_u0645 u0020 u0643_u0644 u0020 u0645_u0635_u0646_u0641 u0020 u0625_u0644_u0649 u0020 u0639_u062f_u0629 u0020 u0623_u0648_u0631_u0627_u0642 u0020 u0639_u0645_u0644_u060c_u0020", 
        "u0648_u064a_u0645_u0643_u0646 u0020 u0632_u064a_u0627_u062f_u062a_u0647_u0627 u0020 u0628_u0627_u0644_u0625_u0636_u0627_u0641_u0629 u0020 u0623_u0648 u0020 u0625_u0646_u0642_u0627_u0635_u0647_u0627 u0020 u0628_u0627_u0644_u062d_u0630_u0641_u002e"
    ]
}