{
    "bounding_box": [
        [
            612, 
            116, 
            22, 
            8
        ], 
        [
            66, 
            128, 
            568, 
            12
        ], 
        [
            38, 
            141, 
            593, 
            13
        ], 
        [
            119, 
            155, 
            515, 
            12
        ], 
        [
            57, 
            181, 
            574, 
            12
        ], 
        [
            57, 
            195, 
            577, 
            10
        ], 
        [
            46, 
            211, 
            586, 
            12
        ], 
        [
            335, 
            225, 
            299, 
            10
        ], 
        [
            56, 
            241, 
            575, 
            12
        ], 
        [
            70, 
            255, 
            561, 
            10
        ], 
        [
            71, 
            268, 
            560, 
            9
        ], 
        [
            157, 
            278, 
            477, 
            10
        ], 
        [
            51, 
            302, 
            580, 
            12
        ], 
        [
            70, 
            316, 
            561, 
            10
        ], 
        [
            56, 
            328, 
            575, 
            10
        ], 
        [
            57, 
            340, 
            574, 
            10
        ], 
        [
            66, 
            352, 
            566, 
            10
        ], 
        [
            99, 
            364, 
            535, 
            10
        ], 
        [
            48, 
            379, 
            583, 
            13
        ], 
        [
            64, 
            393, 
            567, 
            10
        ], 
        [
            401, 
            405, 
            233, 
            10
        ], 
        [
            35, 
            440, 
            596, 
            11
        ], 
        [
            60, 
            453, 
            572, 
            10
        ], 
        [
            66, 
            465, 
            565, 
            10
        ], 
        [
            97, 
            477, 
            535, 
            10
        ], 
        [
            279, 
            19, 
            125, 
            15
        ], 
        [
            191, 
            47, 
            302, 
            11
        ], 
        [
            280, 
            71, 
            123, 
            10
        ], 
        [
            180, 
            88, 
            323, 
            13
        ], 
        [
            658, 
            463, 
            12, 
            15
        ]
    ], 
    "image_height": 540, 
    "image_width": 720, 
    "transcription": [
        "u062a_u0645_u0647_u064a_u062f_u000d", 
        "u0627_u0644_u063a_u0640_u0631_u0636 u0020 u0645_u0640_u0646 u0020 u0647_u0640_u0630_u0647 u0020 u0627_u0644_u062f_u0631_u0627_u0633_u0640_u0629 u0020 u0647_u0640_u0648 u0020 u0627_u0644_u062a_u0648_u0635_u0640_u0644 u0020 u0625_u0644_u0649 u0020 u0645_u0646_u0638_u0640_u0648_u0645_u0629 u0020 u0644_u0628_u0646_u0640_u0627_u0621 u0020 u0022_u0642_u0627_u0639_u0640_u062f_u0629 u0020 u062d_u0643_u0640_u0645 u0020 u062f_u064a_u0645_u0642_u0640_u0631_u0627_u0637_u064a u0020 u062f_u0633_u062a_u0640_u0648_u0631_u064a_u060c u0020 u0644_u062f_u0648_u0644_u0640_u0629 u0020 u062a_u0633_u0648_u062f_u0647_u0627 u0020 u0627_u0644_u0639_u0640_u062f_u0627_u0644_u0629 u0020 u0648_u0627_u0644_u0642_u0627_u0646_u0640_u0648_u0646 u0020 u0648_u0627_u0644_u0645_u0633_u0640_u0640_u0627_u0648_u0627_u0629 u0020 u0628_u064a_u0640_u0646 u0020 u062c_u0645_u064a_u0640_u0640_u0639 u0020 u0623_u0628_u0646_u0640_u0640_u0627_u0621 u0020 u0627_u0644_u0648_u0637_u0640_u0640_u0646_u000d", 
        "u0628_u0643_u0627_u0641_u0629 u0020 u0623_u0637_u064a_u0627_u0641_u0647_u0645 u0020 u0627_u0644_u0639_u0631_u0642_u064a_u0629_u0022_u060c u0020 u0641_u0640 u0020 u0022_u0644_u064a_u0628_u064a_u0627 u0020 u0644_u0643_u0644 u0020 u0627_u0644_u0644_u064a_u0628_u064a_u064a_u0646_u0022 u0020 u0648_u0644_u0627 u0020 u0623_u0641_u0636_u0644_u064a_u0629 u0020 u0644_u0647_u0630_u0627 u0020 u0639_u0644_u0649 u0020 u0630_u0627_u0643_u060c u0020 u0628_u0644 u0020 u0623_u0646 u0020 u0627_u0644_u062c_u0645_u064a_u0639 u0020 u0633_u0648_u0627_u0633_u064a_u0629 u0020 u0623_u0645_u0627_u0645 u0020 u0627_u0644_u0642_u0627_u0646_u0648_u0646_u002e u0020 u0648_u0645_u0646 u0020 u0623_u062c_u0644 u0020 u0623_u0646 u0020 u062a_u0633_u064a_u0631 u0020 u0644_u064a_u0628_u064a_u0627 u0020 u0628_u062e_u0637_u0649 u0020 u0648_u0627_u062b_u0642_u0629 u0020 u0625_u0644_u0649 u0020 u0627_u0644_u0623_u0645_u0627_u0645 u0020 u0644_u062a_u0644_u062d_u0642 u0020 u0628_u0631_u0643_u0628 u0020 u0627_u0644_u062f_u0648_u0644_u0020", 
        "u0627_u0644_u0645_u062a_u0637_u0648_u0631_u0629_u060c u0020 u0648_u0644_u062a_u0634_u0627_u0631_u0643 u0020 u0627_u0644_u0623_u0645_u0645 u0020 u0648_u062a_u062a_u0646_u0627_u0641_u0633 u0020 u0645_u0639_u0647_u0627 u0020 u0641_u064a u0020 u0643_u0627_u0641_u0629 u0020 u0627_u0644_u0645_u062c_u0627_u0644_u0627_u062a_u060c u0020 u0648_u0644_u062a_u062e_u0631_u062c u0020 u0645_u0646 u0020 u062f_u064a_u0645_u0648_u0645_u0629 u0020 u0627_u0644_u062a_u062e_u0644_u0641 u0020 u0648_u0627_u0644_u0641_u0648_u0636_u0649 u0020 u0627_u0644_u062a_u064a u0020 u0639_u0627_u0634_u062a_u0647_u0627 u0020 u0645_u0646_u0630 u0020 u0623_u0643_u062b_u0631 u0020 u0645_u0646 u0020 u0645_u0627 u0020 u062a_u0633_u0639_u0641_u0646_u0627 u0020 u0628_u0647 u0020 u0630_u0627_u0643_u0631_u0629 u0020 u0627_u0644_u062a_u0627_u0631_u064a_u062e_u002e_u000d", 
        "u0627_u0644_u0645_u0648_u0627_u0637_u0646 u0020 u0627_u0644_u0644_u064a_u0628_u064a u0020 u064a_u062a_u0645_u062a_u0639 u0020 u0628_u0643_u0627_u0641_u0629 u0020 u0645_u0642_u0648_u0645_u0627_u062a u0020 u0627_u0644_u062a_u0637_u0648_u0631 u0020 u0648_u062a_u062d_u0642_u064a_u0642 u0020 u0627_u0644_u0623_u0645_u062c_u0627_u062f u0020 u0644_u0648_u0637_u0646_u0647 u0020 u0648_u0627_u0644_u062d_u064a_u0627_u0629 u0020 u0627_u0644_u0643_u0631_u064a_u0645_u0629 u0020 u0644_u0646_u0641_u0633_u0647 u0020 u0648_u0623_u0633_u0631_u062a_u0647_u002e u0020 u0643_u0644 u0020 u0645_u0627 u0020 u064a_u062d_u062a_u0627_u062c_u0647 u0020 u0647_u0648 u0020 u062f_u0648_u0644_u0629 u0020 u062a_u0648_u0641_u0631 u0020 u0644_u0647 u0020 u0627_u0644_u062d_u0631_u064a_u0629 u0020 u0648_u0627_u0644_u062f_u064a_u0645_u0648_u0642_u0631_u0627_u0637_u064a_u0629 u0020 u002e_u002e u0020 u0648_u0642_u0627_u0639_u062f_u0629 u0020 u0633_u0648_u064a_u0629_u002e_u002e_u0020", 
        "u0639_u0642_u0644_u0627_u0646_u064a_u0629_u002e_u002e u0020 u0642_u0648_u064a_u0629_u002e_u002e u0020 u062a_u062a_u0645_u062a_u0639 u0020 u0628_u0627_u0644_u0625_u0633_u062a_u0645_u0631_u0627_u0631_u064a_u0629 u0020 u0627_u0644_u062a_u064a u0020 u0644_u0627 u0020 u062a_u062d_u064a_u062f u0020 u0639_u0646 u0020 u0627_u0644_u0637_u0631_u064a_u0642 u0020 u0644_u064a_u0646_u0637_u0644_u0642 u0020 u0645_u0646_u0647_u0627 u0020 u0627_u0644_u0645_u0648_u0627_u0637_u0646 u0020 u0628_u0623_u0645_u0627_u0646 u0020 u0648_u0633_u0644_u0627_u0645 u0020 u062f_u0648_u0646 u0020 u0623_u0646 u0020 u062a_u0624_u062b_u0631 u0020 u0639_u0644_u0649 u0020 u062a_u0641_u0643_u064a_u0631_u0647 u0020 u0639_u0648_u0627_u0645_u0644 u0020 u0627_u0644_u062a_u0634_u0648_u064a_u0634 u0020 u0627_u0644_u0646_u0627_u0628_u0639_u0629 u0020 u0645_u0646 u0020 u0627_u0644_u062e_u0648_u0641 u0020 u0648_u0627_u0644_u0625_u0636_u0637_u0647_u0627_u062f_u002e_u000d", 
        "u064a_u062c_u0628 u0020 u0623_u0646 u0020 u0646_u0646_u0647_u064a u0020 u0639_u0635_u0631 u0020 u0627_u0644_u0641_u0648_u0636_u0649 u0020 u0625_u0644_u0649 u0020 u0627_u0644_u0623_u0628_u062f_u060c u0020 u0643_u0645_u0627 u0020 u064a_u062c_u0628 u0020 u0623_u0646 u0020 u0644_u0627 u0020 u0646_u0643_u0648_u0646 u0020 u0639_u0627_u0644_u0629 u0020 u0639_u0644_u0649 u0020 u0627_u0644_u0645_u062c_u062a_u0645_u0639 u0020 u0627_u0644_u062f_u0648_u0644_u064a_u060c u0020 u0628_u0644 u0020 u0639_u0644_u0649 u0020 u0627_u0644_u0639_u0643_u0633 u0020 u0645_u0646 u0020 u0630_u0644_u0643_u060c u0020 u064a_u062c_u0628 u0020 u0623_u0646 u0020 u0646_u064f_u0633_u0627_u0647_u0645 u0020 u0641_u064a u0020 u0643_u0627_u0641_u0629 u0020 u0645_u062c_u0627_u0644_u0627_u062a u0020 u0627_u0644_u062d_u064a_u0627_u0629_u060c u0020 u0644_u064a_u0643_u0648_u0646 u0020 u0644_u0646_u0627 u0020 u062f_u0648_u0631 u0020 u0647_u0627_u0645_u0020", 
        "u0628_u064a_u0646 u0020 u0627_u0644_u0623_u0645_u0645_u060c u0020 u062f_u0648_u0631 u0020 u0627_u0646_u062a_u0627_u062c_u064a u0020 u0648_u0644_u064a_u0633 u0020 u062f_u0648_u0631 u0020 u0633_u064a_u0627_u0633_u064a u0020 u062a_u062e_u0631_u064a_u0628_u064a u0020 u0643_u0645_u0627 u0020 u0643_u0627_u0646 u0020 u0639_u0644_u064a_u0647 u0020 u0627_u0644_u062d_u0627_u0644 u0020 u0641_u064a u0020 u0639_u0647_u062f u0020 u0627_u0644_u0637_u0627_u063a_u064a_u0629_u002e_u000d", 
        "u064a_u062c_u0628 u0020 u0623_u0646 u0020 u0646_u062e_u062a_u0627_u0631 u0020 u0645_u0646_u0638_u0648_u0645_u0629 u0020 u062d_u0643_u0645 u0020 u0644_u0647_u0627 u0020 u0623_u0647_u062f_u0627_u0641 u0020 u0648_u0627_u0636_u062d_u0629 u0020 u0645_u0646 u0020 u0623_u062c_u0644 u0020 u0645_u0633_u062a_u0642_u0628_u0644 u0020 u0627_u0644_u0648_u0637_u0646 u0020 u0648_u0627_u0644_u0645_u0648_u0627_u0637_u0646_u002e u0020 u0623_u0647_u062f_u0627_u0641 u0020 u0639_u0644_u0649 u0020 u0627_u0644_u0645_u062f_u0649 u0020 u0627_u0644_u0642_u0635_u064a_u0631 u0020 u0648_u0623_u0647_u062f_u0627_u0641 u0020 u0639_u0644_u0649 u0020 u0627_u0644_u0645_u062f_u0649 u0020 u0627_u0644_u0628_u0639_u064a_u062f_u002e u0020 u0648_u0639_u0644_u064a_u0647 u0020 u064a_u062c_u0628 u0020 u062a_u062d_u062f_u064a_u062f u0020 u0647_u0630_u0647 u0020 u0627_u0644_u0623_u0647_u062f_u0627_u0641_u0020", 
        "u0628_u0648_u0636_u0648_u062d u0020 u0648_u0628_u0646_u0627_u0621 u0020 u0627_u0644_u0645_u0624_u0633_u0633_u0627_u062a u0020 u0627_u0644_u062a_u064a u0020 u062a_u062d_u0642_u0642_u0647_u0627_u060c u0020 u0648_u0627_u0644_u062a_u064a u0020 u064a_u062c_u0628 u0020 u0623_u0646 u0020 u064a_u062f_u064a_u0631_u0647_u0627 u0020 u0627_u0644_u0625_u0646_u0633_u0627_u0646 u0020 u0627_u0644_u0644_u064a_u0628_u064a u0020 u0627_u0644_u062d_u0631_u060c u0020 u0627_u0644_u0645_u062a_u0639_u0644_u0645_u060c u0020 u0627_u0644_u0645_u062b_u0642_u0641_u060c u0020 u0627_u0644_u0645_u062d_u062a_u0631_u0641_u060c u0020 u0648_u0644_u064a_u0642_u0648_u0645 u0020 u0628_u0645_u0647_u0627_u0645_u0647 u0020 u0641_u064a u0020 u0628_u064a_u0626_u0629 u0020 u062f_u064a_u0645_u0648_u0642_u0631_u0627_u0637_u064a_u0629 u0020 u0648_u0628_u062f_u0627_u0641_u0639 u0020 u0645_u0646 u0020 u0627_u0644_u062d_u0648_u0627_u0641_u0632_u0020", 
        "u0627_u0644_u0645_u0634_u062c_u0639_u0629 u0020 u0648_u0631_u0648_u062d u0020 u0645_u0646 u0020 u0627_u0644_u0648_u0637_u0646_u064a_u0629 u0020 u0627_u0644_u0642_u0648_u064a_u0629 u0020 u0627_u0644_u062a_u064a u0020 u062a_u062c_u0639_u0644_u0647 u0020 u0631_u0627_u0636_u064d u0020 u0639_u0646 u0020 u0645_u0627 u0020 u064a_u0642_u0648_u0645 u0020 u0628_u0647 u0020 u0645_u0646 u0020 u0623_u062c_u0644 u0020 u0627_u0644_u0648_u0637_u0646 u0020 u0648_u0645_u0646 u0020 u0623_u062c_u0644 u0020 u0645_u0633_u062a_u0642_u0628_u0644_u0647 u0020 u0648_u0645_u0633_u062a_u0642_u0628_u0644 u0020 u0623_u0628_u0646_u0627_u0626_u0647 u0020 u0648_u0627_u062d_u0641_u0627_u062f_u0647_u002e u0020 u0627_u0644_u0625_u0646_u0633_u0627_u0646 u0020 u0628_u0637_u0628_u064a_u0639_u062a_u0647 u0020 u062f_u0627_u0626_u0645_u0627_u064b u0020 u0648_u0639_u0644_u0649 u0020 u0645_u0631 u0020 u0627_u0644_u062a_u0627_u0631_u064a_u062e_u0020", 
        "u064a_u0628_u062d_u062b u0020 u0639_u0646 u0020 u0627_u0644_u0625_u0633_u062a_u0642_u0631_u0627_u0631 u0020 u0644_u064a_u062e_u0644_u0642 u0020 u0648_u064a_u0628_u062f_u0639_u002e u0020 u0645_u0646 u0020 u0627_u0644_u0645_u0633_u062a_u062d_u064a_u0644 u0020 u0623_u0646 u0020 u062a_u0642_u0648_u0645 u0020 u0628_u0639_u0645_u0644 u0020 u0645_u0627 u0020 u0648_u062a_u062c_u064a_u062f_u0647 u0020 u0648_u0623_u0646_u062a u0020 u0641_u064a u0020 u062d_u0627_u0644_u0629 u0020 u062a_u0634_u0648_u064a_u0634 u0020 u0641_u0643_u0631_u064a u0020 u062e_u0627_u0635_u0629 u0020 u0627_u0644_u0646_u0627_u0628_u0639 u0020 u0645_u0646 u0020 u0627_u0644_u062e_u0648_u0641 u0020 u0648_u0627_u0644_u0625_u0636_u0637_u0647_u0627_u062f_u002e_u000d", 
        "u0643_u0645_u0627 u0020 u064a_u062c_u0628 u0020 u0623_u0646 u0020 u0646_u064f_u0639_u0637_u064a u0020 u0627_u0644_u0641_u0631_u0635_u0629 u0020 u0644_u0644_u0645_u0631_u0623_u0629 u0020 u0627_u0644_u0644_u064a_u0628_u064a_u0629 u0020 u0644_u062a_u0634_u0627_u0631_u0643 u0020 u0641_u064a u0020 u0628_u0646_u0627_u0621 u0020 u0627_u0644_u0648_u0637_u0646 u0020 u0628_u0642_u062f_u0631 u0020 u0645_u0627 u0020 u062a_u0633_u0645_u062d u0020 u0628_u0647 u0020 u0627_u0645_u0643_u0627_u0646_u064a_u0627_u062a_u0647_u0627_u060c u0020 u0623_u064a u0020 u0623_u0646_u0647 u0020 u064a_u0645_u0643_u0646_u0647_u0627 u0020 u0627_u0644_u0645_u0633_u0627_u0639_u062f_u0629 u0020 u0628_u0634_u0643_u0644 u0020 u0645_u0624_u0642_u062a u0020 u0623_u0648 u0020 u062f_u0627_u0626_u0645 u0020 u0623_u0648 u0020 u0634_u0628_u0647 u0020 u062f_u0627_u0626_u0645 u0020 u0637_u0628_u0642_u0627_u064b u0020 u0644_u0638_u0631_u0648_u0641_u0647_u0627 u0020 u0627_u0644_u0639_u0627_u0626_u0644_u064a_u0629_u0020", 
        "u0648_u0627_u0644_u0627_u062c_u062a_u0645_u0627_u0639_u064a_u0629_u060c u0020 u0641_u0627_u0644_u0645_u0631_u0623_u0629 u0020 u0627_u0644_u0644_u064a_u0628_u064a_u0629 u0020 u064a_u0645_u0643_u0646 u0020 u0623_u0646 u0020 u062a_u0633_u0627_u0647_u0645 u0020 u0645_u0646 u0020 u0627_u0644_u0628_u064a_u062a u0020 u0648_u0645_u0646 u0020 u0627_u0644_u0645_u0643_u062a_u0628 u0020 u0646_u0638_u0631_u0627_u064b u0020 u0644_u0644_u062a_u0637_u0648_u0631_u0627_u062a u0020 u0627_u0644_u062a_u0643_u0646_u0648_u0644_u0648_u062c_u064a_u0629 u0020 u0641_u064a u0020 u0627_u0644_u0639_u0627_u0644_u0645_u060c u0020 u0641_u0627_u0644_u0645_u0631_u0623_u0629 u0020 u0627_u0644_u0644_u064a_u0628_u064a_u0629 u0020 u0628_u0639_u062f u0020 u0627_u0644_u062a_u062f_u0631_u064a_u0628 u0020 u0627_u0644_u0644_u0627_u0632_u0645 u0020 u064a_u0645_u0643_u0646_u0647_u0627 u0020 u0623_u0646 u0020 u062a_u064f_u0633_u0627_u0647_u0645 u0020 u0645_u0646 u0020 u062e_u0644_u0627_u0644_u0020", 
        "u0627_u0633_u062a_u062e_u062f_u0627_u0645 u0020 u0627_u0644_u062a_u0643_u0646_u0648_u0644_u0646_u0648_u062c_u064a_u0627 u0020 u2013 u0020 u0623_u064a u0020 u0645_u0646 u0020 u062e_u0644_u0627_u0644 u0020 u062c_u0647_u0627_u0632 u0020 u0627_u0644_u0643_u0645_u0628_u064a_u0648_u062a_u0631 u0020 u0641_u064a u0020 u0627_u0644_u0628_u064a_u062a u0020 u0648_u0645_u0646 u0020 u062e_u0644_u0627_u0644 u0020 u0645_u0624_u0633_u0633_u0627_u062a u0020 u062a_u0642_u0648_u0645 u0020 u0627_u0644_u062f_u0648_u0644_u0629 u0020 u0628_u0625_u0646_u0634_u0627_u0626_u0647_u0627 u0020 u0644_u0644_u0645_u0631_u0623_u0629 u0020 u0627_u0644_u0644_u064a_u0628_u064a_u0629 u0020 u0623_u0648 u0020 u0628_u0627_u0644_u0639_u0645_u0644 u0020 u062c_u0646_u0628_u0627_u064b u0020 u0625_u0644_u0649 u0020 u062c_u0646_u0628 u0020 u0645_u0639 u0020 u0623_u062e_u064a_u0647_u0627 u0020 u0627_u0644_u0644_u064a_u0628_u064a_u002e u0020 u0648_u0627_u0644_u0644_u0647 u0020 u0623_u062c_u062f_u0647_u0627_u0020", 
        "u0635_u0639_u0628_u0629 u0020 u0623_u0646 u0020 u0623_u0642_u0648_u0644 u0020 u201d_u064a_u062c_u0628 u0020 u0623_u0646 u0020 u0646_u0639_u0637_u064a u0020 u0627_u0644_u0641_u0631_u0635_u0629 u0020 u0644_u0644_u0645_u0631_u0623_u0629_u201c u0020 u0645_u0645_u0627 u0020 u064a_u062f_u0644 u0020 u0639_u0644_u0649 u0020 u0623_u0646_u0646_u0627 u0020 u0646_u062a_u062d_u0643_u0645 u0020 u0641_u064a u0020 u0645_u0635_u064a_u0631 u0020 u0627_u0644_u0645_u0631_u0623_u0629 u0020 u0641_u064a u0020 u0644_u064a_u0628_u064a_u0627 u0020 u0644_u0646_u0642_u0631_u0631 u0020 u0645_u0627 u0020 u0625_u0630_u0627 u0020 u0643_u0627_u0646_u062a u0020 u062c_u062f_u064a_u0631_u0629 u0020 u0628_u0647_u0630_u0647 u0020 u0627_u0644_u0641_u0631_u0635_u0629 u0020 u0623_u0645 u0020 u0644_u0627_u2013 u0020 u0647_u0630_u0627 u0020 u062e_u0637_u0623 u0020 u0648_u064a_u062c_u0628 u0020 u0623_u0646 u0020 u0646_u063a_u064a_u0631 u0020 u0020", 
        "u0647_u0630_u0627 u0020 u0627_u0644_u0646_u0648_u0639 u0020 u0645_u0646 u0020 u0627_u0644_u062a_u0641_u0643_u064a_u0631 u0020 u062a_u062c_u0627_u0647 u0020 u0627_u0644_u0645_u0631_u0623_u0629 u0020 u0627_u0644_u0644_u064a_u0628_u064a_u0629_u060c u0020 u0641_u0647_u064a u0020 u062c_u062f_u064a_u0631_u0629 u0020 u0628_u0627_u0644_u062d_u0631_u064a_u0629 u0020 u0648_u0627_u0644_u062f_u064a_u0645_u0642_u0631_u0627_u0637_u064a_u0629 u0020 u062d_u064a_u062b u0020 u0623_u062b_u0628_u062a_u062a u0020 u062c_u062f_u0627_u0631_u062a_u0647_u0627 u0020 u0641_u064a u0020 u0645_u062c_u0627_u0644_u0627_u062a u0020 u0643_u062b_u064a_u0631_u0629 u0020 u0631_u063a_u0645 u0020 u0642_u0633_u0648_u062a_u0646_u0627 u0020 u0639_u0644_u064a_u0647_u0627_u060c u0020 u0643_u0645_u0627 u0020 u064a_u062c_u0628 u0020 u0623_u0646 u0020 u0644_u0627 u0020 u0646_u0646_u0633 u0020 u0623_u0646_u0647_u0627 u0020 u0647_u064a u0020 u0627_u0644_u062a_u064a u0020 u0020", 
        "u0623_u0634_u0639_u0644_u062a u0020 u062b_u0648_u0631_u0629 u0020 u0031_u0037 u0020 u0641_u0628_u0631_u0627_u064a_u0631 u0020 u0032_u0030_u0031_u0031_u0645_u002e u0020 u0646_u0648_u0636_u064a u0020 u0646_u0648_u0636_u064a u0020 u064a_u0627 u0020 u0628_u0646_u063a_u0627_u0632_u064a u0020 u002e_u002e_u002e u0020 u0647_u0638_u0627 u0020 u0627_u0644_u064a_u0648_u0645 u0020 u0627_u0644_u0644_u064a u0020 u0641_u064a_u0647 u0020 u0627_u0646_u0631_u0627_u062c_u064a_u002e u0020 u0647_u0644 u0020 u062a_u062a_u0630_u0643_u0631_u0648_u0627_u061f u0020 u0625_u0636_u0627_u0641_u0629 u0020 u0625_u0644_u0649 u0020 u0643_u0627_u0641_u0629 u0020 u0627_u0644_u0646_u0634_u0627_u0637_u0627_u062a u0020 u0627_u0644_u062a_u064a u0020 u0642_u0627_u0645_u062a u0020 u0628_u0647_u0627 u0020 u062e_u0644_u0627_u0644 u0020 u0627_u0644_u062b_u0648_u0631_u0629_u002e_u000d", 
        "u0625_u0630_u0627 u0020 u0627_u0633_u062a_u0645_u0631 u0020 u0645_u062c_u062a_u0645_u0639_u0646_u0627 u0020 u0641_u064a u0020 u0625_u0642_u0635_u0627_u0621 u0020 u0627_u0644_u0645_u0631_u0623_u0629 u0020 u0627_u0644_u0644_u064a_u0628_u064a_u0629 u0020 u0645_u0646 u0020 u0627_u0644_u0645_u0634_u0627_u0631_u0643_u0629 u0020 u0641_u064a u0020 u062a_u062d_u0642_u064a_u0642 u0020 u0623_u0647_u062f_u0627_u0641 u0020 u0627_u0644_u0648_u0637_u0646_u060c u0020 u062d_u062a_u0645_u0627_u064b u0020 u0633_u062a_u0628_u0637_u0623 u0020 u0645_u0633_u064a_u0631_u062a_u0646_u0627 u0020 u0646_u062d_u0648 u0020 u0645_u0633_u062a_u0642_u0628_u0644 u0020 u0623_u0641_u0636_u0644_u002e u0020 u0648_u0633_u0646_u0632_u064a_u062f u0020 u0645_u0646 u0020 u0639_u0645_u0642 u0020 u0627_u0644_u0647_u0648_u0629 u0020 u0628_u064a_u0646_u0646_u0627 u0020 u0648_u0628_u064a_u0646 u0020 u0627_u0644_u0639_u0627_u0644_u0645 u0020 u0627_u0644_u0645_u062a_u0637_u0648_u0631_u002e_u0020", 
        "u0646_u062d_u0646 u0020 u0644_u0627 u0020 u0646_u0631_u064a_u062f_u0647_u0627 u0020 u0639_u0644_u0649 u0020 u0645_u0633_u062a_u0648_u0649 u0020 u0627_u0644_u0645_u0631_u0623_u0629 u0020 u0641_u064a u0020 u0627_u0644_u063a_u0631_u0628 u0020 u0645_u0646 u0020 u0627_u0644_u062d_u0631_u064a_u0629 u0020 u0627_u0644_u062a_u064a u0020 u062a_u0645_u0627_u062f_u062a u0020 u0641_u064a_u0647_u0627 u0020 u0648_u0623_u0635_u0628_u062d_u062a u0020 u0644_u0647_u0627 u0020 u0627_u0644_u0622_u0646 u0020 u0628_u0639_u0636 u0020 u0627_u0644_u0623_u062b_u0627_u0631 u0020 u0627_u0644_u0633_u0644_u0628_u064a_u0629_u060c u0020 u0648_u0644_u0643_u0646_u0646_u0627 u0020 u0646_u0631_u064a_u062f_u0647_u0627 u0020 u062d_u0631_u064a_u0629 u0020 u0639_u0644_u0649 u0020 u0645_u0633_u062a_u0648_u0649 u0020 u0627_u0644_u0628_u064a_u0626_u0629 u0020 u0648_u0627_u0644_u062a_u0642_u0627_u0644_u064a_u062f u0020 u0648_u0627_u0644_u062f_u064a_u0646_u0020", 
        "u0641_u064a u0020 u0644_u064a_u0628_u064a_u0627_u060c u0020 u0648_u0644_u064a_u0633 u0020 u0639_u0644_u0649 u0020 u0645_u0633_u062a_u0648_u0649 u0020 u0627_u0644_u062a_u0632_u0645_u062a u0020 u0648_u0627_u0644_u062a_u0639_u0635_u0628 u0020 u0648_u0627_u0644_u0645_u063a_u0627_u0644_u0627_u0629 u0020 u0641_u064a u0020 u0627_u0644_u062f_u064a_u0646_u002e u0020 u0020_u000d", 
        "u0627_u0644_u062d_u0646_u0643_u0629 u0020 u0641_u064a u0020 u0625_u062f_u0627_u0631_u0629 u0020 u0627_u0644_u062f_u0648_u0644_u0629 u0020 u0633_u064a_u0627_u0633_u064a_u0627 u0020 u0648_u0627_u062c_u062a_u0645_u0627_u0639_u064a_u0627 u0020 u062a_u0643_u0645_u0646 u0020 u0641_u064a u0020 u0643_u064a_u0641_u064a_u0629 u0020 u062a_u062d_u062f_u064a_u062f u0020 u0627_u0644_u0623_u0647_u062f_u0627_u0641 u0020 u0648_u062a_u0648_u0632_u064a_u0639 u0020 u0627_u0644_u0623_u062f_u0648_u0627_u0631 u0020 u0639_u0644_u0649 u0020 u0645_u0646 u0020 u0647_u0648 u0020 u0642_u0627_u062f_u0631 u0020 u0639_u0644_u0649 u0020 u062a_u0646_u0641_u064a_u0630 u0020 u0627_u0644_u0639_u0645_u0644 u0020 u0623_u0648 u0020 u0627_u0644_u0645_u0647_u0645_u0629_u060c u0020 u0648_u0641_u064a u0020 u0639_u0645_u0644_u064a_u0627_u062a u0020 u0627_u0644_u062a_u062f_u0631_u064a_u0628 u0020 u0648_u0627_u0644_u062a_u0642_u064a_u064a_u0645 u0020 u0627_u0644_u0645_u062a_u0648_u0627_u0635_u0644_u0629_u0020", 
        "u0644_u0644_u0645_u0648_u0627_u0637_u0646 u0020 u0627_u0644_u0644_u064a_u0628_u064a u0020 u0644_u064a_u0643_u0648_u0646 u0020 u0642_u0627_u062f_u0631_u0627_u064b u0020 u0639_u0644_u0649 u0020 u0627_u0644_u0645_u0634_u0627_u0631_u0643_u0629 u0020 u0641_u064a u0020 u062a_u062d_u0642_u064a_u0642 u0020 u0623_u0647_u062f_u0627_u0641 u0020 u0627_u0644_u062f_u0648_u0644_u0629_u002e u0020 u062a_u0639_u0644_u064a_u0645 u0020 u0648_u062a_u062f_u0631_u064a_u0628 u0020 u0648_u062a_u0642_u064a_u064a_u0645 u0020 u0645_u062a_u0648_u0627_u0635_u0644 u0020 u0648_u0631_u0639_u0627_u064a_u0629 u0020 u0643_u0627_u0645_u0644_u0629 u0020 u0641_u064a u0020 u0625_u0637_u0627_u0631 u0020 u0645_u0646 u0020 u0627_u0644_u0646_u0638_u0627_u0645 u0020 u0648_u0627_u0644_u0636_u0628_u0637 u0020 u0648_u0627_u0644_u0631_u0628_u0637 u0020 u0020_u0648_u0627_u0644_u0645_u062a_u0627_u0628_u0639_u0629 u0020 u0645_u0639 u0020 u062f_u0639_u0645_u0020", 
        "u0634_u0627_u0645_u0644 u0020 u0645_u0646 u0020 u0627_u0644_u062f_u0648_u0644_u0629 u0020 u062d_u062a_u0645_u0627_u064b u0020 u0633_u064a_u062d_u0642_u0642 u0020 u0623_u0647_u062f_u0627_u0641 u0020 u0627_u0644_u0648_u0637_u0646 u0020 u0648_u0627_u0644_u0645_u0648_u0627_u0637_u0646_u002e u0020 u0647_u0630_u0647 u0020 u0639_u0646_u0627_u0635_u0631 u0020 u0645_u0647_u0645_u0629 u0020 u062c_u062f_u0627_u064b u0020 u0641_u064a u0020 u0646_u0633_u064a_u062c u0020 u0645_u0646_u0638_u0648_u0645_u062a_u0646_u0627 u0020 u0627_u0644_u062c_u062f_u064a_u062f_u0629_u002e u0020 u0627_u0644_u062a_u062e_u0635_u0635 u0020 u0648_u062a_u0647_u0630_u064a_u0628_u0647 u0020 u0648_u062a_u0634_u062c_u064a_u0639_u0647 u0020 u062d_u062a_u0645_u0627_u064b u0020 u0633_u064a_u062d_u0642_u0642 u0020 u0623_u0647_u062f_u0627_u0641_u0646_u0627_u060c u0020 u0644_u0627 u0020 u0634_u0643 u0020 u0641_u064a_u0020", 
        "u0630_u0644_u0643_u002e u0020 u062d_u0627_u0644_u0645_u0627 u0020 u064a_u0633_u062a_u0642_u0631 u0020 u0627_u0644_u0646_u0638_u0627_u0645 u0020 u0648_u0627_u0644_u0645_u062c_u062a_u0645_u0639 u0020 u0633_u062a_u062c_u062f u0020 u0644_u064a_u0628_u064a_u0627 u0020 u0646_u0641_u0633_u0647_u0627 u0020 u062a_u0633_u064a_u0631 u0020 u0628_u0633_u0644_u0627_u0633_u0629 u0020 u0646_u062d_u0648 u0020 u0627_u0644_u062a_u0637_u0648_u0631 u0020 u0641_u0627_u0644_u0643_u0644 u0020 u0623_u0635_u0628_u062d u0020 u064a_u062f_u0631_u0643 u0020 u0622_u0646_u0630_u0627_u0643 u0020 u062f_u0648_u0631_u0647 u0020 u0641_u064a u0020 u0627_u0644_u062f_u0648_u0644_u0629 u0020 u0648_u0645_u0627 u0020 u0639_u0644_u064a_u0647 u0020 u0645_u0646 u0020 u0648_u0627_u062c_u0628_u0627_u062a u0020 u0648_u0645_u0627 u0020 u0644_u0647 u0020 u0645_u0646 u0020 u062d_u0642_u0648_u0642_u002e", 
        "u0628_u0633_u0645 u0020 u0627_u0644_u0644_u0647 u0020 u0627_u0644_u0631_u062d_u0645_u0646 u0020 u0627_u0644_u0631_u062d_u064a_u0645_u000d", 
        "u00a0_u062f_u0631_u0627_u0633_u0629 u0020 u0644_u0627_u062e_u062a_u064a_u0627_u0631 u0020 u0646_u0638_u0627_u0645 u0020 u0627_u0644_u062d_u0643_u0645 u0020 u0641_u064a u0020 u0644_u064a_u0628_u064a_u0627 u0020 u0627_u0644_u062c_u062f_u064a_u062f_u0629 u0020 u0648_u0627_u0644_u0647_u064a_u0643_u0644 u0020 u0627_u0644_u062a_u0646_u0638_u064a_u0645_u064a u0020 u0644_u0644_u062f_u0648_u0644_u0629_u000d", 
        "u0627_u0644_u062f_u0648_u0627_u0639_u064a_u060c u0020 u0627_u0644_u062a_u062d_u062f_u064a_u0627_u062a_u060c u0020 u0627_u0644_u062d_u0644_u0648_u0644_u000d", 
        "u0641_u064a u0020 u0646_u0647_u0627_u064a_u0629 u0020 u0647_u0630_u0647 u0020 u0627_u0644_u062f_u0631_u0627_u0633_u0629 u0020 u002d u0020 u0643_u064a_u0641_u064a_u0629 u0020 u0646_u0642_u0644 u0020 u0627_u0644_u0633_u0644_u0637_u0629 u0020 u0645_u0646 u0020 u0627_u0644_u0645_u062c_u0644_u0633 u0020 u0627_u0644_u0648_u0637_u0646_u064a u0020 u0625_u0644_u0649 u0020 u0646_u0638_u0627_u0645 u0020 u0627_u0644_u062d_u0643_u0645 u0020 u0627_u0644_u062c_u062f_u064a_u062f_u000d", 
        "u0037"
    ]
}