{
    "bounding_box": [
        [
            221, 
            189, 
            437, 
            38
        ], 
        [
            231, 
            241, 
            427, 
            41
        ], 
        [
            78, 
            295, 
            580, 
            39
        ], 
        [
            72, 
            336, 
            586, 
            42
        ], 
        [
            247, 
            383, 
            411, 
            38
        ], 
        [
            240, 
            67, 
            306, 
            46
        ], 
        [
            353, 
            129, 
            92, 
            42
        ]
    ], 
    "image_height": 540, 
    "image_width": 720, 
    "transcription": [
        "u0642_u062f u0020 u064a_u0643_u0648_u0646 u0020 u0627_u0644_u0627_u062e_u062a_u0628_u0627_u0631 u0020 u0645_u0646 u0020 u0633_u0624_u0627_u0644 u0020 u0648_u0627_u062d_u062f u0020 u0645_u062b_u0644_u003a_u000d", 
        "u0020_u201d_u0646_u0627_u0642_u0634_u064a u0020 u0627_u0633_u0628_u0627_u0628 u0020 u0627_u0646_u0647_u064a_u0627_u0631 u0020 u0627_u0644_u062f_u0648_u0644_u0629 u0020 u0627_u0644_u0623_u0645_u0648_u064a_u0629_u201c_u000d", 
        "u0648_u0644_u0643_u0646 u0020 u0643_u062b_u064a_u0631 u0020 u0645_u0646 u0020 u0627_u0644_u0623_u0646_u0638_u0645_u0629 u0020 u0627_u0644_u062a_u0639_u0644_u064a_u0645_u064a_u0629 u0020 u0627_u0644_u064a_u0648_u0645 u0020 u062a_u0628_u062a_u0639_u062f u0020 u0639_u0646 u0020 u0647_u0630_u0627_u0020", 
        "u0627_u0644_u0623_u0633_u0644_u0648_u0628_u060c u0020 u0648_u062a_u0639_u062a_u0645_u062f u0020 u0639_u0644_u0649 u0020 u0627_u0644_u0623_u0633_u0626_u0644_u0629 u0020 u0627_u0644_u0645_u0642_u0627_u0644_u064a_u0629 u0020 u0627_u0644_u0642_u0635_u064a_u0631_u0629 u0020 u0627_u0644_u062a_u064a_u0020", 
        "u062a_u0646_u0637_u0628_u0642 u0020 u0639_u0644_u064a_u0647_u0627 u0020 u201d_u0633_u0645_u0627_u062a u0020 u0627_u0644_u0627_u062e_u062a_u0628_u0627_u0631 u0020 u0627_u0644_u062c_u064a_u062f_u201c_u002e", 
        "u0634_u0631_u0648_u0637 u0020 u0625_u0639_u062f_u0627_u062f u0020 u0627_u0644_u0627_u062e_u062a_u0628_u0627_u0631_u0020", 
        "u0627_u0644_u0645_u0642_u0627_u0644_u064a"
    ]
}