{
    "bounding_box": [
        [
            457, 
            29, 
            201, 
            27
        ], 
        [
            302, 
            78, 
            353, 
            29
        ], 
        [
            315, 
            115, 
            340, 
            24
        ], 
        [
            321, 
            144, 
            334, 
            28
        ], 
        [
            334, 
            175, 
            321, 
            26
        ], 
        [
            297, 
            209, 
            358, 
            25
        ], 
        [
            396, 
            243, 
            259, 
            24
        ], 
        [
            381, 
            278, 
            275, 
            22
        ]
    ], 
    "image_height": 540, 
    "image_width": 720, 
    "transcription": [
        "u0641_u062a_u062d u0020 u0628_u0631_u0646_u0627_u0645_u062c u0020 u0628_u0627_u0648_u0631_u0628_u0648_u064a_u0646_u062a", 
        "u0645_u0646 u0020 u0623_u062c_u0644 u0020 u0641_u062a_u062d u0020 u0628_u0631_u0646_u0627_u0645_u062c u0020 u0645_u0627_u064a_u0643_u0631_u0648_u0633_u0648_u0641_u062a u0020 u0623_u0648_u0641_u064a_u0633_u0020", 
        "u0628_u0627_u0648_u0631_u0628_u0648_u064a_u0646_u062a u0020 u0032_u0030_u0031_u0030_u060c u0020 u0642_u0645 u0020 u0628_u0627_u0644_u0646_u0642_u0631 u0020 u0639_u0644_u0649 u0020 u0642_u0627_u0626_u0645_u0629_u0020", 
        "u0627_u0628_u062f_u0623 u0020 u062b_u0645 u0020 u0627_u0646_u0642_u0631 u0020 u0639_u0644_u0649 u0020 u0643_u0627_u0641_u0629 u0020 u0627_u0644_u0628_u0631_u0627_u0645_u062c_u002e u0020 u064a_u062c_u0628 u0020 u0623_u0646_u0020", 
        "u062a_u0631_u0649 u0020 u0645_u062c_u0644_u062f u0020 u0645_u0627_u064a_u0643_u0631_u0648_u0633_u0648_u0641_u062a u0020 u0623_u0648_u0641_u064a_u0633 u0020 u062f_u0627_u062e_u0644_u0020", 
        "u0642_u0627_u0626_u0645_u0629 u0020 u0627_u0628_u062f_u0623_u002e u0020 u0642_u0645 u0020 u0628_u062a_u0645_u0631_u064a_u0631 u0020 u0627_u0644_u0645_u0627_u0648_u0633 u0020 u0639_u0644_u064a_u0647 u0020 u0644_u0639_u0631_u0636_u0020", 
        "u0642_u0627_u0626_u0645_u0629 u0020 u0641_u0631_u0639_u064a_u0629_u060c u0020 u062b_u0645 u0020 u0642_u0645 u0020 u0628_u0627_u0644_u0646_u0642_u0631 u0020 u0639_u0644_u0649_u0020", 
        "u0645_u0627_u064a_u0643_u0631_u0648_u0633_u0648_u0641_u062a u0020 u0628_u0627_u0648_u0631_u0628_u0648_u064a_u0646_u062a u0020 u0032_u0030_u0031_u0030"
    ]
}