{
    "bounding_box": [
        [
            103, 
            112, 
            558, 
            29
        ], 
        [
            363, 
            149, 
            257, 
            32
        ], 
        [
            69, 
            194, 
            592, 
            33
        ], 
        [
            246, 
            237, 
            375, 
            26
        ], 
        [
            50, 
            282, 
            611, 
            30
        ], 
        [
            293, 
            316, 
            327, 
            34
        ], 
        [
            60, 
            364, 
            601, 
            33
        ], 
        [
            196, 
            404, 
            424, 
            29
        ], 
        [
            55, 
            21, 
            498, 
            51
        ]
    ], 
    "image_height": 540, 
    "image_width": 720, 
    "transcription": [
        "u0648_u0647_u0630_u0647 u0020 u0627_u0644_u062d_u0645_u0627_u064a_u0629 u0020 u062c_u0627_u0626_u0632_u0629 u0020 u0634_u0631_u0639_u0627_u002c u0020 u0648_u064a_u062c_u0628 u0020 u0631_u0639_u0627_u064a_u062a_u0647_u0627_u002c u0020 u0648_u0644_u0627 u0020 u062a_u0639_u062f u0020 u0645_u0646_u0020", 
        "u0627_u0644_u0627_u062d_u062a_u0643_u0627_u0631 u0020 u0627_u0644_u0645_u062d_u0631_u0645_u002c u0020 u0644_u0623_u0645_u0648_u0631_u003a_u000d", 
        "u0031_u002d u0020 u0644_u0627_u0646 u0020 u0647_u0630_u0647 u0020 u0627_u0644_u062d_u0642_u0648_u0642 u0020 u0645_u0645_u0644_u0648_u0643_u0629 u0020 u0644_u0623_u0635_u062d_u0627_u0628_u0647_u0627 u0020 u002c u0020 u0648_u062a_u0642_u0644_u064a_u062f_u0647_u0627 u0020 u0627_u0648 u0020 u0646_u0633_u062e_u0647_u0627_u0020", 
        "u064a_u0639_u062f u0020 u062a_u0639_u062f_u064a_u0627 u0020 u0639_u0644_u0649 u0020 u062d_u0642 u0020 u0645_u0645_u0644_u0648_u0643 u0020 u0644_u0644_u0622_u062e_u0631_u064a_u0646 u0020 u002e_u000d", 
        "u0032_u002d u0020 u0644_u0627_u0646 u0020 u0647_u0630_u0647 u0020 u0627_u0644_u062d_u0642_u0648_u0642 u0020 u0644_u064a_u0633_u062a u0020 u0645_u0646 u0020 u0627_u0644_u0633_u0644_u0639 u0020 u0627_u0644_u0636_u0631_u0648_u0631_u064a_u0629 u0020 u0627_u0644_u062a_u064a u0020 u064a_u062a_u0636_u0631_u0631_u0020", 
        "u0627_u0644_u0646_u0627_u0633 u0020 u0628_u062d_u0628_u0633_u0647_u0627 u0020 u0623_u0648 u0020 u0628_u0627_u0631_u062a_u0641_u0627_u0639 u0020 u062b_u0645_u0646_u0647_u0627 u0020 u002e_u000d", 
        "u0033_u002d u0020 u0644_u0627_u0646 u0020 u0645_u0646 u0020 u064a_u0634_u062a_u0631_u064a u0020 u0647_u0630_u0647 u0020 u0627_u0644_u0623_u0634_u064a_u0627_u0621 u0020 u0642_u062f u0020 u0634_u0631_u0637 u0020 u0639_u0644_u064a_u0629 u0020 u0639_u062f_u0645 u0020 u0020_u0628_u064a_u0639_u0647_u0627 u0020 u0623_u0648_u0020", 
        "u0646_u0633_u062e_u0647_u0627 u0020 u002c u0020 u0641_u064a_u062c_u0628 u0020 u0639_u0644_u064a_u0629 u0020 u0627_u0644_u0648_u0641_u0627_u0621 u0020 u0628_u0630_u0644_u0643 u0020 u0627_u0644_u0634_u0631_u0637 u0020 u002e u0020 u0020", 
        "u062d_u0645_u0627_u064a_u0629 u0020 u0627_u0644_u062d_u0642_u0648_u0642 u0020 u0627_u0644_u0645_u0639_u0646_u0648_u064a_u0629 u0020 u0648_u0627_u0644_u0641_u0643_u0631_u064a_u0629"
    ]
}