{
    "bounding_box": [
        [
            34, 
            28, 
            647, 
            40
        ], 
        [
            74, 
            77, 
            577, 
            39
        ], 
        [
            77, 
            169, 
            573, 
            34
        ], 
        [
            64, 
            208, 
            586, 
            34
        ], 
        [
            84, 
            300, 
            566, 
            31
        ], 
        [
            80, 
            338, 
            570, 
            34
        ], 
        [
            567, 
            380, 
            83, 
            31
        ]
    ], 
    "image_height": 540, 
    "image_width": 720, 
    "transcription": [
        "u0623_u0633_u0628_u0627_u0628 u0020 u0625_u062a_u062c_u0627_u0647 u0020 u0627_u0644_u062f_u0648_u0644 u0020 u0627_u0644_u0639_u0631_u0628_u064a_u0629 u0020 u0644_u0625_u0646_u0634_u0627_u0621 u0020 u0645_u0646_u0627_u0637_u0642 u0020 u0627_u0642_u062a_u0635_u0627_u062f_u064a_u0629_u0020", 
        "u0630_u0627_u062a u0020 u0637_u0628_u064a_u0639_u0629 u0020 u062e_u0627_u0635_u0629 u0020 u0648_u0645_u0646_u0627_u0637_u0642 u0020 u062a_u0646_u0645_u0648_u064a_u0629 u0020 u0648_u0627_u0633_u062a_u062b_u0645_u0627_u0631_u064a_u0629", 
        "u0625_u062a_u062c_u0627_u0647 u0020 u0627_u0644_u0639_u0627_u0644_u0645 u0020 u0646_u062d_u0648 u0020 u062a_u062d_u0631_u064a_u0631 u0020 u0627_u0644_u062a_u062c_u0627_u0631_u0629_u060c u0020 u0648_u0625_u0644_u063a_u0627_u0621 u0020 u0627_u0644_u0642_u064a_u0648_u062f u0020 u0627_u0644_u062c_u0645_u0631_u0643_u064a_u0629_u0020", 
        "u0648_u063a_u064a_u0631 u0020 u0627_u0644_u062c_u0645_u0631_u0643_u064a_u0629 u0020 u0641_u064a u0020 u0636_u0648_u0621 u0020 u0625_u062a_u0641_u0627_u0642_u064a_u0629 u0020 u0645_u0646_u0638_u0645_u0629 u0020 u0627_u0644_u062a_u062c_u0627_u0631_u0629 u0020 u0627_u0644_u0639_u0627_u0644_u0645_u064a_u0629_u002e_u000d", 
        "u0645_u0648_u0642_u0641 u0020 u0625_u062a_u0641_u0627_u0642_u064a_u0629 u0020 u0645_u0646_u0637_u0642_u0629 u0020 u0627_u0644_u062a_u062c_u0627_u0631_u0629 u0020 u0627_u0644_u0639_u0631_u0628_u064a_u0629 u0020 u0627_u0644_u062d_u0631_u0629 u0020 u0645_u0646 u0020 u0645_u0646_u062a_u062c_u0627_u062a_u0020", 
        "u0627_u0644_u0645_u0646_u0627_u0637_u0642 u0020 u0627_u0644_u062d_u0631_u0629_u060c u0020 u0648_u0639_u062f_u0645 u0020 u0645_u0639_u0627_u0645_u0644_u062a_u0647_u0627 u0020 u0645_u062b_u0644 u0020 u0645_u0646_u062a_u062c_u0627_u062a u0020 u0630_u0627_u062a u0020 u0627_u0644_u0645_u0646_u0634_u0623_u0020", 
        "u0627_u0644_u0639_u0631_u0628_u064a_u002e_u000d"
    ]
}