{
    "bounding_box": [
        [
            47, 
            123, 
            600, 
            26
        ], 
        [
            30, 
            154, 
            617, 
            25
        ], 
        [
            475, 
            520, 
            47, 
            9
        ], 
        [
            689, 
            520, 
            12, 
            7
        ], 
        [
            278, 
            25, 
            174, 
            37
        ]
    ], 
    "image_height": 540, 
    "image_width": 720, 
    "transcription": [
        "u0628_u0627 u0020 u0646_u0638_u0631 u0020 u0627_u0639_u0636_u0627_u06cc u0020 u06af_u0631_u0648_u0647 u0020 u0648 u0020 u0627_u0632 u0020 u0628_u064a_u0646 u0020 u0645_u0633_u0627_u0626_u0644 u0020 u0020_u0622_u0645_u0648_u0632_u0634_u06cc u0020 u0645_u0631_u062a_u0628_u0637_u060c u0020 u06cc_u06a9 u0020 u0645_u0648_u0631_u062f u0020 u0631_u0627_u0020", 
        "u0627_u0646_u062a_u062e_u0627_u0628 u0020 u06a9_u0646_u064a_u062f_u002e u0020 u0628_u0631_u0627_u06cc u0020 u0622_u0646_u060c u0020 u0627_u0647_u062f_u0627_u0641 u0020 u0622_u0645_u0648_u0632_u0634_u06cc u0020 u06a9_u0644_u06cc u0020 u0648 u0020 u0627_u0647_u062f_u0627_u0641 u0020 u0631_u0641_u062a_u0627_u0631_u06cc u0020 u0628_u0646_u0648_u064a_u0633_u064a_u062f_u002e u0020 u000d", 
        "u062f_u06a9_u062a_u0631 u0020 u0637_u0628_u0627_u0637_u0628_u0627_u06cc_u06cc", 
        "u0037_u0039", 
        "u06a9_u0627_u0631 u0020 u06af_u0631_u0648_u0647_u06cc u0020 u0031_u000b"
    ]
}