{
    "bounding_box": [
        [
            320, 
            13, 
            265, 
            47
        ], 
        [
            34, 
            88, 
            841, 
            36
        ], 
        [
            573, 
            133, 
            302, 
            26
        ], 
        [
            34, 
            166, 
            841, 
            48
        ], 
        [
            745, 
            225, 
            130, 
            26
        ], 
        [
            34, 
            255, 
            841, 
            49
        ], 
        [
            34, 
            306, 
            841, 
            37
        ], 
        [
            690, 
            350, 
            185, 
            29
        ], 
        [
            80, 
            384, 
            795, 
            48
        ]
    ], 
    "image_height": 540, 
    "image_width": 960, 
    "transcription": [
        "u0627_u0644_u0633_u0644_u0637_u0629 u0020 u0627_u0644_u0642_u0636_u0627_u0626_u064a_u0629 u0020 u0028_u0031_u0029", 
        "u0645_u0646 u0020 u0627_u0644_u0636_u0631_u0648_u0631_u064a u0020 u0639_u0644_u0649 u0020 u0627_u0644_u0645_u062c_u062a_u0645_u0639 u0020 u0627_u0644_u0645_u062f_u0646_u064a u0020 u0627_u0644_u0639_u0645_u0644 u0020 u0639_u0644_u0649 u0020 u062c_u0645_u064a_u0639 u0020 u0627_u0644_u0645_u0633_u062a_u0648_u064a_u0627_u062a u0020 u0644_u0641_u0635_u0644 u0020 u0627_u0644_u0633_u0644_u0637_u0629 u0020 u0627_u0644_u0642_u0636_u0627_u0626_u064a_u0629 u0020 u0641_u0639_u0644_u064a_u0627_u064b_u0020", 
        "u0639_u0646 u0020 u0627_u0644_u0633_u0644_u0637_u062a_u064a_u0646 u0020 u0627_u0644_u062a_u0634_u0631_u064a_u0639_u064a_u0629 u0020 u0648_u0627_u0644_u062a_u0646_u0641_u064a_u0630_u064a_u0629_u002e_u000d", 
        "u0648_u0636_u0639 u0020 u0634_u0631_u0639_u0629 u0020 u0627_u0644_u0646_u0632_u0627_u0647_u0629 u0020 u0627_u0644_u0642_u0636_u0627_u0626_u064a_u0629 u0020 u0627_u0644_u0645_u0628_u0646_u064a_u0629 u0020 u0639_u0644_u0649 u0020 u0627_u0644_u0623_u0633_u0633 u0020 u0627_u0644_u0648_u0627_u0631_u062f_u0629 u0020 u0641_u064a u0020 u0625_u062a_u0641_u0627_u0642_u064a_u0629 u0020 u0627_u0644_u0623_u0645_u0645 u0020 u0627_u0644_u0645_u062a_u062d_u062f_u0629 u0020 u0644_u0645_u0643_u0627_u0641_u062d_u0629 u0020 u0627_u0644_u0641_u0633_u0627_u062f_u0020", 
        "u0028_u0055_u004e_u0043_u0041_u0043_u0029_u002e_u000d", 
        "u0645_u0646 u0020 u0627_u0644_u0636_u0631_u0648_u0631_u064a u0020 u062e_u0644_u0642 u0020 u0628_u0631_u0627_u0645_u062c u0020 u062d_u062f_u064a_u062b_u0629 u0020 u0641_u064a u0020 u0645_u0639_u0647_u062f u0020 u0627_u0644_u0642_u0636_u0627_u0621 u0020 u062a_u0639_u0646_u0649 u0020 u0628_u0627_u0644_u0639_u062f_u064a_u062f u0020 u0645_u0646 u0020 u0627_u0644_u0639_u0644_u0648_u0645 u0020 u0648_u0639_u0644_u0649 u0020 u0631_u0623_u0633_u0647_u0627_u0020", 
        "u0627_u0644_u0645_u0639_u0644_u0648_u0645_u0627_u062a_u064a_u0629 u0020 u0643_u064a u0020 u062a_u0623_u062a_u064a u0020 u0627_u0644_u0623_u062d_u0643_u0627_u0645 u0020 u0627_u0644_u0645_u062a_u0639_u0644_u0642_u0629 u0020 u0628_u0627_u0644_u062f_u0639_u0627_u0648_u064a u0020 u0627_u0644_u062e_u0627_u0635_u0629 u0020 u0628_u0647_u0627 u0020 u0628_u0646_u064a_u0629 u0020 u0639_u0644_u0649 u0020 u0627_u0644_u0623_u0633_u0633 u0020 u0627_u0644_u062f_u0648_u0644_u064a_u0629 u0020 u0627_u0644_u0645_u0639_u0645_u0648_u0644 u0020 u0628_u0647_u0627_u0020", 
        "u0641_u064a u0020 u0627_u0644_u062f_u0648_u0644 u0020 u0627_u0644_u0645_u062a_u0637_u0648_u0631_u0629_u002e u0020 u000d", 
        "u0625_u0639_u0627_u062f_u0629 u0020 u0627_u0644_u0646_u0638_u0631 u0020 u0628_u0642_u0627_u0646_u0648_u0646 u0020 u0627_u0644_u0639_u0642_u0648_u0628_u0627_u062a u0020 u0628_u062d_u064a_u062b u0020 u062a_u062f_u062e_u0644 u0020 u0641_u064a_u0647 u0020 u0627_u0644_u0639_u0642_u0648_u0628_u0627_u062a u0020 u0627_u0644_u0646_u0627_u062c_u0645_u0629 u0020 u0639_u0646 u0020 u0627_u0644_u062c_u0631_u0627_u0626_u0645 u0020 u0627_u0644_u0645_u062a_u0639_u0644_u0642_u0629 u0020 u0628_u0627_u0644_u0641_u0633_u0627_u062f_u002e u0020 u000d"
    ]
}