{
    "bounding_box": [
        [
            165, 
            164, 
            392, 
            53
        ], 
        [
            252, 
            318, 
            204, 
            29
        ], 
        [
            117, 
            364, 
            476, 
            34
        ]
    ], 
    "image_height": 540, 
    "image_width": 720, 
    "transcription": [
        "u0627_u0644_u0633_u0644_u0648_u0643 u0020 u0627_u0644_u0645_u0647_u0646_u064a u0020 u0627_u0644_u0637_u0628_u064a_u0031", 
        "u062f_u002e_u0628_u0646_u0627_u0646 u0020 u0628_u0631_u0647_u0627_u0646 u0020 u0645_u062d_u0645_u062f_u000d", 
        "u0645_u0627_u062c_u0633_u062a_u064a_u0631 u0020 u0646_u0633_u064a_u062c u0020 u0645_u0631_u0636_u064a_u002f_u0645_u062f_u0631_u0633_u002d u0020 u0641_u0631_u0639 u0020 u0627_u0644_u0623_u0645_u0631_u0627_u0636_u000d"
    ]
}