{
    "bounding_box": [
        [
            27, 
            106, 
            665, 
            37
        ], 
        [
            44, 
            144, 
            648, 
            37
        ], 
        [
            22, 
            183, 
            670, 
            35
        ], 
        [
            412, 
            225, 
            280, 
            31
        ]
    ], 
    "image_height": 540, 
    "image_width": 720, 
    "transcription": [
        "u0627_u06cc_u0631_u0627_u0646_u06cc u0020 u0648 u0020 u062a_u0628_u0639_u0647 u0020 u062c_u0645_u0647_u0648_u0631_u06cc u0020 u0627_u0633_u0644_u0627_u0645_u06cc u0020 u0627_u06cc_u0631_u0627_u0646 u0020 u0647_u0633_u062a_u0646_u062f u0020 u0020_u062d_u062a_u06cc u0020 u0627_u0641_u0631_u0627_u062f_u06cc u0020 u06a9_u0647 u0020 u062f_u0631_u0020", 
        "u062e_u0627_u0631_u062c u0020 u0627_u0632 u0020 u06a9_u0634_u0648_u0631 u0020 u0632_u0646_u062f_u06af_u06cc u0020 u0645_u06cc u0020 u06a9_u0646_u0646_u062f u0020 u0020_u0645_u06cc u0020 u062a_u0648_u0627_u0646_u0646_u062f u0020 u062f_u0631 u0020 u0627_u0646_u062a_u062e_u0627_u0628_u0627_u062a u0020 u0634_u0631_u06a9_u062a_u0020", 
        "u06a9_u0646_u0646_u062f u0020 u0648 u0020 u0628_u0647 u0020 u0641_u0631_u062f u0020 u0645_u0648_u0631_u062f u0020 u0646_u0638_u0631_u0634_u0627_u0646 u0020 u0631_u0623_u06cc u0020 u0628_u062f_u0647_u0646_u062f_u002e u0020 u062d_u062f_u0627_u0642_u0644 u0020 u0633_u0646 u0020 u0631_u0623_u06cc u0020 u062f_u0647_u0646_u062f_u06af_u0627_u0646_u0020", 
        "u0647_u06cc_u062c_u062f_u0647 u0020 u0633_u0627_u0644 u0020 u062a_u0639_u06cc_u06cc_u0646 u0020 u0634_u062f_u0647 u0020 u0627_u0633_u062a_u002e"
    ]
}