{
    "bounding_box": [
        [
            58, 
            30, 
            586, 
            37
        ], 
        [
            85, 
            78, 
            607, 
            31
        ], 
        [
            19, 
            112, 
            673, 
            31
        ], 
        [
            496, 
            148, 
            196, 
            28
        ], 
        [
            19, 
            179, 
            673, 
            31
        ], 
        [
            19, 
            215, 
            673, 
            29
        ], 
        [
            450, 
            249, 
            242, 
            28
        ], 
        [
            19, 
            293, 
            673, 
            30
        ], 
        [
            560, 
            325, 
            132, 
            31
        ], 
        [
            69, 
            371, 
            623, 
            31
        ], 
        [
            19, 
            406, 
            673, 
            30
        ], 
        [
            273, 
            438, 
            419, 
            31
        ], 
        [
            21, 
            503, 
            15, 
            10
        ]
    ], 
    "image_height": 540, 
    "image_width": 720, 
    "transcription": [
        "u0020_u0631_u0627_u0628_u0639_u0627_u003a u0020 u0645_u0635_u0627_u062f_u0631 u0020 u062f_u0639_u0645 u0020 u0627_u0644_u0628_u062d_u062b u0020 u0627_u0644_u0639_u0644_u0645_u064a u0020 u0641_u064a u0020 u0627_u0644_u0648_u0637_u0646 u0020 u0627_u0644_u0639_u0631_u0628_u064a u0020 u000d", 
        "u0648_u0645_u0646 u0020 u0623_u0647_u0645 u0020 u0645_u0644_u0627_u0645_u062d u0020 u0647_u064a_u0643_u0644 u0020 u062f_u0639_u0645 u0020 u0627_u0644_u0628_u062d_u062b u0020 u0627_u0644_u0639_u0644_u0645_u064a u0020 u0641_u0649 u0020 u0627_u0644_u0648_u0637_u0646 u0020 u0627_u0644_u0639_u0631_u0628_u064a u0020 u0645_u0627 u0020 u064a_u0644_u0649 u0020 u003a_u000d", 
        "u0623_u200c_u0029_u00a0 u0020 u0627_u0644_u062f_u0648_u0644_u0629 u0020 u0647_u0649 u0020 u0627_u0644_u0645_u0635_u062f_u0631 u0020 u0627_u0644_u0623_u0633_u0627_u0633_u064a u0020 u0641_u0649 u0020 u062f_u0639_u0645 u0020 u0627_u0644_u0628_u062d_u062b u0020 u0627_u0644_u0639_u0644_u0645_u0649 u0020 u0648_u0647_u0649 u0020 u0627_u0644_u0645_u0635_u062f_u0631_u0020", 
        "u0627_u0644_u0648_u062d_u064a_u062f u0020 u0641_u0649 u0020 u0643_u062b_u064a_u0631 u0020 u0645_u0646_u0647_u0627_u002e_u000d", 
        "u0628_u0029 u0020 u0038_u0030_u002d_u0039_u0030_u0025 u0020 u0645_u0646 u0020 u0645_u0635_u0627_u062f_u0631 u0020 u062a_u0645_u0648_u064a_u0644 u0020 u0627_u0644_u0628_u062d_u062b u0020 u0627_u0644_u0639_u0644_u0645_u064a u0020 u062a_u0623_u062a_u064a u0020 u0645_u0646 u0020 u0627_u0644_u0642_u0637_u0627_u0639 u0020 u0627_u0644_u062d_u0643_u0648_u0645_u064a_u0020", 
        "u0648_u0627_u0644_u0642_u0637_u0627_u0639 u0020 u0627_u0644_u0639_u0627_u0645 u0020 u0628_u064a_u0646_u0645_u0627 u0020 u064a_u0633_u0627_u0647_u0645 u0020 u0627_u0644_u0642_u0637_u0627_u0639 u0020 u0627_u0644_u062e_u0627_u0635 u0020 u0628_u0645_u0627 u0020 u0646_u0633_u0628_u062a_u0647 u0020 u0031_u0030_u002d_u0032_u0030_u0025 u0020 u0645_u0646 u0020 u0645_u062c_u0645_u0644_u0020", 
        "u0627_u0644_u062a_u0645_u0648_u064a_u0644 u0020 u0641_u064a u0020 u0627_u0644_u0648_u0637_u0646 u0020 u0627_u0644_u0639_u0631_u0628_u064a_u002e_u000d", 
        "u062c_u0029 u0020 u062f_u0639_u0645 u0020 u062f_u0627_u062e_u0644_u064a u0020 u0645_u0646 u0020 u062e_u0644_u0627_u0644 u0020 u0627_u0644_u062c_u0627_u0645_u0639_u0627_u062a u0020 u0644_u0623_u0639_u0636_u0627_u0621 u0020 u0647_u064a_u0626_u0629 u0020 u0627_u0644_u062a_u062f_u0631_u064a_u0633 u0020 u0627_u0644_u0630_u064a_u0646 u0020 u064a_u062a_u0642_u062f_u0645_u0648_u0646_u0020", 
        "u0628_u0623_u0628_u062d_u0627_u062b u0020 u0644_u0644_u062f_u0639_u0645_u002e_u000d", 
        "u062f_u200c_u0028 u0020 u0627_u0644_u0645_u0631_u0627_u0643_u0632 u0020 u0627_u0644_u0645_u0633_u062a_u0642_u0644_u0629 u0020 u0623_u0648 u0020 u0627_u0644_u062a_u0627_u0628_u0639_u0629 u0020 u0644_u0648_u0632_u0627_u0631_u0627_u062a u0020 u0627_u0644_u062f_u0648_u0644_u0629 u0020 u0623_u0648 u0020 u0627_u0644_u062c_u0627_u0645_u0639_u0627_u062a u0020 u0648_u0627_u0644_u0645_u0639_u0627_u0647_u062f_u002e_u000d", 
        "u0647_u0640_u0029 u0020 u0627_u0644_u062f_u0639_u0645 u0020 u0627_u0644_u062e_u0627_u0631_u062c_u064a u0020 u0639_u0646 u0020 u0637_u0631_u064a_u0642 u0020 u062c_u0647_u0627_u062a u0020 u0648_u0645_u0624_u0633_u0633_u0627_u062a u0020 u0645_u0627_u0646_u062d_u0629 u0020 u0645_u062b_u0644 u0020 u0627_u0644_u0628_u0646_u0643 u0020 u0627_u0644_u062f_u0648_u0644_u064a_u0020", 
        "u0648_u0627_u0644_u0625_u062a_u062d_u0627_u062f u0020 u0627_u0644_u0623_u0648_u0631_u0648_u0628_u064a u0020 u0648_u0645_u0646_u0638_u0645_u0629 u0020 u0627_u0644_u064a_u0648_u0646_u0633_u0643_u0648 u0020 u0648_u0623_u062e_u0631_u0649_u002e u0020 u000d", 
        "u0033_u0033"
    ]
}