{
    "bounding_box": [
        [
            242, 
            85, 
            236, 
            35
        ]
    ], 
    "image_height": 540, 
    "image_width": 720, 
    "transcription": [
        "u0645_u0627_u0647_u0648 u0020 u0627_u0644_u0625_u062c_u0647_u0627_u0636 u0020 u061f"
    ]
}