{
    "bounding_box": [
        [
            670, 
            515, 
            6, 
            4
        ], 
        [
            480, 
            178, 
            155, 
            28
        ], 
        [
            80, 
            41, 
            594, 
            42
        ], 
        [
            323, 
            89, 
            351, 
            42
        ], 
        [
            670, 
            515, 
            6, 
            4
        ], 
        [
            657, 
            297, 
            28, 
            28
        ], 
        [
            450, 
            302, 
            82, 
            31
        ], 
        [
            147, 
            297, 
            85, 
            37
        ], 
        [
            638, 
            383, 
            31, 
            26
        ], 
        [
            383, 
            390, 
            132, 
            28
        ], 
        [
            156, 
            382, 
            104, 
            37
        ], 
        [
            644, 
            463, 
            31, 
            27
        ], 
        [
            420, 
            460, 
            100, 
            38
        ], 
        [
            148, 
            476, 
            95, 
            36
        ]
    ], 
    "image_height": 540, 
    "image_width": 720, 
    "transcription": [
        "u0039", 
        "u0043_u0036_u0048_u0031_u0032_u004f_u0036", 
        "u0645_u0627 u0020 u0627_u0633_u0645 u0020 u0020_u0648_u0639_u062f_u062f u0020 u0630_u0631_u0627_u062a u0020 u0627_u0644_u0639_u0646_u0627_u0635_u0631 u0020 u0627_u0644_u0645_u0643_u0648_u0646_u0629 u0020 u0644_u0644_u0645_u0631_u0643_u0628_u0627_u062a_u0020", 
        "u0627_u0644_u0645_u0645_u062b_u0644_u0629 u0020 u0641_u064a u0020 u0627_u0644_u0635_u064a_u063a u0020 u0627_u0644_u062a_u0627_u0644_u064a_u0629 u0020 u0020_u061f_u0020", 
        "u0039", 
        "u0043", 
        "u0643_u0631_u0628_u0648_u0646", 
        "u0036_u0630_u0631_u0627_u062a", 
        "u0048", 
        "u0647_u064a_u062f_u0631_u0648_u062c_u064a_u0646", 
        "u0020_u0031_u0032 u0020 u0630_u0631_u0629", 
        "u004f", 
        "u0623_u0643_u0633_u062c_u064a_u0646", 
        "u0036 u0020 u0630_u0631_u0627_u062a"
    ]
}