{
    "bounding_box": [
        [
            213, 
            50, 
            486, 
            30
        ], 
        [
            12, 
            101, 
            688, 
            23
        ], 
        [
            12, 
            128, 
            688, 
            24
        ], 
        [
            12, 
            156, 
            688, 
            25
        ], 
        [
            12, 
            187, 
            688, 
            23
        ], 
        [
            236, 
            215, 
            463, 
            24
        ], 
        [
            12, 
            256, 
            688, 
            24
        ], 
        [
            12, 
            285, 
            688, 
            22
        ], 
        [
            12, 
            313, 
            688, 
            24
        ], 
        [
            555, 
            344, 
            145, 
            21
        ]
    ], 
    "image_height": 540, 
    "image_width": 720, 
    "transcription": [
        "u062c_u0627_u0630_u0628_u0647 u0020 u0647_u0627_u06cc u0020 u063a_u0631_u06cc_u0628 u0020 u0028_u0073_u0074_u0072_u0065_u006e_u0067 u0020 u0061_u0074_u0074_u0072_u0061_u0063_u0074_u006f_u0072_u0073 u0020 u0029_u000d", 
        "u062c_u0627_u0630_u0628_u0647 u0020 u0647_u0627_u06cc u0020 u063a_u0631_u06cc_u0628 u0020 u062f_u0631 u0020 u0647_u0645_u0647 u0020 u062c_u0627 u0020 u062d_u0636_u0648_u0631 u0020 u062f_u0627_u0631_u0646_u062f u0020 u060c u0020 u0647_u0645_u0647 u0020 u0622_u0646_u0686_u0647 u0020 u0631_u0627 u0020 u06a9_u0647 u0020 u0645_u0627 u0020 u062f_u0631 u0020 u0646_u0638_u0631 u0020 u0627_u0648_u0644 u0020 u0628_u06cc u0020 u0646_u0638_u0645_u0020", 
        "u0648_u0622_u0634_u0648_u0628_u0646_u0627_u06a9 u0020 u0645_u06cc u0020 u06cc_u0627_u0628_u06cc_u0645 u0020 u062f_u0631 u0020 u062f_u0631_u0627_u0632 u0020 u0645_u062f_u062a u0020 u0648 u0020 u0628_u0627 u0020 u062a_u06a9_u0631_u0627_u0631 u0020 u060c u0020 u0627_u0644_u06af_u0648_u06cc_u06cc u0020 u0645_u0646_u0638_u0645 u0020 u0627_u0632 u0020 u062e_u0648_u062f u0020 u0646_u0634_u0627_u0646 u0020 u0645_u06cc u0020 u062f_u0647_u0646_u062f u0020 u002e_u0020", 
        "u062c_u0627_u0630_u0628_u0647 u0020 u0647_u0627_u06cc u0020 u063a_u0631_u06cc_u0628 u0020 u0627_u0632 u0020 u0627_u0644_u06af_u0648_u06cc_u06cc u0020 u067e_u06cc_u0631_u0648_u06cc u0020 u0645_u06cc u0020 u06a9_u0646_u0646_u062f u0020 u06a9_u0647 u0020 u0627_u06cc_u0646 u0020 u0627_u0644_u06af_u0648 u0020 u0628_u0647 u0020 u0622_u0646_u0627_u0646 u0020 u0645_u0639_u0646_u06cc u0020 u0645_u0641_u0647_u0648_u0645 u0020 u0645_u06cc u0020 u0628_u062e_u0634_u0646_u062f_u0020", 
        "u002e u0020 u062e_u0644_u0627_u0635_u0647 u0020 u0622_u0646_u06a9_u0647 u0020 u0622_u0634_u0648_u0628_u0646_u0627_u06a9 u0020 u0628_u0648_u062f_u0646 u0020 u0631_u0648_u0646_u062f_u0647_u0627 u0020 u0647_u0645_u0647 u0020 u062e_u0628_u0631 u0020 u0627_u0632 u0020 u0646_u0638_u0645_u06cc u0020 u067e_u0646_u0647_u0627_u0646 u0020 u0648 u0020 u06a9_u0634_u0641 u0020 u0646_u0634_u062f_u0647 u0020 u0645_u06cc u0020 u062f_u0647_u0646_u062f u0020 u002e_u0020", 
        "u0627_u0632 u0020 u0645_u062b_u0627_u0644_u0647_u0627_u06cc u0020 u0627_u06cc_u0646 u0020 u067e_u062f_u06cc_u062f_u0647 u0020 u0645_u06cc u0020 u062a_u0648_u0627_u0646 u0020 u0628_u0647 u0020 u0627_u0644_u06af_u0648_u06cc u0020 u067e_u0627_u0646_u062f_u0648_u0644_u06cc u0020 u0627_u0634_u0627_u0631_u0647 u0020 u06a9_u0631_u062f u0020 u002e_u000d", 
        "u062c_u0627_u0630_u0628_u0647 u0020 u0647_u0627 u0020 u0627_u0646_u0648_u0627_u0639 u0020 u0645_u062e_u062a_u0644_u0641 u0020 u062f_u0627_u0631_u0646_u062f u0020 u0645_u0627_u0646_u0646_u062f u0020 u062c_u0627_u0630_u0628_u0647 u0020 u0646_u0642_u0637_u0647 u0020 u062b_u0627_u0628_u062a_u061b u0020 u062c_u0627_u0630_u0628_u0647 u0020 u062f_u0648_u0631 u0020 u0645_u062d_u062f_u0648_u062f_u061b u0020 u062c_u0627_u0630_u0628_u0647 u0020 u06af_u0648_u06cc_u0020", 
        "u0645_u0627_u0646_u0646_u062f_u0648_u062c_u0627_u0630_u0628_u0647 u0020 u063a_u0631_u064a_u0628 u0020 u064a_u0627 u0020 u0628_u06cc u0020 u0646_u0638_u0645 u0020 u002e u0020 u062c_u0627_u0630_u0628_u0647 u0020 u0647_u0627_u06cc u0020 u063a_u0631_u064a_u0628 u0020 u0628_u0631_u062e_u0644_u0627_u0641 u0020 u062c_u0627_u0630_u0628_u0647 u0020 u0647_u0627_u06cc u0020 u0642_u0628_u0644_u06cc u0020 u0643_u0647 u0020 u0646_u0648_u0639_u06cc u0020 u0646_u0638_u0645_u0020", 
        "u0648_u0642_u0627_u0628_u0644_u064a_u062a u0020 u067e_u064a_u0634 u0020 u0628_u064a_u0646_u06cc u0020 u062f_u0627_u0634_u062a_u0646_u062f u0020 u061b u0020 u0020_u0628_u06cc u0020 u0646_u0638_u0645 u0020 u0647_u0633_u062a_u0646_u062f u0020 u0648_u0628_u0647 u0020 u0647_u0645_u064a_u0646 u0020 u062e_u0627_u0637_u0631 u0020 u0628_u0631_u062e_u06cc u0020 u0622_u0646_u0647_u0627 u0020 u0631_u0627 u0020 u062c_u0627_u0630_u0628_u0647 u0020 u0647_u0627_u06cc u0020 u0628_u06cc_u0020", 
        "u0646_u0638_u0645 u0020 u0646_u064a_u0632 u0020 u0646_u0627_u0645_u064a_u062f_u0647 u0020 u0627_u0646_u062f u0020 u002e"
    ]
}