{
    "bounding_box": [
        [
            197, 
            45, 
            324, 
            46
        ], 
        [
            268, 
            114, 
            408, 
            31
        ], 
        [
            92, 
            181, 
            584, 
            30
        ], 
        [
            67, 
            239, 
            582, 
            33
        ], 
        [
            59, 
            304, 
            617, 
            34
        ], 
        [
            192, 
            362, 
            456, 
            33
        ]
    ], 
    "image_height": 540, 
    "image_width": 720, 
    "transcription": [
        "u0646_u0638_u0627_u0645 u0020 u0627_u0644_u062d_u0645_u0627_u064a_u0629 u0020 u0648_u0627_u0644_u0627_u0646_u062a_u062f_u0627_u0628_u0020", 
        "u0639_u0631_u0641 u0020 u0643_u0644_u0627_u064b u0020 u0645_u0646 u0020 u003a u0020 u0627_u0644_u062d_u0645_u0627_u064a_u0629 u0020 u0020 u0020 u0648 u0020 u0020 u0020 u0627_u0644_u0627_u0646_u062a_u062f_u0627_u0628 u0020 u002e_u000d", 
        "u0031 u0020 u0640_u0640 u0020 u0627_u0644_u062d_u0645_u0627_u064a_u0629 u0020 u003a u0020 u0634_u0643_u0644 u0020 u0645_u0646 u0020 u0623_u0634_u0643_u0627_u0644 u0020 u0627_u0644_u0627_u0633_u062a_u0639_u0645_u0627_u0631 u0020 u062a_u0643_u0648_u0646 u0020 u0644_u0644_u0645_u0633_u062a_u0639_u0645_u0631_u0020", 
        "u0627_u0644_u0633_u0644_u0637_u0629 u0020 u0627_u0644_u0641_u0639_u0644_u064a_u0629 u0020 u0641_u064a u0020 u0627_u0644_u0628_u0644_u0627_u062f u0020 u0648_u0644_u0644_u0625_u062f_u0627_u0631_u0629 u0020 u0627_u0644_u0648_u0637_u0646_u064a_u0629 u0020 u0633_u0644_u0637_u0629 u0020 u0634_u0643_u0644_u064a_u0629 u0020 u002e_u000d", 
        "u0032 u0020 u0640_u0640 u0020 u0627_u0644_u0627_u0646_u062a_u062f_u0627_u0628 u0020 u003a u0020 u0646_u0638_u0627_u0645 u0020 u0641_u0631_u0636_u062a_u0647 u0020 u0639_u0635_u0628_u0629 u0020 u0627_u0644_u0623_u0645_u0645 u0020 u060c u0020 u0648_u063a_u0631_u0636_u0647 u0020 u0645_u0633_u0627_u0639_u062f_u0629_u0020", 
        "u0627_u0644_u0623_u0642_u0627_u0644_u064a_u0645 u0020 u0627_u0644_u062a_u064a u0020 u0644_u0645 u0020 u062a_u0633_u062a_u0637_u0639 u0020 u0625_u062f_u0627_u0631_u0629 u0020 u0646_u0641_u0633_u0647_u0627 u0020 u0628_u0646_u0641_u0633_u0647_u0627 u0020 u002e_u000d"
    ]
}