{
    "bounding_box": [
        [
            484, 
            59, 
            234, 
            29
        ], 
        [
            411, 
            117, 
            361, 
            60
        ], 
        [
            437, 
            196, 
            328, 
            29
        ], 
        [
            119, 
            453, 
            150, 
            23
        ], 
        [
            88, 
            493, 
            212, 
            2
        ], 
        [
            50, 
            501, 
            295, 
            14
        ]
    ], 
    "image_height": 540, 
    "image_width": 960, 
    "transcription": [
        "u0645_u0624_u062a_u0645_u0631 u0020 u0625_u0644_u0643_u062a_u0631_u0648_u0646_u064a u0020 u0628_u0639_u0646_u0648_u0627_u0646", 
        "u0627_u0644_u0642_u064a_u0627_u062f_u0629 u0020 u0627_u0644_u062a_u062d_u0648_u064a_u0644_u064a_u0629_u000d", 
        "u0642_u064a_u0627_u062f_u0629 u0020 u0627_u0644_u0642_u0631_u0646 u0020 u0627_u0644_u0648_u0627_u062d_u062f u0020 u0648 u0020 u0627_u0644_u0639_u0634_u0631_u064a_u0646", 
        "u0623_u002f u0020 u0645_u062d_u0645_u062f u0020 u0632_u0648_u064a_u062f u0020 u0627_u0644_u0639_u062a_u064a_u0628_u064a_u000d", 
        "u002e_u002e_u002e_u002e_u002e_u002e_u002e_u002e_u002e_u002e_u002e_u002e_u002e_u002e_u002e_u002e_u002e_u002e_u002e_u002e_u002e_u002e_u002e_u002e_u002e_u002e_u002e_u002e_u002e_u002e_u002e_u002e_u002e_u000d", 
        "u0645_u062f_u064a_u0631 u0020 u0625_u062f_u0627_u0631_u0629 u0020 u0627_u0644_u0628_u0631_u0627_u0645_u062c u0020 u0627_u0644_u0625_u062f_u0627_u0631_u064a_u0629 u0020 u0648 u0020 u0627_u0644_u0642_u0627_u0646_u0648_u0646_u064a_u0629 u0020 u0628_u0645_u0639_u0647_u062f u0020 u0627_u0644_u0627_u062f_u0627_u0631_u0629 u0020 u0627_u0644_u0639_u0627_u0645_u0629"
    ]
}