{
    "bounding_box": [
        [
            60, 
            19, 
            586, 
            46
        ], 
        [
            176, 
            68, 
            367, 
            49
        ], 
        [
            391, 
            138, 
            258, 
            43
        ], 
        [
            106, 
            198, 
            543, 
            47
        ], 
        [
            119, 
            261, 
            529, 
            44
        ], 
        [
            60, 
            319, 
            589, 
            52
        ], 
        [
            182, 
            386, 
            466, 
            49
        ]
    ], 
    "image_height": 540, 
    "image_width": 720, 
    "transcription": [
        "u0627_u0644_u0628_u0631_u0627_u0645_u062c u0020 u0648_u0627_u0644_u062e_u0637_u0637 u0020 u0627_u0644_u0645_u0645_u0648_u0651_u0644_u0629 u0020 u0627_u0644_u062a_u064a u0020 u0633_u062a_u0646_u0641_u0651_u0630 u0020 u0636_u0645_u0646_u0020", 
        "u201c_u0645_u0634_u0631_u0648_u0639 u0020 u0639_u0627_u0645 u0020 u0627_u0644_u0644_u0651_u063a_u0629 u0020 u0627_u0644_u0639_u0631_u0628_u064a_u0651_u0629", 
        "u0031_u002e u0020 u0645_u064f_u0644_u0635_u0642 u0020 u0634_u0647_u0631_u064a_u002e_u000d", 
        "u0020_u0032_u002e u0020 u0643_u0631_u0651_u0627_u0633_u0629 u0020 u201d_u0648_u0642_u0641_u0629 u0020 u0635_u0628_u0627_u062d_u064a_u0651_u0629 u0020 u0645_u0639 u0020 u0644_u063a_u062a_u0646_u0627_u201c_u002e_u000d", 
        "u0020_u0033_u002e u0020 u0645_u0633_u0627_u0628_u0642_u0629 u0020 u0627_u0644_u0643_u062a_u0627_u0628_u0629 u0020 u0627_u0644_u0625_u0628_u062f_u0627_u0639_u064a_u0651_u0629 u0020 u0627_u0644_u0642_u0637_u0631_u064a_u0651_u0629_u002e_u000d", 
        "u0020_u0034_u002e u0020 u0643_u0631_u0651_u0627_u0633_u0629 u0020 u0635_u064f_u0644_u062d_u0629 u0020 u0628_u064a_u0646 u0020 u0627_u0644_u0645_u062d_u0643_u064a_u0651_u0629 u0020 u0648_u0627_u0644_u0641_u064f_u0635_u062d_u0649_u002e_u000d", 
        "u0020_u0035_u002e u0020 u0020_u0623_u064a_u0627_u0645 u0020 u062a_u062a_u0648_u064a_u062c u0020 u0644_u0639_u0627_u0645 u0020 u0627_u0644_u0644_u0651_u063a_u0629 u0020 u0627_u0644_u0639_u0631_u0628_u064a_u0629_u002e_u000d"
    ]
}