{
    "bounding_box": [
        [
            180, 
            44, 
            359, 
            41
        ], 
        [
            47, 
            133, 
            602, 
            34
        ], 
        [
            101, 
            172, 
            548, 
            34
        ], 
        [
            60, 
            211, 
            589, 
            33
        ], 
        [
            42, 
            248, 
            607, 
            31
        ], 
        [
            38, 
            288, 
            611, 
            33
        ], 
        [
            387, 
            324, 
            262, 
            31
        ]
    ], 
    "image_height": 540, 
    "image_width": 720, 
    "transcription": [
        "u0645_u0636_u0645_u0648_u0646 u0020 u0627_u0644_u0639_u0646_u0641 u0020 u0636_u062f u0020 u0627_u0644_u0645_u0631_u0623_u0629", 
        "u0648_u0639_u0644_u0649 u0020 u0627_u0644_u0631_u063a_u0645 u0020 u0645_u0646 u0020 u0627_u062e_u062a_u0644_u0627_u0641 u0020 u0627_u0644_u0628_u0627_u062d_u062b_u064a_u0646 u0020 u0641_u064a u0020 u062a_u062d_u062f_u064a_u062f u0020 u0623_u0646_u0648_u0627_u0639 u0020 u0627_u0644_u0639_u0646_u0641 u0020 u0625_u0644_u0627_u0020", 
        "u0623_u0646_u0647_u0645 u0020 u064a_u062c_u0645_u0639_u0648_u0646 u0020 u0639_u0644_u0649 u0020 u0648_u062d_u062f_u0629 u0020 u0627_u0644_u0645_u0636_u0645_u0648_u0646_u060c u0020 u0641_u0647_u0648 u0020 u0641_u0639_u0644 u0020 u0623_u0648 u0020 u0633_u0644_u0648_u0643_u0020", 
        "u0639_u062f_u0648_u0627_u0646_u064a u0020 u062a_u062c_u0627_u0647 u0020 u0627_u0644_u0645_u0631_u0623_u0629_u060c u0020 u0633_u0648_u0627_u0621 u0020 u0643_u0627_u0646 u0020 u0647_u0630_u0627 u0020 u0627_u0644_u0641_u0639_u0644 u0020 u0645_u0648_u062c_u0647 u0020 u0645_u0646 u0020 u0627_u0644_u0631_u062c_u0644_u0020", 
        "u0636_u062f u0020 u0627_u0644_u0645_u0631_u0623_u0629 u0020 u0623_u0648 u0020 u0645_u0646 u0020 u0627_u0644_u0645_u0631_u0623_u0629 u0020 u0636_u062f u0020 u0627_u0644_u0645_u0631_u0623_u0629 u0020 u0633_u0648_u0627_u0621 u0020 u0645_u0646 u0020 u0627_u0644_u0648_u0633_u0637 u0020 u0627_u0644_u0645_u062d_u064a_u0637_u0020", 
        "u0628_u0627_u0644_u0645_u0631_u0623_u0629 u0020 u0643_u0627_u0644_u0623_u0633_u0631_u0629 u0020 u0648_u0623_u0633_u0631_u0629 u0020 u0627_u0644_u0632_u0648_u062c u0020 u0623_u0648 u0020 u0648_u0633_u0637 u0020 u0627_u0644_u0639_u0645_u0644_u060c u0020 u0623_u0648 u0020 u0645_u0646 u0020 u0627_u0644_u063a_u0631_u0628_u0627_u0621_u0020", 
        "u0627_u0644_u0630_u064a_u0646 u0020 u0642_u062f u0020 u064a_u062a_u0639_u0631_u0636_u0648_u0646 u0020 u0644_u0644_u0645_u0631_u0623_u0629_u002e"
    ]
}