{
    "bounding_box": [
        [
            100, 
            115, 
            576, 
            33
        ], 
        [
            123, 
            201, 
            552, 
            30
        ], 
        [
            180, 
            286, 
            496, 
            30
        ]
    ], 
    "image_height": 540, 
    "image_width": 720, 
    "transcription": [
        "u0648_u0642_u062f u0020 u062f_u0623_u0628 u0020 u0022_u0628_u064a_u062a_u0643_u0022 u0020 u0639_u0644_u0649 u0020 u062a_u0648_u0633_u064a_u0639 u0020 u0646_u0637_u0627_u0642 u0020 u0634_u0628_u0643_u0629 u0020 u0641_u0631_u0648_u0639_u0647 u0020 u0627_u0644_u0645_u062d_u0644_u064a_u0629 u0020 u062d_u062a_u0649_u000d", 
        "u0628_u0644_u063a_u062a u0020 u0035_u0035 u0020 u0641_u0631_u0639_u0627_u060c u0020 u0628_u0627_u0644_u0625_u0636_u0627_u0641_u0629 u0020 u0625_u0644_u0649 u0020 u062a_u062f_u0639_u064a_u0645_u0647_u0627 u0020 u0628_u0623_u0642_u0633_u0627_u0645 u0020 u062e_u0627_u0635_u0629 u0020 u0644_u062e_u062f_u0645_u0629_u000d", 
        "u0020_u0627_u0644_u0633_u064a_u062f_u0627_u062a_u060c u0020 u0648_u062a_u0628_u0646_u0649 u0020 u0645_u0641_u0647_u0648_u0645 u0020 u062e_u062f_u0645_u0629 u0020 u0627_u0644_u0639_u0645_u0644_u0627_u0621 u0020 u062e_u0627_u0631_u062c u0020 u0627_u0644_u0641_u0631_u0648_u0639_u060c_u0020"
    ]
}