{
    "bounding_box": [
        [
            283, 
            45, 
            152, 
            41
        ], 
        [
            414, 
            136, 
            234, 
            31
        ], 
        [
            413, 
            184, 
            235, 
            30
        ], 
        [
            437, 
            229, 
            211, 
            27
        ]
    ], 
    "image_height": 540, 
    "image_width": 720, 
    "transcription": [
        "u0642_u0648_u0627_u0641_u0644 u0020 u0637_u0628_u064a_u0629", 
        "u0646_u062c_u0639 u0020 u0627_u0644_u0639_u0631_u0628 u0020 u002d u0020 u0627_u0644_u0648_u0631_u062f_u064a_u0627_u0646_u000d", 
        "u0628_u0627_u0644_u062a_u0639_u0627_u0648_u0646 u0020 u0645_u0639 u0020 u0628_u0646_u0643 u0020 u0627_u0644_u062f_u0648_u0627_u0621_u000d", 
        "u0639_u062f_u062f u0020 u0627_u0644_u0645_u0633_u062a_u0641_u064a_u062f_u064a_u0646_u003a_u0036_u0031_u0030"
    ]
}