{
    "bounding_box": [
        [
            151, 
            172, 
            717, 
            33
        ], 
        [
            484, 
            211, 
            384, 
            33
        ]
    ], 
    "image_height": 540, 
    "image_width": 960, 
    "transcription": [
        "u0627_u0644_u0634_u0639_u0631 u0020 u062e_u0644_u0642_u0627 u0020 u0648_u0625_u0628_u062f_u0627_u0639_u0627 u0020 u0648_u0627_u0628_u062a_u0643_u0627_u0631_u0627 u0020 u002c u0020 u0639_u0627_u0644_u0645 u0020 u062c_u062f_u064a_u062f u0020 u0645_u0633_u062a_u0642_u0644 u0020 u0646_u0633_u0628_u064a_u0627 u0020 u0639_u0646 u0020 u0627_u0644_u0630_u0627_u062a_u0020", 
        "u0648_u0627_u0644_u0645_u0648_u0636_u0648_u0639 u0020 u0648_u0647_u0630_u0627 u0020 u0645_u0627 u0020 u064a_u0628_u0631_u0631 u0020 u0648_u062c_u0648_u062f_u0647_u002e_u000d"
    ]
}