{
    "bounding_box": [
        [
            31, 
            48, 
            681, 
            41
        ], 
        [
            31, 
            103, 
            681, 
            45
        ], 
        [
            31, 
            149, 
            681, 
            53
        ], 
        [
            31, 
            204, 
            681, 
            54
        ], 
        [
            31, 
            259, 
            681, 
            54
        ], 
        [
            31, 
            315, 
            681, 
            51
        ], 
        [
            31, 
            379, 
            681, 
            45
        ], 
        [
            31, 
            434, 
            681, 
            44
        ], 
        [
            305, 
            493, 
            406, 
            41
        ]
    ], 
    "image_height": 567, 
    "image_width": 737, 
    "transcription": [
        "u0020 u0020 u0020 u0020 u0645_u0646 u0020 u062e_u0644_u0627_u0644 u0020 u0647_u0630_u0627 u0020 u0627_u0644_u062c_u062f_u0648_u0644 u0020 u064a_u062a_u0628_u064a_u0646 u0020 u0644_u0646_u0627 u0020 u0627_u0646_u0647 u0020 u0645_u0646_u0020", 
        "u0627_u0635_u0644 u0020 u0032_u0039 u0020 u0627_u062c_u0631_u0627_u0621 u0020 u062a_u0645 u0020 u0627_u0642_u062a_u0631_u0627_u062d_u0647 u0020 u0641_u064a u0020 u0627_u0644_u0628_u0631_u0646_u0627_u0645_u062c_u0020", 
        "u0627_u0644_u0627_u0646_u062a_u062e_u0627_u0628_u064a u0020 u062a_u0645 u0020 u062a_u062d_u0642_u064a_u0642 u0020 u0648_u0627_u0646_u062c_u0627_u0632 u0020 u0032_u0036 u0020 u0627_u062c_u0631_u0627_u0621 u0020 u0645_u0646 u0020 u0647_u0646_u0627_u0020", 
        "u064a_u062a_u0636_u062d u0020 u062c_u0644_u064a_u0627 u0020 u0627_u0646_u0647 u0020 u062a_u0645 u0020 u0627_u0644_u0648_u0641_u0627_u0621 u0020 u0628_u0639_u062f u0020 u062c_u0647_u0648_u062f u0020 u0645_u062a_u0648_u0627_u0635_u0644_u0629_u0020", 
        "u0628 u0020 u0039_u0039_u0025 u0020 u0645_u0646 u0020 u0645_u062c_u0645_u0648_u0639 u0020 u0627_u0644_u0627_u0644_u062a_u0632_u0627_u0645_u0627_u062a u0020 u0628_u0627_u0644_u0631_u063a_u0645 u0020 u0645_u0646_u0020", 
        "u0642_u0644_u0629 u0020 u0648_u0636_u0639_u0641 u0020 u0627_u0644_u0645_u0648_u0627_u0631_u062f u0020 u0627_u0644_u0645_u0627_u0644_u064a_u0629 u0020 u0644_u0644_u062c_u0645_u0627_u0639_u0629_u002e u0020 u0648_u0642_u062f_u0020", 
        "u062a_u0639_u0645_u062f_u062a u0020 u0627_u0646 u0020 u0627_u0642_u062f_u0645 u0020 u0647_u0630_u0647 u0020 u0627_u0644_u0645_u0639_u0637_u064a_u0627_u062a u0020 u062a_u0639_u0645_u064a_u0645_u0627 u0020 u0644_u0644_u0641_u0627_u0626_u062f_u0629_u0020", 
        "u0648_u062a_u0648_u062b_u064a_u0642_u0627 u0020 u0644_u0627_u0633_u0644_u0648_u0628 u0020 u062c_u062f_u064a_u062f u0020 u0020_u0641_u064a u0020 u062a_u062f_u0628_u064a_u0631 u0020 u0627_u0644_u0634_u0627_u0646_u0020", 
        "u0627_u0644_u0645_u062d_u0644_u064a u0020 u0648 u0020 u0644_u062a_u0646_u0648_u064a_u0631 u0020 u0627_u0644_u0631_u0627_u064a u0020 u0627_u0644_u0639_u0627_u0645"
    ]
}