{
    "bounding_box": [
        [
            93, 
            62, 
            528, 
            44
        ], 
        [
            128, 
            138, 
            525, 
            30
        ], 
        [
            553, 
            179, 
            100, 
            26
        ], 
        [
            55, 
            256, 
            597, 
            30
        ], 
        [
            48, 
            293, 
            605, 
            29
        ], 
        [
            69, 
            333, 
            584, 
            27
        ], 
        [
            221, 
            371, 
            432, 
            29
        ]
    ], 
    "image_height": 540, 
    "image_width": 720, 
    "transcription": [
        "u0686_u06af_u0648_u0646_u0647 u0020 u0645_u0648_u0627_u0631_u062f u0020 u062e_u0648_u062f_u06a9_u0634_u06cc u0020 u0631_u0627 u0020 u06af_u0632_u0627_u0631_u0634 u0020 u06a9_u0646_u06cc_u0645_u061f", 
        "u0645_u0639_u0631_u0641_u06cc u0020 u062e_u0648_u062f_u06a9_u0634_u06cc u0020 u0628_u0647 u0020 u0639_u0646_u0648_u0627_u0646 u0020 u0639_u0645_u0644_u06cc u0020 u062a_u062d_u0633_u06cc_u0646 u0020 u0628_u0631_u0627_u0646_u06af_u06cc_u0632 u0020 u0648_u0020", 
        "u0642_u0647_u0631_u0645_u0627_u0646_u0627_u0646_u0647_u000d", 
        "u062a_u0648_u0644_u06cc_u062f u0020 u0648 u0020 u067e_u062e_u0634 u0020 u0641_u06cc_u0644_u0645 u0020 u0647_u0627_u06cc_u06cc u0020 u06a9_u0647 u0020 u0628_u0631 u0020 u0627_u0633_u0627_u0633 u0020 u062f_u0627_u0633_u062a_u0627_u0646 u0020 u0647_u0627_u06cc u0020 u0648_u0627_u0642_u0639_u06cc u0020 u0627_u0632_u0020", 
        "u062e_u0648_u062f_u06a9_u0634_u06cc u0020 u0627_u0641_u0631_u0627_u062f u0020 u0633_u0627_u062e_u062a_u0647 u0020 u0634_u062f_u0647 u0020 u0628_u0627_u0634_u0646_u062f_u060c u0020 u0645_u06cc u0020 u062a_u0648_u0627_u0646_u0646_u062f u0020 u062e_u0637_u0631 u0020 u062e_u0648_u062f_u06a9_u0634_u06cc_u0020", 
        "u0631_u0627 u0020 u062f_u0631 u0020 u0627_u0641_u0631_u0627_u062f u0020 u0645_u0633_u062a_u0639_u062f u0020 u0627_u0641_u0632_u0627_u06cc_u0634 u0020 u062f_u0647_u0646_u062f_u002e u0020 u0644_u0630_u0627 u0020 u0627_u0632 u0020 u0630_u06a9_u0631 u0020 u0639_u0628_u0627_u0631_u062a u0020 u0647_u0627_u06cc_u06cc_u0020", 
        "u0686_u0648_u0646 u0020 u201d_u0627_u06cc_u0646 u0020 u062f_u0627_u0633_u062a_u0627_u0646 u0020 u0648_u0642_u0639_u06cc u0020 u0627_u0633_u062a_u201c u0020 u067e_u0631_u0647_u06cc_u0632 u0020 u0634_u0648_u062f_u002e"
    ]
}