{
    "bounding_box": [
        [
            66, 
            64, 
            582, 
            22
        ], 
        [
            56, 
            87, 
            592, 
            22
        ], 
        [
            52, 
            110, 
            596, 
            22
        ], 
        [
            85, 
            133, 
            563, 
            27
        ], 
        [
            77, 
            162, 
            571, 
            22
        ], 
        [
            70, 
            185, 
            578, 
            22
        ], 
        [
            59, 
            208, 
            589, 
            22
        ], 
        [
            70, 
            231, 
            578, 
            22
        ], 
        [
            279, 
            254, 
            369, 
            22
        ], 
        [
            48, 
            277, 
            600, 
            27
        ], 
        [
            72, 
            306, 
            576, 
            22
        ], 
        [
            82, 
            329, 
            566, 
            22
        ], 
        [
            45, 
            352, 
            603, 
            22
        ], 
        [
            45, 
            375, 
            603, 
            22
        ], 
        [
            243, 
            398, 
            405, 
            22
        ]
    ], 
    "image_height": 540, 
    "image_width": 720, 
    "transcription": [
        "u064a_u062d_u062a_u0627_u062c u0020 u0627_u0644_u0646_u0638_u0627_u0645 u0020 u0644_u0634_u062e_u0635 u0020 u062d_u064a u0020 u0644_u0647 u0020 u0642_u0632_u062d_u064a_u0629 u0020 u0644_u064a_u0639_u0645_u0644_u002e u0020 u0633_u064a_u0643_u0648_u0646 u0020 u0645_u0646 u0020 u0627_u0644_u0635_u0639_u0628 u0020 u0639_u0644_u0649 u0020 u0627_u0644_u0634_u062e_u0635_u0020", 
        "u0627_u0644_u0623_u0639_u0645_u0649 u0020 u0627_u0644_u0646_u0638_u0631 u0020 u0641_u064a u0020 u0645_u0631_u0623_u0629 u0020 u0627_u0644_u0643_u0627_u0645_u064a_u0631_u0627 u0020 u0639_u0646 u0020 u0628_u0639_u062f u0020 u0028_u0033_u0030_u0029 u0020 u0633_u0645_u002e u0020 u0648_u0644_u0643_u0646 u0020 u0625_u0630_u0627 u0020 u062a_u0645_u0643_u0646 u0020 u0645_u0646 u0020 u0630_u0644_u0643 u0020 u0641_u0625_u0646_u0020", 
        "u0627_u0644_u0646_u0638_u0627_u0645 u0020 u064a_u0645_u0643_u0646_u0647 u0020 u0625_u0644_u062a_u0642_u0627_u0637 u0020 u0635_u0648_u0631 u0020 u0644_u0642_u0632_u062d_u064a_u0629 u0020 u0627_u0644_u0634_u062e_u0635 u0020 u0627_u0644_u0623_u0639_u0645_u0649 u0020 u0648_u0645_u0637_u0627_u0628_u0642_u062a_u0647_u0627 u0020 u0628_u062f_u0642_u0629 u0020 u0639_u0627_u0644_u064a_u0629 u0020 u0623_u064a_u0636_u0627_u002e_u00a0_u000d", 
        "u0633_u064a_u062a_u0645 u0020 u062e_u0632_u0646 u0020 u0627_u0644_u0631_u0645_u0632 u0020 u0627_u0644_u0642_u0632_u062d_u064a u0020 u0644_u0642_u0632_u062d_u064a_u062a_u0643 u0020 u0641_u064a u0020 u0642_u0627_u0639_u062f_u0629 u0020 u0642_u0632_u062d_u064a_u0627_u062a u0020 u0631_u0626_u064a_u0633_u064a_u0629 u0020 u0641_u064a u0020 u0645_u0642_u0631 u0020 u0627_u0644_u0628_u0646_u0643_u0020", 
        "u0627_u0644_u0631_u0626_u064a_u0633_u064a_u002e u0020 u0648_u0644_u0643_u0646 u0020 u0644_u0627 u0020 u064a_u0645_u0644_u0643 u0020 u0627_u0644_u0628_u0646_u0643 u0020 u0627_u0644_u0642_u062f_u0631_u0629 u0020 u0639_u0644_u0649 u0020 u0643_u0634_u0641 u0020 u0647_u0630_u0627 u0020 u0627_u0644_u0631_u0645_u0632 u0020 u0627_u0644_u0642_u0632_u062d_u064a u0020 u0644_u0623_u064a_u0629 u0020 u062c_u0647_u0629_u0020", 
        "u0623_u062e_u0631_u0649 u0020 u0644_u0623_u0646 u0020 u0644_u0643_u0644 u0020 u0628_u0646_u0643 u0020 u0623_u0648 u0020 u0645_u0624_u0633_u0633_u0629 u0020 u062a_u0633_u062a_u062e_u062f_u0645 u0020 u062a_u0642_u0646_u064a_u0629 u0020 u0628_u0635_u0645_u0629 u0020 u0627_u0644_u0639_u064a_u0646 u0020 u0631_u0645_u0632 u0020 u0642_u0632_u062d_u064a u0020 u0645_u062e_u062a_u0644_u0641_u0020", 
        "u0628_u062d_u064a_u062b u0020 u0644_u0646 u0020 u062a_u0637_u0627_u0628_u0642 u0020 u0628_u0635_u0645_u0629 u0020 u0639_u064a_u0646 u0020 u0627_u0644_u0634_u062e_u0635 u0020 u0641_u064a u0020 u0627_u0644_u0628_u0646_u0643 u0020 u0645_u0639 u0020 u0623_u064a_u0629 u0020 u0628_u0635_u0645_u0629 u0020 u0639_u064a_u0646 u0020 u0623_u062e_u0631_u0649 u0020 u0644_u0646_u0641_u0633_u0020", 
        "u0627_u0644_u0634_u062e_u0635 u0020 u0641_u064a u0020 u0628_u0646_u0648_u0643 u0020 u0623_u0648 u0020 u0645_u0624_u0633_u0633_u0627_u062a u0020 u0623_u062e_u0631_u0649 u0020 u0645_u0645_u0627 u0020 u064a_u0639_u0646_u064a u0020 u0623_u0646 u0020 u0628_u0635_u0645_u0629 u0020 u0639_u064a_u0646 u0020 u0627_u0644_u0634_u062e_u0635 u0020 u063a_u064a_u0631_u0020", 
        "u0630_u0627_u062a u0020 u0641_u0627_u0626_u062f_u0629 u0020 u062e_u0627_u0631_u062c u0020 u062a_u0637_u0628_u064a_u0642_u0627_u062a u0020 u0627_u0644_u0628_u0646_u0643 u0020 u0627_u0648 u0020 u0627_u0644_u062c_u0647_u0629 u0020 u0627_u0644_u0645_u0633_u0624_u0644_u0629_u000d", 
        "u0625_u0646_u0647 u0020 u0645_u0646 u0020 u0627_u0644_u0645_u062a_u0639_u0627_u0631_u0641 u0020 u0639_u0644_u064a_u0647 u0020 u0639_u0644_u0645_u064a_u0627 u0020 u0623_u0646 u0020 u0628_u0635_u0645_u0629 u0020 u0627_u0644_u0639_u064a_u0646 u0020 u0623_u062f_u0642 u0020 u0627_u0644_u0628_u0635_u0645_u0627_u062a u0020 u0639_u0644_u0649 u0020 u0627_u0644_u0625_u0637_u0644_u0627_u0642 u0020 u0636_u0645_u0646_u0020", 
        "u062c_u0645_u064a_u0639 u0020 u0623_u0646_u0638_u0645_u0629 u0020 u0627_u0644_u062a_u0639_u0631_u0641 u0020 u0627_u0644_u062d_u064a_u0648_u064a u0020 u0028_u0627_u0644_u0648_u062c_u0647_u002c u0020 u0627_u0644_u0635_u0648_u062a_u002c u0020 u0627_u0644_u0623_u0635_u0627_u0628_u0639 u0020 u0625_u0644_u062e_u002e_u002e_u002e_u0029 u0020 u0644_u0642_u062f u0020 u062a_u0645 u0020 u062a_u062c_u0631_u0628_u0629_u0020", 
        "u0627_u0644_u0646_u0638_u0627_u0645 u0020 u0645_u064a_u062f_u0627_u0646_u064a_u0627 u0020 u0641_u064a u0020 u0623_u0643_u0628_u0631 u0020 u062a_u0637_u0628_u064a_u0642 u0020 u062d_u064a_u0648_u064a u0020 u0641_u064a u0020 u0627_u0644_u0639_u0627_u0644_u0645 u0020 u0641_u064a u0020 u0645_u0634_u0631_u0648_u0639 u0020 u0627_u0644_u0625_u0645_u0627_u0631_u0627_u062a u0020 u0627_u0644_u0639_u0631_u0628_u064a_u0629_u0020", 
        "u0627_u0644_u0645_u062a_u062d_u062f_u0629 u0020 u0648_u0644_u0645 u0020 u064a_u0634_u0627_u0647_u062f u0020 u0623_u064a_u0629 u0020 u0645_u0637_u0627_u0628_u0642_u0627_u062a u0020 u062e_u0627_u0637_u0626_u0629 u0020 u0641_u064a u0020 u0623_u0643_u062b_u0631 u0020 u0645_u0646 u0020 u0032_u0030_u0030 u0020 u0628_u0644_u064a_u0648_u0646 u0020 u0645_u0642_u0627_u0631_u0646_u0647_u002e u0020 u0625_u0646 u0020 u0646_u0638_u0627_u0645_u0020", 
        "u0628_u0635_u0645_u0629 u0020 u0627_u0644_u0639_u064a_u0646 u0020 u0645_u0646 u0020 u0020_u062f_u0642_u064a_u0642 u0020 u0628_u0646_u0633_u0628_u0629 u0020 u0031_u0030_u0030_u0025 u0020 u0648_u0644_u0627 u0020 u064a_u0645_u0643_u0646 u0020 u0644_u0623_u0649 u0020 u0634_u062e_u0635 u0020 u063a_u064a_u0631_u0643 u0020 u0645_u0646 u0020 u0627_u0644_u0648_u0635_u0648_u0644_u0020", 
        "u0625_u0644_u0649 u0020 u062d_u0633_u0627_u0628_u0643 u0020 u0639_u0644_u0649 u0020 u0627_u0644_u0625_u0637_u0644_u0627_u0642 u0020 u0648_u0644_u0627 u0020 u062a_u062d_u062a u0020 u0623_u064a_u0629 u0020 u0638_u0631_u0648_u0641 u0020 u0643_u0627_u0646_u062a_u002e_u000b"
    ]
}