{
    "bounding_box": [
        [
            436, 
            40, 
            216, 
            26
        ], 
        [
            87, 
            90, 
            574, 
            29
        ], 
        [
            110, 
            127, 
            552, 
            25
        ], 
        [
            435, 
            157, 
            227, 
            22
        ]
    ], 
    "image_height": 540, 
    "image_width": 720, 
    "transcription": [
        "u0627_u0639_u062f_u0627_u062f u0020 u062e_u064a_u0627_u0631_u0627_u062a u0020 u0627_u0644_u062a_u0639_u0644_u064a_u0645_u0627_u062a_u0020", 
        "u0641_u064a u0020 u0623_u0639_u0644_u0649 u0020 u0627_u0644_u0632_u0627_u0648_u064a_u0629 u0020 u0627_u0644_u064a_u0633_u0631_u0649 u0020 u0645_u0646 u0020 u0645_u0631_u0643_u0632 u0020 u0627_u0644_u062a_u0639_u0644_u064a_u0645_u0627_u062a u0020 u0648_u0627_u0644_u062f_u0639_u0645_u060c u0020 u0631_u0628_u0645_u0627 u0020 u0644_u0627_u062d_u0638_u062a_u0020", 
        "u0642_u0627_u0626_u0645_u0629 u0020 u0627_u062e_u064a_u0631_u0629 u0020 u0648_u0647_u064a u0020 u0642_u0627_u0626_u0645_u0629 u0020 u062e_u064a_u0627_u0631_u0627_u062a_u002e u0020 u062a_u0642_u062f_u0645 u0020 u0647_u0630_u0647 u0020 u0627_u0644_u0642_u0627_u0626_u0645_u0629 u0020 u062e_u064a_u0627_u0631_u0627_u062a u0020 u0644_u062a_u0633_u0647_u064a_u0644_u0020", 
        "u0627_u0633_u062a_u062e_u062f_u0627_u0645 u0020 u0627_u0644_u062a_u0639_u0644_u064a_u0645_u0627_u062a u0020 u0648_u0627_u0644_u062f_u0639_u0645_u002e_u0020"
    ]
}