{
    "bounding_box": [
        [
            66, 
            184, 
            598, 
            22
        ], 
        [
            66, 
            210, 
            598, 
            24
        ], 
        [
            66, 
            239, 
            598, 
            24
        ], 
        [
            66, 
            269, 
            598, 
            24
        ], 
        [
            66, 
            298, 
            598, 
            23
        ], 
        [
            427, 
            328, 
            237, 
            19
        ], 
        [
            450, 
            115, 
            213, 
            21
        ]
    ], 
    "image_height": 540, 
    "image_width": 720, 
    "transcription": [
        "u0631_u0626_u06cc_u0633 u0020 u062c_u0645_u0647_u0648_u0631 u0020 u067e_u0633 u0020 u0627_u0632 u0020 u0627_u06cc_u0646_u06a9_u0647 u0020 u0627_u0632 u0020 u0637_u0631_u0641 u0020 u0645_u0631_u062f_u0645 u0020 u0627_u0646_u062a_u062e_u0627_u0628 u0020 u0634_u062f_u060c_u0645_u0648_u0638_u0641 u0020 u0627_u0633_u062a u0020 u0648_u0632_u06cc_u0631_u0627_u0646_u0020", 
        "u0645_u0648_u0631_u062f u0020 u0646_u0638_u0631 u0020 u062e_u0648_u062f u0020 u0631_u0627 u0020 u0628_u0647 u0020 u0646_u0645_u0627_u06cc_u0646_u062f_u06af_u0627_u0646 u0020 u0645_u062c_u0644_u0633 u0020 u0645_u0639_u0631_u0641_u06cc u0020 u06a9_u0646_u062f_u002e_u067e_u0633 u0020 u0627_u0632 u0020 u0622_u0646 u0020 u0647_u0631 u0020 u06cc_u06a9 u0020 u0627_u0632_u0020", 
        "u0648_u0632_u06cc_u0631_u0627_u0646 u0020 u062e_u0648_u062f u0020 u0631_u0627 u0020 u0645_u0639_u0631_u0641_u06cc u0020 u06a9_u0646_u062f u0020 u0648 u0020 u0646_u0645_u0627_u06cc_u0646_u062f_u06af_u0627_u0646 u0020 u062f_u0631 u0020 u0645_u0648_u0631_u062f u0020 u0635_u0644_u0627_u062d_u06cc_u062a u0020 u0627_u0648 u0020 u0628_u0631_u0627_u06cc u0020 u0645_u0633_u0626_u0648_u0644_u06cc_u062a_u0020", 
        "u0648_u0632_u0627_u0631_u062a u0020 u0627_u0638_u0647_u0627_u0631 u0020 u0646_u0638_u0631 u0020 u0645_u06cc u0020 u0646_u0645_u0627_u06cc_u0646_u062f_u002e_u062f_u0631 u0020 u067e_u0627_u06cc_u0627_u0646 u0020 u0646_u06cc_u0632 u0020 u0628_u0631_u0627_u06cc u0020 u0647_u0631_u06cc_u06a9 u0020 u0627_u0632 u0020 u0622_u0646_u0647_u0627 u0020 u0631_u0623_u06cc u0020 u06af_u06cc_u0631_u06cc_u0020", 
        "u0645_u06cc u0020 u0634_u0648_u062f_u002e_u0627_u06af_u0631 u0020 u0628_u06cc_u0634_u062a_u0631 u0020 u0646_u0645_u0627_u06cc_u0646_u062f_u06af_u0627_u0646 u0020 u0628_u0647 u0020 u0648_u0632_u06cc_u0631 u0020 u0645_u0639_u0631_u0641_u06cc u0020 u0634_u062f_u0647 u0020 u0631_u0623_u06cc u0020 u0627_u0639_u062a_u0645_u0627_u062f u0020 u062f_u0647_u0646_u062f u0020 u0627_u0648 u0020 u0628_u0647_u0020", 
        "u0639_u0646_u0648_u0627_u0646 u0020 u0648_u0632_u06cc_u0631 u0020 u0645_u0646_u0635_u0648_u0628 u0020 u0645_u06cc u0020 u0634_u0648_u062f_u002e", 
        "u062f_u0627_u062f_u0646 u0020 u0631_u0623_u06cc u0020 u0627_u0639_u062a_u0645_u0627_u062f u0020 u0628_u0647 u0020 u0648_u0632_u06cc_u0631_u0627_u0646"
    ]
}