{
    "bounding_box": [
        [
            491, 
            90, 
            187, 
            22
        ], 
        [
            50, 
            116, 
            629, 
            20
        ], 
        [
            448, 
            36, 
            249, 
            24
        ], 
        [
            474, 
            171, 
            206, 
            16
        ], 
        [
            17, 
            216, 
            663, 
            22
        ], 
        [
            523, 
            242, 
            156, 
            20
        ], 
        [
            410, 
            305, 
            272, 
            22
        ], 
        [
            19, 
            355, 
            663, 
            20
        ], 
        [
            156, 
            377, 
            525, 
            22
        ], 
        [
            664, 
            517, 
            12, 
            2
        ]
    ], 
    "image_height": 540, 
    "image_width": 720, 
    "transcription": [
        "u0031_u002e_u0033_u002e_u0032 u0020 u0627_u0644_u0633_u064a_u0648_u0644_u0629 u0020 u004c_u0069_u0071_u0075_u0069_u0064_u0069_u0074_u0079_u003a_u000d", 
        "u0627_u0644_u062d_u0627_u062c_u0629 u0020 u0625_u0644_u0649 u0020 u0639_u062f_u062f u0020 u0645_u0639_u064a_u0646 u0020 u0645_u0646 u0020 u0627_u0644_u0645_u0634_u062a_u0631_u064a_u0646 u0020 u0648_u0627_u0644_u0628_u0627_u0626_u0639_u064a_u0646 u0020 u0644_u0646_u062c_u0627_u062d u0020 u0645_u0634_u0631_u0648_u0639 u0020 u0627_u0644_u062a_u062c_u0627_u0631_u0629 u0020 u0627_u0644_u0625_u0644_u0643_u062a_u0631_u0648_u0646_u064a_u0629 u0020 u0648_u0636_u0645_u0627_u0646 u0020 u0627_u0633_u062a_u0645_u0631_u0627_u0631_u064a_u062a_u0647_u002e", 
        "u0033_u002e_u0032 u0020 u0642_u0636_u0627_u064a_u0627 u0020 u0627_u0644_u0623_u0633_u0648_u0627_u0642 u0020 u0627_u0644_u0625_u0644_u0643_u062a_u0631_u0648_u0646_u064a_u0629_u003a", 
        "u0032_u002e_u0033_u002e_u0032 u0020 u0627_u0644_u062c_u0648_u062f_u0629 u0020 u0648_u0636_u0645_u0627_u0646 u0020 u0627_u0644_u062c_u0648_u062f_u0629_u003a_u000d", 
        "u064a_u0643_u0648_u0646 u0020 u0627_u0644_u0645_u0634_u062a_u0631_u064a u0020 u0641_u064a u0020 u0645_u0639_u0638_u0645 u0020 u0627_u0644_u062d_u0627_u0644_u0627_u062a u0020 u0648_u062e_u0627_u0635_u0629 u0020 u0639_u0646_u062f u0020 u0634_u0631_u0627_u0621 u0020 u0627_u0644_u0645_u0646_u062a_u062c_u0627_u062a u0020 u0627_u0644_u062c_u062f_u064a_u062f_u0629 u0020 u063a_u064a_u0631 u0020 u0645_u062a_u0623_u0643_u062f u0020 u0645_u0646 u0020 u062c_u0648_u062f_u0629 u0020 u0648_u0645_u0648_u0627_u0635_u0641_u0627_u062a_u0020", 
        "u0627_u0644_u0633_u0644_u0639 u0020 u0627_u0644_u062a_u064a u0020 u064a_u0642_u0648_u0645 u0020 u0628_u0634_u0631_u0627_u0626_u0647_u0627_u002e_u0020", 
        "u0033_u002e_u0033_u002e_u0032 u0020 u0639_u0648_u0627_u0645_u0644 u0020 u0646_u062c_u0627_u062d u0020 u0627_u0644_u0623_u0633_u0648_u0627_u0642 u0020 u0627_u0644_u0625_u0644_u0643_u062a_u0631_u0648_u0646_u064a_u0629_u003a_u000d", 
        "u064a_u0639_u062a_u0645_u062f u0020 u0646_u062c_u0627_u062d u0020 u0645_u0634_u0627_u0631_u064a_u0639 u0020 u0627_u0644_u062a_u062c_u0627_u0631_u0629 u0020 u0627_u0644_u0625_u0644_u0643_u062a_u0631_u0648_u0646_u064a_u0629 u0020 u0639_u0644_u0649 u0020 u062e_u0635_u0627_u0626_u0635 u0020 u0627_u0644_u0645_u0646_u062a_u062c_u0627_u062a u0020 u0648_u0627_u0644_u062e_u062f_u0645_u0627_u062a u0020 u0648_u0639_u0644_u0649 u0020 u0637_u0628_u064a_u0639_u0629 u0020 u0627_u0644_u0635_u0646_u0627_u0639_u0629 u0020 u0648_u0645_u062c_u0627_u0644_u0020", 
        "u0627_u0644_u0623_u0639_u0645_u0627_u0644 u0020 u0648_u0639_u0644_u0649 u0020 u0627_u0644_u062a_u0633_u0647_u064a_u0644_u0627_u062a u0020 u0627_u0644_u062a_u064a u0020 u064a_u0642_u062f_u0645_u0647_u0627 u0020 u0627_u0644_u0628_u0627_u0626_u0639_u0648_u0646 u0020 u0648_u0639_u0644_u0649 u0020 u0631_u063a_u0628_u0627_u062a u0020 u0648_u0627_u062d_u062a_u064a_u0627_u062c_u0627_u062a u0020 u0627_u0644_u0645_u0633_u062a_u0647_u0644_u0643_u064a_u0646_u002e", 
        "u0032_u0033"
    ]
}