{
    "bounding_box": [
        [
            230, 
            46, 
            258, 
            41
        ], 
        [
            34, 
            130, 
            613, 
            29
        ], 
        [
            34, 
            161, 
            635, 
            29
        ], 
        [
            34, 
            192, 
            635, 
            29
        ], 
        [
            34, 
            222, 
            635, 
            29
        ], 
        [
            34, 
            253, 
            635, 
            29
        ], 
        [
            34, 
            284, 
            635, 
            29
        ], 
        [
            285, 
            314, 
            384, 
            25
        ]
    ], 
    "image_height": 540, 
    "image_width": 720, 
    "transcription": [
        "u0625_u062d_u0635_u0627_u0621_u0627_u062a u0020 u0627_u0644_u0633_u064a_u0627_u062d_u0629", 
        "u0020_u0643_u0645_u0627 u0020 u064a_u062c_u0631_u064a u0020 u0627_u0644_u062a_u0631_u062a_u064a_u0628 u0020 u0644_u0639_u0642_u062f u0020 u0623_u0646_u0634_u0637_u0629 u0020 u062a_u062e_u0635 u0020 u0627_u0644_u0625_u062d_u0635_u0627_u0621 u0020 u0627_u0644_u0633_u064a_u0627_u062d_u064a_u0020", 
        "u0628_u0627_u0644_u062a_u0639_u0627_u0648_u0646 u0020 u0645_u0639 u0020 u0627_u0644_u0623_u0645_u0627_u0646_u0629 u0020 u0627_u0644_u0641_u0646_u064a_u0629 u0020 u0644_u0644_u0645_u062c_u0644_u0633 u0020 u0627_u0644_u0648_u0632_u0627_u0631_u064a u0020 u0627_u0644_u0633_u064a_u0627_u062d_u064a u0020 u0627_u0644_u0639_u0631_u0628_u064a_u0020", 
        "u0648_u0645_u0646_u0638_u0645_u0629 u0020 u0627_u0644_u0633_u064a_u0627_u062d_u0629 u0020 u0627_u0644_u0639_u0627_u0644_u0645_u064a_u0629 u0020 u0648_u0645_u0646_u0638_u0645_u0629 u0020 u0627_u0644_u0633_u064a_u0627_u062d_u0629 u0020 u0627_u0644_u0639_u0631_u0628_u064a_u0629_u060c u0020 u0648_u0641_u064a_u0020", 
        "u0627_u062c_u062a_u0645_u0627_u0639 u0020 u0627_u0644_u0644_u062c_u0646_u0629 u0020 u0627_u0644_u0641_u0646_u064a_u0629 u0020 u0627_u0644_u062f_u0627_u0626_u0645_u0629 u0020 u0644_u0644_u0625_u062d_u0635_u0627_u0621 u0020 u0627_u0644_u0630_u064a u0020 u0639_u0642_u062f u0020 u0627_u0644_u0623_u0633_u0628_u0648_u0639_u0020", 
        "u0627_u0644_u0645_u0627_u0636_u064a u0020 u060c u0020 u0648_u0627_u0633_u062a_u062c_u0627_u0628_u0629 u0020 u0644_u0642_u0631_u0627_u0631 u0020 u0627_u0644_u0645_u062c_u0644_u0633 u0020 u0627_u0644_u0648_u0632_u0627_u0631_u064a u0020 u0627_u0644_u0633_u064a_u0627_u062d_u064a u0020 u0627_u0644_u0639_u0631_u0628_u064a_u0020", 
        "u0633_u064a_u062a_u0645 u0020 u0639_u0642_u062f u0020 u0627_u0644_u0645_u0644_u062a_u0642_u064a u0020 u0627_u0644_u0623_u0648_u0644 u0020 u062d_u0648_u0644 u0020 u0627_u0644_u0625_u062d_u0635_u0627_u0621 u0020 u0627_u0644_u0633_u064a_u0627_u062d_u064a u0020 u0648_u0627_u0644_u0630_u064a u0020 u0633_u062a_u0642_u0648_u0645_u0020", 
        "u0645_u0645_u0644_u0643_u0629 u0020 u0627_u0644_u0628_u062d_u0631_u064a_u0646 u0020 u0645_u0634_u0643_u0648_u0631_u0629 u0020 u0628_u0627_u0633_u062a_u0636_u0627_u0641_u062a_u0647 u0020 u002e_u000d"
    ]
}