{
    "bounding_box": [
        [
            546, 
            37, 
            106, 
            24
        ], 
        [
            84, 
            78, 
            577, 
            29
        ], 
        [
            118, 
            112, 
            544, 
            28
        ], 
        [
            88, 
            146, 
            574, 
            26
        ], 
        [
            607, 
            178, 
            55, 
            21
        ], 
        [
            79, 
            213, 
            583, 
            28
        ], 
        [
            264, 
            244, 
            397, 
            27
        ], 
        [
            112, 
            282, 
            549, 
            26
        ], 
        [
            271, 
            312, 
            391, 
            26
        ]
    ], 
    "image_height": 540, 
    "image_width": 720, 
    "transcription": [
        "u0625_u062f_u0631_u0627_u062c u0020 u062f_u0648_u0627_u0644_u0020", 
        "u064a_u0645_u0643_u0646_u0643 u0020 u0625_u062f_u0631_u0627_u062c u0020 u062f_u0648_u0627_u0644 u0020 u0628_u0625_u062d_u062f_u0649 u0020 u0627_u0644_u0637_u0631_u0642 u0020 u0627_u0644_u062b_u0644_u0627_u062b_u0629 u0020 u0627_u0644_u062a_u0627_u0644_u064a_u0629_u002e u0020 u0623_u0648_u0644_u0627_u064b_u060c u0020 u064a_u0645_u0643_u0646_u0643 u0020 u0646_u0642_u0631 u0020 u0623_u064a_u0020", 
        "u0641_u0626_u0629 u0020 u0645_u0646 u0020 u0641_u0626_u0627_u062a u0020 u0627_u0644_u062f_u0648_u0627_u0644 u0020 u0641_u064a u0020 u062a_u0628_u0648_u064a_u0628_u0629 u0020 u0627_u0644_u0635_u064a_u063a_u002e u0020 u0623_u0634_u0631 u0020 u0625_u0644_u0649 u0020 u062f_u0627_u0644_u0629 u0020 u0645_u0639_u064a_u0646_u0629 u0020 u0644_u0631_u0624_u064a_u0629_u0020", 
        "u0627_u0644_u0648_u0633_u064a_u0637 u0020 u0028_u0627_u0644_u0648_u0633_u064a_u0637_u0627_u062a_u0029 u0020 u0627_u0644_u062a_u064a u0020 u062a_u0637_u0644_u0628_u0647_u0627 u0020 u0647_u0630_u0647 u0020 u0627_u0644_u062f_u0627_u0644_u0629 u0020 u0648_u0648_u0635_u0641 u0020 u0645_u062e_u062a_u0635_u0631 u0020 u0639_u0646 u0020 u0645_u0627_u0020", 
        "u062a_u0641_u0639_u0644_u0647_u002e_u000d", 
        "u0623_u0648 u0020 u0623_u0646_u0642_u0631 u0020 u0625_u062f_u0631_u0627_u062c u0020 u062f_u0627_u0644_u0629 u0020 u0623_u0633_u0641_u0644 u0020 u0623_u064a u0020 u0642_u0627_u0626_u0645_u0629 u0020 u0028_u0623_u0648 u0020 u0639_u0644_u0649 u0020 u062a_u0628_u0648_u064a_u0628_u0629 u0020 u0627_u0644_u0635_u064a_u063a_u0029 u0020 u0644_u0644_u0628_u062d_u062b u0020 u0639_u0646_u0020", 
        "u062f_u0627_u0644_u0629 u0020 u0645_u0639_u064a_u0646_u0629 u0020 u0628_u0646_u0627_u0621_u064b u0020 u0639_u0644_u0649 u0020 u0643_u0644_u0645_u0627_u062a u0020 u0645_u0641_u0627_u062a_u064a_u062d_u064a_u0629 u0020 u0648_u002f_u0623_u0648 u0020 u0641_u0626_u0629 u0020 u002e_u000d", 
        "u0623_u062e_u064a_u0631_u0627_u064b_u060c u0020 u064a_u0645_u0643_u0646_u0643 u0020 u0646_u0642_u0631 u0020 u062e_u0644_u064a_u0629 u0020 u0648_u0627_u0644_u0628_u062f_u0621 u0020 u0628_u0637_u0628_u0627_u0639_u0629 u0020 u0627_u0633_u0645 u0020 u0627_u0644_u062f_u0627_u0644_u0629_u002e u0020 u0648_u0633_u062a_u0639_u0645_u0644 u0020 u0627_u0644_u062f_u0648_u0627_u0644_u0020", 
        "u0627_u0644_u0645_u062a_u0637_u0627_u0628_u0642_u0629 u0020 u0639_u0644_u0649 u0020 u0641_u0631_u0632 u0020 u0646_u0641_u0633_u0647_u0627 u0020 u0628_u0646_u0627_u0621_u064b u0020 u0639_u0644_u0649 u0020 u0645_u0627 u0020 u0623_u062f_u062e_u0644_u062a_u0647_u002e_u0020"
    ]
}