{
    "bounding_box": [
        [
            261, 
            33, 
            192, 
            13
        ], 
        [
            90, 
            48, 
            534, 
            17
        ], 
        [
            351, 
            77, 
            16, 
            1
        ], 
        [
            54, 
            90, 
            622, 
            34
        ], 
        [
            302, 
            131, 
            347, 
            33
        ], 
        [
            66, 
            223, 
            583, 
            29
        ], 
        [
            471, 
            263, 
            178, 
            31
        ], 
        [
            296, 
            306, 
            352, 
            34
        ], 
        [
            222, 
            354, 
            427, 
            33
        ], 
        [
            82, 
            403, 
            594, 
            47
        ], 
        [
            71, 
            455, 
            578, 
            47
        ]
    ], 
    "image_height": 540, 
    "image_width": 720, 
    "transcription": [
        "u0627_u0627_u0644_u0639_u062f_u0648_u0627_u0646 u0020 u0627_u0644_u0628_u064a_u0626_u064a u0020 u0627_u0644_u0625_u0633_u0631_u0627_u0626_u064a_u0644_u064a u0020 u0639_u0644_u0649 u0020 u0644_u0628_u0646_u0627_u0646_u000b", 
        "u0645_u0624_u062a_u0645_u0631 u0020 u0627_u0644_u062c_u0646_u0648_u0628 u0020 u0627_u0644_u0623_u0648_u0644_u003a u0020 u201d_u0627_u0644_u0627_u0639_u062a_u062f_u0627_u0621_u0627_u062a u0020 u0648_u0627_u0644_u062d_u0631_u0648_u0628 u0020 u0627_u0644_u0627_u0633_u0631_u0627_u0626_u064a_u0644_u064a_u0629 u0020 u0639_u0644_u0649 u0020 u0644_u0628_u0646_u0627_u0646 u0020 u0648_u0622_u062b_u0627_u0631_u0647_u0627 u0020 u0639_u0644_u0649 u0020 u0628_u0646_u064a_u0629 u0020 u0627_u0644_u0645_u062c_u062a_u0645_u0639 u0020 u0627_u0644_u0644_u0628_u0646_u0627_u0646_u064a_u201c_u000b", 
        "u002d_u002d_u002d", 
        "u0035_u002d u0020 u0627_u0644_u0639_u062f_u0648_u0627_u0646 u0020 u0627_u0644_u0628_u064a_u0626_u064a u0020 u0627_u0644_u0625_u0633_u0631_u0627_u0626_u064a_u0644_u064a u0020 u0639_u0644_u0649 u0020 u0627_u0644_u0623_u0631_u0636 u0020 u0648_u0627_u0644_u0628_u064a_u0626_u0629 u0020 u0627_u0644_u0633_u0643_u0646_u064a_u0629 u0020 u2013_u0020", 
        "u0627_u0644_u062a_u0644_u0648_u064a_u062b u0020 u0627_u0644_u0648_u0627_u0633_u0639 u0020 u0628_u0627_u0644_u0642_u0646_u0627_u0628_u0644 u0020 u0627_u0644_u0639_u0646_u0642_u0648_u062f_u064a_u0629_u000d", 
        "u0642_u0630_u0641 u0020 u0625_u0633_u0631_u0627_u0626_u064a_u0644 u0020 u0644_u0645_u0644_u0627_u064a_u064a_u0646 u0020 u0627_u0644_u0642_u0646_u0627_u0628_u0644 u0020 u0627_u0644_u0639_u0646_u0642_u0648_u062f_u064a_u0629 u0020 u0634_u0643_u0644 u0020 u0642_u0645_u0629 u0020 u0627_u0644_u0639_u062f_u0648_u0627_u0646_u0020", 
        "u0627_u0644_u0628_u064a_u0626_u064a u0020 u0639_u0644_u0649 u0020 u0644_u0628_u0646_u0627_u0646_u000d", 
        "u0627_u0644_u0627_u0645_u062a_u0646_u0627_u0639 u0020 u0639_u0646 u0020 u062a_u0633_u0644_u064a_u0645 u0020 u0627_u0644_u062e_u0631_u0627_u0626_u0637 u0020 u0643_u0627_u0645_u0644_u0629 u0020 u000d", 
        "u062c_u0633_u062f_u062a u0020 u0627_u0644_u0647_u062f_u0641 u0020 u0627_u0644_u0627_u0633_u062a_u0631_u0627_u062a_u064a_u062c_u064a u0020 u0644_u0647_u0630_u0627 u0020 u0627_u0644_u0639_u062f_u0648_u0627_u0646_u003a_u000d", 
        "u0625_u0641_u0631_u0627_u063a u0020 u0627_u0644_u062c_u0646_u0648_u0628 u0020 u0645_u0646 u0020 u0623_u0647_u0644_u0647 u0020 u0648_u0645_u0646_u0639_u0647_u0645 u0020 u0645_u0646 u0020 u0627_u0644_u0639_u0648_u062f_u0629_u0020", 
        "u0625_u0644_u064a_u0647 u0020 u0648_u0645_u0645_u0627_u0631_u0633_u0629 u0020 u062d_u064a_u0627_u062a_u0647_u0645 u0020 u0627_u0644_u0639_u0627_u062f_u064a_u0629 u0020 u0639_u0644_u0649 u0020 u0623_u0631_u0636_u0647_u000d"
    ]
}