{
    "bounding_box": [
        [
            664, 
            518, 
            12, 
            1
        ], 
        [
            50, 
            23, 
            644, 
            43
        ], 
        [
            520, 
            140, 
            187, 
            38
        ], 
        [
            166, 
            226, 
            524, 
            42
        ], 
        [
            415, 
            282, 
            274, 
            26
        ], 
        [
            67, 
            327, 
            622, 
            35
        ]
    ], 
    "image_height": 540, 
    "image_width": 720, 
    "transcription": [
        "u0032_u0032", 
        "u0020 u0020 u0645_u062b_u0627_u0644 u0020 u0034_u002d u0020 u0627_u0644_u0646_u0633_u0628_u0629 u0020 u0627_u0644_u0645_u0626_u0648_u064a_u0629 u0020 u0020_u0644_u0643_u062a_u0644_u0629 u0020 u0627_u0644_u0645_u0627_u0621 u0020 u0641_u064a u0020 u0627_u0644_u0647_u064a_u062f_u0631_u0627_u062a", 
        "u062a_u0637_u0628_u064a_u0642 u0020 u0635 u0020 u0035_u0033", 
        "u0031_u002d u0020 u0627_u062d_u0633_u0628 u0020 u0627_u0644_u0646_u0633_u0628_u0629 u0020 u0627_u0644_u0645_u0626_u0648_u064a_u0629 u0020 u0644_u0643_u062a_u0644_u0629 u0020 u0627_u0644_u0645_u0627_u0621 u0020 u0641_u064a_u0020", 
        "u005a_u006e_u0053_u004f_u0034_u002e_u0037_u0048_u0032_u004f u0020 u0020 u0020 u0020 u0020 u000d", 
        "u0028 u0020 u005a_u006e u0020 u003d u0020 u0036_u0035 u0020 u0020_u002c u0020 u0053_u003d_u0033_u0032 u0020 u0020_u002c u0020 u004f_u003d u0020 u0031_u0036 u0020 u0020_u002c u0020 u0048 u0020 u003d u0020 u0031 u0020 u0029"
    ]
}