{
    "bounding_box": [
        [
            107, 
            76, 
            490, 
            45
        ], 
        [
            367, 
            177, 
            286, 
            23
        ], 
        [
            225, 
            209, 
            453, 
            37
        ], 
        [
            204, 
            247, 
            474, 
            37
        ], 
        [
            677, 
            520, 
            6, 
            9
        ]
    ], 
    "image_height": 540, 
    "image_width": 720, 
    "transcription": [
        "u0627_u0644_u0641_u0635_u0644 u0020 u0627_u0644_u062b_u0627_u0646_u064a_u003a u0020 u0627_u0644_u0639_u0644_u0645_u0627_u0621 u0020 u0648_u0627_u0644_u0634_u063a_u0644 u0020 u0648_u0627_u0644_u0637_u0627_u0642_u0629_u000d", 
        "u0020_u0627_u0644_u0641_u064a_u0632_u064a_u0627_u0621 u0020 u0648_u0627_u0644_u0639_u0644_u0645_u0627_u0621 u0020 u0627_u0644_u0645_u0633_u0644_u0645_u0648_u0646_u002e_u000d", 
        "u2022 u0020 u0639_u0644_u0645_u0627_u0621 u0020 u0627_u0644_u0641_u064a_u0632_u064a_u0627_u0621 u0020 u0627_u0644_u0645_u0633_u0644_u0645_u0648_u0646 u0020 u0641_u064a u0020 u0627_u0644_u0639_u0635_u0631 u0020 u0627_u0644_u0642_u062f_u064a_u0645_u002e_u000d", 
        "u2022 u0020 u0639_u0644_u0645_u0627_u0621 u0020 u0627_u0644_u0641_u064a_u0632_u064a_u0627_u0621 u0020 u0627_u0644_u0645_u0633_u0644_u0645_u0648_u0646 u0020 u0641_u064a u0020 u0627_u0644_u0639_u0635_u0631 u0020 u0627_u0644_u062d_u062f_u064a_u062b_u002e_u000d", 
        "u0031"
    ]
}