{
    "bounding_box": [
        [
            218, 
            49, 
            283, 
            42
        ], 
        [
            495, 
            132, 
            140, 
            28
        ], 
        [
            490, 
            175, 
            145, 
            25
        ], 
        [
            476, 
            214, 
            160, 
            26
        ]
    ], 
    "image_height": 540, 
    "image_width": 720, 
    "transcription": [
        "u0645_u0641_u0647_u0648_u0645 u0020 u0020_u0627_u0644_u0642_u064a_u0627_u062f_u0629_u0020", 
        "u0645_u0646 u0020 u062d_u064a_u062b u0020 u0627_u0644_u062a_u0623_u062b_u064a_u0631_u000d", 
        "u0645_u0646 u0020 u062d_u064a_u062b u0020 u0627_u0644_u0642_u062f_u0631_u0629 u0020 u000d", 
        "u0645_u0646 u0020 u062d_u064a_u062b u0020 u0627_u0644_u0648_u0638_u064a_u0641_u0629 u0020 u0020"
    ]
}