{
    "bounding_box": [
        [
            199, 
            49, 
            305, 
            34
        ], 
        [
            263, 
            134, 
            162, 
            23
        ], 
        [
            257, 
            211, 
            155, 
            20
        ], 
        [
            228, 
            289, 
            212, 
            22
        ], 
        [
            228, 
            372, 
            234, 
            25
        ], 
        [
            140, 
            443, 
            364, 
            25
        ]
    ], 
    "image_height": 540, 
    "image_width": 720, 
    "transcription": [
        "u0641_u0646 u0020 u062f_u0631_u0627_u0633_u0629 u0020 u0645_u0639_u062c_u0632_u0627_u062a u0020 u0631_u0628_u0646_u0627 u0020 u064a_u0633_u0648_u0639", 
        "u0627_u0648_u0644_u0627 u0020 u003a u0020 u0645_u0641_u0647_u0648_u0645 u0020 u0627_u0644_u0645_u0639_u062c_u0632_u0629", 
        "u062b_u0627_u0646_u064a_u0627 u0020 u003a u0020 u0647_u062f_u0641 u0020 u0627_u0644_u0645_u0639_u062c_u0632_u0629", 
        "u062b_u0627_u0644_u062b_u0627_u003a u0020 u0634_u0631_u0648_u0637 u0020 u062d_u062f_u0648_u062b u0020 u0627_u0644_u0645_u0639_u062c_u0632_u0629", 
        "u0631_u0627_u0628_u0639_u0627 u0020 u003a u0020 u062e_u0637_u0648_u0627_u062a u0020 u062f_u0631_u0627_u0633_u0629 u0020 u0627_u0644_u0645_u0639_u062c_u0632_u0629", 
        "u062e_u0627_u0645_u0633_u0627 u0020 u003a u0020 u0646_u0645_u0648_u0630_u062c u0020 u0644_u062f_u0631_u0627_u0633_u0629 u0020 u0627_u062d_u062f u0020 u0645_u0639_u062c_u0632_u0627_u062a u0020 u0631_u0628_u0646_u0627 u0020 u064a_u0633_u0648_u0639"
    ]
}