{
    "bounding_box": [
        [
            195, 
            54, 
            301, 
            35
        ], 
        [
            134, 
            112, 
            432, 
            27
        ], 
        [
            289, 
            144, 
            121, 
            29
        ], 
        [
            47, 
            175, 
            592, 
            32
        ], 
        [
            224, 
            213, 
            415, 
            27
        ], 
        [
            296, 
            245, 
            106, 
            29
        ], 
        [
            67, 
            276, 
            573, 
            32
        ], 
        [
            280, 
            313, 
            360, 
            28
        ]
    ], 
    "image_height": 540, 
    "image_width": 960, 
    "transcription": [
        "u0648_u0627_u062d_u0627_u062a u0020 u0645_u0646_u062e_u0641_u0636 u0020 u0627_u0644_u0642_u0637_u0627_u0631_u0647", 
        "u064a_u062f_u062e_u0644 u0020 u0641_u0649 u0020 u062d_u062f_u0648_u062f u0020 u0627_u0644_u0645_u0646_u062e_u0641_u0636 u0020 u0648_u0627_u062d_u062a_u0627_u0646 u0020 u0635_u063a_u0631_u062a_u064a_u0646 u0020 u0647_u0645_u0627_u003a_u000d", 
        "u0648_u0627_u062d_u0629 u0020 u0645_u063a_u0631_u0647_u003a u0020 u000d", 
        "u062a_u0642_u0639 u0020 u0639_u0646_u062f u0020 u0627_u0644_u0646_u0647_u0627_u064a_u0629 u0020 u0627_u0644_u0634_u0631_u0642_u064a_u0629 u0020 u0644_u0644_u0645_u0646_u062e_u0641_u0636 u0020 u0639_u0644_u0649 u0020 u0628_u0639_u062f u0020 u0032_u0030_u0035 u0020 u0643_u0645 u0020 u0645_u0646 u0020 u0627_u0644_u0642_u0627_u0647_u0631_u0629_u060c_u0020", 
        "u0648_u062a_u0628_u0639_u062f u0020 u0639_u0646 u0020 u0633_u0627_u062d_u0644 u0020 u0627_u0644_u0628_u062d_u0631 u0020 u0627_u0644_u0645_u062a_u0648_u0633_u0637 u0020 u0628_u0646_u062d_u0648 u0020 u0035_u0036 u0020 u0643_u0645_u002e_u000d", 
        "u0648_u0627_u062d_u0629 u0020 u0642_u0627_u0631_u0647_u003a_u000d", 
        "u062a_u0642_u0639 u0020 u0639_u0646_u062f u0020 u0627_u0644_u0646_u0647_u0627_u064a_u0629 u0020 u0627_u0644_u063a_u0631_u0628_u064a_u0629 u0020 u0644_u0645_u0646_u062e_u0641_u0636 u0020 u0627_u0644_u0642_u0637_u0627_u0631_u0647 u0020 u0648_u062a_u0628_u0639_u062f u0020 u0639_u0646 u0020 u0623_u0642_u0631_u0628 u0020 u0645_u0631_u0643_u0632_u0020", 
        "u0639_u0645_u0631_u0627_u0646_u0649 u0020 u0641_u0649 u0020 u0645_u0646_u062e_u0641_u0636 u0020 u0633_u064a_u0648_u0647 u0020 u0628_u0646_u062d_u0648 u0020 u0038_u0030 u0020 u0643_u0645_u002e"
    ]
}