{
    "bounding_box": [
        [
            64, 
            94, 
            591, 
            50
        ], 
        [
            33, 
            171, 
            621, 
            38
        ], 
        [
            33, 
            213, 
            621, 
            35
        ], 
        [
            33, 
            256, 
            621, 
            39
        ], 
        [
            33, 
            300, 
            621, 
            38
        ], 
        [
            33, 
            343, 
            621, 
            34
        ], 
        [
            301, 
            391, 
            353, 
            34
        ], 
        [
            33, 
            439, 
            621, 
            37
        ], 
        [
            33, 
            482, 
            621, 
            38
        ], 
        [
            511, 
            525, 
            143, 
            38
        ]
    ], 
    "image_height": 540, 
    "image_width": 720, 
    "transcription": [
        "u0628_u0631_u0627_u0645_u062c u0020 u0627_u0644_u0639_u0644_u0627_u0642_u0627_u062a u0020 u0627_u0644_u0639_u0627_u0645_u0629 u0020 u0648_u0648_u0633_u0627_u0626_u0644 u0020 u0627_u0644_u0627_u062a_u0635_u0627_u0644", 
        "u0648_u0633_u0627_u0626_u0644 u0020 u0627_u0644_u0625_u0639_u0644_u0627_u0645 u0020 u0647_u064a u0020 u0645_u0646 u0020 u0623_u0647_u0645 u0020 u0648_u0633_u0627_u0626_u0644 u0020 u0627_u0644_u0627_u062a_u0635_u0627_u0644 u0020 u0627_u0644_u062a_u064a_u0020", 
        "u064a_u0633_u062a_u062e_u062f_u0645_u0647_u0627 u0020 u0648_u064a_u062a_u0639_u0627_u0645_u0644 u0020 u0645_u0639_u0647_u0627 u0020 u0645_u0645_u0627_u0631_u0633 u0020 u0627_u0644_u0639_u0644_u0627_u0642_u0627_u062a u0020 u0627_u0644_u0639_u0627_u0645_u0629_u0020", 
        "u0648_u062e_u0627_u0635_u0629 u0020 u0651_u0625_u0630_u0627 u0020 u0643_u0627_u0646_u0648_u0627 u0020 u064a_u0631_u063a_u0628_u0648_u0646 u0020 u0641_u064a u0020 u0627_u0644_u0648_u0635_u0648_u0644 u0020 u0625_u0644_u0649 u0020 u0627_u0644_u062c_u0645_u0627_u0647_u064a_u0631_u0020", 
        "u0627_u0644_u0643_u0628_u064a_u0631_u0629 u0020 u0644_u0630_u0649 u0020 u064a_u0644_u0632_u0645 u0020 u0623_u062e_u0635_u0627_u0626_u064a_u0648 u0020 u0627_u0644_u0639_u0644_u0627_u0642_u0627_u062a u0020 u0627_u0644_u0639_u0627_u0645_u0629 u0020 u0641_u0647_u0645_u0020", 
        "u0648_u0645_u0639_u0631_u0641_u0629 u0020 u062e_u0635_u0627_u0626_u0635 u0020 u0648_u0648_u0638_u0627_u0626_u0641 u0020 u0643_u0644 u0020 u0648_u0633_u064a_u0644_u0629 u0020 u0645_u0646 u0020 u0648_u0633_u0627_u0626_u0644_u0020", 
        "u0627_u0644_u0627_u062a_u0635_u0627_u0644 u0020 u0627_u0644_u062c_u0645_u0627_u0647_u064a_u0631_u064a u0020 u0639_u0644_u0649 u0020 u062d_u062f_u0629_u002e_u000d", 
        "u062a_u0633_u062a_u062e_u062f_u0645 u0020 u0627_u0644_u0639_u0644_u0627_u0642_u0627_u062a u0020 u0627_u0644_u0639_u0627_u0645_u0629 u0020 u0623_u064a_u0636_u0627 u0020 u0643_u0644 u0020 u0627_u0644_u0623_u062f_u0648_u0627_u062a u0020 u0648_u0627_u0644_u0648_u0633_u0627_u0626_u0644_u0020", 
        "u0627_u0644_u062a_u064a u0020 u062a_u062c_u062f_u0647_u0627 u0020 u0645_u0644_u0627_u0626_u0645_u0629 u0020 u0644_u0623_u0646_u0634_u0637_u062a_u0647_u0627 u0020 u0648_u062a_u0643_u0648_u0646 u0020 u0645_u062a_u0648_u0641_u0631_u0629 u0020 u0648_u0645_u062a_u062f_u0627_u0648_u0644_u0629_u0020", 
        "u0641_u064a u0020 u0627_u0644_u0645_u062c_u062a_u0645_u0639_u002e"
    ]
}