{
    "bounding_box": [
        [
            157, 
            85, 
            633, 
            42
        ], 
        [
            357, 
            140, 
            244, 
            40
        ], 
        [
            669, 
            206, 
            159, 
            12
        ], 
        [
            624, 
            232, 
            226, 
            19
        ], 
        [
            372, 
            259, 
            477, 
            20
        ], 
        [
            589, 
            288, 
            261, 
            19
        ], 
        [
            381, 
            318, 
            468, 
            20
        ], 
        [
            631, 
            347, 
            219, 
            20
        ], 
        [
            445, 
            376, 
            404, 
            20
        ], 
        [
            515, 
            403, 
            335, 
            20
        ], 
        [
            448, 
            432, 
            401, 
            20
        ]
    ], 
    "image_height": 540, 
    "image_width": 960, 
    "transcription": [
        "u0627_u0644_u0639_u0646_u0627_u0635_u0631 u0020 u0627_u0644_u0628_u0646_u0627_u0626_u064a_u0629 u0020 u0644_u0644_u063a_u0629 u0020 u0643_u0646_u0638_u0627_u0645 u0020 u0627_u062c_u062a_u0645_u0627_u0639_u064a_u0028_u062a_u0635_u0646_u064a_u0641_u0020", 
        "u0633_u062a_u064a_u0648_u0627_u0631_u062a u0020 u0634_u0627_u064a_u0646_u0029_u002e_u002e", 
        "u0648_u0638_u0627_u0626_u0641 u0020 u0627_u0644_u0644_u063a_u0629 u0020 u0628_u0634_u0643_u0644 u0020 u0639_u0627_u0645_u002e_u002e_u003a_u000d", 
        "u002d_u062a_u062d_u0642_u0642 u0020 u0644_u0644_u0623_u0641_u0643_u0627_u0631 u0020 u0648_u0627_u0644_u0645_u0639_u0627_u0631_u0641 u0020 u0643_u064a_u0627_u0646_u0627 u0020 u0645_u0645_u064a_u0632_u0627_u002e_u000d", 
        "u002d_u062a_u0641_u062a_u062d u0020 u0623_u0645_u0627_u0645 u0020 u0627_u0644_u0625_u0646_u0633_u0627_u0646 u0020 u0635_u0641_u062d_u0629 u0020 u0623_u0641_u0643_u0627_u0631_u0647 u0020 u0641_u064a_u0633_u062a_u0631_u064a_u062d u0020 u0644_u0623_u0646_u0647 u0020 u0623_u0637_u0644_u0642 u0020 u0645_u0643_u062a_u0648_u0628_u0627 u0020 u064a_u0637_u0644_u0628 u0020 u0627_u0644_u0625_u0641_u0631_u0627_u062c u0020 u0639_u0646_u0647_u002e_u000d", 
        "u002d_u062a_u0648_u0642_u0641 u0020 u0627_u0644_u0625_u0646_u0633_u0627_u0646 u0020 u0639_u0644_u0649 u0020 u0623_u0641_u0643_u0627_u0631 u0020 u063a_u064a_u0631_u0647 u0020 u0645_u0646 u0020 u0627_u0644_u0646_u0627_u0633_u002e_u000d", 
        "u002d_u062a_u062e_u0631_u062c u0020 u0627_u0644_u0641_u0643_u0631_u0647 u0020 u0645_u0646 u0020 u0630_u0647_u0646 u0020 u0635_u0627_u062d_u0628_u0647_u0627 u0020 u0641_u062a_u062a_u0631_u062c_u0645_u0647_u0627 u0020 u0625_u0644_u0649 u0020 u0635_u0648_u0631_u0629 u0020 u0628_u0627_u0631_u0632_u0647 u0020 u0630_u0627_u062a u0020 u0643_u064a_u0627_u0646 u0020 u0648 u0020 u0645_u0639_u0627_u0644_u0645_u002e_u000d", 
        "u002d_u062a_u0631_u062a_u0642_u064a u0020 u0628_u0627_u0644_u0642_u062f_u0631_u0629 u0020 u0627_u0644_u0639_u0642_u0644_u064a_u0629 u0020 u0644_u062f_u0649 u0020 u0627_u0644_u0625_u0646_u0633_u0627_u0646_u002e_u000d", 
        "u002d_u0628_u0647_u0627 u0020 u062a_u064f_u0635_u0648_u0631 u0020 u0627_u0644_u0623_u0641_u0643_u0627_u0631 u0020 u062a_u0635_u0648_u064a_u0631_u0627 u0020 u0645_u0628_u062f_u0639_u0627 u0020 u0648 u0020 u062a_u0648_u0636_u062d u0020 u0627_u0644_u0645_u0639_u0627_u0646_u064a u0020 u0641_u064a u0020 u0642_u0648_u0627_u0644_u0628 u0020 u0641_u0646_u064a_u0629_u002e_u000d", 
        "u002d_u064a_u0639_u062a_u062f u0020 u0639_u0644_u064a_u0647_u0627 u0020 u0627_u0644_u0645_u062c_u062a_u0645_u0639 u0020 u0641_u064a u0020 u062a_u062d_u0642_u064a_u0642 u0020 u0623_u0647_u062f_u0627_u0641_u0647 u0020 u0648 u0020 u0625_u0646_u062c_u0627_u062d u0020 u0645_u0631_u0627_u0645_u064a_u0647_u002e_u000d", 
        "u002d_u062a_u0642_u0636_u064a u0020 u062d_u0627_u062c_u0629 u0020 u0627_u0644_u0645_u062c_u062a_u0645_u0639 u0020 u0627_u0644_u0645_u062a_u0637_u0648_u0631 u0020 u0648_u0627_u0644_u062b_u0642_u0627_u0641_u0627_u062a u0020 u0627_u0644_u0639_u0631_u064a_u0636_u0647 u0020 u0648_u0627_u0646_u062a_u0634_u0627_u0631 u0020 u0627_u0644_u062a_u0639_u0644_u064a_u0645_u002e"
    ]
}