{
    "bounding_box": [
        [
            125, 
            32, 
            463, 
            42
        ], 
        [
            169, 
            114, 
            479, 
            20
        ], 
        [
            323, 
            156, 
            326, 
            17
        ], 
        [
            37, 
            194, 
            612, 
            20
        ], 
        [
            386, 
            217, 
            263, 
            22
        ], 
        [
            570, 
            12, 
            117, 
            22
        ]
    ], 
    "image_height": 540, 
    "image_width": 720, 
    "transcription": [
        "u0633_u0648_u0627_u0642_u064a u0020 u0633_u0648_u0628_u0627 u0020 u0034_u0034_u060c u0020 u0034_u002f_u0034_u0033_u060c_u0033_u002f_u0034_u0033 u0020 u060c u0020 u0020_u0034_u0038", 
        "u064a_u0642_u0639 u0020 u0627_u0644_u0645_u0634_u0631_u0648_u0639 u0020 u0641_u064a u0020 u0645_u0646_u0637_u0642_u0629 u0020 u0633_u0648_u0628_u0627 u0020 u0641_u064a u0020 u0645_u0633_u0627_u062d_u0629 u0020 u062e_u0627_u0644_u064a_u0629 u0020 u062a_u0642_u062f_u0631 u0020 u0646_u062d_u0648 u0020 u0032_u0031 u0020 u0623_u0644_u0641 u0020 u0645_u062a_u0631_u00b2_u002e_u000d", 
        "u064a_u0642_u062a_u0631_u062d u0020 u0627_u0633_u062a_u062e_u062f_u0627_u0645 u0020 u0627_u0644_u0645_u0634_u0631_u0648_u0639 u0020 u0643_u0627_u0633_u062a_u062b_u0645_u0627_u0631 u0020 u0635_u0646_u0627_u0639_u064a u0020 u062e_u062f_u0645_u064a_u002e_u000d", 
        "u064a_u0645_u0643_u0646 u0020 u062a_u0646_u0641_u064a_u0630 u0020 u0627_u0644_u0645_u0634_u0631_u0648_u0639 u0020 u0639_u0644_u064a u0020 u0645_u0631_u0627_u062d_u0644 u0020 u0628_u0627_u0644_u062a_u0645_u0648_u064a_u0644 u0020 u0627_u0644_u0645_u0628_u0627_u0634_u0631 u0020 u0623_u0648 u0020 u0639_u0644_u064a u0020 u0646_u0638_u0627_u0645 u0020 u0627_u0644_u0628_u0648_u062a u0020 u0623_u0648 u0020 u0627_u0644_u0634_u0631_u0627_u0643_u0629 u0020 u0623_u0648 u0020 u0623_u064a u0020 u0635_u064a_u063a_u0629_u0020", 
        "u062a_u0645_u0648_u064a_u0644_u064a_u0629 u0020 u0623_u062e_u0631_u064a u0020 u064a_u062a_u0641_u0642 u0020 u0639_u0644_u064a_u0647_u0627 u0020 u0645_u0639 u0020 u0627_u0644_u062c_u0627_u0645_u0639_u0629_u002e u0020 u0020_u000d", 
        "u0645_u0634_u0631_u0648_u0639 u0020 u0631_u0642_u0645 u0020 u0028_u0031_u0035_u0029"
    ]
}