{
    "bounding_box": [
        [
            15, 
            25, 
            666, 
            35
        ], 
        [
            15, 
            66, 
            679, 
            41
        ], 
        [
            15, 
            112, 
            679, 
            39
        ], 
        [
            15, 
            156, 
            679, 
            34
        ], 
        [
            15, 
            199, 
            679, 
            38
        ], 
        [
            15, 
            241, 
            679, 
            39
        ], 
        [
            15, 
            284, 
            679, 
            39
        ], 
        [
            15, 
            328, 
            679, 
            39
        ], 
        [
            15, 
            371, 
            679, 
            39
        ], 
        [
            15, 
            414, 
            679, 
            39
        ], 
        [
            15, 
            457, 
            679, 
            39
        ], 
        [
            92, 
            499, 
            602, 
            39
        ]
    ], 
    "image_height": 540, 
    "image_width": 720, 
    "transcription": [
        "u0634_u0627_u0621 u0020 u0627_u0644_u0644_u0647 u0020 u0633_u0628_u062d_u0627_u0646_u0647 u0020 u0623_u0646 u0020 u064a_u0645_u062a_u062d_u0646 u0020 u0623_u064a_u0648_u0628 u0020 u0648_u0623_u0646 u0020 u064a_u0628_u064a_u0646 u0020 u0644_u0644_u0646_u0627_u0633 u0020 u0623_u0646_u0020", 
        "u0623_u064a_u0648_u0628 u0020 u0631_u062c_u0644_u0627_u064b u0020 u0635_u0627_u0628_u0631_u064b_u0627 u0020 u0645_u062d_u062a_u0633_u0628_u064b_u0627 u0020 u0648_u0644_u0627 u0020 u064a_u0639_u0628_u062f_u0647 u0020 u0644_u0623_u0646_u0647 u0020 u0641_u064a u0020 u063a_u0646_u0649 u0020 u0648_u0639_u0627_u0641_u064a_u0629_u002e_u0020", 
        "u0648_u0641_u064a u0020 u0627_u0644_u064a_u0648_u0645 u0020 u0627_u0644_u062a_u0627_u0644_u064a u0020 u0646_u0632_u0644_u062a u0020 u0627_u0644_u0635_u0648_u0627_u0639_u0642 u0020 u0645_u0646 u0020 u0627_u0644_u0633_u0645_u0627_u0621 u0020 u0639_u0644_u0649 u0020 u0623_u062d_u062f_u0020", 
        "u062d_u0642_u0648_u0644 u0020 u0623_u064a_u0648_u0628_u060c u0020 u0648_u062c_u0627_u0621 u0020 u0623_u062d_u062f u0020 u0627_u0644_u0641_u0644_u0627_u062d_u064a_u0646 u0020 u0648_u0643_u0627_u0646_u062a u0020 u062b_u064a_u0627_u0628_u0647 u0020 u0645_u062d_u062a_u0631_u0642_u0629_u0020", 
        "u0648_u062d_u0627_u0644_u0647 u0020 u064a_u064f_u0631_u062b_u0649 u0020 u0644_u0647_u0627_u060c u0020 u0642_u0627_u0644 u0020 u0623_u064a_u0648_u0628_u003a u0020 u0645_u0627_u0630_u0627 u0020 u062d_u0635_u0644_u061f u0020 u0627_u0644_u0646_u0627_u0631_u0021 u0020 u064a_u0627 u0020 u0646_u0628_u064a u0020 u0627_u0644_u0644_u0647_u0020", 
        "u0627_u0644_u0646_u0627_u0631_u0021 u0020 u0627_u062d_u062a_u0631_u0642 u0020 u0643_u0644 u0020 u0634_u064a_u0621_u060c u0020 u0644_u0642_u062f u0020 u0646_u0632_u0644 u0020 u0627_u0644_u0628_u0644_u0627_u0621 u0020 u0627_u0644_u0635_u0648_u0627_u0639_u0642 u0020 u0623_u062d_u0631_u0642_u062a_u0020", 
        "u0627_u0644_u062d_u0642_u0648_u0644 u0020 u0648_u0627_u0644_u0645_u0632_u0627_u0631_u0639_u060c u0020 u0623_u0635_u0628_u062d_u062a u0020 u0623_u0631_u0636_u0646_u0627 u0020 u0631_u0645_u0627_u062f_u064b_u0627 u0020 u064a_u0627 u0020 u0646_u0628_u064a u0020 u0627_u0644_u0644_u0647_u060c u0020 u0643_u0644_u0020", 
        "u0631_u0641_u0627_u0642_u064a u0020 u0645_u0627_u062a_u0648_u0627 u0020 u0627_u062d_u062a_u0631_u0642_u0648_u0627_u060c u0020 u0642_u0627_u0644_u062a u0020 u0632_u0648_u062c_u0629 u0020 u0623_u064a_u0648_u0628_u003a u0020 u0645_u0627 u0020 u0647_u0630_u0647 u0020 u0627_u0644_u0645_u0635_u0627_u0626_u0628_u0020", 
        "u0627_u0644_u0645_u062a_u062a_u0627_u0644_u064a_u0629_u061f u0020 u0627_u0635_u0628_u0631_u064a u0020 u064a_u0627 u0020 u0627_u0645_u0631_u0623_u0629_u060c u0020 u0647_u0630_u0647 u0020 u0645_u0634_u064a_u0626_u0629 u0020 u0627_u0644_u0644_u0647_u0021 u0020 u0645_u0627 u0020 u0645_u0646 u0020 u0646_u0628_u064a u0020 u0625_u0644_u0627_u0651_u0020", 
        "u0648_u0627_u0645_u062a_u062d_u0646 u0020 u0627_u0644_u0644_u0647 u0020 u0642_u0644_u0628_u0647 u0020 u0646_u0638_u0631 u0020 u0623_u064a_u0648_u0628 u0020 u0625_u0644_u0649 u0020 u0627_u0644_u0633_u0645_u0627_u0621 u0020 u0648_u0642_u0627_u0644_u003a u0020 u0627_u0644_u0647_u064a u0020 u0627_u0645_u0646_u062d_u0646_u064a_u0020", 
        "u0627_u0644_u0635_u0628_u0631_u060c u0020 u0641_u064a u0020 u0630_u0644_u0643 u0020 u0627_u0644_u064a_u0648_u0645 u0020 u0623_u0645_u0631 u0020 u0623_u064a_u0648_u0628 u0020 u0627_u0644_u062e_u062f_u0645 u0020 u0648_u0627_u0644_u0639_u0628_u064a_u062f u0020 u0628_u0645_u063a_u0627_u062f_u0631_u0629_u0020", 
        "u0645_u0646_u0632_u0644_u0647_u060c u0020 u0648_u0627_u0644_u0631_u062c_u0648_u0639 u0020 u0625_u0644_u0649 u0020 u0623_u0647_u0627_u0644_u064a_u0647_u0645 u0020 u0648_u0627_u0644_u0628_u062d_u062b u0020 u0639_u0646 u0020 u0639_u0645_u0644 u0020 u0622_u062e_u0631_u002e_u0020"
    ]
}