{
    "bounding_box": [
        [
            175, 
            20, 
            393, 
            50
        ], 
        [
            53, 
            159, 
            412, 
            38
        ], 
        [
            71, 
            200, 
            394, 
            40
        ], 
        [
            60, 
            246, 
            405, 
            37
        ], 
        [
            102, 
            289, 
            363, 
            38
        ], 
        [
            86, 
            331, 
            379, 
            39
        ], 
        [
            103, 
            378, 
            362, 
            35
        ], 
        [
            462, 
            424, 
            3, 
            2
        ]
    ], 
    "image_height": 540, 
    "image_width": 720, 
    "transcription": [
        "u062a_u0639_u062f_u064a_u0644 u0020 u0625_u0639_u062f_u0627_u062f_u0627_u062a u0020 u0627_u0644_u0645_u0631_u0627_u0642_u0628_u0629", 
        "u062a_u0633_u062a_u0637_u064a_u0639 u0020 u0641_u064a u0020 u0623_u064a u0020 u0648_u0642_u062a u0020 u062a_u0639_u062f_u064a_u0644 u0020 u0625_u0639_u062f_u0627_u062f_u0627_u062a_u0020", 
        "u0628_u0631_u0646_u0627_u0645_u062c u0020 u0627_u0644_u0645_u0631_u0627_u0642_u0628_u0629 u0020 u0639_u0644_u0649 u0020 u0627_u0644_u062c_u0647_u0627_u0632 u0020 u0627_u0644_u0630_u064a_u0020", 
        "u062a_u062a_u0645 u0020 u0645_u0631_u0627_u0642_u0628_u062a_u0647 u0020 u0639_u0646 u0020 u0637_u0631_u064a_u0642 u0020 u0627_u0644_u0636_u063a_u0637 u0020 u0639_u0644_u0649_u0020", 
        "u062a_u062a_u0627_u0628_u0639 u0020 u062e_u0627_u0635 u0020 u0645_u0646 u0020 u0627_u0644_u0623_u0632_u0631_u0627_u0631 u0020 u0644_u062a_u0634_u063a_u064a_u0644_u0020", 
        "u0648_u0627_u062c_u0647_u0629 u0020 u0627_u0644_u0628_u0631_u0646_u0627_u0645_u062c u0020 u0028_u0644_u0627 u0020 u062a_u0638_u0647_u0631 u0020 u0623_u064a_u0642_u0648_u0646_u0629_u0020", 
        "u0644_u062a_u0634_u063a_u064a_u0644 u0020 u0627_u0644_u0628_u0631_u0646_u0627_u0645_u062c u0020 u0639_u0644_u0649 u0020 u0627_u0644_u0647_u0627_u062a_u0641_u0029_u002e_u000d", 
        "u002e"
    ]
}