{
    "bounding_box": [
        [
            233, 
            90, 
            450, 
            47
        ], 
        [
            88, 
            159, 
            567, 
            26
        ], 
        [
            445, 
            193, 
            209, 
            25
        ], 
        [
            70, 
            229, 
            585, 
            26
        ], 
        [
            258, 
            264, 
            396, 
            28
        ], 
        [
            434, 
            302, 
            220, 
            28
        ], 
        [
            517, 
            340, 
            137, 
            27
        ], 
        [
            246, 
            369, 
            408, 
            34
        ]
    ], 
    "image_height": 540, 
    "image_width": 720, 
    "transcription": [
        "u0645_u0639_u0644_u0648_u0645_u0627_u062a u0020 u0627_u0642_u062a_u0635_u0627_u062f_u064a_u0629 u0020 u0648_u0633_u064a_u0627_u0633_u064a_u0629", 
        "u0627_u0644_u0644_u063a_u0629_u003a u0020 u0627_u0644_u0644_u063a_u062a_u0627_u0646 u0020 u0627_u0644_u0631_u0633_u0645_u064a_u062a_u0627_u0646 u0020 u0647_u0645_u0627 u0020 u0627_u0644_u0627_u064a_u0631_u0644_u0646_u062f_u064a_u0629 u0020 u0648_u0627_u0644_u0625_u0646_u062c_u0644_u064a_u0632_u064a_u0629_u060c u0020 u062a_u0639_u062f u0020 u0627_u0644_u0623_u062e_u064a_u0631_u0629 u0020 u0627_u0644_u0644_u063a_u0629_u0020", 
        "u0627_u0644_u0631_u0633_u0645_u064a_u0629 u0020 u0627_u0644_u062b_u0627_u0646_u064a_u0629 u0020 u0641_u064a u0020 u0627_u0644_u0628_u0644_u0627_u062f_u002e_u000d", 
        "u0627_u0644_u062f_u064a_u0627_u0646_u0629 u0020 u003a u0020 u064a_u062a_u0628_u0639 u0020 u062d_u0648_u0627_u0644_u064a u0020 u0039_u0032_u0025 u0020 u0645_u0646 u0020 u0627_u0644_u0627_u064a_u0631_u0644_u0646_u062f_u064a_u064a_u0646 u0020 u0627_u0644_u062f_u064a_u0627_u0646_u0629 u0020 u0627_u0644_u0645_u0633_u064a_u062d_u064a_u0629 u0020 u0627_u0644_u0643_u0627_u062b_u0648_u0644_u064a_u0643_u064a_u0629_u002e_u000d", 
        "u0627_u0644_u0646_u0638_u0627_u0645 u0020 u0627_u0644_u0633_u064a_u0627_u0633_u064a_u003a u0020 u0646_u0638_u0627_u0645 u0020 u0627_u0644_u062d_u0643_u0645 u0020 u0628_u0623_u064a_u0631_u0644_u0646_u062f_u0627 u0020 u062c_u0645_u0647_u0648_u0631_u064a_u002e u0020 u000d", 
        "u062c_u0632_u0621 u0020 u0645_u0646 u0020 u0627_u0644_u0625_u062a_u062d_u0627_u062f u0020 u0627_u0644_u0623_u0648_u0631_u0648_u0628_u064a_u000d", 
        "u0627_u0644_u0639_u0645_u0644_u0629_u003a u0020 u0020_u0627_u0644_u064a_u0648_u0631_u0648_u002e_u000d", 
        "u0627_u0644_u0627_u0642_u062a_u0635_u0627_u062f_u003a u0020 u064a_u0639_u062a_u0645_u062f u0020 u0639_u0644_u0649 u0020 u0627_u0644_u0635_u0646_u0627_u0639_u0629_u060c u0020 u0627_u0644_u0632_u0631_u0627_u0639_u0629 u0020 u0648_u0627_u0644_u0633_u064a_u0627_u062d_u0629_u000d"
    ]
}