{
    "bounding_box": [
        [
            29, 
            135, 
            630, 
            51
        ], 
        [
            29, 
            193, 
            646, 
            50
        ], 
        [
            29, 
            251, 
            646, 
            47
        ], 
        [
            29, 
            307, 
            646, 
            51
        ], 
        [
            346, 
            365, 
            329, 
            44
        ]
    ], 
    "image_height": 540, 
    "image_width": 720, 
    "transcription": [
        "u0644_u0645_u0627 u0020 u064a_u0626_u0633 u0020 u0646_u0648_u062d_u0627 u0020 u0645_u0646 u0020 u0635_u0644_u0627_u062d_u0647_u0645_u060c u0020 u0648_u0631_u0623_u0649 u0020 u0623_u0646_u0647_u0645_u0020", 
        "u0644_u0627 u0020 u062e_u064a_u0631 u0020 u0641_u064a_u0647_u0645_u060c u0020 u0648_u062a_u0648_u0635_u0644_u0648_u0627 u0020 u0625_u0644_u0649 u0020 u0623_u0630_u064a_u062a_u0647_u0020", 
        "u0648_u0645_u062e_u0627_u0644_u0641_u062a_u0647 u0020 u0648_u062a_u0643_u0630_u064a_u0628_u0647 u0020 u0628_u0643_u0644 u0020 u0637_u0631_u064a_u0642 u0020 u0645_u0646 u0020 u0641_u0639_u0627_u0644_u0020", 
        "u0648_u0645_u0642_u0627_u0644_u060c u0020 u062f_u0639_u0627 u0020 u0639_u0644_u064a_u0647_u0645 u0020 u062f_u0639_u0648_u0629 u0020 u063a_u0636_u0628_u060c u0020 u0641_u0644_u0628_u0649 u0020 u0627_u0644_u0644_u0647_u0020", 
        "u062f_u0639_u0648_u062a_u0647 u0020 u0648_u0623_u062c_u0627_u0628 u0020 u0637_u0644_u0628_u062a_u0647_u002e_u000d"
    ]
}