{
    "bounding_box": [
        [
            465, 
            31, 
            198, 
            29
        ], 
        [
            153, 
            84, 
            508, 
            29
        ], 
        [
            166, 
            121, 
            495, 
            25
        ], 
        [
            135, 
            149, 
            527, 
            26
        ], 
        [
            143, 
            179, 
            518, 
            29
        ]
    ], 
    "image_height": 540, 
    "image_width": 720, 
    "transcription": [
        "u0645_u0627 u0020 u0647_u064a u0020 u0627_u0644_u0623_u062f_u0648_u0627_u062a u0020 u0627_u0644_u0630_u0643_u064a_u0629_u061f", 
        "u0627_u0644_u0623_u062f_u0648_u0627_u062a u0020 u0627_u0644_u0630_u0643_u064a_u0629 u0020 u0639_u0628_u0627_u0631_u0629 u0020 u0639_u0646 u0020 u0628_u0631_u0627_u0645_u062c u0020 u0628_u0633_u064a_u0637_u0629 u0020 u0645_u0635_u0645_u0645_u0629 u0020 u0644_u0623_u062f_u0627_u0621 u0020 u0645_u0647_u0645_u0629_u0020", 
        "u0645_u062d_u062f_u062f_u0629_u002e u0020 u0648_u064a_u0645_u0643_u0646_u0647_u0627 u0020 u062a_u0634_u063a_u064a_u0644 u0020 u0639_u0631_u0636 u0020 u0634_u0631_u0627_u0626_u062d u0020 u0628_u0633_u064a_u0637 u0020 u0648_u0625_u0638_u0647_u0627_u0631 u0020 u0633_u0627_u0639_u0629_u0020", 
        "u0648_u062a_u0642_u0648_u064a_u0645 u0020 u0648_u0639_u0631_u0636 u0020 u0645_u0639_u0644_u0648_u0645_u0627_u062a u0020 u0627_u0644_u0637_u0642_u0633 u0020 u0648_u0627_u0644_u0645_u0632_u064a_u062f u0020 u0645_u0646 u0020 u0627_u0644_u0623_u0645_u0648_u0631_u002e u0020 u0644_u0646_u062a_u0639_u0631_u0641_u0020", 
        "u0628_u0634_u0643_u0644 u0020 u0645_u0648_u062c_u0632 u0020 u0639_u0644_u0649 u0020 u0643_u0627_u0641_u0629 u0020 u0627_u0644_u0623_u062f_u0648_u0627_u062a u0020 u0627_u0644_u0630_u0643_u064a_u0629 u0020 u0627_u0644_u0645_u062a_u0648_u0641_u0631_u0629 u0020 u0641_u064a u0020 u0648_u064a_u0646_u062f_u0648_u0632 u0020 u0037_u002e"
    ]
}