{
    "bounding_box": [
        [
            67, 
            79, 
            600, 
            22
        ], 
        [
            67, 
            115, 
            580, 
            22
        ], 
        [
            67, 
            152, 
            580, 
            21
        ], 
        [
            67, 
            187, 
            580, 
            22
        ], 
        [
            67, 
            223, 
            580, 
            22
        ], 
        [
            67, 
            259, 
            580, 
            22
        ], 
        [
            257, 
            302, 
            390, 
            22
        ]
    ], 
    "image_height": 540, 
    "image_width": 720, 
    "transcription": [
        "u0020 u0020 u0020 u0020 u0020_u0628_u062f_u064a_u0647_u064a u0020 u0627_u0633_u062a u0020 u0643_u0647 u0020 u062f_u064a_u0648_u0627_u0631_u0629 u0020 u0645_u062d_u0631_u0627_u0628 u0020 u0628_u064a_u0634 u0020 u0627_u0632 u0020 u0647_u0631 u0020 u0642_u0633_u0645_u062a u0020 u062f_u064a_u06af_u0631 u0020 u0645_u0633_u062c_u062f u0020 u0645_u0648_u0631_u062f u0020 u062a_u0648_u062c_u0647 u0020 u0628_u0648_u062f_u0647 u0020 u0648_u062a_u0632_u0626_u064a_u0646_u0020", 
        "u0634_u062f_u0647 u0020 u062f_u0631 u0020 u0639_u0635_u0631 u0020 u0641_u0627_u0637_u0645_u064a_u0627_u0646 u0020 u06af_u0627_u0647_u064a u0020 u0627_u0648_u0642_u0627_u062a u0020 u0639_u0645_u062f_u0627_u064b u0020 u0627_u0632 u0020 u0628_u0643_u0627_u0631 u0020 u0628_u0631_u062f_u0646 u0020 u0633_u0628_u0643 u0020 u062a_u0632_u0626_u064a_u0646_u0627_u062a u0020 u0639_u0628_u0627_u0633_u064a_u0627_u0646 u0020 u062e_u0648_u062f_u062f_u0627_u0631_u064a_u0020", 
        "u0645_u064a u0020 u0643_u0631_u062f_u0646_u062f u0020 u002e u0020 u0645_u0635_u0627_u0644_u062d u0020 u0648_u062a_u0632_u0626_u064a_u0646_u0627_u062a u0020 u0643_u0647 u0020 u0641_u0627_u0637_u0645_u064a_u0627_u0646 u0020 u062f_u0631 u0020 u0645_u062d_u0631_u0627_u0628 u0020 u0645_u0633_u0627_u062c_u062f u0020 u0628_u0643_u0627_u0631 u0020 u0645_u064a u0020 u0628_u0631_u062f_u0646_u062f u0020 u0627_u063a_u0644_u0628 u0020 u0633_u0646_u06af u0020 u060c_u0020", 
        "u0622_u062c_u0631 u0020 u0648 u0020 u06af_u0686 u0020 u0628_u0648_u062f u0020 u0643_u0647 u0020 u0628_u0631 u0020 u0631_u0648_u064a u0020 u0633_u0646_u06af_u0647_u0627 u0020 u062d_u0627_u0634_u064a_u0647 u0020 u0647_u0627_u0626_u064a u0020 u0632_u064a_u0628_u0627_u062f_u0631 u0020 u0645_u064a u0020 u0622_u0648_u0631_u062f_u0646_u062f u0020 u0645_u0627_u0646_u0646_u062f u0020 u0645_u062d_u0631_u0627_u0628 u0020 u0645_u0633_u062c_u062f_u0020", 
        "u0627_u0644_u0627_u0632_u0647_u0631 u0020 u0648 u0020 u0627_u0644_u062d_u0643_u064a_u0645 u0020 u062f_u0631 u0020 u0642_u0627_u0647_u0631_u0647 u0020 u002e u0020 u06af_u0627_u0647_u064a u0020 u0628_u0647 u0020 u062c_u0627_u064a u0020 u0633_u0646_u06af u0020 u0628_u0627 u0020 u06af_u0686 u0020 u0628_u0631_u064a_u0647_u0627_u064a u0020 u0632_u064a_u0628_u0627 u0020 u0645_u062d_u0631_u0627_u0628 u0020 u0645_u064a u0020 u0622_u0631_u0627_u0633_u062a_u0646_u062f u0020 u0628_u0647_u0020", 
        "u0639_u0646_u0648_u0627_u0646 u0020 u0645_u062b_u0627_u0644 u0020 u0645_u064a u0020 u062a_u0648_u0627_u0646 u0020 u0627_u0632 u0020 u0645_u062d_u0631_u0627_u0628 u0020 u06af_u0686 u0020 u0628_u0631_u064a u0020 u0634_u062f_u0647 u0020 u0645_u0633_u062c_u062f_u0627_u0644_u0627_u062d_u0645_u0631 u0020 u0646_u0627_u0645 u0020 u0628_u0631_u062f u0020 u002e_u0634_u0627_u064a_u0627_u0646 u0020 u0630_u0643_u0631 u0020 u0627_u0633_u062a u0020 u0643_u0647_u0020", 
        "u0641_u0627_u0637_u0645_u064a_u0627_u0646 u0020 u062f_u0631 u0020 u0647_u0646_u0631 u0020 u06af_u0686_u0628_u0631_u064a u0020 u0622_u0648_u0627_u0632_u0647 u0020 u0627_u064a u0020 u0627_u0632 u0020 u062e_u0648_u062f u0020 u062f_u0631 u0020 u062a_u0627_u0631_u064a_u062e u0020 u06af_u0630_u0627_u0634_u062a_u0646_u062f_u002e_u000d"
    ]
}