{
    "bounding_box": [
        [
            104, 
            221, 
            506, 
            24
        ], 
        [
            226, 
            247, 
            384, 
            25
        ], 
        [
            104, 
            278, 
            479, 
            28
        ], 
        [
            104, 
            307, 
            479, 
            25
        ], 
        [
            104, 
            335, 
            479, 
            24
        ], 
        [
            210, 
            361, 
            373, 
            25
        ]
    ], 
    "image_height": 540, 
    "image_width": 720, 
    "transcription": [
        "u062b_u0627_u0646_u064a_u0627_u064b_u003a u0020 u0642_u0627_u0646_u0648_u0646 u0020 u062a_u0646_u0638_u064a_u0645 u0020 u0627_u062c_u0631_u0627_u0621_u0627_u062a u0020 u0627_u0644_u062a_u0635_u0646_u064a_u0639_u0020", 
        "u0648_u0627_u0644_u0631_u0642_u0627_u0628_u0629 u0020 u0639_u0644_u0649 u0020 u0627_u0644_u0645_u0646_u0634_u0622_u062a u0020 u0627_u0644_u0635_u0646_u0627_u0639_u064a_u0629_u003a_u000d", 
        "u0635_u062f_u0631 u0020 u0627_u0644_u0645_u0631_u0633_u0648_u0645 u0020 u0031_u0037_u002f_u0037_u0035 u0020 u0646_u062a_u064a_u062c_u0629 u0020 u0644_u062a_u0632_u0627_u064a_u062f_u0020", 
        "u0627_u0644_u0637_u0644_u0628 u0020 u0639_u0644_u0649 u0020 u0627_u0644_u062d_u0635_u0648_u0644 u0020 u0639_u0644_u0649 u0020 u0627_u0644_u062a_u0631_u0627_u062e_u064a_u0635_u0020", 
        "u0627_u0644_u0635_u0646_u0627_u0639_u064a_u0629 u0020 u0627_u0636_u0627_u0641_u0629 u0020 u0627_u0644_u0649 u0020 u0639_u062f_u0645 u0020 u0648_u062c_u0648_u062f u0020 u062a_u0634_u0631_u064a_u0639_u0020", 
        "u0631_u0642_u0627_u0628_u064a u0020 u0644_u0645_u062a_u0627_u0628_u0639_u0629 u0020 u0627_u0644_u0645_u0646_u0634_u0622_u062a u0020 u0627_u0644_u0642_u0627_u0626_u0645_u0629 u0020 u002e_u000d"
    ]
}