{
    "bounding_box": [
        [
            23, 
            43, 
            620, 
            48
        ], 
        [
            36, 
            96, 
            384, 
            49
        ], 
        [
            36, 
            158, 
            618, 
            23
        ], 
        [
            36, 
            182, 
            618, 
            24
        ], 
        [
            36, 
            208, 
            618, 
            24
        ], 
        [
            36, 
            234, 
            618, 
            24
        ], 
        [
            36, 
            260, 
            618, 
            24
        ], 
        [
            36, 
            286, 
            618, 
            24
        ], 
        [
            36, 
            312, 
            618, 
            24
        ], 
        [
            36, 
            338, 
            618, 
            23
        ], 
        [
            36, 
            365, 
            618, 
            23
        ], 
        [
            36, 
            391, 
            618, 
            23
        ], 
        [
            36, 
            418, 
            618, 
            21
        ], 
        [
            36, 
            442, 
            618, 
            24
        ], 
        [
            173, 
            468, 
            481, 
            24
        ]
    ], 
    "image_height": 540, 
    "image_width": 720, 
    "transcription": [
        "u0627_u0646_u0634_u063a_u0644 u0020 u0628_u0627_u064a_u0632_u064a_u062f u0020 u0627_u0644_u062b_u0627_u0646_u064a u0020 u0628_u0627_u0644_u062f_u0641_u0627_u0639 u0020 u0639_u0646 u0020 u0645_u0645_u062a_u0644_u0643_u0627_u062a_u0647 u0020 u0641_u064a_u0020", 
        "u0627_u0644_u062c_u0627_u0646_u0628_u064a_u0646 u0020 u0627_u0644_u0623_u0648_u0631_u0628_u064a u0020 u0648_u0627_u0644_u0623_u0633_u064a_u0648_u064a", 
        "u060c u0020 u0641_u0641_u064a u0020 u0627_u0644_u062c_u0627_u0646_u0628 u0020 u0627_u0644_u0623_u0648_u0631_u0628_u064a u0020 u0648_u0627_u062c_u0647 u0020 u0628_u0627_u064a_u0632_u064a_u062f u0020 u062a_u062d_u0627_u0644_u0641_u0627_u064b u0020 u0645_u0646 u0020 u0627_u0644_u0628_u0627_u0628_u0627 u0020 u0648_u0645_u0644_u0648_u0643 u0020 u0627_u0644_u0628_u0646_u062f_u0642_u064a_u0629 u0020 u0648_u0627_u0644_u0646_u0645_u0633_u0627 u0020 u0648_u0641_u0631_u0646_u0633_u0627_u0020", 
        "u062d_u0627_u0648_u0644 u0020 u0647_u0630_u0627 u0020 u0627_u0644_u062a_u062d_u0627_u0644_u0641 u0020 u0623_u0646 u0020 u064a_u0634_u0644 u0020 u062d_u0631_u0643_u0629 u0020 u0627_u0644_u062a_u0648_u0633_u0639_u0627_u062a u0020 u0627_u0644_u0639_u062b_u0645_u0627_u0646_u064a_u0629_u060c u0020 u0648_u0641_u064a u0020 u0627_u0644_u062c_u0627_u0646_u0628 u0020 u0627_u0644_u0623_u0633_u064a_u0648_u064a_u0020", 
        "u0623_u062e_u0630_u062a u0020 u0625_u0645_u0627_u0631_u0629 u0020 u0645_u0648_u0633_u0643_u0648 u0020 u062a_u062a_u0648_u0633_u0639 u0020 u0639_u0644_u0649 u0020 u062d_u0633_u0627_u0628 u0020 u0627_u0644_u062f_u0648_u0644_u0629 u0020 u0627_u0644_u0639_u062b_u0645_u0627_u0646_u064a_u0629_u060c u0020 u0648_u0639_u0642_u062f u0020 u0628_u0627_u064a_u0632_u064a_u062f u0020 u0627_u062a_u0641_u0627_u0642_u0627_u064b u0020 u0645_u0639_u0020", 
        "u0627_u0644_u0633_u0644_u0637_u0627_u0646 u0020 u0627_u0644_u0645_u0645_u0644_u0648_u0643_u064a u0020 u0644_u0646_u0635_u0631_u0629 u0020 u0627_u0644_u0645_u0633_u0644_u0645_u064a_u0646 u0020 u0641_u064a u0020 u0627_u0644_u0623_u0646_u062f_u0644_u0633 u0020 u0636_u062f u0020 u062a_u062c_u0627_u0648_u0632_u0627_u062a u0020 u0627_u0644_u0645_u0645_u0627_u0644_u0643 u0020 u0627_u0644_u0645_u0633_u064a_u062d_u064a_u0629_u0020", 
        "u0647_u0646_u0627_u0643_u060c u0020 u0641_u0623_u0631_u0633_u0644 u0020 u0623_u0633_u0637_u0648_u0644_u0627_u064b u0020 u0639_u0627_u0645 u0020 u0031_u0034_u0039_u0039_u0645 u0020 u062d_u0642_u0642 u0020 u0628_u0639_u0636 u0020 u0627_u0644_u0627_u0646_u062a_u0635_u0627_u0631_u0627_u062a_u060c u0020 u0644_u0643_u0646_u0647 u0020 u0644_u0645 u0020 u064a_u0643_u0646 u0020 u0628_u0627_u0644_u0642_u0648_u0629_u0020", 
        "u0627_u0644_u0643_u0627_u0641_u064a_u0629 u0020 u0644_u064a_u062a_u0631_u0643 u0020 u0623_u062b_u0631_u0627_u064b u0020 u0648_u0627_u0636_u062d_u0627_u064b u0020 u0639_u0644_u0649 u0020 u0627_u0644_u0648_u062c_u0648_u062f u0020 u0627_u0644_u0625_u0633_u0644_u0627_u0645_u064a u0020 u0641_u064a u0020 u0634_u0628_u0647 u0020 u062c_u0632_u064a_u0631_u0629 u0020 u0623_u064a_u0628_u064a_u0631_u064a_u0627_u060c u0020 u0648_u0645_u0645_u0627_u0020", 
        "u0644_u0627_u0634_u0643 u0020 u0641_u064a_u0647 u0020 u0623_u0646 u0020 u0627_u0644_u0635_u0631_u0627_u0639 u0020 u0645_u0639 u0020 u062c_u0645 u0020 u0639_u0644_u0649 u0020 u0627_u0644_u0639_u0631_u0634 u0020 u0643_u0627_u0646_u062a u0020 u0644_u0647 u0020 u0622_u062b_u0627_u0631 u0020 u0633_u0644_u0628_u064a_u0629 u0020 u0639_u0644_u0649 u0020 u0642_u0648_u0629 u0020 u0628_u0627_u064a_u0632_u064a_u062f u0020 u0641_u064a_u0020", 
        "u0645_u0648_u0627_u062c_u0647_u0629 u0020 u0623_u0639_u062f_u0627_u0621 u0020 u0627_u0644_u062f_u0648_u0644_u0629 u0020 u0627_u0644_u0639_u062b_u0645_u0627_u0646_u064a_u0629_u060c u0020 u0643_u0645_u0627 u0020 u0627_u062c_u062a_u0645_u0639_u062a u0020 u0625_u0644_u0649 u0020 u0647_u0630_u0647 u0020 u0627_u0644_u0623_u062e_u0637_u0627_u0631 u0020 u0627_u0644_u062f_u0627_u062e_u0644_u064a_u0629 u0020 u0648_u0627_u0644_u062e_u0627_u0631_u062c_u064a_u0629_u0020", 
        "u0643_u0648_u0627_u0631_u062b u0020 u0637_u0628_u064a_u0639_u064a_u0629 u0020 u062a_u0645_u062b_u0644_u062a u0020 u0641_u064a u0020 u0639_u062f_u062f u0020 u0645_u0646 u0020 u0627_u0644_u0632_u0644_u0627_u0632_u0644 u0020 u0636_u0631_u0628_u062a u0020 u0627_u0644_u0623_u0633_u062a_u0627_u0646_u0629 u0020 u0641_u0647_u062f_u0645_u062a u0020 u0645_u0627 u0020 u064a_u0631_u0628_u0648 u0020 u0639_u0644_u0649_u0020", 
        "u0627_u0644_u0623_u0644_u0641 u0020 u0628_u064a_u062a u0020 u0645_u0646 u0020 u0628_u064a_u0648_u062a u0020 u0627_u0644_u0645_u062f_u064a_u0646_u0629 u0020 u0648_u0639_u062f_u062f u0020 u0643_u0628_u064a_u0631 u0020 u0645_u0646 u0020 u0627_u0644_u0645_u0633_u0627_u062c_u062f u0020 u0648_u0627_u0644_u0642_u0635_u0648_u0631_u060c u0020 u0648_u062a_u0647_u062f_u0645 u0020 u062c_u0627_u0646_u0628 u0020 u0643_u0628_u064a_u0631_u0020", 
        "u0645_u0646 u0020 u0627_u0644_u0642_u0644_u0627_u0639 u0020 u0648_u0627_u0644_u0633_u0648_u0631 u0020 u0627_u0644_u0645_u062d_u064a_u0637 u0020 u0628_u0627_u0644_u0645_u062f_u064a_u0646_u0629_u060c u0020 u0643_u0645_u0627 u0020 u0632_u0627_u062f u0020 u0627_u0644_u0645_u062f u0020 u0627_u0644_u0628_u062d_u0631_u064a u0020 u0641_u064a u0020 u0627_u0644_u0642_u0631_u0646 u0020 u0627_u0644_u0630_u0647_u0628_u064a u0020 u062d_u062a_u0649_u0020", 
        "u0647_u062f_u062f u0020 u0627_u0644_u0645_u062f_u064a_u0646_u0629 u0020 u0630_u0627_u062a_u0647_u0627_u002e u0020 u0648_u0642_u062f u0020 u0623_u0645_u0631 u0020 u0627_u0644_u0633_u0644_u0637_u0627_u0646 u0020 u0628_u0627_u064a_u0632_u064a_u062f u0020 u0627_u0644_u062b_u0627_u0646_u064a u0020 u062e_u0645_u0633_u0629 u0020 u0639_u0634_u0631 u0020 u0623_u0644_u0641_u0627_u064b u0020 u0645_u0646 u0020 u0639_u0645_u0627_u0644_u0647_u0020", 
        "u0628_u0625_u0635_u0644_u0627_u062d u0020 u0645_u0627 u0020 u062a_u0647_u062f_u0645_u060c u0020 u0627_u0644_u0623_u0645_u0631 u0020 u0627_u0644_u0630_u064a u0020 u0643_u0644_u0641 u0020 u062e_u0632_u0627_u0646_u0629 u0020 u0627_u0644_u062f_u0648_u0644_u0629 u0020 u0645_u0628_u0627_u0644_u063a u0020 u0637_u0627_u0626_u0644_u0629 u0020 u0030 u0020 u0020_u000d"
    ]
}