{
    "bounding_box": [
        [
            66, 
            42, 
            586, 
            40
        ], 
        [
            8, 
            97, 
            698, 
            35
        ], 
        [
            61, 
            140, 
            645, 
            36
        ], 
        [
            543, 
            187, 
            163, 
            36
        ], 
        [
            82, 
            288, 
            624, 
            38
        ], 
        [
            105, 
            330, 
            601, 
            39
        ], 
        [
            445, 
            373, 
            261, 
            35
        ]
    ], 
    "image_height": 540, 
    "image_width": 720, 
    "transcription": [
        "u0627_u0644_u0625_u0646_u062a_u0642_u0627_u062f_u0627_u062a u0020 u0627_u0644_u0645_u0648_u062c_u0647_u0629 u0020 u0644_u0646_u0638_u0631_u064a_u0629 u0020 u0627_u0644_u0639_u0645_u0644_u064a_u0627_u062a u0020 u0627_u0644_u0623_u0633_u0627_u0633_u064a_u0629_u003a", 
        "u0031_u002d u0020 u0625_u0646 u0020 u062a_u0642_u0631_u064a_u0631 u0020 u0627_u0644_u0639_u0645_u0644_u064a_u0627_u062a u0020 u0645_u0646 u0020 u0627_u0644_u0623_u0633_u0627_u0633 u0020 u0645_u0633_u0623_u0644_u0629 u0020 u062a_u0628_u062f_u0648 u0020 u0623_u0643_u062b_u0631 u0020 u0639_u0634_u0648_u0627_u0626_u064a_u0629 u0020 u0623_u0648_u0020", 
        "u0625_u0639_u062a_u0628_u0627_u0637_u064a_u0629 u0020 u0645_u0646 u0020 u0643_u0648_u0646_u0647_u0627 u0020 u062a_u062c_u0631_u064a_u0628_u064a_u0629 u0020 u0623_u0648 u0020 u0648_u0627_u0642_u0639_u064a_u0629 u0020 u0623_u0648 u0020 u0642_u0627_u0626_u0645_u0629 u0020 u0639_u0644_u0649 u0020 u0623_u0633_u0627_u0633_u0020", 
        "u0639_u0644_u0645_u064a u0020 u0645_u0646_u0637_u0642_u064a_u002e_u000d", 
        "u0032_u002d u0020 u0644_u0627_u064a_u0645_u0643_u0646 u0020 u0627_u0644_u0642_u0637_u0639 u0020 u0645_u0646 u0020 u062e_u0644_u0627_u0644 u0020 u0627_u0644_u0628_u062d_u0648_u062b u0020 u0623_u0646 u0020 u062a_u062d_u0633_u064a_u0646 u0020 u0627_u0644_u0639_u0645_u0644_u064a_u0627_u062a_u0020", 
        "u0627_u0644_u0623_u0633_u0627_u0633_u064a_u0629 u0020 u064a_u0624_u062f_u064a u0020 u0628_u0627_u0644_u0636_u0631_u0648_u0631_u0629 u0020 u0625_u0644_u0649 u0020 u062a_u062d_u0633_u064a_u0646 u0020 u0639_u0645_u0644_u064a_u0627_u062a u0020 u0627_u0644_u062a_u0639_u0644_u0645_u0020", 
        "u0648_u0627_u0644_u0623_u0646_u0634_u0637_u0629 u0020 u0627_u0644_u0645_u0631_u062a_u0628_u0637_u0629 u0020 u0628_u0647_u0627_u002e"
    ]
}