{
    "bounding_box": [
        [
            47, 
            65, 
            588, 
            31
        ], 
        [
            477, 
            100, 
            158, 
            30
        ], 
        [
            67, 
            140, 
            568, 
            30
        ], 
        [
            547, 
            177, 
            88, 
            25
        ], 
        [
            91, 
            213, 
            544, 
            31
        ], 
        [
            93, 
            255, 
            542, 
            30
        ], 
        [
            371, 
            292, 
            264, 
            26
        ], 
        [
            82, 
            328, 
            553, 
            30
        ], 
        [
            385, 
            363, 
            250, 
            29
        ], 
        [
            84, 
            403, 
            551, 
            27
        ], 
        [
            71, 
            436, 
            564, 
            30
        ], 
        [
            579, 
            478, 
            57, 
            19
        ]
    ], 
    "image_height": 540, 
    "image_width": 720, 
    "transcription": [
        "u0627_u0630_u0627 u0020 u0623_u0631_u0627_u062f_u062a u0020 u0645_u062c_u0645_u0648_u0639_u0629 u0020 u0627_u0644_u062e_u0631_u0648_u062c u0020 u0645_u0646 u0020 u0647_u0630_u0627 u0020 u0627_u0644_u0639_u0642_u062f u0020 u064a_u0643_u0648_u0646 u0020 u0647_u0646_u0627_u0643 u0020 u0645_u0628_u0631_u0631 u0020 u0644_u0644_u062d_u0627_u0643_u0645_u0020", 
        "u0623_u0646 u0020 u064a_u0642_u0636_u064a u0020 u0639_u0644_u064a_u0647_u0645_u002e_u000d", 
        "u0627_u0644_u0641_u0631_u062f u0020 u064a_u0637_u064a_u0639 u0020 u0627_u0644_u062f_u0648_u0644_u0629 u0020 u0648_u064a_u0631_u0636_u062e u0020 u0644_u0633_u0644_u0637_u0629 u0020 u0627_u0644_u0642_u0627_u0646_u0648_u0646 u0020 u0644_u0645_u0627 u0020 u064a_u062a_u0631_u062a_u0628 u0020 u0639_u0644_u064a_u0647 u0020 u0641_u0627_u0626_u062f_u0629_u0020", 
        "u0643_u0628_u064a_u0631_u0629 u0020 u0644_u0647_u002e_u000d", 
        "u0627_u0644_u062f_u0648_u0644_u0629 u0020 u201d u0020 u0648_u062d_u0634_u201c u0020 u0625_u0644_u0627 u0020 u0623_u0646 u0020 u0644_u0647_u0627 u0020 u0645_u0646_u0641_u0639_u0629 u0020 u0645_u062d_u062f_u062f_u0629 u0020 u0648_u0647_u064a u0020 u062e_u062f_u0645_u0629 u0020 u0627_u0644_u0623_u0641_u0631_u0627_u062f_u002e_u000d", 
        "u0627_u0644_u062d_u0627_u0643_u0645 u0020 u0635_u0627_u062d_u0628 u0020 u0627_u0644_u0633_u064a_u0627_u062f_u0629 u0020 u0648_u064a_u0633_u062a_u062d_u0648_u0630 u0020 u0639_u0644_u0649 u0020 u0627_u0644_u0633_u0644_u0637_u0627_u062a u0020 u0627_u0644_u062b_u0644_u0627_u062b u0020 u0644_u0644_u062f_u0648_u0644_u0629_u0020", 
        "u0648_u0645_u0627_u064a_u062a_u0628_u0639_u0647_u0627 u0020 u0645_u0646 u0020 u0627_u0633_u062a_u062e_u062f_u0627_u0645 u0020 u0644_u0644_u0642_u0648_u0629_u002e_u000d", 
        "u0627_u0630_u0627 u0020 u0641_u0634_u0644_u062a u0020 u0627_u0644_u062d_u0643_u0648_u0645_u0629 u0020 u0641_u064a u0020 u062a_u062d_u0642_u064a_u0642 u0020 u0627_u0644_u0623_u0645_u0627_u0646 u0020 u0644_u0644_u0641_u0631_u062f u0020 u0636_u0627_u0639 u0020 u0627_u0644_u0623_u0633_u0627_u0633 u0020 u0627_u0644_u0630_u064a_u0020", 
        "u062a_u0639_u062a_u0645_u062f_u0647 u0020 u0648_u0647_u0646_u0627 u0020 u062a_u0642_u0648_u0645 u0020 u0627_u0644_u0645_u0642_u0627_u0648_u0645_u0629_u002e_u000d", 
        "u0627_u0630_u0627 u0020 u0642_u0627_u0645_u062a u0020 u062d_u0631_u0643_u0629 u0020 u0648_u0646_u062c_u062d_u062a u0020 u0647_u0630_u0647 u0020 u0627_u0644_u0645_u0642_u0627_u0648_u0645_u0629 u0020 u0636_u062f u0020 u0635_u0627_u062d_u0628 u0020 u0627_u0644_u0633_u064a_u0627_u062f_u0629 u0020 u0641_u0642_u062f_u0020", 
        "u0633_u064a_u0627_u062f_u062a_u0647 u0020 u0648_u0644_u0645 u0020 u064a_u0635_u0628_u062d u0020 u0633_u064a_u062f_u0627 u0020 u0648_u0645_u0646 u0020 u062d_u0642 u0020 u0627_u0644_u0627_u0641_u0631_u0627_u062f u0020 u0623_u0646 u0020 u064a_u0639_u0637_u0648_u0627 u0020 u0648_u0644_u0627_u0626_u0647_u0645 u0020 u0644_u0633_u064a_u062f_u0020", 
        "u062c_u062f_u064a_u062f_u002e_u000d"
    ]
}