{
    "bounding_box": [
        [
            182, 
            200, 
            331, 
            50
        ], 
        [
            213, 
            278, 
            284, 
            54
        ], 
        [
            279, 
            507, 
            151, 
            15
        ]
    ], 
    "image_height": 540, 
    "image_width": 720, 
    "transcription": [
        "u0627_u0644_u062e_u0631_u064a_u0637_u0629 u0020 u0627_u0644_u0630_u0647_u0646_u064a_u0629_u000d", 
        "u004d_u0069_u006e_u0064 u0020 u004d_u0061_u0070", 
        "u062f_u002e u0020 u062a_u063a_u0631_u064a_u062f u0020 u0639_u0628_u062f u0020 u0627_u0644_u0641_u062a_u0627_u062d u0020 u0627_u0644_u0631_u062d_u064a_u0644_u064a"
    ]
}