{
    "bounding_box": [
        [
            526, 
            25, 
            148, 
            40
        ], 
        [
            289, 
            107, 
            366, 
            24
        ], 
        [
            364, 
            157, 
            291, 
            27
        ], 
        [
            480, 
            186, 
            147, 
            26
        ], 
        [
            498, 
            215, 
            130, 
            24
        ], 
        [
            483, 
            242, 
            145, 
            22
        ], 
        [
            487, 
            269, 
            140, 
            21
        ], 
        [
            326, 
            315, 
            329, 
            27
        ], 
        [
            445, 
            365, 
            210, 
            25
        ], 
        [
            456, 
            417, 
            172, 
            21
        ], 
        [
            405, 
            443, 
            223, 
            25
        ], 
        [
            186, 
            471, 
            442, 
            24
        ]
    ], 
    "image_height": 540, 
    "image_width": 720, 
    "transcription": [
        "u0645_u0633_u0627_u0631 u0020 u0627_u0644_u0639_u0645_u0644", 
        "u0020_u0625_u0639_u0627_u062f_u0629 u0020 u0647_u0646_u062f_u0633_u0629 u0020 u0627_u0644_u0639_u0645_u0644_u064a_u0627_u062a u0020 u0648 u0020 u0625_u062f_u0627_u0631_u0629 u0020 u0627_u0644_u062a_u063a_u064a_u064a_u0631_u000d", 
        "u0020_u0623_u0631_u0628_u0639_u0629 u0020 u0623_u0646_u0648_u0627_u0639 u0020 u0645_u062a_u062f_u0627_u062e_u0644_u0629 u0020 u0644_u0644_u062a_u063a_u064a_u064a_u0631 u0020 u003a_u000d", 
        "u0627_u0644_u0625_u0635_u0644_u0627_u062d u0020 u0627_u0644_u0645_u0624_u0633_u0633_u064a_u000d", 
        "u0627_u0644_u0646_u0636_u0648_u062c u0020 u0627_u0644_u0625_u062f_u0627_u0631_u064a_u000d", 
        "u0627_u0644_u0637_u0644_u0628 u0020 u0639_u0644_u0649 u0020 u0627_u0644_u062e_u062f_u0645_u0629_u000d", 
        "u0627_u0644_u0645_u0639_u0627_u064a_u064a_u0631_u002f u0020 u0627_u0644_u0645_u0644_u0627_u0626_u0645_u0629 u0020 u000d", 
        "u0020_u062a_u062d_u062f_u064a_u062f u0020 u0648_u062a_u0631_u062a_u064a_u0628 u0020 u0623_u0648_u0644_u0648_u064a_u0627_u062a u0020 u0627_u0644_u0645_u0634_u0627_u0631_u064a_u0639 u0020 u000d", 
        "u062b_u0644_u0627_u062b u0020 u0639_u0648_u0627_u0645_u0644 u0020 u0623_u0633_u0627_u0633_u064a_u0629 u0020 u003a_u000d", 
        "u0627_u0644_u0627_u0633_u062a_u062c_u0627_u0628_u0629 u0020 u0644_u0644_u0627_u062d_u062a_u064a_u0627_u062c_u0627_u062a u0020 u000d", 
        "u0627_u0644_u0645_u0633_u0627_u0647_u0645_u0629 u0020 u0641_u064a u0020 u062a_u062d_u0642_u064a_u0642 u0020 u0627_u0644_u0623_u0647_u062f_u0627_u0641 u0020 u000d", 
        "u0627_u0644_u0642_u062f_u0631_u0629 u0020 u0639_u0644_u0649 u0020 u062a_u0646_u0641_u064a_u0630 u0020 u0627_u0644_u0645_u0634_u0631_u0648_u0639 u0020 u0645_u0646 u0020 u0648_u0627_u0642_u0639 u0020 u0627_u0644_u0642_u062f_u0631_u0629 u0020 u0627_u0644_u0625_u0646_u062a_u0627_u062c_u064a_u0629 u0020 u0627_u0644_u062d_u0627_u0644_u064a_u0629 u0020 u00a0"
    ]
}