{
    "bounding_box": [
        [
            414, 
            87, 
            388, 
            33
        ], 
        [
            712, 
            189, 
            73, 
            18
        ], 
        [
            104, 
            223, 
            680, 
            25
        ], 
        [
            624, 
            260, 
            160, 
            22
        ], 
        [
            704, 
            300, 
            81, 
            18
        ]
    ], 
    "image_height": 540, 
    "image_width": 960, 
    "transcription": [
        "u0645_u0646 u0020 u0645_u0631_u0627_u062d_u0644 u0020 u0627_u0644_u0639_u0645_u0644 u0020 u0028_u062a_u0635_u0645_u064a_u0645 u0020 u0627_u0644_u0645_u0647_u0627_u0645_u0029_u003a", 
        "u0627_u0644_u0623_u0647_u062f_u0627_u0641_u002e_u000d", 
        "u0627_u0644_u0645_u062d_u062a_u0648_u0649_u003a u0020 u0627_u0644_u0645_u0639_u0627_u0631_u0641 u0020 u0648_u0627_u0644_u0645_u0647_u0627_u0631_u0627_u062a u0020 u0648_u0627_u0644_u0627_u062a_u062c_u0627_u0647_u0627_u062a u0020 u0627_u0644_u0645_u0637_u0644_u0648_u0628_u0629 u0020 u0644_u062a_u062d_u0642_u064a_u0642 u0020 u0627_u0644_u0623_u0647_u062f_u0627_u0641 u0020 u0648_u0627_u0644_u0623_u062f_u0627_u0621 u0020 u0627_u0644_u0645_u0633_u062a_u0647_u062f_u0641_u002e_u000d", 
        "u062e_u0637_u0648_u0637 u0020 u0627_u0644_u0639_u0645_u0644 u0020 u0627_u0644_u0639_u0627_u0645_u0629_u002e_u000d", 
        "u0625_u0639_u062f_u0627_u062f u0020 u0645_u0648_u0627_u062f"
    ]
}