{
    "bounding_box": [
        [
            217, 
            41, 
            285, 
            44
        ], 
        [
            251, 
            133, 
            433, 
            34
        ], 
        [
            530, 
            183, 
            154, 
            27
        ], 
        [
            325, 
            230, 
            360, 
            26
        ], 
        [
            490, 
            275, 
            186, 
            30
        ], 
        [
            664, 
            518, 
            12, 
            1
        ]
    ], 
    "image_height": 540, 
    "image_width": 720, 
    "transcription": [
        "u0034_u002e u0020 u0627_u0644_u0645_u062d_u0627_u0648_u0631 u0020 u0627_u0644_u0631_u0626_u064a_u0633_u064a_u0629", 
        "u062a_u0648_u0632_u064a_u0639 u0020 u0648_u0627_u0633_u062a_u063a_u0644_u0627_u0644 u0020 u0627_u0644_u0648_u0642_u062a u0020 u0639_u0646_u062f u0020 u0627_u0644_u0645_u0631_u0623_u0629 u0020 u0648_u0627_u0644_u0631_u062c_u0644_u000d", 
        "u0627_u062a_u0641_u0627_u0642_u064a_u0629 u0020 u0627_u0644_u0633_u064a_u062f_u0627_u0648 u0020 u000d", 
        "u062c_u0645_u0639_u064a_u0627_u062a u0020 u062a_u0643_u0627_u0641_u0624 u0020 u0627_u0644_u0641_u0631_u0635 u0020 u0628_u064a_u0646 u0020 u0627_u0644_u062c_u0646_u0633_u064a_u0646_u000d", 
        "u0627_u0644_u062a_u0645_u0643_u064a_u0646 u0020 u0627_u0644_u0625_u0642_u062a_u0635_u0627_u062f_u064a", 
        "u0031_u0032"
    ]
}