{
    "bounding_box": [
        [
            68, 
            38, 
            580, 
            20
        ], 
        [
            306, 
            59, 
            342, 
            20
        ], 
        [
            57, 
            101, 
            592, 
            20
        ], 
        [
            62, 
            143, 
            587, 
            20
        ], 
        [
            126, 
            207, 
            522, 
            20
        ], 
        [
            222, 
            249, 
            427, 
            20
        ], 
        [
            160, 
            270, 
            488, 
            20
        ], 
        [
            59, 
            312, 
            590, 
            20
        ], 
        [
            54, 
            355, 
            595, 
            20
        ], 
        [
            542, 
            376, 
            107, 
            20
        ]
    ], 
    "image_height": 540, 
    "image_width": 720, 
    "transcription": [
        "u0623_u0646 u0020 u0627_u0644_u0627_u062d_u0645_u0627_u0636 u0020 u0627_u0644_u0623_u0645_u064a_u0646_u064a_u0629 u0020 u0644_u0647_u0627 u0020 u062e_u0627_u0635_u064a_u0629 u0020 u002e_u002e u0020 u062a_u062f_u0639_u064a u0020 u0627_u0644_u062e_u0627_u0635_u064a_u0629 u0020 u0627_u0644_u0623_u0645_u0641_u064a_u0648_u062a_u064a_u0631_u064a_u0629 u0020 u002e_u002e u0020 u0648 u0020 u0647_u0630_u0647 u0020 u0627_u0644_u062e_u0627_u0635_u064a_u0629_u0020", 
        "u0639_u0628_u0627_u0631_u0629 u0020 u0639_u0646 u0020 u0627_u0644_u0633_u0644_u0648_u0643 u0020 u0627_u0644_u062e_u0627_u0635 u0020 u0628_u0647_u0627 u0020 u002e_u002e u0020 u0648 u0020 u0647_u0648 u0020 u0643_u0627_u0644_u062a_u0627_u0644_u064a u0020 u003a_u000b", 
        "u062a_u0633_u0644_u0643 u0020 u0627_u0644_u0623_u062d_u0645_u0627_u0636 u0020 u0627_u0644_u0623_u0645_u064a_u0646_u064a_u0629 u0020 u0633_u0644_u0648_u0643 u0020 u0627_u0644_u062d_u0645_u0636 u0020 u0641_u064a u0020 u0627_u0644_u0648_u0633_u0637 u0020 u0627_u0644_u0642_u0627_u0639_u062f_u064a u0020 u0028_u0028_u062f_u0631_u062c_u0629 u0020 u0627_u0644_u0640 u0020 u0050_u0048 u0020 u0020_u2264_u0031_u0034 u0020 u0029_u0029_u000b", 
        "u0648 u0020 u062a_u0633_u0644_u0643 u0020 u0627_u0644_u0623_u062d_u0645_u0627_u0636 u0020 u0627_u0644_u0623_u0645_u064a_u0646_u064a_u0629 u0020 u0633_u0644_u0648_u0643 u0020 u003a_u0627_u0644_u0642_u0627_u0639_u062f_u0629 u0020 u0641_u064a u0020 u0648_u0633_u0637 u0020 u062d_u0627_u0645_u0636_u064a u0020 u0028_u0028_u062f_u0631_u062c_u0629 u0020 u0627_u0644_u0640 u0020 u0070_u0048 u0020 u0623_u2265 u0020 u0030_u0029_u0029_u000b", 
        "u0645_u0627 u0020 u0645_u0639_u0646_u0649 u0020 u0633_u0644_u0648_u0643 u0020 u0627_u0644_u062d_u0645_u0636 u0020 u002e_u002e u0020 u0648 u0020 u0633_u0644_u0648_u0643 u0020 u0627_u0644_u0642_u0627_u0639_u062f_u0629 u0020 u002e_u002e_u0639_u0646_u062f u0020 u0627_u0644_u0623_u062d_u0645_u0627_u0636 u0020 u0627_u0644_u0623_u0645_u064a_u0646_u064a_u0629 u0020 u061f_u061f u0020 u002e_u002e u0020 u000b", 
        "u0633_u0644_u0648_u0643 u0020 u0627_u0644_u062d_u0645_u0636 u0020 u0648 u0020 u0647_u0648 u0020 u0641_u0642_u062f_u0627_u0646 u0020 u0628_u0631_u0648_u062a_u0648_u0646 u0020 u002e_u002e u0020 u0641_u064a u0020 u0627_u0644_u0648_u0633_u0637 u0020 u0627_u0644_u0642_u0627_u0639_u062f_u064a u0020 u002e_u002e_u000b", 
        "u0623_u0645_u0627 u0020 u0633_u0644_u0648_u0643 u0020 u0627_u0644_u0642_u0627_u0639_u062f_u0629 u0020 u002e_u002e u0020 u0648 u0020 u0647_u0648 u0020 u0627_u0643_u062a_u0633_u0627_u0628 u0020 u0628_u0631_u0648_u062a_u0648_u0646 u0020 u002e_u002e u0020 u0641_u064a u0020 u0627_u0644_u0648_u0633_u0637 u0020 u0627_u0644_u062d_u0627_u0645_u0636_u064a u0020 u002e_u002e_u000b", 
        "u064a_u0624_u062f_u064a u0020 u0647_u0630_u0627 u0020 u0627_u0644_u0633_u0644_u0648_u0643 u0020 u0625_u0644_u0649 u0020 u0627_u0644_u062a_u063a_u064a_u064a_u0631 u0020 u0645_u0646 u0020 u0637_u0628_u064a_u0639_u062a_u0647_u0627 u0020 u0627_u0644_u0634_u0627_u0631_u062f_u064a_u0629 u0020 u0028_u0028_u0641_u0642_u062f_u0627_u0646 u0020 u0648 u0020 u0627_u0643_u062a_u0633_u0627_u0628 u0020 u0627_u0644_u0628_u0631_u0648_u062a_u0648_u0646_u0627_u062a_u0029_u0029_u000b", 
        "u0648 u0020 u0646_u0633_u062a_u0637_u064a_u0639 u0020 u062a_u0648_u0636_u064a_u062d u0020 u0647_u0630_u0647 u0020 u0627_u0644_u062e_u0627_u0635_u064a_u0629 u0020 u0645_u0646 u0020 u062e_u0644_u0627_u0644 u0020 u062a_u0648_u0636_u064a_u062d u0020 u062a_u0623_u064a_u0646 u0020 u0627_u0644_u0623_u062d_u0645_u0627_u0636 u0020 u0627_u0644_u0623_u0645_u064a_u0646_u064a_u0629 u0020 u0623_u0648 u0020 u062a_u0634_u0631_u062f_u0647_u0627_u0020", 
        "u0643_u0645_u0627 u0020 u0641_u064a u0020 u0627_u0644_u0645_u0639_u0627_u062f_u0644_u0629"
    ]
}