{
    "bounding_box": [
        [
            53, 
            90, 
            613, 
            54
        ], 
        [
            488, 
            157, 
            166, 
            24
        ], 
        [
            50, 
            193, 
            604, 
            24
        ], 
        [
            89, 
            219, 
            565, 
            27
        ], 
        [
            98, 
            247, 
            556, 
            27
        ], 
        [
            95, 
            276, 
            559, 
            26
        ], 
        [
            535, 
            304, 
            120, 
            25
        ], 
        [
            467, 
            337, 
            188, 
            24
        ], 
        [
            80, 
            373, 
            575, 
            25
        ], 
        [
            44, 
            402, 
            610, 
            25
        ], 
        [
            45, 
            428, 
            609, 
            27
        ], 
        [
            401, 
            456, 
            253, 
            26
        ]
    ], 
    "image_height": 540, 
    "image_width": 720, 
    "transcription": [
        "u0645_u0631_u0627_u062d_u0644 u0020 u0627_u0644_u0646_u0645_u0648 u0020 u062a_u0628_u0639_u0627_u064b u0020 u0644_u0644_u062c_u0627_u0646_u0628 u0020 u0627_u0644_u0633_u064a_u0643_u0648_u062f_u064a_u0646_u0627_u0645_u0649", 
        "u0031_u002d u0020 u0627_u0644_u0645_u0631_u062d_u0644_u0629 u0020 u0627_u0644_u0641_u0645_u064a_u0629_u003a_u000d", 
        "u0648_u062a_u0645_u062a_u062f u0020 u0647_u0630_u0647 u0020 u0627_u0644_u0645_u0631_u062d_u0644_u0629 u0020 u0645_u0646 u0020 u0644_u062d_u0638_u0629 u0020 u0627_u0644_u0645_u064a_u0644_u0627_u062f u0020 u062d_u062a_u0649 u0020 u0627_u0644_u0634_u0647_u0631 u0020 u0627_u0644_u062b_u0627_u0645_u0646 u0020 u0639_u0634_u0631 u0020 u002c u0020 u0648_u064a_u0639_u062a_u0628_u0631 u0020 u0627_u0644_u0641_u0645_u0020", 
        "u0647_u0648 u0020 u0645_u0635_u062f_u0631 u0020 u0627_u0644_u0644_u0630_u0647 u0020 u0627_u0644_u0644_u0628_u064a_u062f_u064a_u0629 u0020 u002c u0020 u0648_u062a_u0633_u0645_u0649 u0020 u0628_u0627_u0644_u0645_u0631_u062d_u0644_u0629 u0020 u0627_u0644_u0645_u0635_u064a_u0629 u0020 u0623_u0649 u0020 u062a_u0643_u0648_u0646 u0020 u0627_u0644_u0644_u0630_u0647 u0020 u0647_u0649_u0020", 
        "u0627_u0644_u0645_u0635 u0020 u0641_u064a u0020 u0627_u0644_u062b_u062f_u0649 u0020 u002c u0020 u0648_u064a_u062a_u0639_u0644_u0645 u0020 u0627_u0644_u0637_u0641_u0644 u0020 u062e_u0644_u0627_u0644 u0020 u0647_u0630_u0647 u0020 u0627_u0644_u0645_u0631_u062d_u0644_u0629 u0020 u0623_u0646_u0647 u0020 u0645_u062d_u062f_u0648_u062f u0020 u0627_u0644_u0642_u062f_u0631_u0629_u0020", 
        "u0628_u0627_u0644_u0646_u0633_u0628_u0629 u0020 u0644_u0644_u0639_u0627_u0644_u0645 u0020 u0645_u0646 u0020 u062d_u0648_u0644_u0647 u0020 u0627_u0644_u0623_u0645_u0631 u0020 u0627_u0644_u0630_u0649 u0020 u064a_u0646_u0639_u0643_u0633 u0020 u0645_u0646 u0020 u062e_u0644_u0627_u0644 u0020 u0639_u0644_u0627_u0642_u062a_u0647 u0020 u0628_u0627_u0644_u0648_u0627_u0644_u062f_u064a_u0646_u0020", 
        "u0648_u062e_u0627_u0635_u0629 u0020 u0627_u0644_u0623_u0645 u0020 u002e_u000d", 
        "u0032_u002d u0020 u0627_u0644_u0645_u0631_u062d_u0644_u0629 u0020 u0627_u0644_u0634_u0631_u062c_u064a_u0629_u003a_u000d", 
        "u0648_u0647_u0649 u0020 u062a_u0633_u062a_u0645_u0631 u0020 u0645_u0646 u0020 u0627_u0644_u0634_u0647_u0631 u0020 u0627_u0644_u062b_u0627_u0645_u0646 u0020 u0639_u0634_u0631 u0020 u062d_u062a_u0649 u0020 u0646_u0647_u0627_u064a_u0629 u0020 u0627_u0644_u0633_u0646_u0629 u0020 u0627_u0644_u062b_u0627_u0644_u062b_u0629 u0020 u0645_u0646 u0020 u0627_u0644_u0639_u0645_u0631 u0020 u002c_u0020", 
        "u0648_u0641_u064a_u0647_u0627 u0020 u062a_u0643_u0648_u0646 u0020 u0627_u0644_u0644_u0630_u0647 u0020 u0641_u064a u0020 u0645_u0646_u0637_u0642_u0629 u0020 u0627_u0644_u0634_u0631_u062c u0020 u0648_u0639_u0636_u0644_u0627_u062a u0020 u0627_u0644_u062c_u0647_u0627_u0632 u0020 u0627_u0644_u0628_u0648_u0644_u0649 u0020 u002c u0020 u0648_u062d_u062c_u0632 u0020 u0639_u0645_u0648_u062f_u0020", 
        "u0627_u0644_u0628_u0631_u0627_u0632 u0020 u002c u0020 u0648_u062e_u0644_u0627_u0644 u0020 u0647_u0630_u0647 u0020 u0627_u0644_u0645_u0631_u062d_u0644_u0629 u0020 u064a_u062a_u0639_u0644_u0645 u0020 u0627_u0644_u0637_u0641_u0644 u0020 u0627_u0644_u062a_u0623_u062c_u064a_u0644 u0020 u0623_u0648 u0020 u0627_u0644_u062a_u0639_u062c_u064a_u0644 u0020 u0644_u0625_u0634_u0628_u0627_u0639 u0020 u062f_u0648_u0627_u0641_u0639_u0647_u0020", 
        "u0627_u0644_u063a_u0631_u064a_u0632_u064a_u0629 u0020 u0645_u0646 u0020 u062e_u0644_u0627_u0644 u0020 u0633_u0644_u0648_u0643 u0020 u0627_u0644_u0623_u0645 u0020 u002e"
    ]
}