{
    "bounding_box": [
        [
            253, 
            36, 
            212, 
            30
        ], 
        [
            245, 
            79, 
            229, 
            25
        ]
    ], 
    "image_height": 540, 
    "image_width": 720, 
    "transcription": [
        "u0020 u0020 u0627_u0644_u0645_u0634_u0631_u0648_u0639_u003a u0020 u0645_u0632_u0645_u0640_u0640_u0627_u0631_u000d", 
        "u0645_u062f_u0631_u0633_u0629 u0020 u0639_u0645_u0631 u0020 u062d_u0645_u062f u0020 u002d u0020 u0635_u0648_u0631_u000d"
    ]
}