{
    "bounding_box": [
        [
            237, 
            128, 
            400, 
            50
        ], 
        [
            299, 
            180, 
            338, 
            52
        ]
    ], 
    "image_height": 540, 
    "image_width": 720, 
    "transcription": [
        "u0645_u0624_u0633_u0633 u0020 u062c_u0645_u0627_u0639_u0629_u0020", 
        "u0627_u0644_u0627_u062f_u0641_u0646_u062a_u0633_u062a u0020 u003a u0020 u000b"
    ]
}