{
    "bounding_box": [
        [
            12, 
            32, 
            660, 
            47
        ], 
        [
            12, 
            85, 
            675, 
            47
        ], 
        [
            12, 
            142, 
            675, 
            41
        ], 
        [
            12, 
            193, 
            675, 
            43
        ], 
        [
            12, 
            243, 
            675, 
            47
        ], 
        [
            12, 
            298, 
            675, 
            45
        ], 
        [
            12, 
            349, 
            675, 
            45
        ], 
        [
            12, 
            402, 
            675, 
            47
        ], 
        [
            241, 
            454, 
            447, 
            47
        ]
    ], 
    "image_height": 540, 
    "image_width": 720, 
    "transcription": [
        "u0648_u062a_u0623_u062a_u064a u0020 u0628_u0639_u0636 u0020 u0627_u0644_u0631_u0648_u0627_u064a_u0627_u062a u0020 u0644_u062a_u062e_u0628_u0631_u0646_u0627 u0020 u0628_u0623_u0646_u0647 u0020 u0641_u064a u0020 u0627_u0644_u0645_u0639_u0631_u0643_u0629_u0020", 
        "u0627_u0644_u0623_u062e_u064a_u0631_u0629 u0020 u0627_u0644_u062a_u064a u0020 u0628_u062f_u0623_u062a u0020 u0641_u064a u0020 u064a_u0648_u0645 u0020 u0627_u0644_u062c_u0645_u0639_u0629_u060c u0020 u0623_u0648_u0634_u0643_u0020", 
        "u0627_u0644_u064a_u0647_u0648_u062f u0020 u0639_u0644_u0649 u0020 u062a_u062d_u0642_u064a_u0642 u0020 u0627_u0644_u0627_u0646_u062a_u0635_u0627_u0631_u060c u0020 u0644_u0643_u0646 u0020 u0627_u0644_u0634_u0645_u0633_u0020", 
        "u0642_u0627_u0631_u0628_u062a u0020 u0639_u0644_u0649 u0020 u0627_u0644_u0645_u063a_u064a_u0628 u0020 u002d_u0648_u0643_u0627_u0646 u0020 u0627_u0644_u064a_u0647_u0648_u062f u0020 u0644_u0627 u0020 u064a_u0639_u0645_u0644_u0648_u0646 u0020 u0648_u0644_u0627_u0020", 
        "u064a_u062d_u0627_u0631_u0628_u0648_u0646 u0020 u064a_u0648_u0645 u0020 u0627_u0644_u0633_u0628_u062a_u002d u0020 u0641_u062e_u0634_u0649 u0020 u064a_u0648_u0634_u0639 u0020 u0628_u0646 u0020 u0646_u0648_u0646 u0020 u0623_u0646_u0020", 
        "u064a_u0630_u0647_u0628 u0020 u0627_u0644_u0646_u0635_u0631_u002e u0020 u0641_u0646_u0638_u0631 u0020 u064a_u0648_u0634_u0639 u0020 u0625_u0644_u0649 u0020 u0627_u0644_u0634_u0645_u0633 u0020 u0648_u0642_u0627_u0644_u003a_u0020", 
        "u0022_u0625_u0646_u0643 u0020 u0645_u0623_u0645_u0648_u0631_u0629_u060c u0020 u0648_u0623_u0646_u0627 u0020 u0645_u0623_u0645_u0648_u0631_u060c u0020 u0627_u0644_u0644_u0647_u0645 u0020 u0627_u062d_u0628_u0633_u0647_u0627_u0020", 
        "u0639_u0644_u064a_u0022_u002e u0020 u0641_u062a_u0648_u0642_u0641_u062a u0020 u0627_u0644_u0634_u0645_u0633 u0020 u0645_u0643_u0627_u0646_u0647_u0627_u060c u0020 u0648_u0638_u0644_u062a u0020 u0648_u0627_u0642_u0641_u0629_u0020", 
        "u0625_u0644_u0649 u0020 u0623_u0646 u0020 u0641_u062a_u062d u0020 u0628_u064a_u062a u0020 u0627_u0644_u0645_u0642_u062f_u0633 u0020 u0648_u062f_u062e_u0644_u0647_u002e"
    ]
}