{
    "bounding_box": [
        [
            18, 
            25, 
            688, 
            35
        ], 
        [
            591, 
            64, 
            115, 
            35
        ], 
        [
            18, 
            115, 
            688, 
            36
        ], 
        [
            18, 
            156, 
            688, 
            33
        ], 
        [
            362, 
            195, 
            344, 
            36
        ], 
        [
            18, 
            244, 
            688, 
            37
        ], 
        [
            18, 
            284, 
            688, 
            38
        ], 
        [
            166, 
            324, 
            539, 
            39
        ], 
        [
            18, 
            367, 
            688, 
            45
        ], 
        [
            18, 
            414, 
            688, 
            39
        ], 
        [
            486, 
            456, 
            219, 
            37
        ]
    ], 
    "image_height": 540, 
    "image_width": 720, 
    "transcription": [
        "u0627_u0644_u063a_u0631_u0636 u0020 u0645_u0646 u0020 u0627_u0639_u062a_u0645_u0627_u062f u0020 u0627_u0644_u0642_u0648_u0627_u0639_u062f u0020 u0627_u0644_u0645_u0648_u062d_u062f_u0629 u0020 u0628_u0634_u0623_u0646 u0020 u062a_u0643_u0627_u0641_u0624 u0020 u0627_u0644_u0641_u0631_u0635_u0020", 
        "u0644_u0644_u0645_u0639_u0648_u0642_u064a_u0646_u003a_u000d", 
        "u002d u0020 u0627_u0644_u062a_u0623_u0643_u064a_u062f u0020 u0639_u0644_u0649 u0020 u0623_u0646 u0020 u062c_u0645_u064a_u0639 u0020 u0627_u0644_u0625_u062c_u0631_u0627_u0621_u0627_u062a u0020 u0627_u0644_u0645_u062a_u062e_u0630_u0629 u0020 u0641_u064a u0020 u0645_u062c_u0627_u0644 u0020 u0627_u0644_u0639_u062c_u0632_u0020", 
        "u062a_u0641_u062a_u0631_u0636 u0020 u0645_u0633_u0628_u0642_u0627 u0020 u0648_u062c_u0648_u062f u0020 u0645_u0639_u0631_u0641_u0629 u0020 u0648_u062e_u0628_u0631_u0629 u0020 u0643_u0627_u0641_u064a_u062a_u064a_u0646 u0020 u0628_u0638_u0631_u0648_u0641 u0020 u0627_u0644_u0623_u0634_u062e_u0627_u0635_u0020", 
        "u0627_u0644_u0645_u0639_u0648_u0642_u064a_u0646 u0020 u0648_u0627_u062d_u062a_u064a_u0627_u062c_u0627_u062a_u0647_u0645 u0020 u0627_u0644_u062e_u0627_u0635_u0629_u061b_u000d", 
        "u002d u0020 u0627_u0644_u062a_u0634_u062f_u064a_u062f u0020 u0639_u0644_u0649 u0020 u0623_u0646 u0020 u0627_u0644_u0639_u0645_u0644_u064a_u0629 u0020 u0627_u0644_u062a_u064a u0020 u064a_u062a_u062d_u0642_u0642 u0020 u0645_u0646 u0020 u062e_u0644_u0627_u0644_u0647_u0627 u0020 u062c_u0639_u0644 u0020 u0627_u0644_u062a_u0646_u0638_u064a_u0645_u0020", 
        "u0627_u0644_u0645_u062c_u062a_u0645_u0639_u064a_u060c u0020 u0628_u0645_u062e_u062a_u0644_u0641 u0020 u062c_u0648_u0627_u0646_u0628_u0647_u060c u0020 u0641_u064a u0020 u0645_u062a_u0646_u0627_u0648_u0644 u0020 u0627_u0644_u062c_u0645_u064a_u0639_u060c u0020 u062a_u0634_u0643_u0644 u0020 u0647_u062f_u0641_u0627_u0020", 
        "u0623_u0633_u0627_u0633_u064a_u0627 u0020 u0645_u0646 u0020 u0623_u0647_u062f_u0627_u0641 u0020 u0627_u0644_u062a_u0646_u0645_u064a_u0629 u0020 u0627_u0644_u0627_u062c_u062a_u0645_u0627_u0639_u064a_u0629 u0020 u0627_u0644_u0627_u0642_u062a_u0635_u0627_u062f_u064a_u0629_u061b_u000d", 
        "u002d u0020 u0625_u0628_u0631_u0627_u0632 u0020 u0627_u0644_u062c_u0648_u0627_u0646_u0628 u0020 u0627_u0644_u062d_u0627_u0633_u0645_u0629 u0020 u0644_u0644_u0633_u064a_u0627_u0633_u0627_u062a u0020 u0627_u0644_u0627_u062c_u062a_u0645_u0627_u0639_u064a_u0629 u0020 u0641_u064a u0020 u0645_u062c_u0627_u0644_u0020", 
        "u0627_u0644_u0639_u062c_u0632_u060c u0020 u0628_u0645_u0627 u0020 u0641_u064a u0020 u0630_u0644_u0643_u060c u0020 u0639_u0646_u062f u0020 u0627_u0644_u0627_u0642_u062a_u0636_u0627_u0621_u060c u0020 u0627_u0644_u062a_u0634_u062c_u064a_u0639 u0020 u0627_u0644_u0625_u064a_u062c_u0627_u0628_u064a u0020 u0644_u0644_u062a_u0639_u0627_u0648_u0646_u0020", 
        "u0627_u0644_u062a_u0642_u0646_u064a u0020 u0648_u0627_u0644_u0627_u0642_u062a_u0635_u0627_u062f_u064a_u061b_u000d"
    ]
}