{
    "bounding_box": [
        [
            341, 
            62, 
            297, 
            38
        ], 
        [
            128, 
            157, 
            512, 
            30
        ], 
        [
            53, 
            188, 
            588, 
            35
        ], 
        [
            111, 
            224, 
            529, 
            35
        ], 
        [
            540, 
            261, 
            100, 
            34
        ]
    ], 
    "image_height": 540, 
    "image_width": 720, 
    "transcription": [
        "u0645_u0627 u0020 u0647_u0648 u0020 u0641_u0646 u0020 u0627_u0644_u0628_u0627_u0643_u062a_u061f", 
        "u0648_u0647_u0648 u0020 u0645_u0646 u0020 u0627_u0644_u0641_u0646_u0648_u0646 u0020 u0627_u0644_u062a_u064a u0020 u062a_u062e_u062a_u0635 u0020 u0628_u0647_u0627 u0020 u0642_u0628_u064a_u0644_u0629_u0020", 
        "u0028_u0627_u0644_u0639_u062c_u0645_u0029 u0020 u0641_u064a u0020 u0648_u0644_u0627_u064a_u062a_u064a u0020 u0635_u062d_u0627_u0631 u0020 u0648_u0635_u062d_u0645_u002e u0020 u0648_u064a_u0646_u0642_u0633_u0645_u0020", 
        "u0625_u0644_u0649 u0020 u0642_u0633_u0645_u064a_u0646_u003a u0020 u0028_u0627_u0644_u0628_u0627_u0643_u062a u0020 u0639_u0631_u0627_u0626_u0633_u002e u0020 u0648_u0627_u0644_u0628_u0627_u0643_u062a_u0020", 
        "u062a_u0645_u062b_u064a_u0644_u0029_u002e"
    ]
}