{
    "bounding_box": [
        [
            176, 
            31, 
            346, 
            33
        ], 
        [
            134, 
            131, 
            555, 
            29
        ], 
        [
            228, 
            162, 
            461, 
            29
        ], 
        [
            56, 
            194, 
            626, 
            27
        ], 
        [
            262, 
            227, 
            427, 
            27
        ], 
        [
            380, 
            259, 
            309, 
            24
        ], 
        [
            437, 
            289, 
            252, 
            27
        ], 
        [
            182, 
            317, 
            500, 
            30
        ], 
        [
            147, 
            84, 
            391, 
            33
        ], 
        [
            159, 
            367, 
            370, 
            35
        ], 
        [
            55, 
            419, 
            638, 
            29
        ], 
        [
            419, 
            454, 
            282, 
            22
        ], 
        [
            125, 
            485, 
            569, 
            26
        ]
    ], 
    "image_height": 540, 
    "image_width": 720, 
    "transcription": [
        "u0642_u0633_u0637_u0646_u0637_u064a_u0646 u0020 u0648_u0627_u0644_u0625_u0639_u062a_u0631_u0627_u0641 u0020 u0628_u0627_u0644_u0645_u0633_u064a_u062d_u064a_u0629_u0020", 
        "u002d u0020 u0623_u0639_u062c_u0628 u0020 u0627_u0644_u0627_u0645_u0628_u0631_u0627_u0637_u0648_u0631 u0020 u0642_u0633_u0637_u0646_u0637_u064a_u0646 u0020 u0628_u0627_u0644_u0645_u0633_u064a_u062d_u064a_u0629 u0020 u0644_u0627_u062d_u062a_u0648_u0627_u0626_u0647_u0627 u0020 u0639_u0644_u0649 u0020 u0627_u0644_u0641_u0644_u0633_u0641_u0629_u002e u0020 u000d", 
        "u002d u0020 u0623_u0635_u062f_u0631 u0020 u0645_u0631_u0633_u0648_u0645 u0020 u0645_u064a_u0644_u0627_u0646 u0020 u0033_u0031_u0033 u0020 u0645_u0640 u0020 u201d_u062f_u064a_u0646 u0020 u0627_u0644_u062f_u0648_u0644_u0629 u0020 u0627_u0644_u0631_u0633_u0645_u064a_u201c u0020 u000d", 
        "u002d u0020 u0622_u0645_u0646_u062a u0020 u0623_u0645_u0647 u0020 u0627_u0644_u0623_u0645_u064a_u0631_u0629 u0020 u0647_u064a_u0644_u0627_u0646_u0647 u0020 u0628_u0627_u0644_u0645_u0633_u064a_u062d_u064a_u0629 u0020 u0648_u0632_u0627_u0631_u062a u0020 u0641_u0644_u0633_u0637_u064a_u0646 u0020 u0648_u0642_u0627_u0645_u062a u0020 u0628_u0628_u0646_u0627_u0621 u0020 u0627_u0644_u0643_u0646_u0627_u0626_u0633_u0020", 
        "u0641_u064a_u0647_u0627_u003a u0020 u0643_u0646_u064a_u0633_u0629 u0020 u0627_u0644_u0636_u0631_u064a_u062d u0020 u0627_u0644_u0645_u0642_u062f_u0633 u0020 u2013_u0627_u0644_u0642_u064a_u0627_u0645_u0629 u0020 u0641_u064a u0020 u0627_u0644_u0642_u062f_u0633_u002e u0020 u000d", 
        "u002d u0020 u0643_u0646_u064a_u0633_u0629 u0020 u0627_u0644_u0635_u0639_u0648_u062f u0020 u0641_u0648_u0642 u0020 u062c_u0628_u0644 u0020 u0627_u0644_u0632_u064a_u062a_u0648_u0646_u002e u0020 u000d", 
        "u002d u0020 u0643_u0646_u064a_u0633_u0629 u0020 u0627_u0644_u0645_u064a_u0644_u0627_u062f u0020 u0641_u064a u0020 u0628_u064a_u062a u0020 u0644_u062d_u0645_u002e u0020 u000d", 
        "u002d u0020 u062f_u062e_u0644 u0020 u0623_u0647_u0644 u0020 u0641_u0644_u0633_u0637_u064a_u0646 u0020 u0641_u064a u0020 u0627_u0644_u0645_u0633_u064a_u062d_u064a_u0629 u0020 u062d_u062a_u0649 u0020 u062c_u0627_u0621 u0020 u0627_u0644_u0625_u0633_u0644_u0627_u0645 u0020 u0036_u0033_u0036 u0020 u0645_u0640_u0020", 
        "u062f_u064a_u0646 u0020 u0627_u0644_u062f_u0648_u0644_u0629 u0020 u0627_u0644_u0631_u0633_u0645_u064a u0020 u002d u0020 u0645_u0631_u0633_u0648_u0645 u0020 u0645_u064a_u0644_u0627_u0646 u0020 u002d u0020 u0020", 
        "u0646_u0647_u0627_u064a_u0629 u0020 u0627_u0644_u0648_u062c_u0648_u062f u0020 u0627_u0644_u064a_u0647_u0648_u062f_u064a u0020 u0641_u064a u0020 u0641_u0644_u0633_u0637_u064a_u0646_u0020", 
        "u002d u0020 u062d_u0643_u0645 u0020 u0627_u0644_u0631_u0648_u0645_u0627_u0646 u0020 u0641_u0644_u0633_u0637_u064a_u0646 u0020 u062d_u0643_u0645_u0627 u0020 u0645_u0628_u0627_u0634_u0631_u0627 u0020 u0645_u0646_u0630 u0020 u0036 u0020 u0645_u0640 u0020 u0628_u0639_u062f u0020 u062e_u0644_u0639 u0020 u0623_u0631_u062e_u064a_u0644_u064a_u0648_u0633 u0020 u0627_u0644_u0630_u064a u0020 u062c_u0627_u0621_u0020", 
        "u0628_u0639_u062f u0020 u0648_u0627_u0644_u062f_u0647 u0020 u0647_u064a_u0631_u0648_u062f_u0633 u0020 u0644_u0633_u0648_u0621 u0020 u062d_u0643_u0645_u0647_u002e u0020 u000d", 
        "u002d u0020 u0641_u064a u0020 u0639_u0647_u062f u0020 u0628_u064a_u0644_u0627_u0637_u0633 u0020 u0627_u0644_u0628_u0646_u0637_u064a u0020 u062d_u062f_u062b_u062a u0020 u0648_u0642_u0627_u0626_u0639 u0020 u0627_u0644_u0633_u064a_u062f u0020 u0627_u0644_u0645_u0633_u064a_u062d u0020 u0028_u0032_u0036 u0020 u2013 u0020 u0033_u0036 u0020 u0645_u0029_u0020"
    ]
}