{
    "bounding_box": [
        [
            259, 
            49, 
            200, 
            47
        ], 
        [
            95, 
            180, 
            580, 
            29
        ], 
        [
            97, 
            213, 
            579, 
            28
        ], 
        [
            69, 
            246, 
            607, 
            29
        ], 
        [
            84, 
            277, 
            592, 
            32
        ], 
        [
            467, 
            313, 
            209, 
            28
        ], 
        [
            670, 
            516, 
            6, 
            1
        ]
    ], 
    "image_height": 540, 
    "image_width": 720, 
    "transcription": [
        "u0031_u002e u0020 u0627_u0644_u0625_u0637_u0627_u0631 u0020 u0627_u0644_u0639_u0627_u0645", 
        "u0648_u0643_u0639_u0646_u0635_u0631 u0020 u0647_u0627_u0645 u0020 u0020_u064a_u0628_u0646_u0649 u0020 u0639_u0644_u064a_u0647 u0020 u062a_u062d_u0644_u064a_u0644 u0020 u0627_u0644_u0646_u0648_u0639 u0020 u0627_u0644_u0625_u062c_u062a_u0645_u0627_u0639_u064a u0020 u0641_u0625_u0646 u0020 u0627_u0644_u0625_u062d_u0635_u0627_u0626_u064a_u0627_u062a_u0020", 
        "u0627_u0644_u0645_u062a_u0639_u0644_u0642_u0629 u0020 u0628_u0647_u0630_u0627 u0020 u0627_u0644_u0645_u062c_u0627_u0644 u0020 u0623_u0635_u0628_u062d_u062a u0020 u062a_u062b_u064a_u0631 u0020 u0627_u0647_u062a_u0645_u0627_u0645 u0020 u0643_u0644 u0020 u0627_u0644_u0645_u062a_u062f_u062e_u0644_u064a_u0646 u0020 u0623_u0643_u062b_u0631 u0020 u0641_u0623_u0643_u062b_u0631_u0020", 
        "u0648_u0639_u0644_u0649 u0020 u0647_u0630_u0627 u0020 u0627_u0644_u0623_u0633_u0627_u0633 u0020 u0638_u0644 u0020 u0627_u0644_u0645_u0639_u0647_u062f u0020 u0627_u0644_u0648_u0637_u0646_u064a u0020 u0644_u0644_u0625_u062d_u0635_u0627_u0621 u0020 u0645_u0646_u062f_u0645_u062c_u0627 u0020 u0628_u0635_u0641_u0629 u0020 u062c_u0632_u0626_u064a_u0629_u0020", 
        "u0641_u064a u0020 u0645_u062e_u062a_u0644_u0641 u0020 u0627_u0644_u0646_u0634_u0627_u0637_u0627_u062a u0020 u062d_u0648_u0644 u0020 u0647_u0630_u0627 u0020 u0627_u0644_u0645_u0648_u0636_u0648_u0639 u0020 u0645_u0639 u0020 u0623_u0646_u0647 u0020 u0645_u0646 u0020 u0627_u0644_u0636_u0631_u0648_u0631_u064a u0020 u0623_u0646_u0020", 
        "u064a_u0643_u0648_u0646 u0020 u0641_u0627_u0639_u0644_u0627 u0020 u0623_u0633_u0627_u0633_u064a_u0627 u0020 u0641_u064a_u0647 u0020 u0020", 
        "u0034"
    ]
}