{
    "bounding_box": [
        [
            30, 
            57, 
            653, 
            37
        ], 
        [
            468, 
            98, 
            215, 
            35
        ], 
        [
            30, 
            144, 
            653, 
            36
        ], 
        [
            553, 
            190, 
            130, 
            28
        ], 
        [
            30, 
            230, 
            653, 
            36
        ], 
        [
            526, 
            274, 
            157, 
            31
        ], 
        [
            30, 
            315, 
            653, 
            37
        ], 
        [
            260, 
            359, 
            424, 
            36
        ], 
        [
            30, 
            402, 
            653, 
            38
        ], 
        [
            581, 
            451, 
            102, 
            28
        ]
    ], 
    "image_height": 540, 
    "image_width": 720, 
    "transcription": [
        "u002d u0020 u062a_u0646_u0634_u0626_u062a_u0647 u0020 u0639_u0644_u0649 u0020 u062a_u0639_u0638_u064a_u0645 u0020 u0627_u0644_u0634_u0639_u0627_u0626_u0631 u0020 u0627_u0644_u062f_u064a_u0646_u064a_u0629 u0020 u0648 u0020 u062a_u0639_u0631_u064a_u0641_u0647 u0020 u0628_u0628_u0639_u0636_u0020", 
        "u0623_u062d_u0643_u0627_u0645_u0647_u0627 u0020 u0648 u0020 u062d_u0643_u0645_u0647_u0627_u002e_u000d", 
        "u002d u0020 u062c_u0639_u0644_u0647 u0020 u064a_u062f_u0631_u0643 u0020 u0642_u064a_u0645_u0629 u0020 u0627_u0644_u0648_u0642_u062a u0020 u0648 u0020 u0645_u0646 u0020 u062b_u0645 u0020 u0627_u0644_u062d_u0631_u0635 u0020 u0639_u0644_u0649_u0020", 
        "u0627_u0633_u062a_u062b_u0645_u0627_u0631_u0647 u0020 u002e_u000d", 
        "u002d u0020 u063a_u0631_u0633 u0020 u0645_u062d_u0628_u0629 u0020 u0627_u0644_u0631_u0633_u0648_u0644 u0020 u0635_u0644_u0649 u0020 u0627_u0644_u0644_u0647 u0020 u0639_u0644_u064a_u0647 u0020 u0648_u0633_u0644_u0645 u0020 u0641_u064a u0020 u0646_u0641_u0633_u0647 u0020 u0648 u0020 u0627_u0644_u062d_u0631_u0635 u0020 u0639_u0644_u0649_u0020", 
        "u0627_u0644_u0627_u0642_u062a_u062f_u0627_u0621 u0020 u0628_u0647 u0020 u002e u0020 u000d", 
        "u002d u0020 u0627_u0644_u0648_u0642_u0648_u0641 u0020 u0639_u0644_u0649 u0020 u0645_u062d_u0637_u0627_u062a u0020 u0645_u062e_u062a_u0627_u0631_u0629 u0020 u0645_u0646 u0020 u0633_u064a_u0631_u0629 u0020 u0627_u0644_u0646_u0628_u064a u0020 u0635_u0644_u0649 u0020 u0627_u0644_u0644_u0647_u0020", 
        "u0639_u0644_u064a_u0647 u0020 u0648_u0633_u0644_u0645 u0020 u0648 u0020 u064a_u062c_u0639_u0644_u0647_u0627 u0020 u0642_u062f_u0648_u0629 u0020 u062d_u0633_u0646_u0629 u0020 u0644_u0647_u002e_u000d", 
        "u002d u0020 u062c_u0639_u0644_u0647 u0020 u064a_u062a_u0645_u0633_u0643 u0020 u0628_u0627_u0644_u0623_u062e_u0644_u0627_u0642 u0020 u0627_u0644_u0641_u0627_u0636_u0644_u0629 u0020 u0648 u0020 u0645_u062a_u0641_u0627_u0639_u0644_u0627 u0020 u0645_u0639 u0020 u0645_u062d_u064a_u0637_u0647_u0020", 
        "u0627_u064a_u062c_u0627_u0628_u064a_u0627 u0020 u002e_u0020"
    ]
}