{
    "bounding_box": [
        [
            420, 
            39, 
            261, 
            42
        ], 
        [
            491, 
            110, 
            191, 
            30
        ], 
        [
            577, 
            157, 
            86, 
            25
        ], 
        [
            508, 
            196, 
            156, 
            26
        ], 
        [
            402, 
            235, 
            262, 
            29
        ], 
        [
            265, 
            275, 
            399, 
            29
        ], 
        [
            278, 
            314, 
            385, 
            30
        ], 
        [
            229, 
            355, 
            434, 
            29
        ], 
        [
            489, 
            398, 
            175, 
            27
        ], 
        [
            363, 
            436, 
            300, 
            28
        ]
    ], 
    "image_height": 540, 
    "image_width": 720, 
    "transcription": [
        "u0627_u062f_u0627_u0631_u0629 u0020 u0628_u0631_u0646_u0627_u0645_u062c u0020 u0627_u0644_u062a_u062f_u0642_u064a_u0642", 
        "u0036 u0020 u002e_u0627_u0646_u0634_u0637_u0629 u0020 u0627_u0644_u062a_u062f_u0642_u064a_u0642_u000d", 
        "u0036_u002e_u0031 u0020 u0639_u0627_u0645_u000d", 
        "u0036_u002e_u0032 u0020 u0628_u062f_u0621 u0020 u0627_u0644_u062a_u062f_u0642_u064a_u0642_u000d", 
        "u0036_u002e_u0033 u0020 u0627_u0644_u0642_u064a_u0627_u0645 u0020 u0628_u0645_u0631_u0627_u062c_u0639_u0629 u0020 u0627_u0644_u0648_u062b_u0627_u0626_u0642 u0020 u000d", 
        "u0036_u002e_u0034 u0020 u0627_u0644_u0627_u0639_u062f_u0627_u062f u0020 u0644_u0627_u0646_u0634_u0637_u0629 u0020 u062a_u062f_u0642_u064a_u0642 u0020 u0639_u0644_u0649 u0020 u0645_u0648_u0642_u0639 u0020 u0627_u0644_u0639_u0645_u0644_u000d", 
        "u0036_u002e_u0035 u0020 u0627_u0644_u0642_u064a_u0627_u0645 u0020 u0628_u0627_u0646_u0634_u0637_u0629 u0020 u062a_u062f_u0642_u064a_u0642 u0020 u0639_u0644_u0649 u0020 u0645_u0648_u0642_u0639 u0020 u0627_u0644_u0639_u0645_u0644_u000d", 
        "u0036_u002e_u0036 u0020 u0627_u0644_u0627_u0639_u062f_u0627_u062f u0020 u0648_u0627_u0644_u0645_u0648_u0627_u0641_u0642_u0629 u0020 u0648_u0627_u0644_u062a_u0648_u0632_u064a_u0639 u0020 u0644_u062a_u0642_u0627_u0631_u064a_u0631 u0020 u0627_u0644_u062a_u062f_u0642_u064a_u0642_u000d", 
        "u0036_u002e_u0037 u0020 u0627_u062a_u0645_u0627_u0645 u0020 u0627_u0644_u062a_u062f_u0642_u064a_u0642 u0020 u000d", 
        "u0036_u002e_u0038 u0020 u0627_u0644_u0642_u064a_u0627_u0645 u0020 u0628_u0627_u0644_u0645_u062a_u0627_u0628_u0639_u0629 u0020 u0639_u0644_u0649 u0020 u0627_u0644_u062a_u062f_u0642_u064a_u0642_u000d"
    ]
}