{
    "bounding_box": [
        [
            82, 
            78, 
            512, 
            31
        ], 
        [
            66, 
            114, 
            527, 
            29
        ], 
        [
            117, 
            295, 
            383, 
            32
        ], 
        [
            174, 
            358, 
            304, 
            31
        ], 
        [
            311, 
            207, 
            59, 
            30
        ]
    ], 
    "image_height": 540, 
    "image_width": 720, 
    "transcription": [
        "u0627_u0644_u0641_u0639_u0644 u0020 u0627_u0644_u0630_u064a u0020 u064a_u0646_u0635_u0628 u0020 u0627_u0644_u0645_u0641_u0639_u0648_u0644 u0020 u0628_u0647 u0020 u064a_u064f_u0639_u0631_u0641 u0020 u0628_u0627_u0644_u0641_u0639_u0644 u0020 u0627_u0644_u0645_u062a_u0639_u062f_u064a u0020 u060c u0020 u0623_u0645_u0627_u0020", 
        "u0627_u0644_u0641_u0639_u0644 u0020 u0627_u0644_u0630_u064a u0020 u0644_u0627 u0020 u064a_u0646_u0635_u0628 u0020 u0645_u0641_u0639_u0648_u0644_u0627_u064b u0020 u0628_u0647 u0020 u0641_u064a_u0639_u0631_u0641 u0020 u0628_u0627_u0644_u0641_u0639_u0644 u0020 u0627_u0644_u0644_u0627_u0632_u0645 u0020 u060c u0020 u0645_u062b_u0644 u0020 u003a", 
        "u0020_u0641_u0639_u0644 u0020 u0644_u0627_u0632_u0645 u0020 u003a u0020 u0020_u0630_u0647_u0628 u0020 u062e_u0627_u0644_u062f u0020 u0625_u0644_u0649 u0020 u0627_u0644_u0645_u062f_u0631_u0633_u0629 u0020 u002e", 
        "u0641_u0639_u0644 u0020 u0645_u062a_u0639_u062f_u064a u0020 u003a u0020 u0643_u062a_u0628 u0020 u0645_u062d_u0645_u062f u0020 u0627_u0644_u062f_u0631_u0633_u0020", 
        "u0645_u062b_u0627_u0644_u0020"
    ]
}