{
    "bounding_box": [
        [
            264, 
            173, 
            397, 
            45
        ], 
        [
            292, 
            237, 
            362, 
            24
        ], 
        [
            438, 
            266, 
            216, 
            29
        ], 
        [
            433, 
            300, 
            221, 
            24
        ], 
        [
            689, 
            520, 
            12, 
            7
        ], 
        [
            475, 
            520, 
            47, 
            9
        ]
    ], 
    "image_height": 540, 
    "image_width": 720, 
    "transcription": [
        "u0645_u0647_u0627_u0631_u062a_u0647_u0627_u06cc u0020 u067e_u06cc_u0634 u0020 u0627_u0632 u0020 u062a_u062f_u0631_u06cc_u0633", 
        "u0637_u0631_u0627_u062d_u06cc u0020 u0627_u0645_u0648_u0632_u0634_u06cc u0020 u0648 u0020 u062a_u0639_u06cc_u06cc_u0646 u0020 u0627_u0647_u062f_u0627_u0641 u0020 u0627_u0645_u0648_u0632_u0634_u06cc_u000d", 
        "u0686_u06af_u0648_u0646_u06af_u06cc u0020 u062a_u062d_u0644_u06cc_u0644 u0020 u0627_u0645_u0648_u0632_u0634_u06cc_u000d", 
        "u062a_u062d_u0644_u06cc_u0644 u0020 u0645_u062d_u062a_u0648_u0627 u0020 u0631_u0648_u0634 u0020 u0648_u0633_u06cc_u0644_u0647_u000d", 
        "u0031_u0035", 
        "u062f_u06a9_u062a_u0631 u0020 u0637_u0628_u0627_u0637_u0628_u0627_u06cc_u06cc"
    ]
}