{
    "bounding_box": [
        [
            36, 
            93, 
            439, 
            46
        ], 
        [
            320, 
            160, 
            334, 
            31
        ], 
        [
            102, 
            206, 
            552, 
            34
        ], 
        [
            434, 
            247, 
            220, 
            31
        ], 
        [
            67, 
            289, 
            588, 
            32
        ], 
        [
            181, 
            330, 
            473, 
            32
        ]
    ], 
    "image_height": 540, 
    "image_width": 720, 
    "transcription": [
        "u062d_u0633_u0627_u0633_u064a_u0629 u0020 u0627_u0644_u0635_u0646_u0627_u0639_u0627_u062a u0020 u0627_u0644_u062f_u0648_u0627_u0626_u064a_u0629", 
        "u0644_u0644_u0635_u0646_u0627_u0639_u0627_u062a u0020 u0627_u0644_u062f_u0648_u0627_u0626_u064a_u0629 u0020 u0623_u0647_u0645_u064a_u0629 u0020 u0643_u0628_u064a_u0631_u0629_u002e_u000d", 
        "u0645_u0646 u0020 u0627_u0644_u062d_u0642_u0627_u0626_u0642 u0020 u0627_u0644_u0623_u0633_u0627_u0633_u064a_u0629 u0020 u0641_u064a u0020 u0645_u062c_u0627_u0644 u0020 u0627_u0644_u0637_u0628 u0020 u0623_u0646 u0020 u064a_u0624_u062f_u064a u0020 u0627_u0644_u062f_u0648_u0627_u0621_u0020", 
        "u0627_u0644_u063a_u0631_u0636 u0020 u0627_u0644_u0645_u062a_u0648_u0642_u0639 u0020 u0645_u0646_u0647_u002e_u000d", 
        "u0647_u0646_u0627_u0643 u0020 u0625_u062d_u0635_u0627_u0621_u0627_u062a u0020 u0645_u0630_u0647_u0644_u0629 u0020 u0639_u0646 u0020 u0648_u0641_u064a_u0627_u062a u0020 u0646_u0627_u062c_u0645_u0629 u0020 u0639_u0646 u0020 u0623_u062e_u0637_u0627_u0621 u0020 u0637_u0628_u064a_u0629_u0020", 
        "u062a_u0639_u0632_u0649 u0020 u0644_u0625_u0633_u062a_u062e_u062f_u0627_u0645 u0020 u062f_u0648_u0627_u0621 u0020 u063a_u064a_u0631 u0020 u0645_u0637_u0627_u0628_u0642 u0020 u0644_u0644_u0645_u0648_u0627_u0635_u0641_u0627_u062a_u002e_u0020"
    ]
}