{
    "bounding_box": [
        [
            559, 
            33, 
            141, 
            32
        ], 
        [
            27, 
            31, 
            96, 
            12
        ], 
        [
            214, 
            64, 
            289, 
            71
        ], 
        [
            406, 
            193, 
            234, 
            43
        ], 
        [
            285, 
            300, 
            319, 
            42
        ], 
        [
            312, 
            404, 
            256, 
            43
        ], 
        [
            48, 
            508, 
            17, 
            7
        ]
    ], 
    "image_height": 540, 
    "image_width": 720, 
    "transcription": [
        "u0628_u0631_u0646_u0627_u0645_u062c u0020 u0627_u0644_u062a_u0631_u0628_u064a_u0629", 
        "u0052_u0065_u0063_u0061_u0070 u0020 u0032_u006e_u0064 u0020 u0020_u0057_u0065_u0065_u006b", 
        "u0645_u0627_u0631_u064a u0020 u0635_u062d_u0628_u0629", 
        "u0635_u062d_u0628_u0629 u0020 u0646_u064a u0020 u0627_u0647_u0645_u064a_u0629_u000d", 
        "u0627_u062d_u062d_u0647_u064a u0020 u0635_u062d_u0628_u0629 u0020 u0646_u0648 u0020 u0627_u062b_u0631 u0020 u000d", 
        "u0628_u0631_u064a u0020 u0635_u062d_u0628_u0629 u0020 u0646_u0648 u0020 u0627_u062b_u0631", 
        "u0032_u002e_u0030"
    ]
}