{
    "bounding_box": [
        [
            249, 
            93, 
            199, 
            43
        ], 
        [
            105, 
            147, 
            497, 
            43
        ], 
        [
            348, 
            212, 
            11, 
            0
        ], 
        [
            82, 
            253, 
            532, 
            42
        ], 
        [
            172, 
            306, 
            363, 
            42
        ], 
        [
            348, 
            366, 
            11, 
            0
        ], 
        [
            196, 
            411, 
            316, 
            43
        ]
    ], 
    "image_height": 540, 
    "image_width": 720, 
    "transcription": [
        "u0627_u0644_u0642_u0633_u0637 u0020 u0627_u0644_u062b_u0627_u0628_u062a u0020 u000b", 
        "u062a_u062a_u0645_u062b_u0644 u0020 u0641_u064a u0020 u0627_u0644_u0645_u0639_u0627_u062f_u0644_u0647 u0020 u0627_u0644_u0645_u062d_u0627_u0633_u0628_u064a_u0647 u0020 u0627_u0644_u062a_u0627_u0644_u064a_u0647 u0020 u003a_u000b", 
        "u000b", 
        "u062a_u0643_u0644_u0641_u0629 u0020 u0627_u0644_u0627_u0635_u0644 u0020 u2013 u0020 u0627_u0644_u0642_u064a_u0645_u0647 u0020 u0627_u0644_u0628_u064a_u0639_u064a_u0647 u0020 u0028_u0627_u0644_u062e_u0631_u062f_u0647_u0029 u0020 u000b", 
        "u0028_u0627_u0644_u0642_u064a_u0645_u0647 u0020 u0627_u0644_u0642_u0627_u0628_u0644_u0647 u0020 u0644_u0644_u0627_u0633_u062a_u0647_u0644_u0627_u0643 u0020 u0029_u000b", 
        "u000b", 
        "u0627_u0644_u0639_u0645_u0631 u0020 u0627_u0644_u0627_u0646_u062a_u0627_u062c_u064a u0020 u0644_u0644_u0627_u0635_u0644_u0020"
    ]
}