{
    "bounding_box": [
        [
            358, 
            99, 
            80, 
            36
        ], 
        [
            147, 
            149, 
            502, 
            34
        ], 
        [
            132, 
            189, 
            533, 
            33
        ], 
        [
            257, 
            227, 
            281, 
            33
        ]
    ], 
    "image_height": 540, 
    "image_width": 720, 
    "transcription": [
        "u0648_u0644_u0643_u0646_u0020", 
        "u0645_u0639 u0020 u062a_u0637_u0648_u0631 u0020 u0648_u0625_u0646_u062a_u0634_u0627_u0631 u0020 u0627_u0644_u062a_u0639_u0644_u064a_u0645 u0020 u062b_u0628_u062a u0020 u0639_u062f_u0645 u0020 u0641_u0627_u0639_u0644_u064a_u0629 u0020 u0627_u0644_u0637_u0631_u0642_u0020", 
        "u0627_u0644_u0642_u062f_u064a_u0645_u0629 u0020 u0648_u0623_u0635_u0628_u062d u0020 u0627_u0644_u0623_u0641_u0631_u0627_u062f u0020 u0628_u062d_u0627_u062c_u0629 u0020 u0625_u0644_u064a u0020 u0645_u0628_u0627_u062f_u0649_u0621 u0020 u0648_u0646_u0638_u0631_u064a_u0627_u062a_u0020", 
        "u0644_u0644_u062a_u0639_u0644_u0645 u0020 u062a_u0633_u062a_u062e_u062f_u0645 u0020 u0641_u0649 u0020 u0627_u0644_u0645_u062f_u0627_u0631_u0633_u0020"
    ]
}