{
    "bounding_box": [
        [
            434, 
            24, 
            268, 
            37
        ], 
        [
            76, 
            94, 
            623, 
            31
        ], 
        [
            76, 
            151, 
            623, 
            31
        ], 
        [
            76, 
            210, 
            623, 
            28
        ], 
        [
            76, 
            264, 
            623, 
            31
        ], 
        [
            76, 
            321, 
            623, 
            31
        ], 
        [
            76, 
            379, 
            623, 
            30
        ], 
        [
            76, 
            436, 
            623, 
            31
        ], 
        [
            210, 
            493, 
            490, 
            31
        ]
    ], 
    "image_height": 540, 
    "image_width": 720, 
    "transcription": [
        "u0627_u0644_u0645_u0648_u0642_u0639_u0028_u004c_u006f_u0063_u0061_u0074_u0069_u006f_u006e_u0029_u003a_u002d_u0020", 
        "u0020 u0020 u064a_u0642_u0639 u0020 u0645_u0628_u0632_u0644 u0020 u0627_u0644_u0634_u0627_u0645_u064a_u0629 u0020 u0627_u0644_u063a_u0631_u0628_u064a u0020 u0641_u064a u0020 u0645_u062d_u0627_u0641_u0638_u062a_u064a u0020 u0627_u0644_u0646_u062c_u0641 u0020 u0627_u0644_u0627_u0634_u0631_u0641 u0020 u0648_u0627_u0644_u062f_u064a_u0648_u0627_u0646_u064a_u0629_u002e_u0020", 
        "u0636_u0645_u0646 u0020 u0627_u0631_u0627_u0636_u064a u0020 u0645_u0634_u0631_u0648_u0639 u0020 u0643_u0641_u0644 u0020 u0634_u0646_u0627_u0641_u064a_u0629 u0020 u0639_u0644_u0649 u0020 u0628_u0639_u062f u0020 u0032_u0030_u0030 u0020 u0643_u0645 u0020 u062c_u0646_u0648_u0628 u0020 u0645_u062f_u064a_u0646_u0629_u0020", 
        "u0628_u063a_u062f_u0627_u062f u0020 u0628_u064a_u0646 u0020 u062e_u0637_u064a u0020 u0627_u0644_u0637_u0648_u0644 u0020 u0028_u0035_u0035_u00ba_u002d_u0034_u0033_u00ba_u0029 u0020 u0648_u062e_u0637_u064a u0020 u0627_u0644_u0639_u0631_u0636 u0020 u0020_u0028_u0033_u0032_u00ba_u002d_u0033_u0031_u00ba_u0029 u0020 u064a_u0645_u062a_u062f_u0020", 
        "u062e_u0644_u0627_u0644 u0020 u0627_u0644_u0627_u0631_u0627_u0636_u064a u0020 u0627_u0644_u0648_u0627_u0642_u0639_u0629 u0020 u0628_u064a_u0646 u0020 u0641_u0631_u0639_u064a u0020 u0646_u0647_u0631 u0020 u0627_u0644_u0641_u0631_u0627_u062a u0020 u0634_u0637_u064a u0020 u0627_u0644_u0643_u0648_u0641_u0629 u0020 u0648_u0634_u0637_u0020", 
        "u0627_u0644_u0634_u0627_u0645_u064a_u0629 u0020 u064a_u0647_u062f_u0641 u0020 u0627_u0644_u0645_u0628_u0632_u0644 u0020 u0627_u0644_u0649 u0020 u0627_u0633_u062a_u0635_u0644_u0627_u062d u0020 u0627_u0631_u0627_u0636_u064a u0020 u0645_u0634_u0631_u0648_u0639 u0020 u0643_u0641_u0644 u0020 u0634_u0646_u0627_u0641_u064a_u0629_u0020", 
        "u0628_u0645_u0633_u0627_u062d_u0629 u0020 u0627_u062c_u0645_u0627_u0644_u064a_u0629 u0020 u0642_u062f_u0631_u0647_u0627 u0020 u0020_u0034_u0032_u0030_u0030_u0030_u0030_u062f_u0648_u0646_u0645_u002e u0020 u064a_u0628_u0644_u063a u0020 u0627_u0642_u0635_u0649 u0020 u062a_u0635_u0631_u064a_u0641 u0020 u0644_u0644_u0645_u0628_u0632_u0644_u0020", 
        "u0033_u0036_u0645_u00b3_u002f_u062b_u0627_u002c u0020 u0637_u0648_u0644 u0020 u0627_u0644_u0645_u0628_u0632_u0644 u0020 u0641_u064a u0020 u0645_u062d_u0627_u0641_u0638_u0629 u0020 u0627_u0644_u0646_u062c_u0641 u0020 u0034_u0030_u0643_u0645 u0020 u0648_u0033_u0034_u002e_u0038 u0020 u0643_u0645 u0020 u0641_u064a u0020 u0645_u062d_u0627_u0641_u0638_u0629_u0020", 
        "u0627_u0644_u062f_u064a_u0648_u0627_u0646_u064a_u0629 u0020 u0627_u064a u0020 u0628_u0637_u0648_u0644 u0020 u0627_u062c_u0645_u0627_u0644_u064a u0020 u0037_u0034_u002e_u0038_u0643_u0645 u0020 u0643_u0645_u0627 u0020 u0641_u064a u0020 u0627_u0644_u0634_u0643_u0644 u0020 u0627_u0644_u0627_u062a_u064a_u002e"
    ]
}