{
    "bounding_box": [
        [
            245, 
            35, 
            231, 
            38
        ], 
        [
            36, 
            114, 
            620, 
            24
        ], 
        [
            36, 
            145, 
            620, 
            22
        ], 
        [
            315, 
            172, 
            342, 
            21
        ], 
        [
            36, 
            208, 
            620, 
            22
        ], 
        [
            386, 
            236, 
            270, 
            21
        ], 
        [
            36, 
            270, 
            620, 
            24
        ], 
        [
            135, 
            298, 
            521, 
            24
        ], 
        [
            36, 
            334, 
            620, 
            23
        ], 
        [
            453, 
            363, 
            204, 
            22
        ], 
        [
            36, 
            398, 
            620, 
            22
        ], 
        [
            37, 
            426, 
            619, 
            23
        ]
    ], 
    "image_height": 540, 
    "image_width": 720, 
    "transcription": [
        "u0645_u0628_u0631_u0631_u0627_u062a u0020 u0627_u0644_u0645_u0648_u0627_u0626_u0645_u0629", 
        "u0623_u003a u0020 u0645_u0644_u0627_u062d_u0638_u0629 u0020 u0639_u0648_u0627_u0645_u0644 u0020 u0639_u062f_u064a_u062f_u0629 u0020 u0645_u0646_u0639_u062a u0020 u062a_u0637_u0628_u064a_u0642 u0020 u0627_u0644_u0627_u062a_u0641_u0627_u0642_u064a_u0629 u0020 u0628_u0627_u0644_u0634_u0643_u0644 u0020 u0627_u0644_u0627_u0645_u062b_u0644 u0020 u0627_u0647_u0645_u0647_u0627 u0020 u0639_u062f_u0645 u0020 u062a_u0648_u0641_u064a_u0631_u0020", 
        "u0627_u0644_u062a_u0645_u0648_u064a_u0644 u0020 u0627_u0644_u0643_u0627_u0641_u064a u0020 u0648 u0020 u0636_u0639_u0641 u0020 u0627_u0644_u0627_u0633_u0633 u0020 u0627_u0644_u0639_u0644_u0645_u064a_u0629 u0020 u0648 u0020 u0639_u062f_u0645 u0020 u062a_u0648_u0641_u0631_u0627_u0644_u062f_u0639_u0645 u0020 u0648 u0020 u0627_u0644_u062a_u0648_u0639_u064a_u0629 u0020 u0645_u0646 u0020 u0642_u0628_u0644_u0020", 
        "u0645_u062e_u062a_u0644_u0641 u0020 u0627_u0644_u0627_u0637_u0631_u0627_u0641 u0020 u0648 u0020 u0636_u0639_u0641 u0020 u0627_u0644_u0628_u0646_u064a_u0629 u0020 u0627_u0644_u0645_u0624_u0633_u0633_u0627_u062a_u064a_u0629 u0020 u000d", 
        "u0628_u003a u0020 u062a_u063a_u064a_u064a_u0631 u0020 u0627_u0644_u0638_u0631_u0648_u0641 u0020 u0627_u0644_u0633_u064a_u0627_u0633_u064a_u0629 u0020 u0628_u0634_u0643_u0644 u0020 u0648_u0627_u0636_u062d u0020 u0628_u0639_u062f u0020 u062a_u0628_u0646_u064a u0020 u0627_u0647_u062f_u0627_u0641 u0020 u0627_u0644_u062a_u0646_u0645_u064a_u0629 u0020 u0627_u0644_u0627_u0644_u0641_u064a_u0629 u0020 u0648_u0646_u062a_u0627_u0626_u062c_u0020", 
        "u0642_u0645_u0629 u0020 u0627_u0644_u0627_u0631_u0636 u0020 u062d_u0648_u0644 u0020 u0627_u0644_u062a_u0646_u0645_u064a_u0629 u0020 u0627_u0644_u0645_u0633_u062a_u062f_u0627_u0645_u0629 u0020 u000d", 
        "u062c_u003a u0020 u0648_u062c_u0648_u062f u0020 u062d_u064a_u062b_u064a_u0627_u062a u0020 u062c_u062f_u064a_u062f_u0629 u0020 u0645_u0624_u062b_u0631_u0629 u0020 u0639_u0644_u0649 u0020 u062a_u0637_u0628_u064a_u0642 u0020 u0627_u0644_u0627_u062a_u0641_u0627_u0642_u064a_u0629 u0020 u0645_u062b_u0644 u0020 u0627_u0644_u0627_u0647_u062a_u0645_u0627_u0645 u0020 u0628_u0627_u0644_u062a_u0643_u064a_u0641 u0020 u0648_u0627_u0644_u062a_u0623_u0642_u0644_u0645_u0020", 
        "u0645_u0639 u0020 u0627_u0644_u062a_u063a_u064a_u064a_u0631_u0627_u062a u0020 u0627_u0644_u0645_u0646_u0627_u062e_u064a_u0629 u0020 u0648_u0632_u064a_u0627_u062f_u0629 u0020 u0639_u062f_u062f u0020 u0627_u0644_u0627_u062c_u0626_u064a_u0646 u0020 u0648_u0627_u0644_u0645_u0647_u0627_u062c_u0631_u064a_u0646 u0020 u0644_u0627_u0633_u0628_u0627_u0628 u0020 u0628_u064a_u0626_u064a_u0629 u0020 u000d", 
        "u062f_u003a u0020 u0632_u064a_u0627_u062f_u0629 u0020 u0641_u0647_u0645 u0020 u0627_u0644_u0645_u0646_u0639_u0643_u0633_u0627_u062a u0020 u0627_u0644_u0628_u064a_u0626_u064a_u0629 u0020 u0648_u0627_u0644_u062d_u064a_u0648_u064a_u0629 u0020 u0648_u0627_u0644_u0627_u0642_u062a_u0635_u0627_u062f_u064a_u0629 u0020 u0648_u0627_u0644_u0627_u062c_u062a_u0645_u0627_u0639_u064a_u0629 u0020 u0648_u0627_u062b_u0631_u0647_u0627 u0020 u0639_u0644_u0649_u0020", 
        "u062d_u064a_u0627_u0629 u0020 u0627_u0644_u0633_u0643_u0627_u0646 u0020 u0648_u0627_u0644_u0646_u0638_u0645 u0020 u0627_u0644_u0628_u064a_u0626_u064a_u0629 u0020 u000d", 
        "u0647_u003a u0020 u062a_u063a_u064a_u064a_u0631 u0020 u0638_u0631_u0648_u0641 u0020 u0627_u0644_u062a_u0645_u0648_u064a_u0644 u0020 u0648_u062a_u0631_u0643_u064a_u0632 u0020 u0627_u0633_u062a_u0631_u0627_u062a_u064a_u062c_u064a_u0627_u062a u0020 u0627_u0644_u0645_u0627_u0646_u062d_u064a_u0646 u0020 u0639_u0644_u0649 u0020 u062f_u0639_u0645 u0020 u0627_u0644_u0627_u0646_u0634_u0637_u0629_u0020", 
        "u0627_u0644_u062e_u0627_u0635_u0629 u0020 u0628_u062d_u0644 u0020 u0645_u0634_u0627_u0643 u0020 u0627_u0644_u0642_u0648_u0649 u0020 u0627_u0644_u062f_u0627_u0641_u0639_u0629 u0020 u062d_u0633_u0628 u0020 u0627_u0648_u0644_u0648_u064a_u0627_u062a_u0647_u0627 u0020 u0644_u062f_u0649 u0020 u0627_u0644_u062f_u0648_u0644 u0020 u0627_u0644_u0627_u0637_u0631_u0627_u0641 u0020 u0641_u064a u0020 u0627_u0644_u0627_u062a_u0641_u0627_u0642_u064a_u0629_u0020"
    ]
}