{
    "bounding_box": [
        [
            135, 
            56, 
            548, 
            37
        ], 
        [
            55, 
            104, 
            629, 
            32
        ], 
        [
            53, 
            144, 
            630, 
            39
        ], 
        [
            72, 
            184, 
            611, 
            39
        ], 
        [
            295, 
            232, 
            389, 
            38
        ], 
        [
            48, 
            318, 
            635, 
            37
        ], 
        [
            587, 
            363, 
            96, 
            30
        ]
    ], 
    "image_height": 540, 
    "image_width": 720, 
    "transcription": [
        "u061b u0020 u062a_u0635_u062f_u064a_u0642_u064b_u0627 u0020 u0644_u0642_u0648_u0644_u0647 u0020 u0635_u0644_u0649 u0020 u0627_u0644_u0644_u0647 u0020 u0639_u0644_u064a_u0647 u0020 u0648_u0633_u0644_u0645_u003a u0020 u00ab_u0645_u0627 u0020 u0623_u0645_u0631_u062a_u0643_u0645 u0020 u0628_u0647 u0020 u0641_u0627_u062a_u0648_u0627 u0020 u0645_u0646_u0647 u0020 u0645_u0627_u0020", 
        "u0627_u0633_u062a_u0637_u0639_u062a_u0645_u060c u0020 u0648_u0645_u0627 u0020 u0646_u0647_u064a_u062a_u0643_u0645 u0020 u0639_u0646_u0647 u0020 u0641_u0627_u0646_u062a_u0647_u0648_u0627 u0020 u00bb_u061b u0020 u0641_u0627_u0644_u0645_u0633_u0644_u0645 u0020 u062f_u0627_u0626_u0645_u064b_u0627 u0020 u0625_u0630_u0627_u0020", 
        "u0623_u0645_u0631_u0647 u0020 u0627_u0644_u0644_u0647 u0020 u2013 u0020 u062a_u0639_u0627_u0644_u0649 u0020 u002d u0020 u0623_u0648 u0020 u0646_u0647_u0627_u0647_u060c u0020 u0623_u0648 u0020 u0623_u062d_u0644 u0020 u0644_u0647_u060c u0020 u0623_u0648 u0020 u062d_u0631_u0645 u0020 u0639_u0644_u064a_u0647 u0020 u002d_u0020", 
        "u0643_u0627_u0646 u0020 u0645_u0648_u0642_u0641_u0647 u0020 u0641_u064a u0020 u0630_u0644_u0643 u0020 u0643_u0644_u0647_u003a u0020 ufd3f u0020 u0633_u064e_u0645_u0650_u0639_u0652_u0646_u064e_u0627 u0020 u0648_u064e_u0623_u064e_u0637_u064e_u0639_u0652_u0646_u064e_u0627 u0020 u063a_u064f_u0641_u0652_u0631_u064e_u0627_u0646_u064e_u0643_u064e u0020 u0631_u064e_u0628_u0651_u064e_u0646_u064e_u0627_u0020", 
        "u0648_u064e_u0625_u0650_u0644_u064e_u064a_u0652_u0643_u064e u0020 u0627_u0644_u0645_u064e_u0635_u0650_u064a_u0631_u064f u0020 ufd3e u0020 u005b_u0627_u0644_u0628_u0642_u0631_u0629_u003a u0020 u0032_u0038_u0035_u005d_u002e_u00a0_u000b", 
        "u0648_u0647_u0630_u0627 u0020 u0647_u0648 u0020 u0627_u0644_u0647_u062f_u0641 u0020 u0627_u0644_u0639_u0627_u0645 u0020 u0627_u0644_u0630_u064a u0020 u062a_u0639_u0645_u0644 u0020 u0627_u0644_u062a_u0631_u0628_u064a_u0629 u0020 u0627_u0644_u0625_u0633_u0644_u0627_u0645_u064a_u0629 u0020 u0639_u0644_u0649_u0020", 
        "u062a_u062d_u0642_u064a_u0642_u0647_u002e_u0020"
    ]
}