{
    "bounding_box": [
        [
            53, 
            219, 
            594, 
            37
        ], 
        [
            224, 
            263, 
            243, 
            33
        ], 
        [
            689, 
            520, 
            12, 
            6
        ]
    ], 
    "image_height": 540, 
    "image_width": 720, 
    "transcription": [
        "u0623_u0647_u0645 u0020 u0627_u0644_u0645_u0634_u0631_u0648_u0639_u0627_u062a u0020 u0627_u0644_u062a_u064a u0020 u0642_u0627_u0645_u062a u0020 u0628_u0647_u0627 u0020 u062f_u0648_u0644_u0629 u0020 u0627_u0644_u0625_u0645_u0627_u0631_u0627_u062a u0020 u0644_u062f_u0639_u0645_u0020", 
        "u0627_u0644_u0633_u064a_u0627_u062d_u0629 u0020 u0627_u0644_u0625_u0644_u0643_u062a_u0631_u0648_u0646_u064a_u0629 u0020 u000d", 
        "u0031_u0031"
    ]
}