{
    "bounding_box": [
        [
            16, 
            98, 
            650, 
            23
        ], 
        [
            564, 
            123, 
            102, 
            20
        ], 
        [
            16, 
            150, 
            650, 
            23
        ], 
        [
            53, 
            174, 
            613, 
            23
        ], 
        [
            16, 
            202, 
            650, 
            21
        ], 
        [
            16, 
            227, 
            650, 
            22
        ], 
        [
            268, 
            251, 
            398, 
            22
        ], 
        [
            16, 
            279, 
            650, 
            22
        ], 
        [
            128, 
            303, 
            538, 
            22
        ], 
        [
            135, 
            44, 
            444, 
            25
        ]
    ], 
    "image_height": 540, 
    "image_width": 720, 
    "transcription": [
        "u064a_u0642_u062a_u0636_u064a u0020 u0627_u0644_u0646_u0638_u0627_u0645 u0020 u0627_u0644_u0631_u0626_u0627_u0633_u064a u0020 u0628_u0648_u062c_u0648_u062f u0020 u0631_u0626_u064a_u0633 u0020 u0645_u0646_u062a_u062e_u0628 u0020 u064a_u0648_u0646 u0020 u0631_u0626_u064a_u0633_u0627_u064b u0020 u0644_u0644_u062f_u0648_u0644_u0629 u0020 u0648_u0644_u0644_u062d_u0643_u0648_u0645_u0629 u0020 u060c u0020 u0648_u0647_u0630_u0627 u0020 u0645_u0627 u0020 u0644_u0627 u0020 u064a_u0646_u0637_u0628_u0642 u0020 u0639_u0644_u0649_u0020", 
        "u0631_u0626_u064a_u0633 u0020 u0627_u0644_u0633_u0644_u0637_u0629 u0020 u002e_u000d", 
        "u0644_u0643_u0646_u0647 u0020 u064a_u062a_u0634_u0627_u0628_u0647 u0020 u0631_u0626_u064a_u0633 u0020 u0627_u0644_u0633_u0644_u0637_u0629 u0020 u0645_u0639 u0020 u0627_u0644_u0631_u0626_u064a_u0633 u0020 u0641_u064a u0020 u0627_u0644_u0646_u0638_u0627_u0645 u0020 u0627_u0644_u0631_u0626_u0627_u0633_u064a u0020 u0645_u0646 u0020 u062d_u064a_u062b u0020 u0637_u0631_u064a_u0642_u0629 u0020 u0627_u0646_u062a_u062e_u0627_u0628_u0647 u0020 u062d_u064a_u062b u0020 u064a_u0646_u062a_u062e_u0628 u0020 u0627_u0646_u062a_u062e_u0627_u0628_u0627_u064b_u0020", 
        "u0639_u0627_u0645_u0627_u064b u0020 u0648_u0645_u0628_u0627_u0634_u0631_u0627_u064b u0020 u0645_u0646 u0020 u0642_u0628_u0644 u0020 u0627_u0644_u0634_u0639_u0628 u0020 u0627_u0644_u0641_u0644_u0633_u0637_u064a_u0646_u064a u0020 u060c u0020 u0648_u0647_u0630_u0627 u0020 u0645_u0627 u0020 u064a_u062c_u0639_u0644_u0647 u0020 u0639_u0644_u0649 u0020 u0642_u062f_u0645 u0020 u0627_u0644_u0645_u0633_u0627_u0648_u0627_u0629 u0020 u0645_u0639 u0020 u0623_u0639_u0636_u0627_u0621 u0020 u0627_u0644_u0628_u0631_u0644_u0645_u0627_u0646_u002e_u000d", 
        "u0643_u0645_u0627 u0020 u0623_u0646 u0020 u0631_u0626_u064a_u0633 u0020 u0627_u0644_u0633_u0644_u0637_u0629 u0020 u063a_u064a_u0631 u0020 u0645_u0633_u0624_u0648_u0644 u0020 u0633_u064a_u0627_u0633_u064a_u0627_u064b u0020 u0623_u0645_u0627_u0645 u0020 u0627_u0644_u0628_u0631_u0644_u0645_u0627_u0646 u0020 u060c u0020 u0623_u0645_u0627 u0020 u0631_u0626_u064a_u0633 u0020 u0627_u0644_u0648_u0632_u0631_u0627_u0621 u0020 u0645_u0633_u0624_u0648_u0644 u0020 u0623_u0645_u0627_u0645 u0020 u0631_u0626_u064a_u0633_u0020", 
        "u0627_u0644_u0633_u0644_u0637_u0629 u0020 u0639_u0646 u0020 u0623_u0639_u0645_u0627_u0644_u0647 u0020 u0648_u0623_u0639_u0645_u0627_u0644 u0020 u062d_u0643_u0648_u0645_u062a_u0647 u0020 u060c u0020 u0648_u0627_u0644_u0648_u0632_u0631_u0627_u0621 u0020 u0641_u0647_u0645 u0020 u0645_u0633_u0624_u0648_u0644_u0648_u0646 u0020 u0623_u0645_u0627_u0645 u0020 u0631_u0626_u064a_u0633 u0020 u0627_u0644_u0648_u0632_u0631_u0627_u0621 u0020 u0643_u0644 u0020 u0641_u064a u0020 u062d_u062f_u0648_u062f_u0020", 
        "u0627_u062e_u062a_u0635_u0627_u0635_u0647 u0020 u0648_u0639_u0646 u0020 u0623_u0639_u0645_u0627_u0644 u0020 u0648_u0632_u0627_u0631_u062a_u0647_u002e u0020 u0028_u0648_u0647_u0630_u0627 u0020 u064a_u062e_u0627_u0644_u0641 u0020 u0627_u0644_u0646_u0638_u0627_u0645 u0020 u0627_u0644_u0631_u0626_u0627_u0633_u064a_u0029_u002e_u000d", 
        "u0643_u0645_u0627 u0020 u0642_u0631_u0631 u0020 u0627_u0644_u0642_u0627_u0646_u0648_u0646 u0020 u0627_u0644_u0623_u0633_u0627_u0633_u064a u0020 u0645_u0628_u062f_u0623 u0020 u0627_u0644_u062a_u0636_u0627_u0645_u0646 u0020 u0627_u0644_u0648_u0632_u0627_u0631_u064a u0020 u060c u0020 u0648_u0627_u062e_u0636_u0639 u0020 u0643_u0644 u0020 u0645_u0646 u0020 u0631_u0626_u064a_u0633 u0020 u0627_u0644_u0648_u0632_u0631_u0627_u0621 u0020 u0648_u0623_u0639_u0636_u0627_u0621 u0020 u062d_u0643_u0648_u0645_u062a_u0647_u0020", 
        "u0644_u0644_u0645_u0633_u0624_u0648_u0644_u064a_u0629 u0020 u0627_u0644_u0641_u0631_u062f_u064a_u0629 u0020 u0648_u0627_u0644_u062a_u0636_u0627_u0645_u0646_u064a_u0629 u0020 u0623_u0645_u0627_u0645 u0020 u0627_u0644_u0645_u062c_u0644_u0633 u0020 u0627_u0644_u062a_u0634_u0631_u064a_u0639_u064a u0020 u0028_u0648_u0647_u0630_u0627 u0020 u064a_u062e_u0627_u0644_u0641 u0020 u0627_u0644_u0646_u0638_u0627_u0645 u0020 u0627_u0644_u0631_u0626_u0627_u0633_u064a_u0029_u002e", 
        "u0623_u0648_u0644_u0627_u064b_u003a u0020 u0648_u062c_u0648_u062f u0020 u0631_u0626_u064a_u0633 u0020 u0645_u0646_u062a_u062e_u0628 u0020 u064a_u062c_u0645_u0639 u0020 u0628_u064a_u0646 u0020 u064a_u062f_u064a_u0647 u0020 u0627_u0644_u0633_u0644_u0637_u0629 u0020 u0627_u0644_u062a_u0646_u0641_u064a_u0630_u064a_u0629_u003a"
    ]
}