{
    "bounding_box": [
        [
            55, 
            19, 
            207, 
            33
        ], 
        [
            473, 
            135, 
            184, 
            28
        ], 
        [
            173, 
            177, 
            484, 
            28
        ]
    ], 
    "image_height": 540, 
    "image_width": 720, 
    "transcription": [
        "u062c_u0631_u062f u0020 u0644_u0644_u064a_u062f u0020 u0627_u0644_u0639_u0627_u0645_u0644_u0629_u000b", 
        "u0633_u0648_u0642 u0020 u0627_u0644_u0634_u063a_u0644_u003a u0020 u062f_u0627_u062e_u0644_u064a_u000d", 
        "u0627_u0644_u0627_u064a_u062c_u0627_u0628_u064a_u0627_u062a_u003a u0020 u0642_u0644_u064a_u0644_u0629 u0020 u0627_u0644_u0643_u0644_u0641_u0629_u060c u0020 u062a_u062a_u064a_u062d u0020 u0641_u0631_u0635_u0629 u0020 u0644_u062a_u0637_u0648_u0631 u0020 u0627_u0644_u0645_u0648_u0638_u0641_u064a_u0646_u0020"
    ]
}