{
    "bounding_box": [
        [
            158, 
            117, 
            403, 
            35
        ], 
        [
            216, 
            204, 
            392, 
            19
        ], 
        [
            438, 
            242, 
            171, 
            18
        ], 
        [
            482, 
            278, 
            126, 
            18
        ], 
        [
            393, 
            317, 
            216, 
            17
        ], 
        [
            393, 
            352, 
            215, 
            19
        ], 
        [
            280, 
            390, 
            328, 
            17
        ]
    ], 
    "image_height": 540, 
    "image_width": 720, 
    "transcription": [
        "u0627_u0644_u0645_u062f_u0648_u0646_u0627_u062a u0020 u0641_u064a u0020 u0627_u0644_u062a_u062f_u0631_u064a_u0633 u0020 u0648_u0627_u0644_u062a_u0639_u0644_u0645", 
        "u0627_u0644_u0648_u0635_u0648_u0644 u0020 u0625_u0644_u0649 u0020 u0645_u0639_u0644_u0648_u0645_u0627_u062a u0020 u062e_u0627_u0635_u0629 u0020 u0628_u0627_u0644_u0645_u0627_u062f_u0629 u0020 u0645_u062b_u0644 u0020 u0627_u0644_u062a_u0642_u0648_u064a_u0645 u0020 u0648_u0627_u0644_u0623_u062d_u062f_u0627_u062b u0020 u0648_u0627_u0644_u0648_u0627_u062c_u0628_u0627_u062a_u000d", 
        "u062a_u0646_u0638_u064a_u0645 u0020 u062d_u0644_u0642_u0627_u062a u0020 u062f_u0631_u0627_u0633_u064a_u0629 u0020 u0648_u0642_u0631_u0627_u0621_u0627_u062a_u000d", 
        "u0639_u0631_u0636 u0020 u0623_u0639_u0645_u0627_u0644 u0020 u0627_u0644_u0637_u0644_u0627_u0628_u000d", 
        "u062c_u0645_u0639 u0020 u0648_u062a_u0646_u0638_u064a_u0645 u0020 u0627_u0644_u0645_u0635_u0627_u062f_u0631 u0020 u0648_u0627_u0644_u0645_u0631_u0627_u062c_u0639 u0020 u0644_u0644_u0645_u0627_u062f_u0629_u000d", 
        "u0627_u0644_u062a_u0648_u0627_u0635_u0644 u0020 u0645_u0639 u0020 u0641_u0635_u0648_u0644 u0020 u0623_u062e_u0631_u0649 u0020 u062d_u0648_u0644 u0020 u0627_u0644_u0639_u0627_u0644_u0645_u000d", 
        "u0627_u0644_u0645_u062f_u0648_u0646_u0627_u062a u0020 u0627_u0644_u062c_u0645_u0627_u0639_u064a_u0629 u0020 u062a_u0646_u0638_u0645 u0020 u0627_u0644_u0639_u0645_u0644 u0020 u0639_u0644_u0649 u0020 u0645_u0634_u0627_u0631_u064a_u0639 u0020 u062c_u0645_u0627_u0639_u064a_u0629 u0020 u0644_u0644_u0645_u0627_u062f_u0629_u000d"
    ]
}