{
    "bounding_box": [
        [
            45, 
            27, 
            620, 
            33
        ], 
        [
            4, 
            62, 
            701, 
            33
        ], 
        [
            23, 
            97, 
            663, 
            33
        ], 
        [
            28, 
            131, 
            655, 
            33
        ], 
        [
            40, 
            166, 
            630, 
            33
        ], 
        [
            26, 
            236, 
            658, 
            33
        ], 
        [
            129, 
            271, 
            444, 
            33
        ], 
        [
            25, 
            344, 
            660, 
            29
        ], 
        [
            270, 
            375, 
            161, 
            33
        ], 
        [
            17, 
            445, 
            676, 
            33
        ], 
        [
            21, 
            479, 
            668, 
            33
        ], 
        [
            89, 
            514, 
            523, 
            33
        ]
    ], 
    "image_height": 540, 
    "image_width": 720, 
    "transcription": [
        "u0627_u0644_u062d_u0636_u0627_u0631_u0629 u0020 u0627_u0644_u0645_u0635_u0631_u064a_u0629 u0020 u0641_u0642_u062f u0020 u0642_u062f_u0633_u0647 u0020 u0627_u0644_u0642_u062f_u0645_u0627_u0621 u0020 u0627_u0644_u0645_u0635_u0631_u064a_u064a_u0646_u0020", 
        "u0648_u0633_u0645_u0648_u0647 u0020 u0028 u0020 u0627_u0628_u0646 u0020 u0627_u0644_u0634_u0645_u0633_u0029 u0020 u062b_u0645 u0020 u0627_u0628_u0646 u0020 u0627_u0644_u0642_u0645_u0631 u0020 u062d_u064a_u062b u0020 u0627_u0639_u062a_u0642_u062f_u0648_u0627 u0020 u0627_u0646_u0020", 
        "u062c_u0628_u0627_u0644 u0020 u0627_u0644_u0642_u0645_u0631 u0020 u0628_u0627_u0644_u062c_u0646_u0648_u0628 u0020 u0647_u0649 u0020 u0627_u0644_u062a_u0649 u0020 u062a_u0642_u0630_u0641 u0020 u0627_u0644_u064a_u0647_u0645 u0020 u0628_u0627_u0644_u0645_u0627_u0621_u002e_u002e_u002e_u0020", 
        "u0648_u0628_u0644_u063a_u062a u0020 u062f_u0631_u062c_u0629 u0020 u0627_u0644_u062a_u0642_u062f_u064a_u0633 u0020 u0627_u0644_u0649 u0020 u0627_u0646_u0647_u0645 u0020 u0627_u0639_u062a_u0628_u0631_u0648_u0647 u0020 u0648_u0627_u062d_u062f_u0627 u0020 u0645_u0646_u0020", 
        "u0627_u0644_u0647_u062a_u0647_u0645 u0020 u0648_u0627_u0637_u0644_u0642_u0648_u0627 u0020 u0639_u0644_u064a_u0647 u0020 u0627_u0633_u0645 u0020 u0644_u0627_u0644_u0647_u0028_u0028_u062d_u0627_u0628_u064a_u0029_u0029 u0020 u0648_u0639_u0628_u062f_u0648_u0647_u0020", 
        "u0641_u0649 u0020 u0627_u0644_u0645_u064a_u0627_u0647 u0020 u0642_u0631_u0628_u0627_u0646_u0627 u0020 u0644_u0644_u0646_u064a_u0644 u0020 u0627_u0644_u0639_u0638_u064a_u0645 u0020 u062d_u062a_u0649 u0020 u064a_u0641_u064a_u0636 u0020 u0628_u0645_u064a_u0627_u0647_u0647_u0020", 
        "u0627_u0644_u063a_u0646_u064a_u0629 u0020 u0628_u0627_u0644_u0637_u0645_u0649 u0020 u0648_u0627_u0644_u062e_u0635_u0628 u0020 u0648_u0627_u0644_u0646_u0645_u0627_u0621 u0020 u002e u0020 u000b", 
        "u0648_u0642_u0627_u0644 u0020 u0647_u064a_u0631_u0648_u062f_u0648_u062a u0020 u0034_u0037_u0035_u0642_u0030_u0645 u0020 u0645_u0642_u0648_u0644_u062a_u0647 u0020 u0627_u0644_u0634_u0647_u064a_u0631_u0629 u0020 u0625_u0646 u0020 u0645_u0635_u0631_u0020", 
        "u0647_u0628_u0629 u0020 u0627_u0644_u0646_u064a_u0644 u0020 u002e u0020 u000b", 
        "u0648_u064a_u0642_u0648_u0644 u0020 u0627_u0644_u062d_u0643_u064a_u0645 u0020 u0627_u0645_u064a_u0646_u0648 u0020 u0628_u064a u0020 u0627_u0644_u0639_u0638_u064a_u0645 u0020 u0648_u0647_u0648 u0020 u064a_u0646_u0635_u062d u0020 u0627_u0628_u0646_u0647 u0020 u0642_u0628_u0644_u0020", 
        "u0646_u062d_u0648_u0033_u0035 u0020 u0642_u0631_u0646_u0627 u0020 u0645_u0646 u0020 u0627_u0644_u0632_u0645_u0627_u0646 u0020 u0644_u0627 u0020 u062a_u0644_u0648_u062b u0020 u0627_u0644_u0646_u0647_u0631 u0020 u0648_u0642_u062f u0020 u0643_u0627_u0646_u062a u0020 u0635_u0644_u0627_u0647_u0020", 
        "u0627_u062e_u0646_u0627_u062a_u0648_u0646 u0020 u062d_u0645_u062f u0020 u0644_u0644_u0647 u0020 u062a_u0639_u0627_u0644_u0649 u0020 u0648_u0627_u0639_u062a_u0631_u0627_u0641_u0627 u0020 u0628_u0646_u0639_u0645_u062a_u0647 u0020 u000b"
    ]
}