{
    "bounding_box": [
        [
            535, 
            99, 
            124, 
            25
        ], 
        [
            81, 
            133, 
            571, 
            22
        ], 
        [
            135, 
            158, 
            523, 
            26
        ], 
        [
            267, 
            189, 
            391, 
            23
        ], 
        [
            533, 
            249, 
            126, 
            24
        ], 
        [
            82, 
            282, 
            570, 
            22
        ], 
        [
            77, 
            309, 
            575, 
            22
        ], 
        [
            122, 
            336, 
            529, 
            25
        ], 
        [
            521, 
            365, 
            131, 
            24
        ]
    ], 
    "image_height": 540, 
    "image_width": 720, 
    "transcription": [
        "u063a_u0632_u0648 u0020 u0627_u0644_u0633_u0648_u062f_u0627_u0646_u000d", 
        "u0639_u0642_u062f u0020 u0645_u062d_u0645_u062f u0020 u0639_u0644_u064a u0020 u062e_u0637_u062a_u0647 u0020 u0644_u063a_u0632_u0648 u0020 u0627_u0644_u0633_u0648_u062f_u0627_u0646 u0020 u062f_u0648_u0646 u0020 u0627_u0643_u062a_u0631_u0627_u062b u0020 u062d_u0642_u064a_u0642_u064a u0020 u0644_u0645_u0648_u0642_u0641 u0020 u0627_u0644_u0633_u0644_u0637_u0627_u0646 u0020 u0627_u0644_u0630_u064a_u0020", 
        "u0627_u0646_u0634_u063a_u0644 u0020 u0627_u0644_u0622_u0646 u0020 u0628_u0642_u0645_u0639 u0020 u062b_u0648_u0631_u0629 u0020 u0627_u0644_u0645_u0648_u0631_u0647 u0020 u0031_u0038_u0032_u0030 u0020 u0648_u0642_u062f u0020 u0643_u0627_u0646 u0020 u062a_u0641_u0643_u064a_u0631 u0020 u0645_u062d_u0645_u062f u0020 u0639_u0644_u064a u0020 u0645_u0646_u0635_u0628_u0627_u064b u0020 u000d", 
        "u0639_u0644_u0649 u0020 u0643_u064a_u0641_u064a_u0629 u0020 u0625_u0642_u0627_u0645_u0629 u0020 u0645_u0645_u0644_u0643_u0629 u0020 u0641_u064a u0020 u0645_u0635_u0631 u0020 u064a_u0636_u0645 u0020 u0625_u0644_u064a_u0647_u0627 u0020 u0627_u0644_u0633_u0648_u062f_u0627_u0646_u000d", 
        "u0627_u062f_u0627_u0631_u0629 u0020 u0627_u0644_u0633_u0648_u062f_u0627_u0646_u000d", 
        "u062a_u0646_u0627_u0648_u0644_u062a u0020 u0643_u062a_u0627_u0628_u0627_u062a u0020 u0627_u0644_u0645_u0624_u0631_u062e_u064a_u0646 u0020 u0643_u064a_u0641_u064a_u0629 u0020 u0625_u062f_u0627_u0631_u0629 u0020 u0645_u062d_u0645_u062f u0020 u0639_u0644_u064a u0020 u0644_u062d_u0643_u0645 u0020 u0627_u0644_u0633_u0648_u062f_u0627_u0646 u0020 u0648_u0627_u0644_u0645_u0633_u0627_u0648_u0626 u0020 u0627_u0644_u062a_u064a_u0020", 
        "u0627_u0631_u062a_u0628_u0637_u062a u0020 u0628_u0646_u0647_u0628 u0020 u0645_u0648_u0627_u0631_u062f u0020 u0627_u0644_u0628_u0644_u0627_u062f_u060c u0020 u0648_u0639_u0645_u0644_u064a_u0627_u062a u0020 u0647_u0631_u0648_u0628 u0020 u0627_u0644_u0633_u0648_u062f_u0627_u0646_u064a_u064a_u0646 u0020 u0625_u0644_u0649 u0020 u0627_u0644_u062c_u0628_u0627_u0644 u0020 u0648_u062a_u062f_u0647_u0648_u0631_u0020", 
        "u0627_u0644_u0623_u0648_u0636_u0627_u0639 u0020 u0627_u0644_u062a_u062c_u0627_u0631_u064a_u0629 u0020 u0648_u0627_u0646_u0639_u062f_u0627_u0645 u0020 u0627_u0644_u0623_u0645_u0646 u0020 u0648_u0627_u0646_u062a_u0634_u0627_u0631 u0020 u062a_u062c_u0627_u0631_u0629 u0020 u0627_u0644_u0631_u0642_u064a_u0642 u0020 u0639_u0644_u0649 u0020 u064a_u062f u0020 u0642_u0646_u0627_u0635_u0644_u0020", 
        "u0627_u0644_u0623_u0648_u0631_u0628_u064a_u064a_u0646 u0020 u0623_u0646_u0641_u0633_u0647_u0645_u0020"
    ]
}