{
    "bounding_box": [
        [
            214, 
            53, 
            669, 
            51
        ], 
        [
            228, 
            200, 
            617, 
            22
        ], 
        [
            537, 
            224, 
            308, 
            22
        ], 
        [
            216, 
            248, 
            656, 
            30
        ], 
        [
            533, 
            279, 
            339, 
            20
        ], 
        [
            529, 
            301, 
            344, 
            30
        ], 
        [
            229, 
            343, 
            644, 
            19
        ], 
        [
            231, 
            370, 
            641, 
            24
        ], 
        [
            608, 
            397, 
            264, 
            19
        ], 
        [
            228, 
            424, 
            617, 
            21
        ], 
        [
            223, 
            447, 
            622, 
            18
        ], 
        [
            778, 
            467, 
            67, 
            16
        ]
    ], 
    "image_height": 540, 
    "image_width": 960, 
    "transcription": [
        "u0623_u0648_u0644_u0627_u064b_u003a u0020 u0627_u062d_u0630_u0631 u0020 u0627_u0644_u064a_u0623_u0633_u060c_u0648_u0627_u0646_u0628_u0630 u0020 u0627_u0644_u0645_u0633_u062a_u062d_u064a_u0644_u000b", 
        "u0642_u0628_u0644 u0020 u0623_u0646 u0020 u062a_u062a_u062d_u0644_u0649 u0020 u0628_u0627_u0644_u0647_u0645_u0629 u0020 u0648_u0627_u0644_u0639_u0632_u064a_u0645_u0629 u0020 u062f_u0639 u0020 u0639_u0646_u0643 u0020 u0627_u0644_u064a_u0623_u0633 u0020 u0648_u0627_u0644_u0647_u0632_u064a_u0645_u0629_u0648_u0644_u0645_u0627 u0020 u0644_u0627_u0020", 
        "u061f_u0648_u0641_u064a u0020 u0627_u0644_u0642_u0631_u0622_u0646_u060c u0020 u0642_u0627_u0644 u0020 u0623_u0628_u0648 u0020 u064a_u0648_u0633_u0641_u003a u0020 u000d", 
        "u0020_u0028_u064a_u064e_u0627_u0628_u064e_u0646_u0650_u064a_u0651_u064e u0020 u0627_u0630_u0652_u0647_u064e_u0628_u064f_u0648_u0627 u0020 u0641_u064e_u062a_u064e_u062d_u064e_u0633_u0651_u064e_u0633_u064f_u0648_u0627 u0020 u0645_u0650_u0646_u0652 u0020 u064a_u064f_u0648_u0633_u064f_u0641_u064e u0020 u0648_u064e_u0623_u064e_u062e_u0650_u064a_u0647_u0650 u0020 u0648_u064e_u0644_u064e_u0627 u0020 u062a_u064e_u064a_u0652_u0623_u064e_u0633_u064f_u0648_u0627 u0020 u0645_u0650_u0646_u0652 u0020 u0631_u064e_u0648_u0652_u062d_u0650 u0020 u0627_u0644_u0644_u0651_u064e_u0647_u0650 u0020 u0625_u0650_u0646_u0651_u064e_u0647_u064f u0020 u0644_u064e_u0627_u0020", 
        "u064a_u064e_u064a_u0652_u0623_u064e_u0633_u064f u0020 u0645_u0650_u0646_u0652 u0020 u0631_u064e_u0648_u0652_u062d_u0650 u0020 u0627_u0644_u0644_u0651_u064e_u0647_u0650 u0020 u0625_u0650_u0644_u0651_u064e_u0627 u0020 u0627_u0644_u0652_u0642_u064e_u0648_u0652_u0645_u064f u0020 u0627_u0644_u0652_u0643_u064e_u0627_u0641_u0650_u0631_u064f_u0648_u0646_u064e_u0029_u000d", 
        "u0648_u0641_u064a u0020 u0627_u0644_u062d_u062f_u064a_u062b_u003c_u0627_u0633_u062a_u0639_u0646 u0020 u0628_u0627_u0644_u0644_u0647 u0020 u0648_u0644_u0627 u0020 u062a_u0639_u062c_u0632_u003e_u000d", 
        "u0627_u0644_u0639_u0632 u0020 u0628_u0646 u0020 u0639_u0628_u062f u0020 u0627_u0644_u0633_u0644_u0627_u0645 u0020 u0637_u0644_u0628 u0020 u0627_u0644_u0639_u0644_u0645 u0020 u0628_u0639_u062f u0020 u0627_u0644_u062e_u0645_u0633_u064a_u0646 u0020 u0648_u0635_u0627_u0631 u0020 u0641_u064a_u0647 u0020 u0633_u0644_u0637_u0627_u0646 u0020 u0627_u0644_u0639_u0644_u0645_u0627_u0621_u000d", 
        "u0633_u064a_u0641 u0020 u0627_u0644_u062f_u064a_u0646 u0020 u0642_u0637_u0632 u0020 u0623_u0632_u0627_u062d u0020 u0639_u0646 u0020 u0627_u0644_u0623_u0645_u0629 u0020 u0639_u062f_u0648_u0647_u0627 u0020 u0627_u0644_u0647_u0645_u062c_u064a u0020 u0645_u0646 u0020 u0627_u0644_u062a_u062a_u0631 u0020 u0628_u0639_u062f u0020 u0639_u0627_u0645_u064a_u0646 u0020 u0645_u0646_u0020", 
        "u0633_u0642_u0648_u0637 u0020 u0627_u0644_u062e_u0644_u0627_u0641_u0629 u0020 u0648_u0642_u062a_u0644 u0020 u0627_u0644_u062e_u0644_u064a_u0641_u0629_u000d", 
        "u0641_u0627_u0644_u064a_u0623_u0633 u0020 u0642_u064a_u062f u0020 u064a_u0646_u0628_u063a_u064a u0020 u0623_u0646 u0020 u062a_u062a_u062d_u0631_u0631 u0020 u0645_u0646_u0647 u0020 u062d_u062a_u0649 u0020 u062a_u0646_u0637_u0644_u0642 u0020 u060c u0020 u0641_u0627_u0644_u0645_u0641_u0643_u0631 u0020 u0627_u0644_u0643_u0631_u062f_u064a u0020 u0627_u0644_u062a_u0631_u0643_u064a u0020 u0628_u062f_u064a_u0639_u0020", 
        "u0627_u0644_u0632_u0645_u0627_u0646 u0020 u0633_u0639_u064a_u062f u0020 u0627_u0644_u0646_u0648_u0631_u0633_u064a u0020 u0648_u0636_u0639 u0020 u0633_u062a_u0629 u0020 u0634_u0631_u0648_u0637 u0020 u0644_u0646_u0647_u0636_u0629 u0020 u0627_u0644_u0623_u0645_u0629 u0020 u0627_u0644_u0625_u0633_u0644_u0627_u0645_u064a_u0629 u0020 u062c_u0639_u0644 u0020 u0623_u0648_u0644_u0647_u0627 u0020 u003a u0020 u0646_u0628_u0630_u0020", 
        "u0627_u0644_u064a_u0623_u0633 u0020 u0030_u000d"
    ]
}