{
    "bounding_box": [
        [
            591, 
            87, 
            264, 
            32
        ], 
        [
            97, 
            157, 
            740, 
            20
        ], 
        [
            97, 
            194, 
            740, 
            20
        ], 
        [
            97, 
            229, 
            740, 
            23
        ], 
        [
            97, 
            267, 
            739, 
            21
        ], 
        [
            786, 
            305, 
            50, 
            17
        ], 
        [
            97, 
            355, 
            740, 
            22
        ], 
        [
            97, 
            394, 
            740, 
            21
        ], 
        [
            782, 
            430, 
            54, 
            18
        ]
    ], 
    "image_height": 540, 
    "image_width": 959, 
    "transcription": [
        "u0639_u0627_u0634_u0631_u0627_u064b_u003a u0020 u0645_u0628_u062f_u0623 u0020 u0627_u0644_u062a_u0631_u0628_u064a_u0629 u0020 u0644_u0644_u062d_u064a_u0627_u0629_u003a", 
        "u0648_u0645_u0646 u0020 u062e_u0644_u0627_u0644 u0020 u0630_u0644_u0643 u0020 u0627_u0644_u062a_u0635_u0648_u0631 u0020 u0644_u0644_u062d_u064a_u0627_u0629 u0020 u0627_u0644_u062f_u0646_u064a_u0627 u0020 u062a_u0636_u0645_u0646_u062a u0020 u0627_u0644_u0633_u064a_u0627_u0633_u0629 u0020 u0627_u0644_u062a_u0639_u0644_u064a_u0645_u064a_u0629 u0020 u0641_u064a u0020 u0627_u0644_u0645_u0645_u0644_u0643_u0629 u0020 u0639_u062f_u062f u0020 u0645_u0646 u0020 u0627_u0644_u0645_u0648_u0627_u062f u0020 u0627_u0644_u062a_u064a u0020 u062a_u0624_u0643_u062f u0020 u0639_u0644_u0649_u0020", 
        "u0627_u0644_u062a_u0635_u0648_u0631 u0020 u0627_u0644_u0625_u0633_u0644_u0627_u0645_u064a u0020 u0644_u0644_u062d_u064a_u0627_u0629_u060c u0020 u0648_u0645_u0646_u0647_u0627 u0020 u0627_u0644_u0645_u0627_u062f_u0629 u0020 u0033 u0020 u0648_u0627_u0644_u062a_u064a u0020 u062a_u0648_u0636_u062d u0020 u0627_u0644_u062a_u0635_u0648_u0631 u0020 u0627_u0644_u0625_u0633_u0644_u0627_u0645_u064a u0020 u0627_u0644_u0643_u0627_u0645_u0644 u0020 u0644_u0644_u0625_u0646_u0633_u0627_u0646 u0020 u0648_u0627_u0644_u0643_u0648_u0646 u0020 u0648_u0627_u0644_u062d_u064a_u0627_u0629 u0020 u201c_u0020", 
        "u0644_u064a_u0642_u0648_u0645 u0020 u0643_u0644 u0020 u0645_u062e_u0644_u0648_u0642 u0020 u0628_u0648_u0638_u064a_u0641_u062a_u0647 u0020 u062f_u0648_u0646 u0020 u062e_u0644_u0644 u0020 u0623_u0648 u0020 u0627_u0636_u0637_u0631_u0627_u0628 u0020 u201c u0020 u002e u0020 u0648_u0623_u0643_u062f_u062a u0020 u0627_u0644_u0645_u0627_u062f_u0629 u0020 u0034 u0020 u0639_u0644_u0649 u0020 u0623_u0646 u0020 u201c u0020 u0627_u0644_u062d_u064a_u0627_u0629 u0020 u0627_u0644_u062f_u0646_u064a_u0627 u0020 u0645_u0631_u062d_u0644_u0629 u0020 u0625_u0646_u062a_u0627_u062c_u0020", 
        "u0648_u0639_u0645_u0644_u060c u0020 u064a_u0633_u062a_u062b_u0645_u0631 u0020 u0641_u064a_u0647_u0627 u0020 u0627_u0644_u0645_u0633_u0644_u0645 u0020 u0637_u0627_u0642_u0627_u062a_u0647 u0020 u0639_u0646 u0020 u0625_u064a_u0645_u0627_u0646 u0020 u0648_u0647_u062f_u0649 u0020 u0644_u0644_u062d_u064a_u0627_u0629 u0020 u0627_u0644_u0623_u0628_u062f_u064a_u0629 u0020 u0627_u0644_u062e_u0627_u0644_u062f_u0629 u0020 u002e_u002e_u002e u0020 u201c u0020 u0028_u0648_u0632_u0627_u0631_u0629 u0020 u0627_u0644_u0645_u0639_u0627_u0631_u0641_u060c u0020 u0031_u0039_u0037_u0030_u0645_u060c_u0020", 
        "u0635_u0034_u0029 u0020 u000d", 
        "u0648_u0639_u0644_u0649 u0020 u0627_u0644_u0645_u0639_u0644_u0645 u0020 u0623_u0646 u0020 u064a_u0648_u0636_u062d u0020 u0644_u0644_u0637_u0644_u0627_u0628 u0020 u0642_u064a_u0645_u0629 u0020 u0627_u0644_u062d_u064a_u0627_u0629 u0020 u0648_u0642_u062f_u0631_u0647_u0627 u0020 u0639_u0646_u062f u0020 u0627_u0644_u0644_u0647 u0020 u062a_u0639_u0627_u0644_u0649_u060c u0020 u0648_u0633_u0628_u0644 u0020 u0627_u0644_u062d_u0641_u0627_u0638 u0020 u0639_u0644_u064a_u0647_u0627_u060c u0020 u0648_u0645_u0627 u0020 u064a_u062c_u0628 u0020 u0639_u0644_u0649_u0020", 
        "u0627_u0644_u0645_u0633_u0644_u0645 u0020 u0645_u0646 u0020 u0627_u0644_u0639_u0645_u0644 u0020 u0641_u064a_u0647_u0627_u060c u0020 u0648_u0643_u064a_u0641 u0020 u064a_u0633_u062e_u0631_u0647_u0627 u0020 u0628_u0627_u0644_u0634_u0643_u0644 u0020 u0627_u0644_u0630_u064a u0020 u064a_u062d_u0642_u0642 u0020 u0627_u0644_u0645_u062a_u0639_u0629 u0020 u0644_u0647_u060c u0020 u0648_u0627_u0644_u0641_u0648_u0632 u0020 u0628_u0631_u0636_u0627 u0020 u0627_u0644_u0644_u0647 u0020 u062a_u0639_u0627_u0644_u0649 u0020 u0644_u064a_u0633_u0639_u062f u0020 u0641_u064a_u0020", 
        "u0627_u0644_u062f_u0627_u0631_u064a_u0646_u002e"
    ]
}