{
    "bounding_box": [
        [
            53, 
            27, 
            602, 
            34
        ], 
        [
            186, 
            74, 
            347, 
            39
        ], 
        [
            81, 
            192, 
            568, 
            27
        ], 
        [
            111, 
            272, 
            537, 
            33
        ]
    ], 
    "image_height": 540, 
    "image_width": 720, 
    "transcription": [
        "u0033_u002e u0020 u0627_u0633_u062a_u0643_u0645_u0627_u0644 u0020 u0628_u0646_u0627_u0621 u0020 u0627_u0644_u0648_u062d_u062f_u0627_u062a u0020 u0627_u0644_u062a_u0646_u0638_u064a_u0645_u064a_u0629 u0020 u0627_u0644_u062a_u0627_u0628_u0639_u0629 u0020 u0644_u0644_u0647_u064a_u0626_u0629_u0020", 
        "u0641_u064a u0020 u0627_u0644_u0645_u062d_u0627_u0641_u0638_u0627_u062a u0020 u0644_u0625_u0646_u0641_u0627_u0630 u0020 u0627_u0644_u0642_u0627_u0646_u0648_u0646", 
        "u0625_u062d_u062f_u0627_u062b u0020 u0648_u062d_u062f_u0627_u062a u0020 u062a_u0646_u0638_u064a_u0645_u064a_u0629 u0020 u062a_u0627_u0628_u0639_u0629 u0020 u0644_u0644_u0647_u064a_u0626_u0629 u0020 u0639_u0644_u0649 u0020 u0645_u0633_u062a_u0648_u0649 u0020 u0627_u0644_u0642_u0637_u0631 u0020 u002e_u000d", 
        "u062a_u062f_u0639_u064a_u0645 u0020 u0627_u0644_u0647_u064a_u0626_u0629 u0020 u0628_u0627_u0644_u0643_u0641_u0627_u0621_u0627_u062a u0020 u0644_u062a_u0641_u0639_u064a_u0644 u0020 u0627_u0644_u0639_u0645_u0644 u0020 u0639_u0644_u0649 u0020 u0623_u062d_u0633_u0646 u0020 u0648_u062c_u0647 u0020 u002e"
    ]
}