{
    "bounding_box": [
        [
            66, 
            103, 
            598, 
            23
        ], 
        [
            66, 
            135, 
            598, 
            20
        ], 
        [
            66, 
            162, 
            598, 
            23
        ], 
        [
            66, 
            190, 
            598, 
            23
        ], 
        [
            470, 
            219, 
            193, 
            22
        ], 
        [
            112, 
            286, 
            552, 
            24
        ], 
        [
            66, 
            328, 
            598, 
            25
        ], 
        [
            616, 
            376, 
            48, 
            19
        ], 
        [
            336, 
            415, 
            327, 
            24
        ], 
        [
            238, 
            462, 
            426, 
            22
        ], 
        [
            14, 
            479, 
            115, 
            57
        ]
    ], 
    "image_height": 540, 
    "image_width": 720, 
    "transcription": [
        "u062f_u0631 u0020 u062d_u06a9_u0648_u0645_u062a u0020 u0645_u0627 u0020 u0642_u0648_u0627_u06cc u0020 u0633_u0647 u0020 u06af_u0627_u0646_u0647 u0020 u0645_u0642_u0646_u0646_u0647_u060c_u0645_u062c_u0631_u06cc_u0647 u0020 u0648 u0020 u0642_u0636_u0627_u06cc_u06cc_u0647 u0020 u0627_u0632 u0020 u06cc_u06a9_u062f_u06cc_u06af_u0631 u0020 u0645_u0633_u062a_u0642_u0644 u0020 u0627_u0646_u062f_u002e_u0628_u0647_u0020", 
        "u0637_u0648_u0631_u06cc_u06a9_u0647 u0020 u0647_u0631 u0020 u06cc_u06a9 u0020 u0648_u0638_u06cc_u0641_u06c0 u0020 u0645_u062e_u0635_u0648_u0635 u0020 u0628_u0647 u0020 u062e_u0648_u062f u0020 u0631_u0627 u0020 u062f_u0627_u0631_u062f_u002e_u062f_u0631 u0020 u0639_u06cc_u0646 u0020 u062d_u0627_u0644 u0020 u0627_u06cc_u0646 u0020 u0633_u0647 u0020 u0642_u0648_u0647_u0020", 
        "u0628_u0627 u0020 u0646_u0638_u0627_u0631_u062a u0020 u0631_u0647_u0628_u0631 u0020 u0628_u0647 u0020 u0635_u0648_u0631_u062a u0020 u0647_u0645_u0627_u0647_u0646_u06af u0020 u0639_u0645_u0644 u0020 u0645_u06cc u0020 u06a9_u0646_u0646_u062f_u002e_u062f_u0631 u0020 u0645_u06cc_u0627_u0646 u0020 u0642_u0648_u0627_u06cc u0020 u0633_u0647 u0020 u06af_u0627_u0646_u0647_u0020", 
        "u0645_u062c_u0644_u0633 u0020 u0634_u0648_u0631_u0627_u06cc u0020 u0627_u0633_u0644_u0627_u0645_u06cc u0020 u06a9_u0647 u0020 u0627_u0632 u0020 u0646_u0645_u0627_u06cc_u0646_u062f_u06af_u0627_u0646 u0020 u0645_u0631_u062f_u0645 u0020 u062a_u0634_u06a9_u06cc_u0644 u0020 u0645_u06cc u0020 u0634_u0648_u062f u0020 u0648_u0638_u06cc_u0641_u06c0 u0020 u0642_u0627_u0646_u0648_u0646_u0020", 
        "u06af_u0630_u0627_u0631_u06cc u0020 u0631_u0627 u0020 u0628_u0631 u0020 u0639_u0647_u062f_u0647 u0020 u062f_u0627_u0631_u062f_u002e_u000d", 
        "u002d_u0622_u06cc_u0627 u0020 u0645_u06cc u0020 u062f_u0627_u0646_u06cc_u062f u0020 u0646_u0645_u0627_u06cc_u0646_u062f_u06af_u0627_u0646 u0020 u0645_u062c_u0644_u0633 u0020 u0634_u0648_u0631_u0627_u06cc u0020 u0627_u0633_u0644_u0627_u0645_u06cc u0020 u0686_u06af_u0648_u0646_u0647 u0020 u0627_u0646_u062a_u062e_u0627_u0628 u0020 u0645_u06cc u0020 u0634_u0648_u0646_u062f_u061f_u000d", 
        "u002d_u0645_u0646_u0637_u0642_u0647 u0020 u0627_u06cc u0020 u06a9_u0647 u0020 u062f_u0631 u0020 u0622_u0646 u0020 u0632_u0646_u062f_u06af_u06cc u0020 u0645_u06cc u0020 u06a9_u0646_u06cc_u062f u0020 u062f_u0631 u0020 u0645_u062c_u0644_u0633 u0020 u0634_u0648_u0631_u0627_u06cc u0020 u0627_u0633_u0644_u0627_u0645_u06cc u0020 u0686_u0646_u062f u0020 u0646_u0645_u0627_u06cc_u0646_u062f_u0647_u0020", 
        "u062f_u0627_u0631_u062f_u061f_u000d", 
        "u002d_u0622_u06cc_u0627 u0020 u0627_u06cc_u0646 u0020 u0646_u0645_u0627_u06cc_u0646_u062f_u0647 u0020 u06cc_u0627 u0020 u0646_u0645_u0627_u06cc_u0646_u062f_u06af_u0627_u0646 u0020 u0631_u0627 u0020 u0645_u06cc u0020 u0634_u0646_u0627_u0633_u06cc_u062f_u061f_u000d", 
        "u002d_u0634_u0645_u0627 u0020 u062f_u0631 u0020 u0686_u0647 u0020 u0633_u0646_u06cc u0020 u0645_u06cc u0020 u062a_u0648_u0627_u0646_u06cc_u062f u0020 u0646_u0645_u0627_u06cc_u0646_u062f_u06c0 u0020 u062e_u0648_u062f u0020 u0631_u0627 u0020 u0627_u0646_u062a_u062e_u0627_u0628 u0020 u06a9_u0646_u06cc_u062f_u061f", 
        "u06af_u0641_u062a u0020 u0648 u0020 u06af_u0648 u0020 u06a9_u0646_u06cc_u062f"
    ]
}