{
    "bounding_box": [
        [
            193, 
            48, 
            344, 
            51
        ], 
        [
            259, 
            162, 
            235, 
            28
        ], 
        [
            139, 
            191, 
            464, 
            42
        ], 
        [
            118, 
            259, 
            485, 
            39
        ], 
        [
            108, 
            301, 
            514, 
            39
        ], 
        [
            60, 
            388, 
            618, 
            42
        ], 
        [
            251, 
            431, 
            246, 
            34
        ]
    ], 
    "image_height": 540, 
    "image_width": 720, 
    "transcription": [
        "u0623_u0648_u0644_u0627 u0020 u2013 u0020 u0645_u0643_u0629 u0020 u0020 u0020 u0020_u0635_u0034_u0034", 
        "u0633_u002d u0020 u0627_u064a_u0646 u0020 u062a_u0642_u0639 u0020 u0645_u0643_u0629 u0020 u061f u0020 u000d", 
        "u062a_u0642_u0639 u0020 u0641_u064a u0020 u0648_u0627_u062f_u0650 u0020 u0645_u062c_u0630_u0628 u0020 u0642_u0627_u062d_u0644 u0020 u0644_u0627_u064a_u0635_u0644_u062d u0020 u0644_u0644_u0632_u0631_u0627_u0639_u0629", 
        "u0623_u0630_u0643_u0631 u0020 u0627_u0633_u0645_u0627_u0621 u0020 u0627_u0644_u0642_u0628_u0627_u0626_u0644 u0020 u0627_u0644_u062a_u064a u0020 u0627_u0633_u062a_u0642_u0631_u062a u0020 u0641_u064a u0020 u0645_u0643_u0629_u061f_u0020", 
        "u0635_u0034_u0035 u0020 u0641_u064a u0020 u0627_u0633_u0641_u0644 u0020 u0627_u0644_u0622_u064a_u0629 u0020 u0627_u0644_u0642_u0631_u0622_u0646_u064a_u0629 u0020 u0633_u0637_u0631_u0031_u002b_u0032_u002b_u0033", 
        "u062c_u0631_u0647_u0645 u0020 u0020 u0020 u002d u0020 u0020 u0020 u062e_u0632_u0627_u0639_u0629 u0020 u0020_u002d u0020 u0020_u0028_u0642_u0635_u064a u0020 u0628_u0646 u0020 u0643_u0644_u0627_u0628 u0020 u0645_u0646 u0020 u0642_u0631_u064a_u0634 u0020 u0647_u0648_u0020", 
        "u0645_u0646 u0020 u0648_u062d_u062f u0020 u0642_u0628_u064a_u0644_u0629 u0020 u0642_u0631_u064a_u0634_u0029"
    ]
}