{
    "bounding_box": [
        [
            98, 
            37, 
            505, 
            38
        ], 
        [
            51, 
            85, 
            607, 
            34
        ], 
        [
            182, 
            127, 
            346, 
            34
        ], 
        [
            47, 
            170, 
            616, 
            31
        ], 
        [
            52, 
            213, 
            606, 
            35
        ], 
        [
            106, 
            256, 
            499, 
            35
        ], 
        [
            34, 
            300, 
            642, 
            31
        ], 
        [
            35, 
            338, 
            640, 
            35
        ], 
        [
            59, 
            386, 
            592, 
            35
        ], 
        [
            62, 
            430, 
            585, 
            34
        ], 
        [
            305, 
            473, 
            100, 
            30
        ]
    ], 
    "image_height": 540, 
    "image_width": 720, 
    "transcription": [
        "u0627_u0633_u062a_u0647_u0644_u0627_u0643 u0020 u0627_u0644_u0627_u0635_u0648_u0644 u0020 u0631_u062e_u064a_u0635_u0629 u0020 u0627_u0644_u062b_u0645_u0646 u0020 u0643_u0628_u064a_u0631_u0629 u0020 u0627_u0644_u0639_u062f_u062f u0020 u000b", 
        "u0645_u062b_u0644 u0020 u003a u0020 u0627_u0644_u0627_u0642_u0644_u0627_u0645 u0020 u002c u0020 u0627_u0644_u0645_u0633_u0627_u0645_u064a_u0631_u002c u0020 u0627_u0644_u0645_u0641_u0643_u0627_u062a u0020 u002c u0020 u0627_u0644_u062f_u0628_u0627_u0628_u064a_u0633 u0020 u0648_u063a_u064a_u0631_u0647_u0627 u0020 u002e_u000b", 
        "u062a_u062a_u0645 u0020 u0627_u0644_u0645_u062d_u0627_u0633_u0628_u0647 u0020 u0628_u0627_u062d_u062f_u0649 u0020 u0637_u0631_u064a_u0642_u062a_u064a_u0646 u0020 u003a_u000b", 
        "u0627_u0644_u0627_u0648_u0644_u0649 u0020 u003a u0020 u064a_u0639_u062a_u0628_u0631 u0020 u0645_u0627_u064a_u0635_u0631_u0641 u0020 u0645_u0646_u0647_u0627 u0020 u0646_u0641_u0642_u0627_u062a u0020 u0627_u064a_u0631_u0627_u062f_u064a_u0647 u0020 u062a_u062d_u0645_u0644 u0020 u062d_u0627_u0644_u0020", 
        "u0635_u0631_u0641_u0647_u0627 u0020 u0644_u0627_u064a_u0631_u0627_u062f u0020 u0627_u0644_u0633_u0646_u0647 u0020 u0627_u0644_u0645_u0627_u0644_u064a_u0647 u0020 u0627_u0644_u062a_u064a u0020 u0635_u0631_u0641_u062a u0020 u0641_u064a_u0647_u0627 u0020 u0648_u0644_u0627_u062a_u0638_u0647_u0631_u0020", 
        "u0641_u064a u0020 u0642_u0627_u0626_u0645_u0629 u0020 u0627_u0644_u0645_u0631_u0643_u0632 u0020 u0627_u0644_u0645_u0627_u0644_u064a u0020 u0644_u0639_u062f_u0645 u0020 u0627_u0647_u0645_u064a_u062a_u0647_u0627 u0020 u0627_u0644_u0646_u0633_u0628_u064a_u0647_u002e_u000b", 
        "u0627_u0644_u062b_u0627_u0646_u064a_u0647_u003a u0020 u062a_u0639_u062a_u0628_u0631 u0020 u0647_u0630_u0647 u0020 u0627_u0644_u0627_u0635_u0648_u0644 u0020 u0639_u0646_u062f u0020 u0634_u0631_u0627_u0626_u0647_u0627 u0020 u0627_u0635_u0648_u0644 u0020 u062b_u0627_u0628_u062a_u0647 u0020 u062a_u0633_u062c_u0644_u0020", 
        "u0643_u0630_u0644_u0643 u0020 u0648_u0644_u0643_u0646 u0020 u062a_u062c_u0631_u062f u0020 u0627_u062e_u0631 u0020 u0627_u0644_u0641_u062a_u0631_u0647 u0020 u0627_u0644_u0645_u062d_u0627_u0633_u0628_u064a_u0647 u0020 u062c_u0631_u062f_u0627_u064b u0020 u0641_u0639_u0644_u064a_u0627_u064b u0020 u0648_u064a_u0639_u062a_u0628_u0631_u0020", 
        "u0627_u0644_u0641_u0631_u0642 u0020 u0628_u064a_u0646 u0020 u0627_u0644_u062a_u0643_u0644_u0641_u0647 u0020 u0627_u0644_u062f_u0641_u062a_u0631_u064a_u0647 u0020 u0648_u0628_u064a_u0646 u0020 u0627_u0644_u0642_u064a_u0645_u0647 u0020 u0641_u064a u0020 u0646_u0647_u0627_u064a_u0629 u0020 u0627_u0644_u0641_u062a_u0631_u0647_u0020", 
        "u0627_u0644_u0645_u062d_u0627_u0633_u0628_u064a_u0647 u0020 u0647_u0648 u0020 u0645_u0635_u0631_u0648_u0641 u0020 u0627_u0633_u062a_u0647_u0644_u0627_u0643 u0020 u0644_u0645_u062b_u0644 u0020 u0647_u0630_u0627 u0020 u0627_u0644_u0646_u0648_u0639 u0020 u0645_u0646_u0020", 
        "u0627_u0644_u0627_u0635_u0648_u0644_u0020"
    ]
}