{
    "bounding_box": [
        [
            62, 
            22, 
            634, 
            31
        ], 
        [
            99, 
            59, 
            596, 
            33
        ], 
        [
            28, 
            93, 
            668, 
            37
        ], 
        [
            242, 
            134, 
            454, 
            34
        ], 
        [
            83, 
            175, 
            612, 
            32
        ], 
        [
            254, 
            211, 
            442, 
            34
        ], 
        [
            26, 
            250, 
            670, 
            34
        ], 
        [
            59, 
            289, 
            636, 
            31
        ], 
        [
            137, 
            326, 
            559, 
            33
        ]
    ], 
    "image_height": 540, 
    "image_width": 720, 
    "transcription": [
        "u063a_u0649 u0020 u0645_u0632_u0627_u0645_u064a_u0631 u0020 u0635_u0644_u0627_u0629 u0020 u0627_u0644_u063a_u0631_u0648_u0628 u0020 u0646_u0642_u0648_u0644_u0028 u0020 u0639_u0644_u0649 u0020 u0627_u0646_u0647_u0627_u0631 u0020 u0628_u0627_u0628_u0644 u0020 u062c_u0644_u0633_u0646_u0627 u0020 u0648_u0628_u0643_u064a_u0646_u0627_u0020", 
        "u0639_u0646_u062f_u0645_u0627 u0020 u062a_u0630_u0643_u0631_u0646_u0627 u0020 u0635_u0647_u064a_u0648_u0646 u0020 u0647_u0646_u0627_u0643 u0020 u0639_u0644_u0642_u0646_u0627 u0020 u0642_u064a_u062b_u0627_u0631_u0627_u062a_u0646_u0627 u0020 u0029 u0020 u0645_u0632 u0020 u0031_u0033_u0037_u003a u0020 u0031 u0020 u000b", 
        "u064a_u0639_u0646_u0649 u0020 u0644_u0645_u0627 u0020 u0633_u0627_u0628_u0648_u0627 u0020 u0628_u064a_u062a u0020 u0631_u0628_u0646_u0627 u0020 u0648_u0633_u0627_u0628_u0648_u0627 u0020 u0627_u0648_u0631_u0634_u0644_u064a_u0645 u0020 u0028 u0020 u064a_u0639_u0646_u0649 u0020 u0641_u0649 u0020 u0627_u0644_u0633_u0628_u0649_u0029 u0020 u0628_u0643_u0648_u0627_u0020", 
        "u0639_u0644_u0649 u0020 u0644_u0627_u0627_u064a_u0627_u0645 u0020 u0627_u0644_u062d_u0644_u0648_u0629 u0020 u0627_u0644_u062a_u0649 u0020 u0642_u0636_u0648_u0647_u0627 u0020 u0641_u0649 u0020 u0628_u064a_u062a u0020 u0631_u0628_u0646_u0627 u0020 u000b", 
        "u0628_u0648_u0644_u0633 u0020 u064a_u0642_u0648_u0644 u0020 u0028 u0020 u0643_u062b_u064a_u0631_u0648_u0646 u0020 u0643_u0627_u0646_u0648_u0627 u0020 u0645_u0639_u0646_u0627 u0020 u0627_u0645_u0627 u0020 u0627_u0644_u0627_u0646 u0020 u0627_u0630_u0643_u0631_u0647_u0645 u0020 u0628_u0627_u0643_u064a_u0627 u0020 u0644_u0627_u0646_u0647_u0645_u0020", 
        "u0635_u0627_u0631_u0648_u0627 u0020 u0627_u0639_u062f_u0627_u0621 u0020 u0635_u0644_u064a_u0628 u0020 u0627_u0644_u0645_u0633_u064a_u062d u0020 u0029 u0020 u0641_u0649 u0020 u0033_u003a u0020 u0031_u0038 u0020 u000d", 
        "u0645_u062b_u0644 u0020 u0627_u0645_u064a_u0646 u0020 u0627_u0644_u062e_u062f_u0645_u0629 u0020 u0627_u0644_u0630_u0649 u0020 u0642_u0627_u0628_u0644_u062a_u0647 u0020 u0628_u0627_u0643_u064a_u0627 u0020 u0644_u0627_u0646 u0020 u0627_u062d_u062f u0020 u0627_u0644_u0645_u062a_u0633_u0648_u0644_u064a_u0646 u0020 u0641_u0649 u0020 u0627_u0644_u0643_u0646_u064a_u0633_u0629_u0020", 
        "u0648_u0642_u0641 u0020 u0645_u0639_u0647 u0020 u0643_u062b_u064a_u0631 u0020 u0648_u0645_u0631_u0629 u0020 u0631_u0641_u0636 u0020 u0627_u0646 u0020 u064a_u0639_u0637_u064a_u0647 u0020 u0641_u0644_u0648_u0633 u0020 u0641_u0644_u0641_u0642 u0020 u0644_u0647 u0020 u062a_u0647_u0645_u0629 u0020 u0627_u0646_u0647_u0020", 
        "u0636_u0631_u0628_u0647 u0020 u0628_u0627_u0644_u0633_u064a_u0627_u0631_u0629 u0020 u002e_u002e u0020 u0641_u0649 u0020 u0644_u062d_u0638_u0629 u0020 u0627_u0646_u0642_u0644_u0628 u0020 u0639_u0644_u064a_u0647 u0020 u0648_u0639_u0644_u0649 u0020 u0627_u0644_u0643_u0646_u064a_u0633_u0629_u0020"
    ]
}