{
    "bounding_box": [
        [
            288, 
            55, 
            142, 
            42
        ], 
        [
            515, 
            137, 
            170, 
            24
        ], 
        [
            3, 
            170, 
            682, 
            31
        ], 
        [
            26, 
            208, 
            639, 
            28
        ], 
        [
            562, 
            285, 
            123, 
            26
        ], 
        [
            18, 
            318, 
            667, 
            31
        ], 
        [
            338, 
            353, 
            327, 
            29
        ], 
        [
            258, 
            432, 
            427, 
            28
        ], 
        [
            110, 
            465, 
            575, 
            32
        ], 
        [
            616, 
            504, 
            69, 
            29
        ]
    ], 
    "image_height": 540, 
    "image_width": 720, 
    "transcription": [
        "u062a_u0631_u0643_u064a_u0628_u062a_u0647", 
        "u0031_u002d u0020 u0645_u062c_u0644_u0633 u0020 u0648_u0627_u062d_u062f u0020 u0020_u000d", 
        "u064a_u062c_u0639_u0644 u0020 u0627_u0644_u0633_u0644_u0637_u0629 u0020 u0627_u0644_u062a_u0634_u0631_u064a_u0639_u064a_u0629 u0020 u0623_u0642_u0644 u0020 u062a_u0639_u0642_u064a_u062f_u0627_u064b_u060c u0020 u0623_u0643_u062b_u0631 u0020 u062a_u062c_u0627_u0648_u0628_u0627_u064b u0020 u0645_u0639 u0020 u0627_u0644_u0623_u062d_u062f_u0627_u062b u0020 u0648 u0020 u064a_u062f_u0639_u0645 u0020 u0648_u062d_u062f_u0629_u0020", 
        "u0627_u0644_u0628_u0644_u0627_u062f u0020 u062d_u064a_u062b u0020 u064a_u062c_u0646_u0628 u0020 u0627_u0644_u0627_u0646_u0642_u0633_u0627_u0645 u0020 u0645_u0627 u0020 u0628_u064a_u0646 u0020 u0627_u0644_u0645_u062c_u0644_u0633_u064a_u0646 u0020 u0020 u0020 u0645_u062b_u0627_u0644 u0020 u002f u0020 u062a_u0631_u0643_u064a_u0627 u0020 u0648 u0020 u0627_u0633_u0631_u0627_u0626_u064a_u0644_u000d", 
        "u0032_u002d u0020 u0645_u062c_u0644_u0633_u064a_u0646 u0020 u000d", 
        "u0648_u062c_u0648_u062f u0020 u0645_u062c_u0644_u0633 u0020 u062b_u0627_u0646_u064a u0020 u064a_u062a_u064a_u062d u0020 u0644_u062a_u0645_u062b_u064a_u0644 u0020 u0623_u063a_u0644_u0628 u0020 u0641_u0626_u0627_u062a u0020 u0627_u0644_u0634_u0639_u0628 u0020 u0643_u0645_u0627 u0020 u064a_u0633_u0627_u0639_u062f u0020 u0639_u0644_u0649 u0020 u062a_u0644_u0627_u0641_u064a_u0020", 
        "u0648_u062c_u0648_u062f u0020 u0623_u062e_u0637_u0627_u0621 u0020 u0645_u0646 u0020 u0623_u062d_u062f u0020 u0627_u0644_u0645_u062c_u0644_u0633_u064a_u0646 u0020 u002e_u002e u0020 u000d", 
        "u0628_u0631_u064a_u0637_u0627_u0646_u064a_u0627 u0020 u0020_u0028 u0020 u0645_u062c_u0644_u0633 u0020 u0627_u0644_u0639_u0645_u0648_u0645 u0020 u0648 u0020 u0645_u062c_u0644_u0633 u0020 u0627_u0644_u0644_u0648_u0631_u062f_u0627_u062a_u0029_u000d", 
        "u0627_u0644_u0648_u0644_u0627_u064a_u0627_u062a u0020 u0627_u0644_u0645_u062a_u062d_u062f_u0629 u0020 u0627_u0644_u0623_u0645_u0631_u064a_u0643_u064a_u0629 u0020 u0028 u0020 u0645_u062c_u0644_u0633 u0020 u0627_u0644_u0634_u064a_u0648_u062e u0020 u0648 u0020 u0645_u062c_u0644_u0633 u0020 u0627_u0644_u0646_u0648_u0627_u0628_u0029_u000d", 
        "u0623_u0644_u0645_u0627_u0646_u064a_u0627 u0020 u000d"
    ]
}