{
    "bounding_box": [
        [
            328, 
            19, 
            384, 
            20
        ], 
        [
            136, 
            40, 
            576, 
            25
        ], 
        [
            59, 
            66, 
            653, 
            25
        ], 
        [
            328, 
            93, 
            357, 
            19
        ], 
        [
            85, 
            116, 
            626, 
            20
        ], 
        [
            209, 
            142, 
            503, 
            22
        ], 
        [
            93, 
            169, 
            618, 
            22
        ], 
        [
            70, 
            194, 
            641, 
            23
        ], 
        [
            312, 
            222, 
            400, 
            21
        ], 
        [
            59, 
            248, 
            653, 
            23
        ], 
        [
            40, 
            272, 
            645, 
            20
        ], 
        [
            48, 
            294, 
            636, 
            20
        ], 
        [
            77, 
            315, 
            608, 
            20
        ], 
        [
            44, 
            336, 
            641, 
            20
        ], 
        [
            43, 
            357, 
            641, 
            20
        ], 
        [
            64, 
            378, 
            621, 
            20
        ], 
        [
            557, 
            400, 
            128, 
            19
        ]
    ], 
    "image_height": 540, 
    "image_width": 720, 
    "transcription": [
        "u0639_u0646 u0020 u0623_u0646_u0633 u0020 u0628_u0646 u0020 u0645_u0627_u0644_u0643 u0020 u0623_u0646 u0020 u0627_u0644_u0631_u0633_u0648_u0644 u0020 u0635_u0644 u0020 u0627_u0644_u0644_u0647 u0020 u0639_u0644_u064a_u0647 u0020 u0648_u0633_u0644_u0645 u0020 u0642_u0627_u0644 u0020 u003a u0020 u000d", 
        "u064a_u062c_u062a_u0645_u0639 u0020 u0627_u0644_u0645_u0624_u0645_u0646_u0648_u0646 u0020 u064a_u0648_u0645 u0020 u0627_u0644_u0642_u064a_u0627_u0645_u0629 u0020 u064a_u064f_u0644_u0652_u0647_u064e_u0645_u0648_u0646_u060c u0020 u0641_u064a_u0642_u0648_u0644_u0648_u0646 u0020 u0644_u0648 u0020 u062a_u064e_u0634_u064e_u0641_u064e_u0639_u0651_u0646_u0627 u0020 u0627_u0644_u0649 u0020 u0631_u0628_u0646_u0627 u0020 u0641_u0623_u0631_u0627_u062d_u0646_u0627 u0020 u0645_u0646 u0020 u0645_u0643_u0627_u0646_u0646_u0627 u0020 u002e_u000d", 
        "u0641_u064a_u0623_u062a_u0648_u0646 u0020 u0622_u062f_u0645 u0020 u0639_u0644_u064a_u0647 u0020 u0627_u0644_u0633_u0644_u0627_u0645 u0020 u0641_u064a_u0642_u0648_u0644_u0648_u0646 u0020 u003a_u0627_u0646_u062a u0020 u0622_u062f_u0645 u0020 u0623_u0628_u0648 u0020 u0627_u0644_u0646_u0627_u0633 u0020 u062e_u0644_u0642_u0643 u0020 u0627_u0644_u0644_u0647 u0020 u0628_u064a_u062f_u0647 u0020 u0648_u0623_u064e_u0633_u0652_u062c_u064e_u062f_u064e u0020 u0644_u0643 u0020 u0645_u0644_u0627_u0626_u0643_u062a_u0647 u0020 u060c u0020 u0641_u0627_u0634_u0641_u0639 u0020 u0644_u0646_u0627_u0020", 
        "u0639_u0646_u062f u0020 u0631_u0628_u0643 u0020 u064a_u064f_u0631_u0650_u062d_u0652_u0646_u0627 u0020 u0645_u0646 u0020 u0645_u0643_u0627_u0646_u0646_u0627 u0020 u0647_u0630_u0627_u060c u0020 u0641_u064a_u0642_u0648_u0644_u003a u0020 u0644_u0633_u062a u0020 u0647_u0646_u0627_u0643_u0645_u002e u0020 u000d", 
        "u0627_u0626_u062a_u0648_u0627 u0020 u0646_u0648_u062d_u0627 u0020 u0639_u0644_u064a_u0647 u0020 u0627_u0644_u0633_u0644_u0627_u0645 u0020 u0641_u0625_u0646_u0647 u0020 u0627_u0648_u0644 u0020 u0631_u0633_u0648_u0644 u0020 u0628_u064f_u0639_u062b u0020 u0627_u0644_u0649 u0020 u0623_u0647_u0644 u0020 u0627_u0644_u0627_u0631_u0636 u0020 u060c u0020 u0641_u064a_u0623_u062a_u0648_u0646_u0647 u0020 u0641_u064a_u0642_u0648_u0644_u003a u0020 u0644_u0633_u062a u0020 u0647_u0646_u0627_u0643_u0645_u002e u0020 u000d", 
        "u0648_u0644_u0643_u0646 u0020 u0627_u0626_u062a_u0648_u0627 u0020 u062e_u0644_u064a_u0644 u0020 u0627_u0644_u0631_u062d_u0645_u0646 u0020 u0627_u0628_u0631_u0627_u0647_u064a_u0645 u0020 u0639_u0644_u064a_u0647 u0020 u0627_u0644_u0633_u0644_u0627_u0645 u0020 u0641_u064a_u0623_u062a_u0648_u0646_u0647 u0020 u0641_u064a_u0642_u0648_u0644 u0020 u003a_u0644_u0633_u062a u0020 u0647_u0646_u0627_u0643_u0645_u002e u0020 u000d", 
        "u0648_u0644_u0643_u0646 u0020 u0627_u0626_u062a_u0648_u0627 u0020 u0645_u0648_u0633_u0649 u0020 u0639_u0644_u064a_u0647 u0020 u0627_u0644_u0633_u0644_u0627_u0645 u0020 u0639_u0628_u062f u0020 u0643_u0644_u0645_u0647 u0020 u0627_u0644_u0644_u0647 u0020 u0648_u0627_u0639_u0637_u0627_u0647 u0020 u0627_u0644_u062a_u0648_u0631_u0627_u0647 u0020 u0641_u064a_u0623_u062a_u0648_u0646_u0647 u0020 u060c u0020 u0641_u064a_u0642_u0648_u0644 u0020 u003a_u0644_u0633_u062a u0020 u0647_u0646_u0627_u0643_u0645 u0020 u002e u0020 u000d", 
        "u0648_u0644_u0643_u0646 u0020 u0627_u0626_u062a_u0648_u0627 u0020 u0639_u064a_u0633_u0649 u0020 u0639_u0644_u064a_u0647 u0020 u0627_u0644_u0633_u0644_u0627_u0645 u0020 u0639_u0628_u062f u0020 u0627_u0644_u0644_u0647 u0020 u0648_u0631_u0633_u0648_u0644_u0647 u0020 u0643_u0644_u0645_u0629 u0020 u0627_u0644_u0644_u0647 u0020 u0648_u0631_u0648_u062d_u0647 u0020 u0641_u064a_u0623_u062a_u0648_u0646_u0647_u060c u0020 u0641_u064a_u0642_u0648_u0644_u003a u0020 u0644_u0633_u062a u0020 u0647_u0646_u0627_u0643_u0645_u002e u0020 u000d", 
        "u0648_u0644_u0643_u0646 u0020 u0627_u0626_u062a_u0648_u0627 u0020 u0645_u062d_u0645_u062f u0020 u0639_u0628_u062f_u064c u0020 u063a_u0641_u0631 u0020 u0644_u0647 u0020 u0627_u0644_u0644_u0647 u0020 u0645_u0627 u0020 u062a_u0642_u062f_u0645 u0020 u0645_u0646 u0020 u0630_u0646_u0628_u0647 u0020 u0648_u0645_u0627 u0020 u062a_u0623_u062e_u0631_u002e u0020 u000d", 
        "u0641_u064a_u0623_u062a_u0648_u0646_u064e u0020 u0645_u062d_u0645_u062f u0020 u0635_u0644_u0651 u0020 u0627_u0644_u0644_u0647 u0020 u0639_u0644_u064a_u0647 u0020 u0648_u0633_u0644_u0645 u0020 u0020_u0641_u064a_u0642_u0648_u0644_u003a u0020 u0641_u0627_u0633_u062a_u0623_u0630_u0646_u062a_u064f u0020 u0639_u0644_u0649 u0020 u0631_u0628_u064a_u060c u0020 u0641_u064e_u064a_u064f_u0624_u0630_u064e_u0646_u064f u0020 u0644_u064a_u060c u0020 u0641_u0625_u0630_u0627 u0020 u0631_u0623_u064a_u062a_u0647 u0020 u0648_u0642_u0639_u062a u0020 u0633_u0627_u062c_u062f_u0627_u0020", 
        "u0641_u064e_u064a_u064e_u062f_u064e_u0639_u064e_u0646_u064a u0020 u0645_u0627 u0020 u0634_u0627_u0621 u0020 u0627_u0644_u0644_u0647 u0020 u0627_u0646 u0020 u064a_u064e_u062f_u064e_u0639_u064e_u0646_u064a u0020 u062b_u0645 u0020 u064a_u0642_u0627_u0644 u0020 u0627_u0631_u0641_u0639 u0020 u064a_u0627 u0020 u0645_u062d_u0645_u062f u0020 u060c_u0648_u0642_u0644 u0020 u062a_u064f_u0633_u0645_u064e_u0639 u0020 u0648_u0633_u064e_u0644 u0020 u062a_u064f_u0639_u0652_u0637_u064e_u0647_u060c u0020 u0648_u0627_u0634_u0641_u0639 u0020 u062a_u064f_u0634_u064e_u0641_u0651_u064e_u0639_u060c u0020 u0641_u064e_u0623_u064e_u062d_u0645_u0650_u062f_u064e_u0647_u064f_u0020", 
        "u0628_u062a_u062d_u0645_u064a_u062f_u064d u0020 u064a_u064f_u0639_u064e_u0644_u0650_u0645_u0652_u0646_u064a_u0647_u060c u0020 u062b_u0645 u0020 u0627_u0634_u0652_u0641_u064e_u0639_u064f u0020 u0641_u064e_u064a_u064e_u062d_u0650_u062f_u0651_u064f u0020 u0644_u064a u0020 u062d_u062f_u0627 u0020 u060c u0020 u0641_u064a_u062f_u062e_u0644_u0647_u0645 u0020 u0627_u0644_u062c_u0646_u0629_u060c u0020 u062b_u0645 u0020 u0623_u0639_u0648_u062f u0020 u0627_u0644_u062b_u0627_u0646_u064a_u0629 u0020 u0641_u0625_u0630_u0627 u0020 u0631_u0623_u064a_u062a_u0647 u0020 u0648_u0642_u0639_u062a u0020 u0633_u0627_u062c_u062f_u0627_u0020", 
        "u0641_u064a_u062f_u0639_u0646_u064a u0020 u0645_u0627 u0020 u0634_u0627_u0621 u0020 u0627_u0644_u0644_u0647 u0020 u0627_u0646 u0020 u064a_u062f_u0639_u0646_u064a u0020 u062b_u0645 u0020 u064a_u0642_u0627_u0644 u0020 u0644_u064a u0020 u0627_u0631_u0641_u0639 u0020 u064a_u0627 u0020 u0645_u062d_u0645_u062f_u060c u0020 u0641_u064a_u062d_u062f u0020 u0644_u064a u0020 u062d_u062f_u0627 u0020 u0641_u064a_u062f_u062e_u0644_u0647 u0020 u0627_u0644_u062c_u0646_u0647_u060c u0020 u062b_u0645 u0020 u0623_u0639_u0648_u062f_u0020", 
        "u0627_u0644_u062b_u0627_u0644_u062b_u0629 u0020 u0641_u0625_u0630_u0627 u0020 u0631_u0623_u064a_u062a u0020 u0631_u0628_u064a u0020 u0648_u0642_u0639_u062a u0020 u0633_u0627_u062c_u062f_u0627 u0020 u0641_u064a_u062f_u0639_u0646_u064a u0020 u0627_u0645_u0627 u0020 u0634_u0627_u0621 u0020 u0644_u0644_u0647 u0020 u0623_u0646 u0020 u064a_u062f_u0639_u0646_u064a u0020 u062b_u0645 u0020 u064a_u0642_u0627_u0644 u0020 u0627_u0631_u0641_u0639 u0020 u064a_u0627 u0020 u0645_u062d_u0645_u062f u0020 u0642_u0644 u0020 u062a_u064f_u0633_u0652_u0645_u064e_u0639_u0020", 
        "u0648_u064e_u0633_u064e_u0644 u0020 u062a_u064f_u0639_u0652_u0637_u064e_u0647 u0020 u0648_u0627_u0634_u0641_u0639 u0020 u062a_u0634_u0641_u0639 u0020 u0641_u0623_u0631_u0641_u0639 u0020 u0631_u0623_u0633_u064a u0020 u060c u0020 u0641_u0627_u062d_u0645_u062f u0020 u0627_u0644_u0644_u0647 u0020 u0628_u062a_u062d_u0645_u064a_u062f_u064d u0020 u064a_u064f_u0639_u064e_u0644_u0650_u0645_u0646_u064a_u0647 u0020 u062b_u0645 u0020 u0623_u0634_u0652_u0641_u064e_u0639_u064f u0020 u0641_u064a_u064e_u062d_u062f u0020 u0644_u064a u0020 u062d_u062f_u0627 u0020 u0641_u064a_u062f_u062e_u0644_u0647_u0645_u0020", 
        "u0627_u0644_u062c_u0646_u0629 u0020 u002e u0020 u062b_u0645 u0020 u0623_u0639_u0648_u062f u0020 u0627_u0644_u0631_u0627_u0628_u0639_u0629 u0020 u0641_u0623_u0642_u0648_u0644 u0020 u064a_u0627 u0020 u0631_u0628 u0020 u0645_u0627 u0020 u0628_u0642_u064a u0020 u0625_u0644_u0627 u0020 u0645_u0646 u0020 u062d_u064e_u0628_u064e_u0633_u064e_u0647 u0020 u0627_u0644_u0642_u0631_u0622_u0646_u002e u0020 u201d_u062d_u062f_u064a_u062b u0020 u0635_u062d_u064a_u062d u0020 u0648_u0623_u062e_u0631_u062c_u0647_u0020", 
        "u0627_u0644_u0628_u062e_u0627_u0631_u064a u0020 u0648_u0645_u0633_u0644_u0645_u0022_u002e u0020 u000d"
    ]
}