{
    "bounding_box": [
        [
            65, 
            138, 
            605, 
            27
        ], 
        [
            321, 
            168, 
            321, 
            27
        ], 
        [
            227, 
            205, 
            416, 
            25
        ], 
        [
            90, 
            240, 
            553, 
            27
        ], 
        [
            358, 
            279, 
            284, 
            25
        ], 
        [
            519, 
            316, 
            124, 
            24
        ], 
        [
            457, 
            353, 
            185, 
            24
        ], 
        [
            200, 
            29, 
            296, 
            26
        ]
    ], 
    "image_height": 540, 
    "image_width": 720, 
    "transcription": [
        "u0647_u0646_u0627_u0643 u0020 u0645_u062c_u0645_u0648_u0639_u0629 u0020 u0643_u0628_u064a_u0631_u0629 u0020 u0645_u0646 u0020 u0627_u0644_u0645_u062e_u0631_u062c_u0627_u062a u0020 u0641_u064a u0020 u062a_u0648_u0642_u0639_u0627_u062a u0020 u0627_u0644_u0628_u064a_u0626_u0629 u0020 u0627_u0644_u0639_u0627_u0644_u0645_u064a_u0629_u060c_u0020", 
        "u0648_u0643_u0644_u0647_u0627 u0020 u0645_u0633_u062a_u0646_u062f_u0629 u0020 u0625_u0644_u064a u0020 u0628_u0648_u0627_u0628_u0629 u0020 u0628_u064a_u0627_u0646_u0627_u062a u0020 u062c_u064a_u0648_u002e u0020 u000d", 
        "u0627_u0644_u062a_u0642_u064a_u064a_u0645_u0627_u062a u0020 u0627_u0644_u0639_u0627_u0644_u0645_u064a_u0629 u0020 u0028_u062c_u064a_u0648_u002d_u0031_u060c u0020 u0648_u062c_u064a_u0648_u002d_u0032_u060c u0020 u0648_u062c_u064a_u0648_u002d_u0033_u0029_u000d", 
        "u062d_u064e_u0648_u0644_u0650_u064a_u064e_u0651_u0627_u062a u0020 u062a_u0648_u0642_u0639_u0627_u062a u0020 u0627_u0644_u0628_u064a_u0626_u0629 u0020 u0627_u0644_u0639_u0627_u0644_u0645_u064a_u0629 u0020 u0028_u0032_u0030_u0030_u0033_u060c_u0648_u0032_u0030_u0030_u0034_u002f_u0035_u060c u0020 u0648_u0032_u0030_u0030_u0036_u0029_u000d", 
        "u0627_u0644_u062a_u0642_u0627_u0631_u064a_u0631 u0020 u0627_u0644_u0625_u0642_u0644_u064a_u0645_u064a_u0629 u0020 u0648_u062f_u0648_u0646 u0020 u0627_u0644_u0625_u0642_u0644_u064a_u0645_u064a_u0629_u000d", 
        "u0627_u0644_u062a_u0642_u0627_u0631_u064a_u0631 u0020 u0627_u0644_u0641_u0646_u064a_u0629_u000d", 
        "u0645_u0646_u062a_u062c_u0627_u062a u0020 u062c_u064a_u0648 u0020 u0627_u0644_u062a_u0639_u0644_u064a_u0645_u064a_u0629", 
        "u0645_u0646_u062a_u062c_u0627_u062a u0020 u062a_u0648_u0642_u0639_u0627_u062a u0020 u0627_u0644_u0628_u064a_u0626_u0629 u0020 u0627_u0644_u0639_u0627_u0644_u0645_u064a_u0629"
    ]
}