{
    "bounding_box": [
        [
            725, 
            107, 
            142, 
            29
        ], 
        [
            471, 
            200, 
            395, 
            33
        ], 
        [
            721, 
            303, 
            145, 
            29
        ], 
        [
            108, 
            396, 
            759, 
            36
        ], 
        [
            789, 
            444, 
            77, 
            22
        ]
    ], 
    "image_height": 540, 
    "image_width": 960, 
    "transcription": [
        "u0032_u002d u0020 u0627_u0644_u0645_u0643_u0627_u0646 u0020 u003a_u000d", 
        "u0639_u0646_u0635_u0631 u0020 u0623_u0633_u0627_u0633 u0020 u0645_u0646 u0020 u0639_u0646_u0627_u0635_u0631 u0020 u0627_u0644_u0642_u0635_u0629 u0020 u002e_u000d", 
        "u0033_u002d u0020 u0627_u0644_u0632_u0645_u0627_u0646 u0020 u003a_u000d", 
        "u0648_u062d_u062f_u0629 u0020 u0627_u0644_u0632_u0645_u0627_u0646 u0020 u0623_u064a_u0636_u0627 u0020 u0639_u0646_u0635_u0631 u0020 u0623_u0633_u0627_u0633 u0020 u0645_u0646 u0020 u0639_u0646_u0627_u0635_u0631 u0020 u0627_u0644_u0642_u0635_u0629 u0020 u002c u0020 u0645_u062d_u062f_u0648_u062f u0020 u0628_u0641_u062a_u0631_u0629_u0020", 
        "u0645_u062d_u062f_u062f_u0629_u002e"
    ]
}