{
    "bounding_box": [
        [
            70, 
            100, 
            610, 
            32
        ], 
        [
            62, 
            138, 
            619, 
            27
        ], 
        [
            70, 
            173, 
            610, 
            31
        ], 
        [
            62, 
            208, 
            619, 
            32
        ], 
        [
            70, 
            244, 
            610, 
            32
        ], 
        [
            70, 
            280, 
            610, 
            32
        ], 
        [
            550, 
            316, 
            130, 
            31
        ], 
        [
            135, 
            42, 
            500, 
            28
        ]
    ], 
    "image_height": 540, 
    "image_width": 720, 
    "transcription": [
        "u0034 u0020 u002d u0020 u0636_u063a_u0637 u0020 u0627_u0644_u0628_u064a_u0627_u0646_u0627_u062a u0020 u0641_u0647_u0630_u0627 u0020 u0627_u0644_u0646_u0638_u0627_u0645 u0020 u064a_u0633_u0645_u062d u0020 u0644_u0643 u0020 u0628_u0636_u063a_u0638 u0020 u0627_u0644_u0645_u0644_u0641_u0627_u062a u0020 u0623_u0648_u0020", 
        "u0627_u0644_u0645_u062c_u0644_u062f_u0627_u062a u0020 u0648 u0020 u062a_u0635_u063a_u064a_u0631 u0020 u062d_u062c_u0645_u0647_u0627 u0020 u0628_u0634_u0643_u0644 u0020 u0645_u0644_u062d_u0648_u0638 u0020 u000b", 
        "u0035_u002d u0020 u0648 u0020 u0645_u0646 u0020 u0627_u0644_u0645_u0645_u064a_u0632_u0627_u062a u0020 u0627_u0644_u0645_u0645_u062a_u0627_u0632_u0629 u0020 u062f_u0639_u0645_u0647 u0020 u0644_u0644 u0020 u0049_u0053_u004f u0020 u0055_u006e_u0069_u0063_u006f_u0064_u0065 u0020 u0648 u0020 u0627_u0644_u0630_u064a_u0020", 
        "u064a_u0633_u0645_u062d u0020 u0628_u0627_u0633_u062a_u062e_u062f_u0627_u0645 u0020 u0031_u0036 u0020 u0628_u062a u0020 u0644_u062a_u0631_u0645_u064a_u0632 u0020 u0643_u0644 u0020 u062d_u0631_u0641 u0020 u0623_u0648 u0020 u0631_u0645_u0632 u0020 u000b", 
        "u0648 u0020 u0644_u064a_u0633 u0020 u0643_u0645_u0627 u0020 u0641_u064a u0020 u0041_u0053_u0043_u0049_u0049 u0020 u0648 u0020 u0627_u0644_u0630_u064a u0020 u064a_u0633_u062a_u062e_u062f_u0645 u0020 u0038 u0020 u0623_u0648 u0020 u0037 u0020 u0628_u062a u0020 u0641_u0642_u0637 u0020 u060c u0020 u0648_u0020", 
        "u0647_u0630_u0627 u0020 u064a_u0639_u0646_u064a u0020 u0628_u0627_u062e_u062a_u0635_u0627_u0631 u0020 u0623_u0646_u0643 u0020 u062a_u0633_u062a_u0637_u064a_u0639 u0020 u062a_u0633_u0645_u064a_u0629 u0020 u0645_u0644_u0641_u0627_u062a_u0643 u0020 u0628_u0623_u064a u0020 u0644_u063a_u0629 u0020 u0643_u0627_u0646_u062a_u0020", 
        "u062d_u062a_u0649 u0020 u0627_u0644_u0635_u064a_u0646_u064a_u0629_u0020", 
        "u0645_u0627 u0020 u0627_u0644_u0630_u064a u0020 u064a_u062c_u0639_u0644 u0020 u0646_u0638_u0627_u0645 u0020 u0627_u0644_u0645_u0644_u0641_u0627_u062a u0020 u004e_u0054_u0046_u0053 u0020 u0627_u0641_u0636_u0644 u0020 u0645_u0646 u0020 u0046_u0041_u0054_u0033_u0032"
    ]
}