{
    "bounding_box": [
        [
            199, 
            18, 
            328, 
            34
        ], 
        [
            63, 
            69, 
            637, 
            31
        ], 
        [
            37, 
            103, 
            663, 
            35
        ], 
        [
            426, 
            147, 
            282, 
            29
        ], 
        [
            36, 
            191, 
            664, 
            31
        ], 
        [
            231, 
            228, 
            478, 
            32
        ], 
        [
            25, 
            274, 
            675, 
            32
        ], 
        [
            417, 
            314, 
            290, 
            27
        ], 
        [
            62, 
            360, 
            638, 
            31
        ], 
        [
            46, 
            398, 
            654, 
            31
        ], 
        [
            240, 
            437, 
            459, 
            31
        ]
    ], 
    "image_height": 540, 
    "image_width": 720, 
    "transcription": [
        "u0645_u0633_u0644_u0645_u0627_u062a u0020 u0646_u0638_u0631_u064a_u0629 u0020 u0627_u0644_u062a_u062d_u0644_u064a_u0644 u0020 u0627_u0644_u0646_u0641_u0633_u064a u0020 u000d", 
        "u0031_u002d u0020 u0627_u0646 u0020 u0627_u0644_u0637_u0628_u064a_u0639_u0629 u0020 u0627_u0644_u0628_u0634_u0631_u064a_u0629 u0020 u0634_u0631_u064a_u0631_u0629 u0020 u0627_u0644_u0627_u0635_u0644 u0020 u0627_u064a u0020 u0627_u0646 u0020 u0627_u0644_u0627_u0646_u0633_u0627_u0646 u0020 u0641_u064a u0020 u0637_u0627_u0628_u0639_u0629_u0020", 
        "u0634_u0631_u064a_u0631 u0020 u0648_u0627_u0646 u0020 u0633_u0644_u0648_u0643 u0020 u0020_u0627_u0644_u0628_u0634_u0631 u0020 u0627_u0644_u0630_u064a u0020 u064a_u0628_u062f_u0648 u0020 u062e_u064a_u0631_u0627_u064b u0020 u0647_u0648 u0020 u062d_u064a_u0644_u0627 u0020 u062f_u0641_u0627_u0639_u064a_u0629 u0020 u064a_u062f_u0627_u0641_u0639 u0020 u0628_u0647_u0627_u0020", 
        "u0639_u0646 u0020 u0628_u0648_u0627_u0639_u062b u0020 u0627_u0644_u0634_u0631 u0020 u0641_u064a u0020 u0646_u0641_u0633_u0629 u0020 u002e_u000d", 
        "u0032_u002d u0020 u0627_u0646 u0020 u0627_u062d_u062f_u0627_u062b u0020 u0627_u0644_u0637_u0641_u0648_u0644_u0629 u0020 u0648_u0627_u0644_u0627_u062d_u0628_u0627_u0637 u0020 u0648_u0627_u0644_u0635_u0631_u0627_u0639 u0020 u0648_u0646_u0645_u0637 u0020 u0627_u0644_u0639_u0644_u0627_u0642_u0627_u062a u0020 u0627_u0644_u0627_u0633_u0631_u064a_u0629_u0020", 
        "u0644_u0647_u0627 u0020 u0627_u062b_u0631 u0020 u0641_u064a u0020 u0628_u0646_u0627_u0621 u0020 u0627_u0644_u0634_u062e_u0635_u064a_u0629 u0020 u0627_u0644_u0633_u0648_u064a_u0629 u0020 u0648_u0627_u0644_u0634_u0627_u0630_u0629 u0020 u0644_u0644_u0641_u0631_u062f_u002e_u000d", 
        "u0033_u002d u0020 u0627_u0644_u0634_u062e_u064a_u0635_u0629 u0020 u062a_u062a_u0643_u0648_u0646 u0020 u0645_u0646 u0020 u062b_u0644_u0627_u062b u0020 u0646_u0638_u0645 u0020 u0645_u0646 u0020 u0627_u0644_u0637_u0627_u0642_u0629 u0020 u062a_u062a_u0623_u0644_u0641 u0020 u0645_u0646_u0647_u0627 u0020 u0627_u0644_u0634_u062e_u0635_u064a_u0629_u0020", 
        "u00ab_u0627_u0644_u0647_u0648 u0020 u0648_u0627_u0644_u0627_u0646_u0627 u0020 u0648_u0627_u0644_u0627_u0646_u0627 u0020 u0627_u0644_u0627_u0639_u0644_u0649 u0020 u00bb_u000d", 
        "u0034_u002d u0020 u064a_u0631_u064a u0020 u0627_u0644_u062a_u062d_u0644_u064a_u0644_u064a_u0648_u0646 u0020 u0627_u0646 u0020 u0627_u0644_u0627_u0646_u0627 u0020 u062a_u0631_u0649 u0020 u0636_u063a_u0648_u0637 u0020 u0645_u062a_u0646_u0627_u0642_u0636_u0629 u0020 u0627_u0645_u0627 u0020 u0627_u0644_u0647_u0648 u0020 u062a_u0631_u064a_u062f_u0020", 
        "u0627_u0634_u0628_u0627_u0639 u0020 u0627_u0644_u063a_u0631_u0627_u0626_u0632 u0020 u0648_u0627_u0644_u0627_u0646_u0627 u0020 u0627_u0644_u0627_u0639_u0644_u0649 u0020 u064a_u0636_u063a_u0637 u0020 u0639_u0644_u0649 u0020 u0627_u0644_u0641_u0631_u062f u0020 u0641_u064a u0020 u0627_u062a_u062c_u0627_u0647 u0020 u0627_u0644_u0645_u062b_u0627_u0644_u064a_u0627_u062a_u0020", 
        "u0648_u0627_u0644_u062c_u0648_u0627_u0646_u0628 u0020 u0627_u0644_u062e_u0644_u0642_u064a_u0629 u0020 u0648_u0627_u0644_u0645_u062c_u062a_u0645_u0639 u0020 u0648_u0627_u0644_u0639_u0627_u062f_u0627_u062a u0020 u0648_u0627_u0644_u062a_u0642_u0627_u0644_u064a_u062f_u0020"
    ]
}