{
    "bounding_box": [
        [
            385, 
            26, 
            272, 
            28
        ], 
        [
            77, 
            84, 
            584, 
            26
        ], 
        [
            74, 
            111, 
            588, 
            26
        ], 
        [
            467, 
            142, 
            194, 
            25
        ], 
        [
            71, 
            173, 
            590, 
            27
        ], 
        [
            57, 
            206, 
            604, 
            25
        ], 
        [
            327, 
            232, 
            334, 
            26
        ]
    ], 
    "image_height": 540, 
    "image_width": 720, 
    "transcription": [
        "u0645_u0627 u0020 u0627_u0644_u0630_u064a u0020 u064a_u0642_u0648_u0645 u0020 u0628_u0647 u0020 u0646_u0638_u0627_u0645 u0020 u0627_u0644_u062a_u0634_u063a_u064a_u0644_u061f", 
        "u064a_u0648_u0641_u0631 u0020 u0646_u0638_u0627_u0645 u0020 u0627_u0644_u062a_u0634_u063a_u064a_u0644 u0020 u0628_u064a_u0626_u0629 u0020 u0644_u0628_u0631_u0627_u0645_u062c u0020 u0627_u0644_u062a_u0637_u0628_u064a_u0642_u0627_u062a u0020 u0644_u0644_u0639_u0645_u0644 u0020 u0648_u064a_u0648_u0641_u0631 u0020 u0648_u0633_u064a_u0644_u0629 u0020 u0648_u0635_u0648_u0644_u0020", 
        "u0625_u0644_u0649 u0020 u0623_u062c_u0647_u0632_u0629 u0020 u0627_u0644_u0645_u0643_u0648_u0646_u0627_u062a u0020 u0627_u0644_u0645_u0627_u062f_u064a_u0629 u0020 u0627_u0644_u0623_u0633_u0627_u0633_u064a_u0629 u0020 u0648_u0646_u0638_u0627_u0645 u0020 u0627_u0644_u0645_u0644_u0641_u0627_u062a u0020 u0644_u0643_u0644 u0020 u0645_u0646 u0020 u062a_u0637_u0628_u064a_u0642_u0627_u062a_u0020", 
        "u0627_u0644_u0628_u0631_u0627_u0645_u062c u0020 u0648_u0627_u0644_u0645_u0633_u062a_u062e_u062f_u0645_u064a_u0646_u002e_u000d", 
        "u0648_u064a_u0645_u0643_u0646 u0020 u0627_u0644_u0646_u0638_u0631 u0020 u0625_u0644_u0649 u0020 u0627_u0644_u0648_u0638_u0627_u0626_u0641 u0020 u0627_u0644_u0639_u062f_u064a_u062f_u0629 u0020 u0644_u0646_u0638_u0627_u0645 u0020 u0627_u0644_u062a_u0634_u063a_u064a_u0644 u0020 u0639_u0644_u0649 u0020 u0623_u0646_u0647_u0627 u0020 u062e_u062f_u0645_u0627_u062a u0020 u064a_u062a_u0645_u0020", 
        "u062a_u0648_u0641_u064a_u0631_u0647_u0627 u0020 u0644_u0644_u0645_u0633_u062a_u062e_u062f_u0645 u0020 u0648_u0644_u0646_u0638_u0627_u0645 u0020 u0627_u0644_u0643_u0645_u0628_u064a_u0648_u062a_u0631 u0020 u0646_u0641_u0633_u0647_u002e u0020 u0648_u064a_u0644_u062e_u0635 u0020 u0627_u0644_u062c_u062f_u0648_u0644 u0020 u0627_u0644_u062a_u0627_u0644_u064a u0020 u0628_u0639_u0636_u0020", 
        "u0623_u0647_u0645 u0020 u0627_u0644_u062e_u062f_u0645_u0627_u062a u0020 u0627_u0644_u062a_u064a u0020 u064a_u0648_u0641_u0631_u0647_u0627 u0020 u0646_u0638_u0627_u0645 u0020 u0627_u0644_u062a_u0634_u063a_u064a_u0644_u002e"
    ]
}