{
    "bounding_box": [
        [
            18, 
            25, 
            688, 
            35
        ], 
        [
            18, 
            64, 
            688, 
            38
        ], 
        [
            18, 
            106, 
            688, 
            37
        ], 
        [
            18, 
            147, 
            688, 
            37
        ], 
        [
            18, 
            192, 
            688, 
            32
        ], 
        [
            476, 
            231, 
            230, 
            29
        ], 
        [
            18, 
            274, 
            688, 
            40
        ], 
        [
            18, 
            317, 
            688, 
            38
        ], 
        [
            18, 
            359, 
            688, 
            37
        ], 
        [
            18, 
            397, 
            688, 
            39
        ], 
        [
            18, 
            438, 
            688, 
            38
        ], 
        [
            255, 
            479, 
            450, 
            39
        ]
    ], 
    "image_height": 540, 
    "image_width": 720, 
    "transcription": [
        "u0643_u0645_u0627 u0020 u0623_u0634_u0627_u0631_u062a u0020 u0627_u0644_u0644_u062c_u0646_u0629 u0020 u0625_u0644_u0649 u0020 u0623_u0646 u0020 u062a_u0648_u0627_u0641_u0631 u0020 u0627_u0644_u0623_u063a_u0630_u064a_u0629 u0020 u064a_u0634_u064a_u0631 u0020 u0625_u0644_u0649 u0020 u0627_u0644_u0625_u0645_u0643_u0627_u0646_u064a_u0627_u062a_u0020", 
        "u0627_u0644_u062a_u064a u0020 u062a_u064a_u0633_u0631 u0020 u0625_u0645_u0627 u0020 u062a_u063a_u0630_u064a_u0629 u0020 u0627_u0644_u0641_u0631_u062f u0020 u0644_u0646_u0641_u0633_u0647 u0020 u0645_u0628_u0627_u0634_u0631_u0629 u0020 u0628_u0627_u0644_u0627_u0639_u062a_u0645_u0627_u062f u0020 u0639_u0644_u0649 u0020 u0627_u0644_u0623_u0631_u0636_u0020", 
        "u0627_u0644_u0645_u0646_u062a_u062c_u0629 u0020 u0623_u0648 u0020 u0627_u0644_u0645_u0648_u0627_u0631_u062f u0020 u0627_u0644_u0637_u0628_u064a_u0639_u064a_u0629 u0020 u0627_u0644_u0623_u062e_u0631_u0649 u0020 u0623_u0648 u0020 u0639_u0644_u0649 u0020 u0646_u0638_u0645 u0020 u0627_u0644_u062a_u0648_u0632_u064a_u0639_u0020", 
        "u0648_u0627_u0644_u062a_u062c_u0647_u064a_u0632 u0020 u0648_u0627_u0644_u062a_u0633_u0648_u064a_u0642 u0020 u0627_u0644_u0639_u0627_u0645_u0644_u0629 u0020 u0628_u0634_u0643_u0644 u0020 u0633_u0644_u064a_u0645 u0020 u0648_u0627_u0644_u062a_u064a u0020 u064a_u0645_u0643_u0646 u0020 u0623_u0646 u0020 u062a_u0646_u0642_u0644_u0020", 
        "u0627_u0644_u063a_u0630_u0627_u0621 u0020 u0645_u0646 u0020 u0645_u0648_u0642_u0639 u0020 u0627_u0644_u0625_u0646_u062a_u0627_u062c u0020 u0625_u0644_u0649 u0020 u0627_u0644_u0645_u0648_u0642_u0639 u0020 u0627_u0644_u0630_u064a u0020 u062a_u0648_u062c_u062f u0020 u0641_u064a_u0647 u0020 u0627_u0644_u062d_u0627_u062c_u0629 u0020 u0625_u0644_u0649_u0020", 
        "u0627_u0644_u063a_u0630_u0627_u0621 u0020 u0628_u062d_u0633_u0628 u0020 u0627_u0644_u0637_u0644_u0628_u002e_u000d", 
        "u0623_u0645_u0627 u0020 u0639_u0646 u0020 u0625_u0645_u0643_u0627_u0646_u064a_u0629 u0020 u0627_u0644_u062d_u0635_u0648_u0644 u0020 u0639_u0644_u0649 u0020 u0627_u0644_u063a_u0630_u0627_u0621 u0020 u0641_u0642_u062f u0020 u0623_u0648_u0636_u062d_u062a u0020 u0627_u0644_u0644_u062c_u0646_u0629 u0020 u0641_u064a_u0020", 
        "u0627_u0644_u062a_u0639_u0644_u064a_u0642 u0020 u0623_u0646_u0647_u0627 u0020 u062a_u0634_u0645_u0644 u0020 u0625_u0645_u0643_u0627_u0646_u064a_u0629 u0020 u0627_u0644_u062d_u0635_u0648_u0644 u0020 u0639_u0644_u064a_u0647 u0020 u0627_u0642_u062a_u0635_u0627_u062f_u064a_u0627 u0020 u0648_u0645_u0627_u062f_u064a_u0627 u0020 u0639_u0644_u0649_u0020", 
        "u062d_u062f u0020 u0633_u0648_u0627_u0621_u002e u0020 u0648_u062a_u0639_u0646_u064a u0020 u0627_u0644_u0625_u0645_u0643_u0627_u0646_u064a_u0629 u0020 u0627_u0644_u0627_u0642_u062a_u0635_u0627_u062f_u064a_u0629 u0020 u0623_u0646 u0020 u0627_u0644_u062a_u0643_u0627_u0644_u064a_u0641 u0020 u0627_u0644_u0645_u0627_u0644_u064a_u0629_u0020", 
        "u0627_u0644_u0634_u062e_u0635_u064a_u0629 u0020 u0623_u0648 u0020 u0627_u0644_u0623_u0633_u0631_u064a_u0629 u0020 u0627_u0644_u062a_u064a u0020 u062a_u0631_u062a_u0628_u0637 u0020 u0628_u0627_u0644_u062d_u0635_u0648_u0644 u0020 u0639_u0644_u0649 u0020 u0627_u0644_u0623_u063a_u0630_u064a_u0629 u0020 u0645_u0646_u0020", 
        "u0623_u062c_u0644 u0020 u062a_u0623_u0645_u064a_u0646 u0020 u0646_u0638_u0627_u0645 u0020 u063a_u0630_u0627_u0626_u064a u0020 u0643_u0627_u0641 u0020 u064a_u0644_u0632_u0645 u0020 u0623_u0646 u0020 u062a_u0643_u0648_u0646 u0020 u0628_u0627_u0644_u0645_u0633_u062a_u0648_u0649 u0020 u0627_u0644_u0630_u064a u0020 u0644_u0627_u0020", 
        "u064a_u0647_u062f_u062f u0020 u0627_u0644_u0648_u0641_u0627_u0621 u0020 u0628_u0627_u0644_u0627_u062d_u062a_u064a_u0627_u062c_u0627_u062a u0020 u0627_u0644_u0623_u0633_u0627_u0633_u064a_u0629 u0020 u0627_u0644_u0623_u062e_u0631_u0649_u002e"
    ]
}