{
    "bounding_box": [
        [
            119, 
            27, 
            480, 
            34
        ], 
        [
            31, 
            71, 
            179, 
            23
        ], 
        [
            58, 
            107, 
            627, 
            22
        ], 
        [
            58, 
            130, 
            583, 
            23
        ], 
        [
            58, 
            155, 
            584, 
            23
        ], 
        [
            58, 
            181, 
            352, 
            22
        ], 
        [
            31, 
            214, 
            318, 
            26
        ], 
        [
            71, 
            248, 
            600, 
            23
        ], 
        [
            71, 
            272, 
            618, 
            23
        ], 
        [
            71, 
            297, 
            293, 
            23
        ], 
        [
            71, 
            328, 
            592, 
            24
        ], 
        [
            71, 
            353, 
            588, 
            23
        ], 
        [
            71, 
            378, 
            180, 
            23
        ], 
        [
            71, 
            409, 
            580, 
            24
        ], 
        [
            71, 
            435, 
            538, 
            22
        ], 
        [
            71, 
            459, 
            555, 
            23
        ]
    ], 
    "image_height": 540, 
    "image_width": 720, 
    "transcription": [
        "u004e_u0065_u0072_u0076_u0065_u006c_u0065_u0073_u0073 u0020 u0061_u006e_u0064 u0020 u0069_u006c_u006c_u002d_u0066_u0069_u0074_u0074_u0069_u006e_u0067 u0020 u0068_u006f_u006e_u006f_u0072", 
        "u0057_u0068_u0061_u0074 u0020 u0069_u0073 u0020 u063a_u06cc_u0631_u062a_u003f_u000d", 
        "u0041_u006c_u006c_u0061_u0068 u0020 u0068_u0061_u0073 u0020 u0067_u0069_u0076_u0065_u006e u0020 u0075_u0073 u0020 u0061 u0020 u0070_u006f_u0077_u0065_u0072 u0020 u0063_u0061_u006c_u006c_u0065_u0064 u0020 u0061_u006e_u0067_u0065_u0072_u002e u0020 u0057_u0068_u0069_u0063_u0068 u0020 u0063_u0061_u006e u0020 u0072_u0065_u0061_u0063_u0074 u0020 u0069_u006e_u0020", 
        "u0064_u0069_u0066_u0066_u0065_u0072_u0065_u006e_u0074 u0020 u0070_u006c_u0061_u0063_u0065_u0073 u0020 u0077_u0068_u0065_u0072_u0065 u0020 u0069_u0074 u0020 u0073_u0068_u006f_u0075_u006c_u0064 u0020 u0064_u0065_u0066_u0065_u006e_u0064 u0020 u0066_u0072_u006f_u006d u0020 u0074_u0068_u0061_u0074 u0020 u0077_u0068_u0069_u0063_u0068_u0020", 
        "u0073_u0068_u006f_u0075_u006c_u0064 u0020 u0062_u0065 u0020 u0064_u0065_u0066_u0065_u006e_u0064_u0065_u0064_u002e u0020 u0052_u0065_u0061_u0063_u0074_u0069_u006f_u006e u0020 u0074_u006f u0020 u0074_u0068_u0069_u0073 u0020 u0064_u0065_u0066_u0065_u006e_u0073_u0065 u0020 u0069_u006e u0020 u0073_u0070_u0065_u0063_u0069_u0066_u0069_u0063_u0020", 
        "u006d_u0061_u0074_u0074_u0065_u0072_u0073 u0020 u0069_u0073 u0020 u0063_u0061_u006c_u006c_u0065_u0064 u0020 u063a_u06cc_u0631_u062a u0020 u0069_u006e u0020 u0072_u0065_u006c_u0069_u0067_u0069_u006f_u006e_u002e_u000d", 
        "u004c_u0065_u0076_u0065_u006c_u0073 u0020 u0061_u006e_u0064 u0020 u0073_u0074_u0061_u0067_u0065_u0073 u0020 u006f_u0066 u0020 u063a_u06cc_u0631_u062a_u000d", 
        "u063a_u06cc_u0631_u062a u0020 u062e_u0627_u0635 u0020 u0028_u0053_u0070_u0065_u0063_u0069_u0066_u0069_u0063 u0020 u0068_u006f_u006e_u006f_u0072_u0029_u003a u0020 u0041_u006e_u0067_u0065_u0072 u0020 u0069_u006e u0020 u0070_u006c_u0061_u0063_u0065_u0073 u0020 u0077_u0068_u0065_u0072_u0065 u0020 u0068_u006f_u006e_u006f_u0072_u0020", 
        "u0646_u0627_u0645_u0648_u0633 u0020 u0069_u0073 u0020 u0061_u0074 u0020 u0073_u0074_u0061_u006b_u0065_u002c u0020 u0041_u006c_u006c_u0061_u0068 u0020 u0061_u0073 u0020 u0067_u0069_u0076_u0065_u006e u0020 u0074_u0068_u0069_u0073 u0020 u0070_u006f_u0077_u0065_u0072 u0020 u0074_u006f u0020 u0074_u0068_u0065 u0020 u0070_u0065_u006f_u0070_u006c_u0065 u0020 u0073_u006f_u0020", 
        "u0074_u0068_u0061_u0074 u0020 u0072_u0065_u006c_u0061_u0074_u0069_u006f_u006e_u0073 u0020 u0061_u0072_u0065 u0020 u0070_u0072_u0065_u0073_u0065_u0072_u0076_u0065_u0064_u002e_u000d", 
        "u063a_u06cc_u0631_u062a u0020 u0639_u0627_u0645 u0020 u0028_u0043_u006f_u006d_u006d_u006f_u006e u0020 u0068_u006f_u006e_u006f_u0072_u0029_u003a u0020 u0047_u0065_u0074_u0074_u0069_u006e_u0067 u0020 u0061_u006e_u0067_u0072_u0079 u0020 u0066_u006f_u0072 u0020 u0065_u0076_u0065_u0072_u0079_u0074_u0068_u0069_u006e_u0067_u0020", 
        "u0077_u0068_u0069_u0063_u0068 u0020 u0062_u0065_u006c_u006f_u006e_u0067_u0073 u0020 u0074_u006f u0020 u0068_u0069_u006d_u002e u0020 u0044_u0065_u0066_u0065_u006e_u0073_u0065 u0020 u0066_u0072_u006f_u006d u0020 u0077_u0065_u0061_u006c_u0074_u0068_u002c u0020 u0068_u006f_u006e_u006f_u0072_u002c u0020 u006c_u0069_u0066_u0065_u002c_u0020", 
        "u0063_u0069_u0074_u0079_u002c u0020 u0062_u006f_u0075_u006e_u0064_u0061_u0072_u0079_u2026_u000d", 
        "u063a_u06cc_u0631_u062a u0020 u0639_u0627_u0645 u0020 u062a_u0631_u003a u0020 u0041_u0073_u0069_u0064_u0065 u0020 u0066_u0072_u006f_u006d u0020 u0074_u0068_u0065 u0020 u0061_u0062_u006f_u0076_u0065_u006d_u0065_u006e_u0074_u0069_u006f_u006e_u0065_u0064_u002c u0020 u0062_u0065_u0063_u006f_u006d_u0069_u006e_u0067_u0020", 
        "u0061_u006e_u0067_u0072_u0079 u0020 u0066_u006f_u0072 u0020 u0074_u0068_u0065 u0020 u006c_u006f_u0073_u0073 u0020 u006f_u0066 u0020 u006f_u0074_u0068_u0065_u0072_u0073_u002c u0020 u006f_u0074_u0068_u0065_u0072_u0073_u2019 u0020 u0072_u0069_u0067_u0068_u0074_u0073_u002c u0020 u0072_u0065_u006c_u0069_u0067_u0069_u006f_u0075_u0073_u0020", 
        "u0072_u0075_u006c_u0069_u006e_u0067_u0073_u002e u0020 u0044_u0065_u0066_u0065_u006e_u0064_u0069_u006e_u0067 u0020 u0074_u0068_u0065 u0020 u0072_u0069_u0067_u0068_u0074_u0073 u0020 u006f_u0066 u0020 u0077_u0065_u0061_u006b u0020 u0061_u006e_u0064 u0020 u006f_u0070_u0070_u0072_u0065_u0073_u0073_u0065_u0064_u002e_u000d"
    ]
}