{
    "bounding_box": [
        [
            625, 
            48, 
            51, 
            16
        ], 
        [
            76, 
            91, 
            573, 
            17
        ], 
        [
            58, 
            110, 
            591, 
            18
        ], 
        [
            63, 
            130, 
            586, 
            17
        ], 
        [
            82, 
            148, 
            567, 
            18
        ], 
        [
            258, 
            167, 
            391, 
            16
        ], 
        [
            512, 
            187, 
            136, 
            18
        ], 
        [
            56, 
            206, 
            593, 
            18
        ], 
        [
            597, 
            225, 
            52, 
            18
        ], 
        [
            456, 
            244, 
            192, 
            18
        ], 
        [
            536, 
            263, 
            112, 
            16
        ], 
        [
            198, 
            283, 
            450, 
            18
        ], 
        [
            514, 
            302, 
            135, 
            18
        ], 
        [
            152, 
            321, 
            497, 
            18
        ], 
        [
            340, 
            340, 
            309, 
            18
        ], 
        [
            320, 
            359, 
            328, 
            18
        ], 
        [
            554, 
            379, 
            94, 
            18
        ], 
        [
            52, 
            398, 
            597, 
            18
        ], 
        [
            526, 
            417, 
            123, 
            17
        ], 
        [
            428, 
            436, 
            221, 
            18
        ], 
        [
            144, 
            455, 
            505, 
            17
        ]
    ], 
    "image_height": 540, 
    "image_width": 720, 
    "transcription": [
        "u0627_u0644_u0637_u0628_u064a_u0639_u0629_u000d", 
        "u0645_u0627_u064a_u0643 u0020 u0648 u0020 u0627_u064a_u0643 u0020 u0648_u0644_u062f_u0627_u0646 u0020 u0635_u063a_u064a_u0631_u0627_u0646 u0020 u0644_u0645 u0020 u064a_u0639_u0631_u0641_u0627_u0646 u0020 u0627_u0646 u0020 u0627_u0644_u0628_u064a_u0626_u0629 u0020 u0641_u064a u0020 u062e_u0637_u0631_u002e u0020 u0643_u0644 u0020 u064a_u0648_u0645 u0020 u0643_u0627_u0646_u0648_u0627 u0020 u064a_u0630_u0647_u0628_u0648_u0646 u0020 u0627_u0644_u0649 u0020 u0627_u0644_u0645_u0646_u062a_u0632_u0647_u060c_u0020", 
        "u064a_u062a_u0645_u062a_u0639_u0648_u0646 u0020 u0628_u0644_u0639_u0628 u0020 u0627_u0644_u063a_u0645_u064a_u0636_u0629 u0020 u0628_u064a_u0646 u0020 u0627_u0644_u0627_u0634_u062c_u0627_u0631 u0020 u0648_u064a_u062a_u0646_u0627_u0648_u0644_u0648_u0646 u0020 u0627_u0644_u063a_u0630_u0627_u0621 u0020 u0639_u0644_u0649 u0020 u0627_u0644_u0639_u0634_u0628 u0020 u0627_u0644_u0627_u062e_u0636_u0631 u0020 u0648_u0627_u0644_u0648_u0631_u0648_u062f_u060c u0020 u062b_u0645 u0020 u0643_u0627_u0646_u0648_u0627_u0020", 
        "u064a_u0631_u0645_u0648_u0646 u0020 u0643_u0644 u0020 u0634_u064a_u0621 u0020 u0639_u0644_u0649 u0020 u0627_u0644_u0627_u0631_u0636 u0020 u0628_u0644_u0627 u0020 u0627_u0647_u062a_u0645_u0627_u0645_u002e u0020 u062d_u062a_u0649 u0020 u062c_u0627_u0621 u0020 u064a_u0648_u0645 u0020 u0643_u0627_u0646_u062a u0020 u0627_u0644_u0645_u0639_u0644_u0645_u0629 u0020 u062a_u0639_u0637_u064a u0020 u062f_u0631_u0633_u0623 u0020 u062d_u0648_u0644 u0020 u0627_u0644_u0628_u064a_u0626_u0629_u002e_u000b", 
        "u0627_u0644_u0645_u0639_u0644_u0645_u0629_u003a u0020 u0628_u064a_u0626_u062a_u0646_u0627 u0020 u0645_u0635_u0646_u0648_u0639_u0629 u0020 u0645_u0646 u0020 u0643_u0644 u0020 u0634_u064a_u0621 u0020 u062d_u0648_u0644_u0646_u0627_u060c u0020 u0627_u0644_u0627_u0634_u062c_u0627_u0631_u060c u0020 u0627_u0644_u0648_u0631_u0648_u062f_u060c u0020 u0627_u0644_u062d_u064a_u0648_u0627_u0646_u0627_u062a_u002e_u002e_u002e u0020 u0644_u0643_u0646 u0020 u0628_u064a_u0626_u062a_u0646_u0627 u0020 u0644_u0646_u0020", 
        "u062a_u0633_u062a_u0645_u0631 u0020 u0643_u062b_u064a_u0631_u0623 u0020 u0627_u0630_u0627 u0020 u0644_u0645 u0020 u064a_u0647_u062a_u0645 u0020 u0627_u0644_u0646_u0627_u0633 u0020 u0628_u0647_u0627_u060c u0020 u0648_u064a_u0631_u0645_u0648_u0646 u0020 u0627_u0644_u0642_u0645_u0627_u0645_u0629 u0020 u0639_u0634_u0648_u0627_u0626_u064a_u0623_u002e_u000b", 
        "u0645_u0627_u064a_u0643_u003a u0020 u0645_u0627_u0630_u0627 u0020 u064a_u0639_u0646_u064a u0020 u0647_u0630_u0627_u061f_u000b", 
        "u0627_u0644_u0645_u0639_u0644_u0645_u0629_u003a u0020 u0647_u0630_u0627 u0020 u064a_u0639_u0646_u064a u0020 u0627_u0646 u0020 u0643_u0644 u0020 u0634_u064a_u0621 u0020 u0645_u0645_u0643_u0646 u0020 u0627_u0646 u0020 u064a_u0645_u0648_u062a_u060c u0020 u0628_u0633_u0628_u0628 u0020 u0627_u0644_u062a_u0644_u0648_u062b u0020 u0648 u0020 u0627_u0644_u0627_u062d_u062a_u0628_u0627_u0633 u0020 u0627_u0644_u062d_u0631_u0627_u0631_u064a u0020 u0627_u0630_u0627 u0020 u0644_u0645 u0020 u0646_u0643_u0646_u0020", 
        "u062d_u0630_u0631_u064a_u0646_u002e_u000b", 
        "u0627_u064a_u0643_u003a u0020 u0645_u062b_u0644 u0020 u0627_u0644_u0627_u0634_u062c_u0627_u0631 u0020 u0641_u064a u0020 u0627_u0644_u0645_u0646_u062a_u0632_u0647_u061f_u000b", 
        "u0627_u0644_u0645_u0639_u0644_u0645_u0629_u003a u0020 u0646_u0639_u0645 u0020 u0627_u064a_u0643_u002e_u000b", 
        "u0645_u0627_u064a_u0643_u003a u0020 u0645_u0627_u0630_u0627 u0020 u0639_u0646 u0020 u0627_u0644_u0648_u0631_u0648_u062f u0020 u0627_u0644_u062c_u0645_u064a_u0644_u0629_u061f u0020 u0647_u0644 u0020 u0633_u064a_u062a_u0623_u0630_u0648_u0646 u0020 u0627_u0630_u0627 u0020 u0631_u0645_u064a_u062a u0020 u0627_u0644_u0642_u0645_u0627_u0645_u0629 u0020 u062d_u0648_u0644_u0647_u0627_u061f_u00a0_u000b", 
        "u0627_u0644_u0645_u0639_u0644_u0645_u0629_u003a u0020 u0644_u0644_u0627_u0633_u0641 u0020 u0646_u0639_u0645_u002e_u000b", 
        "u0628_u0639_u062f u0020 u0646_u0647_u0627_u064a_u0629 u0020 u0627_u0644_u062d_u0635_u0629 u0020 u0645_u0627_u064a_u0643 u0020 u0648_u0627_u064a_u0643 u0020 u062d_u0632_u0646_u0648_u0646 u0020 u062c_u062f_u0623 u0020 u0648_u062c_u0644_u0633_u0648_u0627 u0020 u0645_u0639_u0623 u0020 u0644_u064a_u062a_u062d_u062f_u062b_u0648_u0627 u0020 u0639_u0646 u0020 u0645_u0627_u0630_u0627 u0020 u062a_u0639_u0644_u0645_u0648_u0627_u002e_u000b", 
        "u0645_u0627_u064a_u0643_u003a u0020 u0644_u0627 u0020 u0627_u0631_u064a_u062f u0020 u0647_u0630_u0647 u0020 u0627_u0644_u0627_u0634_u062c_u0627_u0631 u0020 u0627_u0646 u0020 u062a_u0645_u0648_u062a_u060c u0020 u0627_u0646_u064a u0020 u0627_u062d_u0628_u0647_u0645_u002e_u000b", 
        "u0627_u064a_u0643_u003a u0020 u0648_u0627_u0646_u0627 u0020 u0627_u064a_u0636_u0623_u060c u0020 u0644_u0627 u0020 u0627_u0631_u064a_u062f u0020 u0631_u0645_u064a u0020 u0627_u0644_u0642_u0645_u0627_u0645_u0629 u0020 u0639_u0634_u0648_u0627_u0626_u064a_u0623 u0020 u0645_u062c_u062f_u062f_u0623_u000b", 
        "u0645_u0627_u064a_u0643_u003a u0020 u0627_u0646_u0627 u0020 u0627_u064a_u0636_u0623_u000b", 
        "u0627_u064a_u0643_u003a u0020 u0644_u062f_u064a u0020 u0641_u0643_u0631_u0629 u0020 u0644_u0646_u062a_u062c_u0648_u0644 u0020 u062d_u0648_u0644 u0020 u0627_u0644_u0645_u0646_u062a_u0632_u0647_u060c u0020 u0648_u0643_u0644_u0645_u0627 u0020 u0631_u0623_u064a_u0646_u0627 u0020 u0627_u062d_u062f_u0623 u0020 u064a_u0631_u0645_u064a u0020 u0627_u0644_u0642_u0645_u0627_u0645_u0629 u0020 u0639_u0634_u0648_u0627_u0626_u064a_u0623_u060c u0020 u0633_u0646_u0648_u0642_u0641_u0647 u0020 u0648_u0633_u0646_u0642_u0648_u0644_u0020", 
        "u0644_u0647 u0020 u0627_u0646_u0647 u0020 u064a_u0624_u0630_u064a u0020 u0627_u0644_u0628_u064a_u0626_u0629_u002e_u000b", 
        "u0645_u0627_u064a_u0643_u003a u0020 u0647_u0630_u0647 u0020 u0641_u0643_u0631_u0629 u0020 u062c_u064a_u062f_u0629 u0020 u0647_u064a_u0627 u0020 u0628_u0646_u0627 u0020 u0646_u0630_u0647_u0628_u000b", 
        "u0623_u062e_u0628_u0627_u0631 u0020 u0639_u0646 u0020 u0627_u064a_u0630_u0627_u0621 u0020 u0628_u064a_u0626_u062a_u0646_u0627 u0020 u064a_u062c_u0628 u0020 u0639_u0644_u064a_u0647_u0627 u0020 u0627_u0646 u0020 u062a_u0646_u0634_u0631 u0020 u0645_u0646 u0020 u0627_u062c_u0644 u0020 u0648_u0642_u0641 u0020 u0648_u0627_u0646_u0642_u0627_u0630 u0020 u0645_u0627 u0020 u062a_u0628_u0642_u0649 u0020 u0645_u0646 u0020 u0628_u064a_u0626_u062a_u0646_u0627"
    ]
}