{
    "bounding_box": [
        [
            414, 
            74, 
            197, 
            25
        ], 
        [
            128, 
            124, 
            446, 
            21
        ], 
        [
            497, 
            151, 
            77, 
            17
        ], 
        [
            127, 
            174, 
            447, 
            19
        ], 
        [
            121, 
            197, 
            454, 
            20
        ], 
        [
            405, 
            220, 
            169, 
            21
        ], 
        [
            124, 
            243, 
            451, 
            22
        ], 
        [
            383, 
            267, 
            191, 
            22
        ]
    ], 
    "image_height": 540, 
    "image_width": 720, 
    "transcription": [
        "u0646_u0642_u062f u0020 u0646_u0638_u0631_u064a_u0629 u0020 u062a_u062f_u0631_u062c u0020 u0627_u0644_u062d_u0627_u062c_u0627_u062a_u000d", 
        "u062a_u0641_u062a_u0631_u0636 u0020 u0627_u0644_u0646_u0638_u0631_u064a_u0629 u0020 u062a_u0631_u062a_u064a_u0628_u0627 u0020 u0645_u0639_u064a_u0646_u0627 u0020 u0644_u0644_u062d_u0627_u062c_u0627_u062a u0020 u0623_u0644_u0627 u0020 u0623_u0646 u0020 u0628_u0639_u0636 u0020 u0627_u0644_u0646_u0627_u0633 u0020 u0642_u062f u0020 u064a_u062e_u062a_u0644_u0641_u0648_u0627 u0020 u0641_u064a_u0020", 
        "u0647_u0630_u0627 u0020 u0627_u0644_u062a_u0631_u062a_u064a_u0628_u000d", 
        "u0642_u062f u0020 u064a_u0642_u0648_u0645 u0020 u0628_u0639_u0636 u0020 u0627_u0644_u0646_u0627_u0633 u0020 u0628_u0645_u0632_u064a_u062f u0020 u0645_u0646 u0020 u0627_u0644_u0625_u0634_u0628_u0627_u0639 u0020 u0644_u062d_u0627_u062c_u0629 u0020 u0645_u0639_u064a_u0646_u0629 u0020 u0628_u0627_u0644_u0631_u063a_u0645 u0020 u0645_u0646 u0020 u0625_u0634_u0628_u0627_u0639_u0647_u0627_u000d", 
        "u0020_u0644_u0645 u0020 u062a_u0647_u062a_u0645 u0020 u0627_u0644_u0646_u0638_u0631_u064a_u0629 u0020 u0628_u062d_u062c_u0645 u0020 u0627_u0644_u0625_u0634_u0628_u0627_u0639 u0020 u0627_u0644_u0644_u0627_u0632_u0645 u0020 u0644_u0644_u0627_u0646_u062a_u0642_u0627_u0644 u0020 u0644_u0644_u062d_u0627_u062c_u0629 u0020 u0627_u0644_u062a_u0627_u0644_u064a_u0629 u0020 u0648_u064a_u062e_u062a_u0644_u0641 u0020 u0647_u0630_u0627_u0020", 
        "u0627_u0644_u062d_u062c_u0645 u0020 u0645_u0646 u0020 u0634_u062e_u0635 u0020 u0625_u0644_u064a u0020 u0623_u062e_u0631_u000d", 
        "u062a_u0641_u062a_u0631_u0636 u0020 u0627_u0644_u0646_u0638_u0631_u064a_u0629 u0020 u0625_u0644_u064a u0020 u0623_u0646 u0020 u0627_u0644_u0641_u0631_u062f u0020 u064a_u0634_u0628_u0639 u0020 u062d_u0627_u062c_u0627_u062a_u0647 u0020 u0628_u0627_u0644_u062a_u062f_u0631_u062c u0020 u0641_u064a u0020 u062d_u064a_u0646 u0020 u0623_u0646_u0646_u0627 u0020 u0642_u062f u0020 u0646_u0634_u0628_u0639_u0020", 
        "u0623_u0643_u062b_u0631 u0020 u0645_u0646 u0020 u062d_u0627_u062c_u0629 u0020 u0641_u064a u0020 u0646_u0641_u0633 u0020 u0627_u0644_u0648_u0642_u062a_u000d"
    ]
}