{
    "bounding_box": [
        [
            27, 
            30, 
            633, 
            26
        ], 
        [
            27, 
            88, 
            354, 
            19
        ], 
        [
            27, 
            137, 
            399, 
            27
        ], 
        [
            27, 
            195, 
            370, 
            27
        ], 
        [
            27, 
            257, 
            397, 
            23
        ], 
        [
            27, 
            312, 
            364, 
            23
        ], 
        [
            27, 
            369, 
            451, 
            25
        ], 
        [
            27, 
            425, 
            448, 
            27
        ], 
        [
            27, 
            485, 
            412, 
            25
        ], 
        [
            340, 
            531, 
            84, 
            13
        ]
    ], 
    "image_height": 540, 
    "image_width": 720, 
    "transcription": [
        "u0048_u006f_u0077 u0020 u0077_u006f_u0075_u006c_u0064 u0020 u0079_u006f_u0075 u0020 u0073_u0061_u0079 u0020 u0074_u0068_u0065 u0020 u0066_u006f_u006c_u006c_u006f_u0077_u0069_u006e_u0067 u0020 u0073_u0065_u006e_u0074_u0065_u006e_u0063_u0065_u0073 u0020 u0069_u006e u0020 u0041_u0072_u0061_u0062_u0069_u0063_u003f_u000d", 
        "u0041 u0020 u0062_u0069_u0067 u0020 u006d_u006f_u0073_u0071_u0075_u0065 u0020 u002f u0020 u0062_u0069_u0067 u0020 u006d_u006f_u0073_u0071_u0075_u0065_u0073 u0020 u0020_u000d", 
        "u0041 u0020 u0073_u006d_u0061_u006c_u006c u0020 u0075_u006e_u0069_u0076_u0065_u0072_u0073_u0069_u0074_u0079 u0020 u002f u0020 u0073_u006d_u0061_u006c_u006c u0020 u0063_u0069_u0074_u0069_u0065_u0073 u0020 u0020_u000d", 
        "u0041_u006e u0020 u006f_u006c_u0064 u0020 u0063_u0068_u0075_u0072_u0063_u0068_u002f u0020 u006f_u006c_u0064 u0020 u0063_u0068_u0075_u0072_u0063_u0068_u0065_u0073 u0020 u0020 u0020 u000d", 
        "u0041 u0020 u0063_u0068_u0065_u0061_u0070 u0020 u006d_u0061_u0072_u006b_u0065_u0074_u002f u0020 u0063_u0068_u0065_u0061_u0070 u0020 u006d_u0061_u0072_u006b_u0065_u0074_u0073 u0020 u000d", 
        "u0041 u0020 u006e_u0065_u0077 u0020 u0074_u0068_u0065_u0061_u0074_u0072_u0065_u002f u0020 u006e_u0065_u0077 u0020 u0074_u0068_u0065_u0061_u0074_u0072_u0065_u0073 u0020 u000d", 
        "u0041_u006e u0020 u0065_u0078_u0070_u0065_u006e_u0073_u0069_u0076_u0065 u0020 u0068_u006f_u0074_u0065_u006c_u002f u0020 u0065_u0078_u0070_u0065_u006e_u0073_u0069_u0076_u0065 u0020 u0068_u006f_u0074_u0065_u006c_u0073 u0020 u000d", 
        "u0041 u0020 u006e_u0069_u0063_u0065 u0020 u0074_u0068_u0065_u0061_u0074_u0072_u0065_u002f u0020 u0062_u0065_u0061_u0075_u0074_u0069_u0066_u0075_u006c u0020 u0074_u0068_u0065_u0061_u0074_u0072_u0065_u0073 u0020 u0020 u0020 u000d", 
        "u0041_u006e u0020 u0075_u0067_u006c_u0079 u0020 u006d_u0075_u0073_u0065_u0075_u006d_u002f u0020 u0075_u0067_u006c_u0079 u0020 u006d_u0075_u0073_u0065_u0075_u006d_u0073 u0020 u0020 u0020 u0020_u000d", 
        "u0042_u0079 u0020 u0047_u0068_u0069_u007a_u006c_u0061_u006e_u0065 u0020 u004c_u0061_u0066_u0064_u0069"
    ]
}