{
    "bounding_box": [
        [
            190, 
            54, 
            319, 
            25
        ], 
        [
            88, 
            117, 
            573, 
            26
        ], 
        [
            63, 
            148, 
            599, 
            27
        ], 
        [
            79, 
            182, 
            582, 
            26
        ], 
        [
            117, 
            209, 
            544, 
            29
        ], 
        [
            90, 
            252, 
            571, 
            25
        ], 
        [
            96, 
            280, 
            565, 
            29
        ], 
        [
            256, 
            312, 
            406, 
            28
        ]
    ], 
    "image_height": 540, 
    "image_width": 720, 
    "transcription": [
        "u0627_u0644_u062f_u0631_u0633 u0020 u0031_u002d_u0032_u003a u0020 u0627_u0644_u062a_u0641_u0627_u0639_u0644 u0020 u0645_u0639 u0020 u0627_u0644_u0643_u0645_u0628_u064a_u0648_u062a_u0631_u0020", 
        "u062a_u0639_u0644_u0645_u0646_u0627 u0020 u0641_u064a u0020 u0627_u0644_u062f_u0631_u0633 u0020 u0627_u0644_u0633_u0627_u0628_u0642 u0020 u0627_u0644_u0642_u0644_u064a_u0644 u0020 u0645_u0646 u0020 u0627_u0644_u062c_u0648_u0627_u0646_u0628 u0020 u0627_u0644_u0645_u062e_u062a_u0644_u0641_u0629 u0020 u0644_u0633_u0637_u062d u0020 u0627_u0644_u0645_u0643_u062a_u0628_u002e_u0020", 
        "u0648_u0633_u0646_u0639_u0644_u0645_u0643 u0020 u0641_u064a u0020 u0647_u0630_u0627 u0020 u0627_u0644_u062f_u0631_u0633 u0020 u0627_u0644_u0645_u0632_u064a_u062f u0020 u0628_u0634_u0623_u0646 u0020 u0627_u0633_u062a_u062e_u062f_u0627_u0645 u0020 u0644_u0648_u062d_u0629 u0020 u0627_u0644_u0645_u0641_u0627_u062a_u064a_u062d u0020 u0648_u0627_u0644_u0645_u0627_u0648_u0633_u002e_u0020", 
        "u0648_u0633_u062a_u0635_u0628_u062d u0020 u0627_u0644_u0645_u0647_u0627_u0631_u0627_u062a u0020 u0627_u0644_u062a_u064a u0020 u0633_u0646_u062a_u0639_u0644_u0645_u0647_u0627 u0020 u0647_u0646_u0627 u0020 u062c_u0632_u0621 u0020 u0645_u0646_u0643 u0020 u0648_u0628_u0634_u0643_u0644 u0020 u0633_u0631_u064a_u0639_u060c u0020 u062d_u064a_u062b_u0020", 
        "u0627_u0646_u0643 u0020 u0633_u062a_u062d_u062a_u0627_u062c_u0647_u0627 u0020 u0644_u0644_u0642_u064a_u0627_u0645 u0020 u0628_u0623_u064a u0020 u0634_u064a_u0621 u0020 u0639_u0644_u0649 u0020 u062c_u0647_u0627_u0632 u0020 u0627_u0644_u0643_u0645_u0628_u064a_u0648_u062a_u0631 u0020 u0627_u0644_u062e_u0627_u0635 u0020 u0628_u0643_u002e_u000d", 
        "u0648_u064a_u0639_u062a_u0628_u0631 u0020 u0628_u0631_u0646_u0627_u0645_u062c u0020 u0648_u064a_u0646_u062f_u0648_u0632 u0020 u0037 u0020 u0646_u0638_u0627_u0645 u0020 u062a_u0634_u063a_u064a_u0644 u0020 u0645_u0635_u0645_u0645 u0020 u062d_u0648_u0644 u0020 u0648_u0627_u062c_u0647_u0629 u0020 u0627_u0644_u0645_u0633_u062a_u062e_u062f_u0645_u0020", 
        "u0627_u0644_u0631_u0633_u0648_u0645_u064a_u0629 u0020 u0628_u062d_u064a_u062b u0020 u064a_u0643_u0648_u0646 u0020 u0644_u0644_u0645_u0627_u0648_u0633 u0020 u062f_u0648_u0631 u0020 u0623_u0633_u0627_u0633_u064a_u002e u0020 u0641_u0647_u0648 u0020 u064a_u062f_u064a_u0643 u0020 u0627_u0644_u062a_u062e_u064a_u0644_u064a_u0629 u0020 u0627_u0644_u062a_u064a_u0020", 
        "u062a_u062a_u062d_u0631_u0643 u0020 u0648_u062a_u0639_u0637_u064a u0020 u0627_u0644_u0623_u0648_u0627_u0645_u0631 u0020 u0648_u062a_u062a_u0641_u0627_u0639_u0644 u0020 u0645_u0639 u0020 u0627_u0644_u0643_u0645_u0628_u064a_u0648_u062a_u0631_u002e u0020 u000d"
    ]
}