{
    "bounding_box": [
        [
            187, 
            34, 
            344, 
            31
        ], 
        [
            49, 
            100, 
            612, 
            28
        ], 
        [
            75, 
            129, 
            586, 
            28
        ], 
        [
            41, 
            158, 
            621, 
            28
        ], 
        [
            269, 
            189, 
            392, 
            24
        ], 
        [
            78, 
            221, 
            584, 
            27
        ], 
        [
            63, 
            250, 
            599, 
            28
        ], 
        [
            39, 
            281, 
            622, 
            26
        ], 
        [
            613, 
            310, 
            48, 
            17
        ]
    ], 
    "image_height": 540, 
    "image_width": 720, 
    "transcription": [
        "u00a0_u0627_u0644_u062f_u0631_u0633 u0020 u0032_u002d_u0032_u003a u0020 u0623_u0633_u0627_u0633_u064a_u0627_u062a u0020 u0627_u0644_u062a_u0628_u0648_u064a_u0628_u0627_u062a", 
        "u0635_u0645_u0645_u062a u0020 u0645_u0632_u0627_u064a_u0627 u0020 u0628_u0631_u0646_u0627_u0645_u062c u0020 u0623_u0643_u0633_u0633 u0020 u0032_u0030_u0031_u0030 u0020 u0628_u0646_u0638_u0627_u0645 u0020 u062a_u062d_u0643_u0645 u0020 u0628_u062f_u064a_u0647_u064a u0020 u0644_u0644_u062a_u0628_u0648_u064a_u064a_u0629 u0020 u0644_u0645_u0633_u0627_u0639_u062f_u0629_u0020", 
        "u0627_u0644_u0645_u0633_u062a_u062e_u062f_u0645_u064a_u0646 u0020 u0627_u0644_u062c_u062f_u062f u0020 u0644_u0644_u0646_u0647_u0648_u0636 u0020 u0648_u0627_u0644_u0639_u0645_u0644 u0020 u0628_u0623_u0633_u0631_u0639 u0020 u0645_u0627 u0020 u064a_u0645_u0643_u0646_u002e u0020 u062d_u064a_u062b u0020 u062a_u062d_u062a_u0648_u064a u0020 u0643_u0644_u0020", 
        "u062a_u0628_u0648_u064a_u0628_u0629 u0020 u0639_u0644_u0649 u0020 u0645_u062c_u0645_u0648_u0639_u0629 u0020 u0645_u064f_u0639_u064a_u0646_u0629 u0020 u0645_u0646 u0020 u0627_u0644_u0623_u0648_u0627_u0645_u0631 u0020 u0630_u0627_u062a u0020 u0627_u0644_u0639_u0644_u0627_u0642_u0629 u0020 u0641_u0642_u0637 u0020 u0628_u062a_u0644_u0643 u0020 u0627_u0644_u062a_u0628_u0648_u064a_u0628_u0629_u002e u0020 u0641_u064a_u0020", 
        "u0647_u0630_u0627 u0020 u0627_u0644_u062f_u0631_u0633_u060c u0020 u0633_u0648_u0641 u0020 u0646_u062a_u0639_u0644_u0645 u0020 u0643_u064a_u0641_u064a_u0629 u0020 u0639_u0645_u0644 u0020 u0627_u0644_u062a_u0628_u0648_u064a_u0628_u0627_u062a_u002e_u000d", 
        "u0648_u0643_u0630_u0644_u0643 u0020 u0633_u0648_u0641 u0020 u0646_u0633_u062a_u0639_u0631_u0636 u0020 u0642_u0627_u0626_u0645_u0629 u0020 u0645_u0644_u0641_u060c u0020 u0648_u0647_u064a u0020 u0645_u064a_u0632_u0629 u0020 u062c_u062f_u064a_u062f_u0629 u0020 u0644_u0628_u0631_u0646_u0627_u0645_u062c u0020 u0623_u0643_u0633_u0633_u0020", 
        "u0032_u0030_u0031_u0030_u060c u0020 u0648_u0627_u0644_u062a_u064a u0020 u062a_u0639_u0631_u0636 u0020 u0642_u0627_u0626_u0645_u0629 u0020 u0028_u0645_u0644_u0641_u0029 u0020 u0042_u0061_u0063_u006b_u0073_u0074_u0061_u0067_u0065_u002e u0020 u062d_u064a_u062b u0020 u064a_u0645_u0643_u0646_u0643 u0020 u0628_u0647_u0630_u0627_u0020", 
        "u0627_u0644_u0639_u0631_u0636 u0020 u0625_u062f_u0627_u0631_u0629 u0020 u0627_u0644_u0625_u0639_u062f_u0627_u062f_u0627_u062a u0020 u0627_u0644_u062a_u064a u0020 u062a_u062a_u062d_u0643_u0645 u0020 u0628_u0627_u0644_u0645_u0644_u0641 u0020 u0630_u0627_u062a_u0647_u060c u0020 u0628_u062f_u0644_u0627_u064b u0020 u0645_u0646 u0020 u0627_u0644_u0639_u0646_u0627_u0635_u0631 u0020 u0636_u0645_u0646_u0020", 
        "u0627_u0644_u0645_u0644_u0641"
    ]
}