{
    "bounding_box": [
        [
            62, 
            65, 
            614, 
            36
        ], 
        [
            65, 
            137, 
            571, 
            34
        ], 
        [
            78, 
            174, 
            557, 
            35
        ], 
        [
            59, 
            214, 
            576, 
            34
        ], 
        [
            179, 
            254, 
            456, 
            32
        ], 
        [
            61, 
            290, 
            574, 
            34
        ], 
        [
            64, 
            328, 
            571, 
            35
        ], 
        [
            40, 
            368, 
            595, 
            33
        ], 
        [
            450, 
            406, 
            185, 
            31
        ]
    ], 
    "image_height": 540, 
    "image_width": 720, 
    "transcription": [
        "u062a_u063a_u064a_u0631 u0020 u0627_u0644_u0648_u0638_u0627_u0626_u0641 u0020 u0648_u0627_u0644_u0648_u0627_u062c_u0628_u0627_u062a u0020 u0628_u062d_u0633_u0628 u0020 u0627_u0644_u0632_u0645_u0627_u0646 u0020 u0648_u0627_u0644_u0645_u0643_u0627_u0646_u0020", 
        "u0020 u0020 u064a_u0638_u0644 u0020 u0627_u0644_u0647_u062f_u0641 u0020 u0648_u0627_u0644_u0645_u0642_u0635_u062f u0020 u0627_u0644_u0643_u0644_u064a u0020 u0644_u0644_u0634_u0631_u064a_u0639_u0629 u0020 u0647_u0648 u0020 u062a_u062d_u0642_u064a_u0642 u0020 u0645_u0635_u0627_u0644_u062d_u0020", 
        "u0627_u0644_u0639_u0628_u0627_u062f_u0629 u0020 u0641_u064a u0020 u0627_u0644_u0639_u0627_u062c_u0644 u0020 u0648_u0627_u0644_u0622_u062c_u0644 u0020 u0623_u0645_u0631_u0627_u064b u0020 u062b_u0627_u0628_u062a_u0627_u064b u0020 u0648_u0642_u0627_u0626_u0645_u0627_u064b u0020 u0641_u064a u0020 u0643_u0644 u0020 u0632_u0645_u0627_u0646_u0020", 
        "u0648_u0645_u0643_u0627_u0646 u0020 u0028_u0648_u0645_u0627 u0020 u0627_u0631_u0633_u0644_u0646_u0627_u0643 u0020 u0625_u0644_u0627 u0020 u0631_u062d_u0645_u0629 u0020 u0644_u0644_u0639_u0627_u0644_u0645_u064a_u0646_u0029 u0020 u0028_u0035_u0029 u0020 u0645_u0646 u0020 u0627_u0644_u062b_u0648_u0627_u0628_u062a_u0020", 
        "u0627_u0644_u062a_u0649 u0020 u0627_u0644_u0645_u062a_u0641_u0642 u0020 u0639_u0644_u064a_u0647_u0627 u0020 u0648_u0627_u0644_u062a_u0649 u0020 u062a_u062f_u0648_u0631 u0020 u0639_u0644_u064a_u0647_u0627 u0020 u0627_u0644_u0627_u062d_u0643_u0627_u0645_u002e_u000d", 
        "u0625_u0646 u0020 u0635_u0644_u0627_u062d u0020 u0627_u0644_u0634_u0631_u064a_u0639_u0629 u0020 u0627_u0644_u0625_u0633_u0644_u0627_u0645_u064a_u0629 u0020 u0644_u0643_u0644 u0020 u0632_u0645_u0627_u0646 u0020 u0648_u0645_u0643_u0627_u0646 u0020 u064a_u062c_u0639_u0644 u0020 u0645_u0628_u062f_u0623_u0020", 
        "u0627_u0644_u062b_u0628_u0627_u062a u0020 u0648_u0627_u0644_u062a_u063a_u064a_u0631 u0020 u0644_u0627_u0632_u0645_u0629 u0020 u0645_u0646 u0020 u0644_u0648_u0627_u0632_u0645 u0020 u0627_u0644_u0634_u0631_u064a_u0639_u0629_u060c u0020 u0628_u0644 u0020 u0648_u0625_u0646 u0020 u0020_u0642_u0627_u0639_u062f_u0629 u0020 u0020", 
        "u0028_u0644_u0627_u064a_u0646_u0643_u0631 u0020 u062a_u063a_u064a_u0631 u0020 u0627_u0644_u0627_u062d_u0643_u0627_u0645 u0020 u0628_u062a_u063a_u064a_u0631 u0020 u0627_u0644_u0632_u0645_u0627_u0646_u0029_u0028_u0036_u0029_u002e_u0627_u0635_u0628_u062d_u062a u0020 u0645_u0646 u0020 u0627_u0644_u0642_u0648_u0627_u0639_u062f_u0020", 
        "u0627_u0644_u0634_u0631_u0639_u064a_u0629 u0020 u0627_u0644_u0645_u0639_u0631_u0648_u0641_u0629"
    ]
}