{
    "bounding_box": [
        [
            41, 
            33, 
            374, 
            52
        ], 
        [
            42, 
            106, 
            607, 
            27
        ], 
        [
            555, 
            136, 
            94, 
            23
        ], 
        [
            64, 
            169, 
            585, 
            26
        ], 
        [
            59, 
            197, 
            590, 
            28
        ], 
        [
            444, 
            230, 
            205, 
            24
        ], 
        [
            53, 
            258, 
            596, 
            29
        ], 
        [
            123, 
            288, 
            526, 
            28
        ], 
        [
            72, 
            317, 
            577, 
            28
        ], 
        [
            54, 
            348, 
            595, 
            26
        ], 
        [
            397, 
            376, 
            252, 
            27
        ]
    ], 
    "image_height": 540, 
    "image_width": 720, 
    "transcription": [
        "u0639_u064a_u0648_u0628 u0020 u0627_u0644_u0646_u0638_u0627_u0645 u0020 u0627_u0644_u0628_u0631_u0644_u0645_u0627_u0646_u064a", 
        "u064a_u0642_u0636_u064a u0020 u0639_u0644_u0649 u0020 u0627_u0633_u062a_u0642_u0644_u0627_u0644 u0020 u0648_u0643_u0641_u0627_u0621_u0629 u0020 u0627_u0644_u0633_u0644_u0637_u0629 u0020 u0627_u0644_u062a_u0646_u0641_u064a_u0630_u064a_u0629 u0020 u0648_u0625_u0644_u0649 u0020 u062d_u062f u0020 u0645_u0627 u0020 u0627_u0633_u062a_u0642_u0644_u0627_u0644 u0020 u0648_u0643_u0641_u0627_u0621_u0629_u0020", 
        "u0627_u0644_u062a_u0634_u0631_u064a_u0639_u064a_u0629_u002e_u000d", 
        "u0639_u062f_u0645 u0020 u0648_u062c_u0648_u062f u0020 u0631_u0626_u064a_u0633 u0020 u062a_u0646_u0641_u064a_u0630_u064a u0020 u0648_u0627_u062d_u062f_u002e u0020 u0648_u0647_u0630_u0627 u0020 u064a_u0634_u0643_u0644 u0020 u062e_u0637_u0648_u0631_u0629 u0020 u0643_u0628_u064a_u0631_u0629 u0020 u0644_u0627 u0020 u0633_u064a_u0645_u0627 u0020 u0641_u064a_u0020", 
        "u0623_u0648_u0642_u0627_u062a u0020 u0627_u0644_u062d_u0631_u0628 u0020 u0648_u0627_u0644_u0623_u0632_u0645_u0627_u062a u0020 u0627_u0644_u0648_u0637_u0646_u064a_u0629 u0020 u0028_u0636_u0631_u0648_u0631_u0629 u0020 u0627_u0646_u0633_u062c_u0627_u0645 u0020 u0631_u0626_u064a_u0633 u0020 u0627_u0644_u0648_u0632_u0631_u0627_u0621 u0020 u0645_u0639_u0020", 
        "u0648_u0632_u0631_u0627_u0626_u0647 u0020 u0648_u062a_u0641_u0627_u0647_u0645_u0647 u0020 u0645_u0639_u0647_u0645_u0029_u002e_u000d", 
        "u0641_u064a u0020 u062d_u0627_u0644 u0020 u0648_u062c_u0648_u062f u0020 u062d_u0632_u0628_u064a_u0646 u0020 u0643_u0628_u064a_u0631_u064a_u0646_u060c u0020 u0641_u0625_u0646 u0020 u0645_u0642_u0627_u0644_u064a_u062f u0020 u0627_u0644_u0623_u0645_u0648_u0631 u0020 u062a_u0648_u0636_u0639 u0020 u0628_u0627_u0644_u0643_u0627_u0645_u0644 u0020 u0641_u064a u0020 u064a_u062f_u0020", 
        "u062d_u0632_u0628 u0020 u0627_u0644_u0623_u063a_u0644_u0628_u064a_u0629 u0020 u0645_u0645_u0627 u0020 u064a_u0624_u062b_u0631 u0020 u0639_u0644_u0649 u0020 u0627_u0644_u062d_u064a_u0627_u0629 u0020 u0627_u0644_u0633_u064a_u0627_u0633_u064a_u0629_u002e u0020 u0627_u0644_u0623_u0645_u0631 u0020 u0627_u0644_u0630_u064a u0020 u064a_u062f_u0641_u0639_u0020", 
        "u0627_u0644_u0645_u0639_u0627_u0631_u0636_u0629 u0020 u0644_u0645_u0634_u0627_u063a_u0644_u0629 u0020 u0627_u0644_u062d_u0643_u0648_u0645_u0629 u0020 u062f_u0627_u0626_u0645_u0627 u0020 u0648_u0625_u0628_u0639_u0627_u062f_u0647_u0627 u0020 u0639_u0646 u0020 u0623_u062f_u0627_u0621 u0020 u062f_u0648_u0631_u0647_u0627 u0020 u0627_u0644_u0623_u0633_u0627_u0633_u064a_u0020", 
        "u0028_u062a_u062d_u0642_u064a_u0642 u0020 u0645_u0635_u0627_u0644_u062d u0020 u0627_u0644_u0634_u0639_u0628_u0029 u0020 u0648_u0630_u0644_u0643 u0020 u0644_u0645_u0648_u0627_u062c_u0647_u0629 u0020 u0627_u0644_u0647_u062c_u0648_u0645 u0020 u0627_u0644_u0645_u0633_u062a_u0645_u0631 u0020 u0645_u0646 u0020 u0627_u0644_u0645_u0639_u0627_u0631_u0636_u0629_u0020", 
        "u0648_u0627_u0644_u0630_u064a u0020 u064a_u064f_u0641_u0633_u062f u0020 u0639_u0644_u064a_u0647_u0627 u0020 u0627_u0644_u0631_u0623_u064a u0020 u0627_u0644_u0639_u0627_u0645_u002e"
    ]
}