{
    "bounding_box": [
        [
            94, 
            11, 
            621, 
            63
        ], 
        [
            230, 
            89, 
            485, 
            50
        ], 
        [
            217, 
            141, 
            499, 
            63
        ], 
        [
            294, 
            206, 
            421, 
            63
        ], 
        [
            159, 
            283, 
            556, 
            51
        ], 
        [
            290, 
            349, 
            425, 
            49
        ], 
        [
            254, 
            400, 
            461, 
            63
        ], 
        [
            208, 
            465, 
            508, 
            63
        ]
    ], 
    "image_height": 540, 
    "image_width": 720, 
    "transcription": [
        "u0020 u0020 u0020 u0020 u0020 u0020 u0020 u0020 u0623_u0639_u0636_u0627_u0621 u0020 u0645_u062c_u0645_u0648_u0639_u0629 u0020 u0627_u0644_u0623_u0645_u0644 u0020 u000b", 
        "u0031_u002d u0020 u0633_u0645_u064a_u0631_u0629 u0020 u0645_u062d_u0645_u062f u0020 u0633_u0639_u064a_u062f_u000b", 
        "u0032_u002d u0020 u0645_u062d_u0645_u062f u0020 u0633_u0639_u064a_u062f u0020 u062d_u0633_u0646_u064a_u000b", 
        "u0033_u002d u0020 u0623_u062d_u0645_u062f u0020 u0645_u062d_u0645_u062f u0020 u0639_u0644_u064a_u000b", 
        "u0034 u0020 u002d u0020 u0645_u062d_u0645_u062f u0020 u0625_u0628_u0631_u0627_u0647_u064a_u0645 u0020 u062f_u0633_u0648_u0642_u064a_u000b", 
        "u0035_u002d u0020 u0646_u062f_u064a u0020 u062a_u0648_u0641_u064a_u0642 u0020 u0645_u062d_u0645_u062f_u000b", 
        "u0036_u002d u0020 u0639_u0645_u0631 u0020 u0623_u062d_u0645_u062f u0020 u062d_u0645_u062f_u0627_u0646_u000b", 
        "u0037_u002d u0020 u0625_u0628_u0631_u0627_u0647_u064a_u0645 u0020 u0627_u0644_u0633_u064a_u062f u0020 u0639_u0648_u0636"
    ]
}