{
    "bounding_box": [
        [
            36, 
            92, 
            195, 
            47
        ], 
        [
            242, 
            161, 
            412, 
            33
        ], 
        [
            91, 
            207, 
            564, 
            33
        ]
    ], 
    "image_height": 540, 
    "image_width": 720, 
    "transcription": [
        "u0648_u0642_u0641_u0629 u0020 u0646_u0642_u0627_u0634_u064a_u0629", 
        "u0627_u0644_u0628_u0639_u062f u0020 u0627_u0644_u0623_u062e_u0644_u0627_u0642_u064a u0020 u0644_u0645_u0645_u0627_u0631_u0633_u0629 u0020 u0627_u0644_u062a_u0635_u0646_u064a_u0639 u0020 u0627_u0644_u062c_u064a_u062f_u002e_u002e_u000d", 
        "u0647_u0644 u0020 u062a_u062a_u062e_u064a_u0644 u0020 u062a_u0637_u0628_u064a_u0642 u0020 u0646_u0627_u062c_u062d u0020 u0641_u064a u0020 u0645_u0624_u0633_u0633_u0629 u0020 u062a_u0633_u0648_u062f_u0647_u0627 u0020 u0642_u064a_u0645 u0020 u0633_u0644_u0628_u064a_u0629_u061f_u002e"
    ]
}