{
    "bounding_box": [
        [
            539, 
            54, 
            132, 
            25
        ], 
        [
            58, 
            88, 
            613, 
            28
        ], 
        [
            154, 
            128, 
            517, 
            24
        ], 
        [
            371, 
            165, 
            300, 
            25
        ], 
        [
            245, 
            199, 
            426, 
            28
        ], 
        [
            94, 
            238, 
            570, 
            27
        ]
    ], 
    "image_height": 540, 
    "image_width": 720, 
    "transcription": [
        "u0641_u0631_u0648_u0639 u0020 u0627_u0644_u0639_u0644_u0648_u0645 u0020 u003a_u002d_u000d", 
        "u0031_u002d u0020 u0639_u0644_u0645 u0020 u0627_u0644_u062d_u064a_u0627_u0629 u0020 u003a_u002d u0020 u064a_u062f_u0631_u0633 u0020 u0627_u0644_u0639_u0644_u0627_u0642_u0627_u062a u0020 u0648_u0627_u0644_u062a_u0641_u0639_u0644_u0627_u062a u0020 u0627_u0644_u062a_u064a u0020 u062a_u062a_u0645 u0020 u0628_u064a_u0646 u0020 u0627_u0644_u0645_u062e_u0644_u0648_u0642_u0627_u062a u0020 u0627_u0644_u062d_u064a_u0629_u000d", 
        "u0032_u002d u0020 u0639_u0644_u0645 u0020 u0627_u0644_u0623_u0631_u0636 u0020 u003a_u002d u0020 u064a_u062f_u0631_u0633 u0020 u0627_u0644_u0627_u0631_u0636 u0020 u0648_u0627_u0644_u0641_u0636_u0627_u0621 u0020 u0648_u0627_u0644_u0632_u0644_u0627_u0632_u0644 u0020 u0648_u0627_u0644_u0628_u0631_u0627_u0643_u064a_u0646_u000d", 
        "u0033_u002d u0020 u0627_u0644_u0639_u0644_u0648_u0645 u0020 u0627_u0644_u0637_u0628_u064a_u0639_u0629 u0020 u003a_u002d u0020 u0648_u062a_u0646_u0642_u0633_u0645 u0020 u0627_u0644_u0649 u0020 u003a_u002d_u000d", 
        "u0028_u0623_u0029 u0020 u0639_u0644_u0645 u0020 u0627_u0644_u0643_u064a_u0645_u064a_u0627_u0621 u0020 u003a_u002d u0020 u064a_u0647_u062a_u0645 u0020 u0628_u062f_u0631_u0627_u0633_u0629 u0020 u0627_u0644_u0645_u0627_u062f_u0629 u0020 u0648_u062a_u0641_u0627_u0639_u0644_u0627_u062a_u0647_u0627 u0020 u000d", 
        "u0028_u0628_u0029 u0020 u0639_u0644_u0645 u0020 u0627_u0644_u0641_u064a_u0632_u064a_u0627_u0621 u0020 u003a_u002d u0020 u064a_u0647_u062a_u0645 u0020 u0628_u062f_u0631_u0627_u0633_u0629 u0020 u0627_u0644_u0637_u0627_u0642_u0629 u0020 u0648_u0642_u062f_u0631_u062a_u0647_u0627 u0020 u0639_u0644_u0649 u0020 u062a_u063a_u064a_u064a_u0631 u0020 u0627_u0644_u0645_u0627_u062f_u0629 u0020 u002e_u0020"
    ]
}