{
    "bounding_box": [
        [
            14, 
            73, 
            908, 
            23
        ], 
        [
            30, 
            97, 
            892, 
            23
        ], 
        [
            47, 
            121, 
            875, 
            23
        ], 
        [
            578, 
            147, 
            344, 
            21
        ], 
        [
            51, 
            169, 
            872, 
            23
        ], 
        [
            26, 
            194, 
            897, 
            22
        ], 
        [
            681, 
            218, 
            241, 
            22
        ]
    ], 
    "image_height": 540, 
    "image_width": 960, 
    "transcription": [
        "u0641_u064a u0020 u0034 u0020 u064a_u0646_u0627_u064a_u0631 u0020 u0031_u0038_u0032_u0039 u0020 u0639_u0642_u062f u0020 u0646_u064a_u0628_u0643 u0020 u0627_u0644_u0641_u0631_u0646_u0633_u064a u0020 u0634_u0631_u0627_u0643_u0629 u0020 u0645_u0639 u0020 u0631_u062c_u0644 u0020 u064a_u0642_u0627_u0644 u0020 u005b_u0644_u0648_u064a_u0633 u0020 u062f_u0627_u063a_u0648_u0631_u005d u0020 u201c u0020 u004c_u006f_u0075_u0069_u0073 u0020 u0044_u0041_u0047_u0055_u0045_u0052_u0052_u0045_u201d u0020 u0628_u063a_u0631_u0636 u0020 u062a_u0637_u0648_u064a_u0631 u0020 u0627_u0628_u062a_u0643_u0627_u0631_u0647 u0020 u0644_u0643_u0646_u0647 u0020 u0644_u0645 u0020 u064a_u0644_u0628_u062b_u0020", 
        "u0623_u0646 u0020 u0645_u0627_u062a u0020 u0628_u0639_u062f u0020 u0623_u0631_u0628_u0639 u0020 u0633_u0646_u0648_u0627_u062a u0020 u062f_u0648_u0646 u0020 u0623_u0646 u0020 u064a_u0636_u064a_u0641 u0020 u0627_u0644_u0643_u062b_u064a_u0631 u0020 u0644_u0644_u0627_u0628_u062a_u0643_u0627_u0631 u0020 u0627_u0644_u0623_u0648_u0644_u002e u0020 u0623_u0645_u0627 u0020 u005b_u062f_u0627_u063a_u0648_u0631_u005d u0020 u0641_u0642_u062f u0020 u0645_u0636_u0649 u0020 u0641_u064a u0020 u0623_u0628_u062d_u0627_u062b_u0647 u0020 u062d_u062a_u0649 u0020 u0627_u0633_u062a_u0637_u0627_u0639 u0020 u0623_u062e_u064a_u0631_u0627_u064b u0020 u0623_u0646 u0020 u064a_u0635_u0644 u0020 u0625_u0644_u0649 u0020 u0637_u0631_u064a_u0642_u0629 u0020 u064a_u0642_u0644_u0644_u0020", 
        "u0641_u064a_u0647_u0627 u0020 u0645_u062f_u0629 u0020 u0627_u0644_u062a_u0639_u0631_u064a_u0636 u0020 u0645_u0646 u0020 u0633_u0627_u0639_u0627_u062a u0020 u0625_u0644_u0649 u0020 u0641_u062a_u0631_u0629 u0020 u0642_u0635_u064a_u0631_u0629 u0020 u0628_u064a_u0646 u0020 u0627_u0644_u0639_u0634_u0631_u064a_u0646 u0020 u0625_u0644_u0649 u0020 u0627_u0644_u062b_u0644_u0627_u062b_u064a_u0646 u0020 u062f_u0642_u064a_u0642_u0629_u002e u0020 u0627_u0633_u062a_u0637_u0627_u0639 u0020 u0643_u0630_u0644_u0643 u0020 u0623_u0646 u0020 u064a_u062b_u0628_u062a u0020 u0627_u0644_u0635_u0648_u0631_u0629 u0020 u0628_u063a_u0645_u0633_u0647_u0627 u0020 u0641_u064a u0020 u0623_u0645_u0644_u0627_u062d u0020 u062e_u0627_u0635_u0629_u002e_u000d", 
        "u0648_u0627_u062e_u064a_u0631_u0627 u0020 u0642_u0627_u0645 u0020 u005b_u062a_u0627_u0644_u064a_u0628_u0648_u062a_u005d u0020 u0639_u0627_u0645 u0020 u0031_u0038_u0035_u0030 u0020 u0628_u0646_u0634_u0631 u0020 u0643_u062a_u0627_u0628 u0020 u0639_u0646_u0648_u0627_u0646_u0647_u003a_u000d", 
        "u201c_u0642_u0644_u0645 u0020 u0627_u0644_u0637_u0628_u064a_u0639_u0629_u201d u0020 u0628_u0647 u0020 u0627_u0644_u0639_u062f_u064a_u062f u0020 u0645_u0646 u0020 u062a_u0644_u0643 u0020 u0627_u0644_u0635_u0648_u0631_u002e u0020 u0641_u064a u0020 u0627_u0644_u062d_u0642_u064a_u0642_u0629_u060c u0020 u0625_u0646 u0020 u062a_u0644_u0643 u0020 u0627_u0644_u0637_u0631_u064a_u0642_u0629 u0020 u0627_u0639_u062a_u064f_u0645_u062f_u062a u0020 u0645_u0646_u0630 u0020 u0630_u0644_u0643 u0020 u0627_u0644_u062d_u064a_u0646 u0020 u0648_u0639_u0644_u0649 u0020 u0623_u0633_u0633_u0647_u0627 u0020 u0627_u0644_u0639_u0644_u0645_u064a_u0629 u0020 u0628_u0646_u064a_u062a u0020 u0635_u0646_u0627_u0639_u0629 u0020 u0627_u0644_u062a_u0635_u0648_u064a_u0631_u0020", 
        "u0627_u0644_u0636_u0648_u0626_u064a u0020 u0627_u0644_u062d_u062f_u064a_u062b_u002e u0020 u0628_u0627_u0644_u0637_u0628_u0639_u060c u0020 u062c_u0627_u0621 u0020 u0645_u0646 u0020 u0627_u0633_u062a_u0637_u0627_u0639 u0020 u0623_u0646 u0020 u064a_u062b_u0628_u0651_u062a u0020 u0627_u0644_u0645_u0648_u0627_u062f u0020 u0627_u0644_u0641_u0648_u062a_u0648_u063a_u0631_u0627_u0641_u064a_u0629 u0020 u0639_u0644_u0649 u0020 u0644_u0648_u062d_u0627_u062a u0020 u0632_u062c_u0627_u062c_u064a_u0629 u0020 u0628_u0639_u062f u0020 u0627_u0644_u0639_u062f_u064a_u062f u0020 u0645_u0646 u0020 u0627_u0644_u0645_u062d_u0627_u0648_u0644_u0627_u062a_u060c u0020 u062b_u0645 u0020 u062a_u0644_u0649 u0020 u0630_u0644_u0643 u0020 u062a_u0627_u0631_u064a_u062e u0020 u0645_u0646_u0020", 
        "u0627_u0644_u062a_u0637_u0648_u0631 u0020 u0641_u064a u0020 u0635_u0646_u0627_u0639_u0629 u0020 u0627_u0644_u0623_u0641_u0644_u0627_u0645 u0020 u0627_u0644_u062c_u064a_u0644_u0627_u062a_u064a_u0646_u064a_u0629_u002e_u000d"
    ]
}