{
    "bounding_box": [
        [
            512, 
            31, 
            151, 
            29
        ], 
        [
            79, 
            84, 
            583, 
            29
        ], 
        [
            110, 
            118, 
            551, 
            28
        ], 
        [
            61, 
            149, 
            600, 
            27
        ], 
        [
            51, 
            181, 
            610, 
            29
        ], 
        [
            366, 
            216, 
            295, 
            24
        ], 
        [
            66, 
            250, 
            596, 
            29
        ], 
        [
            42, 
            284, 
            619, 
            27
        ], 
        [
            50, 
            316, 
            611, 
            28
        ], 
        [
            172, 
            347, 
            490, 
            29
        ]
    ], 
    "image_height": 540, 
    "image_width": 720, 
    "transcription": [
        "u0627_u0644_u0633_u064a_u0627_u0633_u0627_u062a u0020 u0627_u0644_u0623_u0645_u0646_u064a_u0629", 
        "u0627_u0644_u0633_u064a_u0627_u0633_u0629 u0020 u0627_u0644_u0623_u0645_u0646_u064a_u0629 u0020 u0639_u0628_u0627_u0631_u0629 u0020 u0628_u064a_u0627_u0646 u0020 u0645_u0646 u0020 u0627_u0644_u0642_u0648_u0627_u0639_u062f u0020 u0623_u0648 u0020 u0627_u0644_u062a_u0648_u062c_u064a_u0647_u0627_u062a u0020 u0627_u0644_u062a_u064a u0020 u062a_u062d_u062f_u062f u0020 u0643_u064a_u0641_u064a_u0629_u0020", 
        "u0627_u0644_u062d_u0641_u0627_u0638 u0020 u0639_u0644_u0649 u0020 u0627_u0644_u0623_u0645_u0646 u0020 u0641_u064a u0020 u0645_u0624_u0633_u0633_u0629 u0020 u0645_u0639_u064a_u0646_u0629_u002e u0020 u0648_u062a_u0639_u062a_u0628_u0631 u0020 u0641_u0643_u0631_u0629 u0020 u062d_u0645_u0627_u064a_u0629 u0020 u0627_u0644_u0628_u064a_u0627_u0646_u0627_u062a_u0020", 
        "u0627_u0644_u062d_u0633_u0627_u0633_u0629 u0020 u0635_u0645_u064a_u0645 u0020 u0645_u0639_u0638_u0645 u0020 u0633_u064a_u0627_u0633_u0627_u062a u0020 u0623_u0645_u0646 u0020 u0627_u0644_u0643_u0645_u0628_u064a_u0648_u062a_u0631_u060c u0020 u0648_u0646_u062d_u0646 u0020 u0020_u0646_u0634_u064a_u0631 u0020 u0625_u0644_u0649 u0020 u062d_u0641_u0638_u0647_u0627_u0020", 
        "u0028_u0623_u064a u0020 u0639_u062f_u0645 u0020 u0641_u0642_u062f_u0627_u0646 u0020 u0627_u0644_u0628_u064a_u0627_u0646_u0627_u062a u0020 u0627_u0644_u0645_u0647_u0645_u0629_u0029 u0020 u0648_u062e_u0635_u0648_u0635_u064a_u062a_u0647_u0627 u0020 u0028_u0641_u0642_u0637 u0020 u0627_u0644_u0623_u0634_u062e_u0627_u0635 u0020 u0627_u0644_u0645_u0635_u0631_u062d_u0020", 
        "u0644_u0647_u0645 u0020 u064a_u0645_u0643_u0646_u0647_u0645 u0020 u0627_u0644_u0648_u0635_u0648_u0644 u0020 u0625_u0644_u0649 u0020 u0627_u0644_u0628_u064a_u0627_u0646_u0627_u062a_u0029_u002e_u000d", 
        "u0625_u0630_u0627 u0020 u0643_u0646_u062a u0020 u062a_u062a_u0628_u0639 u0020 u0645_u0646_u0647_u062c_u0627 u0020 u0627_u0633_u062a_u0628_u0627_u0642_u064a_u0627 u0020 u0644_u0645_u0639_u0627_u0644_u062c_u0629 u0020 u0627_u0644_u0628_u064a_u0627_u0646_u0627_u062a u0020 u0627_u0644_u062d_u0633_u0627_u0633_u0629_u060c u0020 u064a_u0646_u0628_u063a_u064a u0020 u0623_u0646 u0020 u062a_u0634_u0645_u0644_u0020", 
        "u0633_u064a_u0627_u0633_u0629 u0020 u0627_u0644_u0623_u0645_u0646 u0020 u0627_u0644_u062e_u0627_u0635_u0629 u0020 u0628_u0643 u0020 u0627_u0644_u0646_u0642_u0627_u0637 u0020 u0627_u0644_u062a_u0627_u0644_u064a_u0629_u060c u0020 u062d_u062a_u0649 u0020 u064a_u062a_u0633_u0646_u0649 u0020 u0627_u0644_u062d_u062f u0020 u0645_u0646 u0020 u062a_u0639_u0631_u0636_u0643 u0020 u0625_u0644_u0649_u0020", 
        "u0627_u0644_u0647_u062c_u0645_u0627_u062a u0020 u0627_u0644_u0645_u062e_u062a_u0644_u0641_u0629 u0020 u0648_u063a_u064a_u0631_u0647_u0627 u0020 u0645_u0646 u0020 u0645_u0633_u0627_u0626_u0644 u0020 u0627_u0644_u0623_u0645_u0646_u002e u0020 u062a_u0630_u0643_u0631 u0020 u0627_u0646_u0643 u0020 u0641_u064a u0020 u0627_u0644_u0645_u0646_u0647_u062c u0020 u0627_u0644_u0623_u0645_u0646_u064a_u0020", 
        "u0627_u0644_u0627_u0633_u062a_u0628_u0627_u0642_u064a u0020 u062a_u0641_u062a_u0631_u0636 u0020 u0645_u0633_u0628_u0642_u0627 u0020 u0623_u0646 u0020 u0634_u062e_u0635_u0627 u0020 u0633_u064a_u062d_u0627_u0648_u0644 u0020 u0627_u062e_u062a_u0631_u0627_u0642 u0020 u0623_u0645_u0646_u0643_u002e"
    ]
}