{
    "bounding_box": [
        [
            41, 
            126, 
            659, 
            34
        ], 
        [
            31, 
            167, 
            669, 
            33
        ], 
        [
            50, 
            205, 
            650, 
            33
        ], 
        [
            39, 
            243, 
            660, 
            33
        ], 
        [
            11, 
            282, 
            689, 
            33
        ], 
        [
            19, 
            319, 
            681, 
            34
        ], 
        [
            42, 
            358, 
            658, 
            34
        ]
    ], 
    "image_height": 540, 
    "image_width": 720, 
    "transcription": [
        "u0031_u0030_u002e u0020 u062a_u0634_u0641_u0639 u0020 u0645_u0648_u0633_u064a u0020 u0645_u0646 u0020 u0627_u062c_u0644 u0020 u0628_u0631_u0635 u0020 u0623_u062e_u062a_u0647 u0020 u0641_u0634_u0641_u0627_u0647_u0627 u0020 u0627_u0644_u0631_u0628 u0020 u0022_u0641_u0642_u0627_u0644 u0020 u0647_u0631_u0648_u0646_u0020", 
        "u0644_u0645_u0648_u0633_u0649 u0020 u0627_u0633_u0627_u0644_u0643 u0020 u064a_u0627 u0020 u0633_u064a_u062f_u064a u0020 u0644_u0627 u0020 u062a_u062c_u0639_u0644 u0020 u0639_u0644_u064a_u0646_u0627 u0020 u0627_u0644_u062e_u0637_u064a_u0629 u0020 u0627_u0644_u062a_u064a u0020 u062d_u0645_u0642_u0646_u0627 u0020 u0648_u0627_u062e_u0637_u0627_u0646_u0627_u0020", 
        "u0628_u0647_u0627 u0020 u0641_u0644_u0627 u0020 u062a_u0643_u0646 u0020 u0643_u0627_u0644_u0645_u064a_u062a u0020 u0627_u0644_u0630_u064a u0020 u064a_u0643_u0648_u0646 u0020 u0639_u0646_u062f u0020 u062e_u0631_u0648_u062c_u0647 u0020 u0645_u0646 u0020 u0631_u062d_u0645 u0020 u0627_u0645_u0647 u0020 u0642_u062f u0020 u0627_u0643_u0644_u0020", 
        "u0646_u0635_u0641 u0020 u0644_u062d_u0645_u0647 u0020 u0641_u0635_u0631_u062e u0020 u0645_u0648_u0633_u0649 u0020 u0627_u0644_u0649 u0020 u0627_u0644_u0631_u0628 u0020 u0642_u0627_u0626_u0644_u0627 u0020 u0627_u0644_u0644_u0647_u0645 u0020 u0627_u0634_u0641_u0647_u0627 u0020 u0641_u0642_u0627_u0644 u0020 u0627_u0644_u0631_u0628_u0020", 
        "u0644_u0645_u0648_u0633_u0649 u0020 u0648_u0644_u0648 u0020 u0628_u0635_u0642 u0020 u0627_u0628_u0648_u0647_u0627 u0020 u0628_u0635_u0642_u0627 u0020 u0641_u064a u0020 u0648_u062c_u0647_u0647_u0627 u0020 u0627_u0645_u0627 u0020 u0643_u0627_u0646_u062a u0020 u062a_u062e_u062c_u0644 u0020 u0633_u0628_u0639_u0629 u0020 u0627_u064a_u0627_u0645_u0020", 
        "u062a_u062d_u062c_u0632 u0020 u0633_u0628_u0639_u0629 u0020 u0627_u064a_u0627_u0645 u0020 u062e_u0627_u0631_u062c u0020 u0627_u0644_u0645_u062d_u0644_u0629 u0020 u0648_u0628_u0639_u062f u0020 u0630_u0644_u0643 u0020 u062a_u0631_u062c_u0639 u0020 u0641_u062d_u062c_u0632_u062a u0020 u0645_u0631_u064a_u0645 u0020 u062e_u0627_u0631_u062c_u0020", 
        "u0627_u0644_u0645_u062d_u0644_u0629 u0020 u0633_u0628_u0639_u0629 u0020 u0627_u064a_u0627_u0645 u0020 u0648_u0644_u0645 u0020 u064a_u0631_u062a_u062d_u0644 u0020 u0627_u0644_u0634_u0639_u0628 u0020 u062d_u062a_u0649 u0020 u0627_u0631_u062c_u0639_u062a u0020 u0645_u0631_u064a_u0645_u0022_u0028_u0639_u062f_u062f_u0031_u0032_u0029"
    ]
}