{
    "bounding_box": [
        [
            279, 
            56, 
            397, 
            58
        ], 
        [
            32, 
            139, 
            642, 
            46
        ], 
        [
            36, 
            190, 
            607, 
            47
        ], 
        [
            35, 
            248, 
            609, 
            42
        ], 
        [
            66, 
            301, 
            548, 
            42
        ], 
        [
            94, 
            353, 
            491, 
            42
        ], 
        [
            49, 
            401, 
            581, 
            47
        ], 
        [
            69, 
            457, 
            541, 
            40
        ], 
        [
            257, 
            507, 
            165, 
            47
        ]
    ], 
    "image_height": 540, 
    "image_width": 720, 
    "transcription": [
        "u0639_u0644_u0649 u0020 u0633_u0628_u064a_u0644 u0020 u0627_u0644_u0645_u062b_u0627_u0644 u0020 u003a_u000d", 
        "u0639_u0646_u062f_u0645_u0627 u0020 u0648_u0627_u062c_u0647_u062a u0020 u0634_u0631_u0643_u0629 u0020 u0623_u0648_u0633_u0645 u0020 u0635_u0639_u0648_u0628_u0627_u062a u0020 u0625_u0642_u062a_u0635_u0627_u062f_u064a_u0629_u0020", 
        "u0641_u064a u0020 u0633_u0646_u0648_u0627_u062a u0020 u0623_u0644_u0039_u0030 u0020 u0020_u0623_u063a_u0644_u0642_u062a u0020 u0639_u062f_u062f u0020 u0645_u0646 u0020 u0645_u0635_u0627_u0646_u0639_u0647_u0627_u0020", 
        "u0627_u0644_u062a_u064a u0020 u0643_u0627_u0646_u062a u0020 u062a_u0639_u0645_u0644 u0020 u0628_u062a_u0643_u0646_u0648_u0644_u0648_u062c_u064a_u0627 u0020 u0642_u062f_u064a_u0645_u0647 u0020 u002c u0020 u0625_u0646_u062f_u0645_u062c_u062a_u0020", 
        "u0645_u0639 u0020 u0634_u0631_u0643_u0647 u0020 u0645_u062a_u0639_u062f_u062f_u0629 u0020 u0627_u0644_u062c_u0646_u0633_u064a_u0627_u062a u0020 u0648_u0647_u064a u0020 u0634_u0631_u0643_u0629_u0020", 
        "u201d_u0646_u0633_u062a_u0644_u0647_u201c u0020 u002e u0020 u062a_u0642_u0648_u0645 u0020 u0634_u0631_u0643_u0629 u0020 u0646_u0633_u062a_u0644_u0647 u0020 u0628_u062a_u0633_u0648_u064a_u0642_u0020", 
        "u0645_u0646_u062a_u0648_u062c_u0627_u062a u0020 u0644_u0627 u0020 u062a_u0646_u062a_u062c_u0647_u0627 u0020 u0623_u0648_u0633_u0645 u0020 u0020_u0648_u062a_u0642_u0648_u0645 u0020 u0623_u0648_u0633_u0645 u0020 u0639_u0646_u0020", 
        "u0637_u0631_u064a_u0642 u0020 u0646_u0633_u062a_u0644_u0647 u0020 u0628_u062a_u0633_u0648_u064a_u0642 u0020 u0645_u0646_u062a_u0648_u062c_u0627_u062a_u0647_u0627 u0020 u0625_u0644_u0649 u0020 u0643_u0644_u0020", 
        "u0623_u0646_u062d_u0627_u0621 u0020 u0627_u0644_u0639_u0627_u0644_u0645_u0020"
    ]
}