{
    "bounding_box": [
        [
            274, 
            86, 
            389, 
            76
        ]
    ], 
    "image_height": 540, 
    "image_width": 960, 
    "transcription": [
        "u0623_u0645_u0646 u0020 u0627_u0644_u0645_u0639_u0644_u0648_u0645_u0627_u062a_u0020"
    ]
}