{
    "bounding_box": [
        [
            329, 
            54, 
            311, 
            30
        ], 
        [
            329, 
            88, 
            311, 
            30
        ], 
        [
            329, 
            121, 
            311, 
            30
        ], 
        [
            329, 
            155, 
            311, 
            30
        ], 
        [
            329, 
            189, 
            311, 
            30
        ], 
        [
            329, 
            221, 
            311, 
            31
        ], 
        [
            430, 
            260, 
            101, 
            26
        ], 
        [
            329, 
            288, 
            311, 
            31
        ], 
        [
            329, 
            324, 
            311, 
            29
        ], 
        [
            329, 
            357, 
            311, 
            30
        ], 
        [
            329, 
            389, 
            311, 
            28
        ], 
        [
            329, 
            425, 
            311, 
            29
        ], 
        [
            410, 
            455, 
            230, 
            32
        ]
    ], 
    "image_height": 540, 
    "image_width": 720, 
    "transcription": [
        "u0627_u0644_u0645_u0633_u064a_u062d u0020 u0627_u0644_u0642_u0627_u0626_u0645 u0020 u0645_u0646 u0020 u0627_u0644_u0642_u0628_u0631 u0020 u0028_u0627_u0644_u0647_u0627_u0644_u0629_u0020", 
        "u0639_u0644_u0649 u0020 u0634_u0643_u0644 u0020 u062d_u0628_u0651_u0629 u0020 u0627_u0644_u0644_u0648_u0632 u0020 u0627_u0644_u062a_u064a u0020 u062a_u0631_u0645_u0632_u0020", 
        "u0625_u0644_u0649 u0020 u0627_u0644_u0642_u0628_u0631_u0029 u0020 u0627_u0644_u0630_u064a u0020 u063a_u0644_u0628 u0020 u0627_u0644_u0645_u0648_u062a_u060c_u0020", 
        "u0628_u0637_u0631_u064a_u0642_u0629 u0020 u062a_u0635_u0627_u0639_u062f_u064a_u0629 u0020 u0645_u0639 u0020 u0625_u0639_u0637_u0627_u0621_u0647_u0020", 
        "u0627_u0644_u0628_u0631_u0643_u0629_u002e u0020 u062a_u0648_u062c_u062f u0020 u0641_u064a u0020 u0627_u0644_u0647_u0627_u0644_u0629 u0020 u0623_u062d_u0631_u0641_u0020", 
        "u064a_u0648_u0646_u0627_u0646_u064a_u0629 u0020 u062a_u0639_u0646_u064a u0020 u0022 u0020 u0623_u0646_u0627 u0020 u0647_u0648_u0022 u0020 u0648 u0020 u0022_u064a_u0633_u0648_u0639_u0020", 
        "u0627_u0644_u0645_u0633_u064a_u062d_u0022_u002e u0020 u000b", 
        "u0627_u0644_u0631_u062c_u0644_u064a_u0646 u0020 u062e_u0627_u0631_u062c u0020 u0627_u0644_u0647_u0627_u0644_u0629 u0020 u0028_u062f_u0644_u0627_u0644_u0629 u0020 u0639_u0644_u0649_u0020", 
        "u062a_u062c_u0633_u062f_u0647_u0029 u0020 u0648_u0627_u0642_u0641 u0020 u0639_u0644_u0649 u0020 u0637_u0627_u0648_u0644_u062a_u0627_u0646_u0020", 
        "u0627_u0644_u0644_u0630_u0627_u0646 u0020 u064a_u0631_u0645_u0632_u0627_u0646 u0020 u0625_u0644_u0649 u0020 u0623_u0628_u0648_u0627_u0628 u0020 u0627_u0644_u062c_u062d_u064a_u0645_u060c_u0020", 
        "u0644_u0623_u0646_u0647 u0020 u0628_u0642_u064a_u0627_u0645_u062a_u0647 u0020 u0623_u0628_u0637_u0644 u0020 u0642_u062f_u0631_u0629 u0020 u0627_u0644_u0634_u064a_u0637_u0627_u0646_u061b_u0020", 
        "u0648_u0623_u064a_u0636_u0627_u064b u0020 u0647_u0645_u0627 u0020 u0628_u0634_u0643_u0644 u0020 u0635_u0644_u064a_u0628 u0020 u0644_u0623_u0646 u0020 u0631_u0645_u0632_u0020", 
        "u0627_u0644_u0645_u0632_u062a u0020 u0623_u0635_u0628_u062d u0020 u0631_u0645_u0632_u0627_u064b u0020 u0644_u0644_u062d_u064a_u0627_u0629_u002e"
    ]
}