{
    "bounding_box": [
        [
            12, 
            6, 
            682, 
            45
        ], 
        [
            8, 
            65, 
            686, 
            43
        ], 
        [
            8, 
            114, 
            686, 
            43
        ], 
        [
            8, 
            163, 
            686, 
            42
        ], 
        [
            8, 
            209, 
            686, 
            43
        ], 
        [
            8, 
            257, 
            686, 
            43
        ], 
        [
            8, 
            308, 
            686, 
            41
        ], 
        [
            8, 
            354, 
            686, 
            43
        ], 
        [
            19, 
            401, 
            675, 
            43
        ], 
        [
            8, 
            451, 
            686, 
            42
        ], 
        [
            556, 
            502, 
            138, 
            39
        ]
    ], 
    "image_height": 540, 
    "image_width": 720, 
    "transcription": [
        "u0623_u0648_u0644_u0627_u064b_u003a u0020 u0627_u0644_u0645_u0644_u0643 u0020 u0627_u0644_u062d_u0627_u0631_u062b u0020 u0627_u0644_u0623_u0648_u0644 u0020 u0028_u0031_u0037_u0030_u002f_u0031_u0036_u0038_u002d u0020 u0031_u0036_u0030_u0029 u0020 u0642_u002e_u0645_u002e u0020 u000d", 
        "u062c_u0627_u0621 u0020 u0623_u0648_u0644 u0020 u0630_u0643_u0631 u0020 u0644_u0645_u0644_u0643 u0020 u0646_u0628_u0637_u064a u0020 u0646_u062d_u0648 u0020 u0639_u0627_u0645 u0020 u0031_u0036_u0039_u002d_u0031_u0036_u0038_u0642_u002e_u0645_u060c_u0020", 
        "u0648_u062c_u0627_u0621_u062a u0020 u0623_u0642_u062f_u0645 u0020 u0625_u0634_u0627_u0631_u0629 u0020 u0625_u0644_u0649 u0020 u0630_u0643_u0631 u0020 u0645_u0644_u0643 u0020 u0646_u0628_u0637_u064a u0020 u0641_u064a u0020 u0627_u0644_u062a_u0648_u0631_u0627_u0629_u060c_u0020", 
        "u0645_u0646 u0020 u062e_u0644_u0627_u0644 u0020 u0627_u0644_u062d_u062f_u064a_u062b u0020 u0639_u0646 u0020 u0627_u0644_u062a_u0646_u0627_u0632_u0639 u0020 u0627_u0644_u0630_u064a u0020 u062d_u0635_u0644 u0020 u0628_u064a_u0646 u0020 u0643_u0644 u0020 u0645_u0646_u0020", 
        "u0627_u0644_u0623_u062e_u0648_u064a_u0646 u0020 u0028_u062c_u0627_u0633_u0648_u0646_u002f u0020 u064a_u0627_u0633_u0648_u0646_u2013 u0020 u004a_u0061_u0073_u006f_u006e_u0029_u060c u0020 u0648_u0028_u0645_u0646_u064a_u0644_u0627_u0648_u0648_u0633_u2013_u0020", 
        "u004d_u0065_u006e_u0065_u006c_u0061_u0075_u0073_u0029 u0020 u0641_u064a u0020 u0627_u0644_u062a_u0646_u0627_u0641_u0633 u0020 u0639_u0644_u0649 u0020 u0627_u0644_u0643_u0647_u0627_u0646_u0629 u0020 u0627_u0644_u0639_u0644_u064a_u0627 u0020 u0639_u0646_u0020", 
        "u0627_u0644_u064a_u0647_u0648_u062f_u060c u0020 u0648_u0639_u0646_u062f_u0645_u0627 u0020 u062d_u0627_u0632 u0020 u0639_u0644_u064a_u0647_u0627 u0020 u0028_u062c_u0627_u0633_u0648_u0646_u0029 u0020 u062b_u0627_u0631_u0020", 
        "u0028_u0645_u0646_u064a_u0644_u0627_u0648_u0648_u0633_u0029 u0020 u0641_u0627_u0646_u062a_u0632_u0639_u0647_u0627 u0020 u0645_u0646_u0647 u0020 u0645_u0645_u0627 u0020 u062c_u0639_u0644 u0020 u062c_u0627_u0633_u0648_u0646 u0020 u064a_u0644_u062c_u0623 u0020 u0625_u0644_u0649_u0020", 
        "u0028_u0627_u0644_u0637_u0627_u063a_u064a_u0629_u2013_u0054_u0079_u0072_u0061_u006e_u0074_u0029 u0020 u0632_u0639_u064a_u0645 u0020 u0627_u0644_u0639_u0631_u0628 u0020 u0028_u0627_u0631_u064a_u062a_u0627_u0633_u2013_u0041_u0072_u0065_u0074_u0061_u0073_u0020", 
        "u0627_u0644_u062d_u0627_u0631_u062b_u0029_u060c u0020 u0648_u0642_u0627_u0645 u0020 u0627_u0644_u0645_u0644_u0643 u0020 u0627_u0644_u062d_u0627_u0631_u062b u0020 u0627_u0644_u0646_u0628_u0637_u064a u0020 u0628_u0637_u0631_u062f_u0647 u0020 u0648_u0646_u0641_u064a_u0647_u0020", 
        "u0625_u0644_u0649 u0020 u0645_u0635_u0631_u002e_u0020"
    ]
}