{
    "bounding_box": [
        [
            466, 
            35, 
            192, 
            25
        ], 
        [
            87, 
            99, 
            569, 
            24
        ], 
        [
            126, 
            127, 
            529, 
            29
        ], 
        [
            475, 
            204, 
            181, 
            24
        ], 
        [
            99, 
            240, 
            556, 
            24
        ], 
        [
            102, 
            272, 
            553, 
            27
        ], 
        [
            104, 
            304, 
            551, 
            28
        ], 
        [
            262, 
            333, 
            393, 
            29
        ]
    ], 
    "image_height": 540, 
    "image_width": 720, 
    "transcription": [
        "u062a_u062d_u0631_u064a_u0631 u0020 u0628_u064a_u0627_u0646_u0627_u062a u0020 u0627_u0644_u0645_u062e_u0637_u0637", 
        "u00a0_u0625_u0646 u0020 u0643_u0646_u062a u0020 u0628_u062d_u0627_u062c_u0629 u0020 u0625_u0644_u0649 u0020 u0625_u062c_u0631_u0627_u0621 u0020 u062a_u063a_u064a_u064a_u0631_u0627_u062a u0020 u0639_u0644_u0649 u0020 u0628_u064a_u0627_u0646_u0627_u062a u0020 u0627_u0644_u0645_u062e_u0637_u0637_u060c u0020 u0642_u0645 u0020 u0628_u0627_u0644_u0646_u0642_u0631_u0020", 
        "u0639_u0644_u0649 u0020 u0623_u0645_u0631 u0020 u062a_u062d_u0631_u064a_u0631 u0020 u0627_u0644_u0628_u064a_u0627_u0646_u0627_u062a u0020 u0641_u064a u0020 u062a_u0628_u0648_u064a_u0628_u0629 u0020 u0623_u062f_u0648_u0627_u062a u0020 u0627_u0644_u0645_u062e_u0637_u0637 u0020 u2190 u0020 u062a_u0635_u0645_u064a_u0645_u000d", 
        "u062a_u063a_u064a_u064a_u0631 u0020 u0645_u0638_u0647_u0631 u0020 u0627_u0644_u0645_u062e_u0637_u0637_u000d", 
        "u0625_u0630_u0627 u0020 u0623_u0631_u062f_u062a u0020 u062a_u063a_u064a_u064a_u0631 u0020 u0645_u0638_u0647_u0631 u0020 u0627_u0644_u0645_u062e_u0637_u0637 u0020 u0627_u0644_u062e_u0627_u0635 u0020 u0628_u0643_u060c u0020 u0641_u0625_u0646_u0647 u0020 u064a_u0648_u062c_u062f u0020 u0637_u0631_u0642 u0020 u0642_u0644_u064a_u0644_u0629_u0020", 
        "u064a_u0645_u0643_u0646_u0643 u0020 u0645_u0646 u0020 u062e_u0644_u0627_u0644_u0647_u0627 u0020 u0627_u0644_u0642_u064a_u0627_u0645 u0020 u0628_u0630_u0644_u0643_u002e u0020 u0648_u0645_u0646 u0020 u0623_u062c_u0644 u0020 u062a_u063a_u064a_u064a_u0631 u0020 u0646_u0648_u0639 u0020 u0627_u0644_u0645_u062e_u0637_u0637 u0020 u0028_u0645_u062b_u0644_u0627_u0020", 
        "u0645_u0646 u0020 u0645_u062e_u0637_u0637 u0020 u0639_u0645_u0648_u062f u0020 u0625_u0644_u0649 u0020 u0645_u062e_u0637_u0637 u0020 u062e_u0637_u0029_u060c u0020 u0642_u0645 u0020 u0628_u0627_u0644_u0646_u0642_u0631 u0020 u0639_u0644_u0649 u0020 u0623_u0645_u0631 u0020 u062a_u063a_u064a_u064a_u0631 u0020 u0646_u0648_u0639_u0020", 
        "u0627_u0644_u0645_u062e_u0637_u0637 u0020 u0641_u064a u0020 u062a_u0628_u0648_u064a_u0628_u0629 u0020 u0623_u062f_u0648_u0627_u062a u0020 u0627_u0644_u0645_u062e_u0637_u0637 u0020 u2190 u0020 u062a_u0635_u0645_u064a_u0645_u000d"
    ]
}