{
    "bounding_box": [
        [
            51, 
            52, 
            654, 
            28
        ], 
        [
            270, 
            102, 
            376, 
            23
        ], 
        [
            306, 
            131, 
            340, 
            20
        ], 
        [
            51, 
            156, 
            595, 
            20
        ], 
        [
            57, 
            182, 
            589, 
            22
        ], 
        [
            508, 
            211, 
            138, 
            18
        ], 
        [
            49, 
            234, 
            597, 
            23
        ], 
        [
            58, 
            262, 
            588, 
            22
        ], 
        [
            439, 
            289, 
            207, 
            20
        ], 
        [
            498, 
            316, 
            148, 
            20
        ], 
        [
            299, 
            342, 
            346, 
            19
        ], 
        [
            117, 
            368, 
            529, 
            20
        ]
    ], 
    "image_height": 540, 
    "image_width": 720, 
    "transcription": [
        "u0627_u0644_u0641_u0648_u0627_u0626_u062f u0020 u0627_u0644_u0625_u0642_u062a_u0635_u0627_u062f_u064a_u0629 u0020 u0648_u0627_u0644_u0625_u062c_u062a_u0645_u0627_u0639_u064a_u0629 u0020 u0627_u0644_u0645_u0631_u062c_u0648_u0629 u0020 u0644_u0645_u0634_u0631_u0648_u0639 u0020 u0633_u0643_u0629 u0020 u062d_u062f_u064a_u062f u0020 u0633_u0644_u0637_u0646_u0629 u0020 u0639_u0645_u0627_u0646", 
        "u0627_u0646_u062e_u0641_u0627_u0636 u0020 u062a_u0643_u0627_u0644_u064a_u0641 u0020 u0627_u0644_u0646_u0642_u0644 u0020 u0627_u0644_u0628_u0631_u064a u0020 u0645_u0645_u0627 u0020 u064a_u062c_u0639_u0644_u0647_u0627 u0020 u0623_u0643_u062b_u0631 u0020 u062a_u0646_u0627_u0641_u0633_u064a_u0629_u002e u0020 u000d", 
        "u062a_u062d_u0641_u064a_u0632 u0020 u0627_u0644_u0635_u0646_u0627_u0639_u0627_u062a u0020 u0627_u0644_u0642_u0627_u0626_u0645_u0629 u0020 u0648_u062a_u0637_u0648_u064a_u0631 u0020 u0627_u0644_u0633_u0648_u0642 u0020 u0627_u0644_u0648_u0637_u0646_u064a_u0629 u0020 u000d", 
        "u064a_u062d_u0641_u0632 u0020 u0627_u0644_u062a_u062c_u0627_u0631_u0629 u0020 u0648_u0627_u0644_u0633_u064a_u0627_u062d_u0629 u0020 u0648_u0627_u0644_u062a_u0648_u0627_u0635_u0644 u0020 u0648_u064a_u062e_u0641_u0636 u0020 u062a_u0643_u0627_u0644_u064a_u0641 u0020 u0625_u0646_u062c_u0627_u0632 u0020 u0627_u0644_u0623_u0639_u0645_u0627_u0644 u0020 u0627_u0644_u062a_u062c_u0627_u0631_u064a_u0629 u0020 u0648_u0627_u0644_u0639_u0645_u0631_u0627_u0646_u064a_u0629_u002e_u000d", 
        "u064a_u0624_u062b_u0631 u0020 u062a_u0623_u062b_u064a_u0631_u0627 u0020 u0645_u0628_u0627_u0634_u0631_u0627 u0020 u0641_u064a u0020 u062a_u0648_u0632_u064a_u0639 u0020 u0627_u0644_u0633_u0643_u0627_u0646 u0020 u0648_u0625_u064a_u062c_u0627_u062f u0020 u0627_u0644_u062a_u062c_u0645_u0639_u0627_u062a u0020 u0627_u0644_u062d_u0636_u0627_u0631_u064a_u0629 u0020 u0627_u0644_u0643_u0628_u064a_u0631_u0629 u0020 u062c_u0631_u0627_u0621 u0020 u0645_u0631_u0648_u0631_u0020", 
        "u0634_u0628_u0643_u0627_u062a u0020 u0627_u0644_u0633_u0643_u0643 u0020 u0628_u0647_u0627_u002e u0020 u000d", 
        "u062a_u0639_u062a_u0628_u0631 u0020 u0627_u0644_u0633_u0643_u0643 u0020 u0639_u0627_u0645_u0644_u0627 u0020 u0645_u0646 u0020 u0639_u0648_u0627_u0645_u0644 u0020 u0627_u0644_u062a_u0648_u0637_u0646 u0020 u0627_u0644_u0635_u0646_u0627_u0639_u064a u0020 u062d_u064a_u062b u0020 u062a_u0628_u0631_u0632 u0020 u0623_u0647_u0645_u064a_u062a_u0647 u0020 u0641_u064a u0020 u0645_u0631_u062d_u0644_u062a_u064a u0020 u0627_u0644_u0625_u0646_u062a_u0627_u062c_u0020", 
        "u0648_u0627_u0644_u062a_u0648_u0632_u064a_u0639 u0020 u062d_u064a_u062b u0020 u062a_u0648_u0641_u0631 u0020 u0641_u0631_u0635 u0020 u0646_u0642_u0644 u0020 u0644_u0644_u0645_u0648_u0627_u062f u0020 u0627_u0644_u0623_u0648_u0644_u064a_u0629 u0020 u0648_u0627_u0644_u0633_u0644_u0639 u0020 u0627_u0644_u0648_u0633_u064a_u0637_u0629 u0020 u0020_u0648_u0643_u0630_u0644_u0643 u0020 u0646_u0642_u0644 u0020 u0627_u0644_u0625_u0646_u062a_u0627_u062c u0020 u0625_u0644_u0649_u0020", 
        "u0645_u0646_u0627_u0637_u0642 u0020 u0627_u0644_u0625_u0633_u062a_u0647_u0644_u0627_u0643 u0020 u0648_u0627_u0644_u062a_u062e_u0632_u064a_u0646_u002e u0020 u000d", 
        "u062f_u0639_u0645 u0020 u0648_u062a_u0637_u0648_u064a_u0631 u0020 u0627_u0644_u0645_u0624_u0627_u0646_u064a_u000d", 
        "u0631_u0628_u0637 u0020 u0627_u0644_u0645_u0646_u0627_u0637_u0642 u0020 u0627_u0644_u0627_u0642_u0644_u064a_u0645_u064a_u0629 u0020 u0628_u0627_u0644_u0645_u0631_u0627_u0643_u0632 u0020 u0627_u0644_u0633_u0643_u0627_u0646_u064a_u0629 u0020 u0627_u0644_u0631_u0626_u064a_u0633_u064a_u0629 u0020 u000d", 
        "u062a_u0648_u0641_u0631 u0020 u0641_u0631_u0635 u0020 u0639_u0645_u0644 u0020 u0643_u0628_u064a_u0631_u0629 u0020 u0633_u0648_u0627_u0621 u0020 u0643_u0627_u0646_u062a u0020 u0645_u0627_u0647_u0631_u0629 u0020 u0648_u063a_u064a_u0631_u0647_u0627 u0020 u0648_u0645_u0646 u0020 u0643_u0627_u0641_u0629 u0020 u0627_u0644_u0625_u062e_u062a_u0635_u0627_u0635_u0627_u062a_u002e_u0020"
    ]
}