{
    "bounding_box": [
        [
            309, 
            10, 
            149, 
            32
        ], 
        [
            546, 
            75, 
            135, 
            27
        ], 
        [
            214, 
            133, 
            485, 
            25
        ], 
        [
            305, 
            163, 
            394, 
            24
        ], 
        [
            170, 
            241, 
            518, 
            31
        ], 
        [
            263, 
            277, 
            331, 
            28
        ]
    ], 
    "image_height": 540, 
    "image_width": 720, 
    "transcription": [
        "u0627_u0644_u062a_u0648_u0627_u0635_u0644 u0020 u0627_u0644_u0644_u063a_u0648_u064a_u0020", 
        "u0623_u062a_u0648_u0627_u0635_u0644 u0020 u0634_u0641_u0647_u064a_u0627_u064b_u0020", 
        "u0031_u002d u0020 u0633_u0628_u0642 u0020 u0623_u0646 u0020 u062d_u062f_u062f_u062a u0020 u0627_u0644_u0644_u0639_u0628_u062a_u064a_u0646 u0020 u003a u0020 u0627_u0644_u0645_u0632_u0639_u062c_u0629 u0020 u0648 u0020 u0627_u0644_u0645_u0624_u062f_u064a_u0629 u0020 u0627_u0644_u0648_u0627_u0631_u062f_u062a_u064a_u0646 u0020 u0641_u064a_u0020", 
        "u0627_u0644_u0646_u0635 u0020 u002c u0020 u0648 u0020 u0627_u0644_u0622_u0646 u0020 u0623_u062a_u062d_u062f_u062b u0020 u0639_u0646_u0647_u0645_u0627 u0020 u0648 u0020 u0623_u0628_u062f_u064a u0020 u0631_u0623_u064a_u064a u0020 u0641_u064a_u0647_u0645_u0627 u0020 u0020_u002e_u0020", 
        "u0032_u002e u0020 u0623_u062a_u062d_u062f_u062b u0020 u0645_u062f_u0629 u0020 u062f_u0642_u064a_u0642_u062a_u064a_u0646 u0020 u062f_u0648_u0646 u0020 u062a_u0648_u0642_u0641 u0020 u0639_u0646 u0020 u0644_u0639_u0628_u062a_u064a u0020 u0627_u0644_u062a_u064a u0020 u0623_u062d_u0628_u0647_u0627 u0020 u002c_u0020", 
        "u0643_u064a_u0641 u0020 u062d_u0635_u0644_u062a u0020 u0639_u0644_u064a_u0647_u0627 u0020 u061f u0020 u0648 u0020 u0645_u062a_u064a u0020 u0643_u0627_u0646 u0020 u0630_u0644_u0643_u0020"
    ]
}