{
    "bounding_box": [
        [
            380, 
            79, 
            222, 
            35
        ], 
        [
            56, 
            131, 
            542, 
            27
        ], 
        [
            98, 
            161, 
            478, 
            25
        ], 
        [
            45, 
            189, 
            531, 
            25
        ], 
        [
            274, 
            217, 
            302, 
            25
        ], 
        [
            92, 
            246, 
            506, 
            30
        ], 
        [
            48, 
            279, 
            528, 
            25
        ], 
        [
            53, 
            307, 
            523, 
            25
        ], 
        [
            75, 
            335, 
            502, 
            25
        ], 
        [
            39, 
            363, 
            538, 
            25
        ], 
        [
            93, 
            392, 
            483, 
            25
        ], 
        [
            59, 
            421, 
            518, 
            24
        ], 
        [
            114, 
            448, 
            462, 
            25
        ], 
        [
            294, 
            476, 
            283, 
            25
        ]
    ], 
    "image_height": 540, 
    "image_width": 720, 
    "transcription": [
        "u0645_u0631_u0636 u0020 u0627_u0644_u0627_u064a_u062f_u0632 u0020 u003a", 
        "u0633_u0645_u064a u0020 u0647_u0630_u0627 u0020 u0627_u0644_u0645_u0631_u0636 u0020 u201d_u0623_u0639_u0631_u0627_u0636 u0020 u0646_u0642_u0635 u0020 u0627_u0644_u0645_u0646_u0627_u0639_u0647 u0020 u0627_u0644_u0645_u0643_u062a_u0633_u0628_u0647_u0020", 
        "u201d_u0627_u062b_u0646_u0627_u0621 u0020 u0638_u0647_u0648_u0631 u0020 u0647_u0630_u0627 u0020 u0627_u0644_u0645_u0631_u0636 u0020 u062a_u062d_u062f_u062b u0020 u0639_u062f_u0629 u0020 u0638_u0648_u0627_u0647_u0631 u0020 u0641_u064a_u0020", 
        "u0627_u0639_u0642_u0627_u0628 u0020 u0627_u0635_u0627_u0628_u0629 u0020 u062c_u0647_u0627_u0632 u0020 u0627_u0644_u0645_u0646_u0627_u0639_u0647 u0020 u0639_u0646_u062f u0020 u0627_u0644_u0627_u0646_u0633_u0627_u0646 u0020 u0648_u0642_u062f u0020 u064a_u0646_u062a_u0647_u064a_u0020", 
        "u0647_u0630_u0627 u0020 u0627_u0644_u0645_u0631_u0636 u0020 u0628_u0645_u0648_u062a u0020 u0627_u0644_u0627_u0646_u0633_u0627_u0646 u0020 u002e u0020 u000d", 
        "u0641_u064a_u0631_u0648_u0633 u0020 u0627_u0644_u0627_u064a_u062f_u0632 u0020 u0648_u0647_u0648 u0020 u0645_u0633_u0628_u0628 u0020 u0627_u0644_u0627_u064a_u062f_u0632 u0020 u064a_u0635_u064a_u0628 u0020 u0628_u0627_u0644_u0623_u0633_u0627_u0633_u0020", 
        "u062e_u0644_u0627_u064a_u0627 u0020 u0644_u0645_u0641_u0627_u0648_u064a_u0647 u0020 u0645_u0646 u0020 u0646_u0648_u0639 u0020 u0028_u062a_u064a_u0029 u0020 u0648_u0647_u064a u0020 u062e_u0644_u0627_u064a_u0627 u0020 u0630_u0627_u062a u0020 u0627_u0647_u0645_u064a_u0647_u0020", 
        "u0641_u064a u0020 u0627_u0644_u062f_u0641_u0627_u0639 u0020 u0639_u0646 u0020 u0627_u0644_u062c_u0633_u0645 u0020 u0636_u062f u0020 u0645_u0633_u0628_u0628_u0627_u062a u0020 u0627_u0645_u0631_u0627_u0636 u0020 u0639_u0646_u062f_u0645_u0627_u0020", 
        "u064a_u0635_u0627_u0628 u0020 u0627_u0644_u062c_u0633_u0645 u0020 u0628_u0641_u064a_u0631_u0648_u0633 u0020 u0627_u0644_u0627_u064a_u062f_u0632 u0020 u0641_u0627_u0646 u0020 u0630_u0644_u0643 u0020 u064a_u0624_u062f_u064a u0020 u0627_u0644_u0649_u0020", 
        "u0636_u0639_u0641 u0020 u0627_u0648 u0020 u0645_u0646_u0639 u0020 u0627_u0644_u0642_u062f_u0631_u0647 u0020 u0639_u0644_u0649 u0020 u0627_u0644_u0645_u0642_u0627_u0648_u0645_u0647 u0020 u0648_u0641_u064a u0020 u0647_u0630_u0647 u0020 u0627_u0644_u062d_u0627_u0644_u0647_u0020", 
        "u064a_u0643_u0648_u0646 u0020 u0627_u0644_u062c_u0633_u0645 u0020 u0645_u0639_u0631_u0636 u0020 u0644_u0644_u0639_u062f_u0648_u0649 u0020 u0648_u0645_u0633_u0628_u0628_u0627_u062a u0020 u0627_u0645_u0631_u0627_u0636_u0020", 
        "u0645_u062e_u062a_u0644_u0641_u0647 u0020 u062a_u0643_u0648_u0646 u0020 u0628_u0627_u0644_u0627_u0633_u0627_u0633 u0020 u0643_u0627_u0626_u0646_u0627_u062a u0020 u062d_u064a_u0647 u0020 u0645_u0648_u062c_u0648_u062f_u0647 u0020 u062f_u0627_u062e_u0644_u0020", 
        "u0627_u0644_u062c_u0633_u0645 u0020 u0644_u0643_u0646 u0020 u0639_u0646_u062f_u0645_u0627 u0020 u064a_u0635_u0627_u0628 u0020 u062c_u0647_u0627_u0632 u0020 u0627_u0644_u0645_u0646_u0627_u0639_u0647 u0020 u0641_u0627_u0646_u0647_u0627_u0020", 
        "u062a_u0633_u062a_u0637_u064a_u0639 u0020 u0627_u0646 u0020 u062a_u0633_u0628_u0628 u0020 u0627_u0645_u0631_u0627_u0636_u0627_u064e u0020 u002e"
    ]
}