{
    "bounding_box": [
        [
            65, 
            39, 
            563, 
            37
        ], 
        [
            35, 
            87, 
            593, 
            41
        ], 
        [
            518, 
            194, 
            131, 
            27
        ], 
        [
            92, 
            240, 
            556, 
            30
        ], 
        [
            494, 
            282, 
            155, 
            27
        ], 
        [
            116, 
            325, 
            533, 
            29
        ], 
        [
            443, 
            362, 
            206, 
            30
        ]
    ], 
    "image_height": 540, 
    "image_width": 720, 
    "transcription": [
        "u0627_u0644_u0646_u0627_u062d_u064a_u0629 u0020 u0627_u0644_u0637_u0628_u064a_u0629_u002e_u002e_u002e_u002e u0020 u0647_u0644 u0020 u0645_u0639_u062f_u0644_u0627_u062a u0020 u062d_u062f_u0648_u062b u0020 u0633_u0631_u0637_u0627_u0646_u0020", 
        "u0627_u0644_u062b_u062f_u0649 u0020 u0627_u0643_u062b_u0631 u0020 u0641_u0649 u0020 u0628_u0644_u0627_u062f_u0646_u0627 u0020 u0627_u0644_u0639_u0631_u0628_u064a_u0629 u0020 u0645_u0646 u0020 u0627_u0644_u0628_u0644_u0627_u062f u0020 u0627_u0644_u063a_u0631_u0628_u064a_u0629_u061f_u000b", 
        "u0627_u0644_u062d_u0645_u062f u0020 u0644_u0644_u0647_u002e_u002e_u002e_u002e_u000d", 
        "u0645_u0639_u062f_u0644_u0627_u062a u0020 u0627_u0644_u0627_u0635_u0627_u0628_u0629 u0020 u0628_u0627_u0644_u0645_u0646_u0637_u0642_u0629 u0020 u0627_u0644_u0639_u0631_u0628_u064a_u0629 u0020 u0645_u0646_u062e_u0641_u0636_u0629 u0020 u062c_u062f_u0627 u0020 u0645_u0642_u0627_u0631_u0646_u0629_u0020", 
        "u0628_u0627_u0644_u062f_u0648_u0644 u0020 u0627_u0644_u0627_u062e_u0631_u0649_u000d", 
        "u0645_u0639_u062f_u0644_u0627_u062a u0020 u0627_u0644_u0627_u0635_u0627_u0628_u0629 u0020 u0628_u0627_u0646_u062c_u0644_u062a_u0631_u0627 u0020 u0645_u062b_u0644_u0627 u0020 u062a_u062a_u062c_u0627_u0648_u0632 u0020 u062e_u0645_u0633 u0020 u0627_u0636_u0639_u0627_u0641_u0020", 
        "u0627_u0644_u0645_u0639_u062f_u0644_u0627_u062a u0020 u0628_u0627_u0644_u0633_u0639_u0648_u062f_u064a_u0629_u000d"
    ]
}