{
    "bounding_box": [
        [
            91, 
            174, 
            537, 
            91
        ]
    ], 
    "image_height": 540, 
    "image_width": 720, 
    "transcription": [
        "u0627_u0644_u0645_u062d_u0627_u0636_u0631_u0629 u0020 u0627_u0644_u0631_u0627_u0628_u0639_u0629"
    ]
}