{
    "bounding_box": [
        [
            156, 
            190, 
            501, 
            59
        ], 
        [
            104, 
            259, 
            551, 
            29
        ], 
        [
            64, 
            293, 
            590, 
            27
        ], 
        [
            509, 
            322, 
            146, 
            28
        ]
    ], 
    "image_height": 540, 
    "image_width": 720, 
    "transcription": [
        "u0639_u062f_u062f u0020 u0623_u0635_u062d_u0627_u062d_u0627_u062a_u0647_u0627 u0020 u0031_u0036 u0020 u0623_u0635_u062d_u0627_u062d", 
        "u062a_u0623_u0633_u0633_u062a u0020 u0643_u0646_u064a_u0633_u0629 u0020 u0643_u0648_u0631_u0646_u062b_u0648_u0633 u0020 u0639_u0644_u0649 u0020 u064a_u062f u0020 u0645_u0639_u0644_u0645_u0646_u0627 u0020 u0628_u0648_u0644_u0633 u0020 u0627_u0644_u0631_u0633_u0648_u0644 u0020 u062e_u0644_u0627_u0644 u0020 u0631_u062d_u0644_u062a_u0647_u0020", 
        "u0627_u0644_u062a_u0628_u0634_u064a_u0624_u064a_u0629 u0020 u0627_u0644_u062b_u0627_u0646_u064a_u0629 u0020 u0648_u0643_u0627_u0646_u062a u0020 u0627_u0644_u0645_u062f_u064a_u0646_u0629 u0020 u062a_u062a_u0645_u064a_u0632 u0020 u0628_u0648_u062c_u0648_u062f u0020 u062c_u0645_u0647_u0648_u0631 u0020 u0643_u0628_u064a_u0631 u0020 u0645_u0646 u0020 u0627_u0644_u0633_u0643_u0627_u0646 u0020 u0645_u0646_u0020", 
        "u0645_u062e_u062a_u0644_u0641 u0020 u0627_u0644_u062c_u0646_u0633_u064a_u0627_u062a_u0020"
    ]
}