{
    "bounding_box": [
        [
            251, 
            33, 
            217, 
            30
        ], 
        [
            40, 
            112, 
            636, 
            27
        ], 
        [
            217, 
            141, 
            458, 
            24
        ], 
        [
            489, 
            177, 
            146, 
            25
        ], 
        [
            55, 
            209, 
            580, 
            32
        ], 
        [
            563, 
            242, 
            72, 
            24
        ], 
        [
            512, 
            278, 
            123, 
            25
        ], 
        [
            418, 
            314, 
            218, 
            28
        ], 
        [
            434, 
            349, 
            202, 
            26
        ], 
        [
            263, 
            385, 
            372, 
            29
        ], 
        [
            506, 
            421, 
            129, 
            26
        ]
    ], 
    "image_height": 540, 
    "image_width": 720, 
    "transcription": [
        "u0645_u0642_u0627_u064a_u064a_u0633 u0020 u0623_u062f_u0627_u0621 u0020 u0627_u0644_u062e_u062f_u0645_u0627_u062a", 
        "u064a_u0633_u062a_u062e_u062f_u0645 u0020 u0623_u0633_u0644_u0648_u0628 u0020 u0625_u062f_u0627_u0631_u0629 u0020 u0627_u0644_u0639_u0644_u0627_u0642_u0629 u0020 u0645_u0639 u0020 u0627_u0644_u0632_u0628_u0627_u0626_u0646 u0020 u0639_u0628_u0631 u0020 u0627_u0644_u0627_u0646_u062a_u0631_u0646_u062a u0020 u0645_u062c_u0645_u0648_u0639_u0629 u0020 u0645_u0646_u0020", 
        "u0627_u0644_u0645_u0639_u0627_u064a_u064a_u0631 u0020 u0644_u0642_u064a_u0627_u0633 u0020 u0645_u0633_u062a_u0648_u0649 u0020 u0623_u062f_u0627_u0621 u0020 u062e_u062f_u0645_u0629 u0020 u0627_u0644_u0632_u0628_u0627_u0626_u0646 u0020 u0623_u0647_u0645_u0647_u0627_u003a_u000d", 
        "u0632_u0645_u0646 u0020 u0627_u0644_u0627_u0633_u062a_u062c_u0627_u0628_u0629_u000d", 
        "u0639_u062f_u062f u0020 u0627_u0644_u0633_u0627_u0639_u0627_u062a u0020 u0627_u0644_u062a_u064a u0020 u064a_u0645_u0643_u0646 u0020 u0623_u0646 u0020 u064a_u0643_u0648_u0646 u0020 u062e_u0644_u0627_u0644_u0647_u0627 u0020 u0627_u0644_u0645_u0648_u0642_u0639 u0020 u0645_u062a_u0627_u062d_u0627 u0020 u0644_u062f_u062e_u0648_u0644_u0020", 
        "u0627_u0644_u0632_u0628_u0627_u0626_u0646_u000d", 
        "u0632_u0645_u0646 u0020 u0627_u0644_u062a_u0646_u0632_u064a_u0644_u000d", 
        "u062d_u062f_u0627_u062b_u0629 u0020 u0645_u0639_u0644_u0648_u0645_u0627_u062a u0020 u0627_u0644_u0645_u0648_u0642_u0639_u000d", 
        "u0627_u0644_u0633_u0631_u064a_u0629 u0020 u0648_u0627_u0644_u062e_u0635_u0648_u0635_u064a_u0629_u000d", 
        "u0643_u0641_u0627_u0621_u0629 u0020 u062a_u0646_u0641_u064a_u0630 u0020 u0627_u0644_u0637_u0644_u0628_u0627_u062a u0020 u0641_u064a u0020 u0627_u0644_u0648_u0642_u062a u0020 u0627_u0644_u0645_u0637_u0644_u0648_u0628_u000d", 
        "u0633_u064a_u0627_u0633_u0629 u0020 u0627_u0644_u0625_u0639_u0627_u062f_u0629"
    ]
}