{
    "bounding_box": [
        [
            223, 
            34, 
            429, 
            26
        ], 
        [
            65, 
            87, 
            590, 
            26
        ], 
        [
            96, 
            118, 
            560, 
            26
        ], 
        [
            68, 
            153, 
            588, 
            25
        ], 
        [
            70, 
            181, 
            585, 
            27
        ], 
        [
            83, 
            215, 
            572, 
            26
        ], 
        [
            396, 
            249, 
            259, 
            26
        ]
    ], 
    "image_height": 540, 
    "image_width": 720, 
    "transcription": [
        "u0627_u0633_u062a_u062e_u062f_u0627_u0645 u0020 u0627_u0644_u062a_u0643_u0628_u064a_u0631_u002f_u0627_u0644_u062a_u0635_u063a_u064a_u0631 u0020 u0648_u0627_u0644_u0627_u062d_u062a_u0648_u0627_u0621 u0020 u0636_u0645_u0646 u0020 u0627_u0644_u0646_u0627_u0641_u0630_u0629", 
        "u0641_u064a u0020 u0637_u0631_u0642 u0020 u0627_u0644_u0639_u0631_u0636 u0020 u0627_u0644_u0639_u0627_u062f_u064a u0020 u0648_u0641_u0627_u0631_u0632 u0020 u0627_u0644_u0634_u0631_u0627_u0626_u062d u0020 u0648_u0635_u0641_u062d_u0629 u0020 u0627_u0644_u0645_u0644_u0627_u062d_u0638_u0627_u062a_u060c u0020 u064a_u0645_u0643_u0646_u0643_u0020", 
        "u0627_u0633_u062a_u062e_u062f_u0627_u0645 u0020 u0623_u062f_u0648_u0627_u062a u0020 u0627_u0644_u062a_u062d_u0643_u0645 u0020 u0628_u0627_u0644_u062a_u0643_u0628_u064a_u0631_u002f_u0627_u0644_u062a_u0635_u063a_u064a_u0631 u0020 u0644_u062a_u0643_u0628_u064a_u0631 u0020 u0623_u0648 u0020 u062a_u0635_u063a_u064a_u0631 u0020 u0627_u0644_u0639_u0631_u0636_u0020", 
        "u0627_u0644_u062a_u0642_u062f_u064a_u0645_u064a u0020 u0627_u0644_u062e_u0627_u0635 u0020 u0628_u0643_u002e u0020 u0648_u0625_u062d_u062f_u0649 u0020 u0627_u0644_u0637_u0631_u0642 u0020 u0647_u064a u0020 u0627_u0633_u062a_u062e_u062f_u0627_u0645 u0020 u0627_u0644_u0634_u0631_u064a_u0637 u0020 u0627_u0644_u0645_u0646_u0632_u0644_u0642 u0020 u0641_u064a_u0020", 
        "u0634_u0631_u064a_u0637 u0020 u0627_u0644_u0645_u0639_u0644_u0648_u0645_u0627_u062a_u061b u0020 u0642_u0645 u0020 u0628_u0628_u0633_u0627_u0637_u0629 u0020 u0628_u0633_u062d_u0628_u0647 u0020 u0625_u0644_u0649 u0020 u0627_u0644_u0648_u0631_u0627_u0621 u0020 u0648_u0625_u0644_u0649 u0020 u0627_u0644_u0623_u0645_u0627_u0645 u0020 u0644_u0632_u064a_u0627_u062f_u0629 u0020 u0623_u0648_u0020", 
        "u0625_u0646_u0642_u0627_u0635 u0020 u0627_u0644_u062a_u0643_u0628_u064a_u0631_u002f_u0627_u0644_u062a_u0635_u063a_u064a_u0631_u060c u0020 u0623_u0648 u0020 u0642_u0645 u0020 u0628_u0627_u0644_u0646_u0642_u0631 u0020 u0639_u0644_u0649 u0020 u0632_u0631 u0020 u0632_u0627_u0626_u062f u0020 u0623_u0648 u0020 u0646_u0627_u0642_u0635 u0020 u0644_u062a_u063a_u064a_u064a_u0631_u0020", 
        "u0627_u0644_u062a_u0643_u0628_u064a_u0631_u002f_u0627_u0644_u062a_u0635_u063a_u064a_u0631 u0020 u0628_u0634_u0643_u0644 u0020 u062a_u062f_u0631_u064a_u062c_u064a"
    ]
}