{
    "bounding_box": [
        [
            284, 
            25, 
            129, 
            30
        ], 
        [
            42, 
            87, 
            614, 
            26
        ], 
        [
            42, 
            120, 
            614, 
            28
        ], 
        [
            62, 
            159, 
            593, 
            25
        ], 
        [
            42, 
            233, 
            614, 
            28
        ], 
        [
            42, 
            266, 
            614, 
            28
        ], 
        [
            42, 
            297, 
            614, 
            29
        ], 
        [
            42, 
            330, 
            614, 
            27
        ], 
        [
            212, 
            366, 
            443, 
            25
        ], 
        [
            45, 
            431, 
            610, 
            15
        ], 
        [
            133, 
            449, 
            522, 
            14
        ]
    ], 
    "image_height": 540, 
    "image_width": 720, 
    "transcription": [
        "u0645_u0627_u0647_u064a_u0629 u0020 u0627_u0644_u0633_u0628_u0628", 
        "u0644_u0645 u0020 u064a_u062e_u062a_u0644_u0641 u0020 u0627_u0644_u0641_u0642_u0647 u0020 u0648_u0627_u0644_u0642_u0636_u0627_u0621 u0020 u0641_u064a u0020 u062a_u062d_u062f_u064a_u062f u0020 u0645_u0627_u0647_u064a_u0629 u0020 u0627_u0644_u0633_u0628_u0628_u060c u0020 u0641_u0631_u063a_u0645 u0020 u0627_u062e_u062a_u0644_u0627_u0641 u0020 u0639_u0628_u0627_u0631_u0627_u062a_u0647_u0645_u0020", 
        "u0625_u0644_u0627 u0020 u0623_u0646_u0647_u0627 u0020 u0641_u064a u0020 u0645_u062c_u0645_u0644_u0647_u0627 u0020 u062a_u0633_u062a_u0642_u0631 u0020 u0639_u0644_u0649 u0020 u062a_u0639_u0631_u064a_u0641 u0020 u0627_u0644_u0633_u0628_u0628 u0020 u0628_u0623_u0646_u0647 u0020 u003a u0020 u0627_u0644_u062d_u0627_u0644_u0629 u0020 u0627_u0644_u0648_u0627_u0642_u0639_u064a_u0629 u0020 u0623_u0648_u0020", 
        "u0627_u0644_u0642_u0627_u0646_u0648_u0646_u064a_u0629 u0020 u0627_u0644_u062a_u064a u0020 u062a_u0648_u062c_u062f u0020 u0642_u0628_u0644 u0020 u0625_u0635_u062f_u0627_u0631 u0020 u0627_u0644_u0642_u0631_u0627_u0631 u0020 u0641_u062a_u062d_u0631_u0643 u0020 u0627_u0644_u0625_u062f_u0627_u0631_u0629 u0020 u0646_u062d_u0648 u0020 u0625_u0635_u062f_u0627_u0631_u0647 u0020 u0022 u0020 u002e_u000d", 
        "u0648_u062a_u0639_u0631_u064a_u0641_u0647 u0020 u0642_u0636_u0627_u0626_u064a_u0627 u0020 u0644_u0645 u0020 u064a_u062e_u0631_u062c u0020 u0639_u0646 u0020 u0647_u0630_u0627 u0020 u0627_u0644_u0645_u0639_u0646_u0649 u0020 u062d_u064a_u062b u0020 u064a_u0634_u064a_u0631 u0020 u062f_u064a_u0648_u0627_u0646 u0020 u0627_u0644_u0645_u0638_u0627_u0644_u0645 u0020 u0628_u0623_u0646_u0647_u0020", 
        "u201d u0020 u0648_u0641_u0642_u0627 u0020 u0644_u0645_u0627 u0020 u0627_u0633_u062a_u0642_u0631 u0020 u0639_u0644_u064a_u0647 u0020 u0627_u0644_u0641_u0642_u0647 u0020 u0648_u0627_u0644_u0642_u0636_u0627_u0621 u0020 u0645_u0646 u0020 u0623_u0646 u0020 u0643_u0644 u0020 u0642_u0631_u0627_u0631 u0020 u0625_u062f_u0627_u0631_u064a u0020 u0623_u064a_u0627 u0020 u0643_u0627_u0646_u062a_u0020", 
        "u0627_u0644_u0633_u0644_u0637_u0629 u0020 u0627_u0644_u062a_u064a u0020 u064a_u0635_u062f_u0631 u0020 u0639_u0646_u0647_u0627 u0020 u0645_u0642_u064a_u062f_u0629 u0020 u0643_u0627_u0646_u062a u0020 u0623_u0645 u0020 u062a_u0642_u062f_u064a_u0631_u064a_u0629 u0020 u064a_u062c_u0628 u0020 u0627_u0646 u0020 u064a_u0642_u0648_u0645 u0020 u0639_u0644_u0649 u0020 u0633_u0628_u0628_u0020", 
        "u064a_u062f_u0639_u0648 u0020 u0625_u0644_u0649 u0020 u0625_u0635_u062f_u0627_u0631_u0647 u0020 u002e_u002e_u002e u0020 u0627_u0644_u0633_u0628_u0628 u0020 u0625_u0646_u0645_u0627 u0020 u0647_u0648 u0020 u0639_u0628_u0627_u0631_u0629 u0020 u0639_u0646 u0020 u0627_u0644_u062d_u0627_u0644_u0629 u0020 u0627_u0644_u0648_u0627_u0642_u0639_u064a_u0629 u0020 u0623_u0648_u0020", 
        "u0627_u0644_u0646_u0638_u0627_u0645_u064a_u0629 u0020 u0627_u0644_u062a_u064a u0020 u062a_u062f_u0641_u0639 u0020 u0631_u062c_u0644 u0020 u0627_u0644_u0625_u062f_u0627_u0631_u0629 u0020 u0625_u0644_u0649 u0020 u0625_u0635_u062f_u0627_u0631 u0020 u0627_u0644_u0642_u0631_u0627_u0631 u0020 u201d_u000d", 
        "u0028_u062d_u0643_u0645 u0020 u0627_u0644_u0645_u062d_u0643_u0645_u0629 u0020 u0627_u0644_u0625_u062f_u0627_u0631_u064a_u0629 u0020 u0631_u0642_u0645 u0020 u0039_u0038_u002f_u062f_u002f_u0625_u002f_u0032 u0020 u0644_u0639_u0627_u0645 u0020 u0031_u0034_u0033_u0033 u0020 u0647_u0640 u0020 u0641_u064a u0020 u0627_u0644_u0642_u0636_u064a_u0629 u0020 u0631_u0642_u0645 u0020 u0034_u0031_u0032_u002f_u0031_u0030_u002f_u0642 u0020 u0644_u0639_u0627_u0645 u0020 u0031_u0034_u0033_u0032 u0020 u0647_u0640 u0020 u0627_u0644_u0645_u0624_u064a_u062f u0020 u0645_u0646 u0020 u0645_u062d_u0643_u0645_u0629 u0020 u0627_u0644_u0627_u0633_u062a_u0626_u0646_u0627_u0641_u0020", 
        "u0627_u0644_u0625_u062f_u0627_u0631_u064a_u0629 u0020 u0628_u0627_u0644_u062d_u0643_u0645 u0020 u0631_u0642_u0645 u0020 u0038_u0033_u002f_u0032 u0020 u0644_u0639_u0627_u0645 u0020 u0031_u0034_u0033_u0034 u0020 u0647_u0640 u0020 u0641_u064a u0020 u0627_u0644_u0642_u0636_u064a_u0629 u0020 u0631_u0642_u0645 u0020 u0033_u0030_u0035_u0032_u002f_u0032_u002f_u0633 u0020 u0644_u0639_u0627_u0645 u0020 u0031_u0034_u0033_u0033 u0020 u0647_u0640_u060c u0020 u062d_u0643_u0645 u0020 u063a_u064a_u0631 u0020 u0645_u0646_u0634_u0648_u0631_u0029_u002e u0020 u0020_u000d"
    ]
}