{
    "bounding_box": [
        [
            241, 
            44, 
            416, 
            15
        ], 
        [
            110, 
            66, 
            547, 
            19
        ], 
        [
            73, 
            91, 
            584, 
            18
        ], 
        [
            506, 
            112, 
            156, 
            17
        ], 
        [
            59, 
            137, 
            598, 
            16
        ], 
        [
            90, 
            158, 
            572, 
            16
        ], 
        [
            258, 
            183, 
            399, 
            15
        ], 
        [
            71, 
            204, 
            586, 
            19
        ], 
        [
            99, 
            230, 
            558, 
            17
        ], 
        [
            495, 
            250, 
            167, 
            18
        ], 
        [
            64, 
            275, 
            593, 
            19
        ], 
        [
            406, 
            295, 
            256, 
            19
        ], 
        [
            70, 
            320, 
            587, 
            19
        ], 
        [
            237, 
            340, 
            425, 
            19
        ]
    ], 
    "image_height": 540, 
    "image_width": 720, 
    "transcription": [
        "u0641_u0627_u0631_u0633 u0020 u0627_u0648_u0644_u06cc_u0646 u0020 u0645_u0631_u06a9_u0632 u0020 u062f_u0627_u0631_u0627_u06cc u0020 u0628_u062e_u0634 u0020 u062e_u0628_u0631_u06cc u0020 u0631_u0627_u062f_u06cc_u0648_u06cc_u06cc u0020 u062f_u0631 u0020 u0627_u06cc_u0627_u0645 u0020 u062a_u0639_u0637_u06cc_u0644 u0020 u0627_u0633_u062a u0020 u002e_u000d", 
        "u0020_u062e_u0628_u0631 u0020 u062a_u0644_u0648_u06cc_u0632_u06cc_u0648_u0646_u06cc u0020 u0633_u0627_u0639_u062a u0020 u0032_u0030_u003a_u0034_u0035 u0020 u0627_u06cc_u0646 u0020 u0645_u0631_u06a9_u0632 u0020 u067e_u0631_u0628_u06cc_u0646_u0646_u062f_u0647 u0020 u062a_u0631_u06cc_u0646 u0020 u0628_u062e_u0634 u0020 u062e_u0628_u0631_u06cc u0020 u0645_u062d_u0633_u0648_u0628 u0020 u0645_u06cc u0020 u06af_u0631_u062f_u062f u0020 u002e u0020 u000d", 
        "u067e_u062e_u0634 u0020 u0631_u0648_u0632_u0627_u0646_u0647 u0020 u0038 u0020 u0628_u062e_u0634 u0020 u062e_u0628_u0631_u06cc u0020 u062f_u0631 u0020 u0631_u0627_u062f_u06cc_u0648 u0020 u060c u0020 u0033 u0020 u0628_u062e_u0634 u0020 u062e_u0628_u0631_u06cc u0020 u062f_u0631 u0020 u062a_u0644_u0648_u06cc_u0632_u06cc_u0648_u0646 u0020 u0627_u0632 u0020 u062f_u06cc_u06af_u0631 u0020 u0641_u0639_u0627_u0644_u06cc_u062a u0020 u0647_u0627_u06cc u0020 u062d_u0648_u0632_u0647_u0020", 
        "u06cc u0020 u062e_u0628_u0631 u0020 u0628_u0647 u0020 u062d_u0633_u0627_u0628 u0020 u0645_u06cc u0020 u0622_u06cc_u062f_u002e_u000d", 
        "u0637_u0628_u0642 u0020 u0622_u062e_u0631_u06cc_u0646 u0020 u0646_u0638_u0631 u0020 u0633_u0646_u062c_u06cc u0020 u0647_u0627 u0020 u062f_u0631 u0020 u0632_u0645_u0633_u062a_u0627_u0646 u0020 u0039_u0032 u0020 u0645_u06cc_u0632_u0627_u0646 u0020 u0628_u06cc_u0646_u0646_u062f_u0647 u0020 u06cc u0020 u0627_u062e_u0628_u0627_u0631 u0020 u0633_u06cc_u0645_u0627 u0020 u0020_u0037_u0036_u0025 u0020 u060c u0020 u0020_u0645_u06cc_u0632_u0627_u0646 u0020 u0634_u0646_u0648_u0646_u062f_u0647 u0020 u06cc u0020 u0020", 
        "u0627_u062e_u0628_u0627_u0631 u0020 u0635_u062f_u0627 u0020 u0033_u0039_u0025 u0020 u0648 u0020 u0645_u06cc_u0632_u0627_u0646 u0020 u0627_u0639_u062a_u0645_u0627_u062f u0020 u0648 u0020 u0627_u0637_u0645_u06cc_u0646_u0627_u0646 u0020 u0628_u0647 u0020 u0627_u062e_u0628_u0627_u0631 u0020 u0635_u062f_u0627 u0020 u0648 u0020 u0633_u06cc_u0645_u0627_u06cc u0020 u0645_u0631_u06a9_u0632 u0020 u0020_u0037_u0035_u0025 u0020 u0628_u0648_u062f_u0647 u0020 u0627_u0633_u062a_u002e_u000d", 
        "u0627_u06cc_u0646 u0020 u0645_u0631_u06a9_u0632 u0020 u0628_u06cc_u0634_u062a_u0631_u06cc_u0646 u0020 u0645_u06cc_u0632_u0627_u0646 u0020 u062d_u0636_u0648_u0631 u0020 u062f_u0631 u0020 u0627_u062e_u0628_u0627_u0631 u0020 u0633_u0631_u0627_u0633_u0631_u06cc u0020 u0631_u0627 u0020 u062f_u0627_u0631_u0627_u0633_u062a_u002e_u000d", 
        "u0628_u0627_u0634_u06af_u0627_u0647 u0020 u062e_u0628_u0631_u0646_u06af_u0627_u0631_u0627_u0646 u0020 u062c_u0648_u0627_u0646 u0020 u0628_u0627 u0020 u0647_u0645_u06a9_u0627_u0631_u06cc u0020 u0628_u06cc_u0634 u0020 u0627_u0632 u0020 u0034_u0030 u0020 u0639_u0636_u0648 u0020 u060c u0020 u0641_u0639_u0627_u0644_u062a_u0631_u06cc_u0646 u0020 u0628_u0627_u0634_u06af_u0627_u0647 u0020 u062f_u0631 u0020 u0645_u06cc_u0627_u0646 u0020 u0645_u0631_u0627_u06a9_u0632 u0020 u0627_u0633_u062a_u002e u0020 u000d", 
        "u0647_u0645_u0686_u0646_u06cc_u0646 u0020 u0020_u062d_u0648_u0632_u0647 u0020 u06cc u0020 u062e_u0628_u0631_u0628_u0627 u0020 u0647_u0645_u06a9_u0627_u0631_u06cc u0020 u0035_u0030 u0020 u062e_u0628_u0631_u0646_u06af_u0627_u0631 u0020 u0622_u0632_u0627_u062f u0020 u062f_u0631 u0020 u0634_u0647_u0631_u0633_u062a_u0627_u0646 u0020 u0647_u0627_u06cc u0020 u0641_u0627_u0631_u0633 u0020 u0628_u06cc_u0634_u062a_u0631_u06cc_u0646 u0020 u062a_u0639_u062f_u0627_u062f_u0020", 
        "u062e_u0628_u0631_u0646_u06af_u0627_u0631 u0020 u0622_u0632_u0627_u062f u0020 u0631_u0627 u0020 u062f_u0627_u0631_u0627_u0633_u062a_u002e u0020 u000d", 
        "u0646_u0645_u0627_u0632 u0020 u062c_u0645_u0639_u0647 u0020 u062f_u0631 u0020 u0633_u0637_u062d u0020 u0627_u0633_u062a_u0627_u0646_u060c u0020 u0627_u062e_u0628_u0627_u0631 u0020 u0648_u06cc_u0698_u0647 u0020 u06cc u0020 u0020_u0646_u0645_u0627_u0632 u0020 u062c_u0645_u0639_u0647 u0020 u0628_u06cc_u0634 u0020 u0627_u0632 u0020 u0020_u0634_u0647_u0631 u0020 u0648 u0020 u0645_u0646_u0637_u0642_u0647 u0020 u0627_u0633_u062a_u0627_u0646 u0020 u067e_u0647_u0646_u0627_u0648_u0631 u0020 u0641_u0627_u0631_u0633_u0020", 
        "u0647_u0631 u0020 u062c_u0645_u0639_u0647 u0020 u0633_u0627_u0639_u062a u0020 u0031_u0038_u003a_u0034_u0035 u0020 u067e_u062e_u0634 u0020 u0645_u06cc u0020 u06af_u0631_u062f_u062f_u002e_u000d", 
        "u0020_u06af_u0632_u0627_u0631_u0634 u0020 u0647_u0627_u06cc u0020 u062e_u0628_u0631_u06cc u0020 u0628_u0627 u0020 u0645_u0648_u0636_u0648_u0639 u0020 u062a_u0648_u0627_u0646_u0645_u0646_u062f_u06cc u0020 u0648 u0020 u0638_u0631_u0641_u06cc_u062a u0020 u0647_u0627_u06cc u0020 u0639_u0638_u06cc_u0645 u0020 u0627_u0633_u062a_u0627_u0646 u0020 u0628_u0647 u0020 u0632_u0628_u0627_u0646 u0020 u0627_u0646_u06af_u0644_u06cc_u0633_u06cc u0020 u062a_u0647_u06cc_u0647 u0020 u0648 u0020 u0627_u0632_u0020", 
        "u0628_u062e_u0634 u0020 u0020_u0627_u062e_u0628_u0627_u0631 u0020 u0627_u0646_u06af_u0644_u06cc_u0633_u06cc u0020 u0634_u0628_u06a9_u0647 u0020 u0647_u0627_u06cc u0020 u0628_u0631_u0648_u0646 u0020 u0645_u0631_u0632_u06cc u0020 u0633_u0627_u0632_u0645_u0627_u0646 u0020 u067e_u062e_u0634 u0020 u0645_u06cc u0020 u0634_u0648_u062f_u002e_u000d"
    ]
}