{
    "bounding_box": [
        [
            287, 
            52, 
            132, 
            30
        ], 
        [
            88, 
            138, 
            176, 
            22
        ], 
        [
            88, 
            185, 
            189, 
            27
        ], 
        [
            88, 
            231, 
            497, 
            28
        ], 
        [
            88, 
            277, 
            472, 
            28
        ], 
        [
            88, 
            316, 
            401, 
            27
        ], 
        [
            88, 
            361, 
            515, 
            28
        ], 
        [
            306, 
            514, 
            106, 
            7
        ]
    ], 
    "image_height": 540, 
    "image_width": 720, 
    "transcription": [
        "u004f_u0075_u0074_u006c_u0069_u006e_u0065", 
        "u0049_u006e_u0074_u0072_u006f_u0064_u0075_u0063_u0074_u0069_u006f_u006e u0020 u000d", 
        "u0041_u0062_u006f_u0075_u0074 u0020 u0064_u0072_u0075_u0067_u0073_u003f u0020 u000d", 
        "u0044_u0072_u0075_u0067_u0073 u0020 u0061_u006e_u0064 u0020 u0074_u0068_u0065_u0069_u0072 u0020 u006e_u0065_u0067_u0061_u0074_u0069_u0076_u0065 u0020 u0073_u0069_u0064_u0065 u0020 u0065_u0066_u0066_u0065_u0063_u0074_u0073_u0021 u0020 u000d", 
        "u0054_u0068_u0065 u0020 u0072_u006f_u006c_u0065 u0020 u006f_u0066 u0020 u0074_u0068_u0065 u0020 u004d_u0069_u006e_u0069_u0073_u0074_u0072_u0079 u0020 u006f_u0066 u0020 u0048_u0065_u0061_u006c_u0074_u0068 u0020 u0069_u006e_u0020", 
        "u0073_u0074_u0072_u0065_u006e_u0067_u0074_u0068_u0065_u006e_u0069_u006e_u0067 u0020 u0068_u0065_u0061_u006c_u0074_u0068 u0020 u0073_u0065_u0063_u0075_u0072_u0069_u0074_u0079_u002e u0020 u000d", 
        "u0046_u0075_u0074_u0075_u0072_u0065 u0020 u0070_u006c_u0061_u006e_u0073 u0020 u0074_u006f u0020 u0065_u006e_u0068_u0061_u006e_u0063_u0065 u0020 u0068_u0065_u0061_u006c_u0074_u0068 u0020 u0073_u0065_u0063_u0075_u0072_u0069_u0074_u0079", 
        "u0645_u0624_u062a_u0645_u0631 u0020 u0627_u0644_u062a_u0646_u0638_u064a_u0645 u0020 u0627_u0644_u0635_u062d_u064a u0020 u0627_u0644_u0627_u0648_u0644"
    ]
}