{
    "bounding_box": [
        [
            45, 
            23, 
            617, 
            41
        ], 
        [
            241, 
            75, 
            237, 
            38
        ], 
        [
            41, 
            133, 
            608, 
            34
        ], 
        [
            563, 
            176, 
            86, 
            19
        ], 
        [
            48, 
            222, 
            601, 
            28
        ], 
        [
            205, 
            256, 
            444, 
            34
        ]
    ], 
    "image_height": 540, 
    "image_width": 720, 
    "transcription": [
        "u0031_u0030_u002e u0020 u062a_u0642_u064a_u064a_u0645 u0020 u0623_u062b_u0631 u0020 u0627_u0644_u062a_u0634_u0631_u064a_u0639_u0627_u062a u0020 u0627_u0644_u0642_u0627_u0626_u0645_u0629 u0020 u0648_u0627_u0644_u0645_u0633_u062a_u0642_u0628_u0644_u064a_u0629 u0020 u0639_u0644_u0649_u0020", 
        "u0627_u0644_u0645_u0646_u0627_u0641_u0633_u0629 u0020 u0641_u064a u0020 u0633_u0648_u0631_u064a_u0629", 
        "u0625_u062d_u062f_u0627_u062b u0020 u0644_u062c_u0646_u0629 u0020 u0641_u064a u0020 u0627_u0644_u0647_u064a_u0626_u0629 u0020 u062a_u0639_u0645_u0644 u0020 u0639_u0644_u0649 u0020 u062f_u0631_u0627_u0633_u0629 u0020 u0623_u062b_u0631 u0020 u0627_u0644_u062a_u0634_u0631_u064a_u0639_u0627_u062a u0020 u0639_u0644_u0649_u0020", 
        "u0627_u0644_u0645_u0646_u0627_u0641_u0633_u0629_u000d", 
        "u0627_u0644_u0639_u0645_u0644 u0020 u0639_u0644_u0649 u0020 u062f_u0631_u0627_u0633_u0629 u0020 u0645_u0634_u0631_u0648_u0639_u0627_u062a u0020 u0627_u0644_u0642_u0648_u0627_u0646_u064a_u0646 u0020 u0642_u0628_u0644 u0020 u0635_u062f_u0648_u0631_u0647_u0627 u0020 u0648_u062a_u062d_u062f_u064a_u062f_u0020", 
        "u0623_u062b_u0631_u0647_u0627 u0020 u0639_u0644_u0649 u0020 u0627_u0644_u0645_u0646_u0627_u0641_u0633_u0629 u0020 u0648_u0627_u0642_u062a_u0631_u0627_u062d u0020 u0627_u0644_u062a_u0639_u062f_u064a_u0644 u0020 u0627_u0644_u0645_u0646_u0627_u0633_u0628"
    ]
}