{
    "bounding_box": [
        [
            405, 
            49, 
            223, 
            39
        ], 
        [
            48, 
            134, 
            553, 
            21
        ], 
        [
            61, 
            160, 
            540, 
            22
        ], 
        [
            41, 
            187, 
            559, 
            21
        ], 
        [
            40, 
            213, 
            561, 
            20
        ], 
        [
            281, 
            241, 
            320, 
            18
        ]
    ], 
    "image_height": 540, 
    "image_width": 720, 
    "transcription": [
        "u0627_u0644_u0631_u0633_u0627_u0626_u0644 u0020 u0627_u0644_u0636_u0645_u0646_u064a_u0629", 
        "u062c_u064a_u0645_u0632 u0020 u0641_u064a_u0632_u0627_u0631_u064a u0020 u0633_u0646_u0629 u0020 u0031_u0039_u0035_u0037 u0020 u0642_u0627_u0645 u0020 u062c_u064a_u0645_u0632 u0020 u0641_u064a_u0632_u0627_u0631_u064a u0020 u0628_u062a_u062c_u0631_u0628_u0629 u0020 u0645_u0627 u0020 u064a_u0633_u0645_u0649 u0020 u0628_u0627_u0644 u0020 u0053_u0075_u0062_u006c_u0069_u006d_u0069_u006e_u0061_u006c_u0020", 
        "u004d_u0065_u0073_u0073_u0061_u0067_u0065_u0073 u0020 u0020_u0648_u0642_u0627_u0645 u0020 u0628_u0639_u0631_u0636 u0020 u0645_u062c_u0645_u0648_u0639_u0629 u0020 u0645_u0646 u0020 u0627_u0644_u0631_u0633_u0627_u0626_u0644 u0020 u0627_u0644_u0633_u0631_u064a_u0639_u0629 u0020 u0639_u0644_u0649 u0020 u0627_u0644_u0646_u0627_u0633 u0020 u00ab_u0627_u0634_u062a_u0631_u064a_u0020", 
        "u0641_u0634_u0627_u0631 u0020 u0627_u0634_u062a_u0631_u064a u0020 u0643_u0648_u0643_u0627_u0643_u0648_u0644_u0627_u00bb u0020 u060c u0020 u0648_u0627_u0643_u062a_u0634_u0641 u0020 u0627_u0646 u0020 u0645_u0628_u064a_u0639_u0627_u062a u0020 u0627_u0644_u0641_u0634_u0627_u0631 u0020 u0648_u0627_u0644_u0643_u0648_u0643_u0627_u0643_u0648_u0644_u0627 u0020 u0627_u0631_u062a_u0641_u0639_u062a u0020 u0628_u0634_u0643_u0644_u0020", 
        "u0643_u0628_u064a_u0631 u0020 u062c_u062f_u0627 u0020 u002e u0020 u0648_u0646_u0642_u0644 u0020 u0647_u0630_u0647 u0020 u0627_u0644_u062a_u062c_u0631_u0628_u0629 u0020 u0627_u0644_u0649 u0020 u0627_u0644_u0631_u0627_u062f_u064a_u0648 u0020 u062d_u062a_u0649 u0020 u062a_u0645 u0020 u062a_u062c_u0631_u064a_u0645 u0020 u0627_u0633_u062a_u062e_u062f_u0627_u0645_u0647_u0627 u0020 u0645_u0646 u0020 u0642_u0628_u0644 u0020 u062c_u0645_u0639_u064a_u0629_u0020", 
        "u062d_u0642_u0648_u0642 u0020 u0627_u0644_u0627_u0646_u0633_u0627_u0646 u0020 u0627_u0644_u0627_u0645_u0631_u064a_u0643_u064a_u0629 u0020 u0633_u0646_u0629 u0020 u0031_u0039_u0037_u0034 u0020 u062a_u0642_u0631_u064a_u0628_u0627 u0020 u002e u0020 u000d"
    ]
}