{
    "bounding_box": [
        [
            86, 
            23, 
            553, 
            32
        ], 
        [
            18, 
            57, 
            687, 
            41
        ], 
        [
            18, 
            99, 
            687, 
            33
        ], 
        [
            325, 
            133, 
            380, 
            32
        ], 
        [
            172, 
            174, 
            381, 
            30
        ], 
        [
            25, 
            216, 
            681, 
            35
        ], 
        [
            187, 
            259, 
            352, 
            30
        ], 
        [
            18, 
            297, 
            687, 
            39
        ], 
        [
            380, 
            338, 
            325, 
            32
        ], 
        [
            98, 
            372, 
            529, 
            41
        ], 
        [
            24, 
            414, 
            682, 
            41
        ], 
        [
            616, 
            456, 
            90, 
            32
        ]
    ], 
    "image_height": 540, 
    "image_width": 720, 
    "transcription": [
        "u0627_u0644_u0645_u0627_u062f_u0629 u0020 u0031_u0036_u003a u0020 u0639_u062f_u0645 u0020 u0627_u0644_u062a_u0639_u0631_u0636 u0020 u0644_u0644_u0627_u0633_u062a_u063a_u0644_u0627_u0644 u0020 u0648_u0627_u0644_u0639_u0646_u0641 u0020 u0648_u0627_u0644_u0627_u0639_u062a_u062f_u0627_u0621_u000d", 
        "u0644_u0644_u0623_u0634_u062e_u0627_u0635 u0020 u0630_u0648_u064a u0020 u0627_u0644_u0625_u0639_u0627_u0642_u0629 u0020 u0627_u0644_u062d_u0642 u0020 u0641_u064a u0020 u0627_u0644_u062d_u0645_u0627_u064a_u0629 u0020 u0645_u0646 u0020 u0643_u0644 u0020 u0623_u0634_u0643_u0627_u0644 u0020 u0627_u0644_u0627_u0633_u062a_u063a_u0644_u0627_u0644_u0020", 
        "u0648_u0627_u0644_u0639_u0646_u0641 u0020 u0648_u0627_u0644_u0625_u064a_u0630_u0627_u0621_u060c u0020 u0633_u0648_u0627_u0621 u0020 u062f_u0627_u062e_u0644 u0020 u0627_u0644_u0645_u0646_u0632_u0644 u0020 u0623_u0648 u0020 u062e_u0627_u0631_u062c_u0647_u060c u0020 u0645_u0639 u0020 u0625_u064a_u0644_u0627_u0621 u0020 u0627_u0647_u062a_u0645_u0627_u0645_u0020", 
        "u062e_u0627_u0635 u0020 u0644_u0644_u0623_u0637_u0641_u0627_u0644 u0020 u0648_u0627_u0644_u0646_u0633_u0627_u0621 u0020 u0630_u0648_u064a_u00a0_u0627_u0644_u0625_u0639_u0627_u0642_u0629_u002e_u000d", 
        "u0627_u0644_u0645_u0627_u062f_u0629 u0020 u0031_u0037_u003a u0020 u062d_u0645_u0627_u064a_u0629 u0020 u0627_u0644_u0633_u0644_u0627_u0645_u0629 u0020 u0627_u0644_u0634_u062e_u0635_u064a_u0629_u000d", 
        "u0644_u0644_u0623_u0634_u062e_u0627_u0635 u0020 u0630_u0648_u064a u0020 u0627_u0644_u0625_u0639_u0627_u0642_u0629 u0020 u0627_u0644_u062d_u0642 u0020 u0641_u064a u0020 u0627_u062d_u062a_u0631_u0627_u0645 u0020 u0633_u0644_u0627_u0645_u062a_u0647_u0645 u0020 u0627_u0644_u0628_u062f_u0646_u064a_u0629 u0020 u0648_u0627_u0644_u0639_u0642_u0644_u064a_u0629_u002e_u000d", 
        "u0627_u0644_u0645_u0627_u062f_u0629 u0020 u0031_u0038_u003a u0020 u062d_u0631_u064a_u0629 u0020 u0627_u0644_u062a_u0646_u0642_u0644 u0020 u0648_u0627_u0644_u062c_u0646_u0633_u064a_u0629_u000d", 
        "u0644_u0644_u0623_u0634_u062e_u0627_u0635 u0020 u0630_u0648_u064a u0020 u0627_u0644_u0625_u0639_u0627_u0642_u0629 u0020 u0627_u0644_u062d_u0642 u0020 u0641_u064a u0020 u062d_u0631_u064a_u0629 u0020 u0627_u0644_u062a_u0646_u0642_u0644 u0020 u0648_u062d_u0631_u064a_u0629 u0020 u0627_u062e_u062a_u064a_u0627_u0631_u0020", 
        "u0625_u0642_u0627_u0645_u062a_u0647_u0645 u0020 u0648_u0627_u0644_u062d_u0635_u0648_u0644 u0020 u0639_u0644_u0649 u0020 u062c_u0646_u0633_u064a_u0629_u002e_u000d", 
        "u0627_u0644_u0645_u0627_u062f_u0629 u0020 u0031_u0039_u003a u0020 u0627_u0644_u0645_u0639_u064a_u0634_u0629 u0020 u0627_u0644_u0645_u0633_u062a_u0642_u0644_u0629 u0020 u0648_u0627_u0644_u0625_u062f_u0645_u0627_u062c u0020 u0641_u064a u0020 u0627_u0644_u0645_u062c_u062a_u0645_u0639_u000d", 
        "u0644_u0644_u0623_u0634_u062e_u0627_u0635 u0020 u0630_u0648_u064a u0020 u0627_u0644_u0625_u0639_u0627_u0642_u0629 u0020 u0627_u0644_u062d_u0642 u0020 u0641_u064a u0020 u0627_u0644_u0645_u0639_u064a_u0634_u0629 u0020 u0627_u0644_u0645_u0633_u062a_u0642_u0644_u0629 u0020 u0648_u0627_u0644_u0645_u0634_u0627_u0631_u0643_u0629 u0020 u0641_u064a_u0020", 
        "u0627_u0644_u0645_u062c_u062a_u0645_u0639_u002e"
    ]
}