{
    "bounding_box": [
        [
            49, 
            12, 
            583, 
            28
        ], 
        [
            246, 
            46, 
            197, 
            29
        ]
    ], 
    "image_height": 540, 
    "image_width": 720, 
    "transcription": [
        "u0646_u0642_u0637_u0629 u0020 u0643_u0634_u0641 u0020 u062a_u0633_u0631_u0628 u0020 u0627_u0644_u063a_u0627_u0632 u0020 u062a_u0631_u062a_u0628_u0637 u0020 u0628_u0644_u0648_u062d_u0629 u0020 u062a_u062d_u0643_u0645 u0020 u0648_u062c_u0631_u0633 u0020 u0625_u0646_u0630_u0627_u0631 u0020 u062a_u0633_u062a_u062e_u062f_u0645_u0020", 
        "u0641_u064a u0020 u0627_u0644_u0645_u0646_u0634_u0622_u062a u0020 u0627_u0644_u0635_u0646_u0627_u0639_u064a_u0629"
    ]
}