{
    "bounding_box": [
        [
            479, 
            149, 
            112, 
            18
        ], 
        [
            87, 
            184, 
            545, 
            26
        ], 
        [
            384, 
            220, 
            207, 
            26
        ], 
        [
            210, 
            257, 
            288, 
            24
        ], 
        [
            189, 
            292, 
            309, 
            24
        ], 
        [
            106, 
            329, 
            392, 
            24
        ], 
        [
            172, 
            367, 
            326, 
            23
        ], 
        [
            71, 
            56, 
            623, 
            39
        ]
    ], 
    "image_height": 540, 
    "image_width": 720, 
    "transcription": [
        "u0627_u0644_u0627_u0633_u062a_u0639_u0645_u0627_u0644_u0627_u062a_u003a_u000d", 
        "u062a_u062a_u0639_u062f_u062f u0020 u0627_u0633_u062a_u0639_u0645_u0627_u0644_u0627_u062a u0020 u0627_u0644_u062a_u0643_u0646_u0648_u0644_u0648_u062c_u064a_u0627 u0020 u0627_u0644_u062d_u062f_u064a_u062b_u0629 u0020 u0644_u0644_u0627_u062a_u0635_u0627_u0644 u0020 u0648_u0627_u0644_u062a_u0648_u0627_u0635_u0644 u0020 u062d_u064a_u062b_u0020", 
        "u064a_u0645_u0643_u0646 u0020 u0627_u0639_u062a_u0645_u0627_u062f_u0647_u0627 u0020 u0644_u0645_u0627 u0020 u064a_u0644_u064a_u003a_u000d", 
        "u0627_u0644_u062a_u0639_u0644_u0645 u0020 u0628_u0648_u0627_u0633_u0637_u0629 u0020 u0627_u0644_u062d_u0627_u0633_u0648_u0628_u003a u0020 u0627_u0644_u062a_u0639_u0644_u0645 u0020 u0627_u0644_u0630_u0627_u062a_u064a_u000d", 
        "u0623_u062f_u0627_u0629 u0020 u0645_u062e_u0628_u0631_u064a_u0629 u0020 u0648 u0020 u062f_u064a_u062f_u0627_u0643_u062a_u064a_u0643_u064a_u0629_u003a u0020 u062e_u0644_u0627_u0644 u0020 u0627_u0644_u062a_u062f_u0631_u064a_u0633_u000d", 
        "u0623_u062f_u0627_u0629 u0020 u0628_u0627_u0633_u062a_u0639_u0645_u0627_u0644 u0020 u0628_u0631_u0627_u0646_u0645 u0020 u0627_u0644_u0631_u064a_u0627_u0636_u064a_u0627_u062a_u003a u0020 u0622_u0644_u0629 u0020 u062d_u0627_u0633_u0628_u0629 u0020 u0645_u062a_u0637_u0648_u0631_u0629_u000d", 
        "u0627_u0633_u062a_u0639_u0645_u0627_u0644 u0020 u062c_u0645_u0627_u0639_u064a_u003a u0020 u0627_u0644_u0628_u062d_u062b u0020 u0648_u062a_u0628_u0627_u062f_u0644 u0020 u0627_u0644_u0645_u0639_u0644_u0648_u0645_u0627_u062a_u000d", 
        "u0623_u0647_u0645_u064a_u0629 u0020 u0625_u062f_u0645_u0627_u062c u0020 u0627_u0644_u062a_u0643_u0646_u0648_u0644_u0648_u062c_u064a_u0627 u0020 u0627_u0644_u062a_u0631_u0628_u0648_u064a_u0629 u0020 u0627_u0644_u062d_u062f_u064a_u062b_u0629 u0020 u0641_u064a u0020 u0627_u0644_u062a_u062f_u0631_u064a_u0633_u003a"
    ]
}