{
    "bounding_box": [
        [
            435, 
            33, 
            229, 
            26
        ], 
        [
            111, 
            85, 
            551, 
            25
        ], 
        [
            81, 
            115, 
            581, 
            28
        ], 
        [
            65, 
            148, 
            597, 
            22
        ], 
        [
            138, 
            177, 
            524, 
            28
        ], 
        [
            556, 
            211, 
            106, 
            21
        ], 
        [
            136, 
            245, 
            525, 
            25
        ], 
        [
            68, 
            278, 
            594, 
            24
        ], 
        [
            84, 
            308, 
            577, 
            25
        ], 
        [
            550, 
            337, 
            112, 
            25
        ]
    ], 
    "image_height": 540, 
    "image_width": 720, 
    "transcription": [
        "u0627_u0633_u062a_u062e_u062f_u0627_u0645 u0020 u0057_u0065_u0062 u0020 u0053_u006c_u0069_u0063_u0065_u0073_u0020", 
        "u062a_u0633_u0645_u062d u0020 u0644_u0643 u0020 u0057_u0065_u0062 u0020 u0053_u006c_u0069_u0063_u0065_u0073 u0020 u0628_u0645_u062a_u0627_u0628_u0639_u0629 u0020 u0645_u0648_u0627_u0642_u0639 u0020 u0625_u0644_u0643_u062a_u0631_u0648_u0646_u064a_u0629 u0020 u0645_u0639_u064a_u0646_u0629 u0020 u062d_u0633_u0628_u0645_u0627 u0020 u064a_u062a_u0645_u0020", 
        "u062a_u062d_u062f_u064a_u062b_u0647_u0627_u002e u0020 u0648_u064a_u0648_u0641_u0631 u0020 u0639_u0644_u064a_u0643 u0020 u0647_u0630_u0627 u0020 u0627_u0644_u0623_u0645_u0631 u0020 u0641_u062a_u062d u0020 u0639_u0644_u0627_u0645_u0629 u0020 u062a_u0628_u0648_u064a_u0628 u0020 u0623_u0648 u0020 u0625_u0637_u0627_u0631 u0020 u062c_u062f_u064a_u062f u0020 u0648_u0625_u0639_u0627_u062f_u0629_u0020", 
        "u0643_u062a_u0627_u0628_u0629 u0020 u0055_u0052_u004c_u0022_u0022 u0020 u062b_u0645 u0020 u0627_u0644_u0628_u062d_u062b u0020 u0639_u0646 u0020 u0627_u0644_u0645_u0639_u0644_u0648_u0645_u0627_u062a_u002e u0020 u0648_u062a_u0634_u0628_u0647 u0020 u0057_u0065_u0062 u0020 u0053_u006c_u0069_u0063_u0065_u0073 u0020 u0627_u0644_u0645_u0641_u0636_u0644_u0629_u0020", 
        "u063a_u064a_u0631 u0020 u0623_u0646 u0020 u0057_u0065_u0062 u0020 u0053_u006c_u0069_u0063_u0065_u0073 u0020 u062a_u0633_u0645_u062d u0020 u0644_u0643 u0020 u0623_u064a_u0636_u0627_u064b u0020 u0628_u0645_u0639_u0631_u0641_u0629 u0020 u0645_u062a_u0649 u0020 u064a_u062a_u0645 u0020 u062a_u062d_u062f_u064a_u062b_u0020", 
        "u0627_u0644_u0645_u062d_u062a_u0648_u064a_u0627_u062a_u002e u0020 u000d", 
        "u0648_u0645_u0646 u0020 u0627_u062c_u0644 u0020 u0627_u0633_u062a_u062e_u062f_u0627_u0645 u0020 u0057_u0065_u0062 u0020 u0053_u006c_u0069_u0063_u0065_u0073_u060c u0020 u064a_u062a_u0648_u062c_u0628 u0020 u0639_u0644_u0649 u0020 u0645_u0635_u0645_u0645 u0020 u0627_u0644_u0645_u0648_u0627_u0642_u0639_u0020", 
        "u0627_u0644_u0625_u0644_u0643_u062a_u0631_u0648_u0646_u064a_u0629 u0020 u0627_u0644_u0630_u064a u0020 u062a_u0632_u0648_u0631_u0647_u0627 u0020 u062a_u0637_u0628_u064a_u0642_u0647 u0020 u0639_u0644_u0649 u0020 u0627_u0644_u062e_u0648_u0627_u062f_u0645 u0020 u0627_u0644_u0645_u0648_u062c_u0648_u062f_u0629 u0020 u0644_u062f_u064a_u0647_u0627_u002e u0020 u0648_u0633_u062a_u0639_u0631_u0636_u0020", 
        "u0627_u0644_u0635_u0641_u062d_u0627_u062a u0020 u0627_u0644_u062a_u064a u0020 u064a_u062a_u0645 u0020 u062a_u0641_u0639_u064a_u0644 u0020 u0057_u0065_u0062 u0020 u0053_u006c_u0069_u0063_u0065_u0073 u0020 u0641_u064a_u0647_u0627 u0020 u0631_u0645_u0632 u0020 u0057_u0065_u0062 u0020 u0053_u006c_u0069_u0063_u0065 u0020 u0641_u064a_u0020", 
        "u0634_u0631_u064a_u0637 u0020 u0627_u0644_u0623_u0645_u0631_u003a_u0020"
    ]
}