{
    "bounding_box": [
        [
            479, 
            80, 
            384, 
            23
        ], 
        [
            41, 
            127, 
            822, 
            20
        ], 
        [
            482, 
            157, 
            361, 
            19
        ], 
        [
            50, 
            177, 
            806, 
            25
        ], 
        [
            65, 
            251, 
            799, 
            23
        ], 
        [
            741, 
            278, 
            102, 
            22
        ], 
        [
            284, 
            324, 
            579, 
            23
        ], 
        [
            65, 
            349, 
            759, 
            25
        ], 
        [
            550, 
            376, 
            313, 
            24
        ]
    ], 
    "image_height": 540, 
    "image_width": 960, 
    "transcription": [
        "u0031_u002e u0020 u0639_u0645_u0648_u0645_u064a_u062a u0020 u0647_u062f_u0627_u06cc_u062a u0020 u0627_u0644_u0647_u06cc_u003a_u002e_u002e_u002e u0020 u0648_u064e u0020 u0644_u0650_u0643_u064f_u0644_u0651_u0650 u0020 u0642_u064e_u0648_u0652_u0645_u064d u0020 u0647_u0627_u062f_u064d u0020 u0028_u0631_u0639_u062f u0020 u003a u0020 u0037 u0020 u0029", 
        "u0032_u002e u0020 u062f_u06cc_u0646 u0020 u062d_u0642 u0020 u062f_u0631 u0020 u0647_u0631 u0020 u0632_u0645_u0627_u0646 u0020 u06cc_u06a9_u06cc_u060c u0020 u06cc_u0639_u0646_u06cc u0020 u0622_u062e_u0631_u06cc_u0646 u0020 u0634_u0631_u06cc_u0639_u062a u0020 u0627_u0644_u0647_u06cc u0020 u0647_u0631 u0020 u0632_u0645_u0627_u0646 u0020 u0627_u0633_u062a_u061b u0020 u06a9_u0647 u0020 u0639_u0645_u062f_u0647 u0020 u0622_u0646_u0647_u0627 u0020 u0628_u0647 u0020 u062a_u0631_u062a_u06cc_u0628 u0020 u0639_u0628_u0627_u0631_u062a_u0646_u062f u0020 u0627_u0632_u003a u0020 u0634_u0631_u064a_u0639_u062a_u0020", 
        "u0646_u0648_u062d_u060c u0020 u0627_u0628_u0631_u0627_u0647_u064a_u0645_u060c u0020 u0645_u0648_u0633_u064a_u060c u0020 u0639_u064a_u0633_u064a u0020 u0648 u0020 u067e_u064a_u0627_u0645_u0628_u0631 u0020 u0627_u0633_u0644_u0627_u0645_u0028_u0635_u0029_u003a u0020 u000d", 
        "u0634_u064e_u0631_u064e_u0639 u0020 u0644_u064e_u0643_u064f_u0645_u0652 u0020 u0645_u0650_u0646_u064e_u200f_u0627_u0644_u062f_u0651_u064a_u0646_u0650 u0020 u0645_u0627 u0020 u0648_u064e_u0635_u0651_u064e_u064a u0020 u0628_u0650_u0647 u0020 u0646_u0648_u064f_u062d_u0627_u064b u0020 u0648_u064e_u0627_u0644_u0651_u064e_u0630_u064a u0020 u0623_u064e_u0648_u0652_u062d_u064e_u064a_u0652_u0646_u0627 u0020 u0625_u0650_u0644_u064e_u064a_u0652_u0643_u064e u0020 u0648_u064e u0020 u0645_u0627 u0020 u0648_u064e_u0635_u0651_u064e_u064a u0020 u0628_u0650_u0647 u0020 u0625_u0628_u0652_u0631_u0627_u0647_u064a_u0645_u064e u0020 u0648_u064e u0020 u0645_u0648_u064f_u0633_u064a u0020 u0648_u064e u0020 u0639_u064a_u0633_u064a_u002e u0020 u0031_u0033 u0020 u0633_u0648_u0631_u0629 u0020 u0634_u0648_u0631_u064a", 
        "u0033_u002e u0020 u0631_u0648_u062d u0020 u0647_u0645_u0647_u200f_u064a u0020 u062f_u0639_u0648_u062a_u200f_u0647_u0627_u064a u0020 u0622_u0633_u0645_u0627_u0646_u064a_u060c u0020 u062a_u0633_u0644_u064a_u0645 u0020 u062f_u0631 u0020 u0628_u0631_u0627_u0628_u0631 u0020 u062e_u062f_u0627_u0648_u0646_u062f u0020 u0648 u0020 u0642_u0648_u0627_u0646_u064a_u0646 u0020 u0627_u0644_u0647_u064a u0020 u0627_u0633_u062a_u003a u0020 u0627_u0650_u0646_u0651_u200f_u0627_u0644_u062f_u0651_u064a_u0646_u064e u0020 u0639_u0650_u0646_u0652_u062f_u064e u0020 u0627_u0644_u0644_u0651_u064e_u0647_u0650 u0020 u0627_u0644_u0627_u0633_u0652_u0644_u0627_u0645_u064f_u002e_u0622_u0644 u0020 u0639_u0645_u0631_u0627_u0646_u0020", 
        "u0028_u0033_u0029 u0020 u0622_u064a_u0647_u200f_u064a u0020 u0031_u0039_u002e", 
        "u0034_u002e u0020 u0020_u067e_u064a_u0627_u0645_u0628_u0631_u0627_u0643_u0631_u0645_u0028_u0635_u0029 u0020 u0622_u062e_u0631_u064a_u0646 u0020 u067e_u064a_u0627_u0645_u0628_u0631_u0648 u0020 u0634_u0631_u064a_u0639_u062a_u0634 u0020 u0622_u062e_u0631_u064a_u0646 u0020 u0634_u0631_u064a_u0639_u062a u0020 u0648 u0020 u0628_u0631_u0627_u06cc u0020 u0647_u0645_u06af_u0627_u0646 u0020 u0627_u0633_u062a_u003a_u000d", 
        "u0645_u0627 u0020 u0643_u0627_u0646_u064e u0020 u0645_u064f_u062d_u064e_u0645_u0651_u064e_u062f_u064c u0020 u0623_u064e_u0628_u0627 u0020 u0623_u064e_u062d_u064e_u062f_u064d u0020 u0645_u0650_u0646_u0652 u0020 u0631_u0650_u062c_u0627_u0644_u0650_u0643_u064f_u0645_u0652 u0020 u0648_u064e u0020 u0644_u0643_u0650_u0646_u0652 u0020 u0631_u064e_u0633_u064f_u0648_u0644_u064e u0020 u0627_u0644_u0644_u0651_u064e_u0647_u0650 u0020 u0648_u064e u0020 u062e_u0627_u062a_u064e_u0645_u064e u0020 u0627_u0644_u0646_u0651_u064e_u0628_u0650_u064a_u0651_u0650_u064a_u0646_u064e u0020 u0648_u064e u0020 u0643_u0627_u0646_u064e u0020 u0627_u0644_u0644_u0651_u064e_u0647_u064f u0020 u0628_u0650_u0643_u064f_u0644_u0651_u0650 u0020 u0634_u064e_u064a_u0652_u200f_u0621_u064d u0020 u0639_u064e_u0644_u064a_u0645_u0627_u064b u0020 u0627_u0644_u0623_u062d_u0632_u0627_u0628 u0020 u003a u0020 u0034_u0030 u0020 u0020_u000d", 
        "u0028_u0642_u064f_u0644_u0652 u0020 u064a_u0627 u0020 u0623_u064e_u064a_u0651_u064f_u0647_u064e_u0627 u0020 u0627_u0644_u0646_u0651_u064e_u0627_u0633_u064f u0020 u0625_u0650_u0646_u0651_u0650_u0649 u0020 u0631_u064e_u0633_u064f_u0648_u0644_u064f u0020 u0627_u0644_u0644_u0651_u064e_u0647_u0650 u0020 u0625_u0650_u0644_u064e_u064a_u0652_u0643_u064f_u0645_u0652 u0020 u062c_u064e_u0645_u0650_u064a_u0639_u0627_u064b_u0029"
    ]
}