{
    "bounding_box": [
        [
            128, 
            44, 
            568, 
            33
        ], 
        [
            116, 
            91, 
            550, 
            20
        ], 
        [
            253, 
            113, 
            413, 
            22
        ], 
        [
            106, 
            143, 
            560, 
            22
        ], 
        [
            92, 
            167, 
            574, 
            22
        ], 
        [
            127, 
            191, 
            539, 
            22
        ], 
        [
            111, 
            221, 
            555, 
            22
        ], 
        [
            105, 
            245, 
            561, 
            22
        ], 
        [
            306, 
            268, 
            360, 
            23
        ], 
        [
            83, 
            301, 
            584, 
            20
        ], 
        [
            427, 
            325, 
            239, 
            19
        ], 
        [
            137, 
            353, 
            530, 
            20
        ], 
        [
            94, 
            379, 
            572, 
            20
        ], 
        [
            602, 
            404, 
            64, 
            17
        ], 
        [
            101, 
            431, 
            566, 
            22
        ], 
        [
            216, 
            457, 
            450, 
            19
        ], 
        [
            87, 
            484, 
            580, 
            23
        ]
    ], 
    "image_height": 540, 
    "image_width": 720, 
    "transcription": [
        "u0645_u0634_u0643_u0644_u0627_u062a u0020 u0627_u0644_u0641_u0647_u0645 u0020 u0627_u0644_u0646_u0627_u062c_u0645_u0629 u0020 u0639_u0646 u0020 u0639_u062f_u0645 u0020 u0627_u0644_u0625_u0644_u0645_u0627_u0645 u0020 u0627_u0644_u0643_u0627_u0641_u064a u0020 u0628_u0627_u0644_u0645_u0641_u0631_u062f_u0627_u062a", 
        "u062a_u0634_u0627_u0628_u0647 u0020 u0648_u0627_u062e_u062a_u0644_u0627_u0641 u0020 u0628_u0639_u0636 u0020 u0627_u0644_u0643_u0644_u0645_u0627_u062a u0020 u0641_u064a u0020 u0627_u0644_u0645_u0639_u0646_u064a u0020 u062d_u0633_u0628 u0020 u0633_u064a_u0627_u0642 u0020 u0627_u0644_u0643_u0644_u0627_u0645 u0020 u0645_u062b_u0644 u0020 u0645_u0646_u0638_u0648_u0645_u0629 u0020 u0634_u0645_u0633_u064a_u0629 u0020 u0648_u0646_u0638_u0627_u0645_u0020", 
        "u0634_u0645_u0633_u064a u0020 u002c u0020 u0641_u0647_u0646_u0627 u0020 u0627_u0644_u0645_u0639_u0646_u064a u0020 u0648_u0627_u062d_u062f u0020 u0648_u0644_u0643_u0646 u0020 u0641_u064a u0020 u0645_u0648_u0642_u0639 u0020 u0623_u062e_u0631 u0020 u0642_u062f u0020 u064a_u062e_u062a_u0644_u0641 u0020 u0627_u0644_u0645_u0639_u0646_u064a u0020 u002e_u000d", 
        "u0642_u062f u0020 u062a_u062d_u0645_u0644 u0020 u0646_u0641_u0633 u0020 u0627_u0644_u0643_u0644_u0645_u0629 u0020 u0623_u0643_u062b_u0631 u0020 u0645_u0646 u0020 u0645_u0639_u0646_u064a u0020 u0648_u064a_u0639_u062a_u0645_u062f u0020 u0647_u0630_u0627 u0020 u0639_u0644_u064a u0020 u0627_u0644_u0633_u064a_u0627_u0642 u0020 u0648_u0627_u0644_u0645_u0648_u0642_u0639 u0020 u0627_u0644_u0630_u064a u0020 u062a_u0633_u062a_u062e_u062f_u0645 u0020 u0641_u064a_u0647 u0020 u0645_u062b_u0644_u0020", 
        "u0643_u0644_u0645_u0629 u0020 u0639_u0636_u0648_u064a u0020 u002c u0020 u062a_u062d_u0645_u0644 u0020 u0645_u0639_u0627_u0646_u064a u0020 u0645_u062e_u062a_u0644_u0641_u0629 u0020 u0628_u0627_u0644_u0646_u0633_u0628_u0629 u0020 u0644_u0643_u0644 u0020 u0645_u0646 u0020 u0639_u0627_u0644_u0645 u0020 u0627_u0644_u0623_u062d_u064a_u0627_u0621 u0020 u0648_u0627_u0644_u0643_u064a_u0645_u064a_u0627_u0626_u064a u0020 u0648_u0645_u0648_u0632_u0639 u0020 u0627_u0644_u0623_u063a_u0630_u064a_u0629_u0020", 
        "u062d_u064a_u062b u0020 u0628_u0627_u0644_u0646_u0633_u0628_u0629 u0020 u0644_u0645_u0648_u0632_u0639 u0020 u0627_u0644_u0623_u063a_u0630_u064a_u0629 u0020 u062a_u0623_u062a_u064a u0020 u0641_u0649 u0020 u0633_u064a_u0627_u0642 u0020 u0627_u0646_u062a_u0627_u062c u0020 u0627_u0644_u0645_u0648_u0627_u062f u0020 u0627_u0644_u063a_u0630_u0627_u0626_u064a_u0629 u0020 u0628_u0648_u0633_u0627_u0626_u0644 u0020 u0637_u0628_u064a_u0639_u064a_u0629 u0020 u062a_u0645_u0627_u0645_u0627 u0020 u002e_u000d", 
        "u0642_u062f u0020 u064a_u0637_u063a_u064a u0020 u0623_u062d_u062f u0020 u0627_u0633_u062a_u0639_u0645_u0627_u0644_u0627_u062a u0020 u0627_u0644_u0643_u0644_u0645_u0629 u0020 u0628_u062d_u064a_u062b u0020 u064a_u0635_u0628_u062d u0020 u0628_u0639_u062f u0020 u0630_u0644_u0643 u0020 u0627_u0633_u062a_u062e_u062f_u0627_u0645_u0647_u0627 u0020 u0628_u0627_u0644_u0645_u0639_u0646_u064a u0020 u0627_u0644_u0623_u062e_u0631 u0020 u0623_u0645_u0631_u0627 u0020 u063a_u064a_u0631_u0020", 
        "u0639_u0645_u0644_u064a u0020 u002c_u0645_u062b_u0644 u0020 u0643_u0644_u0645_u0629 u0020 u0067_u0061_u0079 u0020 u0645_u0639_u0646_u0627_u0647_u0627 u0020 u0627_u0644_u0623_u0635_u0644_u0649 u0020 u0645_u0631_u062d u0020 u0623_u0648 u0020 u062e_u0627_u0644 u0020 u0627_u0644_u0628_u0627_u0644 u0020 u0648_u0644_u0643_u0646 u0020 u0623_u062f_u064a u0020 u0627_u0633_u062a_u062e_u062f_u0627_u0645_u0647_u0627 u0020 u0644_u0644_u0625_u0634_u0627_u0631_u0629 u0020 u0627_u0644_u064a_u0020", 
        "u0627_u0644_u0645_u062b_u0644_u064a_u064a_u0646 u0020 u0627_u0644_u064a u0020 u0627_u0633_u062a_u062d_u0627_u0644_u0629 u0020 u0627_u0633_u062a_u062e_u062f_u0627_u0645_u0647_u0627 u0020 u0628_u0645_u0639_u0646_u064a u0020 u0645_u0631_u062d u0020 u0623_u0648 u0020 u062e_u0627_u0644 u0020 u0627_u0644_u0628_u0627_u0644_u002e_u000d", 
        "u062a_u0633_u0628_u0628 u0020 u0627_u0644_u0643_u0644_u0645_u0627_u062a u0020 u0627_u0644_u062c_u062f_u064a_u062f_u0629 u0020 u0648_u0627_u0644_u0645_u0633_u062a_u0648_u0631_u062f_u0629 u0020 u0645_u0634_u0643_u0644_u0627_u062a u0020 u0643_u062b_u064a_u0631_u0629 u0020 u0639_u0627_u062f_u0629 u0020 u0644_u0645_u0646 u0020 u0644_u0645 u0020 u064a_u0637_u0627_u0644_u0639 u0020 u0647_u0630_u0647 u0020 u0627_u0644_u0643_u0644_u0645_u0627_u062a_u002c u0020 u0648_u0642_u062f u0020 u064a_u062d_u062f_u062b_u0020", 
        "u0633_u0648_u0621 u0020 u0641_u0647_u0645 u0020 u062e_u0637_u064a_u0631 u0020 u0646_u062a_u064a_u062c_u0629 u0020 u0627_u0644_u0641_u0631_u0648_u0642 u0020 u0627_u0644_u062b_u0642_u0627_u0641_u064a_u0629_u002e_u000d", 
        "u0627_u0633_u062a_u062e_u062f_u0627_u0645 u0020 u0632_u0645_u0644_u0627_u0621 u0020 u0627_u0644_u0639_u0645_u0644 u0020 u0627_u0644_u0648_u0627_u062d_u062f u0020 u0648_u0623_u0647_u0644 u0020 u0627_u0644_u0645_u0647_u0646_u0629 u0020 u0645_u0635_u0637_u0644_u062d_u0627_u062a u0020 u0641_u0646_u064a_u0629 u0020 u0648_u0639_u0628_u0627_u0631_u0627_u062a u0020 u0644_u0627 u0020 u064a_u0641_u0647_u0645_u0647_u0627 u0020 u0633_u0648_u0627_u0647_u0645_u0020", 
        "u0648_u062a_u062a_u0636_u0645_u0646 u0020 u0645_u0639_u0627_u0646_u064a u0020 u0645_u062d_u062f_u062f_u0629 u0020 u0644_u0627_u0632_u0645_u0629 u0020 u0644_u0644_u062a_u0648_u0627_u0635_u0644 u0020 u0628_u064a_u0646_u0647_u0645 u0020 u0648_u0642_u062f u0020 u064a_u0635_u0639_u0628 u0020 u0639_u0644_u064a u0020 u0645_u0646 u0020 u0647_u0648 u0020 u062e_u0627_u0631_u062c u0020 u0627_u0644_u062f_u0627_u0626_u0631_u0629 u0020 u0641_u0647_u0645 u0020 u0647_u0630_u0647_u0020", 
        "u0627_u0644_u0639_u0628_u0627_u0631_u0627_u062a_u002e_u000d", 
        "u0627_u0633_u062a_u062e_u062f_u0627_u0645 u0020 u0627_u0644_u0631_u0637_u0627_u0646_u0629 u0020 u0648_u0647_u064a u0020 u0644_u063a_u0629 u0020 u0627_u0635_u0637_u0644_u0627_u062d_u064a_u0629 u0020 u062e_u0627_u0635_u0629 u0020 u0628_u0623_u0647_u0644 u0020 u0627_u0644_u0645_u0647_u0646_u0629 u0020 u0645_u062b_u0644 u0020 u0644_u063a_u0629 u0020 u0645_u0633_u062a_u062e_u062f_u0645_u064a u0020 u0627_u0644_u0627_u0646_u062a_u0631_u0646_u062a u0020 u0645_u062b_u0644_u0020", 
        "u0627_u0633_u062a_u062e_u062f_u0627_u0645 u0020 u062d_u0631_u0641 u0020 u0075 u0020 u0628_u062f_u0644 u0020 u0643_u0644_u0645_u0629 u0020 u0079_u006f_u0075 u0020 u0020 u0020 u0643_u0630_u0644_u0643 u0020 u0627_u0633_u062a_u062e_u062f_u0627_u0645 u0020 u0631_u0642_u0645 u0020 u0034 u0020 u0628_u062f_u0644 u0020 u0643_u0644_u0645_u0629 u0020 u0066_u006f_u0072 u0020 u002e_u000d", 
        "u0627_u0633_u062a_u0639_u0645_u0627_u0644 u0020 u0628_u0639_u0636 u0020 u0627_u0644_u0643_u062a_u0627_u0628 u0020 u0643_u0644_u0645_u0627_u062a u0020 u063a_u064a_u0631 u0020 u0645_u0623_u0644_u0648_u0641_u0629 u0020 u0623_u0648 u0020 u063a_u0631_u064a_u0628_u0629 u0020 u0623_u0648 u0020 u0645_u0635_u0637_u0644_u062d_u0627_u062a u0020 u062a_u0642_u0646_u064a_u0629 u0020 u062a_u0624_u062f_u064a u0020 u0627_u0644_u0649 u0020 u062a_u0639_u0642_u064a_u062f u0020 u0627_u0644_u0641_u0647_u0645_u002e"
    ]
}