{
    "bounding_box": [
        [
            465, 
            96, 
            218, 
            42
        ], 
        [
            29, 
            162, 
            646, 
            50
        ], 
        [
            16, 
            218, 
            638, 
            52
        ], 
        [
            29, 
            283, 
            625, 
            44
        ], 
        [
            29, 
            339, 
            625, 
            46
        ], 
        [
            29, 
            398, 
            625, 
            39
        ], 
        [
            131, 
            448, 
            523, 
            50
        ]
    ], 
    "image_height": 540, 
    "image_width": 720, 
    "transcription": [
        "u0647_u062f_u0641 u0020 u0627_u0644_u0631_u0633_u0627_u0644_u0629_u0020", 
        "u062d_u064a_u062b u0020 u0639_u0644_u0645 u0020 u0627_u0644_u0631_u0633_u0648_u0644 u0020 u0623_u0646 u0020 u0631_u0633_u0627_u0644_u062a_u0647 u0020 u0627_u0644_u0623_u0648_u0644_u0649_u0020", 
        "u0623_u062b_u0645_u0631_u062a u0020 u062a_u0648_u0628_u0629 u0020 u0635_u0627_u062f_u0642_u0629 u0020 u0028 u0020 u0037 u0020 u003a u0020 u0031_u0036 u0020 u0029 u0020 u0623_u0631_u0633_u0644 u0020 u0020", 
        "u064a_u0624_u0643_u062f u0020 u0641_u0631_u062d_u0647 u0020 u0628_u062a_u0648_u0628_u062a_u0647_u0645_u060c u0020 u0648_u062d_u064a_u062b u0020 u0020_u0634_u0643_u0643_u0020", 
        "u0627_u0644_u0628_u0639_u0636 u0020 u0641_u0649 u0020 u0631_u0633_u0648_u0644_u064a_u062a_u0647_u060c u0020 u064a_u062f_u0627_u0641_u0639 u0020 u0639_u0646 u0020 u0635_u062f_u0642_u0020", 
        "u0631_u0633_u0648_u0644_u064a_u062a_u0647_u060c u0020 u0648_u064a_u0624_u0643_u062f u0020 u062d_u0628_u0647 u0020 u0644_u0634_u0639_u0628_u0647_u060c u0020 u0648_u064a_u0635_u0641_u0020", 
        "u0645_u0634_u0627_u0639_u0631 u0020 u0627_u0644_u0623_u0628_u0648_u0629 u0020 u0641_u0649 u0020 u0642_u0644_u0628_u0647 u0020 u0645_u0646 u0020 u0646_u0627_u062d_u064a_u062a_u0647_u0645_u002e_u000d"
    ]
}