{
    "bounding_box": [
        [
            247, 
            21, 
            225, 
            35
        ], 
        [
            150, 
            67, 
            428, 
            42
        ], 
        [
            73, 
            149, 
            601, 
            30
        ], 
        [
            36, 
            183, 
            613, 
            30
        ], 
        [
            37, 
            216, 
            613, 
            31
        ], 
        [
            370, 
            253, 
            279, 
            26
        ]
    ], 
    "image_height": 540, 
    "image_width": 720, 
    "transcription": [
        "u0020_u0648_u0627_u062c_u0628_u0627_u062a u0020 u0627_u0644_u0637_u0628_u064a_u0628 u0020 u000b", 
        "u0020_u0627_u0644_u0633_u0631 u0020 u0627_u0644_u0637_u0628_u064a u0020 u003a u0020 u0627_u0644_u062d_u064a_u062b_u064a_u0627_u062a u0020 u0627_u0644_u0634_u0631_u0639_u064a_u0629_u000b", 
        "u0639_u0646 u0020 u0623_u0628_u064a u0020 u0633_u0639_u064a_u062f u0020 u0645_u0631_u0641_u0648_u0639_u0627 u0020 u003a u0020 u003b u0020 u0625_u0646 u0020 u0645_u0646 u0020 u0623_u0634_u0631_u0627_u0644_u0646_u0627_u0633 u0020 u0639_u0646_u062f u0020 u0627_u0644_u0644_u0647 u0020 u0645_u0646_u0632_u0644_u0629 u0020 u064a_u0648_u0645 u0020 u0627_u0644_u0642_u064a_u0627_u0645_u0629_u0020", 
        "u0627_u0644_u0631_u062c_u0644 u0020 u064a_u0641_u0636_u064a u0020 u0625_u0644_u0649 u0020 u0627_u0645_u0631_u0623_u062a_u0647 u0020 u0648_u062a_u0641_u0636_u064a u0020 u0625_u0644_u064a_u0647 u0020 u062b_u0645 u0020 u064a_u0646_u0634_u0631 u0020 u0633_u0631_u0647_u0627 u0020 u0648_u0641_u064a u0020 u0631_u0648_u0627_u064a_u0629 u0020 u0020_u003b u0020 u0625_u0646_u0020", 
        "u0645_u0646 u0020 u0623_u0639_u0638_u0645 u0020 u0627_u0644_u0623_u0645_u0627_u0646_u0629 u0020 u0639_u0646_u062f u0020 u0627_u0644_u0644_u0647 u0020 u064a_u0648_u0645 u0020 u0627_u0644_u0642_u064a_u0627_u0645_u0629 u0020 u0627_u0644_u0631_u062c_u0644 u0020 u064a_u0641_u0636_u064a u0020 u0625_u0644_u0649 u0020 u0627_u0645_u0631_u0623_u062a_u0647 u0020 u0648_u062a_u0641_u0636_u064a_u0020", 
        "u0625_u0644_u064a_u0647 u0020 u062b_u0645 u0020 u064a_u0646_u0634_u0631 u0020 u0633_u0631_u0647_u0627_u003b_u002d u0020 u0631_u0648_u0627_u0647 u0020 u0645_u0633_u0644_u0645_u000d"
    ]
}