{
    "bounding_box": [
        [
            43, 
            132, 
            622, 
            34
        ], 
        [
            248, 
            172, 
            428, 
            34
        ], 
        [
            223, 
            222, 
            412, 
            30
        ], 
        [
            399, 
            268, 
            236, 
            27
        ], 
        [
            44, 
            313, 
            591, 
            31
        ], 
        [
            495, 
            352, 
            140, 
            27
        ], 
        [
            392, 
            398, 
            243, 
            29
        ], 
        [
            84, 
            28, 
            542, 
            30
        ], 
        [
            310, 
            64, 
            99, 
            24
        ]
    ], 
    "image_height": 540, 
    "image_width": 720, 
    "transcription": [
        "u062a_u0648_u0641_u0631 u0020 u0627_u0644_u0627_u0646_u062a_u0631_u0646_u062a u0020 u0628_u064a_u0626_u0629 u0020 u0627_u062a_u0635_u0627_u0644_u064a_u0629 u0020 u062a_u0633_u0647_u0644 u0020 u062a_u062c_u0645_u064a_u0639 u0020 u0627_u0644_u0645_u0639_u0644_u0648_u0645_u0627_u062a u0020 u0648_u062a_u0643_u0648_u064a_u0646 u0020 u0020", 
        "u0020 u0020 u0020 u0020 u0645_u0644_u0641_u0627_u062a u0020 u0627_u0644_u0632_u0628_u0627_u0626_u0646 u0020 u0628_u0627_u062a_u0628_u0627_u0639 u0020 u0627_u0644_u0627_u0633_u0627_u0644_u064a_u0628 u0020 u0627_u0644_u062a_u0627_u0644_u064a_u0629 u0020 u003a_u000d", 
        "u0645_u0631_u0627_u0642_u0628_u0629 u0020 u0627_u0644_u0632_u0628_u0627_u0626_u0646 u0020 u062e_u0644_u0627_u0644 u0020 u062a_u062c_u0648_u0627_u0644_u0647_u0645 u0020 u0641_u064a u0020 u0627_u0644_u0645_u0648_u0642_u0639 u0020 u000d", 
        "u0627_u0644_u0627_u0633_u062a_u0628_u064a_u0627_u0646_u0627_u062a u0020 u0627_u0644_u0627_u0644_u0643_u062a_u0631_u0648_u0646_u064a_u0629_u000d", 
        "u0627_u0633_u062a_u062e_u062f_u0627_u0645 u0020 u0627_u0644_u0645_u0639_u0644_u0648_u0645_u0627_u062a u0020 u0627_u0644_u0645_u062a_u0639_u0644_u0642_u0629 u0020 u0628_u0627_u0644_u0634_u0631_u0627_u0621 u0020 u0627_u0644_u0633_u0627_u0628_u0642_u0629 u0020 u0644_u0644_u0632_u0628_u0648_u0646 u0020 u201d_u062a_u0643_u0648_u064a_u0646_u0020", 
        "u0645_u0644_u0641 u0020 u0627_u0644_u0632_u0628_u0648_u0646_u201c_u000d", 
        "u0627_u0633_u062a_u062e_u062f_u0627_u0645 u0020 u0628_u062d_u0648_u062b u0020 u0627_u0644_u062a_u0633_u0648_u064a_u0642_u002e", 
        "u0627_u0644_u0627_u0633_u062a_u0631_u0627_u062a_u064a_u062c_u064a_u0627_u062a u0020 u0627_u0644_u0646_u0627_u062c_u062d_u0629 u0020 u0641_u064a u0020 u0627_u0644_u062a_u062c_u0627_u0631_u0629 u0020 u0627_u0644_u0627_u0644_u0643_u062a_u0631_u0648_u0646_u064a_u0629 u0020 u0628_u064a_u0646 u0020 u0627_u0644_u0645_u0646_u0638_u0645_u0629_u0020", 
        "u0648_u0627_u0644_u0645_u0633_u062a_u0647_u0644_u0643"
    ]
}