{
    "bounding_box": [
        [
            55, 
            36, 
            449, 
            46
        ], 
        [
            58, 
            156, 
            598, 
            24
        ], 
        [
            59, 
            182, 
            598, 
            24
        ], 
        [
            644, 
            224, 
            13, 
            3
        ], 
        [
            74, 
            234, 
            583, 
            24
        ], 
        [
            112, 
            260, 
            545, 
            24
        ], 
        [
            74, 
            286, 
            583, 
            24
        ], 
        [
            573, 
            312, 
            84, 
            19
        ], 
        [
            86, 
            337, 
            571, 
            24
        ], 
        [
            91, 
            363, 
            566, 
            24
        ], 
        [
            70, 
            389, 
            587, 
            24
        ], 
        [
            140, 
            415, 
            517, 
            24
        ], 
        [
            80, 
            441, 
            577, 
            21
        ]
    ], 
    "image_height": 540, 
    "image_width": 720, 
    "transcription": [
        "u062a_u062f_u0627_u062e_u0644 u0020 u0627_u0644_u062f_u0648_u0627_u0621 u0020 u0645_u0639 u0020 u0627_u0644_u0623_u062f_u0648_u064a_u0629 u0020 u0627_u0644_u0623_u062e_u0631_u0649", 
        "u2013 u0020 u064a_u062c_u0628 u0020 u0623_u0644_u0627 u0020 u064a_u062a_u0646_u0627_u0648_u0644 u0020 u0627_u0644_u0645_u0631_u064a_u0636 u0020 u0627_u0644_u062a_u0631_u0627_u0645_u0627_u062f_u0648_u0644 u0020 u0625_u0630_u0627 u0020 u0643_u0627_u0646 u0020 u0642_u062f u0020 u062a_u0646_u0627_u0648_u0644 u0020 u0645_u062b_u0628_u0637_u0627_u062a u0020 u0623_u0643_u0633_u064a_u062f_u0020", 
        "u0623_u062d_u0627_u062f_u064a u0020 u0627_u0644_u0623_u0645_u064a_u0646 u0020 u062e_u0644_u0627_u0644 u0020 u0627_u0644_u0623_u0631_u0628_u0639_u0629 u0020 u0639_u0634_u0631 u0020 u064a_u0648_u0645_u0627 u0020 u0642_u0628_u0644 u0020 u0627_u0644_u0628_u062f_u0621 u0020 u0628_u0627_u0644_u0645_u0639_u0627_u0644_u062c_u0629 u0020 u0628_u0627_u0644_u062a_u0631_u0627_u0645_u0627_u062f_u0648_u0644_u0020", 
        "u002e_u000b", 
        "u2013 u0020 u0642_u062f u0020 u062a_u0632_u062f_u0627_u062f u0020 u0646_u0648_u0628_u0627_u062a u0020 u0627_u0644_u0635_u0631_u0639 u0020 u0623_u0648 u0020 u0627_u0644_u062a_u0634_u0646_u062c_u0627_u062a u0020 u0625_u0630_u0627 u0020 u062a_u0645 u0020 u0627_u0633_u062a_u062e_u062f_u0627_u0645 u0020 u0627_u0644_u062a_u0631_u0627_u0645_u0627_u062f_u0648_u0644 u0020 u0645_u0639_u0020", 
        "u0645_u0636_u0627_u062f_u0627_u062a u0020 u0627_u0644_u0630_u0647_u0627_u0646 u0020 u0648_u0627_u0644_u0645_u064a_u0641_u0644_u0648_u0643_u064a_u0646 u0020 u0648_u0645_u0636_u0627_u062f_u0627_u062a u0020 u0627_u0644_u0627_u0643_u062a_u0626_u0627_u0628 u0020 u0627_u0644_u062a_u064a u0020 u062a_u0646_u062a_u0645_u064a u0020 u0625_u0644_u0649_u0020", 
        "u0645_u062b_u0628_u0637_u0627_u062a u0020 u0627_u0633_u062a_u0631_u062f_u0627_u062f u0020 u0627_u0644_u0633_u064a_u0631_u0648_u062a_u0648_u0646_u064a_u0646 u0020 u0627_u0644_u0627_u0646_u062a_u0642_u0627_u0626_u064a u0020 u060c u0020 u0623_u0648 u0020 u0645_u0636_u0627_u062f_u0627_u062a u0020 u0627_u0644_u0627_u0643_u062a_u0626_u0627_u0628 u0020 u062b_u0644_u0627_u062b_u064a_u0020", 
        "u0627_u0644_u062d_u0644_u0642_u0627_u062a u0020 u002e_u000b", 
        "u2013 u0020 u0642_u062f u0020 u062a_u0632_u062f_u0627_u062f u0020 u062d_u0627_u0644_u0629 u0020 u0627_u0644_u0646_u0639_u0627_u0633 u0020 u0627_u0644_u0634_u062f_u064a_u062f u0020 u0648_u0627_u0644_u062a_u062e_u062f_u064a_u0631 u0020 u0625_u0630_u0627 u0020 u062a_u0645 u0020 u062a_u0646_u0627_u0648_u0644 u0020 u0627_u0644_u062a_u0631_u0627_u0645_u0627_u062f_u0648_u0644 u0020 u0645_u0639_u0020", 
        "u0627_u0644_u0643_u062d_u0648_u0644_u064a_u0627_u062a u0020 u0648_u0627_u0644_u0628_u0627_u0631_u0628_u064a_u062a_u0648_u0631_u0627_u062a u0020 u0648_u0627_u0644_u0628_u0646_u0632_u0648_u062f_u064a_u0627_u0632_u064a_u0628_u0646_u0627_u062a u0020 u0648_u0645_u062b_u0628_u0637_u0627_u062a u0020 u0623_u0643_u0633_u064a_u062f u0020 u0623_u062d_u0627_u062f_u064a_u0020", 
        "u0627_u0644_u0623_u0645_u064a_u0646 u0020 u0648_u0645_u0636_u0627_u062f_u0627_u062a u0020 u0627_u0644_u0647_u064a_u0633_u062a_u0627_u0645_u064a_u0646 u0020 u060c u0020 u0648_u0627_u0644_u0645_u0633_u0643_u0646_u0627_u062a u0020 u0627_u0644_u0623_u0641_u064a_u0648_u0646_u064a_u0629 u0020 u0627_u0644_u0642_u0648_u064a_u0629 u0020 u0648_u0627_u0644_u0623_u0642_u0631_u0627_u0635_u0020", 
        "u0627_u0644_u0645_u0646_u0648_u0645_u0629 u0020 u0648_u0645_u0636_u0627_u062f_u0627_u062a u0020 u0627_u0644_u0627_u0643_u062a_u0626_u0627_u0628 u0020 u062b_u0644_u0627_u062b_u064a_u0629 u0020 u0627_u0644_u062d_u0644_u0642_u0627_u062a u0020 u060c u0020 u0648_u0627_u0644_u0643_u0631_u0628_u0627_u0645_u0627_u0632_u0628_u064a_u0646 u0020 u002e_u000b", 
        "u2013 u0020 u0642_u062f u0020 u064a_u0624_u062b_u0631 u0020 u0627_u0644_u062a_u0631_u0627_u0645_u0627_u062f_u0648_u0644 u0020 u0639_u0644_u0649 u0020 u0627_u0644_u0623_u062f_u0648_u064a_u0629 u0020 u0627_u0644_u0645_u0636_u0627_u062f_u0629 u0020 u0644_u0644_u062a_u062e_u062b_u0631 u0020 u0645_u062b_u0644 u0020 u0627_u0644_u0648_u0627_u0631_u0627_u0641_u0627_u0631_u064a_u0646 u0020 u002e"
    ]
}