{
    "bounding_box": [
        [
            116, 
            88, 
            418, 
            45
        ], 
        [
            39, 
            122, 
            615, 
            32
        ], 
        [
            97, 
            158, 
            557, 
            28
        ], 
        [
            94, 
            191, 
            560, 
            30
        ], 
        [
            504, 
            228, 
            150, 
            25
        ], 
        [
            50, 
            266, 
            604, 
            30
        ], 
        [
            66, 
            299, 
            588, 
            30
        ], 
        [
            84, 
            334, 
            571, 
            29
        ], 
        [
            58, 
            366, 
            596, 
            30
        ], 
        [
            39, 
            400, 
            615, 
            30
        ], 
        [
            147, 
            440, 
            507, 
            30
        ], 
        [
            65, 
            480, 
            589, 
            31
        ], 
        [
            41, 
            513, 
            613, 
            31
        ]
    ], 
    "image_height": 540, 
    "image_width": 720, 
    "transcription": [
        "u0627_u0633_u0627_u0633 u0020 u0627_u0645_u0627_u0646 u0020 u0627_u0644_u0631_u0633_u0644 u0020 u0641_u064a u0020 u0627_u0644_u0627_u0633_u0644_u0627_u0645", 
        "u0625_u0646 u0020 u0627_u0644_u0623_u0635_u0644 u0020 u0627_u0644_u0634_u0631_u0639_u064a u0020 u0644_u0644_u062d_u0635_u0627_u0646_u0629 u0020 u0627_u0644_u062f_u0628_u0644_u0648_u0645_u0627_u0633_u064a_u0629 u0020 u0641_u064a u0020 u0627_u0644_u0625_u0633_u0644_u0627_u0645 u0020 u064a_u0633_u062a_u0645_u062f u0020 u0645_u0634_u0631_u0648_u0639_u064a_u062a_u0647_u0020", 
        "u0645_u0646 u0020 u0627_u0644_u0646_u0635_u0648_u0635 u0020 u0627_u0644_u0642_u0631_u0622_u0646_u064a_u0629 u0020 u0648_u0627_u0644_u0646_u0628_u0648_u064a_u0629 u0020 u0648_u0623_u0642_u0648_u0627_u0644 u0020 u0627_u0644_u0641_u0642_u0647_u0627_u0621 u0020 u0648_u0625_u0646 u0020 u0623_u0645_u0646 u0020 u0627_u0644_u0622_u062e_u0631_u064a_u0646_u0020", 
        "u0648_u062d_u0635_u0627_u0646_u062a_u0647_u0645 u0020 u062a_u0646_u0635 u0020 u0639_u0644_u064a_u0647_u0627 u0020 u0628_u0648_u0636_u0648_u062d u0020 u0647_u0630_u0647 u0020 u0627_u0644_u0622_u064a_u0627_u062a u0020 u0627_u0644_u0643_u0631_u064a_u0645_u0629 u0020 u0648 u0020 u0627_u0644_u0623_u062d_u0627_u062f_u064a_u062b_u0020", 
        "u0627_u0644_u0646_u0628_u0648_u064a_u0629 u0020 u0627_u0644_u0634_u0631_u064a_u0641_u0629 u0020 u002e_u000d", 
        "u0623_u0648_u0644_u0627_u064b u0020 u003a u0020 u0642_u0648_u0644_u0647 u0020 uf049 u0020 uf07d u0020 u0648_u0625_u0646 u0020 u0623_u062d_u062f u0020 u0645_u0646 u0020 u0627_u0644_u0645_u0634_u0631_u0643_u064a_u0646 u0020 u0627_u0633_u062a_u062c_u0627_u0631_u0643 u0020 u0641_u0623_u062c_u0631_u0647 u0020 u062d_u062a_u0649 u0020 u064a_u0633_u0645_u0639_u0020", 
        "u0643_u0644_u0627_u0645 u0020 u0627_u0644_u0644_u0647 u0020 u062b_u0645 u0020 u0623_u0628_u0644_u063a_u0647 u0020 u0645_u0623_u0645_u0646_u0647 u0020 u0020_uf07b u0020 u002e u0020 u0648_u0642_u0648_u0644 u0020 u0627_u0644_u0631_u0633_u0648_u0644 u0020 uf072 u0020 u0630_u0645_u0629 u0020 u0627_u0644_u0645_u0633_u0644_u0645_u064a_u0646 u0020 u0648_u0627_u062d_u062f_u0629_u0020", 
        "u064a_u0633_u0639_u0649 u0020 u0628_u0647_u0627 u0020 u0623_u062f_u0646_u0627_u0647_u0645 u0020 u0641_u0645_u0646 u0020 u0623_u062e_u0641_u0631 u0020 u0645_u0633_u0644_u0645_u0627_u064b u0020 u0641_u0639_u0644_u064a_u0647 u0020 u0644_u0639_u0646_u0629 u0020 u0627_u0644_u0644_u0647 u0020 u0648_u0627_u0644_u0645_u0644_u0627_u0626_u0643_u0629 u0020 u0648_u0627_u0644_u0646_u0627_u0633_u0020", 
        "u0623_u062c_u0645_u0639_u064a_u0646 u0020 u0644_u0627 u0020 u064a_u0642_u0628_u0644 u0020 u0645_u0646_u0647 u0020 u064a_u0648_u0645 u0020 u0627_u0644_u0642_u064a_u0627_u0645_u0629 u0020 u0639_u062f_u0644 u0020 u0648 u0020 u0644_u0627 u0020 u0635_u0631_u0641_u002e u0020 u0648_u0641_u064a u0020 u0631_u0648_u0627_u064a_u0629 u0020 u0623_u062e_u0631_u0649_u0020", 
        "u0627_u0644_u0645_u0633_u0644_u0645_u0648_u0646 u0020 u062a_u062a_u0643_u0627_u0641_u0623 u0020 u062f_u0645_u0627_u0624_u0647_u0645 u0020 u0648_u064a_u0633_u0639_u0649 u0020 u0628_u0630_u0645_u062a_u0647_u0645 u0020 u0623_u062f_u0646_u0627_u0647_u0645 u0020 u0648_u0647_u0645 u0020 u064a_u062f u0020 u0639_u0644_u0649 u0020 u0645_u0646 u0020 u0633_u0648_u0627_u0647_u0645_u002e_u000d", 
        "u0648_u0628_u0645_u0648_u062c_u0628 u0020 u0020_u0630_u0644_u0643 u0020 u064a_u0646_u0628_u063a_u064a u0020 u0623_u0644_u0627 u0020 u062a_u0645_u0633 u0020 u0648 u0020 u0644_u0627_u062a_u0646_u062a_u0647_u0643 u0020 u062d_u0635_u0627_u0646_u0629 u0020 u0627_u0644_u0633_u0641_u0631_u0627_u0621 u0020 u000d", 
        "u062b_u0627_u0646_u064a_u0627_u064b u0020 u003a u0020 u0648_u0642_u062f u0020 u0628_u0646_u064a u0020 u062d_u0646_u064a_u0641_u0629 u0020 u0644_u0642_u062f u0020 u0623_u0631_u0633_u0644 u0020 u0645_u0633_u064a_u0644_u0645_u0629 u0020 u0627_u0644_u0643_u0630_u0627_u0628 u0020 u0643_u062a_u0627_u0628_u0627_u064b u0020 u0625_u0644_u0649 u0020 u0627_u0644_u0631_u0633_u0648_u0644 u0020 uf072_u0020", 
        "u0645_u0639 u0020 u0631_u0633_u0648_u0644_u064a_u0647 u0020 u0627_u0628_u0646 u0020 u0627_u0644_u0646_u0648_u0627_u062d_u0629 u0020 u0648_u0627_u0628_u0646 u0020 u0627_u064f_u062b_u0627_u0644 u0020 u002c u0020 u0648_u0633_u0623_u0644_u0647_u0645_u0627 u0020 u0627_u0644_u0646_u0628_u064a u0020 u0627_u0644_u0643_u0631_u064a_u0645 u0020 u003a u0020 u0022 u0020 u0623_u062a_u0634_u0647_u062f u0020 u0623_u0646_u0020"
    ]
}