{
    "bounding_box": [
        [
            205, 
            76, 
            302, 
            25
        ], 
        [
            313, 
            136, 
            341, 
            19
        ], 
        [
            165, 
            174, 
            489, 
            24
        ], 
        [
            46, 
            216, 
            608, 
            25
        ], 
        [
            619, 
            257, 
            35, 
            19
        ], 
        [
            84, 
            283, 
            570, 
            39
        ], 
        [
            77, 
            334, 
            577, 
            25
        ], 
        [
            47, 
            378, 
            607, 
            28
        ], 
        [
            608, 
            419, 
            47, 
            16
        ], 
        [
            294, 
            459, 
            360, 
            21
        ]
    ], 
    "image_height": 540, 
    "image_width": 720, 
    "transcription": [
        "u062f_u0633_u062a_u0627_u0648_u0631_u062f_u0647_u0627 u0020 u062f_u0631 u0020 u0639_u0631_u0635_u0647 u0020 u0635_u0646_u0639_u062a_u000b", 
        "u062a_u0648_u0633_u0639_u0647 u0020 u0648 u0020 u062f_u0633_u062a_u0627_u0648_u0631_u062f u0020 u0647_u0627_u06cc u0020 u0020_u0635_u0646_u0639_u062a u0020 u0627_u0644_u06a9_u062a_u0631_u0648_u0646_u06cc_u06a9_u003a_u000d", 
        "u062a_u0646_u0647_u0627 u0020 u0643_u0634_u0648_u0631 u0020 u062e_u0627_u0648_u0631_u0645_u064a_u0627_u0646_u0647 u0020 u0648 u0020 u062e_u0648_u062f_u06a9_u0641_u0627_u06cc_u06cc u0020 u062f_u0631 u0020 u062a_u0648_u0644_u064a_u062f_u0642_u0637_u0639_u0627_u062a u0020 u0646_u064a_u0645_u0647 u0020 u0647_u0627_u062f_u064a u0020 u0647_u0627_u000d", 
        "u0637_u0631_u0627_u062d_u064a u0020 u0648 u0020 u0633_u0627_u062e_u062a u0020 u0622_u0634_u0643_u0627_u0631_u0633_u0627_u0632 u0020 u0645_u0627_u062f_u0648_u0646 u0020 u0642_u0631_u0645_u0632 u0020 u062f_u0627_u0631_u0627_u06cc u0020 u0643_u0627_u0631_u0628_u0631_u062f u0020 u062f_u0631 u0020 u062f_u0648_u0631_u0628_u064a_u0646 u0020 u0647_u0627_u064a u0020 u062f_u064a_u062f u0020 u062f_u0631_u0020", 
        "u0634_u0628_u000d", 
        "u062e_u0648_u062f_u06a9_u0641_u0627_u064a_u064a u0020 u062f_u0631 u0020 u062a_u0648_u0644_u064a_u062f u0020 u0628_u064a u0020 u0633_u064a_u0645 u0020 u0647_u0627_u064a u0020 u0631_u0627_u064a_u062c u0020 u0646_u064a_u0631_u0648_u0647_u0627_u064a u0020 u0645_u0633_u0644_u062d u0020 u0648 u0020 u0628_u064a u0020 u0633_u064a_u0645 u0020 u0647_u0627_u064a u0020 u062c_u0647_u0634_u0020", 
        "u0641_u0631_u06a9_u0627_u0646_u0633_u064a u0020 u0648 u0020 u0633_u064a_u0633_u062a_u0645_u0647_u0627_u064a u0020 u0627_u067e_u062a_u064a_u06a9_u064a u0020 u0648 u0020 u0634_u0646_u0648_u062f u0020 u0632_u064a_u0631 u0020 u0622_u0628_u064a_u060c u0020 u062a_u0644_u0641_u0646_u0647_u0627_u064a u0020 u0028_u0632_u064a_u0631 u0020 u0622_u0628_u064a u0020 u0648 u0020 u0633_u0648_u0646_u0627_u0631_u0029_u000d", 
        "u0633_u0627_u062e_u062a u0020 u0633_u064a_u0633_u062a_u0645 u0020 u0631_u0627_u062f_u0627_u0631_u064a u0020 u0044_u002d_u004d_u002d_u0033_u0062 u0020 u06a9_u0647 u0020 u0642_u0627_u062f_u0631 u0020 u0628_u0647 u0020 u0631_u062f_u064a_u0627_u0628_u064a u0020 u0648 u0020 u0647_u062f_u0627_u064a_u062a u0020 u0645_u0648_u0634_u0643_u200c_u0647_u0627_u064a u0020 u0645_u0647_u0627_u062c_u0645_u0020", 
        "u0627_u0633_u062a_u002e_u000d", 
        "u0631_u0627_u062f_u0627_u0631_u0647_u0627_u06cc u0020 u063a_u062f_u06cc_u0631 u0020 u0628_u0627 u0020 u0628_u0631_u062f u0020 u0628_u06cc_u0634 u0020 u0627_u0632 u0020 u0031_u0030_u0030_u0030 u0020 u06a9_u06cc_u0644_u0648_u0645_u062a_u0631_u000d"
    ]
}