{
    "bounding_box": [
        [
            59, 
            132, 
            623, 
            31
        ], 
        [
            564, 
            167, 
            118, 
            28
        ], 
        [
            547, 
            210, 
            94, 
            27
        ], 
        [
            445, 
            252, 
            196, 
            30
        ], 
        [
            555, 
            293, 
            86, 
            27
        ], 
        [
            286, 
            335, 
            355, 
            30
        ], 
        [
            80, 
            376, 
            602, 
            30
        ], 
        [
            173, 
            418, 
            509, 
            29
        ]
    ], 
    "image_height": 540, 
    "image_width": 720, 
    "transcription": [
        "u0643_u0645_u0627 u0020 u064a_u062a_u0639_u0627_u0645_u0644 u0020 u0645_u0639 u0020 u0627_u0644_u0645_u0639_u0627_u0645_u0644_u0627_u062a u0020 u0627_u0644_u0645_u0627_u0644_u064a_u0629 u0020 u0627_u0644_u0625_u0633_u0644_u0627_u0645_u064a_u0629 u0020 u0628_u062c_u0645_u064a_u0639 u0020 u0635_u0648_u0631_u0647_u0627 u0020 u0648_u0623_u0634_u0643_u0627_u0644_u0647_u0627_u0020", 
        "u0648_u0645_u0646 u0020 u0623_u0647_u0645_u0647_u0627_u003a_u000d", 
        "u0627_u0644_u0645_u0636_u0627_u0631_u0628_u0629_u000d", 
        "u0627_u0644_u0648_u0643_u0627_u0644_u0629 u0020 u0641_u064a u0020 u0627_u0644_u0627_u0633_u062a_u062b_u0645_u0627_u0631_u000d", 
        "u0627_u0644_u0645_u0631_u0627_u0628_u062d_u0629_u000d", 
        "u0627_u0644_u0625_u062c_u0627_u0631_u0629 u0020 u0627_u0644_u0645_u0646_u062a_u0647_u064a_u0629 u0020 u0645_u0639 u0020 u0627_u0644_u0645_u0648_u0627_u0639_u062f_u0629 u0020 u0628_u0627_u0644_u062a_u0645_u0644_u064a_u0643_u000d", 
        "u002a u0020 u0647_u064a_u0626_u0629 u0020 u0627_u0644_u0641_u062a_u0648_u0649 u0020 u0648_u0627_u0644_u0631_u0642_u0627_u0628_u0629 u0020 u0627_u0644_u0634_u0631_u0639_u064a_u0629_u003a_u0644_u062f_u0649 u0020 u0645_u0635_u0631_u0641 u0020 u0628_u0648_u0628_u064a_u0627_u0646 u0020 u0647_u064a_u0626_u0629 u0020 u0641_u062a_u0648_u0649_u000d", 
        "u0020_u0648_u0631_u0642_u0627_u0628_u0629 u0020 u0634_u0631_u0639_u064a_u0629 u0020 u062a_u0631_u0627_u0642_u0628 u0020 u0623_u0639_u0645_u0627_u0644_u0647 u0020 u0648_u0646_u0634_u0627_u0637_u0627_u062a_u0647 u0020 u0648_u062a_u0648_u0627_u0641_u0642 u0020 u0639_u0644_u064a_u0647_u0627_u000d"
    ]
}