{
    "bounding_box": [
        [
            309, 
            51, 
            101, 
            34
        ], 
        [
            176, 
            131, 
            509, 
            31
        ], 
        [
            111, 
            176, 
            565, 
            28
        ], 
        [
            570, 
            212, 
            115, 
            22
        ], 
        [
            110, 
            248, 
            565, 
            34
        ], 
        [
            333, 
            287, 
            352, 
            30
        ], 
        [
            161, 
            318, 
            514, 
            33
        ], 
        [
            575, 
            356, 
            110, 
            30
        ], 
        [
            45, 
            398, 
            631, 
            29
        ], 
        [
            458, 
            436, 
            227, 
            26
        ]
    ], 
    "image_height": 540, 
    "image_width": 720, 
    "transcription": [
        "u0645_u0635_u0627_u062f_u0631", 
        "u062f_u00b7 u0020 u0639_u0641_u064a_u0641 u0020 u0627_u0644_u0628_u0647_u0646_u0633_u064a_u003a u0020 u062c_u0645_u0627_u0644_u064a_u0629 u0020 u0627_u0644_u0641_u0646 u0020 u0627_u0644_u0639_u0631_u0628_u064a u0020 u0020_u0627_u0644_u0643_u0648_u064a_u062a_u002e u0020 u000d", 
        "u062d_u0633_u064a_u0646 u0020 u0645_u0624_u0646_u0633_u060c u0020 u0627_u0644_u0645_u0633_u0627_u062c_u062f_u060c u0020 u0627_u0644_u0643_u0648_u064a_u062a u0020 u060c u0020 u0631_u0633_u0627_u0626_u0644 u0020 u0627_u0644_u0645_u0639_u0631_u0641_u0629_u060c u0020 u064a_u0646_u0627_u064a_u0631_u0020", 
        "u0031_u0039_u0038_u0031_u002e u0020 u0020 u0020 u000d", 
        "u0623_u0648_u0631_u0627_u0633 u0020 u0645_u062e_u0644_u0648_u0641_u003a u0020 u0641_u0646_u0648_u0646 u0020 u0627_u0644_u0632_u062c_u0627_u062c u0020 u0648_u0627_u0644_u062e_u0632_u0641 u0020 u0648_u0627_u0644_u0645_u0639_u0627_u062f_u0646 u0020 u0645_u062c_u0644_u0629_u0020", 
        "u0627_u0644_u0648_u062d_u062f_u0629 u0020 u0035_u0036_u060c u0020 u0628_u064a_u0631_u0648_u062a u0020 u0627_u0644_u0639_u0627_u0645 u0020 u0031_u0039_u0038_u0039_u0645_u000b", 
        "u062c_u0645_u0627_u0644_u064a_u0627_u062a u0020 u0627_u0644_u0641_u0646 u0020 u0627_u0644_u0625_u0633_u0644_u0627_u0645_u064a u0020 u062a_u0638_u0647_u0631 u0020 u0641_u064a u0020 u0627_u0644_u062e_u0632_u0641 u0020 u0648_u0627_u0644_u0632_u062c_u0627_u062c_u0020", 
        "u0648_u0627_u0644_u0642_u0627_u0634_u0627_u0646_u064a_u000d", 
        "u0068_u0074_u0074_u0070_u003a_u002f_u002f_u0061_u006c_u0077_u0061_u0065_u0069_u002e_u0063_u006f_u006d_u002f_u0074_u006f_u0070_u0069_u0063_u0073_u002f_u0076_u0069_u0065_u0077_u002f_u0061_u0072_u0074_u0069_u0063_u006c_u0065_u002e_u0070_u0068_u0070_u003f_u0073_u0064_u0064", 
        "u003d_u0038_u0038_u0039_u0026_u0069_u0073_u0073_u0075_u0065_u003d_u0034_u0037_u0036_u000d"
    ]
}