{
    "bounding_box": [
        [
            33, 
            138, 
            403, 
            30
        ], 
        [
            25, 
            451, 
            24, 
            36
        ], 
        [
            126, 
            451, 
            24, 
            37
        ], 
        [
            233, 
            450, 
            24, 
            37
        ], 
        [
            332, 
            452, 
            24, 
            37
        ], 
        [
            557, 
            454, 
            24, 
            39
        ], 
        [
            26, 
            208, 
            21, 
            211
        ], 
        [
            128, 
            220, 
            21, 
            203
        ], 
        [
            234, 
            218, 
            21, 
            203
        ], 
        [
            389, 
            212, 
            102, 
            38
        ], 
        [
            389, 
            212, 
            102, 
            38
        ], 
        [
            336, 
            233, 
            21, 
            179
        ], 
        [
            385, 
            296, 
            110, 
            40
        ], 
        [
            385, 
            296, 
            110, 
            40
        ], 
        [
            384, 
            404, 
            118, 
            17
        ], 
        [
            558, 
            260, 
            21, 
            119
        ], 
        [
            499, 
            30, 
            181, 
            41
        ], 
        [
            634, 
            242, 
            26, 
            107
        ], 
        [
            655, 
            222, 
            28, 
            146
        ]
    ], 
    "image_height": 540, 
    "image_width": 720, 
    "transcription": [
        "u0645_u0631_u0627_u062d_u0644 u0020 u062a_u0637_u0648_u064a_u0631 u0020 u0627_u0644_u062a_u0639_u0644_u064a_u0645 u0020 u0627_u0644_u062d_u0643_u0648_u0645_u064a u0020 u0641_u064a u0020 u0642_u0637_u0631_u0020", 
        "u0031_u0039_u0039_u0030", 
        "u0031_u0039_u0039_u0036", 
        "u0031_u0039_u0039_u0037", 
        "u0032_u0030_u0030_u0031", 
        "u0032_u0030_u0030_u0032", 
        "u0645_u0634_u0645_u0634_u0631_u0648_u0639 u0020 u0627_u0644_u0627_u0635_u0644_u0627_u062d u0020 u0627_u0644_u0623_u0648_u0644 u0020 u0645_u0639 u0020 u0627_u0644_u064a_u0648_u0646_u064a_u0633_u0643_u0648_u0020", 
        "u0645_u0634_u0631_u0648_u0639 u0020 u0627_u0644_u0627_u0635_u0644_u0627_u062d u0020 u0627_u0644_u062b_u0627_u0646_u064a_u003a u0020 u0644_u062c_u0646_u0629 u0020 u0648_u0637_u0646_u064a_u0629", 
        "u0645_u0634_u0631_u0648_u0639 u0020 u0627_u0644_u0627_u0635_u0644_u0627_u062d u0020 u0627_u0644_u062b_u0627_u0644_u062b u0020 u0645_u0639 u0020 u0020_u0055_u004e_u0044_u0050 u0020 u0020_u0020", 
        "u0031_u002d u0020 u0625_u0635_u0644_u0627_u062d u0020 u0648_u0632_u0627_u0631_u0629 u0020 u0627_u0644_u062a_u0631_u064a_u0628_u0629_u0020", 
        "u0031_u002d u0020 u0625_u0635_u0644_u0627_u062d u0020 u0648_u0632_u0627_u0631_u0629 u0020 u0627_u0644_u062a_u0631_u064a_u0628_u0629_u0020", 
        "u0627_u0644_u062a_u0639_u0644_u064a_u0645 u0020 u0644_u0645_u0631_u062d_u0644_u0629 u0020 u062c_u062f_u064a_u062f_u0629 u0020 u0020_u0645_u0639 u0020 u00ab_u0631_u0627_u0646_u062f_u00bb", 
        "u0032_u002d u0020 u00ab_u0627_u0644_u062e_u0635_u062e_u0635_u0629_u00bb_u003a u0020 u0646_u0638_u0627_u0645 u0020 u0627_u0644_u0643_u0648_u0628_u0648_u0646_u0627_u062a_u0020", 
        "u0032_u002d u0020 u00ab_u0627_u0644_u062e_u0635_u062e_u0635_u0629_u00bb_u003a u0020 u0646_u0638_u0627_u0645 u0020 u0627_u0644_u0643_u0648_u0628_u0648_u0646_u0627_u062a_u0020", 
        "u0033_u002d u0020 u0627_u0644_u0645_u062f_u0627_u0631_u0633 u0020 u0627_u0644_u062a_u0639_u0627_u0642_u062f_u064a_u0629_u0020", 
        "u0627_u0644_u0645_u062c_u0644_u0633 u0020 u0627_u0644_u0623_u0639_u0644_u0649 u0020 u0644_u0644_u062a_u0639_u0644_u064a_u0645", 
        "u0642_u0636_u064a_u0629 u0020 u0627_u0644_u062a_u0639_u0644_u064a_u0645_u0020", 
        "u0627_u0644_u062d_u0643_u0648_u0645_u0629 u0020 u062a_u062a_u062e_u0644_u0649 u0020 u0639_u0646_u0020", 
        "u0645_u0633_u0624_u0648_u0644_u064a_u062a_u0647_u0627 u0020 u0641_u064a u0020 u0625_u0639_u062f_u0627_u062f u0020 u0627_u0644_u0646_u0634_u0623"
    ]
}