{
    "bounding_box": [
        [
            110, 
            33, 
            488, 
            38
        ], 
        [
            546, 
            294, 
            125, 
            23
        ], 
        [
            60, 
            178, 
            611, 
            21
        ], 
        [
            414, 
            206, 
            257, 
            25
        ], 
        [
            533, 
            140, 
            138, 
            24
        ], 
        [
            62, 
            337, 
            610, 
            25
        ], 
        [
            464, 
            368, 
            207, 
            20
        ]
    ], 
    "image_height": 540, 
    "image_width": 720, 
    "transcription": [
        "u062c_u0627_u06cc_u06af_u0627_u0647 u0020 u062a_u0626_u0648_u0631_u06cc u0020 u0648_u062c_u0648_u0647 u0020 u062f_u0631 u0020 u06af_u0632_u0627_u0631_u0634_u06af_u0631_u06cc u0020 u0645_u0627_u0644_u06cc_u0020", 
        "u0627_u0648_u0627_u06cc_u0644 u0020 u0642_u0631_u0646 u0020 u0628_u06cc_u0633_u062a_u0645", 
        "u062a_u0626_u0648_u0631_u06cc u0020 u0645_u0627_u0644_u06a9_u06cc_u062a u0020 u0627_u0646_u0641_u0631_u0627_u062f_u06cc u0020 u0628_u0647 u0020 u0639_u0646_u0648_u0627_u0646 u0020 u0627_u0648_u0644_u06cc_u0646 u0020 u0645_u06a9_u062a_u0628 u0020 u0641_u06a9_u0631_u06cc u0020 u06a9_u0647 u0020 u0645_u0628_u0646_u0627_u06cc u0020 u0645_u062a_u062f_u0644_u0648_u0698_u06cc_u0020", 
        "u062d_u0633_u0627_u0628_u062f_u0627_u0631_u06cc u0020 u0642_u0631_u0627_u0631 u0020 u06af_u0631_u0641_u062a u0020 u0645_u0637_u0631_u062d u0020 u0634_u062f_u002e", 
        "u0627_u0648_u0627_u06cc_u0644 u0020 u0642_u0631_u0646 u0020 u0646_u0648_u0632_u062f_u0647_u0645", 
        "u062a_u0626_u0648_u0631_u06cc u0020 u0628_u0646_u06af_u0627_u0647 u0020 u0627_u0642_u062a_u0635_u0627_u062f_u06cc u0020 u0628_u0647 u0020 u0639_u0646_u0648_u0627_u0646 u0020 u062f_u0648_u0645_u06cc_u0646 u0020 u0645_u06a9_u062a_u0628 u0020 u0641_u06a9_u0631_u06cc u0020 u0645_u0637_u0631_u062d u0020 u0634_u062f u0020 u06a9_u0647 u0020 u062c_u0627_u06cc_u06af_u0632_u06cc_u0646_u0020", 
        "u062a_u0626_u0648_u0631_u06cc u0020 u0645_u0627_u0644_u06a9_u06cc_u062a u0020 u0627_u0646_u0641_u0631_u0627_u062f_u06cc u0020 u0634_u062f"
    ]
}