{
    "bounding_box": [
        [
            328, 
            58, 
            63, 
            8
        ], 
        [
            23, 
            126, 
            641, 
            29
        ], 
        [
            23, 
            164, 
            641, 
            24
        ], 
        [
            23, 
            190, 
            641, 
            30
        ], 
        [
            531, 
            229, 
            133, 
            24
        ], 
        [
            23, 
            266, 
            641, 
            25
        ], 
        [
            23, 
            296, 
            641, 
            28
        ], 
        [
            23, 
            327, 
            641, 
            29
        ], 
        [
            260, 
            361, 
            403, 
            28
        ]
    ], 
    "image_height": 540, 
    "image_width": 720, 
    "transcription": [
        "u0627_u062c_u0645_u0627_u0639", 
        "u0645_u0646_u0638_u0648_u0631 u0020 u0627_u0632 u0020 u0627_u062c_u0645_u0627_u0639_u060c u0020 u0631_u0633_u064a_u062f_u0646 u0020 u0628_u0647 u0020 u0627_u062a_u0641_u0627_u0642 u0020 u0646_u0638_u0631 u0020 u062f_u0631 u0020 u0645_u0648_u0631_u062f u0020 u064a_u0643 u0020 u0627_u064a_u062f_u0647 u0020 u0648 u0020 u06af_u0627_u0647 u0020 u062a_u0644_u0627_u0634_u0020", 
        "u0628_u0631_u0627_u064a u0020 u0645_u0634_u062e_u0635 u0020 u0633_u0627_u062e_u062a_u0646 u0020 u062a_u0641_u0627_u0648_u062a_u200c_u0647_u0627 u0020 u0627_u0633_u062a_u002e u0020 u0627_u062c_u0645_u0627_u0639 u0020 u0628_u0647 u0020 u0645_u0639_u0646_u064a u0020 u064a_u0627_u0641_u062a_u0646 u0020 u067e_u0627_u0633_u062e u0020 u0635_u062d_u064a_u062d_u0020", 
        "u0646_u064a_u0633_u062a_u060c u0020 u0628_u0644_u0643_u0647 u0020 u0635_u0631_u0641_u0627_u064b u0020 u0628_u0647 u0020 u062a_u0648_u0627_u0641_u0642 u0020 u0631_u0633_u06cc_u062f_u0646 u0020 u0634_u0631_u0643_u062a_u200c_u0643_u0646_u0646_u062f_u06af_u0627_u0646 u0020 u062f_u0631 u0020 u064a_u0643 u0020 u0633_u0637_u062d u0020 u062e_u0627_u0635_u06cc u0020 u0627_u0632_u0020", 
        "u0645_u0648_u0636_u0648_u0639 u0020 u0627_u0633_u062a_u002e_u000d", 
        "u0627_u0643_u062b_u0631_u064a_u062a u0020 u0645_u0642_u0627_u0644_u0627_u062a_u060c u0020 u062c_u0646_u0633 u0020 u0648 u0020 u0646_u0648_u0639 u0020 u0645_u0639_u064a_u0627_u0631 u0020 u0645_u0648_u0631_u062f u0020 u0627_u0633_u062a_u0641_u0627_u062f_u0647 u0020 u062f_u0631 u0020 u062a_u0639_u0631_u064a_u0641 u0020 u0648 u0020 u062a_u0639_u064a_u064a_u0646_u0020", 
        "u0627_u062c_u0645_u0627_u0639 u0020 u0631_u0627 u0020 u0628_u0631 u0020 u0627_u0633_u0627_u0633 u0020 u062a_u0641_u0633_u064a_u0631 u0020 u0646_u0645_u0648_u0646_u0647_u200c_u0647_u0627 u0020 u0645_u064a_u200c_u062f_u0627_u0646_u0646_u062f_u002e u0020 u0644_u0630_u0627 u0020 u0627_u0633_u0627_u0633_u0627_u064b u0020 u0632_u0645_u0627_u0646_u064a u0020 u062f_u0631 u0020 u0645_u0648_u0631_u062f_u0020", 
        "u0627_u062c_u0645_u0627_u0639 u0020 u062a_u0635_u0645_u064a_u0645_u200c_u06af_u064a_u0631_u064a u0020 u0634_u062f_u0647 u0020 u0643_u0647 u0020 u062f_u0631_u0635_u062f u0020 u0645_u0634_u062e_u0635_u064a u0020 u0627_u0632 u0020 u0622_u0631_u0627 u0020 u062f_u0631_u0648_u0646 u0020 u0633_u0637_u062d u0020 u062e_u0627_u0635_u064a_u0020", 
        "u0627_u0632 u0020 u0645_u0648_u0636_u0648_u0639 u0020 u0642_u0631_u0627_u0631 u0020 u06af_u064a_u0631_u062f_u002e u0020 u0028_u0035_u0031 u0020 u0627_u0644_u06cc u0020 u0031_u0030_u0030 u0020 u062f_u0631_u0635_u062f_u0029"
    ]
}