{
    "bounding_box": [
        [
            228, 
            50, 
            359, 
            40
        ], 
        [
            310, 
            125, 
            356, 
            27
        ], 
        [
            119, 
            176, 
            570, 
            24
        ], 
        [
            124, 
            216, 
            542, 
            25
        ], 
        [
            448, 
            257, 
            218, 
            22
        ], 
        [
            116, 
            303, 
            550, 
            25
        ], 
        [
            132, 
            345, 
            535, 
            22
        ], 
        [
            136, 
            381, 
            531, 
            27
        ], 
        [
            122, 
            424, 
            544, 
            25
        ], 
        [
            569, 
            466, 
            97, 
            21
        ]
    ], 
    "image_height": 540, 
    "image_width": 720, 
    "transcription": [
        "u0627_u0644_u0645_u0633_u062a_u0648_u0649 u0020 u0627_u0644_u0642_u064a_u0645_u0649 u0020 u0648 u0020 u0627_u0644_u0641_u0643_u0631_u0649", 
        "u0022_u0642_u064a_u0645 u0020 u062d_u0627_u0643_u0645_u0629 u0020 u062a_u0639_u0644_u0648 u0020 u0641_u0648_u0642 u0020 u0627_u0644_u0623_u0634_u062e_u0627_u0635 u0020 u0648 u0020 u0627_u0644_u0623_u0634_u064a_u0627_u0621_u201c_u000d", 
        "u0648_u0646_u0642_u0635_u062f u0020 u0020_u0628_u0647_u0627 u0020 u0627_u0644_u0648_u0639_u064a u0020 u0627_u0644_u062c_u0645_u0639_u064a u0020 u0627_u0644_u062d_u0627_u0643_u0645 u0020 u0644_u0642_u064a_u0645 u0020 u0627_u0644_u0639_u0645_u0644 u0020 u0648_u0627_u0644_u0625_u0646_u062a_u0627_u062c u0020 u0648_u0627_u0644_u0627_u0633_u062a_u0647_u0644_u0627_u0643 u0020 u0645_u0646_u0020", 
        "u0645_u0641_u0627_u0647_u064a_u0645 u0020 u062d_u0636_u0627_u0631_u064a_u0629 u0020 u0648_u0645_u0631_u062c_u0639_u064a_u0629 u0020 u0645_u0631_u062a_u0628_u0637_u0629 u0020 u0628_u0645_u0631_u0643_u0632_u064a_u0629 u0020 u0627_u0644_u0625_u0646_u0633_u0627_u0646 u0020 u0641_u064a u0020 u0647_u0630_u0627 u0020 u0627_u0644_u0643_u0648_u0646_u0020", 
        "u0648_u0627_u0631_u062a_u0628_u0627_u0637_u0647 u0020 u0628_u0627_u0644_u0646_u0638_u0631_u0629 u0020 u0627_u0644_u0625_u064a_u0645_u0627_u0646_u064a_u0629_u000d", 
        "u062d_u064a_u062b u0020 u064a_u0636_u0639 u0020 u0627_u0644_u0645_u0633_u062a_u0648_u0649 u0020 u0627_u0644_u0641_u0643_u0631_u0649 u0020 u0648 u0020 u0627_u0644_u0642_u064a_u0645_u0649 u0020 u062a_u0648_u0635_u064a_u0641 u0020 u0645_u0627 u0020 u064a_u062a_u0645_u0646_u0627_u0647 u0020 u0627_u0644_u0645_u0635_u0631_u064a_u0648_u0646_u0020", 
        "u0641_u0649 u0020 u062d_u064a_u0627_u062a_u0647_u0645 u0020 u0645_u0646 u0020 u0642_u064a_u0645 u0020 u0648 u0020 u062d_u0642_u0648_u0642 u0020 u0648 u0020 u0635_u0641_u0627_u062a u0020 u0648_u0648_u0627_u062c_u0628_u0627_u062a u0020 u0648 u0020 u0645_u0627 u0020 u064a_u0646_u062a_u0638_u0631_u0648_u0646_u0647 u0020 u0645_u0646_u0020", 
        "u0645_u0624_u0633_u0633_u0627_u062a u0020 u0627_u0644_u0645_u062c_u062a_u0645_u0639 u0020 u0627_u0644_u0645_u0635_u0631_u0649 u0020 u0628_u0623_u0637_u0631_u0627_u0641_u0647 u0020 u0627_u0644_u0641_u0627_u0639_u0644_u0647 u0020 u064a_u0639_u062a_u0645_u062f u0020 u0639_u0644_u0649 u0020 u062a_u062c_u0645_u0639 u0020 u0645_u0646_u0020", 
        "u0627_u0644_u062e_u0628_u0631_u0627_u062a u0020 u0648 u0020 u0627_u0644_u062f_u0631_u0633_u0627_u062a u0020 u0627_u0644_u0645_u062c_u062a_u0645_u0639_u064a_u0629 u0020 u0644_u0648_u0636_u0639 u0020 u0631_u0624_u064a_u0629 u0020 u0645_u062a_u0643_u0627_u0645_u0644_u0647 u0020 u062a_u0639_u0645_u0644 u0020 u0645_u0639 u0020 u0628_u0627_u0642_u0649_u0020", 
        "u0627_u0644_u0645_u0633_u062a_u0648_u064a_u0627_u062a_u002e_u000d"
    ]
}