{
    "bounding_box": [
        [
            644, 
            496, 
            14, 
            14
        ], 
        [
            664, 
            40, 
            48, 
            14
        ], 
        [
            344, 
            59, 
            310, 
            18
        ], 
        [
            291, 
            79, 
            362, 
            20
        ], 
        [
            318, 
            102, 
            335, 
            18
        ], 
        [
            610, 
            124, 
            102, 
            17
        ], 
        [
            23, 
            146, 
            689, 
            18
        ], 
        [
            518, 
            165, 
            166, 
            15
        ], 
        [
            659, 
            187, 
            53, 
            14
        ], 
        [
            457, 
            206, 
            228, 
            18
        ], 
        [
            502, 
            228, 
            183, 
            17
        ], 
        [
            232, 
            249, 
            452, 
            17
        ], 
        [
            289, 
            269, 
            396, 
            20
        ], 
        [
            583, 
            296, 
            102, 
            13
        ], 
        [
            525, 
            314, 
            160, 
            18
        ], 
        [
            240, 
            335, 
            445, 
            19
        ], 
        [
            333, 
            356, 
            351, 
            19
        ], 
        [
            147, 
            378, 
            538, 
            19
        ], 
        [
            671, 
            404, 
            41, 
            13
        ], 
        [
            427, 
            422, 
            258, 
            18
        ], 
        [
            610, 
            446, 
            102, 
            15
        ], 
        [
            416, 
            465, 
            268, 
            18
        ], 
        [
            415, 
            485, 
            270, 
            20
        ], 
        [
            389, 
            508, 
            296, 
            18
        ]
    ], 
    "image_height": 540, 
    "image_width": 720, 
    "transcription": [
        "u0033_u0037", 
        "u0627_u0644_u062b_u0631_u062b_u0627_u0631_u003a_u000d", 
        "u064a_u062a_u062d_u062f_u062b u0020 u0639_u0646 u0020 u0643_u0644 u0020 u0634_u064a_u0621 u0020 u0648_u0641_u064a u0020 u0643_u0644 u0020 u0634_u064a_u0621 u0020 u0648_u064a_u0639_u062a_u0642_u062f u0020 u0623_u0646_u0647 u0020 u0645_u0647_u0645 u0020 u062c_u062f_u0627_u002e_u000d", 
        "u064a_u0645_u0643_u0646 u0020 u0645_u0644_u0627_u062d_u0638_u0629 u0020 u0631_u063a_u0628_u062a_u0647 u0020 u0627_u0644_u062f_u0627_u0626_u0645_u0629 u0020 u0641_u064a u0020 u0627_u0644_u062a_u0639_u0627_u0644_u064a u0020 u0648_u0644_u0643_u0646_u0647 u0020 u0623_u0636_u0639_u0641 u0020 u0645_u0645_u0627 u0020 u0646_u062a_u0648_u0642_u0639_u002e_u000d", 
        "u064a_u062a_u0643_u0644_u0645 u0020 u0641_u064a u0020 u0643_u0644 u0020 u0634_u064a_u0621 u0020 u0628_u0627_u0633_u062a_u062b_u0646_u0627_u0621 u0020 u0627_u0644_u0645_u0648_u0636_u0648_u0639 u0020 u0648_u0628_u0637_u0631_u064a_u0642_u0629 u0020 u063a_u064a_u0631 u0020 u0645_u0636_u0646_u064a_u0629_u002e_u000d", 
        "u0643_u064a_u0641 u0020 u0646_u062a_u0639_u0627_u0645_u0644 u0020 u0645_u0639_u0647_u061f_u000d", 
        "u0642_u0627_u0637_u0639_u0647 u0020 u0641_u064a u0020 u0645_u0646_u062a_u0635_u0641 u0020 u062a_u0646_u0641_u0633_u0647_u060c u0020 u0648_u0639_u0646_u062f_u0645_u0627 u0020 u064a_u062d_u0627_u0648_u0644 u0020 u0627_u0633_u062a_u0639_u0627_u062f_u0629 u0020 u0623_u0646_u0641_u0627_u0633_u0647_u003a u0020 u064a_u0627 u0020 u0633_u064a_u062f u0020 u0623_u0644_u0633_u0646_u0627 u0020 u0628_u0639_u064a_u062f_u064a_u0646 u0020 u0628_u0639_u0636 u0020 u0627_u0644_u0634_u064a_u0621 u0020 u0639_u0646 u0020 u0627_u0644_u0645_u0648_u0636_u0648_u0639_u061f u0020 u0648_u0625_u0630_u0627 u0020 u0644_u0645 u0020 u064a_u0646_u0641_u0639_u0643 u0020 u0647_u0630_u0627_u0020", 
        "u2026 u0020 u0627_u0646_u0638_u0631 u0020 u0625_u0644_u0649 u0020 u0633_u0627_u0639_u062a_u0643 u0020 u0628_u0627_u0646_u0641_u0639_u0627_u0644_u002e_u000d", 
        "u0627_u0644_u062e_u062c_u0648_u0644_u003a_u000d", 
        "u063a_u064a_u0631 u0020 u0648_u0627_u062b_u0642 u0020 u0645_u0646 u0020 u0646_u0641_u0633_u0647 u0020 u0648_u0645_u0646 u0020 u0627_u0644_u0633_u0647_u0648_u0644_u0629 u0020 u0625_u0631_u0628_u0627_u0643_u0647_u002e_u000d", 
        "u0645_u062a_u062d_u0641_u0638 u0020 u0648_u064a_u062d_u0645_u0631 u0020 u0648_u062c_u0647_u0647 u0020 u0644_u0623_u0642_u0644 u0020 u0645_u0624_u062b_u0631_u002e_u000d", 
        "u064a_u062a_u0635_u0641 u0020 u0633_u0644_u0648_u0643_u0647 u0020 u0628_u0635_u0641_u0629 u0020 u0639_u0627_u0645_u0629 u0020 u0628_u0627_u0644_u0641_u0634_u0644 u0020 u0641_u064a u0020 u062d_u064a_u0627_u062a_u0647 u0020 u0627_u0644_u064a_u0648_u0645_u064a_u0629 u0020 u0627_u0644_u0639_u0645_u0644_u064a_u0629 u0020 u0648_u0643_u0630_u0644_u0643 u0020 u062d_u064a_u0627_u062a_u0647 u0020 u0627_u0644_u062e_u0627_u0635_u0629_u002e_u000d", 
        "u062e_u0627_u0626_u0641 u0020 u0645_u0646 u0020 u0623_u0646 u0020 u064a_u062a_u0643_u0644_u0645 u0020 u0645_u0639 u0020 u0623_u0646 u0020 u0644_u062f_u064a_u0647 u0020 u0627_u0644_u0643_u062b_u064a_u0631 u0020 u0648_u064a_u062d_u0627_u0648_u0644 u0020 u0627_u0644_u0627_u062e_u062a_u0628_u0627_u0621 u0020 u062e_u0644_u0641 u0020 u0627_u0644_u0645_u062c_u0645_u0648_u0639_u0629_u002e_u000d", 
        "u0643_u064a_u0641 u0020 u0646_u062a_u0639_u0627_u0645_u0644 u0020 u0645_u0639_u0647_u061f_u000d", 
        "u0648_u062c_u0647 u0020 u0625_u0644_u064a_u0647 u0020 u0627_u0644_u0623_u0633_u0626_u0644_u0629 u0020 u0644_u062a_u0642_u062f_u064a_u0645 u0020 u0631_u0623_u064a_u0647_u002e_u000d", 
        "u062d_u0627_u0648_u0644 u0020 u0623_u0646 u0020 u062a_u0639_u0645_u0644 u0020 u0639_u0644_u0649 u0020 u0632_u064a_u0627_u062f_u0629 u0020 u062b_u0642_u062a_u0647 u0020 u0628_u0646_u0641_u0633_u0647 u0020 u0648_u0630_u0644_u0643 u0020 u0628_u0648_u0636_u0639_u0647 u0020 u0641_u064a u0020 u0645_u0648_u0627_u0642_u0641 u0020 u0645_u0636_u0645_u0648_u0646 u0020 u0646_u062c_u0627_u062d_u0647_u0627_u002e_u000d", 
        "u0644_u0627 u0020 u062a_u0642_u062f_u0645 u0020 u0625_u0644_u064a_u0647 u0020 u0627_u0644_u0628_u062f_u0627_u0626_u0644 u0020 u0648_u0644_u0643_u0646 u0020 u062d_u0627_u0648_u0644 u0020 u0625_u0639_u0637_u0627_u0626_u0647 u0020 u0645_u0648_u0642_u0641 u0020 u0648_u0627_u062d_u062f u0020 u0644_u064a_u062b_u0628_u062a u0020 u0639_u0644_u064a_u0647_u002e_u000d", 
        "u062a_u062d_u0641_u064a_u0632_u0647 u0020 u0639_u0646 u0020 u0637_u0631_u064a_u0642 u0020 u0625_u0638_u0647_u0627_u0631 u0020 u0623_u0646 u0020 u0627_u0644_u0625_u0646_u0633_u0627_u0646 u0020 u064a_u062d_u062a_u0631_u0645 u0020 u0644_u062e_u0628_u0631_u0627_u062a_u0647 u0020 u0648_u0645_u0639_u0644_u0648_u0645_u0627_u062a_u0647 u0020 u0648_u0625_u0638_u0647_u0627_u0631_u0647_u0627 u0020 u0644_u0627_u0633_u062a_u0641_u0627_u062f_u0629 u0020 u0627_u0644_u0622_u062e_u0631_u064a_u0646 u0020 u0645_u0646_u0647_u0627_u002e_u000d", 
        "u0627_u0644_u0639_u0646_u064a_u062f_u003a_u000d", 
        "u064a_u062a_u062c_u0627_u0647_u0644 u0020 u0648_u062c_u0647_u0629 u0020 u0646_u0638_u0631_u0643 u0020 u0648_u0644_u0627 u0020 u064a_u0631_u063a_u0628 u0020 u0641_u064a u0020 u0627_u0644_u0627_u0633_u062a_u0645_u0627_u0639_u002e_u000d", 
        "u0643_u064a_u0641 u0020 u0646_u062a_u0639_u0627_u0645_u0644 u0020 u0645_u0639_u0647_u061f_u000d", 
        "u0627_u062c_u0639_u0644 u0020 u0627_u0644_u0645_u062c_u0645_u0648_u0639_u0629 u0020 u0645_u0648_u062d_u062f_u0629 u0020 u0627_u0644_u0631_u0623_u064a u0020 u0623_u0645_u0627_u0645 u0020 u0648_u062c_u0647_u0629 u0020 u0646_u0638_u0631_u0647_u002e_u000d", 
        "u0623_u062e_u0628_u0631_u0647 u0020 u0623_u0646_u0643 u0020 u0633_u062a_u0643_u0648_u0646 u0020 u0628_u0639_u064a_u062f_u0627 u0020 u0644_u062f_u0631_u0627_u0633_u0629 u0020 u0645_u0634_u0643_u0644_u062a_u0647 u0020 u0641_u064a_u0645_u0627 u0020 u0628_u0639_u062f_u002e_u000d", 
        "u0627_u0637_u0644_u0628 u0020 u0645_u0646_u0647 u0020 u0623_u0646 u0020 u064a_u0642_u0628_u0644 u0020 u0648_u062c_u0647_u0629 u0020 u0646_u0638_u0631 u0020 u0627_u0644_u0645_u062c_u0645_u0648_u0639_u0629 u0020 u0644_u0645_u062f_u0629 u0020 u0642_u0635_u064a_u0631_u0629_u002e"
    ]
}