{
    "bounding_box": [
        [
            201, 
            24, 
            336, 
            31
        ], 
        [
            207, 
            57, 
            331, 
            37
        ], 
        [
            227, 
            96, 
            310, 
            36
        ], 
        [
            223, 
            134, 
            314, 
            37
        ], 
        [
            215, 
            173, 
            323, 
            37
        ], 
        [
            212, 
            213, 
            325, 
            35
        ], 
        [
            240, 
            250, 
            298, 
            36
        ], 
        [
            207, 
            288, 
            331, 
            37
        ], 
        [
            243, 
            327, 
            294, 
            36
        ], 
        [
            225, 
            365, 
            312, 
            35
        ], 
        [
            259, 
            408, 
            279, 
            31
        ], 
        [
            191, 
            441, 
            346, 
            37
        ], 
        [
            238, 
            481, 
            299, 
            36
        ], 
        [
            199, 
            519, 
            338, 
            36
        ]
    ], 
    "image_height": 540, 
    "image_width": 720, 
    "transcription": [
        "u0628_u0639_u062f u0020 u0627_u0644_u062a_u0644_u0648_u062b u0020 u0627_u0644_u0642_u0627_u062a_u0644 u0020 u0644_u0645_u064a_u0627_u0647 u0020 u0627_u0644_u0646_u064a_u0644 u0020 u0633_u0648_u0627_u0621_u0020", 
        "u0645_u0646 u0020 u0627_u0644_u0645_u062e_u0644_u0641_u0627_u062a u0020 u0627_u0644_u0627_u062f_u0645_u064a_u0629 u0020 u0648 u0020 u0627_u0644_u0635_u0646_u0627_u0639_u064a_u0629_u0020", 
        "u0627_u0648 u0020 u0627_u0644_u0635_u0631_u0641 u0020 u0627_u0644_u0635_u062d_u0649 u0020 u0648_u0627_u0644_u0632_u0631_u0627_u0639_u064a_u0020", 
        "u0648_u0647_u0644 u0020 u062a_u0648_u062c_u062f u0020 u0637_u0631_u0642 u0020 u062d_u062f_u064a_u062b_u0629 u0020 u0644_u062a_u0642_u0646_u064a_u0629 u0020 u0648_u0020", 
        "u062a_u0637_u0647_u064a_u0631 u0020 u0627_u0644_u0645_u064a_u0627_u0647 u0020 u063a_u064a_u0631 u0020 u0627_u0644_u0646_u0638_u0627_u0645 u0020 u0627_u0644_u0645_u062a_u0628_u0639 u0020 u002e_u0020", 
        "u0648_u0627_u0644_u0645_u0628_u064a_u062f_u0627_u062a u0020 u0648 u0020 u0627_u0644_u0623_u0633_u0645_u062f_u0629 u0020 u0648_u0627_u0644_u062d_u064a_u0648_u0627_u0646_u0627_u062a_u0020", 
        "u0627_u0644_u0646_u0627_u0641_u0642_u0629 u0020 u0648_u0627_u0644_u0633_u0644_u0648_u0643 u0020 u0627_u0644_u0633_u0649_u0621 u0020 u0644_u0628_u0639_u0636_u0020", 
        "u0627_u0644_u0627_u0641_u0631_u0627_u062f u0020 u0643_u064a_u0641 u0020 u0646_u0636_u0645_u0646 u0020 u0644_u0627_u0646_u0641_u0633_u0646_u0627 u0020 u0643_u0648_u0628_u0020", 
        "u0645_u0627_u0621 u0020 u0646_u0638_u064a_u0641_u0627 u0020 u0648_u0635_u062d_u064a_u0627 u0020 u064a_u062a_u0646_u0627_u0633_u0628 u0020 u0645_u0639_u0020", 
        "u0627_u0644_u0645_u0648_u0627_u0635_u0641_u0627_u062a u0020 u0627_u0644_u0639_u0627_u0644_u0645_u064a_u0629 u0020 u0648_u0645_u0627_u0630_u0627 u0020 u062a_u0641_u0639_u0644_u0020", 
        "u0627_u062c_u0647_u0632_u0629 u0020 u0627_u0644_u062f_u0648_u0644_u0629 u0020 u0627_u0644_u0645_u0639_u0646_u064a_u0629 u0020 u0644_u062d_u0645_u0627_u064a_u0629_u0020", 
        "u0627_u0644_u0645_u0648_u0627_u0637_u0646_u064a_u0646 u0020 u0645_u0646 u0020 u0627_u0649 u0020 u062a_u0644_u0648_u062b u0020 u0642_u0627_u062f_u0645_u061f u0020 u0648_u0647_u0644_u0020", 
        "u0635_u062d_u064a_u062d u0020 u0625_u0646 u0020 u0627_u0644_u0645_u064a_u0627_u0647 u0020 u0641_u0649 u0020 u0627_u0644_u0642_u0627_u0647_u0631_u0629 u0020 u0648_u0020", 
        "u0627_u0644_u0645_u062d_u0627_u0641_u0638_u0627_u062a u0020 u0646_u0642_u064a_u0629 u0020 u0031_u0030_u0030_u0025 u0020 u0633_u0648_u0627_u0621 u0020 u0645_u0646_u0020"
    ]
}