{
    "bounding_box": [
        [
            177, 
            59, 
            354, 
            38
        ], 
        [
            389, 
            127, 
            272, 
            26
        ], 
        [
            356, 
            161, 
            270, 
            25
        ], 
        [
            342, 
            202, 
            284, 
            21
        ], 
        [
            376, 
            236, 
            249, 
            23
        ], 
        [
            320, 
            274, 
            305, 
            25
        ], 
        [
            449, 
            309, 
            176, 
            23
        ], 
        [
            360, 
            343, 
            265, 
            29
        ], 
        [
            338, 
            383, 
            287, 
            22
        ], 
        [
            482, 
            418, 
            143, 
            21
        ]
    ], 
    "image_height": 540, 
    "image_width": 720, 
    "transcription": [
        "u00a0_u0627_u0644_u0642_u0633_u0645 u0020 u0033_u003a u0020 u0625_u0646_u0634_u0627_u0621 u0020 u0642_u0627_u0639_u062f_u0629 u0020 u0628_u064a_u0627_u0646_u0627_u062a_u0020", 
        "u0641_u064a u0020 u0647_u0630_u0627 u0020 u0627_u0644_u0642_u0633_u0645 u0020 u0633_u0648_u0641 u0020 u062a_u062a_u0639_u0644_u0645 u0020 u0643_u064a_u0641_u064a_u0629_u003a_u000d", 
        "u062a_u062e_u0637_u064a_u0637 u0020 u0623_u0633_u0627_u0633_u064a_u0627_u062a u0020 u0642_u0627_u0639_u062f_u0629 u0020 u0627_u0644_u0628_u064a_u0627_u0646_u0627_u062a_u000d", 
        "u0020_u0625_u0646_u0634_u0627_u0621 u0020 u0642_u0627_u0639_u062f_u0629 u0020 u0628_u064a_u0627_u0646_u0627_u062a u0020 u0641_u0627_u0631_u063a_u0629 u0020 u062c_u062f_u064a_u062f_u0629_u000d", 
        "u0020_u0625_u0646_u0634_u0627_u0621 u0020 u0642_u0627_u0639_u062f_u0629 u0020 u0628_u064a_u0627_u0646_u0627_u062a u0020 u0645_u0646 u0020 u0642_u0627_u0644_u0628_u000d", 
        "u0020_u0641_u062a_u062d u0020 u0648_u0639_u0631_u0636 u0020 u0643_u0627_u0626_u0646_u0627_u062a u0020 u0642_u0627_u0639_u062f_u0629 u0020 u0627_u0644_u0628_u064a_u0627_u0646_u0627_u062a_u000d", 
        "u0020_u062a_u0646_u0635_u064a_u0628 u0020 u062c_u0632_u0621 u0020 u0627_u0644_u062a_u0646_u0642_u0644_u000d", 
        "u0020_u0627_u0644_u062a_u0646_u0642_u0644 u0020 u0641_u064a u0020 u0623_u0646_u062d_u0627_u0621 u0020 u0642_u0627_u0639_u062f_u0629 u0020 u0627_u0644_u0628_u064a_u0627_u0646_u0627_u062a_u000d", 
        "u0020_u0625_u0636_u0627_u0641_u0629 u0020 u0648_u062a_u062d_u0631_u064a_u0631 u0020 u0648_u062d_u0630_u0641 u0020 u0627_u0644_u0633_u062c_u0644_u0627_u062a_u000d", 
        "u0020_u0637_u0628_u0627_u0639_u0629 u0020 u0627_u0644_u0633_u062c_u0644_u0627_u062a"
    ]
}