{
    "bounding_box": [
        [
            323, 
            30, 
            353, 
            39
        ], 
        [
            53, 
            118, 
            617, 
            29
        ], 
        [
            54, 
            148, 
            593, 
            29
        ], 
        [
            503, 
            179, 
            143, 
            29
        ], 
        [
            47, 
            209, 
            600, 
            32
        ], 
        [
            62, 
            243, 
            585, 
            29
        ], 
        [
            59, 
            274, 
            588, 
            29
        ], 
        [
            417, 
            304, 
            230, 
            29
        ], 
        [
            45, 
            334, 
            602, 
            29
        ], 
        [
            52, 
            364, 
            595, 
            27
        ], 
        [
            96, 
            395, 
            551, 
            29
        ], 
        [
            408, 
            425, 
            239, 
            29
        ]
    ], 
    "image_height": 540, 
    "image_width": 720, 
    "transcription": [
        "u062b_u0627_u0644_u062b_u0627_u003a u0020 u0627_u0644_u0646_u0638_u0631_u064a_u0627_u062a u0020 u0627_u0644_u0627_u062c_u062a_u0645_u0627_u0639_u064a_u0629_u003a", 
        "u0648_u0647_u064a u0020 u0627_u0644_u062a_u064a u0020 u062a_u0639_u062a_u0645_u062f u0020 u0639_u0644_u0649 u0020 u0627_u0644_u0648_u0627_u0642_u0639 u0020 u0627_u0644_u0627_u062c_u062a_u0645_u0627_u0639_u064a u0020 u0648_u062d_u0633_u0628_u0647_u0627 u0020 u0623_u0646 u0020 u0627_u0644_u062f_u0648_u0644_u0629 u0020 u062a_u0646_u0634_u0623 u0020 u0646_u062a_u064a_u062c_u0629_u0020", 
        "u0627_u0644_u0635_u0631_u0627_u0639 u0020 u0627_u0644_u0628_u0634_u0631_u064a u0020 u0641_u064a u0020 u0645_u0631_u062d_u0644_u0629 u0020 u0645_u0646 u0020 u0645_u0631_u0627_u062d_u0644 u0020 u0627_u0644_u062a_u0627_u0631_u064a_u062e u0020 u0648_u062a_u0646_u062a_u0647_u064a u0020 u0628_u0633_u064a_u0637_u0631_u0629 u0020 u0641_u0626_u0629_u0020", 
        "u0639_u0644_u0649 u0020 u0641_u0626_u0629 u0020 u0623_u062e_u0631_u0649_u002e_u000b", 
        "u0031_u002d u0020 u0646_u0638_u0631_u064a_u0629 u0020 u0627_u0644_u0642_u0648_u0629 u0020 u0648_u0627_u0644_u063a_u0644_u0628_u0629_u003a u0020 u0646_u0627_u062f_u0649 u0020 u0628_u0647_u0627 u0020 u0627_u0644_u0639_u062f_u064a_u062f u0020 u0645_u0646 u0020 u0627_u0644_u0641_u0644_u0627_u0633_u0641_u0629 u0020 u062d_u064a_u062b u0020 u064a_u0642_u0648_u0644_u0020", 
        "u0627_u0644_u0641_u064a_u0644_u0633_u0648_u0641 u0020 u0627_u0644_u064a_u0648_u0646_u0627_u0646_u064a u0020 u0022_u0628_u0644_u0648_u0644_u062a_u0627_u0643_u0022 u0020 u0623_u0646 u0020 u0627_u0644_u062f_u0648_u0644_u0629 u0020 u062e_u0644_u0642_u062a u0020 u0645_u0646 u0020 u0627_u0644_u0639_u062f_u0648_u0627_u0646 u0020 u0648_u064a_u0642_u0648_u0644_u0020", 
        "u0623_u064a_u0636_u0627 u0020 u0645_u064a_u0643_u064a_u0627_u0641_u064a_u0644_u064a u0020 u0641_u064a u0020 u0643_u062a_u0627_u0628_u0647_u0022 u0020 u0627_u0644_u0623_u0645_u064a_u0631_u0022 u0020 u0623_u0646 u0020 u0627_u0644_u0635_u0631_u0627_u0639 u0020 u0627_u0644_u062c_u0645_u0639_u0648_u064a u0020 u064a_u0646_u062c_u0645 u0020 u0639_u0646_u0647_u0020", 
        "u0641_u0626_u0629 u0020 u0645_u0633_u064a_u0637_u0631_u0629 u0020 u0648_u0641_u0626_u0629 u0020 u062d_u0627_u0643_u0645_u0629 u0020 u000b", 
        "u0648_u0645_u0646 u0020 u0647_u0646_u0627 u0020 u064a_u0645_u0643_u0646 u0020 u0627_u0644_u0642_u0648_u0644 u0020 u0623_u0646 u0020 u0627_u0644_u0633_u0644_u0637_u0629 u0020 u0641_u064a u0020 u0627_u0644_u062f_u0648_u0644_u0629 u0020 u062a_u0639_u062a_u0645_u062f u0020 u0639_u0644_u0649 u0020 u0627_u0644_u0642_u0648_u0629 u0020 u0648_u0627_u0644_u063a_u0644_u0628_u0629_u060c_u0020", 
        "u063a_u064a_u0631 u0020 u0623_u0646 u0020 u0645_u064a_u0643_u064a_u0627_u0641_u064a_u0644_u064a u0020 u0623_u0644_u0636_u0627_u0641 u0020 u0641_u0643_u0631_u0629 u0020 u0627_u0644_u062d_u0646_u0643_u0629 u0020 u0648_u0627_u0644_u062f_u0647_u0627_u0621 u0020 u0639_u0646_u062f u0020 u0627_u0644_u062d_u0643_u0627_u0645 u0020 u0648_u0646_u062c_u062f u0020 u0623_u0646_u0020", 
        "u0627_u0644_u0642_u0648_u0629 u0020 u0648_u0627_u0644_u063a_u0644_u0628_u0629 u0020 u0648_u062c_u062f_u062a u0020 u0637_u0631_u064a_u0642_u0647_u0627 u0020 u0641_u064a u0020 u0646_u0634_u0648_u0621 u0020 u0628_u0639_u0636 u0020 u0627_u0644_u062f_u0648_u0644 u0020 u0645_u062b_u0644 u0020 u0638_u0627_u0647_u0631_u0629_u0020", 
        "u0627_u0644_u0627_u0633_u062a_u0639_u0645_u0627_u0631 u0020 u0627_u0644_u0623_u0648_u0631_u0628_u064a u0020 u0644_u0644_u0642_u0627_u0631_u0627_u062a_u002e"
    ]
}