{
    "bounding_box": [
        [
            16, 
            99, 
            646, 
            22
        ], 
        [
            206, 
            123, 
            456, 
            22
        ], 
        [
            174, 
            151, 
            487, 
            22
        ], 
        [
            16, 
            179, 
            646, 
            22
        ], 
        [
            589, 
            205, 
            73, 
            18
        ], 
        [
            31, 
            231, 
            630, 
            22
        ], 
        [
            16, 
            259, 
            646, 
            22
        ], 
        [
            402, 
            283, 
            260, 
            22
        ], 
        [
            298, 
            23, 
            111, 
            20
        ], 
        [
            273, 
            66, 
            162, 
            22
        ]
    ], 
    "image_height": 540, 
    "image_width": 720, 
    "transcription": [
        "u062a_u0646_u062f_u0645_u062c u0020 u0641_u064a u0020 u0647_u0630_u0647 u0020 u0627_u0644_u062d_u0643_u0648_u0645_u0629 u0020 u0627_u0644_u0633_u0644_u0637_u0627_u062a u0020 u0648_u0628_u0627_u0644_u0630_u0627_u062a u0020 u0627_u0644_u0633_u0644_u0637_u062a_u064a_u0646 u0020 u0627_u0644_u062a_u0634_u0631_u064a_u0639_u064a_u0629 u0020 u0648_u0627_u0644_u062a_u0646_u0641_u064a_u0630_u064a_u0629 u0020 u0628_u064a_u062f u0020 u0627_u0644_u062c_u0645_u0639_u064a_u0629 u0020 u0627_u0644_u0646_u064a_u0627_u0628_u064a_u0629 u0020 u060c_u0020", 
        "u0648_u0627_u0644_u0627_u0646_u062f_u0645_u0627_u062c u0020 u064a_u0643_u0648_u0646 u0020 u0644_u0635_u0627_u0644_u062d u0020 u0627_u0644_u0633_u0644_u0637_u0629 u0020 u0627_u0644_u062a_u0634_u0631_u064a_u0639_u064a_u0629 u0020 u0630_u0627_u062a u0020 u0627_u0644_u0623_u0631_u062c_u062d_u064a_u0629 u0020 u0641_u064a u0020 u0647_u0630_u0627 u0020 u0627_u0644_u0646_u0638_u0627_u0645 u0020 u002e_u000d", 
        "u0627_u0644_u062c_u0645_u0639_u064a_u0629 u0020 u0627_u0644_u0646_u064a_u0627_u0628_u064a_u0629 u0020 u0647_u064a u0020 u0635_u0627_u062d_u0628_u0629 u0020 u0627_u0644_u0648_u0638_u064a_u0641_u0629 u0020 u0627_u0644_u062a_u0634_u0631_u064a_u0639_u064a_u0629 u0020 u060c u0020 u0648_u062a_u0628_u0627_u0634_u0631 u0020 u0643_u0630_u0644_u0643 u0020 u0648_u0638_u064a_u0641_u0629 u0020 u0627_u0644_u062a_u0646_u0641_u064a_u0630_u002e_u000d", 
        "u062a_u062e_u062a_u0627_u0631 u0020 u0623_u0634_u062e_u0627_u0635 u0020 u064a_u0628_u0627_u0634_u0631_u0648_u0646 u0020 u0645_u0647_u0645_u0629 u0020 u0627_u0644_u062a_u0646_u0641_u064a_u0630 u0020 u0648_u064a_u0643_u0648_u0646_u0648_u0646 u0020 u062e_u0627_u0636_u0639_u064a_u0646 u0020 u0644_u0647_u0627 u0020 u0627_u0644_u062e_u0636_u0648_u0639 u0020 u0643_u0644_u0647 u0020 u0648_u0628_u0630_u0644_u0643 u0020 u062a_u0646_u0639_u062f_u0645 u0020 u0627_u0644_u0645_u0633_u0627_u0648_u0627_u0629 u0020 u0628_u064a_u0646_u0020", 
        "u0627_u0644_u0633_u0644_u0637_u062a_u064a_u0646 u0020 u002e_u000d", 
        "u062a_u0635_u0628_u062d u0020 u0627_u0644_u0633_u0644_u0637_u0629 u0020 u0627_u0644_u062a_u0646_u0641_u064a_u0630_u064a_u0629 u0020 u062a_u0627_u0628_u0639_u0629 u0020 u0644_u0644_u0633_u0644_u0637_u0629 u0020 u0627_u0644_u062a_u0634_u0631_u064a_u0639_u064a_u0629 u0020 u0648_u062e_u0627_u0636_u0639_u0629 u0020 u0644_u0625_u062f_u0627_u0631_u062a_u0647_u0627 u0020 u0648_u0645_u0633_u0624_u0648_u0644_u0629 u0020 u0623_u0645_u0627_u0645_u0647_u0627 u0020 u0645_u0633_u0624_u0648_u0644_u064a_u0629 u0020 u0643_u0627_u0645_u0644_u0629_u002e_u000d", 
        "u0638_u0647_u0631 u0020 u0647_u0630_u0627 u0020 u0627_u0644_u0646_u0638_u0627_u0645 u0020 u0641_u064a u0020 u0627_u0644_u0645_u0644_u0643_u064a_u0627_u062a u0020 u0627_u0644_u0645_u0637_u0644_u0642_u0629 u0020 u0648_u0641_u064a u0020 u0627_u0644_u062f_u0643_u062a_u0627_u062a_u0648_u0631_u064a_u0627_u062a u0020 u0648_u0647_u0648 u0020 u0641_u064a u0020 u0643_u0644_u062a_u0627 u0020 u0627_u0644_u062d_u0627_u0644_u062a_u064a_u0646 u0020 u064a_u0636_u0639 u0020 u0627_u0644_u0633_u0644_u0637_u0627_u062a u0020 u0627_u0644_u0639_u0627_u0645_u0629_u0020", 
        "u0628_u064a_u0646 u0020 u064a_u062f_u064a u0020 u0641_u0631_u062f u0020 u0648_u0627_u062d_u062f u0020 u0647_u0648 u0020 u0627_u0644_u0645_u0644_u0643 u0020 u0623_u0648 u0020 u0627_u0644_u062f_u0643_u062a_u0627_u062a_u0648_u0631_u002e", 
        "u0627_u0644_u0645_u0628_u062d_u062b u0020 u0627_u0644_u062b_u0627_u0644_u062b_u000b", 
        "u0646_u0638_u0627_u0645 u0020 u062d_u0643_u0648_u0645_u0629 u0020 u0627_u0644_u062c_u0645_u0639_u064a_u0629_u0020"
    ]
}