{
    "bounding_box": [
        [
            84, 
            27, 
            541, 
            39
        ], 
        [
            300, 
            75, 
            119, 
            32
        ]
    ], 
    "image_height": 540, 
    "image_width": 720, 
    "transcription": [
        "u064a_u0646_u062a_u0638_u0631_u0648_u0646 u0020 u0627_u0644_u0634_u0641_u0627_u0621 u0020 u0639_u0628_u062b_u0627 u0020 u0641_u064a u0020 u0627_u062d_u062f_u0649 u0020 u0627_u0644_u0627_u062c_u062a_u0645_u0627_u0639_u0627_u062a_u0020", 
        "u0627_u0644_u062e_u0645_u0633_u064a_u0646_u064a_u0629"
    ]
}