{
    "bounding_box": [
        [
            8, 
            61, 
            655, 
            44
        ], 
        [
            8, 
            110, 
            686, 
            43
        ], 
        [
            8, 
            158, 
            686, 
            43
        ], 
        [
            8, 
            206, 
            686, 
            42
        ], 
        [
            8, 
            255, 
            686, 
            36
        ], 
        [
            8, 
            303, 
            686, 
            42
        ], 
        [
            8, 
            350, 
            686, 
            37
        ], 
        [
            191, 
            445, 
            503, 
            42
        ]
    ], 
    "image_height": 540, 
    "image_width": 720, 
    "transcription": [
        "u0645_u062d_u0645_u064a_u0629 u0020 u0636_u0627_u0646_u0627 u0020 u064a_u0634_u0647_u062f u0020 u0644_u0647_u0627 u0020 u0628_u0623_u0646_u0647_u0627 u0020 u0627_u0648_u0644 u0020 u0645_u0648_u0642_u0639 u0020 u062a_u0645 u0020 u0645_u0646_u0020", 
        "u062e_u0644_u0627_u0644_u0647 u0020 u0627_u062f_u062e_u0627_u0644 u0020 u0645_u0641_u0647_u0648_u0645 u0020 u0627_u0644_u0633_u064a_u0627_u062d_u0629 u0020 u0627_u0644_u0628_u064a_u0626_u064a_u0629 u0020 u0644_u0644_u0623_u0631_u062f_u0646_u060c u0020 u0648_u0647_u0630_u0627_u0020", 
        "u0627_u0644_u0646_u0648_u0639 u0020 u0645_u0646 u0020 u0627_u0644_u0633_u064a_u0627_u062d_u0629 u0020 u0644_u0627 u0020 u064a_u0647_u062a_u0645 u0020 u0641_u0642_u0637 u0020 u0628_u0627_u0644_u0645_u0648_u0627_u0642_u0639 u0020 u0627_u0644_u0628_u064a_u0626_u064a_u0629_u0020", 
        "u0648_u0637_u0628_u064a_u0639_u0629 u0020 u0627_u0644_u0645_u0646_u0627_u0637_u0642 u0020 u0627_u0644_u0645_u062e_u062a_u0644_u0641_u0629 u0020 u0641_u062d_u0633_u0628 u0020 u0628_u0644 u0020 u064a_u0631_u0643_u0632 u0020 u0639_u0644_u0649_u0020", 
        "u0636_u0631_u0648_u0631_u0629 u0020 u0627_u0633_u062a_u062f_u0627_u0645_u0629 u0020 u0627_u0644_u0645_u0635_u0627_u062f_u0631 u0020 u0627_u0644_u0637_u0628_u064a_u0639_u064a_u0629 u0020 u0648_u0627_u0644_u062d_u0636_u0627_u0631_u064a_u0629_u0020", 
        "u0644_u064a_u062a_u0633_u0646_u0649 u0020 u0644_u0644_u062c_u0645_u064a_u0639 u0020 u0627_u0644_u0627_u0633_u062a_u0645_u062a_u0627_u0639 u0020 u0628_u0647_u0630_u0627 u0020 u0627_u0644_u0645_u0648_u0631_u0648_u062b_u060c u0020 u0644_u0627 u0020 u0648_u0628_u0644_u0020", 
        "u0627_u064a_u062c_u0627_u062f u0020 u0641_u0631_u0635 u0020 u0639_u0645_u0644 u0020 u0644_u0633_u0643_u0627_u0646 u0020 u0627_u0644_u0645_u0646_u0637_u0642_u0629 u0020 u0627_u0644_u0645_u062d_u064a_u0637_u0629 u0020 u0628_u0627_u0644_u0645_u062d_u0645_u064a_u0629_u0020", 
        "u0631_u0626_u064a_u0633_u064a_u0627 u0020 u0644_u0644_u0623_u0631_u062f_u0646 u0020 u062a_u0633_u0639_u0649 u0020 u0644_u062a_u062d_u0642_u064a_u0642_u0647 u0020 u0627_u0644_u062d_u0643_u0648_u0645_u0629_u002e_u000d"
    ]
}