{
    "bounding_box": [
        [
            376, 
            142, 
            389, 
            26
        ], 
        [
            290, 
            198, 
            475, 
            30
        ], 
        [
            340, 
            263, 
            425, 
            27
        ], 
        [
            301, 
            322, 
            464, 
            28
        ], 
        [
            291, 
            381, 
            474, 
            30
        ], 
        [
            324, 
            36, 
            401, 
            35
        ]
    ], 
    "image_height": 540, 
    "image_width": 959, 
    "transcription": [
        "u0641_u062d_u0635 u0020 u0637_u0644_u0628_u0627_u062a u0020 u0627_u0644_u0645_u0631_u0634_u062d_u064a_u0646 u0020 u0644_u062a_u062d_u0642_u064a_u0642 u0020 u0634_u0631_u0637 u0020 u0627_u0644_u0642_u064a_u062f_u000d", 
        "u0641_u062d_u0635 u0020 u062a_u0623_u064a_u064a_u062f_u0627_u062a u0020 u0627_u0644_u0645_u0631_u0634_u062d_u064a_u0646 u0020 u0644_u0644_u0631_u0626_u0627_u0633_u0629 u0020 u0644_u062a_u062d_u0642_u064a_u0642 u0020 u0634_u0631_u0637 u0020 u0627_u0644_u0642_u064a_u062f_u000d", 
        "u0625_u0639_u062f_u0627_u062f u0020 u0648_u0633_u064a_u0637 u0020 u0645_u0645_u063a_u0646_u0637 u0020 u0628_u0642_u0648_u0627_u0626_u0645 u0020 u0627_u0644_u0646_u0627_u062e_u0628_u064a_u0646 u0020 u0644_u0644_u0645_u0631_u0634_u062d_u064a_u0646 u0020 u000d", 
        "u062a_u0648_u0641_u064a_u0631 u0020 u0627_u0644_u0625_u062d_u0635_u0627_u0621_u0627_u062a u0020 u0627_u0644_u062f_u0627_u0639_u0645_u0629 u0020 u0644_u062a_u0642_u0633_u064a_u0645 u0020 u0627_u0644_u062f_u0648_u0627_u0626_u0631 u0020 u0627_u0644_u0627_u0646_u062a_u062e_u0627_u0628_u064a_u0629_u000d", 
        "u062a_u0648_u0641_u064a_u0631 u0020 u0627_u0644_u0625_u062d_u0635_u0627_u0621_u0627_u062a u0020 u0645_u0635_u0646_u0641_u0629 u0020 u0648_u0641_u0642_u0627 u0020 u0644_u0644_u0646_u0648_u0639 u0020 u0648_u0627_u0644_u0641_u0626_u0627_u062a u0020 u0627_u0644_u0639_u0645_u0631_u064a_u0629", 
        "u0627_u0644_u0645_u062e_u0631_u062c_u0627_u062a u0020 u0627_u0644_u0625_u0636_u0627_u0641_u064a_u0629 u0020 u0644_u0633_u062c_u0644 u0020 u0627_u0644_u0646_u0627_u062e_u0628_u064a_u0646"
    ]
}