{
    "bounding_box": [
        [
            785, 
            67, 
            100, 
            37
        ], 
        [
            14, 
            137, 
            931, 
            38
        ], 
        [
            27, 
            185, 
            918, 
            43
        ], 
        [
            14, 
            232, 
            931, 
            41
        ], 
        [
            468, 
            281, 
            477, 
            43
        ], 
        [
            14, 
            329, 
            931, 
            43
        ], 
        [
            14, 
            377, 
            931, 
            43
        ], 
        [
            14, 
            429, 
            931, 
            39
        ], 
        [
            770, 
            478, 
            174, 
            34
        ], 
        [
            14, 
            525, 
            931, 
            39
        ], 
        [
            824, 
            574, 
            121, 
            31
        ]
    ], 
    "image_height": 768, 
    "image_width": 1024, 
    "transcription": [
        "u0052_u0041_u0057", 
        "u0647_u0630_u0647 u0020 u0627_u0644_u0635_u064a_u063a_u0629 u0020 u062a_u062d_u0644 u0020 u0645_u062d_u0644 u0020 u0627_u0644_u0640_u00a0_u004e_u0065_u0067_u0061_u0074_u0069_u0076_u0065_u002e u0020 u0020_u0648_u062a_u0639_u062f u0020 u0623_u0641_u0636_u0644 u0020 u0635_u064a_u063a_u0629_u0020", 
        "u0644_u0644_u062a_u0639_u062f_u064a_u0644 u0020 u0639_u0644_u0649 u0020 u0627_u0644_u0635_u0648_u0631 u0020 u00a0_u0644_u0623_u0646_u0647_u0627 u0020 u0635_u0648_u0631 u0020 u062e_u0627_u0645 u0020 u0028_u0635_u0648_u0631 u0020 u0623_u0633_u0627_u0633_u064a_u0629_u0029_u002e_u0020", 
        "u0648_u0628_u0625_u0645_u0643_u0627_u0646 u0020 u0627_u0644_u0645_u0635_u0648_u0631 u0020 u0627_u0644_u062a_u0639_u062f_u064a_u0644 u0020 u0639_u0644_u0649 u0020 u0627_u0644_u0635_u0648_u0631_u0629 u0020 u0628_u0623_u0641_u0636_u0644 u0020 u0637_u0631_u064a_u0642_u0629 u0020 u0648_u0628_u0639_u062f_u0647_u0627_u0020", 
        "u064a_u062a_u0645 u0020 u062a_u0635_u062f_u064a_u0631_u0647_u0627 u0020 u0644_u0623_u064a u0020 u0635_u064a_u063a_u0629 u0020 u0623_u062e_u0631_u0649_u002e_u000d", 
        "u062d_u062c_u0645 u0020 u0635_u064a_u063a_u0629_u00a0_u0052_u0041_u0057_u00a0_u064a_u0643_u0648_u0646 u0020 u0623_u0635_u063a_u0631 u0020 u0645_u0646 u0020 u062d_u062c_u0645_u00a0_u0054_u0049_u0046_u0046 u0020 u060c u0020 u0628_u0627_u0644_u0631_u063a_u0645 u0020 u0645_u0646_u0020", 
        "u0648_u062c_u0648_u062f u0020 u0645_u0639_u064a_u0627_u0631 u0020 u0635_u0648_u0631_u0629 u0020 u062e_u0627_u0645_u002e u0020 u0648_u0627_u0644_u0623_u0634_u0643_u0627_u0644 u0020 u0627_u0644_u062e_u0627_u0645 u0020 u0627_u0644_u0645_u0633_u062a_u062e_u062f_u0645_u0629 u0020 u0645_u0646 u0020 u0642_u0628_u0644_u0020", 
        "u0645_u0639_u0638_u0645 u0020 u0627_u0644_u0643_u0627_u0645_u064a_u0631_u0627_u062a u0020 u0644_u064a_u0633_u062a u0020 u0645_u0648_u062d_u062f_u0629 u0020 u060c u0020 u0648_u062a_u062e_u062a_u0644_u0641 u0020 u0628_u064a_u0646 u0020 u0634_u0631_u0643_u0627_u062a u0020 u062a_u0635_u0646_u064a_u0639_u0020", 
        "u0627_u0644_u0643_u0627_u0645_u064a_u0631_u0627_u062a_u002e_u000d", 
        "u064a_u0639_u064a_u0628_u0647_u0627 u0020 u0641_u0642_u0637 u0020 u062d_u062c_u0645_u0647_u0627 u0020 u0627_u0644_u0643_u0628_u064a_u0631 u0020 u0648 u0020 u0642_u0644_u064a_u0644 u0020 u0645_u0646 u0020 u0627_u0644_u0628_u0631_u0627_u0645_u062c u0020 u062a_u0634_u063a_u0644 u0020 u0647_u0630_u0647_u0020", 
        "u0627_u0644_u0645_u0644_u0641_u0627_u062a_u002e"
    ]
}