{
    "bounding_box": [
        [
            507, 
            87, 
            139, 
            31
        ], 
        [
            478, 
            143, 
            168, 
            25
        ], 
        [
            411, 
            194, 
            234, 
            30
        ], 
        [
            410, 
            247, 
            236, 
            29
        ], 
        [
            374, 
            301, 
            272, 
            29
        ], 
        [
            200, 
            356, 
            446, 
            32
        ], 
        [
            312, 
            409, 
            334, 
            30
        ], 
        [
            315, 
            467, 
            331, 
            28
        ]
    ], 
    "image_height": 540, 
    "image_width": 720, 
    "transcription": [
        "u0645_u062a_u0641_u062a_u062d u0020 u0627_u0644_u0630_u0647_u0646 u0020 u002e_u000d", 
        "u064a_u0639_u0645_u0644 u0020 u0628_u062f_u0648_u0646 u0020 u062a_u062d_u064a_u0632_u002e_u000d", 
        "u0644_u0628_u0642 u0020 u0020_u0627_u0644_u062d_u062f_u064a_u062b u0020 u0648_u0627_u0644_u0645_u0639_u0627_u0645_u0644_u0629 u0020 u002e_u000d", 
        "u0623_u0646 u0020 u064a_u0643_u0648_u0646 u0020 u0623_u0645_u064a_u0646_u0627_u064b u0020 u0648_u0635_u0628_u0648_u0631_u0627_u064b u0020 u002e_u000d", 
        "u0623_u0646 u0020 u064a_u0643_u0648_u0646 u0020 u0645_u0646_u0636_u0628_u0637_u0627_u064b u0020 u0648_u0645_u0644_u062a_u0632_u0645_u0627_u064b u0020 u002e u0020 u000d", 
        "u0623_u0646 u0020 u064a_u0643_u0648_u0646 u0020 u0644_u062f_u064a_u0647 u0020 u0627_u0644_u0642_u062f_u0631_u0629 u0020 u0639_u0644_u0649 u0020 u0627_u0644_u0627_u0633_u062a_u0645_u0627_u0639 u0020 u0648_u0627_u0644_u0625_u0635_u063a_u0627_u0621 u0020 u002e_u000d", 
        "u0623_u0646 u0020 u064a_u0643_u0648_u0646 u0020 u0645_u0642_u062a_u0646_u0639_u0627_u064b u0020 u0628_u0647_u0630_u0627 u0020 u0627_u0644_u0639_u0645_u0644 u0020 u0648_u064a_u062d_u0628_u0647 u0020 u002e_u000d", 
        "u0644_u0647 u0020 u0627_u0644_u0642_u062f_u0631_u0629 u0020 u0639_u0644_u0649 u0020 u0627_u0644_u062a_u062d_u0644_u064a_u0644 u0020 u0648_u0627_u0644_u0627_u0633_u062a_u0642_u0631_u0627_u0621_u002e_u000d"
    ]
}