{
    "bounding_box": [
        [
            310, 
            98, 
            351, 
            23
        ], 
        [
            88, 
            167, 
            354, 
            25
        ], 
        [
            316, 
            202, 
            126, 
            22
        ], 
        [
            124, 
            229, 
            318, 
            30
        ], 
        [
            290, 
            268, 
            152, 
            23
        ], 
        [
            125, 
            298, 
            317, 
            29
        ]
    ], 
    "image_height": 540, 
    "image_width": 720, 
    "transcription": [
        "u0631_u0647_u0646_u0645_u0648_u062f_u0647_u0627_u06cc_u06cc u0020 u0628_u0631_u0627_u06cc u0020 u0645_u062f_u06cc_u0631_u06cc_u062a u0020 u062f_u0631 u0020 u0634_u0631_u0627_u06cc_u0637 u0020 u0622_u0634_u0648_u0628 u0020 u003a", 
        "u0031_u002d u0020 u0628_u0627_u0632 u0020 u0627_u0646_u062f_u06cc_u0634_u06cc u0020 u062f_u0631 u0020 u0645_u0641_u0627_u0647_u06cc_u0645 u0020 u0633_u0646_u062a_u06cc u0020 u0645_u06cc_u0631_u06cc_u062a_u000d", 
        "u0032_u002d u0020 u0647_u0646_u0631 u0020 u062a_u063a_u06cc_u06cc_u0631_u000d", 
        "u0033_u002d u0020 u062a_u063a_u06cc_u06cc_u0631_u0627_u062a u0020 u06a9_u0648_u0686_u06a9 u0020 u0648 u0020 u0627_u062b_u0631_u0627_u062a u0020 u0628_u0632_u0631_u06af_u000d", 
        "u0034_u002d u0020 u0646_u0642_u0634 u0020 u0645_u062f_u06cc_u0631_u0627_u0646_u000d", 
        "u0035_u002d u0020 u06cc_u0627_u062f_u06af_u06cc_u0631_u06cc u0020 u0647_u0646_u0631 u0020 u062c_u0648_u0631 u0020 u0633_u0627_u0632_u06cc u0020 u0028_u06a9_u0644_u0627_u0698_u0029"
    ]
}