{
    "bounding_box": [
        [
            216, 
            36, 
            275, 
            35
        ], 
        [
            541, 
            123, 
            93, 
            38
        ], 
        [
            478, 
            174, 
            155, 
            36
        ], 
        [
            502, 
            231, 
            132, 
            32
        ], 
        [
            432, 
            278, 
            202, 
            34
        ], 
        [
            334, 
            334, 
            299, 
            31
        ], 
        [
            497, 
            387, 
            137, 
            30
        ]
    ], 
    "image_height": 538, 
    "image_width": 708, 
    "transcription": [
        "u0645_u0648_u0639_u062f u0020 u0627_u0644_u0627_u0645_u062a_u062d_u0627_u0646 u0020 u0627_u0644_u062e_u0627_u0631_u062c_u064a_u0651", 
        "u0644_u063a_u0629 u0020 u0627_u0644_u0623_u0645_u0651_u000d", 
        "u0627_u0644_u0644_u0651_u063a_u0629 u0020 u0627_u0644_u0639_u0631_u0628_u064a_u0651_u0629 u0020 u000d", 
        "u064a_u0648_u0645 u0020 u0627_u0644_u062b_u0644_u0627_u062b_u0627_u0621_u000d", 
        "u0031_u0032 u0020 u0623_u064a_u0651_u0627_u0631 u0020 u0032_u0030_u0031_u0035 u0020 u000d", 
        "u0644_u0644_u0635_u0641_u0648_u0641 u0020 u0627_u0644_u062e_u0627_u0645_u0633_u0629 u0020 u0648_u0627_u0644_u062b_u0627_u0645_u0646_u0629_u000d", 
        "u0627_u0644_u0645_u062c_u0645_u0648_u0639_u0629 u0020 u0031"
    ]
}