{
    "bounding_box": [
        [
            41, 
            30, 
            651, 
            62
        ], 
        [
            50, 
            106, 
            642, 
            35
        ], 
        [
            80, 
            143, 
            612, 
            37
        ], 
        [
            182, 
            182, 
            510, 
            36
        ], 
        [
            79, 
            226, 
            613, 
            40
        ], 
        [
            13, 
            268, 
            679, 
            37
        ], 
        [
            310, 
            309, 
            382, 
            31
        ], 
        [
            131, 
            358, 
            561, 
            34
        ], 
        [
            66, 
            400, 
            626, 
            39
        ], 
        [
            285, 
            441, 
            407, 
            33
        ], 
        [
            65, 
            488, 
            627, 
            34
        ], 
        [
            341, 
            529, 
            351, 
            35
        ]
    ], 
    "image_height": 540, 
    "image_width": 720, 
    "transcription": [
        "u0627_u0644_u0639_u0648_u0627_u0645_u0644 u0020 u0028 u0020 u0627_u0644_u0623_u0633_u0628_u0627_u0628 u0020 u0029 u0020 u0644_u0647_u0630_u0627 u0020 u0627_u0644_u062a_u063a_u064a_u064a_u0631 u0020 u003a_u000d", 
        "u0031_u002d u0020 u0020_u0638_u0627_u0647_u0631_u0629 u0020 u0627_u0644_u0636_u0648_u0627_u062d_u064a u0020 u0641_u064a u0020 u0625_u0633_u0631_u0627_u0626_u064a_u0644 u0020 u0628_u0634_u0643_u0644 u0020 u0639_u0627_u0645 u0020 u0648_u0639_u0644_u0649 u0020 u0648_u062c_u0647_u0020", 
        "u0627_u0644_u062e_u0635_u0648_u0635 u0020 u0641_u064a u0020 u0627_u0644_u0633_u0647_u0644 u0020 u0627_u0644_u0633_u0627_u062d_u0644_u064a_u060c u0020 u0639_u0644_u0649 u0020 u062d_u0633_u0627_u0628 u0020 u0627_u0644_u0623_u0631_u0627_u0636_u064a_u0020", 
        "u0627_u0644_u0632_u0631_u0627_u0639_u064a_u0629_u002e_u0028_u0647_u062f_u0645 u0020 u0623_u0631_u0627_u0636_u064a u0020 u0632_u0631_u0627_u0639_u064a_u0647 u0020 u0628_u0647_u062f_u0641 u0020 u0627_u0644_u0628_u0646_u0627_u0621_u0029_u000d", 
        "u0032_u002d u0020 u0020_u0627_u0631_u062a_u0641_u0627_u0639 u0020 u0641_u064a u0020 u0623_u0633_u0639_u0627_u0631 u0020 u0627_u0644_u0623_u0631_u0627_u0636_u064a u0020 u0641_u064a u0020 u0645_u0631_u0643_u0632 u0020 u0627_u0644_u062f_u0648_u0644_u0647 u0020 u062c_u0639_u0644_u0020", 
        "u0627_u0644_u0645_u0646_u0627_u0641_u0633_u0629 u0020 u0643_u0628_u064a_u0631_u0629 u0020 u0644_u0627_u0633_u062a_u062e_u062f_u0627_u0645 u0020 u0627_u0644_u0623_u0631_u0627_u0636_u064a u0020 u0628_u064a_u0646 u0020 u0627_u0644_u0632_u0631_u0627_u0639_u0629 u0020 u0648_u0627_u0644_u0639_u0642_u0627_u0631_u0627_u062a_u002e u0020 u0020", 
        "u0647_u0630_u0647 u0020 u0627_u0644_u0645_u0634_u0643_u0644_u0647 u0020 u063a_u064a_u0631 u0020 u0645_u0648_u062c_u0648_u062f_u0647 u0020 u0627_u0644_u0646_u0642_u0628 u0020 u002e_u000d", 
        "u0033_u002d u0020 u0625_u0646_u062e_u0641_u0627_u0636 u0020 u0645_u0633_u0627_u0647_u0645_u0629 u0020 u0627_u0644_u0632_u0631_u0627_u0639_u0647 u0020 u0641_u064a u0020 u0625_u0642_u062a_u0635_u0627_u062f u0020 u0627_u0644_u062f_u0648_u0644_u0647 u0020 u002e_u000d", 
        "u0034_u002d u0020 u0020_u0641_u0631_u0635 u0020 u0639_u0645_u0644 u0020 u0645_u062a_u0627_u062d_u0647 u0020 u0623_u0643_u062b_u0631 u0020 u0628_u0627_u0644_u0642_u0631_u0628 u0020 u0645_u0646 u0020 u0627_u0644_u0645_u062f_u0646 u0020 u0627_u0644_u0643_u0628_u064a_u0631_u0647 u0020 u002c_u0020", 
        "u0648_u0641_u0631_u0635 u0020 u0639_u0645_u0644 u0020 u0623_u0642_u0644 u0020 u0645_u0646 u0020 u0645_u0646_u0637_u0642_u0629 u0020 u0627_u0644_u0646_u0642_u0628 u0020 u002e_u000d", 
        "u0035_u002d u0020 u0020_u062f_u062e_u0648_u0644 u0020 u0645_u0646_u0627_u0641_u0633_u064a_u0646 u0020 u0645_u0646 u0020 u0628_u0644_u062f_u0627_u0646 u0020 u0623_u062e_u0631_u0649 u0020 u0623_u062f_u062a u0020 u0644_u0647_u0628_u0648_u0637 u0020 u0628_u0623_u0633_u0639_u0627_u0631_u0020", 
        "u0627_u0644_u062d_u0645_u0636_u064a_u0627_u062a u0020 u0627_u0644_u0645_u0635_u062f_u0631_u0647 u0020 u0644_u0644_u062e_u0627_u0631_u062c_u002e u0020 u000d"
    ]
}