{
    "bounding_box": [
        [
            490, 
            38, 
            167, 
            28
        ], 
        [
            101, 
            90, 
            560, 
            29
        ], 
        [
            115, 
            121, 
            546, 
            29
        ], 
        [
            592, 
            157, 
            70, 
            25
        ]
    ], 
    "image_height": 540, 
    "image_width": 720, 
    "transcription": [
        "u0641_u062a_u062d u0020 u0645_u0644_u0641 u0020 u0627_u0644_u062a_u0639_u0644_u064a_u0645_u0627_u062a", 
        "u062a_u064f_u0639_u062f u0020 u0627_u0644_u062a_u0639_u0644_u064a_u0645_u0627_u062a u0020 u0645_u062a_u0627_u062d_u0629 u0020 u0641_u064a u0020 u0623_u064a u0020 u0648_u0642_u062a u0020 u0645_u0646 u0020 u062e_u0644_u0627_u0644 u0020 u0627_u0644_u0646_u0642_u0631 u0020 u0639_u0644_u0649 u0020 u0632_u0631 u0020 u062a_u0639_u0644_u064a_u0645_u0627_u062a_u0020", 
        "u0623_u0633_u0641_u0644 u0020 u0632_u0631 u0020 u0625_u063a_u0644_u0627_u0642 u0020 u0623_u0648 u0020 u0645_u0646 u0020 u062e_u0644_u0627_u0644 u0020 u0627_u0644_u0636_u063a_u0637 u0020 u0639_u0644_u0649 u0020 u0645_u0641_u062a_u0627_u062d u0020 u0046_u0031 u0020 u0639_u0644_u0649 u0020 u0644_u0648_u062d_u0629_u0020", 
        "u0627_u0644_u0645_u0641_u0627_u062a_u064a_u062d_u003a"
    ]
}