{
    "bounding_box": [
        [
            516, 
            63, 
            176, 
            23
        ], 
        [
            368, 
            95, 
            284, 
            23
        ], 
        [
            27, 
            129, 
            624, 
            26
        ], 
        [
            54, 
            159, 
            598, 
            25
        ], 
        [
            29, 
            189, 
            623, 
            21
        ], 
        [
            322, 
            216, 
            329, 
            25
        ], 
        [
            17, 
            250, 
            635, 
            26
        ], 
        [
            21, 
            280, 
            630, 
            25
        ], 
        [
            23, 
            310, 
            629, 
            23
        ], 
        [
            99, 
            337, 
            552, 
            25
        ], 
        [
            52, 
            365, 
            600, 
            23
        ], 
        [
            26, 
            395, 
            626, 
            25
        ], 
        [
            595, 
            425, 
            57, 
            21
        ], 
        [
            107, 
            460, 
            544, 
            23
        ], 
        [
            375, 
            495, 
            276, 
            20
        ], 
        [
            504, 
            531, 
            18, 
            14
        ]
    ], 
    "image_height": 540, 
    "image_width": 720, 
    "transcription": [
        "u062b_u0627_u0646_u064a_u0627 u0020 u003a u0020 u0627_u0644_u0639_u0644_u0627_u062c u0020 u0627_u0644_u0646_u0641_u0633_u064a u0020 u003a_u000d", 
        "u0627_u0644_u0637_u0631_u0642 u0020 u0627_u0644_u0645_u0639_u0631_u0641_u064a_u0629 u0020 u0648_u0627_u0644_u0633_u0644_u0648_u0643_u064a_u0629 u0020 u0627_u0644_u0645_u0639_u0631_u0641_u064a_u0629 u0020 u000d", 
        "u0645_u0646_u0638_u0648_u0631 u0020 u0628_u064a_u0643 u0020 u003a u0020 u0647_u0645 u0020 u064a_u0646_u0638_u0631_u0648_u0627 u0020 u0625_u0644_u064a u0020 u0627_u0644_u0627_u0643_u062a_u0626_u0627_u0628 u0020 u0639_u0644_u064a u0020 u0623_u0646_u0647 u0020 u0646_u062a_u0627_u062c u0020 u0623_u0641_u0643_u0627_u0631 u0020 u062a_u062a_u0633_u0645 u0020 u0628_u0627_u0644_u0627_u062e_u062a_u0644_u0627_u0637 u0020 u0627_u0644_u0648_u0638_u064a_u0641_u064a u0020 u060c_u0020", 
        "u0648_u0628_u0639_u062f u0020 u0630_u0644_u0643 u0020 u064a_u0639_u0645_u0644_u0648_u0646 u0020 u0645_u0639 u0020 u0627_u0644_u0645_u0639_u0627_u0644_u062c u0020 u0641_u064a u0020 u0627_u0644_u0643_u0634_u0641 u0020 u0639_u0646 u0020 u0627_u0644_u0623_u0641_u0643_u0627_u0631 u0020 u0648_u0627_u0644_u0645_u0639_u0627_u0631_u0641 u0020 u0627_u0644_u0645_u0624_u062f_u064a_u0629 u0020 u0625_u0644_u064a u0020 u0633_u0648_u0621_u0020", 
        "u0627_u0644_u062a_u0648_u0627_u0641_u0642 u0020 u0648_u0645_u0639_u0631_u0641_u0629 u0020 u0627_u0644_u0627_u0631_u062a_u0628_u0627_u0637 u0020 u0628_u064a_u0646_u0647_u0627 u0020 u0648_u0628_u064a_u0646 u0020 u0627_u0646_u0641_u0639_u0627_u0644_u0627_u062a_u0647_u0645 u0020 u0648_u0639_u0648_u0627_u0637_u0641_u0647_u0645 u0020 u0627_u0644_u0633_u0644_u0628_u064a_u0629 u0020 u060c u0020 u0648_u0645_u0646 u0020 u062e_u0644_u0627_u0644 u0020 u0639_u0645_u0644_u064a_u0629_u0020", 
        "u064a_u0637_u0644_u0642 u0020 u0639_u0644_u064a_u0647_u0627 u0020 u0627_u0644_u062a_u062c_u0631_u064a_u0628 u0020 u0627_u0644_u0645_u0634_u062a_u0631_u0643 u0020 u0623_u0648 u0020 u0627_u0644_u062a_u0639_u0627_u0648_u0646_u064a u0020 u002e_u000d", 
        "u0645_u0646_u0638_u0648_u0631 u0020 u0625_u0644_u064a_u0633 u0020 u003a u0020 u064a_u0631_u062c_u0639 u0020 u0623_u064a u0020 u0627_u0636_u0637_u0631_u0627_u0628 u0020 u0627_u0646_u0641_u0639_u0627_u0644_u064a u0020 u0625_u0644_u064a u0020 u0639_u062f_u062f u0020 u0645_u0646 u0020 u0627_u0644_u0623_u0641_u0643_u0627_u0631 u0020 u0627_u0644_u0644_u0627_u0639_u0642_u0644_u0627_u0646_u064a_u0629 u0020 u0644_u0630_u0644_u0643 u0020 u062a_u0642_u0648_u0645_u0020", 
        "u0637_u0631_u064a_u0642_u062a_u0647 u0020 u0639_u0644_u064a u0020 u0639_u0644_u0627_u062c u0020 u063a_u064a_u0631 u0020 u0627_u0644_u0645_u0639_u0642_u0648_u0644 u0020 u0628_u0627_u0644_u0645_u0639_u0642_u0648_u0644 u0020 u0623_u064a u0020 u0627_u0633_u062a_u062e_u062f_u0627_u0645 u0020 u0627_u0644_u0639_u0645_u0644_u064a_u0627_u062a u0020 u0627_u0644_u0639_u0642_u0644_u064a_u0629 u0020 u060c u0020 u0648_u0644_u0630_u0644_u0643 u0020 u064a_u0639_u062a_u0645_u062f_u0020", 
        "u0627_u0644_u0639_u0644_u0627_u062c u0020 u0627_u0644_u0639_u0642_u0644_u0627_u0646_u064a u0020 u0627_u0644_u0627_u0646_u0641_u0639_u0627_u0644_u064a u0020 u0644_u0625_u0644_u064a_u0633 u0020 u0639_u0644_u064a u0020 u0627_u0644_u062a_u0639_u0644_u0645 u0020 u0627_u0644_u0646_u0634_u0637 u0020 u0627_u0644_u0645_u0628_u0627_u0634_u0631 u0020 u0627_u0644_u0630_u064a u0020 u064a_u0642_u0644_u062f u0020 u0641_u064a_u0647 u0020 u0627_u0644_u0645_u0639_u0627_u0644_u062c u0020 u062f_u0648_u0631_u0627_u0020", 
        "u062a_u0639_u0644_u064a_u0645_u064a_u0627 u0020 u0625_u064a_u062c_u0627_u0628_u064a_u0627 u0020 u064a_u0648_u0636_u062d u0020 u0644_u0644_u0645_u0631_u064a_u0636 u0020 u0645_u0646 u0020 u062e_u0644_u0627_u0644_u0647 u0020 u0627_u0644_u0623_u0633_u0627_u0633 u0020 u0627_u0644_u0644_u0627_u0639_u0642_u0644_u0627_u0646_u064a u0020 u0644_u0645_u0627 u0020 u064a_u0639_u0627_u0646_u064a_u0647 u0020 u0645_u0646_u0020", 
        "u0627_u0636_u0637_u0631_u0627_u0628_u0627_u062a u0020 u060c u0020 u0648_u0643_u064a_u0641 u0020 u0623_u0646 u0020 u0647_u0630_u0647 u0020 u0627_u0644_u0627_u0636_u0637_u0631_u0627_u0628_u0627_u062a u0020 u0633_u0648_u0641 u0020 u062a_u0633_u062a_u0645_u0631 u0020 u0637_u0627_u0644_u0645_u0627 u0020 u0627_u0633_u062a_u0645_u0631_u062a u0020 u0627_u0644_u0623_u062d_u0627_u062f_u064a_u062b_u0020", 
        "u0627_u0644_u0630_u0627_u062a_u064a_u0629 u0020 u060c u0020 u0648_u0645_u0646 u0020 u062b_u0645 u0020 u0639_u0644_u064a u0020 u0627_u0644_u0645_u0639_u0627_u0644_u062c u0020 u0623_u0646 u0020 u064a_u0643_u0634_u0641 u0020 u0627_u0644_u0623_u0641_u0643_u0627_u0631 u0020 u0627_u0644_u0644_u0627 u0020 u0645_u0646_u0637_u0642_u064a_u0629 u0020 u0648_u0630_u0644_u0643 u0020 u0645_u0646 u0020 u062e_u0644_u0627_u0644 u0020 u0627_u0644_u0623_u0633_u0627_u0644_u064a_u0628_u0020", 
        "u0627_u0644_u0622_u062a_u064a_u0629 u0020 u003a_u000d", 
        "u0625_u0628_u0631_u0627_u0632_u0647_u0627 u0020 u0628_u0635_u0648_u0631_u0629 u0020 u0648_u0627_u0636_u062d_u0629 u0020 u0644_u062a_u0635_u0628_u062d u0020 u0641_u064a u0020 u0645_u0633_u062a_u0648_u064a u0020 u0627_u0644_u0627_u0646_u062a_u0628_u0627_u0647 u0020 u0648_u0627_u0644_u0648_u0639_u064a u0020 u0644_u062f_u064a u0020 u0627_u0644_u0639_u0645_u064a_u0644 u0020 u002e_u000d", 
        "u0628_u064a_u0627_u0646 u0020 u0643_u064a_u0641 u0020 u062a_u0633_u0628_u0628 u0020 u0627_u0644_u0627_u0636_u0637_u0631_u0627_u0628 u0020 u0648_u062a_u062b_u0628_u062a_u0647 u0020 u002e_u000d", 
        "u0020 u0020 u0020"
    ]
}