{
    "bounding_box": [
        [
            651, 
            500, 
            7, 
            9
        ], 
        [
            263, 
            34, 
            132, 
            16
        ], 
        [
            402, 
            72, 
            277, 
            18
        ], 
        [
            439, 
            96, 
            212, 
            15
        ], 
        [
            461, 
            117, 
            191, 
            16
        ], 
        [
            374, 
            139, 
            278, 
            16
        ], 
        [
            302, 
            160, 
            350, 
            16
        ], 
        [
            329, 
            182, 
            322, 
            16
        ], 
        [
            206, 
            200, 
            446, 
            20
        ], 
        [
            426, 
            225, 
            225, 
            16
        ], 
        [
            117, 
            243, 
            535, 
            20
        ], 
        [
            393, 
            292, 
            284, 
            17
        ], 
        [
            220, 
            312, 
            430, 
            19
        ], 
        [
            209, 
            335, 
            441, 
            17
        ], 
        [
            124, 
            354, 
            526, 
            20
        ], 
        [
            42, 
            376, 
            608, 
            19
        ], 
        [
            31, 
            398, 
            619, 
            19
        ], 
        [
            360, 
            419, 
            290, 
            19
        ], 
        [
            69, 
            442, 
            581, 
            18
        ], 
        [
            242, 
            462, 
            408, 
            20
        ], 
        [
            223, 
            486, 
            427, 
            17
        ], 
        [
            7, 
            9, 
            10, 
            13
        ]
    ], 
    "image_height": 540, 
    "image_width": 720, 
    "transcription": [
        "u0039", 
        "u0648_u0633_u0627_u0626_u0644 u0020 u0627_u0644_u0639_u0644_u0627_u0642_u0627_u062a u0020 u0627_u0644_u0639_u0627_u0645_u0629_u003a", 
        "u0648_u0633_u0627_u0626_u0644 u0020 u0627_u0644_u0639_u0644_u0627_u0642_u0627_u062a u0020 u0627_u0644_u0639_u0627_u0645_u0629 u0020 u0644_u0644_u062a_u0639_u0627_u0645_u0644 u0020 u0627_u0644_u062c_u0645_u0647_u0648_u0631 u0020 u0627_u0644_u062f_u0627_u062e_u0644_u064a_u000d", 
        "u0627_u0644_u0639_u0645_u0644 u0020 u0639_u0644_u0649 u0020 u062c_u0630_u0628 u0020 u0627_u0644_u0645_u0648_u0638_u0641_u064a_u0646 u0020 u0627_u0644_u0645_u062a_u0645_u064a_u0632_u064a_u0646_u000d", 
        "u062f_u0631_u0627_u0633_u0629 u0020 u0627_u062d_u062a_u064a_u0627_u062c_u0627_u062a u0020 u0627_u0644_u0639_u0627_u0645_u0644_u064a_u0646 u0020 u0648_u062a_u0644_u0628_u064a_u062a_u0647_u0627_u000d", 
        "u062f_u0631_u0627_u0633_u0629 u0020 u0645_u0634_u0627_u0643_u0644 u0020 u0627_u0644_u0639_u0645_u0644 u0020 u0627_u0644_u0645_u062e_u062a_u0644_u0641_u0629 u0020 u0648_u0627_u0644_u0645_u0633_u0627_u0639_u062f_u0629 u0020 u0641_u064a u0020 u062d_u0644_u0647_u0627_u000d", 
        "u0645_u0648_u0627_u062c_u0647_u0629 u0020 u0627_u064a_u0629 u0020 u0645_u0645_u0627_u0631_u0627_u0633_u0627_u062a u0020 u063a_u064a_u0631 u0020 u0648_u062f_u064a_u0629 u0020 u0627_u0648 u0020 u0646_u0632_u0639_u0627_u062a u0020 u0648_u0627_u0644_u0639_u0645_u0644 u0020 u0639_u0644_u0649 u0020 u062d_u0644_u0647_u0627_u000d", 
        "u0645_u0648_u0627_u062c_u0647_u0629 u0020 u0627_u064a u0020 u0645_u0645_u0627_u0631_u0633_u0627_u062a u0020 u062a_u0639_u0628_u0631 u0020 u0639_u0646 u0020 u0639_u062f_u0645 u0020 u0627_u0644_u0639_u062f_u0627_u0644_u0629 u0020 u0627_u0639_u062f_u0645 u0020 u0627_u0644_u0645_u0633_u0627_u0648_u0629_u000d", 
        "u0645_u0648_u0627_u062c_u0647_u0629 u0020 u062d_u0627_u0644_u0627_u062a u0020 u0639_u062f_u0645 u0020 u0627_u0644_u0641_u0647_u0645 u0020 u0648_u062a_u0648_u0636_u064a_u062d u0020 u0648_u0627_u0632_u0644_u0629 u0020 u0627_u0644_u0644_u0628_u0633 u0020 u0648_u0627_u0644_u063a_u0645_u0648_u0636 u0020 u0641_u064a u0020 u0628_u0639_u0636 u0020 u0627_u0644_u0633_u064a_u0627_u0633_u0627_u062a_u000d", 
        "u062a_u0648_u0636_u064a_u062d u0020 u0627_u0644_u0627_u062e_u062a_u0635_u0627_u0635_u0627_u062a u0020 u0648_u0627_u0644_u0627_u062f_u0648_u0627_u0631 u0020 u0644_u0644_u0627_u0641_u0631_u0627_u062f_u000d", 
        "u0645_u0634_u0627_u0631_u0643_u0629 u0020 u0627_u0644_u0645_u0648_u0638_u0641_u064a_u0646 u0020 u0641_u064a u0020 u0645_u0646_u0627_u0642_u0634_u0627_u062a u0020 u062d_u0648_u0627_u0631_u064a_u0629 u0020 u062d_u0648_u0644 u0020 u0627_u0644_u0645_u0648_u0627_u0636_u064a_u0639 u0020 u0627_u0644_u0645_u062a_u0639_u0644_u0642_u0629 u0020 u0628_u0634_u0624_u0648_u0646_u0647_u0645 u0020 u0648_u0633_u0628_u0644 u0020 u062a_u0637_u0648_u064a_u0631 u0020 u0639_u0644_u0627_u0642_u0627_u062a_u0647_u0645", 
        "u0648_u0633_u0627_u0626_u0644 u0020 u0627_u0644_u0639_u0644_u0627_u0642_u0627_u062a u0020 u0627_u0644_u0639_u0627_u0645_u0629 u0020 u0644_u0644_u062a_u0639_u0627_u0645_u0644 u0020 u0627_u0644_u062c_u0645_u0647_u0648_u0631 u0020 u0627_u0644_u062e_u0627_u0631_u062c_u064a_u000d", 
        "u062f_u0631_u0627_u0633_u0629 u0020 u0627_u062a_u062c_u0627_u0647_u0627_u062a u0020 u0627_u0644_u0631_u0627_u064a u0020 u0627_u0644_u0639_u0627_u0645 u0020 u0639_u0644_u0649 u0020 u0645_u0633_u062a_u0648_u0649 u0020 u0642_u0637_u0627_u0639 u0020 u0627_u0648 u0020 u0639_u062f_u0629 u0020 u0642_u0637_u0627_u0639_u0627_u062a u0020 u0645_u0646 u0020 u0627_u0644_u0645_u062c_u062a_u0645_u0639_u000d", 
        "u062e_u0644_u0642 u0020 u0645_u062c_u0627_u0644_u0633 u0020 u0648_u0644_u062c_u0627_u0646 u0020 u0644_u0644_u062a_u0634_u0627_u0648_u0631 u0020 u062d_u0648_u0644 u0020 u062a_u0637_u0648_u064a_u0631 u0020 u0648_u0638_u064a_u0641_u0629 u0020 u0627_u0644_u0645_u0646_u0638_u0645_u0629 u0020 u0648_u0639_u0644_u0627_u0642_u062a_u0647_u0627 u0020 u0645_u0639 u0020 u0627_u0644_u0645_u062c_u062a_u0645_u0639_u000d", 
        "u0627_u0644_u062d_u0631_u0635 u0020 u0639_u0644_u0649 u0020 u0627_u0646 u0020 u0627_u0644_u062e_u062f_u0645_u0627_u062a u0020 u0627_u0648 u0020 u0627_u0644_u0633_u0644_u0639 u0020 u0627_u0644_u0645_u0642_u062f_u0645_u0629 u0020 u0645_u0646_u0633_u062c_u0645_u0629 u0020 u0645_u0639 u0020 u0630_u0648_u0642 u0020 u0648_u0642_u062f_u0631_u0629 u0020 u0627_u0644_u062c_u0645_u0647_u0648_u0631 u0020 u0648_u0639_u0627_u062f_u0627_u062a_u0647 u0020 u0648_u062a_u0642_u0627_u0644_u064a_u062f_u0629_u000d", 
        "u0627_u0639_u0644_u0627_u0645 u0020 u0627_u0644_u062c_u0645_u0647_u0648_u0631 u0020 u0628_u0648_u062c_u0647_u0629 u0020 u0646_u0638_u0631 u0020 u0627_u0644_u0645_u0624_u0633_u0633_u0629 u0020 u0648_u0627_u0644_u0641_u0644_u0633_u0641_u0629 u0020 u0627_u0644_u062a_u064a u0020 u062a_u0646_u062a_u0647_u062c_u0647_u0627 u0020 u0648_u0627_u0628_u0631_u0627_u0632 u0020 u0627_u0644_u0642_u0648_u0627_u0633_u0645 u0020 u0627_u0644_u0645_u0634_u062a_u0631_u0643_u0629 u0020 u0628_u064a_u0646 u0020 u0627_u0644_u0645_u0646_u0638_u0645_u0629 u0020 u0648_u0627_u0644_u062c_u0645_u0647_u0648_u0631_u000d", 
        "u062a_u0639_u062f_u064a_u0644 u0020 u0648_u062a_u0635_u062d_u064a_u062d u0020 u0633_u0648_u0627_u0621 u0020 u0627_u0644_u0641_u0647_u0645 u0020 u062d_u0648_u0644 u0020 u0627_u0644_u0645_u0646_u0638_u0645_u0629 u0020 u0645_u0646 u0020 u062e_u0644_u0627_u0644 u0020 u0627_u0633_u062a_u0642_u0628_u0627_u0644 u0020 u0627_u0644_u0634_u0643_u0627_u0648_u064a u0020 u0648_u0627_u0644_u0645_u0648_u0636_u0648_u0639_u064a_u0629 u0020 u0628_u0627_u0644_u062a_u0639_u0627_u0645_u0644 u0020 u0645_u0639 u0020 u0647_u0630_u0647 u0020 u0627_u0644_u0634_u0643_u0627_u0648_u064a u0020 u000d", 
        "u0648_u0627_u0644_u0639_u0645_u0644 u0020 u0639_u0644_u0649 u0020 u0627_u0644_u0631_u062f u0020 u0639_u0644_u0649 u0020 u0627_u0644_u062c_u0647_u0627_u062a u0020 u0627_u0644_u0645_u0646_u0627_u0641_u0633_u0629 u0020 u0648_u0627_u0644_u0636_u0627_u063a_u0637_u0629_u000d", 
        "u0627_u0644_u062a_u0639_u0627_u0648_u0646 u0020 u0645_u0639 u0020 u0627_u0644_u0645_u0624_u0633_u0633_u0627_u062a u0020 u0627_u0644_u0645_u0624_u062b_u0631_u0629 u0020 u0648_u0628_u0646_u0627_u0621 u0020 u0639_u0644_u0627_u0642_u0627_u062a u0020 u0648_u0637_u064a_u062f_u0629 u0020 u0645_u0639_u0647_u0627 u0020 u0645_u062b_u0644 u0020 u0627_u0644_u062c_u0627_u0645_u0639_u0627_u062a u0020 u0648_u0627_u0644_u0646_u0648_u0627_u062f_u064a u0020 u0648_u0627_u0644_u0646_u0642_u0627_u0628_u0627_u062a u0020 u0648_u0627_u0644_u0627_u062d_u0632_u0627_u0628 u0020 u000d", 
        "u062a_u0646_u0638_u064a_u0645 u0020 u0648_u0639_u0642_u062f u0020 u0627_u0644_u0646_u062f_u0648_u0627_u062a u0020 u0648_u0627_u0644_u0624_u062a_u0645_u0631_u0627_u062a u0020 u0648_u0627_u0644_u0645_u0639_u0627_u0631_u0636 u0020 u0644_u062a_u062d_u0642_u064a_u0642 u0020 u0627_u0644_u062a_u0641_u0627_u0639_u0644 u0020 u0645_u0639 u0020 u0627_u0644_u062c_u0645_u0627_u0647_u064a_u0631_u000d", 
        "u062a_u0646_u0638_u064a_u0645 u0020 u0627_u0644_u0627_u062d_u062a_u0641_u0627_u0644_u0627_u062a u0020 u0648_u0627_u0644_u0632_u064a_u0627_u0631_u0627_u062a u0020 u0648_u0627_u062d_u064a_u0627 u0020 u0627_u0644_u0645_u0646_u0627_u0633_u0628_u0627_u062a u0020 u0627_u0644_u062a_u064a u0020 u062a_u062d_u0633_u0646 u0020 u0645_u0646 u0020 u0635_u0648_u0631_u0629 u0020 u0627_u0644_u0645_u0646_u0638_u0645_u0629", 
        "u0039"
    ]
}