{
    "bounding_box": [
        [
            260, 
            43, 
            150, 
            33
        ], 
        [
            601, 
            121, 
            53, 
            18
        ], 
        [
            439, 
            158, 
            216, 
            27
        ], 
        [
            499, 
            197, 
            155, 
            26
        ], 
        [
            398, 
            224, 
            257, 
            35
        ], 
        [
            188, 
            271, 
            466, 
            26
        ], 
        [
            570, 
            311, 
            84, 
            20
        ], 
        [
            598, 
            344, 
            56, 
            24
        ]
    ], 
    "image_height": 540, 
    "image_width": 720, 
    "transcription": [
        "u0627_u0644_u0641_u0647_u0631_u0633 u0020 u003a_u0020", 
        "u0646_u0634_u0627_u062a_u0629_u000d", 
        "u0627_u0633_u0631_u062a_u0629 u0020 u0028_u0632_u0648_u062c_u0627_u062a_u0647 u0020 u0648 u0020 u0627_u0628_u0646_u0627_u0626_u0629 u0020 u0029_u000d", 
        "u0648_u0644_u0627_u064a_u0629 u0020 u0639_u0647_u062f_u0629 u0020 u0020_u0644_u062f_u0628_u064a u0020 u000d", 
        "u0623_u0639_u0645_u0627_u0644_u0647 u0020 u0623_u062b_u0646_u0627_u0621 u0020 u062a_u0648_u0644_u064a_u0647 u0020 u0648_u0644_u0627_u064a_u0629 u0020 u0627_u0644_u0639_u0647_u062f u0020 u000d", 
        "u0646_u0627_u0626_u0628_u0627 u0020 u0644_u0631_u0626_u064a_u0633 u0020 u0627_u0644_u062f_u0648_u0644_u0629 u0020 u0648_u0631_u0626_u064a_u0633_u0627 u0020 u0644_u0645_u062c_u0644_u0633 u0020 u0627_u0644_u0648_u0632_u0631_u0627_u0621 u0020 u0648_u062d_u0627_u0643_u0645_u0627 u0020 u0644_u062f_u0628_u064a_u000d", 
        "u0645_u0634_u0627_u0631_u064a_u0639_u0647 u0020 u000d", 
        "u0642_u0636_u064a_u0627_u0647_u000d"
    ]
}