{
    "bounding_box": [
        [
            256, 
            27, 
            454, 
            37
        ], 
        [
            145, 
            148, 
            527, 
            25
        ], 
        [
            190, 
            212, 
            481, 
            26
        ], 
        [
            220, 
            276, 
            451, 
            25
        ], 
        [
            232, 
            339, 
            439, 
            25
        ]
    ], 
    "image_height": 540, 
    "image_width": 720, 
    "transcription": [
        "u0627_u0644_u0645_u062a_u0637_u0644_u0628_u0627_u062a u0020 u0627_u0644_u0642_u0627_u0646_u0648_u0646_u064a_u0629 u0020 u0644_u0641_u062d_u0635 u0020 u0627_u0644_u062a_u062d_u0645_u0644 u0020 u000b", 
        "u064a_u062c_u0628 u0020 u0625_u062c_u0631_u0627_u0621 u0020 u0641_u062d_u0635 u0020 u0627_u0644_u062a_u062d_u0645_u0644 u0020 u0628_u0627_u0646_u062a_u0638_u0627_u0645 u0020 u0028_u0639_u0644_u0649 u0020 u0646_u062d_u0648 u0020 u0631_u0628_u0639 u0020 u0633_u0646_u0648_u064a u0020 u0639_u0644_u0649 u0020 u0627_u0644_u0623_u0642_u0644_u0029_u002e_u000d", 
        "u064a_u062c_u0628 u0020 u0625_u0637_u0644_u0627_u0639 u0020 u0635_u0646_u0627_u0639 u0020 u0627_u0644_u0642_u0631_u0627_u0631 u0020 u0641_u064a u0020 u0627_u0644_u0634_u0631_u0643_u0629 u0020 u0639_u0644_u0649 u0020 u0646_u062a_u0627_u0626_u062c u0020 u0641_u062d_u0635 u0020 u0627_u0644_u062a_u062d_u0645_u0644_u002e_u000d", 
        "u064a_u062c_u0628 u0020 u0630_u0643_u0631 u0020 u0627_u0644_u0625_u062c_u0631_u0627_u0621_u0627_u062a u0020 u0648_u0627_u0644_u0645_u0633_u0624_u0648_u0644_u064a_u0627_u062a u0020 u0641_u064a u0020 u062f_u0644_u064a_u0644 u0020 u0625_u062f_u0627_u0631_u0629 u0020 u0627_u0644_u0645_u062e_u0627_u0637_u0631_u002e_u000d", 
        "u0646_u062a_u064a_u062c_u0629 u0020 u0627_u0644_u0627_u062e_u062a_u0628_u0627_u0631 u0020 u0648_u0627_u0644_u0625_u062c_u0631_u0627_u0621_u0627_u062a u0020 u0627_u0644_u062a_u064a u0020 u064a_u062c_u0628 u0020 u0627_u062a_u062e_u0627_u0630_u0647_u0627 u0020 u0628_u0646_u0627_u0621_u0627 u0020 u0639_u0644_u064a_u0647_u0627_u002e"
    ]
}