{
    "bounding_box": [
        [
            264, 
            234, 
            212, 
            31
        ], 
        [
            347, 
            270, 
            52, 
            29
        ], 
        [
            293, 
            40, 
            156, 
            17
        ], 
        [
            296, 
            60, 
            150, 
            18
        ], 
        [
            296, 
            83, 
            150, 
            17
        ], 
        [
            352, 
            104, 
            38, 
            14
        ], 
        [
            150, 
            441, 
            174, 
            18
        ], 
        [
            198, 
            461, 
            85, 
            16
        ], 
        [
            517, 
            119, 
            156, 
            16
        ], 
        [
            512, 
            137, 
            165, 
            18
        ], 
        [
            537, 
            161, 
            120, 
            16
        ], 
        [
            71, 
            106, 
            162, 
            18
        ], 
        [
            80, 
            128, 
            145, 
            18
        ], 
        [
            78, 
            150, 
            149, 
            17
        ], 
        [
            125, 
            169, 
            59, 
            19
        ], 
        [
            61, 
            305, 
            155, 
            17
        ], 
        [
            94, 
            324, 
            93, 
            18
        ], 
        [
            539, 
            294, 
            130, 
            17
        ], 
        [
            533, 
            315, 
            141, 
            18
        ], 
        [
            529, 
            336, 
            154, 
            18
        ], 
        [
            421, 
            443, 
            167, 
            16
        ], 
        [
            425, 
            461, 
            163, 
            18
        ], 
        [
            649, 
            497, 
            27, 
            14
        ]
    ], 
    "image_height": 540, 
    "image_width": 720, 
    "transcription": [
        "u0627_u0647_u062f_u0627_u0641 u0020 u067e_u06cc_u0627_u062f_u0647 u0020 u0633_u0627_u0632_u06cc u0020 u0646_u0631_u0645_u0020", 
        "u0627_u0641_u0632_u0627_u0631_u0020", 
        "u0627_u0637_u0644_u0627_u0639 u0020 u0631_u0633_u0627_u0646_u06cc u0020 u062a_u062e_u0635_u0635_u06cc u0020 u062f_u0631_u0020", 
        "u0645_u0648_u0631_u062f u0020 u0645_u0639_u0636_u0644_u0627_u062a u0020 u0633_u0644_u0627_u0645_u062a_u06cc u0020 u0648_u0020", 
        "u0628_u0647_u062f_u0627_u0634_u062a_u06cc u0020 u062f_u0631 u0020 u0647_u0631 u0020 u0645_u0646_u0637_u0642_u0647 u0020 u0627_u0632_u0020", 
        "u06a9_u0634_u0648_u0631_u0020", 
        "u0627_u0637_u0644_u0627_u0639 u0020 u0631_u0633_u0627_u0646_u06cc u0020 u062c_u0647_u062a u0020 u067e_u06cc_u0634_u06af_u06cc_u0631_u06cc_u0020", 
        "u0647_u0627_u06cc u0020 u0645_u0646_u0637_u0642_u0647 u0020 u0627_u06cc", 
        "u0627_u0645_u06a9_u0627_u0646 u0020 u062f_u0633_u062a_u0631_u0633_u06cc u0020 u0628_u0647 u0020 u0645_u0642_u0627_u0644_u0627_u062a_u0020", 
        "u0639_u0644_u0645_u06cc u0020 u0648 u0020 u0645_u0648_u0631_u062f u0020 u062a_u0627_u06cc_u06cc_u062f u0020 u062f_u0627_u0646_u0634_u06af_u0627_u0647_u0020", 
        "u0647_u0627 u0020 u0648 u0020 u0648_u0632_u0627_u0631_u062a u0020 u0628_u0647_u062f_u0627_u0634_u062a", 
        "u0628_u0647 u0020 u0627_u0634_u062a_u0631_u0627_u06a9 u0020 u06af_u0630_u0627_u0631_u06cc u0020 u062a_u0635_u0627_u0648_u06cc_u0631_u060c_u0020", 
        "u0627_u062e_u0628_u0627_u0631 u0020 u0648 u0020 u0645_u0642_u0627_u0644_u0627_u062a u0020 u0622_u0645_u0648_u0632_u0634_u06cc_u0020", 
        "u062c_u0647_u062a u0020 u0627_u0631_u062a_u0642_u0627_u06cc u0020 u0633_u0637_u062d u0020 u062f_u0627_u0646_u0634_u0020", 
        "u0634_u0647_u0631_u0648_u0646_u062f_u0627_u0646", 
        "u0627_u0637_u0644_u0627_u0639 u0020 u0631_u0633_u0627_u0646_u06cc u0020 u0628_u06cc_u0645_u0627_u0631_u06cc u0020 u0647_u0627_u06cc_u0020", 
        "u062e_u0627_u0635 u0020 u0645_u0646_u0637_u0642_u0647 u0020 u0627_u06cc", 
        "u062a_u0648_u0644_u06cc_u062f u0020 u0645_u062d_u062a_u0648_u0627_u06cc u0020 u0645_u0648_u062b_u0631 u0020 u0648_u0020", 
        "u0641_u0631_u0647_u0646_u06af u0020 u0633_u0627_u0632_u06cc u0020 u0627_u0632 u0020 u0637_u0631_u06cc_u0642_u0020", 
        "u0628_u0631_u06af_u0632_u0627_u0631_u06cc u0020 u0645_u0633_u0627_u0628_u0642_u0627_u062a u0020 u0639_u06a9_u0627_u0633_u06cc", 
        "u0627_u0639_u0644_u0627_u0645 u0020 u0647_u0634_u062f_u0627_u0631_u0647_u0627_u06cc u0020 u067e_u0632_u0634_u06a9_u06cc u0020 u0628_u0647_u0020", 
        "u0634_u0647_u0631_u0648_u0646_u062f_u0627_u0646 u0020 u0645_u0646_u0627_u0637_u0642 u0020 u0645_u0648_u0631_u062f u0020 u0646_u0638_u0631", 
        "u0036_u002f_u0032_u0034"
    ]
}