{
    "bounding_box": [
        [
            139, 
            125, 
            515, 
            28
        ], 
        [
            355, 
            155, 
            299, 
            30
        ], 
        [
            124, 
            188, 
            531, 
            35
        ], 
        [
            358, 
            64, 
            317, 
            40
        ]
    ], 
    "image_height": 540, 
    "image_width": 720, 
    "transcription": [
        "u0627_u064a_u0646 u0020 u0628_u064a_u0645_u0627_u0631_u064a u0020 u0645_u0627_u0646_u0646_u062f u0020 u062c_u0647_u0644_u060c u0020 u062a_u0641_u0631_u0642_u0647_u060c u0020 u0638_u0644_u0645_u060c u0020 u062e_u0634_u0648_u0646_u062a_u060c u0020 u0641_u0642_u0631_u060c u0020 u062c_u0646_u06af_u060c u0020 u0641_u0633_u0627_u062f_u0020", 
        "u0627_u062c_u062a_u0645_u0627_u0639_u064a_u060c_u062e_u064a_u0627_u0646_u062a u0020 u0648 u0020 u067e_u064a_u0645_u0627_u0646 u0020 u0634_u0643_u0646_u064a u0020 u0648 u0020 u002e_u002e_u002e_u000d", 
        "u0642_u0631_u0622_u0646 u0020 u0628_u0631_u0627_u064a u0020 u062f_u0631_u0645_u0627_u0646 u0020 u0627_u064a_u0646 u0020 u0628_u064a_u0645_u0627_u0631_u064a u0020 u0631_u0627_u0647_u0643_u0627_u0631_u0647_u0627_u064a_u064a u0020 u0631_u0627 u0020 u0627_u0631_u0627_u0626_u0647 u0020 u0641_u0631_u0645_u0648_u062f_u0647 u0020 u0627_u0633_u062a_u002e", 
        "u0628_u0029 u0020 u0628_u064a_u0645_u0627_u0631_u064a u0020 u0647_u0627_u064a u0020 u0627_u062c_u062a_u0645_u0627_u0639_u064a"
    ]
}