{
    "bounding_box": [
        [
            103, 
            42, 
            451, 
            41
        ], 
        [
            35, 
            124, 
            614, 
            30
        ], 
        [
            35, 
            158, 
            614, 
            30
        ], 
        [
            316, 
            191, 
            332, 
            30
        ], 
        [
            53, 
            233, 
            596, 
            29
        ], 
        [
            166, 
            275, 
            510, 
            25
        ], 
        [
            35, 
            312, 
            614, 
            31
        ], 
        [
            35, 
            348, 
            614, 
            28
        ], 
        [
            35, 
            380, 
            614, 
            30
        ], 
        [
            35, 
            412, 
            614, 
            31
        ], 
        [
            46, 
            447, 
            603, 
            30
        ]
    ], 
    "image_height": 540, 
    "image_width": 720, 
    "transcription": [
        "u0645_u0627 u0020 u0647_u064a u0020 u0627_u0634_u0643_u0627_u0644 u0020 u0627_u0644_u0627_u0646_u062a_u062d_u0627_u0644 u0020 u0028_u0627_u0644_u0627_u0633_u062a_u0644_u0627_u0644_u0029", 
        "u0639_u0645_u0644_u062a u0020 u0628_u062d_u0648_u062b u0020 u0628_u0627_u0644_u0627_u0634_u062a_u0631_u0627_u0643 u0020 u0645_u0639 u0020 u0623_u0634_u062e_u0627_u0635 u0020 u0622_u062e_u0631_u064a_u0646_u060c u0020 u0625_u0645_u0627 u0020 u0641_u064a u0020 u0647_u0630_u0647 u0020 u0627_u0644_u0641_u0626_u0629 u0020 u0623_u0648 u0020 u0641_u064a_u0020", 
        "u0641_u0626_u0629 u0020 u0623_u062e_u0631_u0649_u060c u0020 u0647_u0648 u0020 u0623_u064a_u0636_u0627 u0020 u064a_u0639_u062a_u0628_u0631 u0020 u0627_u0646_u062a_u062d_u0627_u0644 u0020 u0050_u006c_u0061_u0067_u0069_u0061_u0072_u0069_u0073_u006d u0020 u0020_u062d_u064a_u062b u0020 u0627_u0646_u0643 u0020 u062a_u0642_u062f_u0645_u0020", 
        "u0623_u0641_u0643_u0627_u0631 u0020 u0627_u0644_u0622_u062e_u0631_u064a_u0646 u0020 u0648_u0643_u0644_u0645_u0627_u062a_u0647_u0645 u0020 u0639_u0644_u0649 u0020 u0627_u0646_u0647_u0627 u0020 u0644_u0643_u002e_u000d", 
        "u0647_u0630_u0647 u0020 u0627_u0644_u0623_u0639_u0645_u0627_u0644 u0020 u0645_u0646 u0020 u0627_u0644_u0627_u0646_u062a_u062d_u0627_u0644 u0020 u0648_u063a_u064a_u0631_u0647_u0627 u0020 u0648_u0627_u0636_u062d_u0629 u0020 u0627_u0644_u0645_u0639_u0627_u0644_u0645 u0020 u0644_u0644_u063a_u0627_u064a_u0629 u0020 u0648_u0639_u0627_u062f_u0629 u0020 u0645_u0627 u0020 u0020 u0020 u000d", 
        "u0020 u0020 u0020 u0020 u0020_u062a_u0643_u0648_u0646 u0020 u0633_u0647_u0644_u0629 u0020 u062c_u062f_u0627 u0020 u0644_u0644_u0645_u062e_u062a_u0635_u064a_u0646 u0020 u0028_u0627_u0644_u0641_u0627_u062d_u0635_u064a_u0646_u0029 u0020 u0644_u0644_u0643_u0634_u0641 u0020 u0639_u0646_u0647_u0627_u002e_u000d", 
        "u0625_u0644_u0649 u0020 u062d_u062f u0020 u0645_u0627 u0020 u0628_u0634_u0643_u0644 u0020 u0623_u0642_u0644 u0020 u0623_u0648_u0628_u0634_u0643_u0644 u0020 u0635_u0627_u0631_u062e u0020 u0028_u0648_u0644_u0643_u0646 u0020 u0644_u0627 u0020 u062a_u0642_u0644 u0020 u062e_u0637_u0648_u0631_u0629_u0029 u0020 u0639_u0646_u0020", 
        "u062d_u0627_u0644_u0627_u062a u0020 u0627_u0644_u0627_u0646_u062a_u062d_u0627_u0644 u0020 u0627_u0644_u062a_u064a u0020 u062a_u0646_u0637_u0648_u064a u0020 u0639_u0644_u0649 u0020 u0639_u062f_u0645 u0020 u0627_u062a_u0628_u0627_u0639 u0020 u0642_u0648_u0627_u0639_u062f u0020 u0627_u0644_u0627_u0633_u062a_u062e_u062f_u0627_u0645 u0020 u0627_u0644_u0639_u0627_u062f_u0644_u0020", 
        "u0028_u0627_u0644_u0635_u062d_u064a_u062d_u0629_u0029 u0020 u0645_u0646 u0020 u0627_u0644_u0623_u0639_u0645_u0627_u0644 u0020 u0627_u0644_u0645_u0646_u0634_u0648_u0631_u0629_u002e u0020 u0648_u0644_u0647_u0630_u0627 u0020 u0627_u0644_u0633_u0628_u0628_u060c u0020 u0645_u0646 u0020 u0627_u0644_u0645_u0647_u0645 u0020 u0623_u0646 u0020 u0646_u0646_u0638_u0631_u0020", 
        "u0625_u0644_u0649 u0020 u0628_u0639_u0636 u0020 u0627_u0644_u0623_u0645_u062b_u0644_u0629 u0020 u0627_u0644_u0645_u062d_u062f_u062f_u0629 u0020 u0645_u0646 u0020 u0627_u0644_u0627_u0633_u062a_u062e_u062f_u0627_u0645 u0020 u063a_u064a_u0631 u0020 u0627_u0644_u0635_u062d_u064a_u062d u0020 u0648_u0639_u0644_u0649 u0020 u0627_u0644_u0646_u0642_u064a_u0636_u0020", 
        "u0645_u0646_u0647 u0020 u0625_u0644_u0649 u0020 u0623_u0645_u062b_u0644_u0629 u0020 u0645_u0646 u0020 u0627_u0644_u0627_u0633_u062a_u062e_u062f_u0627_u0645 u0020 u0627_u0644_u0639_u0627_u062f_u0644 u0020 u0648_u0627_u0644_u0635_u062d_u064a_u062d u0020 u0644_u0642_u0648_u0627_u0639_u062f u0020 u062a_u062c_u0646_u0628 u0020 u0627_u0644_u0627_u0633_u062a_u0644_u0627_u0644_u002e_u000d"
    ]
}