{
    "bounding_box": [
        [
            159, 
            56, 
            516, 
            50
        ], 
        [
            41, 
            137, 
            612, 
            34
        ], 
        [
            56, 
            174, 
            597, 
            35
        ], 
        [
            237, 
            215, 
            415, 
            33
        ], 
        [
            58, 
            252, 
            595, 
            34
        ], 
        [
            52, 
            291, 
            601, 
            33
        ], 
        [
            44, 
            330, 
            608, 
            33
        ], 
        [
            42, 
            366, 
            610, 
            35
        ], 
        [
            643, 
            420, 
            10, 
            10
        ]
    ], 
    "image_height": 540, 
    "image_width": 720, 
    "transcription": [
        "u062a_u062d_u0642_u064a_u0642 u0020 u0627_u0644_u0645_u0635_u0627_u0644_u062d u0020 u0020_u0647_u0648 u0020 u0645_u0642_u0635_u062f u0020 u0627_u0644_u0634_u0631_u064a_u0639_u0629", 
        "u0627_u0633_u062a_u0647_u062f_u0641_u062a u0020 u0627_u0644_u0627_u062d_u0643_u0627_u0645 u0020 u0627_u0644_u0634_u0631_u0639_u064a_u0629 u0020 u0641_u0649 u0020 u0639_u0645_u0648_u0645_u0647_u0627 u0020 u062a_u062d_u0642_u064a_u0642 u0020 u0627_u0644_u0645_u0642_u0627_u0635_u062f u0020 u062d_u064a_u062b_u0020", 
        "u0639_u0631_u0641_u062a u0020 u0628_u0627_u0646_u0647_u0627 u0020 u0028_u0627_u0647_u062f_u0627_u0641 u0020 u0627_u0644_u0634_u0631_u064a_u0639_u0629 u0020 u0648_u063a_u0627_u064a_u0627_u062a_u0647_u0627 u0020 u0627_u0644_u062a_u0649 u0020 u0642_u0635_u062f_u0647_u0627 u0020 u0627_u0644_u0634_u0627_u0631_u0639_u0020", 
        "u0644_u062a_u062d_u0642_u064a_u0642 u0020 u0645_u0635_u0627_u0644_u062d u0020 u0627_u0644_u0639_u0628_u0627_u062f u0020 u0641_u0649 u0020 u0627_u0644_u062f_u0627_u0631_u064a_u0646 u0020 u0029 u0020 u0028_u0034_u0029_u002e u0020 u000d", 
        "u0648_u0647_u0643_u0630_u0627 u0020 u064a_u0643_u0648_u0646 u0020 u062a_u062d_u0642_u064a_u0642 u0020 u0645_u0635_u0627_u0644_u062d u0020 u0627_u0644_u0639_u0628_u0627_u062f u0020 u0641_u0649 u0020 u0627_u0644_u0622_u062c_u0644 u0020 u0648_u0627_u0644_u0639_u0627_u062c_u0644 u0020 u0641_u0649 u0020 u0643_u0644_u0020", 
        "u0645_u062c_u0627_u0644_u0627_u062a u0020 u0627_u0644_u062d_u064a_u0627_u0629 u0020 u0641_u0649 u0020 u0627_u0644_u0639_u0628_u0627_u062f_u0627_u062a u0020 u0648_u0627_u0644_u0639_u0627_u062f_u0627_u062a u0020 u0648_u0627_u0644_u0645_u0639_u0627_u0645_u0644_u0627_u062a u0020 u0020_u0647_u0648 u0020 u0645_u0642_u0635_u062f_u0020", 
        "u0627_u0644_u0634_u0627_u0631_u0639 u0020 u0627_u0644_u0630_u0649 u0020 u0645_u0646 u0020 u0627_u062c_u0644_u0647 u0020 u0627_u0646_u0632_u0644 u0020 u0627_u0644_u062a_u0634_u0631_u064a_u0639 u0020 u060c u0020 u0648_u0644_u0627_u0634_u0643 u0020 u0627_u0646 u0020 u0630_u0644_u0643 u0020 u0020_u064a_u062a_u0635_u0644_u0020", 
        "u0628_u0643_u064a_u0641_u064a_u0629 u0020 u062a_u0646_u0638_u064a_u0645 u0020 u062d_u064a_u0627_u0629 u0020 u0627_u0644_u0646_u0627_u0633 u0020 u0627_u0644_u0633_u064a_u0627_u0633_u064a_u0629 u0020 u0648_u0627_u0644_u0625_u0642_u062a_u0635_u0627_u062f_u064a_u0629 u0020 u0648_u0627_u0644_u0625_u062c_u062a_u0645_u0627_u0639_u064a_u0629_u0020", 
        "u060c"
    ]
}