{
    "bounding_box": [
        [
            168, 
            23, 
            358, 
            43
        ], 
        [
            71, 
            84, 
            624, 
            31
        ], 
        [
            43, 
            117, 
            652, 
            31
        ], 
        [
            83, 
            150, 
            612, 
            32
        ], 
        [
            444, 
            185, 
            251, 
            28
        ], 
        [
            120, 
            217, 
            575, 
            39
        ], 
        [
            353, 
            259, 
            342, 
            38
        ], 
        [
            30, 
            299, 
            664, 
            38
        ], 
        [
            15, 
            338, 
            680, 
            32
        ], 
        [
            338, 
            373, 
            357, 
            31
        ], 
        [
            41, 
            408, 
            653, 
            36
        ], 
        [
            28, 
            446, 
            666, 
            32
        ], 
        [
            306, 
            481, 
            389, 
            30
        ]
    ], 
    "image_height": 540, 
    "image_width": 720, 
    "transcription": [
        "u0627_u0644_u0646_u0638_u0631_u064a_u0629 u0020 u0627_u0644_u0633_u0644_u0648_u0643_u064a_u0629_u0020", 
        "u0631_u0643_u0632_u062a u0020 u0639_u0644_u0649 u0020 u0641_u0647_u0645 u0020 u0633_u0644_u0648_u0643 u0020 u0627_u0644_u0625_u0646_u0633_u0627_u0646 u0020 u0648_u0627_u0644_u062c_u0645_u0627_u0639_u0627_u062a u0020 u0028_u0627_u0644_u062f_u0648_u0627_u0641_u0639_u060c u0020 u0627_u0644_u062d_u0627_u062c_u0627_u062a_u060c u0020 u0627_u0644_u0642_u062f_u0631_u0627_u062a_u0020", 
        "u060c_u0627_u0644_u0625_u062a_u062c_u0627_u0647_u0627_u062a u0020 u060c_u062f_u064a_u0646_u0627_u0645_u0643_u064a_u0629 u0020 u0627_u0644_u062c_u0645_u0627_u0639_u0629_u0029_u062f_u0627_u062e_u0644 u0020 u0627_u0644_u0645_u0646_u0638_u0645_u0627_u062a u0020 u0648_u062a_u0641_u0633_u064a_u0631_u0647 u0020 u0648_u0627_u0644_u062a_u062d_u0643_u0645 u0020 u0628_u0647 u0020 u0648_u062a_u0639_u062f_u064a_u0644_u0647_u0020", 
        "u0648_u062a_u0648_u062c_u064a_u0647_u0647 u0020 u0628_u0645_u0627 u0020 u064a_u062e_u062f_u0645 u0020 u0623_u0647_u062f_u0627_u0641 u0020 u0627_u0644_u0645_u0646_u0638_u0645_u0629 u0020 u060c_u0648_u0630_u0644_u0643 u0020 u0645_u0627_u0641_u0634_u0644_u062a u0020 u0641_u064a_u0647 u0020 u0627_u0644_u0645_u062f_u0631_u0633_u0629 u0020 u0627_u0644_u062a_u0642_u0644_u064a_u062f_u064a_u0629_u0020", 
        "u0648_u0648_u0645_u062f_u0631_u0633_u0629 u0020 u0627_u0644_u0639_u0644_u0627_u0642_u0627_u062a u0020 u0627_u0644_u0625_u0646_u0633_u0627_u0646_u064a_u0629_u000d", 
        "u0627_u0644_u0645_u0628_u0627_u062f_u0626 u0020 u0627_u0644_u0631_u0626_u064a_u0633_u064a_u0629 u0020 u0644_u0644_u0646_u0638_u0631_u064a_u0629_u003a u0020 u0623_u0648 u0020 u0645_u0627_u062a_u0639_u0631_u0641 u0020 u0628_u062e_u0635_u0627_u0626_u0635 u0020 u0627_u0644_u0633_u0644_u0648_u0643 u0020 u0627_u0644_u0625_u0646_u0633_u0627_u0646_u064a_u000d", 
        "u0031_u0640 u0020 u0627_u0644_u0625_u064a_u0645_u0627_u0646 u0020 u0628_u0627_u0644_u0641_u0631_u0648_u0642 u0020 u0627_u0644_u0641_u0631_u062f_u064a_u0629 u0020 u0628_u064a_u0646 u0020 u0627_u0644_u0623_u0641_u0631_u0627_u062f u0020 u000d", 
        "u0032_u0640 u0020 u0627_u0644_u0633_u0644_u0648_u0643 u0020 u0627_u0644_u0625_u0646_u0633_u0627_u0646_u064a u0020 u0645_u062d_u0635_u0644_u0629 u0020 u0644_u062a_u0641_u0627_u0639_u0644 u0020 u0627_u0644_u0641_u0631_u062f u0020 u0645_u0639 u0020 u0627_u0644_u0628_u064a_u0626_u0629 u0020 u0627_u0644_u0645_u062d_u064a_u0637_u0629 u0020 u0628_u0647 u0020 u060c u0020 u0623_u064a u0020 u0623_u0646 u0020 u0647_u0646_u0627_u0643_u0020", 
        "u0639_u0648_u0627_u0645_u0644 u0020 u062f_u0627_u062e_u0644_u064a_u0629 u0020 u0028_u0627_u0644_u0641_u0631_u062f u0020 u0646_u0641_u0633_u0647_u0029_u0648_u0639_u0648_u0627_u0645_u0644 u0020 u062e_u0627_u0631_u062c_u064a_u0629 u0020 u0028 u0020 u0627_u0644_u0645_u062c_u062a_u0645_u0639 u0020 u0648_u0627_u0644_u0628_u064a_u0626_u0629 u0020 u0627_u0644_u0645_u062d_u064a_u0637_u0629 u0020 u0628_u0627_u0644_u0641_u0631_u062f_u0029_u0020", 
        "u062a_u062a_u0641_u0627_u0639_u0644 u0020 u0645_u0639_u0627_u064b u0020 u0648_u062a_u0633_u0647_u0645 u0020 u0641_u064a u0020 u062a_u0634_u0643_u064a_u0644 u0020 u0633_u0644_u0648_u0643 u0020 u0627_u0644_u0641_u0631_u062f_u000d", 
        "u0033_u0640 u0020 u0623_u0646 u0020 u0648_u0631_u0627_u0621 u0020 u0627_u0644_u0633_u0644_u0648_u0643 u0020 u062f_u0627_u0641_u0639_u0627_u064b_u0645_u062d_u062f_u062f_u0627_u064b u0020 u0028_u0627_u0644_u062f_u0627_u0641_u0639 u0020 u0647_u0648 u0020 u062d_u0627_u062c_u0629 u0020 u064a_u0633_u0639_u0649 u0020 u0627_u0644_u0627_u0646_u0633_u0627_u0646 u0020 u0625_u0644_u0649 u0020 u0627_u0634_u0628_u0627_u0639_u0647_u0627_u0020", 
        "u0029_u0648_u0647_u0648 u0020 u0627_u0644_u0645_u062d_u0631_u0643 u0020 u0627_u0644_u0642_u0648_u064a u0020 u0644_u0633_u0644_u0648_u0643 u0020 u0627_u0644_u0623_u0646_u0633_u0627_u0646 u0020 u060c u0020 u0641_u0639_u0646_u062f_u0645_u0627 u0020 u062a_u0643_u0648_u0646 u0020 u0647_u0646_u0627_u0643 u0020 u062d_u0627_u062c_u0627_u062a u0020 u063a_u064a_u0631 u0020 u0645_u0634_u0628_u0639_u0629_u0020", 
        "u064a_u0645_u064a_u0644 u0020 u0627_u0644_u0623_u0646_u0633_u0627_u0646 u0020 u0625_u0644_u0649 u0020 u0627_u062a_u0628_u0627_u0639 u0020 u0633_u0644_u0648_u0643 u0020 u0645_u0639_u064a_u0646 u0020 u0644_u0625_u0634_u0628_u0627_u0639_u0647_u0627_u000d"
    ]
}