{
    "bounding_box": [
        [
            179, 
            49, 
            361, 
            39
        ], 
        [
            30, 
            154, 
            613, 
            24
        ], 
        [
            30, 
            180, 
            613, 
            26
        ], 
        [
            555, 
            212, 
            88, 
            23
        ], 
        [
            39, 
            245, 
            603, 
            25
        ], 
        [
            30, 
            315, 
            613, 
            24
        ], 
        [
            30, 
            342, 
            613, 
            25
        ], 
        [
            30, 
            370, 
            613, 
            26
        ], 
        [
            218, 
            400, 
            425, 
            25
        ]
    ], 
    "image_height": 540, 
    "image_width": 720, 
    "transcription": [
        "u0623_u064a_u0651_u0627_u0645 u0020 u062a_u062a_u0648_u064a_u062c u0020 u0644_u0644_u0641_u0639_u0627_u0644_u064a_u0651_u0627_u062a u0020 u0641_u064a u0020 u0627_u0644_u0645_u062f_u0627_u0631_u0633", 
        "u062a_u062e_u0635_u064a_u0635 u0020 u064a_u0648_u0645_u064a_u0646 u0020 u0639_u0644_u0649 u0020 u0627_u0644_u0623_u0642_u0644 u0020 u0641_u064a u0020 u0627_u0644_u0645_u062f_u0627_u0631_u0633 u0020 u0644_u062c_u0645_u064a_u0639 u0020 u0627_u0644_u0645_u0631_u0627_u062d_u0644 u0020 u0627_u0644_u062a_u0639_u0644_u064a_u0645_u064a_u0651_u0629_u060c u0020 u064a_u064f_u0639_u0645_u0644 u0020 u0641_u064a_u0647_u0627_u0020", 
        "u0639_u0644_u0649 u0020 u062a_u062a_u0648_u064a_u062c u0020 u0639_u0627_u0645 u0020 u0627_u0644_u0644_u063a_u0629 u0020 u0627_u0644_u0639_u0631_u0628_u064a_u0629 u0020 u0641_u064a u0020 u0625_u062d_u064a_u0627_u0621 u0020 u0646_u0634_u0627_u0637_u0627_u062a u0020 u0648_u0625_u0642_u0627_u0645_u0629 u0020 u0641_u0639_u0627_u0644_u064a_u0627_u062a u0020 u062e_u0627_u0635_u0651_u0629_u0020", 
        "u0628_u0627_u0644_u0645_u0648_u0636_u0639_u002e u0020 u000d", 
        "u064a_u0645_u0643_u0646 u0020 u0623_u0646 u0020 u062a_u062a_u0648_u0651_u062c u0020 u0647_u0630_u0647 u0020 u0627_u0644_u0623_u064a_u0627_u0645 u0020 u062a_u062d_u062a u0020 u0639_u0646_u0648_u0627_u0646 u0020 u0645_u0639_u064a_u0646_u003a u0020 u201d_u0644_u063a_u062a_u064a u0020 u0647_u0648_u064a_u062a_u064a_u201c_u060c u0020 u201d_u0644_u063a_u062a_u064a u0020 u0639_u0627_u0644_u0645_u064a_u201c_u002e_u002e_u000d", 
        "u064a_u064f_u0631_u0627_u0639_u0649 u0020 u0641_u064a u0020 u0623_u064a_u0627_u0645 u0020 u0627_u0644_u062a_u062a_u0648_u064a_u062c u0020 u0645_u062c_u0627_u0631_u0627_u0629 u0020 u0627_u0644_u0645_u0634_u0627_u0631_u064a_u0639 u0020 u0648_u0627_u0644_u062e_u0637_u0637 u0020 u0627_u0644_u0642_u0627_u0626_u0645_u0629 u0020 u0641_u064a u0020 u0648_u0632_u0627_u0631_u0629 u0020 u0627_u0644_u062a_u0631_u0628_u064a_u0629_u0020", 
        "u0648_u0627_u0644_u062a_u0639_u0644_u064a_u0645_u060c u0020 u0645_u0627 u0020 u0633_u0628_u0642 u0020 u0645_u0646_u0647_u0627 u0020 u0645_u062b_u0644_u003a u0020 u0628_u0631_u0646_u0627_u0645_u062c u0020 u201d_u0627_u0644_u062a_u0646_u0648_u0651_u0631 u0020 u0627_u0644_u0644_u063a_u0648_u064a_u201c u0020 u0623_u0648 u0020 u0020_u0628_u0631_u0646_u0627_u0645_u062c u0020 u201d_u062f_u0645_u062c_u0020", 
        "u0627_u0644_u0645_u0647_u0627_u0631_u0627_u062a_u002d_u0634_u0644_u0647_u064a_u0641_u062a_u201c_u060c u0020 u0648_u0645_u0627 u0020 u0627_u0633_u062a_u062c_u062f_u0651 u0020 u0648_u0627_u0631_u062a_u0628_u0637 u0020 u0628_u0645_u0634_u0631_u0648_u0639 u0020 u201d_u0639_u0627_u0645 u0020 u0627_u0644_u0644_u063a_u0629 u0020 u0627_u0644_u0639_u0631_u0628_u064a_u0629_u201c u0020 u0645_u062b_u0644_u003a_u0020", 
        "u201d_u0627_u0644_u0643_u062a_u0627_u0628_u0629 u0020 u0627_u0644_u0625_u0628_u062f_u0627_u0639_u064a_u0629_u201c u0020 u0648_u201c_u0635_u0644_u062d_u0629 u0020 u0628_u064a_u0646 u0020 u0627_u0644_u0645_u062d_u0643_u064a_u0651_u0629 u0020 u0648_u0627_u0644_u0641_u0635_u062d_u0649_u201c_u002e_u000d"
    ]
}