{
    "bounding_box": [
        [
            119, 
            24, 
            541, 
            33
        ], 
        [
            46, 
            68, 
            641, 
            36
        ], 
        [
            93, 
            106, 
            567, 
            36
        ], 
        [
            82, 
            145, 
            578, 
            36
        ], 
        [
            396, 
            189, 
            264, 
            30
        ], 
        [
            431, 
            233, 
            256, 
            32
        ], 
        [
            46, 
            279, 
            641, 
            33
        ], 
        [
            71, 
            317, 
            589, 
            33
        ], 
        [
            75, 
            351, 
            585, 
            37
        ], 
        [
            409, 
            398, 
            251, 
            29
        ]
    ], 
    "image_height": 540, 
    "image_width": 720, 
    "transcription": [
        "u0648_u0625_u0630_u0627 u0020 u062f_u062c_u0644_u0629 u0020 u064f_u0639_u064e_u064e_u0630_u0652_u0628_u064c u0020 u0648_u0650_u0631_u0652_u062f_u064f_u0647_u0627 u0020 u0020 u0020 u0020_u0648_u0625_u0630_u0627 u0020 u0627_u0644_u0646_u0651_u064e_u062e_u0644_u064f u0020 u0643_u0631_u064a_u0645_u064f u0020 u0627_u0644_u0645_u0623_u0643_u064e_u0644_u0650 u0020 u0030_u000d", 
        "u0020_u0625_u0630_u0627 u0020 u062a_u0623_u0645_u0644_u062a_u064f u0020 u0627_u0644_u0635_u0641_u0629 u0020 u0627_u0644_u0645_u0634_u0628_u0647 u0020 u0628_u0627_u0633_u0645 u0020 u0627_u0644_u0641_u0627_u0639_u0644 u0020 u0641_u064a u0020 u0643_u0644_u0645_u0629 u0020 u0639_u064e_u0630_u0652_u0628_u064c u0020 u0646_u062c_u062f_u0647_u0627 u0020 u0646_u0643_u0631_u0629_u0020", 
        "u0645_u0646_u0648_u0651_u0646 u0020 u062e_u0628_u0631_u002c_u0648_u0642_u062f u0020 u0639_u064e_u0645_u0650_u0644_u0652_u062a u0020 u0639_u064e_u0645_u064e_u0644_u064e u0020 u0627_u0644_u0641_u0639_u0644 u0020 u0627_u0644_u0644_u0627_u0632_u0645 u0020 u0627_u0644_u0630_u064a u0020 u0627_u0634_u062a_u0642_u062a u0020 u0645_u0646_u0647_u0020", 
        "u0641_u0631_u0641_u0639_u062a u0020 u0641_u0627_u0639_u0644_u0627 u0020 u003a u0020 u0641_u0641_u0627_u0639_u0644 u0020 u0028_u0639_u064e_u0630_u0652_u0628_u064c_u0029 u0020 u0647_u0648 u0020 u0028_u0648_u0650_u0631_u0652_u062f_u064f_u0029 u0020 u002c u0020 u0648_u0648_u0642_u0639_u062a u0020 u0627_u0644_u0635_u0641_u0629_u0020", 
        "u0627_u0644_u0645_u0634_u0628_u0647 u0020 u0028_u0639_u0630_u0628_u0029 u0020 u0647_u0646_u0627 u0020 u062e_u0628_u0631_u0627_u0030_u000d", 
        "u0030_u0647_u0630_u0627 u0020 u063a_u0644_u0627_u0645_u064c u0020 u062d_u064e_u0633_u0651_u064e_u0646_u064c u0020 u0648_u064e_u062c_u0652_u0647_u064f_u0647_u064f_u0030_u000d", 
        "u0020_u0625_u0630_u0627 u0020 u062a_u0623_u0645_u0644_u062a_u064f u0020 u0627_u0644_u0635_u0641_u0629 u0020 u0627_u0644_u0645_u0634_u0628_u0647 u0020 u0628_u0627_u0633_u0645 u0020 u0627_u0644_u0641_u0627_u0639_u0644 u0020 u0641_u064a u0020 u0643_u0644_u0645_u0629 u0020 u062d_u064e_u0633_u064e_u0646_u064c u0020 u0646_u062c_u062f_u0647_u0627 u0020 u0646_u0643_u0631_u0629_u0020", 
        "u0645_u0646_u0648_u0651_u0646 u0020 u0646_u0639_u062a_u002c_u0648_u0642_u062f u0020 u0631_u0641_u0639_u062a u0020 u0641_u0627_u0639_u0644_u0627 u0020 u003a u0020 u0641_u0641_u0627_u0639_u0644 u0020 u0028_u062d_u064e_u0633_u0651_u064e_u0646_u064c_u0029 u0020 u0647_u0648 u0020 u0028_u0648_u064e_u062c_u0652_u0647_u064f_u0647_u064f_u0029 u0020 u002c_u0020", 
        "u0648_u0648_u0642_u0639_u062a u0020 u0627_u0644_u0635_u0641_u0629 u0020 u0627_u0644_u0645_u0634_u0628_u0647 u0020 u0028_u062d_u064e_u0633_u0651_u064e_u0646_u064c_u0029 u0020 u0647_u0646_u0627 u0020 u0646_u0639_u062a_u0627_u064b u0020 u002c u0020 u0639_u064e_u0645_u0650_u0644_u0652_u062a u0020 u0639_u064e_u0645_u064e_u0644_u064e u0020 u0627_u0644_u0641_u0639_u0644_u0020", 
        "u0627_u0644_u0644_u0627_u0632_u0645 u0020 u0627_u0644_u0630_u064a u0020 u0627_u0634_u062a_u0642_u062a u0020 u0645_u0646_u0647 u0020 u0030"
    ]
}