{
    "bounding_box": [
        [
            319, 
            89, 
            364, 
            55
        ], 
        [
            35, 
            163, 
            619, 
            24
        ], 
        [
            35, 
            192, 
            619, 
            25
        ], 
        [
            35, 
            222, 
            619, 
            27
        ], 
        [
            35, 
            255, 
            619, 
            24
        ], 
        [
            35, 
            283, 
            619, 
            28
        ], 
        [
            35, 
            315, 
            619, 
            28
        ], 
        [
            35, 
            345, 
            619, 
            29
        ], 
        [
            498, 
            381, 
            156, 
            20
        ], 
        [
            35, 
            417, 
            619, 
            25
        ], 
        [
            35, 
            446, 
            619, 
            25
        ], 
        [
            453, 
            480, 
            201, 
            24
        ], 
        [
            35, 
            514, 
            619, 
            28
        ]
    ], 
    "image_height": 540, 
    "image_width": 720, 
    "transcription": [
        "u0633_u062e_u062a u0020 u0627_u0641_u0632_u0627_u0631 u0020 u0633_u06cc_u0633_u062a_u0645_u0020", 
        "u062a_u0648_u0633_u0639_u0647 u0020 u006c_u0070_u0063 u0020 u0032_u0031_u0034_u0038 u0020 u0020 u0020 u06cc_u06a9 u0020 u0631_u0648_u0634 u0020 u062e_u0648_u0628 u0020 u0627_u0633_u062a u0020 u0648 u0020 u0628_u0647 u0020 u0631_u0627_u062d_u062a_u06cc u0020 u0627_u0646_u062c_u0627_u0645 u0020 u0645_u06cc_u0634_u0648_u062f u0020 u0686_u0648_u0646_u0020", 
        "u0633_u06cc_u0645 u0020 u06a9_u0634_u06cc u0020 u0627_u0648_u0644_u06cc_u0647 u0020 u0631_u0648_u06cc u0020 u062a_u062e_u062a_u0647 u0020 u0648 u0020 u0628_u062e_u0634 u0020 u0645_u0648_u0631_u062f u0020 u0646_u0638_u0631 u0020 u0628_u0631_u0627_u06cc u0020 u0633_u06cc_u0645_u0647_u0627_u06cc u0020 u0628_u06cc_u0631_u0648_u0646_u06cc u0020 u0628_u0647_u0020", 
        "u0648_u062c_u0648_u062f u0020 u0645_u06cc u0020 u0622_u06cc_u062f u0020 u0647_u062f_u0641 u0020 u0645_u0647_u0645 u0020 u0648_u0631_u0648_u062f_u06cc u0020 u062e_u0631_u0648_u062c_u06cc u0020 u0028_u0067_u0070_u0069_u006f_u0029 u0020 u0020_u0633_u06cc_u0645 u0020 u06a9_u0634_u06cc u0020 u0627_u0648_u0644_u06cc_u0647 u0020 u0020_u0648_u0020", 
        "u0627_u0631_u062a_u0628_u0627_u0637 u0020 u0628_u0627 u0020 u0628_u062e_u0634 u0020 u0627_u0635_u0644_u06cc u0020 u0631_u0627_u0628_u0637 u0020 u0646_u0647_u0627_u06cc_u06cc u0020 u0633_u06cc_u0645 u0020 u0647_u0627 u0020 u0627_u0633_u062a u0020 u0628_u0646_u0627 u0020 u0628_u0631 u0020 u0627_u06cc_u0646 u0020 u0628_u0627 u0020 u06cc_u06a9 u0020 u0633_u06cc_u0645_u0020", 
        "u0645_u0631_u06a9_u0632_u06cc u0020 u0627_u0631_u062a_u0628_u0627_u0637 u0020 u0628_u0647 u0020 u0648_u062c_u0648_u062f u0020 u0645_u06cc u0020 u0622_u06cc_u062f u0020 u006c_u0065_u0064 u0020 u0648 u0020 u0633_u0648_u0626_u06cc_u0686 u0020 u0647_u0627 u0020 u0628_u0647 u0020 u067e_u06cc_u0646 u0020 u0067_u0070_u0069_u006f u0020 u0645_u062a_u0635_u0644_u0020", 
        "u0645_u06cc_u0634_u0648_u0646_u062f u0020 u0020_u0070_u0069_u006e u0020 u0645_u0639_u0631_u0641_u06cc u0020 u0648 u0020 u0633_u0648_u0626_u06cc_u0686 u0020 u0647_u0627 u0020 u0645_u062a_u0635_u0644 u0020 u0645_u06cc_u0634_u0648_u062f u0020 u0648 u0020 u062f_u0631_u06af_u0627_u0647_u06cc u0020 u0628_u0631_u0627_u06cc u0020 u062e_u0631_u0648_u062c_u06cc_u0020", 
        "u004c_u0045_u0044 u0020 u0648 u0020 u0648_u0631_u0648_u062f_u06cc u0020 u0628_u0631_u0627_u06cc u0020 u0633_u0648_u0626_u06cc_u0686 u0020 u062f_u0631 u0020 u0628_u0631_u0646_u0627_u0645_u0647 u0020 u062f_u0631 u0020 u0646_u0638_u0631 u0020 u06af_u0631_u0641_u062a_u0647 u0020 u0645_u06cc_u0634_u0648_u062f u0020 u0648 u0020 u0622_u0645_u0627_u062f_u0647_u0020", 
        "u0627_u0633_u062a_u0641_u0627_u062f_u0647 u0020 u062e_u0648_u0627_u0647_u062f u0020 u0634_u062f u0020 u000d", 
        "u062f_u0631 u0020 u0627_u06cc_u0646 u0020 u0633_u06cc_u0633_u062a_u0645 u0020 u0067_u0070_u0069_u006f_u0030 u0020 u0648 u0020 u0067_u0070_u0069_u006f_u0031 u0020 u0628_u0647 u0020 u06a9_u0627_u0631 u0020 u0645_u06cc_u0631_u0648_u0646_u062f u0020 u006c_u0065_u0064 u0020 u0628_u0631_u0627_u06cc u0020 u0645_u0648_u0642_u0639_u06cc_u062a u0020 u0645_u0646_u0627_u0633_u0628_u0020", 
        "u0648 u0020 u0627_u0631_u062a_u0628_u0627_u0637 u0020 u0641_u0639_u0627_u0644 u0020 u0645_u06cc_u0627_u0646 u0020 u062f_u0648 u0020 u062a_u062e_u062a_u0647 u0020 u0627_u0633_u062a_u0641_u0627_u062f_u0647 u0020 u0634_u062f u0020 u0627_u0646_u062a_u0642_u0627_u0644 u0020 u062f_u0627_u062f_u0647 u0020 u0645_u0648_u0627_u0632_u06cc u0020 u0627_u0632 u0020 u0637_u0631_u06cc_u0642 u0020 u062f_u0631_u06af_u0627_u0647_u0020", 
        "u06a9_u0644_u06cc u0020 u006c_u002f_u006f u0020 u0627_u0646_u062c_u0627_u0645 u0020 u0645_u06cc_u0634_u0648_u062f u0020 u002e u0020 u000d", 
        "u062f_u0631_u06af_u0627_u0647 u0020 u0645_u0648_u0631_u062f u0020 u0627_u0633_u062a_u0641_u0627_u062f_u0647 u0020 u0020_u0067_u0070_u0069_u006f_u0031 u0020 u062f_u0631 u0020 u0038 u0020 u0628_u06cc_u062a u0020 u062f_u0627_u062f_u0647 u0020 u0627_u0633_u062a u0020 u0627_u06cc_u0646 u0020 u0627_u0631_u062a_u0628_u0627_u0637 u0020 u0628_u0647 u0020 u0628_u0631_u062e_u06cc_u0020"
    ]
}