{
    "bounding_box": [
        [
            472, 
            109, 
            185, 
            32
        ], 
        [
            103, 
            150, 
            554, 
            34
        ], 
        [
            81, 
            190, 
            575, 
            33
        ], 
        [
            70, 
            227, 
            586, 
            34
        ]
    ], 
    "image_height": 540, 
    "image_width": 720, 
    "transcription": [
        "u062b_u0627_u0646_u064a_u0627 u0020 u003a u0020 u062a_u0644_u0627_u0645_u064a_u0630_u0647 u0020 u003a_u000d", 
        "u0020 u0020 u0623_u0633_u0646_u062f u0020 u0625_u0644_u0649 u0020 u0623_u0628_u064a u0020 u0627_u0644_u0642_u0627_u0633_u0645 u0020 u0627_u0644_u0647_u0630_u0644_u064a u0020 u062a_u062f_u0631_u064a_u0633 u0020 u0639_u0644_u0645 u0020 u0627_u0644_u0642_u0631_u0627_u0621_u0627_u062a u0020 u0641_u064a_u0020", 
        "u0627_u0644_u0645_u062f_u0631_u0633_u0629 u0020 u0627_u0644_u0646_u0638_u0627_u0645_u064a_u0629 u0020 u062b_u0645_u0627_u0646_u064a u0020 u0633_u0646_u0648_u0627_u062a_u060c u0020 u0645_u0646 u0020 u0633_u0646_u0629 u0020 u0034_u0035_u0038_u0647_u0640 u0020 u0625_u0644_u0649 u0020 u0623_u0646_u0020", 
        "u062a_u0648_u0641_u064a u0020 u0633_u0646_u0629 u0020 u0034_u0036_u0035_u0647_u0640_u060c u0020 u0020_u0644_u0630_u0627 u0020 u0641_u0625_u0646 u0020 u0639_u062f_u062f u0020 u062a_u0644_u0627_u0645_u064a_u0630_u0647 u0020 u0644_u0627 u0020 u064a_u0645_u0643_u0646 u0020 u062d_u0635_u0631_u0647_u0645_u002e_u0020"
    ]
}