{
    "bounding_box": [
        [
            32, 
            134, 
            609, 
            39
        ], 
        [
            32, 
            183, 
            605, 
            42
        ], 
        [
            32, 
            230, 
            605, 
            38
        ], 
        [
            32, 
            278, 
            605, 
            43
        ], 
        [
            32, 
            326, 
            605, 
            43
        ], 
        [
            108, 
            376, 
            529, 
            41
        ]
    ], 
    "image_height": 540, 
    "image_width": 720, 
    "transcription": [
        "u0648_u062a_u0647_u062f_u0641 u0020 u0623_u0646_u0634_u0637_u0629 u0020 u0625_u062f_u0627_u0631_u0629 u0020 u0627_u0644_u0625_u062d_u0635_u0627_u0621 u0020 u0648_u0642_u0648_u0627_u0639_u062f_u0020", 
        "u0627_u0644_u0645_u0639_u0644_u0648_u0645_u0627_u062a u0020 u0641_u064a u0020 u0645_u062c_u0645_u0644_u0647_u0627 u0020 u0625_u0644_u0649 u0020 u0625_u0646_u062a_u0627_u062c u0020 u0648_u0646_u0634_u0631_u0020", 
        "u0625_u062d_u0635_u0627_u0621_u0627_u062a u0020 u0639_u0646 u0020 u0627_u0644_u062f_u0648_u0644 u0020 u0627_u0644_u0639_u0631_u0628_u064a_u0629 u0020 u0645_u0646 u0020 u0645_u0635_u0627_u062f_u0631_u0647_u0627_u0020", 
        "u0627_u0644_u0648_u0637_u0646_u064a_u0629 u0020 u0627_u0644_u0645_u0639_u062a_u0645_u062f_u0629 u0020 u0648_u0627_u0644_u0645_u0648_u062b_u0648_u0642_u0629 u0020 u0648_u0625_u062a_u0627_u062d_u062a_u0647_u0627 u0020 u0644_u062c_u0645_u064a_u0639_u0020", 
        "u0645_u0633_u062a_u062e_u062f_u0645_u064a u0020 u0627_u0644_u0628_u064a_u0627_u0646_u0627_u062a u0020 u0627_u0644_u0639_u0631_u0628_u064a_u0629_u060c u0020 u0643_u0645_u0627 u0020 u062a_u0647_u062f_u0641 u0020 u0625_u0644_u0649_u0020", 
        "u062a_u0637_u0648_u064a_u0631 u0020 u0648_u062a_u062d_u0633_u064a_u0646 u0020 u0627_u0644_u0625_u0646_u062a_u0627_u062c u0020 u0627_u0644_u0625_u062d_u0635_u0627_u0626_u064a u0020 u0627_u0644_u0639_u0631_u0628_u064a_u002e"
    ]
}