{
    "bounding_box": [
        [
            34, 
            20, 
            661, 
            33
        ], 
        [
            358, 
            60, 
            337, 
            32
        ], 
        [
            64, 
            96, 
            632, 
            30
        ], 
        [
            88, 
            135, 
            608, 
            33
        ], 
        [
            62, 
            174, 
            633, 
            33
        ], 
        [
            598, 
            214, 
            98, 
            27
        ], 
        [
            47, 
            251, 
            649, 
            33
        ], 
        [
            46, 
            292, 
            650, 
            30
        ], 
        [
            47, 
            327, 
            649, 
            32
        ], 
        [
            184, 
            366, 
            511, 
            33
        ]
    ], 
    "image_height": 540, 
    "image_width": 720, 
    "transcription": [
        "u0639_u0645_u0627_u0644 u0020 u064a_u062a_u0639_u0628 u0020 u0645_u0639_u0647_u0645 u0020 u0648_u0647_u0645 u0020 u0644_u0627 u0020 u064a_u0633_u062a_u062c_u064a_u0628_u0648_u0627 u0020 u002e_u002e u0020 u064a_u0646_u062d_u0631_u0641_u0648_u0627 u0020 u0648_u062d_u0627_u0644_u0647_u0645 u0020 u0644_u0627 u0020 u064a_u0646_u0635_u0644_u062d u0020 u000b", 
        "u0641_u0627_u0644_u062f_u0645_u0648_u0639 u0020 u0644_u0627 u0020 u062a_u062d_u062a_u0645_u0644 u0020 u0627_u0646_u0647_u0627 u0020 u0644_u0627 u0020 u062a_u0646_u0632_u0644 u0020 u002e_u002e_u000b", 
        "u0627_u0630_u0627 u0020 u0645_u0627 u0020 u0631_u0623_u0649 u0020 u0627_u0644_u0630_u0626_u0628 u0020 u0645_u0642_u0628_u0644_u0627 u0020 u062c_u0627_u0649 u0020 u064a_u062e_u0637_u0641 u0020 u0627_u062d_u062f u0020 u0627_u0648_u0644_u0627_u062f_u0647 u0020 u2013 u0020 u0644_u0627 u0020 u062a_u0648_u062c_u062f u0020 u0642_u0648_u0629_u0020", 
        "u062a_u0648_u0642_u0641 u0020 u0627_u0644_u062f_u0645_u0648_u0639 u0020 u0644_u0645_u0627 u0020 u064a_u062c_u062f u0020 u0627_u062d_u062f u0020 u0645_u0646 u0020 u0627_u0648_u0644_u0627_u062f_u0647 u0020 u062d_u064a_u0641_u0642_u062f u0020 u0627_u0648 u0020 u064a_u063a_u064a_u0631 u0020 u062f_u064a_u0646_u0647 u0020 u0627_u0648_u0020", 
        "u062e_u0627_u062f_u0645_u0629 u0020 u062a_u0644_u0627_u0642_u0649 u0020 u0628_u0646_u062a_u0647_u0627 u0020 u062d_u062a_u0628_u064a_u0639 u0020 u0627_u0644_u0645_u0633_u064a_u062d u0020 u0648_u062d_u062a_u0641_u0642_u062f u0020 u0627_u0644_u0645_u064a_u0631_u0648_u0646 u0020 u002e_u002e u0020 u0644_u0627 u0020 u064a_u062d_u062a_u0645_u0644_u0020", 
        "u0627_u0644_u0633_u0643_u0648_u062a u0020 u000b", 
        "u0645_u062b_u0644 u0020 u0627_u0628_u0648_u0646_u0627 u0020 u0628_u064a_u0634_u0648_u0649 u0020 u0644_u0645_u0627 u0020 u0643_u0627_u0646 u0020 u064a_u062a_u0639_u0644_u0642 u0020 u0641_u0649 u0020 u0633_u064a_u0627_u0631_u0629 u0020 u0627_u0644_u0634_u0631_u0637_u0629 u0020 u0639_u0644_u0634_u0627_u0646 u0020 u0641_u064a_u0647_u0627_u0020", 
        "u0628_u0646_u062a u0020 u062d_u062a_u0636_u064a_u0639 u0020 u002e_u002e_u002e u0020 u0627_u0644_u062e_u0627_u062f_u0645 u0020 u0644_u0627 u0020 u064a_u0645_u0644_u0643 u0020 u0646_u0641_u0633_u0647 u0020 u0627_u0644_u0627 u0020 u0627_u0646 u0020 u064a_u0646_u0633_u0643_u0628 u0020 u0627_u0645_u0627_u0645 u0020 u0627_u0644_u0645_u0633_u064a_u062d_u0020", 
        "u0648_u064a_u0635_u0644_u0649 u0020 u0648_u064a_u0642_u0648_u0644 u0020 u0644_u064a_u0647 u0020 u064a_u0627 u0020 u0631_u0628 u0020 u0628_u062a_u0639_u0645_u0644 u0020 u0643_u062f_u0629_u061f u0020 u0647_u0644 u0020 u0644_u0627_u0646_u0649 u0020 u0648_u062d_u0634 u0020 u0648_u0641_u0627_u0634_u0644 u0020 u0641_u0649_u0020", 
        "u0627_u0644_u062e_u062f_u0645_u0629_u061f_u061f u0020 u0647_u0644 u0020 u0627_u0646_u062a u0020 u0632_u0639_u0644_u0627_u0646 u0020 u0645_u0646_u0649 u0020 u0648_u0645_u0634 u0020 u0631_u0627_u0636_u0649 u0020 u0639_u0646_u0649_u061f_u061f"
    ]
}