{
    "bounding_box": [
        [
            63, 
            19, 
            586, 
            37
        ], 
        [
            63, 
            61, 
            586, 
            33
        ], 
        [
            63, 
            96, 
            586, 
            37
        ], 
        [
            399, 
            134, 
            250, 
            36
        ], 
        [
            664, 
            518, 
            12, 
            1
        ]
    ], 
    "image_height": 540, 
    "image_width": 720, 
    "transcription": [
        "u0625_u064a_u0645_u0627_u0646 u0020 u0628_u0623_u0646_u0651_u0647_u0645_u0627 u0020 u064a_u0624_u0644_u0650_u0651_u0641_u0627_u0646 u0020 u0643_u0646_u064a_u0633_u0629_u064b u0020 u0628_u064a_u062a_u064a_u0651_u0629_u060c u0020 u0647_u064a u0020 u062a_u062c_u0633_u064a_u062f u0020 u0644_u0627_u062a_u0651_u062d_u0627_u062f_u0020", 
        "u0627_u0644_u0645_u0633_u064a_u062d u0020 u0628_u0627_u0644_u0643_u0646_u064a_u0633_u0629 u0020 u0639_u0644_u0649 u0020 u0645_u0627 u0020 u064a_u0642_u0648_u0644 u0020 u0628_u0648_u0644_u0633 u0020 u0627_u0644_u0631_u0633_u0648_u0644_u003a_u0022_u0623_u064a_u064f_u0651_u0647_u0627 u0020 u0627_u0644_u0631_u062c_u0627_u0644_u0020", 
        "u0623_u064e_u062d_u0628_u0651_u0648_u0627 u0020 u0646_u0633_u0627_u0621_u064e_u0643_u0645 u0020 u0643_u0645_u0627 u0020 u0623_u062d_u0628_u064e_u0651 u0020 u0627_u0644_u0645_u0633_u064a_u062d u0020 u0627_u0644_u0643_u0646_u064a_u0633_u0629_u002e_u002e_u002e_u062d_u062a_u0651_u0649 u0020 u064a_u0632_u064f_u0641_u0651_u0647_u0627 u0020 u0625_u0644_u064a_u0647_u0020", 
        "u0643_u0646_u064a_u0633_u0629_u064b u0020 u0645_u062c_u064a_u062f_u0629_u0022_u0028_u0623_u0641_u0633_u0633_u0035_u0029 u0020 u002e", 
        "u0032_u0032"
    ]
}