{
    "bounding_box": [
        [
            613, 
            94, 
            80, 
            35
        ], 
        [
            538, 
            141, 
            153, 
            29
        ], 
        [
            430, 
            483, 
            252, 
            39
        ], 
        [
            416, 
            285, 
            79, 
            24
        ], 
        [
            120, 
            286, 
            82, 
            27
        ], 
        [
            437, 
            200, 
            99, 
            26
        ], 
        [
            449, 
            240, 
            84, 
            28
        ], 
        [
            416, 
            140, 
            79, 
            25
        ], 
        [
            246, 
            119, 
            136, 
            33
        ], 
        [
            120, 
            140, 
            82, 
            27
        ], 
        [
            75, 
            198, 
            91, 
            21
        ], 
        [
            83, 
            239, 
            84, 
            28
        ], 
        [
            246, 
            265, 
            136, 
            33
        ], 
        [
            246, 
            415, 
            136, 
            33
        ], 
        [
            305, 
            319, 
            99, 
            32
        ], 
        [
            317, 
            365, 
            84, 
            28
        ], 
        [
            416, 
            437, 
            79, 
            24
        ], 
        [
            75, 
            348, 
            91, 
            21
        ], 
        [
            83, 
            389, 
            84, 
            28
        ], 
        [
            119, 
            436, 
            86, 
            25
        ], 
        [
            140, 
            9, 
            476, 
            30
        ], 
        [
            243, 
            45, 
            366, 
            28
        ]
    ], 
    "image_height": 540, 
    "image_width": 720, 
    "transcription": [
        "u062a_u062d_u0642_u0642_u000d", 
        "u0631_u0627_u062c_u0639 u0020 u0627_u0644_u062d_u0644 u0020 u003a u0020 u0020_u000d", 
        "u0625_u0630_u0646 u0020 u0627_u0644_u0625_u062c_u0627_u0628_u0629 u0020 u0635_u062d_u064a_u062d_u0629", 
        "u0036 u0020 u0639_u0645_u0627_u0644", 
        "u0036 u0020 u062d_u0642_u0648_u0644", 
        "u062a_u0636_u0627_u0639_u0641_u0648_u0627_u000d", 
        "u0028 u0020 u00d7 u0020 u0032 u0020 u0029", 
        "u0033 u0020 u0639_u0645_u0627_u0644", 
        "u0641_u064a u0020 u0033 u0020 u0633_u0627_u0639_u0627_u062a", 
        "u0033 u0020 u062d_u0642_u0648_u0644", 
        "u0646_u0636_u0627_u0639_u0641_u000d", 
        "u0028 u0020 u00d7 u0020 u0032 u0020 u0029", 
        "u0641_u064a u0020 u0033 u0020 u0633_u0627_u0639_u0627_u062a", 
        "u0641_u064a u0020 u0039 u0020 u0633_u0627_u0639_u0627_u062a", 
        "u062a_u0636_u0627_u0639_u0641_u0648_u0627_u000d", 
        "u0028 u0020 u00d7 u0020 u0033 u0020 u0029", 
        "u0036 u0020 u0639_u0645_u0627_u0644", 
        "u0646_u0636_u0627_u0639_u0641_u000d", 
        "u0028 u0020 u00d7 u0020 u0033 u0020 u0029", 
        "u0031_u0038 u0020 u062d_u0642_u0644", 
        "u064a_u0633_u062a_u0637_u064a_u0639 u0020 u0033 u0020 u0639_u0645_u0627_u0644 u0020 u0623_u0646 u0020 u064a_u062d_u0635_u062f_u0648_u0627 u0020 u0020_u0033 u0020 u062d_u0642_u0648_u0644 u0020 u0641_u064a u0020 u0033 u0020 u0633_u0627_u0639_u0627_u062a_u000d", 
        "u0641_u0643_u0645 u0020 u062d_u0642_u0644_u0627 u0020 u064a_u062d_u0635_u062f u0020 u0036 u0020 u0639_u0645_u0627_u0644 u0020 u0641_u064a u0020 u0039 u0020 u0633_u0627_u0639_u0627_u062a u0020 u061f_u0020"
    ]
}