{
    "bounding_box": [
        [
            226, 
            44, 
            402, 
            44
        ], 
        [
            36, 
            134, 
            565, 
            21
        ], 
        [
            252, 
            165, 
            349, 
            20
        ], 
        [
            90, 
            198, 
            510, 
            20
        ], 
        [
            469, 
            225, 
            132, 
            18
        ]
    ], 
    "image_height": 540, 
    "image_width": 720, 
    "transcription": [
        "u064a_u062a_u0623_u062b_u0631 u0020 u0633_u0644_u0648_u0643 u0020 u0627_u0644_u0646_u0627_u0633 u0020 u0628_u0627_u0644_u0627_u0646_u0641_u0639_u0627_u0644_u0627_u062a_u0020", 
        "u0645_u0627 u0020 u0646_u0642_u0631_u0631_u0647 u0020 u0641_u064a u0020 u062d_u0627_u0644_u0629 u0020 u0645_u062d_u0627_u064a_u062f_u0629 u0020 u0634_u0639_u0648_u0631_u064a_u0629 u0020 u060c u0020 u064a_u062e_u062a_u0644_u0641 u0020 u0639_u0645_u0627 u0020 u0646_u0642_u0631_u0631_u0647 u0020 u0641_u064a u0020 u062d_u0627_u0644_u0629 u0020 u0627_u0644_u0625_u062b_u0627_u0631_u0629 u0020 u0627_u0644_u0639_u0627_u0637_u0641_u064a_u0629 u0020 u002e u0020 u000d", 
        "u0627_u0644_u0627_u0646_u0633_u0627_u0646 u0020 u064a_u062a_u0635_u0631_u0641 u0020 u0628_u0634_u0643_u0644 u0020 u0645_u062e_u062a_u0644_u0641 u0020 u062a_u062d_u062a u0020 u062a_u0623_u062b_u064a_u0631 u0020 u0627_u0644_u0627_u062b_u0627_u0631_u0629 u0020 u000d", 
        "u064a_u062a_u0645 u0020 u062a_u0648_u062c_u064a_u0647 u0020 u0639_u0642_u0648_u0644 u0020 u0627_u0644_u0646_u0627_u0633 u0020 u0645_u0646 u0020 u062e_u0644_u0627_u0644 u0020 u0627_u062f_u062e_u0627_u0644_u0647_u0645 u0020 u0641_u064a u0020 u062d_u0627_u0644_u0627_u062a u0020 u0645_u062e_u062a_u0644_u0641_u0629 u0020 u0648_u0645_u0646 u0020 u062b_u0645 u0020 u062a_u0644_u0642_u064a_u0646_u0647_u0645_u0020", 
        "u0627_u0644_u0642_u0631_u0627_u0631_u0627_u062a u0020 u0627_u0644_u062c_u062f_u064a_u062f_u0629 u0020 u002e_u0020"
    ]
}