{
    "bounding_box": [
        [
            70, 
            52, 
            579, 
            27
        ], 
        [
            70, 
            81, 
            561, 
            27
        ], 
        [
            70, 
            110, 
            575, 
            22
        ], 
        [
            70, 
            139, 
            526, 
            27
        ], 
        [
            70, 
            174, 
            454, 
            28
        ], 
        [
            70, 
            203, 
            526, 
            27
        ], 
        [
            70, 
            232, 
            506, 
            27
        ], 
        [
            70, 
            268, 
            454, 
            28
        ], 
        [
            70, 
            297, 
            571, 
            27
        ], 
        [
            70, 
            326, 
            524, 
            27
        ], 
        [
            70, 
            355, 
            487, 
            27
        ], 
        [
            70, 
            383, 
            421, 
            27
        ], 
        [
            43, 
            455, 
            543, 
            28
        ], 
        [
            43, 
            484, 
            620, 
            26
        ], 
        [
            43, 
            514, 
            431, 
            26
        ]
    ], 
    "image_height": 540, 
    "image_width": 720, 
    "transcription": [
        "u004d_u0065_u006e_u006f_u006c_u0061_u006b u0020 u006a_u0061_u006d_u0069_u006e_u0061_u006e u0020 u0061_u0070_u0061_u0070_u0075_u006e u0020 u006b_u0065_u0070_u0061_u0064_u0061 u0020 u006b_u0065_u006b_u0075_u0061_u0074_u0061_u006e_u0020", 
        "u0079_u0061_u006e_u0067 u0020 u0073_u0069_u0061_u0070 u0020 u006d_u0065_u006d_u0062_u0065_u0072_u0069_u006b_u0061_u006e u0020 u006e_u0075_u0073_u0068_u0072_u0061_u0068_u002c u0020 u006d_u0069_u0073_u0061_u006c_u006e_u0079_u0061_u0020", 
        "u006d_u0065_u006d_u0062_u0065_u0072_u0069_u006b_u0061_u006e u0020 u006b_u0065_u006b_u0075_u0061_u0073_u0061_u0061_u006e u0020 u0064_u0061_u006e u0020 u0070_u0065_u006d_u0065_u0072_u0069_u006e_u0074_u0061_u0068_u0061_u006e_u0020", 
        "u006b_u0065_u0070_u0061_u0064_u0061 u0020 u0074_u006f_u006b_u006f_u0068_u006e_u0079_u0061 u0020 u0073_u0065_u0062_u0061_u0067_u0061_u0069 u0020 u006b_u006f_u006d_u0070_u0065_u006e_u0073_u0061_u0073_u0069_u002e_u000d", 
        "u004f_u0072_u0061_u006e_u0067 u0020 u0079_u0061_u006e_u0067 u0020 u006d_u0065_u006d_u0062_u0065_u0072_u0069_u006b_u0061_u006e u0020 u006e_u0075_u0073_u0068_u0072_u0061_u0068_u0020", 
        "u0064_u0069_u0073_u0079_u0061_u0072_u0061_u0074_u006b_u0061_u006e u0020 u0068_u0061_u0072_u0075_u0073 u0020 u006d_u0061_u006d_u0070_u0075 u0020 u006d_u0065_u006e_u0067_u0068_u0061_u0064_u0061_u0070_u0069_u0020", 
        "u006d_u0075_u0073_u0075_u0068 u0020 u0064_u0061_u006b_u0077_u0061_u0068_u002c u0020 u006b_u0065_u0074_u0069_u006b_u0061 u0020 u006e_u0065_u0067_u0061_u0072_u0061 u0020 u0062_u0065_u0072_u0064_u0069_u0072_u0069_u002e_u000d", 
        "u004f_u0072_u0061_u006e_u0067 u0020 u0079_u0061_u006e_u0067 u0020 u006d_u0065_u006d_u0062_u0065_u0072_u0069_u006b_u0061_u006e u0020 u006e_u0075_u0073_u0068_u0072_u0061_u0068_u0020", 
        "u0064_u0069_u0073_u0079_u0061_u0072_u0061_u0074_u006b_u0061_u006e u0020 u006e_u0065_u0067_u0065_u0072_u0069_u006e_u0079_u0061 u0020 u0074_u0069_u0064_u0061_u006b u0020 u0074_u0065_u0072_u0069_u006b_u0061_u0074 u0020 u0064_u0065_u006e_u0067_u0061_u006e_u0020", 
        "u0070_u0065_u0072_u006a_u0061_u006e_u006a_u0069_u0061_u006e u0020 u0069_u006e_u0074_u0065_u0072_u006e_u0061_u0073_u0069_u006f_u006e_u0061_u006c u0020 u0079_u0061_u006e_u0067 u0020 u0074_u0069_u0064_u0061_u006b u0020 u0062_u0069_u0073_u0061_u0020", 
        "u0064_u0069_u006c_u0065_u0070_u0061_u0073_u006b_u0061_u006e_u002c u0020 u0073_u0065_u0073_u0075_u0061_u0074_u0075 u0020 u0079_u0061_u006e_u0067 u0020 u006e_u006f_u0074_u0061 u0020 u0062_u0065_u006e_u0065_u0020", 
        "u0062_u0065_u0072_u0074_u0065_u006e_u0074_u0061_u006e_u0067_u0061_u006e u0020 u0064_u0065_u006e_u0067_u0061_u006e u0020 u0064_u0061_u006b_u0077_u0061_u0068_u002e_u002e_u000d", 
        "u0028_u0061_u006c_u002d_u2019_u0041_u006c_u006c_u0061_u006d_u0061_u0068 u0020 u0053_u0079_u0061_u0069_u006b_u0068 u0020 u004d_u0075_u0068_u0061_u006d_u006d_u0061_u0064 u0020 u004b_u0068_u0061_u0069_u0072_u0020", 
        "u0048_u0061_u0069_u006b_u0061_u006c_u002c u0020 u0061_u006c_u002d_u004a_u0069_u0068_u0061_u0064 u0020 u0077_u0061 u0020 u0061_u006c_u002d_u0051_u0069_u0074_u0061_u006c u0020 u0066_u0069 u0020 u0061_u0073_u002d_u0053_u0069_u0079_u0061_u0073_u0061_u0068 u0020 u0061_u0073_u002d", 
        "u0053_u0079_u0061_u0072_u2019_u0069_u0079_u0079_u0061_u0068_u002c u0020 u004a_u0075_u007a u0020 u0049_u002c u0020 u0068_u0061_u006c_u002e u0020 u0034_u0030_u0036_u002d_u0034_u0031_u0033_u0029"
    ]
}