{
    "bounding_box": [
        [
            244, 
            48, 
            373, 
            38
        ], 
        [
            30, 
            143, 
            619, 
            27
        ], 
        [
            74, 
            177, 
            575, 
            26
        ], 
        [
            92, 
            210, 
            557, 
            27
        ], 
        [
            59, 
            244, 
            591, 
            26
        ], 
        [
            324, 
            276, 
            325, 
            28
        ], 
        [
            53, 
            358, 
            596, 
            26
        ], 
        [
            438, 
            389, 
            211, 
            26
        ]
    ], 
    "image_height": 540, 
    "image_width": 720, 
    "transcription": [
        "u0645_u0631_u062d_u0644_u0629 u0020 u0627_u0644_u0627_u0633_u062a_u0637_u0644_u0627_u0639 u0020 u0648_u0627_u0644_u0627_u0633_u062a_u0643_u0634_u0627_u0641_u003a_u0020", 
        "u064a_u0628_u062f_u0627 u0020 u0627_u0644_u062c_u064a_u0648_u0644_u0648_u062c_u064a u0020 u0641_u064a u0020 u0645_u0633_u062a_u0647_u0644 u0020 u0647_u0630_u0647 u0020 u0627_u0644_u0645_u0631_u062d_u0644_u0629 u0020 u0628_u0627_u0644_u062d_u062b u0020 u0639_u0646 u0020 u0627_u0644_u062a_u062c_u0645_u0639_u0627_u062a u0020 u0627_u0644_u0628_u062a_u0631_u0648_u0644_u064a_u0629_u0020", 
        "u0639_u0646 u0020 u0637_u0631_u064a_u0642 u0020 u062f_u0631_u0627_u0633_u0629 u0020 u0627_u0644_u0635_u062e_u0648_u0631 u0020 u0627_u0644_u0645_u0643_u0634_u0648_u0641_u0629 u0020 u0648_u064a_u0642_u0648_u0645 u0020 u0628_u0639_u062f_u0647_u0627 u0020 u0628_u0642_u064a_u0627_u0633 u0020 u0648_u062a_u0633_u062c_u064a_u0644_u0020", 
        "u0627_u0648_u0636_u0627_u0639 u0020 u0627_u0644_u0637_u0628_u0642_u0627_u062a u0020 u0627_u0644_u0635_u062e_u0631_u064a_u0629 u0020 u0645_u0646 u0020 u062d_u064a_u062b u0020 u0627_u0633_u062a_u0648_u0627_u0624_u0647_u0627 u0020 u0648_u0627_u0646_u062d_u062f_u0627_u0631_u0647_u0627 u0020 u0648_u0647_u0643_u0630_u0627_u0020", 
        "u064a_u0633_u062a_u0637_u064a_u0639 u0020 u062c_u064a_u0648_u0644_u0648_u062c_u064a u0020 u0627_u0644_u062a_u0646_u0642_u064a_u0628 u0020 u0645_u0646 u0020 u062e_u0644_u0627_u0644 u0020 u0627_u0644_u0631_u0628_u0637 u0020 u0627_u0644_u062f_u0642_u064a_u0642 u0020 u0628_u064a_u0646 u0020 u0633_u0627_u0626_u0631 u0020 u0627_u0644_u0628_u064a_u0627_u0646_u0627_u062a_u0020", 
        "u0627_u0644_u0645_u062a_u0648_u0641_u0631_u0629 u0020 u0644_u062f_u064a_u0629 u0020 u0627_u0646 u0020 u064a_u0642_u0631_u0631 u0020 u0645_u0648_u0642_u0639 u0020 u0627_u0644_u062d_u0641_u0631 u0020 u002e u0020 u000d", 
        "u062b_u0645 u0020 u064a_u0627_u062a_u064a u0020 u062f_u0648_u0631 u0020 u0627_u0644_u062f_u0631_u0627_u0633_u0627_u062a u0020 u0627_u0644_u062c_u064a_u0648_u0641_u064a_u0632_u064a_u0642_u064a_u0629 u0020 u0644_u0644_u0635_u062e_u0648_u0631 u0020 u0627_u0644_u0645_u0648_u062c_u0648_u062f_u0629 u0020 u062a_u062d_u062a u0020 u0627_u0644_u0642_u0634_u0631_u0647_u0020", 
        "u0627_u0644_u0627_u0631_u0636_u064a_u0629 u0020 u0648_u0628_u064a_u0627_u0646 u0020 u0637_u0628_u064a_u0639_u062a_u0647_u0627_u002e"
    ]
}