{
    "bounding_box": [
        [
            147, 
            215, 
            485, 
            69
        ]
    ], 
    "image_height": 540, 
    "image_width": 720, 
    "transcription": [
        "u0645_u0631_u0627_u062d_u0644 u0020 u0627_u0644_u062b_u0648_u0631_u0629 u0020 u0627_u0644_u0639_u0631_u0628_u064a_u0629"
    ]
}