{
    "bounding_box": [
        [
            243, 
            93, 
            218, 
            49
        ], 
        [
            66, 
            176, 
            534, 
            81
        ], 
        [
            54, 
            313, 
            612, 
            94
        ]
    ], 
    "image_height": 540, 
    "image_width": 720, 
    "transcription": [
        "u0647_u062f_u0641 u0020 u0627_u0644_u0631_u0633_u0627_u0644_u0629_u0020", 
        "u0627_u0644_u0648_u062d_u062f_u0629 u0020 u0627_u0644_u0645_u0633_u064a_u062d_u064a_u0629 u0020 u000d", 
        "u0627_u0644_u0645_u0633_u064a_u062d u0020 u062d_u062c_u0631 u0020 u0627_u0644_u0632_u0627_u0648_u064a_u0629"
    ]
}