{
    "bounding_box": [
        [
            187, 
            65, 
            453, 
            38
        ], 
        [
            131, 
            134, 
            506, 
            32
        ], 
        [
            122, 
            167, 
            515, 
            32
        ], 
        [
            76, 
            201, 
            561, 
            32
        ], 
        [
            503, 
            237, 
            134, 
            28
        ]
    ], 
    "image_height": 540, 
    "image_width": 720, 
    "transcription": [
        "u0627_u0644_u0627_u0635_u0648_u0644 u0020 u0627_u0644_u0637_u0627_u0631_u0626_u0629 u0020 u002d u0020 u0627_u0644_u0627_u0639_u062a_u0631_u0627_u0641 u0020 u0648 u0020 u0627_u0644_u0627_u0641_u0635_u0627_u062d", 
        "u0639_u0644_u0649 u0020 u0627_u0644_u0645_u0646_u0634_u0623_u0629 u0020 u0623_u0644_u0627 u0020 u062a_u0639_u062a_u0631_u0641 u0020 u0628_u0627_u0644_u0623_u0635_u0644 u0020 u0627_u0644_u0637_u0627_u0631_u0626 u0020 u0648_u0644_u0643_u0646_u0020", 
        "u062d_u064a_u0646_u0645_u0627 u0020 u064a_u0643_u0648_u0646 u0020 u062a_u062d_u0642_u0642 u0020 u0627_u0644_u062f_u062e_u0644 u0020 u0645_u0624_u0643_u062f_u0627_u064b u0020 u062a_u0623_u0643_u064a_u062f_u0627_u064b u0020 u0641_u0639_u0644_u064a_u0627_u064b u0020 u0644_u0627_u0020", 
        "u064a_u0643_u0648_u0646 u0020 u0627_u0644_u0623_u0635_u0644 u0020 u0630_u064a u0020 u0627_u0644_u0639_u0644_u0627_u0642_u0629 u0020 u0623_u0635_u0644_u0627_u064b u0020 u0637_u0627_u0631_u0626_u0627_u064b u0020 u0648_u064a_u0643_u0648_u0646 u0020 u0627_u0644_u0627_u0639_u062a_u0631_u0627_u0641_u0020", 
        "u0628_u0647 u0020 u0645_u0646_u0627_u0633_u0628_u0627_u064b_u002e u0020 u000d"
    ]
}