{
    "bounding_box": [
        [
            24, 
            22, 
            434, 
            22
        ], 
        [
            448, 
            62, 
            11, 
            2
        ], 
        [
            32, 
            94, 
            427, 
            20
        ], 
        [
            281, 
            120, 
            177, 
            20
        ], 
        [
            31, 
            168, 
            427, 
            20
        ], 
        [
            390, 
            192, 
            68, 
            18
        ], 
        [
            41, 
            216, 
            417, 
            20
        ], 
        [
            186, 
            240, 
            272, 
            20
        ], 
        [
            31, 
            288, 
            428, 
            18
        ], 
        [
            298, 
            310, 
            161, 
            22
        ], 
        [
            36, 
            358, 
            423, 
            20
        ], 
        [
            72, 
            384, 
            387, 
            20
        ], 
        [
            30, 
            408, 
            428, 
            20
        ], 
        [
            396, 
            433, 
            62, 
            19
        ], 
        [
            53, 
            478, 
            405, 
            22
        ], 
        [
            69, 
            502, 
            390, 
            22
        ], 
        [
            146, 
            528, 
            313, 
            18
        ], 
        [
            45, 
            574, 
            413, 
            20
        ], 
        [
            383, 
            600, 
            76, 
            20
        ], 
        [
            28, 
            648, 
            431, 
            20
        ], 
        [
            61, 
            695, 
            398, 
            21
        ], 
        [
            453, 
            719, 
            5, 
            16
        ]
    ], 
    "image_height": 720, 
    "image_width": 540, 
    "transcription": [
        "u0035_u002d u0020 u064a_u0645_u0643_u0646 u0020 u0641_u0635_u0644 u0020 u0631_u0623_u0633 u0020 u0632_u062c_u0627_u062c_u0629 u0020 u0633_u0627_u0626_u0644 u0020 u063a_u0633_u0644 u0020 u0627_u0644_u0635_u062d_u0648_u0646 u0020 u0644_u0644_u062d_u0635_u0648_u0644 u0020 u0639_u0644_u0649 u0020 u0642_u0645_u0639_u0020", 
        "u002e_u000b", 
        "u0036_u002d_u0627_u0644_u0642_u0637_u0627_u0631_u0627_u062a u0020 u064a_u0645_u0643_u0646 u0020 u0623_u0646 u0020 u0646_u062d_u0635_u0644 u0020 u0639_u0644_u064a_u0647_u0627 u0020 u0645_u0646 u0020 u0632_u062c_u0627_u062c_u0627_u062a u0020 u0646_u0642_u0637 u0020 u0627_u0644_u0639_u064a_u0646 u0020 u0627_u0648 u0020 u0627_u0644_u0623_u0630_u0646_u0020", 
        "u0627_u0644_u0645_u062a_u0648_u0641_u0631_u0629 u0020 u0641_u064a u0020 u0635_u064a_u062f_u0644_u064a_u0629 u0020 u0627_u0644_u0628_u064a_u062a u0020 u002e_u000b", 
        "u0037_u002d u0020 u0645_u064a_u0632_u0627_u0646 u0020 u0627_u0644_u0645_u0637_u0628_u062e u0020 u064a_u0645_u0643_u0646 u0020 u0627_u0633_u062a_u062e_u062f_u0627_u0645_u0629 u0020 u0644_u0648_u0632_u0646 u0020 u0627_u0644_u0645_u0648_u0627_u062f u0020 u0627_u0644_u0645_u0633_u062a_u062e_u062f_u0645_u0629 u0020 u0641_u064a u0020 u0625_u062c_u0631_u0627_u0621_u0020", 
        "u0627_u0644_u062a_u062c_u0627_u0631_u0628 u0020 u002e_u000b", 
        "u0038_u002d u0020 u0627_u0644_u0628_u064a_u0643_u0646_u062c u0020 u0628_u0648_u062f_u0631 u0020 u0645_u0645_u0643_u0646 u0020 u0627_u0633_u062a_u062e_u062f_u0627_u0645_u0647 u0020 u0641_u064a u0020 u0628_u0639_u0636 u0020 u0627_u0644_u062a_u0641_u0627_u0639_u0644_u0627_u062a u0020 u062d_u064a_u062b u0020 u064a_u062d_u062a_u0648_u064a_u0020", 
        "u0639_u0644_u0649 u0020 u0628_u064a_u0643_u0631_u0628_u0648_u0646_u0627_u062a u0020 u0627_u0644_u0635_u0648_u062f_u064a_u0648_u0645 u0020 u004e_u0061_u0048_u0043_u004f_u0033 u0020 u0029_u002e_u000b", 
        "u0039_u002d u0020 u0627_u0644_u0644_u064a_u0645_u0648_u0646 u0020 u0648_u0627_u0644_u0628_u0631_u062a_u0642_u0627_u0644 u0020 u0645_u0635_u062f_u0631_u0627_u0646 u0020 u0645_u0647_u0645_u0645_u0627_u0646 u0020 u0644_u062d_u0645_u0636 u0020 u0627_u0644_u0633_u062a_u0631_u064a_u0643 u0020 u0648_u0644_u0643_u0646 u0020 u062a_u0643_u0648_u0646_u0020", 
        "u0627_u0644_u0646_u0633_u0628_u0629 u0020 u0623_u0639_u0644_u0649 u0020 u0641_u064a u0020 u0627_u0644_u0644_u064a_u0645_u0648_u0646 u0020 u002e_u000b", 
        "u0031_u0030_u002d u0020 u0627_u0644_u0628_u0637_u0627_u0631_u064a_u0627_u062a u0020 u0627_u0644_u062c_u0627_u0641_u0629 u0020 u0645_u0645_u0643_u0646 u0020 u0623_u0646 u0020 u0646_u062d_u0635_u0644 u0020 u0639_u0644_u064a_u0647_u0627 u0020 u0645_u0646 u0020 u062e_u0644_u0627_u0644 u0020 u0627_u0644_u0645_u0633_u062c_u0644 u0020 u0623_u0648_u0020", 
        "u0627_u0644_u0631_u0627_u062f_u064a_u0648 u0020 u0644_u062a_u0643_u0648_u0646 u0020 u0645_u0635_u062f_u0631 u0020 u0628_u0633_u064a_u0637 u0020 u0644_u0644_u062a_u064a_u0627_u0631 u0020 u0627_u0644_u0643_u0647_u0631_u0628_u0627_u0626_u064a u0020 u062d_u064a_u062b u0020 u064a_u0643_u0648_u0646 u0020 u0627_u0644_u062a_u064a_u0627_u0631_u0020", 
        "u0627_u0644_u0643_u0647_u0631_u0628_u0627_u0626_u064a u0020 u0646_u0627_u062a_u062c u0020 u0639_u0646 u0020 u0627_u062d_u062f_u0627_u062b u0020 u062a_u0641_u0627_u0639_u0644 u0020 u0627_u0643_u0633_u062f_u0629 u0020 u0648_u0627_u062e_u062a_u0632_u0627_u0644 u0020 u064a_u0646_u062a_u062c u0020 u0639_u0646_u0647 u0020 u0641_u0631_u0642 u0020 u062c_u0647_u062f_u0020", 
        "u0643_u0647_u0631_u0628_u0627_u0626_u064a_u002e_u000b", 
        "u0020_u0031_u0031_u002d u0020 u0628_u0637_u0627_u0631_u064a_u0627_u062a u0020 u0623_u0643_u0633_u064a_u062f u0020 u0627_u0644_u0641_u0636_u0629 u0020 u0648_u062a_u062a_u0645_u064a_u0632 u0020 u0628_u062d_u062c_u0645_u0647_u0627 u0020 u0627_u0644_u0635_u063a_u064a_u0631 u0020 u0648_u0646_u062c_u062f_u0647_u0627 u0020 u0641_u064a_u0020", 
        "u0627_u0644_u0633_u0627_u0639_u0627_u062a u0020 u0648_u0628_u0639_u0636 u0020 u0623_u062c_u0647_u0632_u0629 u0020 u0627_u0644_u062a_u0635_u0648_u064a_u0631 u0020 u0648_u0647_u064a u0020 u062a_u062a_u0643_u0648_u0646 u0020 u0645_u0646 u0020 u0642_u0637_u0628_u064a_u0646 u0020 u0642_u0637_u0628_u0020", 
        "u0627_u0644_u062e_u0627_u0631_u0635_u064a_u0646 u0020 u0627_u0644_u0633_u0627_u0644_u0628 u0020 u0648_u0642_u0637_u0628 u0020 u0627_u0643_u0633_u064a_u062f u0020 u0627_u0644_u0641_u0636_u0629 u0020 u0627_u0644_u0645_u0648_u062c_u0628 u0020 u002e_u000b", 
        "u0031_u0032_u002d u0020 u0628_u0637_u0627_u0631_u064a_u0629 u0020 u0627_u0644_u0633_u064a_u0627_u0631_u0629 u0020 u0645_u0635_u062f_u0631 u0020 u0644_u062d_u0645_u0636 u0020 u0627_u0644_u0643_u0628_u0631_u064a_u062a u0020 u0648_u0627_u064a_u0636_u0627_u064b u0020 u0645_u0635_u062f_u0631 u0020 u0644_u0644_u062a_u064a_u0627_u0631_u0020", 
        "u0627_u0644_u0643_u0647_u0631_u0628_u0627_u0626_u064a_u002e_u00a0_u000b", 
        "u0031_u0033_u002d u0020 u0644_u0644_u062d_u0635_u0648_u0644 u0020 u0639_u0644_u0649 u0020 u0627_u0644_u0646_u062d_u0627_u0633 u0020 u064a_u0645_u0643_u0646 u0020 u062a_u0639_u0631_u064a_u0629 u0020 u0627_u0644_u0633_u0644_u0643 u0020 u0627_u0644_u0647_u0631_u0628_u0627_u0626_u064a u0020 u0645_u0646 u0020 u063a_u0637_u0627_u0626_u0647 u0020 u002e_u000b", 
        "u0031_u0034_u002d u0020 u064a_u0645_u0643_u0646 u0020 u0625_u0633_u062a_u062e_u062f_u0627_u0645 u0020 u0623_u0642_u0644_u0627_u0645 u0020 u0627_u0644_u0631_u0635_u0627_u0635 u0020 u0643_u0627_u0642_u0637_u0627_u0628 u0020 u0628_u062f_u0644_u0627_u064b u0020 u0645_u0646 u0020 u0627_u0644_u0643_u0631_u0628_u0648_u0646 u0020 u002e_u000b", 
        "u000b"
    ]
}