{
    "bounding_box": [
        [
            192, 
            84, 
            295, 
            40
        ], 
        [
            124, 
            148, 
            430, 
            51
        ], 
        [
            186, 
            217, 
            320, 
            44
        ]
    ], 
    "image_height": 540, 
    "image_width": 720, 
    "transcription": [
        "u0627_u0644_u0645_u062d_u0627_u0636_u0631_u0629 u0020 u0627_u0644_u0639_u0627_u0634_u0631_u0629_u000d", 
        "u0627_u0644_u0645_u0648_u0636_u0648_u0639_u0627_u062a u0020 u0627_u0644_u0645_u0633_u062a_u062d_u062f_u062b_u0629 u0020 u0641_u064a_u000d", 
        "u0639_u0635_u0631 u0020 u0627_u0644_u062f_u0648_u0644 u0020 u0627_u0644_u0645_u062a_u062a_u0627_u0628_u0639_u0629"
    ]
}