{
    "bounding_box": [
        [
            338, 
            91, 
            345, 
            54
        ], 
        [
            85, 
            157, 
            590, 
            24
        ], 
        [
            64, 
            182, 
            611, 
            24
        ], 
        [
            39, 
            208, 
            637, 
            24
        ], 
        [
            292, 
            234, 
            384, 
            24
        ], 
        [
            47, 
            265, 
            628, 
            25
        ], 
        [
            49, 
            292, 
            627, 
            24
        ], 
        [
            69, 
            318, 
            607, 
            24
        ], 
        [
            544, 
            346, 
            132, 
            21
        ], 
        [
            214, 
            376, 
            462, 
            24
        ], 
        [
            237, 
            406, 
            439, 
            25
        ], 
        [
            55, 
            441, 
            621, 
            22
        ], 
        [
            536, 
            467, 
            140, 
            18
        ]
    ], 
    "image_height": 540, 
    "image_width": 720, 
    "transcription": [
        "u062b_u0627_u0644_u062b_u0627_u064b u0020 u003a u0020 u0641_u064a_u0644_u064a_u0628 u0020 u0643_u0631_u0648_u0633_u0628_u064a_u0020", 
        "u0628_u062f_u0623 u0020 u0639_u0645_u0644_u0647 u0020 u0628_u0648_u0638_u064a_u0641_u0629 u0020 u0645_u0641_u062a_u0634 u0020 u0644_u0644_u0625_u0646_u062a_u0627_u062c u0020 u0641_u064a u0020 u0634_u0631_u0643_u0629 u0020 u0049_u0054_u0054 u0020 u062b_u0645 u0020 u0020_u062a_u0637_u0648_u0631 u0020 u0625_u0644_u0649 u0020 u0627_u0644_u0645_u0631_u0627_u0643_u0632 u0020 u0627_u0644_u0648_u0638_u064a_u0641_u064a_u0629_u0020", 
        "u0627_u0644_u0623_u0639_u0644_u0649 u0020 u062d_u062a_u0649 u0020 u0623_u0635_u0628_u062d u0020 u0634_u063a_u0644 u0020 u0645_u0646_u0635_u0628 u0020 u0646_u0627_u0626_u0628 u0020 u0631_u0626_u064a_u0633 u0020 u0627_u0644_u0634_u0631_u0643_u0629 u0020 u0644_u0634_u0624_u0648_u0646 u0020 u0627_u0644_u062c_u0648_u062f_u0629 u0020 u0648 u0020 u0627_u0633_u062a_u0645_u0631 u0020 u0641_u064a_u0647_u0627_u0020", 
        "u0644_u0645_u062f_u0629 u0020 u0623_u0631_u0628_u0639_u0629 u0020 u0639_u0634_u0631 u0020 u0639_u0627_u0645_u0627_u064b u0020 u002e u0020 u0627_u062c_u062a_u0645_u0639_u062a u0020 u0644_u062f_u064a_u0647 u0020 u0645_u0639_u0627_u0631_u0641 u0020 u0643_u0628_u064a_u0631_u0629 u0020 u0628_u0639_u062f u0020 u062e_u0628_u0631_u0629 u0020 u062e_u0645_u0633_u0629 u0020 u0648 u0020 u0639_u0634_u0631_u0648_u0646 u0020 u0639_u0627_u0645_u0627_u064b_u0020", 
        "u0641_u064a u0020 u0645_u062c_u0627_u0644 u0020 u0627_u0644_u062c_u0648_u062f_u0629 u0020 u060c u0020 u0648 u0020 u0623_u0635_u062f_u0631 u0020 u0627_u0644_u0639_u062f_u064a_u062f u0020 u0645_u0646 u0020 u0627_u0644_u0643_u062a_u0628 u0020 u0641_u064a_u0647_u0627 u0020 u002e_u000d", 
        "u0648 u0020 u062a_u062a_u0631_u0643_u0632 u0020 u0623_u0647_u0645 u0020 u0627_u0633_u0647_u0627_u0645_u0627_u062a_u0647 u0020 u0641_u064a u0020 u0645_u062c_u0627_u0644 u0020 u0627_u0644_u062c_u0648_u062f_u0629 u0020 u0628_u0645_u0627 u0020 u064a_u0639_u0631_u0641 u0020 u0628_u0631_u0646_u0627_u0645_u062c u0020 u0627_u0644_u0645_u0639_u064a_u0628 u0020 u0627_u0644_u0635_u0641_u0631_u064a u0020 u060c u0020 u0628_u0645_u0639_u0646_u0649_u0020", 
        "u0639_u062f_u0645 u0020 u0648_u062c_u0648_u062f u0020 u0623_u062e_u0637_u0627_u0621 u0020 u0623_u0648 u0020 u0639_u064a_u0648_u0628 u0020 u0641_u064a u0020 u0627_u0644_u0645_u0646_u062a_u062c_u0627_u062a u0020 u0623_u0648 u0020 u0623_u0646_u0647 u0020 u0644_u0627 u0020 u064a_u062a_u062c_u0627_u0648_u0632 u0020 u0036 u0020 u0628_u0627_u0644_u0645_u0644_u064a_u0648_u0646 u0020 u0648 u0020 u0647_u0648 u0020 u0628_u0631_u0646_u0627_u0645_u062c_u0020", 
        "u064a_u0634_u062a_u0645_u0644 u0020 u0623_u0631_u0628_u0639_u0629 u0020 u0639_u0634_u0631 u0020 u0646_u0642_u0637_u0629 u0020 u0645_u0633_u062a_u0648_u062d_u0627_u0629 u0020 u0645_u0646 u0020 u0645_u0628_u0627_u062f_u0626 u0020 u062f_u064a_u0645_u0646_u062c u0020 u0648 u0020 u0645_u0637_u0628_u0642_u0629 u0020 u0639_u0644_u0649 u0020 u0628_u0631_u0646_u0627_u0645_u062c u0020 u0627_u0644_u0645_u0639_u064a_u0628_u0020", 
        "u0627_u0644_u0635_u0641_u0631_u064a u0020 u0648 u0020 u0647_u064a u0020 u003a_u000d", 
        "u0031_u002e_u0627_u0644_u062a_u0632_u0627_u0645 u0020 u0627_u0644_u0625_u062f_u0627_u0631_u0629 u0020 u0627_u0644_u0639_u0644_u064a_u0627 u0020 u0628_u062a_u062d_u0633_u064a_u0646 u0020 u0627_u0644_u062c_u0648_u062f_u0629 u0020 u0645_u0646 u0020 u062e_u0644_u0627_u0644 u0020 u0645_u0646_u0639 u0020 u0627_u0644_u0645_u0639_u064a_u0628 u0020 u002e_u000d", 
        "u0032_u002e_u062a_u0634_u0643_u064a_u0644 u0020 u0641_u0631_u064a_u0642 u0020 u0639_u0645_u0644 u0020 u0644_u062a_u062d_u0633_u064a_u0646 u0020 u0627_u0644_u062c_u0648_u062f_u0629 u0020 u0648 u0020 u064a_u0645_u062b_u0644 u0020 u0643_u0627_u0641_u0629 u0020 u0627_u0644_u0623_u0642_u0633_u0627_u0645 u0020 u002e_u000d", 
        "u0033_u002e_u062a_u062d_u062f_u064a_u062f u0020 u0627_u0644_u0645_u0634_u0627_u0643_u0644 u0020 u0648 u0020 u0645_u062c_u0627_u0644_u0627_u062a u0020 u0627_u0644_u062a_u062d_u0633_u064a_u0646 u0020 u0627_u0644_u0645_u0637_u0644_u0648_u0628_u0629 u0020 u0648 u0020 u0642_u064a_u0627_u0633 u0020 u0627_u0644_u062c_u0648_u062f_u0629 u0020 u0648 u0020 u0639_u0631_u0636 u0020 u0627_u0644_u0646_u062a_u0627_u0626_u062c u0020 u0641_u064a_u0020", 
        "u0645_u062e_u0637_u0637_u0627_u062a u0020 u062e_u0627_u0635_u0629 u0020 u002e"
    ]
}