{
    "bounding_box": [
        [
            122, 
            36, 
            474, 
            34
        ], 
        [
            201, 
            130, 
            465, 
            22
        ], 
        [
            425, 
            160, 
            210, 
            24
        ], 
        [
            459, 
            194, 
            176, 
            24
        ], 
        [
            462, 
            227, 
            173, 
            21
        ], 
        [
            64, 
            255, 
            602, 
            29
        ], 
        [
            548, 
            287, 
            127, 
            21
        ], 
        [
            166, 
            317, 
            469, 
            26
        ], 
        [
            120, 
            346, 
            516, 
            26
        ], 
        [
            54, 
            381, 
            582, 
            26
        ], 
        [
            130, 
            409, 
            505, 
            23
        ], 
        [
            245, 
            441, 
            391, 
            23
        ]
    ], 
    "image_height": 540, 
    "image_width": 720, 
    "transcription": [
        "u0065_u002d_u0043_u0052_u004d u0020 u0625_u062f_u0627_u0631_u0629 u0020 u0627_u0644_u0639_u0644_u0627_u0642_u0629 u0020 u0645_u0639 u0020 u0627_u0644_u0632_u0628_u0627_u0626_u0646 u0020 u0639_u0628_u0631 u0020 u0627_u0644_u0627_u0646_u062a_u0631_u0646_u062a", 
        "u064a_u0645_u0643_u0646 u0020 u062a_u0637_u0628_u064a_u0642 u0020 u0647_u0630_u0627 u0020 u0627_u0644_u0627_u0633_u0644_u0648_u0628 u0020 u0648_u0641_u0642 u0020 u0644_u062b_u0644_u0627_u062b u0020 u0645_u0633_u062a_u0648_u064a_u0627_u062a u0020 u0648_u0647_u064a_u003a_u000d", 
        "u0645_u0633_u062a_u0648_u0649 u0020 u0627_u0644_u062e_u062f_u0645_u0629 u0020 u0627_u0644_u0627_u0633_u0627_u0633_u064a_u0629_u000d", 
        "u0627_u0644_u062a_u0631_u0643_u064a_u0632 u0020 u0639_u0644_u0649 u0020 u0627_u0644_u0632_u0628_u0648_u0646_u000d", 
        "u062e_u062f_u0645_u0627_u062a u0020 u0642_u064a_u0645_u0629 u0020 u0645_u0636_u0627_u0641_u0629_u000d", 
        "u064a_u062c_u0628 u0020 u0627_u0644_u0627_u0647_u062a_u0645_u0627_u0645 u0020 u0628_u0627_u0644_u0639_u0648_u0627_u0645_u0644 u0020 u0627_u0644_u062a_u0627_u0644_u064a_u0629 u0020 u0644_u0646_u062c_u0627_u062d u0020 u0627_u0633_u062a_u062e_u062f_u0627_u0645 u0020 u0625_u062f_u0627_u0631_u0629 u0020 u0627_u0644_u0639_u0644_u0627_u0642_u0629 u0020 u0645_u0639 u0020 u0627_u0644_u0632_u0628_u0627_u0626_u0646_u0020", 
        "u0639_u0628_u0631 u0020 u0627_u0644_u0627_u0646_u062a_u0631_u0646_u062a_u003a_u000d", 
        "u0627_u0644_u062a_u0631_u0643_u064a_u0632 u0020 u0639_u0644_u0649 u0020 u0627_u0644_u0632_u0628_u0648_u0646 u0020 u0641_u064a u0020 u062c_u0645_u064a_u0639 u0020 u0645_u0633_u062a_u0648_u064a_u0627_u062a u0020 u0627_u0644_u0639_u0645_u0644 u0020 u0628_u0627_u0644_u0634_u0631_u0643_u0629_u000d", 
        "u062a_u062d_u0633_u064a_u0646 u0020 u0637_u0631_u064a_u0642_u0629 u0020 u0623_u062f_u0627_u0621 u0020 u0628_u0639_u0636 u0020 u0627_u0644_u0639_u0645_u0644_u064a_u0627_u062a u0020 u201d u0020 u0625_u0639_u0627_u062f_u0629 u0020 u0647_u0646_u062f_u0633_u0629 u0020 u0627_u0644_u0639_u0645_u0644_u064a_u0627_u062a u0020 u201d_u000d", 
        "u0627_u0633_u062a_u062e_u062f_u0627_u0645 u0020 u0627_u0644_u062a_u0642_u0646_u064a_u0627_u062a u0020 u0627_u0644_u0628_u0631_u0645_u062c_u064a_u0629 u0020 u0627_u0644_u062d_u062f_u064a_u062b_u0629 u0020 u0644_u062a_u0633_u062c_u064a_u0644 u0020 u0627_u0644_u0639_u0645_u0644_u064a_u0627_u062a u0020 u0627_u0644_u062a_u062c_u0627_u0631_u064a_u0629 u0020 u0648 u0020 u0627_u0646_u0634_u0627_u0621_u0020", 
        "u0642_u0648_u0627_u0639_u062f u0020 u0627_u0644_u0628_u064a_u0627_u0646_u0627_u062a u0020 u0648 u0020 u0627_u0633_u062a_u062e_u062f_u0627_u0645 u0020 u0645_u062e_u0627_u0632_u0646 u0020 u0627_u0644_u0628_u064a_u0627_u0646_u0627_u062a u0020 u0648 u0020 u062a_u0639_u062f_u064a_u0646 u0020 u0627_u0644_u0628_u064a_u0627_u0646_u0627_u062a u0020 u000d", 
        "u062a_u0637_u0648_u064a_u0631 u0020 u0628_u0646_u064a_u0629 u0020 u062a_u062d_u062a_u064a_u0629 u0020 u0645_u0646_u0627_u0633_u0628_u0629 u0020 u0639_u0644_u0649 u0020 u0645_u0633_u062a_u0648_u0649 u0020 u0627_u0644_u0634_u0631_u0643_u0629_u0020"
    ]
}