{
    "bounding_box": [
        [
            664, 
            513, 
            12, 
            6
        ], 
        [
            510, 
            102, 
            183, 
            23
        ], 
        [
            19, 
            131, 
            641, 
            25
        ], 
        [
            26, 
            160, 
            635, 
            25
        ], 
        [
            68, 
            189, 
            593, 
            25
        ], 
        [
            539, 
            218, 
            123, 
            22
        ], 
        [
            29, 
            246, 
            632, 
            25
        ], 
        [
            98, 
            276, 
            564, 
            24
        ], 
        [
            206, 
            304, 
            455, 
            23
        ], 
        [
            30, 
            333, 
            630, 
            25
        ], 
        [
            155, 
            363, 
            507, 
            23
        ], 
        [
            191, 
            389, 
            448, 
            26
        ], 
        [
            226, 
            422, 
            413, 
            22
        ], 
        [
            340, 
            449, 
            300, 
            24
        ], 
        [
            175, 
            28, 
            376, 
            33
        ]
    ], 
    "image_height": 540, 
    "image_width": 720, 
    "transcription": [
        "u0032_u0031", 
        "u0648_u002d u0020 u0627_u0644_u0646_u0634_u0627_u0637_u0627_u062a u0020 u0627_u0644_u0631_u0626_u064a_u0633_u064a_u0629_u003a_u000d", 
        "u002a_u0029 u0020 u062c_u0645_u0639 u0020 u0643_u0627_u0641_u0629 u0020 u0627_u0644_u0628_u064a_u0627_u0646_u0627_u062a u0020 u0648_u0627_u0644_u062f_u0631_u0627_u0633_u0627_u062a u0020 u0627_u0644_u0645_u062a_u0648_u0641_u0631_u0629 u0020 u0648_u0628_u0643_u0627_u0641_u0629 u0020 u0627_u0644_u0627_u0634_u0643_u0627_u0644 u0020 u0639_u0646 u0020 u0627_u0644_u0648_u0636_u0639 u0020 u0627_u0644_u062d_u0627_u0644_u064a u0020 u0644_u0642_u0637_u0627_u0639_u0020", 
        "u0627_u0644_u0646_u0642_u0644 u0020 u0648_u0627_u0644_u0645_u0648_u0627_u0635_u0644_u0627_u062a_u060c u0020 u0628_u0645_u0627 u0020 u0641_u064a u0020 u0630_u0644_u0643 u0020 u0627_u0644_u0627_u0646_u0638_u0645_u0629 u0020 u0648_u0627_u0644_u062a_u0634_u0631_u064a_u0639_u0627_u062a u0020 u0648_u0627_u0644_u0645_u0624_u0633_u0633_u0627_u062a u0020 u0627_u0644_u0639_u0627_u0645_u0644_u0629_u060c u0020 u0648_u0627_u0644_u062d_u0631_u0643_u0629_u0020", 
        "u0627_u0644_u0645_u0631_u0648_u0631_u064a_u0629_u060c u0020 u0648_u0627_u0644_u0645_u0634_u0627_u0631_u064a_u0639 u0020 u0627_u0644_u0639_u0627_u0645_u0644_u0629 u0020 u0648_u0627_u0644_u0645_u0646_u0641_u0630_u0629_u060c u0020 u0648_u062e_u0635_u0627_u0626_u0635 u0020 u0627_u0644_u0637_u0631_u0642 u0020 u0648_u062d_u0627_u0644_u0627_u062a_u0647_u0627_u060c u0020 u0648_u0627_u0644_u062d_u0631_u0643_u0629_u0020", 
        "u0627_u0644_u062a_u062c_u0627_u0631_u064a_u0629_u060c u0020 u0020_u002e_u002e_u002e_u002e_u002e_u000d", 
        "u002a_u0029 u0020 u0645_u0631_u0627_u062c_u0639_u0629 u0020 u0634_u0627_u0645_u0644_u0629_u060c u0020 u0648_u0625_u0639_u062f_u0627_u062f u0020 u0627_u0644_u062f_u0631_u0627_u0633_u0627_u062a u0020 u0627_u0644_u0644_u0627_u0632_u0645_u0629 u0020 u0639_u0646 u0020 u0627_u0644_u0627_u0648_u0636_u0627_u0639 u0020 u0627_u0644_u0627_u062c_u062a_u0645_u0627_u0639_u064a_u0629 u0020 u0648_u0627_u0644_u0627_u0642_u062a_u0635_u0627_u062f_u064a_u0629_u0020", 
        "u0627_u0644_u062a_u064a u0020 u062a_u062a_u062d_u0643_u0645 u0020 u0628_u0627_u0644_u0637_u0644_u0628 u0020 u0639_u0644_u0649 u0020 u0642_u0637_u0627_u0639 u0020 u0627_u0644_u0646_u0642_u0644 u0020 u0648_u0627_u0644_u0645_u0648_u0627_u0635_u0644_u0627_u062a_u060c u0020 u0645_u0646 u0020 u0645_u062b_u0644 u0020 u062a_u0648_u0632_u064a_u0639 u0020 u0627_u0644_u0633_u0643_u0627_u0646_u060c_u0020", 
        "u0648_u0627_u0644_u0646_u0634_u0627_u0637_u0627_u062a u0020 u0627_u0644_u0632_u0631_u0627_u0639_u064a_u0629 u0020 u0648_u0627_u0644_u062a_u062c_u0627_u0631_u064a_u0629 u0020 u0648_u0627_u0644_u0635_u0646_u0627_u0639_u064a_u0629 u0020 u0648_u0627_u0644_u0633_u064a_u0627_u062d_u064a_u0629 u0020 u060c u0020 u002e_u002e_u002e_u000d", 
        "u002a_u0029 u0020 u0627_u0639_u062f_u0627_u062f u0020 u0627_u0644_u0646_u0645_u0627_u0630_u062c u0020 u0028_u004d_u006f_u0064_u0065_u006c_u0073_u0029_u0627_u0644_u0645_u062a_u0648_u0642_u0639_u0629 u0020 u0644_u0644_u062d_u0631_u0643_u0629 u0020 u0627_u0644_u0645_u0631_u0648_u0631_u064a_u0629 u0020 u0641_u064a u0020 u0627_u0644_u0639_u0634_u0631_u064a_u0646 u0020 u0633_u0646_u0629 u0020 u0627_u0644_u0642_u0627_u062f_u0645_u0629_u060c_u0020", 
        "u0633_u0648_u0627_u0621_u0627 u0020 u0644_u0644_u0627_u0634_u062e_u0627_u0635 u0020 u0627_u0648 u0020 u0627_u0644_u0628_u0636_u0627_u0626_u0639_u060c u0020 u0648_u0630_u0644_u0643 u0020 u0639_u0644_u0649 u0020 u0634_u0643_u0644 u0020 u0633_u064a_u0646_u0627_u0631_u064a_u0648_u0647_u0627_u062a u0020 u062b_u0644_u0627_u062b_u003a_u000d", 
        "u002d u0020 u0633_u0646_u0627_u0631_u064a_u0648 u0020 u0645_u062a_u0641_u0627_u0626_u0644_u003a u0020 u062a_u062d_u0642_u064a_u0642 u0020 u0627_u062a_u0641_u0627_u0642 u0020 u062a_u0633_u0648_u064a_u0629 u0020 u0644_u0644_u0642_u0636_u064a_u0629 u0020 u0627_u0644_u0641_u0644_u0633_u0637_u064a_u0646_u064a_u0629_u002e_u000d", 
        "u002d u0020 u0633_u064a_u0646_u0627_u0631_u064a_u0648 u0020 u0645_u062a_u0634_u0627_u0626_u0645_u003a u0020 u0627_u0633_u062a_u0645_u0631_u0627_u0631 u0020 u0627_u0644_u0648_u0636_u0639 u0020 u0639_u0644_u0649 u0020 u0645_u0627 u0020 u0647_u0648 u0020 u0639_u0644_u064a_u0647_u002e_u000d", 
        "u002d u0020 u0633_u064a_u0646_u0627_u0631_u064a_u0648 u0020 u0648_u0633_u0637 u0020 u0628_u064a_u0646 u0020 u0627_u0644_u062a_u0641_u0627_u0624_u0644 u0020 u0648_u0627_u0644_u062a_u0634_u0627_u0624_u0645_u002e_u000d", 
        "u0033_u002d_u0033 u0020 u0627_u0637_u0627_u0631 u0020 u0639_u0645_u0644 u0020 u0627_u0644_u0645_u0634_u0631_u0648_u0639 u0020 u0028_u062a_u0627_u0628_u0639_u0029_u000d"
    ]
}