{
    "bounding_box": [
        [
            70, 
            43, 
            559, 
            24
        ], 
        [
            70, 
            77, 
            589, 
            24
        ], 
        [
            70, 
            109, 
            474, 
            25
        ], 
        [
            70, 
            144, 
            139, 
            24
        ], 
        [
            60, 
            182, 
            615, 
            29
        ], 
        [
            531, 
            222, 
            145, 
            23
        ], 
        [
            43, 
            257, 
            228, 
            32
        ], 
        [
            43, 
            302, 
            379, 
            27
        ], 
        [
            43, 
            340, 
            274, 
            27
        ], 
        [
            43, 
            378, 
            340, 
            32
        ], 
        [
            43, 
            423, 
            397, 
            27
        ], 
        [
            43, 
            459, 
            394, 
            32
        ]
    ], 
    "image_height": 540, 
    "image_width": 720, 
    "transcription": [
        "u0054_u0068_u0065 u0020 u0061_u0064_u0076_u0065_u0072_u0062_u0073 u0020 u0076_u0065_u0072_u0079 u0020 u002c u0020 u0065_u0078_u0063_u0065_u0061_u006e_u0064_u0065_u0064_u0069_u006e_u0067_u006c_u0079 u0020 u0061_u006e_u0064 u0020 u006f_u0074_u0068_u0065_u0072_u0073 u0020 u006f_u0066_u0020", 
        "u0073_u0069_u006d_u0069_u006c_u0061_u0072 u0020 u0069_u006d_u0070_u006f_u0072_u0074_u002c u0020 u0061_u0072_u0065 u0020 u006f_u0066_u0074_u0065_u006e u0020 u0070_u0072_u0065_u0066_u0069_u0078_u0065_u0064 u0020 u0074_u006f u0020 u0074_u0068_u0065 u0020 u0070_u006f_u0073_u0069_u0074_u0069_u0076_u0065_u002c u0020 u0074_u006f_u0020", 
        "u0065_u0078_u0070_u0072_u0065_u0073_u0073 u0020 u0061 u0020 u0064_u0065_u0067_u0072_u0065_u0065 u0020 u006f_u0066 u0020 u0071_u0075_u0061_u006c_u0069_u0074_u0079 u0020 u0069_u006e_u0066_u0065_u0072_u0069_u006f_u0072 u0020 u0074_u006f u0020 u0074_u0068_u0065_u0020", 
        "u0073_u0075_u0070_u0065_u0072_u006c_u0061_u0074_u0069_u0076_u0065_u002e_u000d", 
        "u0020_u063a_u0627_u0644_u0628_u0627_u064b u0020 u0645_u0627_u062a_u0633_u0628_u0642 u0020 u0627_u0644_u0638_u0631_u0648_u0641 u0020 u0627_u0644_u0635_u0641_u0629 u0020 u0627_u0644_u0639_u0627_u062f_u064a_u0629 u0020 u0644_u0644_u062a_u0639_u0628_u064a_u0631 u0020 u0639_u0646 u0020 u062f_u0631_u062c_u0629 u0020 u0623_u0642_u0644 u0020 u0645_u0646 u0020 u062f_u0631_u062c_u0629_u0020", 
        "u0645_u0628_u0627_u0644_u063a_u0629 u0020 u0627_u0644_u062a_u0641_u0636_u064a_u0644 u0020 u000d", 
        "u0056_u0065_u0072_u0079 u0020 u0072_u0069_u0063_u0068 u0020 u0020 u0020 u0020 u0020 u0020 u0020 u063a_u0646_u064a u0020 u062c_u062f_u0627_u064b_u000d", 
        "u0045_u0078_u0063_u0065_u0065_u0064_u0069_u006e_u0067_u006c_u0079 u0020 u0072_u0069_u0063_u0068 u0020 u0020 u0020 u0020 u0020 u0020 u0020 u0641_u064a u0020 u0645_u0646_u062a_u0647_u0649 u0020 u0627_u0644_u063a_u0646_u0649 u0020 u000d", 
        "u0054_u0068_u0065 u0020 u006d_u006f_u0073_u0074 u0020 u0072_u0069_u0063_u0068 u0020 u0020 u0020 u0020 u0020 u0020 u0020 u0627_u0644_u0623_u063a_u0646_u0649 u0020 u000d", 
        "u0056_u0065_u0072_u0079 u0020 u0070_u0069_u006f_u0075_u0073 u0020 u0020 u0020 u0020 u0020 u0020 u0020 u0020_u062a_u0642_u064a u0020 u062c_u062f_u0627_u064b_u002c u0020 u0648_u0631_u0639 u0020 u062c_u062f_u0627_u064b_u000d", 
        "u0045_u0078_u0063_u0065_u0065_u0064_u0069_u006e_u0067_u006c_u0079 u0020 u0070_u0069_u006f_u0075_u0073 u0020 u0020 u0020 u0020 u0020 u0020 u0020 u0641_u064a u0020 u0645_u0646_u062a_u0647_u0649 u0020 u0627_u0644_u0648_u0631_u0639_u000d", 
        "u0074_u0068_u0065 u0020 u006d_u006f_u0073_u0074 u0020 u0070_u0069_u006f_u0075_u0073 u0020 u0020 u0020 u0020 u0020 u0020 u0020 u0020_u0627_u0644_u0623_u062a_u0642_u0649_u002c u0020 u0627_u0644_u0623_u0643_u062b_u0631 u0020 u0648_u0631_u0639_u0627_u064b"
    ]
}