{
    "bounding_box": [
        [
            24, 
            126, 
            613, 
            23
        ], 
        [
            476, 
            158, 
            160, 
            22
        ], 
        [
            24, 
            226, 
            613, 
            21
        ], 
        [
            413, 
            254, 
            224, 
            22
        ], 
        [
            24, 
            324, 
            613, 
            23
        ], 
        [
            576, 
            355, 
            61, 
            19
        ], 
        [
            24, 
            420, 
            613, 
            25
        ], 
        [
            52, 
            449, 
            585, 
            25
        ]
    ], 
    "image_height": 540, 
    "image_width": 720, 
    "transcription": [
        "u0627_u0644_u0633_u064a_u0646_u0627_u0631_u064a_u0648 u0020 u0644_u064a_u0633 u0020 u062a_u0646_u0628_u0624_u0627 u0020 u0628_u0627_u0644_u0645_u0633_u062a_u0642_u0628_u0644_u060c u0020 u0628_u0644 u0020 u0647_u0648 u0020 u0648_u0635_u0641 u0020 u0644_u0643_u064a_u0641_u064a_u0629 u0020 u0645_u0627 u0020 u064a_u0645_u0643_u0646 u0020 u0623_u0646 u0020 u064a_u0643_u0648_u0646 u0020 u0639_u0644_u064a_u0647_u0020", 
        "u0627_u0644_u0648_u0636_u0639 u0020 u0641_u064a u0020 u0627_u0644_u0645_u0633_u062a_u0642_u0628_u0644_u002e_u000d", 
        "u062a_u0633_u062a_u0643_u0634_u0641 u0020 u0627_u0644_u0633_u064a_u0646_u0627_u0631_u064a_u0648_u0647_u0627_u062a u0020 u0627_u0644_u0645_u0645_u0643_u0646 u0020 u0648_u0644_u064a_u0633 u0020 u0641_u0642_u0637 u0020 u0627_u0644_u0645_u062d_u062a_u0645_u0644_u060c u0020 u0648_u062a_u062f_u0639_u0648 u0020 u0645_u0633_u062a_u062e_u062f_u0645_u064a_u0647_u0627 u0020 u0644_u0644_u062a_u0641_u0643_u064a_u0631_u0020", 
        "u0641_u064a_u0645_u0627 u0020 u0623_u0628_u0639_u062f u0020 u0645_u0646 u0020 u0627_u0644_u062d_u0643_u0645_u0629 u0020 u0627_u0644_u062a_u0642_u0644_u064a_u062f_u064a_u0629_u002e_u000d", 
        "u0648_u062a_u062f_u0639_u0645 u0020 u0627_u0644_u0639_u0645_u0644 u0020 u0627_u0644_u0645_u0628_u0646_u064a u0020 u0639_u0644_u0649 u0020 u0627_u0644_u0645_u0639_u0631_u0641_u0629 u0020 u0645_u0646 u0020 u062e_u0644_u0627_u0644 u0020 u062a_u0648_u0641_u064a_u0631 u0020 u0646_u0638_u0631_u0629 u0020 u062b_u0627_u0642_u0628_u0629 u0020 u0641_u064a u0020 u0646_u0637_u0627_u0642 u0020 u0645_u0627 u0020 u0647_u0648_u0020", 
        "u0645_u0645_u0643_u0646_u002e u0020 u000d", 
        "u0643_u0645_u0627 u0020 u0623_u0646_u0647_u0627 u0020 u062a_u0633_u062a_u0637_u064a_u0639 u0020 u062a_u0648_u0636_u064a_u062d u0020 u062f_u0648_u0631 u0020 u0627_u0644_u0623_u0646_u0634_u0637_u0629 u0020 u0627_u0644_u0628_u0634_u0631_u064a_u0629 u0020 u0641_u064a u0020 u062a_u0634_u0643_u064a_u0644 u0020 u0627_u0644_u0645_u0633_u062a_u0642_u0628_u0644_u060c u0020 u0648_u0627_u0644_u0631_u0648_u0627_u0628_u0637_u0020", 
        "u0627_u0644_u0645_u062a_u0639_u062f_u062f_u0629 u0020 u0628_u064a_u0646 u0020 u0627_u0644_u0642_u0636_u0627_u064a_u0627_u060c u0020 u0645_u062b_u0644 u0020 u0623_u0646_u0645_u0627_u0637 u0020 u0627_u0644_u0627_u0633_u062a_u0647_u0644_u0627_u0643 u0020 u0648_u0627_u0644_u062a_u063a_u064a_u0631 u0020 u0627_u0644_u0628_u064a_u0626_u064a u0020 u0648_u0627_u0644_u062a_u0623_u062b_u064a_u0631_u0627_u062a u0020 u0627_u0644_u0628_u0634_u0631_u064a_u0629_u002e_u000d"
    ]
}