{
    "bounding_box": [
        [
            35, 
            72, 
            646, 
            28
        ], 
        [
            47, 
            105, 
            614, 
            24
        ], 
        [
            35, 
            145, 
            646, 
            24
        ], 
        [
            376, 
            173, 
            284, 
            26
        ], 
        [
            35, 
            212, 
            646, 
            25
        ], 
        [
            410, 
            242, 
            250, 
            26
        ], 
        [
            35, 
            281, 
            625, 
            25
        ], 
        [
            347, 
            309, 
            313, 
            26
        ]
    ], 
    "image_height": 540, 
    "image_width": 720, 
    "transcription": [
        "u002d u0020 u0639_u0627_u0634_u0631_u0627_u064b_u003a u0020 u0628_u0631_u0646_u0627_u0645_u062c u0020 u0632_u064a_u0627_u0631_u0629 u0020 u0627_u0644_u0636_u064a_u0641 u0020 u0641_u064a u0020 u0627_u0644_u062f_u0648_u0644_u0629 u0020 u0627_u0644_u0627_u062a_u062d_u0627_u062f_u064a_u0629 u0020 u064a_u0634_u0645_u0644 u0020 u0641_u064a u0020 u0627_u0644_u0639_u0627_u062f_u0629 u0020 u0639_u0644_u0649_u0020", 
        "u0645_u0627_u062f_u0628_u0629 u0020 u0631_u0633_u0645_u064a_u0629 u0020 u062a_u0642_u062f_u0645_u0647_u0627 u0020 u0633_u0644_u0637_u0627_u062a u0020 u0627_u0644_u062f_u0648_u0644_u0629 u0020 u0639_u0644_u0649 u0020 u0634_u0631_u0641_u0647 u0020 u0648_u064a_u062d_u0636_u0631_u0647_u0627 u0020 u0643_u0628_u0627_u0631 u0020 u0627_u0644_u0634_u062e_u0635_u064a_u0627_u062a_u002e_u000d", 
        "u002d u0020 u0648_u0643_u0630_u0644_u0643 u0020 u064a_u062a_u0645 u0020 u0627_u0635_u0637_u062d_u0627_u0628_u0647 u0020 u0641_u064a u0020 u062c_u0648_u0644_u0629 u0020 u0644_u0632_u064a_u0627_u0631_u0629 u0020 u0627_u0644_u0645_u0639_u0627_u0644_u0645 u0020 u0627_u0644_u062d_u0636_u0627_u0631_u064a_u0629 u0020 u0641_u064a u0020 u0627_u0644_u062f_u0648_u0644_u0629 u0020 u0639_u0636_u0648_u0020", 
        "u0627_u0644_u0627_u062a_u062d_u0627_u062f u0020 u0028_u0648_u0630_u0644_u0643 u0020 u062d_u0633_u0628 u0020 u0631_u063a_u0628_u0629 u0020 u0627_u0644_u0632_u0627_u0626_u0631_u0029_u000d", 
        "u002d u0020 u062d_u0627_u062f_u064a u0020 u0639_u0634_u0631_u003a u0020 u064a_u062a_u0645 u0020 u062a_u0648_u062f_u064a_u0639 u0020 u0627_u0644_u0636_u064a_u0641 u0020 u0645_u0646 u0020 u0642_u0628_u0644 u0020 u0633_u0644_u0637_u0627_u062a u0020 u0627_u0644_u062f_u0648_u0644_u0629 u0020 u0639_u0636_u0648 u0020 u0627_u0644_u0627_u062a_u062d_u0627_u062f u0020 u0643_u0645_u0627_u0020", 
        "u0627_u0633_u062a_u0642_u0628_u0644 u0020 u0628_u0646_u0641_u0633 u0020 u0627_u0644_u062d_u0641_u0627_u0648_u0629 u0020 u0648_u0627_u0644_u062a_u0643_u0631_u064a_u0645_u002e_u000d", 
        "u0648_u0641_u064a u0020 u0628_u0639_u0636 u0020 u0627_u0644_u062d_u0627_u0644_u0627_u062a u0020 u0627_u0644_u062e_u0627_u0635_u0629 u0020 u064a_u0645_u0643_u0646 u0020 u0627_u062d_u062f_u0627_u062b u0020 u062a_u0639_u062f_u064a_u0644_u0627_u062a u0020 u0639_u0644_u0649 u0020 u0628_u0631_u0646_u0627_u0645_u062c u0020 u0627_u0644_u0632_u064a_u0627_u0631_u0629 u0020 u0628_u0646_u0627_u0621_u0020", 
        "u0639_u0644_u0649 u0020 u0631_u063a_u0628_u0629 u0020 u0627_u0644_u0636_u064a_u0641_u060c u0020 u0623_u0648 u0020 u0644_u0623_u0633_u0628_u0627_u0628 u0020 u0637_u0627_u0631_u0626_u0629_u002e"
    ]
}