{
    "bounding_box": [
        [
            248, 
            44, 
            404, 
            28
        ], 
        [
            113, 
            105, 
            548, 
            26
        ], 
        [
            57, 
            136, 
            604, 
            28
        ], 
        [
            71, 
            170, 
            590, 
            23
        ], 
        [
            95, 
            199, 
            567, 
            29
        ], 
        [
            57, 
            236, 
            604, 
            23
        ], 
        [
            90, 
            264, 
            572, 
            29
        ], 
        [
            136, 
            297, 
            525, 
            25
        ]
    ], 
    "image_height": 540, 
    "image_width": 720, 
    "transcription": [
        "u0630_u0627_u0643_u0631_u0629 u0020 u0627_u0644_u0648_u0635_u0648_u0644 u0020 u0627_u0644_u0639_u0634_u0648_u0627_u0626_u064a u0020 u0648_u0630_u0627_u0643_u0631_u0629 u0020 u0627_u0644_u0642_u0631_u0627_u0621_u0629 u0020 u0641_u0642_u0637_u0020", 
        "u062a_u0645 u0020 u0630_u0643_u0631 u0020 u0645_u0641_u0647_u0648_u0645 u0020 u0630_u0627_u0643_u0631_u0629 u0020 u0627_u0644_u0648_u0635_u0648_u0644 u0020 u0627_u0644_u0639_u0634_u0648_u0627_u0626_u064a u0020 u0641_u064a u0020 u0627_u0644_u062f_u0631_u0633 u0020 u0031_u002d_u0033_u002e u0020 u0648_u0628_u0634_u0643_u0644_u0020", 
        "u0623_u0633_u0627_u0633_u064a_u060c u0020 u0641_u0625_u0646 u0020 u0630_u0627_u0643_u0631_u0629 u0020 u0627_u0644_u0648_u0635_u0648_u0644 u0020 u0627_u0644_u0639_u0634_u0648_u0627_u0626_u064a u0020 u0639_u0628_u0627_u0631_u0629 u0020 u0639_u0646 u0020 u0630_u0627_u0643_u0631_u0629 u0020 u063a_u064a_u0631 u0020 u062b_u0627_u0628_u062a_u0629 u0020 u0639_u0627_u0644_u064a_u0629_u0020", 
        "u0627_u0644_u0633_u0631_u0639_u0629 u0020 u064a_u0633_u062a_u062e_u062f_u0645_u0647_u0627 u0020 u062c_u0647_u0627_u0632 u0020 u0627_u0644_u0643_u0645_u0628_u064a_u0648_u062a_u0631 u0020 u0644_u064a_u062e_u0632_u0646 u0020 u0627_u0644_u0628_u064a_u0627_u0646_u0627_u062a u0020 u0648_u0627_u0644_u062a_u0639_u0644_u064a_u0645_u0627_u062a u0020 u0628_u0635_u0648_u0631_u0629_u0020", 
        "u0645_u0624_u0642_u062a_u0629_u002e u0020 u0648_u062a_u062a_u0623_u0644_u0641 u0020 u0630_u0627_u0643_u0631_u0629 u0020 u0627_u0644_u0648_u0635_u0648_u0644 u0020 u0627_u0644_u0639_u0634_u0648_u0627_u0626_u064a u0020 u0645_u0646 u0020 u062f_u0627_u0631_u0627_u062a u0020 u0645_u062a_u0643_u0627_u0645_u0644_u0629 u0020 u062a_u062d_u062a_u0648_u064a_u0020", 
        "u0639_u0644_u0649 u0020 u0645_u0644_u0627_u064a_u064a_u0646 u0020 u0645_u0643_u062b_u0641_u0627_u062a u0020 u0627_u0644_u062a_u062e_u0632_u064a_u0646 u0020 u0627_u0644_u0635_u063a_u064a_u0631_u0629_u002e u0020 u0648_u064a_u062a_u0645 u0020 u062a_u062e_u0632_u064a_u0646 u0020 u0627_u0644_u0625_u0634_u0627_u0631_u0627_u062a u0020 u0627_u0644_u0635_u063a_u064a_u0631_u0629_u0020", 
        "u0627_u0644_u062a_u064a u0020 u064a_u062a_u0645 u0020 u062a_u0641_u0633_u064a_u0631_u0647_u0627 u0020 u0639_u0644_u0649 u0020 u0623_u0646_u0647_u0627 u0020 u0648_u0627_u062d_u062f u0020 u0623_u0648 u0020 u0635_u0641_u0631 u0020 u0641_u064a u0020 u0647_u0630_u0647 u0020 u0627_u0644_u0645_u0643_u062b_u0641_u0627_u062a u0020 u0643_u0628_u064a_u0627_u0646_u0627_u062a_u002e_u0020", 
        "u0648_u064a_u0634_u0627_u0631 u0020 u0625_u0644_u0649 u0020 u0627_u0644_u0648_u0627_u062d_u062f u0020 u0623_u0648 u0020 u0627_u0644_u0635_u0641_u0631 u0020 u0628_u0627_u0633_u0645 u0020 u0628_u062a u0020 u0648_u0633_u0644_u0633_u0644_u0629 u0020 u0645_u0646_u0647_u0627 u0020 u0645_u0646 u0020 u0627_u0644_u0628_u0627_u064a_u062a_u002e_u0020"
    ]
}