{
    "bounding_box": [
        [
            114, 
            129, 
            538, 
            21
        ], 
        [
            479, 
            152, 
            174, 
            20
        ], 
        [
            638, 
            179, 
            14, 
            14
        ], 
        [
            274, 
            201, 
            378, 
            21
        ], 
        [
            398, 
            225, 
            255, 
            19
        ], 
        [
            416, 
            248, 
            236, 
            22
        ], 
        [
            198, 
            272, 
            454, 
            22
        ], 
        [
            90, 
            296, 
            562, 
            22
        ], 
        [
            554, 
            321, 
            98, 
            21
        ], 
        [
            84, 
            368, 
            569, 
            22
        ], 
        [
            596, 
            394, 
            56, 
            19
        ]
    ], 
    "image_height": 540, 
    "image_width": 720, 
    "transcription": [
        "u0627_u0646_u062f_u0631_u0648 u0020 u0643_u0627_u0631_u064a_u0646_u062c_u064a u0020 u064a_u062f_u0641_u0639 u0020 u0645_u0644_u064a_u0648_u0646 u0020 u062f_u0648_u0644_u0627_u0631 u0020 u0633_u0646_u0648_u064a_u0627 u0020 u0644_u062a_u0634_u0627_u0631_u0644_u0632 u0020 u0634_u0648_u0627_u0628 u0020 u0028_u0033_u0030_u0030_u0030_u062f_u0648_u0644_u0627_u0631 u0020 u064a_u0648_u0645_u064a_u0627_u0029_u002e_u002e_u002e u0020 u0644_u0645_u0627_u0630_u0627_u061f_u000b", 
        "u0647_u0644 u0020 u0644_u0623_u0646 u0020 u0634_u0648_u0627_u0628 u0020 u0643_u0627_u0646 u0020 u0639_u0628_u0642_u0631_u064a_u0627_u061f_u000b", 
        "u0644_u0627_u000b", 
        "u0647_u0644 u0020 u0644_u0627_u0646_u0647 u0020 u0643_u0627_u0646 u0020 u064a_u0639_u0631_u0641 u0020 u0639_u0646 u0020 u062a_u0635_u0646_u064a_u0639 u0020 u0627_u0644_u062d_u062f_u064a_u062f u0020 u0627_u0643_u062b_u0631 u0020 u0645_u0645_u0627 u0020 u064a_u0639_u0631_u0641_u0647 u0020 u063a_u064a_u0631_u0647_u061f_u000b", 
        "u0644_u0627 u0020 u0647_u0646_u0627_u0643 u0020 u0628_u064a_u0646 u0020 u0627_u0644_u0639_u0627_u0645_u0644_u064a_u0646 u0020 u0645_u0646 u0020 u064a_u0639_u0631_u0641 u0020 u0627_u0643_u062b_u0631 u0020 u0645_u0646_u0647_u000b", 
        "u0627_u0644_u0633_u0628_u0628_u003a u0020 u0642_u062f_u0631_u062a_u0647 u0020 u0639_u0644_u0649 u0020 u0627_u0644_u062a_u0639_u0627_u0645_u0644 u0020 u0645_u0639 u0020 u0627_u0644_u0646_u0627_u0633_u000b", 
        "u064a_u0642_u0648_u0644_u003a u0020 u0627_u0646_u0646_u064a u0020 u0627_u0639_u062a_u0628_u0631 u0020 u0642_u062f_u0631_u062a_u064a u0020 u0639_u0644_u0649 u0020 u0627_u062b_u0627_u0631_u0629 u0020 u062d_u0645_u0627_u0633_u0629 u0020 u0645_u0648_u0638_u0641_u064a u0020 u0647_u064a u0020 u0627_u0639_u0638_u0645 u0020 u062e_u0635_u0627_u0626_u0635_u064a_u000b", 
        "u0627_u0646_u0646_u064a u0020 u0644_u0627 u0020 u0623_u0646_u062a_u0642_u062f u0020 u0627_u062d_u062f_u0627 u0020 u0627_u0628_u062f_u0627 u0020 u0623_u0639_u0637_u064a u0020 u0627_u0644_u0646_u0627_u0633 u0020 u062d_u0627_u0641_u0632_u0627 u0020 u0644_u0644_u0639_u0645_u0644 u0020 u0623_u0643_u0631_u0647 u0020 u062a_u0635_u064a_u062f u0020 u0627_u0644_u0627_u062e_u0637_u0627_u0621 u0020 u0635_u0627_u062f_u0642 u0020 u0641_u064a u0020 u0627_u0633_u062a_u062d_u0633_u0627_u0646_u064a_u0020", 
        "u0643_u0631_u064a_u0645 u0020 u0641_u064a u0020 u0645_u062f_u062d_u064a_u000b", 
        "u0639_u0646_u062f_u0645_u0627 u0020 u062a_u0648_u0641_u064a u0020 u0643_u0627_u0631_u064a_u0646_u062c_u064a_u002e_u002e u0020 u0643_u064f_u062a_u0628 u0020 u0639_u0644_u0649 u0020 u0642_u0628_u0631_u0647 u0020 u0647_u0646_u0627 u0020 u064a_u0631_u0642_u062f u0020 u0634_u062e_u0635 u0020 u0639_u0631_u0641 u0020 u0643_u064a_u0641 u0020 u064a_u062c_u0645_u0639 u0020 u062d_u0648_u0644_u0647 u0020 u0631_u062c_u0627_u0644_u0627 u0020 u0643_u0627_u0646_u0648_u0627_u0020", 
        "u0627_u0630_u0643_u0649 u0020 u0645_u0646_u0647"
    ]
}