{
    "bounding_box": [
        [
            303, 
            52, 
            64, 
            36
        ], 
        [
            63, 
            149, 
            555, 
            18
        ], 
        [
            63, 
            169, 
            556, 
            18
        ], 
        [
            562, 
            188, 
            56, 
            17
        ], 
        [
            61, 
            235, 
            558, 
            19
        ], 
        [
            45, 
            256, 
            573, 
            17
        ], 
        [
            67, 
            274, 
            552, 
            18
        ], 
        [
            53, 
            293, 
            566, 
            18
        ], 
        [
            578, 
            314, 
            41, 
            17
        ], 
        [
            250, 
            457, 
            153, 
            17
        ], 
        [
            209, 
            481, 
            243, 
            17
        ]
    ], 
    "image_height": 540, 
    "image_width": 720, 
    "transcription": [
        "u0627_u0644_u062e_u062a_u0627_u0645", 
        "u062a_u0648_u0635_u0644 u0020 u0639_u0644_u0645 u0020 u0627_u0644_u0630_u0643_u0627_u0621 u0020 u0627_u0644_u0627_u0635_u0637_u0646_u0627_u0639_u064a u0020 u0627_u0644_u0649 u0020 u0627_u0644_u0643_u062b_u064a_u0631 u0020 u0645_u0646 u0020 u0627_u0644_u0644_u062a_u0637_u0628_u064a_u0642_u0627_u062a u0020 u0641_u064a u0020 u062d_u064a_u0627_u062a_u0646_u0627 u0020 u0627_u0644_u0645_u0639_u0627_u0635_u0631_u0647 u0020 u0648_u0627_u0644_u062a_u064a u0020 u0628_u0627_u062a_u062a_u0020", 
        "u0628_u0631_u0627_u064a u0020 u0628_u0639_u0636 u0020 u0627_u0644_u0639_u0644_u0645_u0627_u0621 u0020 u0627_u0644_u0645_u062a_u062e_u0635_u0635_u064a_u0646 u0020 u062a_u0634_u0643_u0644 u0020 u062e_u0637_u0631_u0627 u0020 u062d_u062a_u0649 u0020 u0627_u0648 u0020 u062a_u0647_u062f_u064a_u062f_u0627 u0020 u0631_u0628_u0645_u0627 u0020 u0644_u0644_u0630_u0643_u0627_u0621 u0020 u0627_u0644_u0628_u0634_u0631_u064a u0020 u0648_u0627_u0644_u062d_u064a_u0627_u0647_u0020", 
        "u0627_u0644_u0628_u0634_u0631_u064a_u0647 u0020 u000d", 
        "u0644_u0643_u0646_u0646_u0627 u0020 u0628_u0627_u0644_u0646_u0647_u0627_u064a_u0647 u0020 u062a_u062e_u0644_u0635 u0020 u0627_u0644_u0649 u0020 u0627_u0646 u0020 u0627_u0644_u0630_u0643_u0627_u0621 u0020 u0627_u0644_u0627_u0635_u0637_u0646_u0627_u0639_u064a u0020 u0645_u062c_u0627_u0644 u0020 u0639_u0638_u064a_u0645 u0020 u0645_u0644_u064a_u0621 u0020 u0628_u0627_u0644_u0641_u0631_u0635 u0020 u0648_u0627_u0644_u0623_u0641_u0643_u0627_u0631 u0020 u0627_u0644_u062a_u064a u0020 u0644_u0645 u0020 u062a_u0643_u062a_u0634_u0641 u0020 u0628_u0639_u062f u0020 u0020", 
        "u062d_u064a_u062b u0020 u0642_u0627_u0644 u0020 u062a_u0639_u0627_u0644_u0649_u003a u0020 u0028_u0648_u0645_u0627 u0020 u0623_u0648_u062a_u064a_u062a_u0645 u0020 u0645_u0646 u0020 u0627_u0644_u0639_u0644_u0645 u0020 u0625_u0644_u0627 u0020 u0642_u0644_u064a_u0644_u0627_u0029_u002e u0020 u0648_u0628_u0645_u0627 u0020 u0623_u0646 u0020 u0627_u0644_u062d_u0627_u062c_u0629 u0020 u0623_u0645 u0020 u0627_u0644_u0627_u062e_u062a_u0631_u0627_u0639 u0020 u0641_u0625_u0646 u0020 u0647_u0630_u0627 u0020 u0627_u0644_u0645_u062c_u0627_u0644 u0020 u0645_u0644_u064a_u0621 u0020 u0628_u0627_u0644_u062a_u062d_u062f_u064a_u0627_u062a_u0020", 
        "u0648_u0627_u0644_u0645_u0641_u0627_u062c_u0622_u062a u0020 u0627_u0644_u062a_u064a u0020 u0642_u062f u0020 u0644_u0627 u0020 u062a_u062e_u0637_u0631 u0020 u0639_u0644_u0649 u0020 u0628_u0627_u0644 u0020 u0628_u0634_u0631_u0645_u0646 u0020 u0646_u0627_u062d_u064a_u0629 u0020 u063a_u0631_u0627_u0628_u062a_u0647_u0627 u0020 u0648_u0641_u0627_u0626_u062f_u062a_u0647_u0627_u002e u0020 u0648_u0647_u0630_u0647 u0020 u0627_u0644_u0627_u062e_u062a_u0631_u0627_u0639_u0627_u062a u0020 u062a_u062d_u062a_u0627_u062c u0020 u0627_u0644_u0649 u0020 u0639_u0642_u0644_u0020", 
        "u0645_u0628_u062f_u0639 u0020 u064a_u062d_u0644_u0642 u0020 u0641_u064a u0020 u0641_u0636_u0627_u0621_u0627_u062a u0020 u0627_u0644_u062e_u064a_u0627_u0644 u0020 u0644_u064a_u0633_u062a_u0637_u064a_u0639 u0020 u0623_u0646 u0020 u064a_u062a_u0646_u0628_u0623 u0020 u0628_u0645_u0627 u0020 u0642_u062f u0020 u064a_u062d_u062f_u062b u0020 u0645_u0633_u062a_u0642_u0628_u0644_u0627_u064b_u002e u0020 u0641_u0633_u0628_u062d_u0627_u0646 u0020 u0627_u0644_u0642_u0627_u0626_u0644_u003a u0020 u0028_u0648_u0641_u0648_u0642 u0020 u0643_u0644 u0020 u0630_u064a u0020 u0639_u0644_u0645_u0020", 
        "u0639_u0644_u064a_u0645_u0029_u002e_u00a0_u000d", 
        "u0647_u0630_u0627 u0020 u0648_u0627_u0644_u062d_u0645_u062f u0020 u0644_u0644_u0647 u0020 u0631_u0628 u0020 u0627_u0644_u0639_u0627_u0644_u0645_u064a_u0646 u0020 u000d", 
        "u0648_u0627_u0644_u0635_u0644_u0627_u0647 u0020 u0639_u0644_u0649 u0020 u0633_u064a_u062f_u0646_u0627 u0020 u0645_u062d_u0645_u062f u0020 u0648_u0627_u0644_u0647 u0020 u0648_u0635_u062d_u0628_u0647 u0020 u0627_u062c_u0645_u0639_u064a_u0646"
    ]
}