{
    "bounding_box": [
        [
            153, 
            6, 
            374, 
            30
        ], 
        [
            192, 
            58, 
            304, 
            26
        ], 
        [
            47, 
            118, 
            602, 
            47
        ], 
        [
            117, 
            166, 
            532, 
            50
        ], 
        [
            70, 
            229, 
            578, 
            39
        ], 
        [
            253, 
            285, 
            396, 
            35
        ], 
        [
            421, 
            338, 
            228, 
            30
        ], 
        [
            244, 
            388, 
            405, 
            35
        ], 
        [
            148, 
            440, 
            501, 
            35
        ]
    ], 
    "image_height": 540, 
    "image_width": 720, 
    "transcription": [
        "u0623_u0644_u0623_u0646_u0638_u0645_u0629 u0020 u0648_u0627_u0644_u0623_u062c_u0647_u0632_u0629 u0020 u062e_u0627_u0635_u0629 u0020 u0628_u0645_u0643_u0627_u0641_u062d_u0629 u0020 u0627_u0644_u062d_u0631_u064a_u0642_u000b", 
        "u0028_u0046_u0069_u0072_u0065 u0020 u0046_u0069_u0067_u0068_u0074_u0069_u006e_u0067 u0020 u0073_u0079_u0073_u0074_u0065_u006d_u0029_u002e", 
        "u0031_u002d u0020 u0646_u0638_u0627_u0645 u0020 u0627_u0644_u0645_u0631_u0634_u0627_u062a u0020 u0627_u0644_u0645_u0627_u0626_u064a_u0629 u0020 u0053_u0070_u0072_u0069_u006e_u006b_u006c_u0065_u0072 u0020 u0053_u0079_u0073_u0074_u0065_u006d_u0073_u002e_u000d", 
        "u0032_u002d u0020 u0646_u0638_u0627_u0645 u0020 u0627_u0644_u063a_u0645_u0631 u0020 u0627_u0644_u0645_u0627_u0626_u064a u0020 u0044_u0065_u006c_u0075_u0067_u0065 u0020 u0053_u0079_u0073_u0074_u0065_u006d_u0073_u002e_u000d", 
        "u0033_u002d u0020 u0646_u0638_u0627_u0645 u0020 u0627_u0644_u0645_u0643_u0627_u0641_u062d_u0629 u0020 u0628_u063a_u0627_u0632 u0020 u062b_u0627_u0646_u064a u0020 u0623_u0643_u0633_u064a_u062f u0020 u0627_u0644_u0643_u0631_u0628_u0648_u0646 u0020 u0043_u006f_u0032_u002e_u000d", 
        "u0034_u002d u0020 u0646_u0638_u0627_u0645 u0020 u0627_u0644_u0645_u0643_u0627_u0641_u062d_u0629 u0020 u0628_u063a_u0627_u0632 u0020 u0046_u004d_u0032_u0030_u0030_u002e_u000d", 
        "u0035_u002d u0020 u0627_u0644_u0642_u0648_u0627_u0630_u0641 u0020 u0627_u0644_u0645_u0627_u0626_u064a_u0629_u002e_u000d", 
        "u0036_u002d u0020 u062e_u0631_u0627_u0637_u064a_u0645 u0020 u0648_u0635_u0646_u0627_u062f_u064a_u0642 u0020 u0645_u064a_u0627_u0647 u0020 u0627_u0644_u062d_u0631_u064a_u0642_u002e_u000d", 
        "u0637_u0641_u0627_u064a_u0627_u062a u0020 u0627_u0644_u062d_u0631_u064a_u0642 u0020 u0627_u0644_u064a_u062f_u0648_u064a_u0629 u0020 u0028_u0628_u0648_u062f_u0631_u0629_u002d_u0043_u006f_u0032_u002d u0020 u0645_u0627_u0621_u0029_u000d"
    ]
}