{
    "bounding_box": [
        [
            225, 
            24, 
            463, 
            39
        ], 
        [
            129, 
            109, 
            520, 
            30
        ], 
        [
            37, 
            160, 
            611, 
            27
        ], 
        [
            115, 
            199, 
            533, 
            26
        ], 
        [
            432, 
            237, 
            217, 
            26
        ]
    ], 
    "image_height": 540, 
    "image_width": 720, 
    "transcription": [
        "u0627_u0644_u062e_u062f_u0645_u0627_u062a u0020 u0627_u0644_u062a_u064a u0020 u062a_u0648_u0641_u0631_u0647_u0627 u0020 u0634_u0628_u0643_u0629 u0020 u0627_u0644_u0627_u0646_u062a_u0631_u0646_u062a_u003a", 
        "u062e_u062f_u0645_u0629 u0020 u0627_u0644_u0634_u0628_u0643_u0629 u0020 u0627_u0644_u0639_u0646_u0643_u0628_u0648_u062a_u064a_u0647 u0020 u0057_u006f_u0072_u006c_u0064 u0020 u0057_u0069_u0064_u0065 u0020 u0057_u0065_u0062_u003a_u000d", 
        "u064a_u0645_u0643_u0646 u0020 u0639_u0628_u0631 u0020 u0647_u0630_u0647 u0020 u0627_u0644_u062a_u0642_u0646_u064a_u0629 u0020 u062d_u0635_u0648_u0644 u0020 u0627_u0644_u0645_u0633_u062a_u062e_u062f_u0645 u0020 u0639_u0644_u0649 u0020 u0645_u0639_u0644_u0648_u0645_u0627_u062a u0020 u0643_u062a_u0627_u0628_u064a_u0629_u0020", 
        "u060c u0020 u0645_u0633_u0645_u0648_u0639_u0629_u060c u0020 u0645_u0631_u0626_u064a_u0629 u0020 u0639_u0628_u0631 u0020 u0635_u0641_u062d_u0627_u062a u0020 u0625_u0644_u064a_u0643_u062a_u0631_u0648_u0646_u064a_u0629 u0020 u064a_u062a_u0635_u0641_u062d_u0647_u0627_u0020", 
        "u0627_u0644_u0645_u0633_u062a_u062e_u062f_u0645 u0020 u0639_u0628_u0631 u0020 u062d_u0627_u0633_u0628_u0647_u002e"
    ]
}