{
    "bounding_box": [
        [
            50, 
            156, 
            637, 
            37
        ], 
        [
            89, 
            199, 
            598, 
            37
        ], 
        [
            593, 
            245, 
            93, 
            29
        ], 
        [
            8, 
            284, 
            678, 
            38
        ], 
        [
            109, 
            328, 
            577, 
            38
        ], 
        [
            97, 
            370, 
            590, 
            39
        ], 
        [
            576, 
            417, 
            110, 
            35
        ], 
        [
            227, 
            16, 
            290, 
            56
        ], 
        [
            157, 
            84, 
            387, 
            29
        ], 
        [
            61, 
            500, 
            23, 
            10
        ]
    ], 
    "image_height": 540, 
    "image_width": 720, 
    "transcription": [
        "u062a_u0646_u0641_u0630 u0020 u0647_u062c_u0645_u0627_u062a u0020 u0058_u0053_u0053_u0639_u0646 u0020 u0637_u0631_u064a_u0642 u0020 u0648_u0636_u0639 u0020 u0645_u0644_u0641 u0020 u0046_u006c_u0061_u0073_u0068 u0020 u0639_u0644_u0649_u0020", 
        "u0645_u0648_u0642_u0639 u0020 u0648_u064a_u0628 u0020 u0648_u0644_u0643_u0646 u0020 u0647_u0630 u0020 u0627_u0644_u0645_u0644_u0641 u0020 u064a_u062d_u0648_u064a u0020 u0628_u0631_u0646_u0627_u0645_u062c_u0627 u0020 u0053_u0063_u0072_u0069_u0070_u0074_u0020", 
        "u0635_u063a_u064a_u0631_u0627_u002e_u000d", 
        "u0628_u0645_u062c_u0631_u062f u0020 u0623_u0646 u0020 u062a_u0642_u0648_u0645 u0020 u0628_u0641_u062a_u062d u0020 u0647_u0630_u0627 u0020 u0627_u0644_u0645_u0644_u0641 u0020 u0639_u0644_u0649 u0020 u0627_u0644_u0645_u0648_u0642_u0639 u0020 u064a_u062a_u0645 u0020 u062a_u0634_u063a_u064a_u0644 u0020 u0647_u0630_u0627_u0020", 
        "u0627_u0644_u0628_u0631_u0646_u0627_u0645_u062c u0020 u0627_u0644_u062a_u062e_u0631_u064a_u0628_u064a u0020 u0627_u0644_u0630_u064a u0020 u064a_u0645_u0643_u0646 u0020 u0627_u0644_u0645_u062e_u062a_u0631_u0642 u0020 u0645_u0646 u0020 u0627_u0644_u062a_u062d_u0643_u0645_u0020", 
        "u0648_u0627_u0644_u0627_u0637_u0644_u0627_u0639 u0020 u0639_u0644_u0649 u0020 u0627_u0644_u0645_u0639_u0644_u0648_u0645_u0627_u062a u0020 u0627_u0644_u062a_u064a u0020 u062a_u0634_u0627_u0647_u062f_u0647_u0627 u0020 u0639_u0644_u0649 u0020 u0634_u0627_u0634_u0629_u0020", 
        "u0627_u0644_u0645_u062a_u0635_u0641_u062d_u002e", 
        "u0647_u062c_u0645_u0627_u062a u0020 u0627_u0644_u0623_u0639_u062f_u0627_u0621", 
        "u0647_u062c_u0645_u0627_u062a u0020 u0043_u0072_u006f_u0073_u0073 u0020 u0053_u0069_u0074_u0065 u0020 u0053_u0063_u0072_u0069_u0070_u0074_u0069_u006e_u0067", 
        "u0031_u0033_u0034"
    ]
}