{
    "bounding_box": [
        [
            132, 
            63, 
            434, 
            52
        ], 
        [
            528, 
            154, 
            165, 
            21
        ], 
        [
            205, 
            190, 
            466, 
            24
        ], 
        [
            170, 
            261, 
            501, 
            25
        ], 
        [
            485, 
            298, 
            207, 
            25
        ], 
        [
            24, 
            337, 
            647, 
            25
        ], 
        [
            522, 
            371, 
            150, 
            21
        ], 
        [
            519, 
            407, 
            152, 
            24
        ], 
        [
            228, 
            440, 
            443, 
            25
        ]
    ], 
    "image_height": 540, 
    "image_width": 720, 
    "transcription": [
        "u0634_u0639_u0628_u0629 u0020 u0627_u0644_u0639_u0644_u0648_u0645 u0020 u0648_u0627_u0644_u062a_u0643_u0646_u0648_u0644_u0648_u062c_u064a_u0627_u062a", 
        "u0623_u0647_u062f_u0627_u0641 u0020 u0627_u0644_u062f_u0631_u0627_u0633_u0629_u003a_u000d", 
        "u062a_u0645_u0643_u064a_u0646 u0020 u0627_u0644_u062a_u0644_u0645_u064a_u0630 u0020 u0645_u0646 u0020 u0627_u0644_u0623_u062f_u0627_u0629 u0020 u0627_u0644_u062a_u0642_u0646_u064a_u0629 u0020 u0648_u0627_u0633_u062a_u064a_u0639_u0627_u0628 u0020 u0642_u0648_u0627_u0646_u064a_u0646_u0647_u0627 u0020 u0648_u0645_u0628_u0627_u062f_u0626_u0647_u0627_u000d", 
        "u062c_u0639_u0644 u0020 u0627_u0644_u062a_u0644_u0645_u064a_u0630 u0020 u0642_u0627_u062f_u0631_u0627 u0020 u0639_u0644_u0649 u0020 u0627_u0644_u062a_u062e_u0637_u064a_u0637 u0020 u0020_u0648_u0627_u0644_u062a_u0646_u0638_u064a_u0645 u0020 u0627_u0644_u0639_u0642_u0644_u0627_u0646_u064a u0020 u0648_u0627_u0644_u0627_u0628_u062a_u0643_u0627_u0631 u0020 u000d", 
        "u0627_u0644_u0645_u0624_u0647_u0644_u0627_u062a u0020 u0627_u0644_u0645_u0637_u0644_u0648_u0628_u0629_u003a_u000d", 
        "u0645_u0633_u062a_u0648_u0649 u0020 u062c_u064a_u062f u0020 u0641_u064a u0020 u0627_u0644_u0631_u064a_u0627_u0636_u064a_u0627_u062a u0020 u0648_u0627_u0644_u0641_u064a_u0632_u064a_u0627_u0621 u0020 u0648_u0627_u0644_u0641_u0631_u0646_u0633_u064a_u0629 u0020 u0648_u0645_u0633_u062a_u0648_u0649 u0020 u0645_u0642_u0628_u0648_u0644 u0020 u0641_u064a u0020 u0628_u0627_u0642_u064a u0020 u0627_u0644_u0645_u0648_u0627_u062f_u000d", 
        "u0628_u0646_u064a_u0629 u0020 u062c_u0633_u0645_u064a_u0629 u0020 u0633_u0644_u064a_u0645_u0629_u000d", 
        "u062d_u0628 u0020 u0627_u0644_u0639_u0645_u0644 u0020 u0627_u0644_u064a_u062f_u0648_u064a_u000d", 
        "u062f_u0642_u0629 u0020 u0627_u0644_u0645_u0644_u0627_u062d_u0638_u0629 u0020 u0648 u0020 u0627_u0644_u0642_u062f_u0631_u0629 u0020 u0639_u0644_u0649 u0020 u0020_u0627_u0644_u062a_u062d_u0644_u064a_u0644 u0020 u0648_u0627_u0644_u062a_u0646_u0638_u064a_u0645 u0020 u0627_u0644_u0639_u0642_u0644_u0627_u0646_u064a_u000d"
    ]
}