{
    "bounding_box": [
        [
            354, 
            60, 
            145, 
            39
        ], 
        [
            388, 
            122, 
            117, 
            37
        ]
    ], 
    "image_height": 540, 
    "image_width": 720, 
    "transcription": [
        "u0646_u0634_u0627_u0637_u0036 u0020 u0020_u000d", 
        "u0635 u0020 u0031_u0035"
    ]
}