{
    "bounding_box": [
        [
            670, 
            511, 
            6, 
            1
        ], 
        [
            365, 
            24, 
            311, 
            42
        ], 
        [
            246, 
            92, 
            428, 
            42
        ], 
        [
            590, 
            195, 
            20, 
            26
        ], 
        [
            260, 
            268, 
            448, 
            42
        ], 
        [
            574, 
            337, 
            20, 
            26
        ], 
        [
            215, 
            404, 
            471, 
            42
        ], 
        [
            467, 
            473, 
            140, 
            26
        ]
    ], 
    "image_height": 540, 
    "image_width": 720, 
    "transcription": [
        "u0036", 
        "u0627_u0644_u0635_u064a_u063a_u0629_u0046_u0065_u0032_u0028_u0053_u004f_u0034_u0029_u0033 u0020 u0020 u0020 u0020_u0020", 
        "u0645_u0627 u0020 u0639_u062f_u062f u0020 u0630_u0631_u0627_u062a u0020 u0627_u0644_u062d_u062f_u064a_u062f u0020 u0641_u064a u0020 u0627_u0644_u0635_u064a_u063a_u0629 u0020 u061f_u0020", 
        "u0032", 
        "u0645_u0627 u0020 u0639_u062f_u062f u0020 u0630_u0631_u0627_u062a u0020 u0627_u0644_u0643_u0628_u0631_u064a_u062a u0020 u0641_u064a u0020 u0627_u0644_u0635_u064a_u063a_u0629 u0020 u061f_u0020", 
        "u0033", 
        "u0645_u0627 u0020 u0639_u062f_u062f u0020 u0630_u0631_u0627_u062a u0020 u0627_u0644_u0623_u0643_u0633_u062c_u064a_u0646 u0020 u0641_u064a u0020 u0627_u0644_u0635_u064a_u063a_u0629 u0020 u061f_u0020", 
        "u0034_u0058_u0033 u0020 u003d u0020 u0031_u0032"
    ]
}