{
    "bounding_box": [
        [
            223, 
            49, 
            273, 
            41
        ], 
        [
            41, 
            130, 
            592, 
            32
        ], 
        [
            111, 
            165, 
            521, 
            31
        ], 
        [
            36, 
            197, 
            597, 
            32
        ], 
        [
            46, 
            232, 
            586, 
            31
        ], 
        [
            48, 
            265, 
            585, 
            32
        ], 
        [
            99, 
            298, 
            533, 
            31
        ], 
        [
            36, 
            334, 
            596, 
            30
        ], 
        [
            323, 
            369, 
            309, 
            28
        ]
    ], 
    "image_height": 540, 
    "image_width": 720, 
    "transcription": [
        "u0627_u0644_u062a_u0639_u062f_u062f u0020 u0627_u0644_u0635_u0648_u0631_u064a", 
        "u0648_u064a_u0631_u0627_u062f u0020 u0628_u0647 u0020 u0627_u0646_u0637_u0628_u0627_u0642 u0020 u0627_u0643_u062b_u0631 u0020 u0645_u0646 u0020 u0646_u0635 u0020 u0642_u0627_u0646_u0648_u0646_u064a u0020 u0639_u0644_u0649 u0020 u0641_u0639_u0644 u0020 u0648_u0627_u062d_u062f u0020 u0627_u064a u0020 u0627_u0646 u0020 u064a_u0648_u0635_u0641_u0020", 
        "u0628_u0627_u0643_u062b_u0631 u0020 u0645_u0646 u0020 u0648_u0635_u0641 u0020 u0642_u0627_u0646_u0648_u0646_u064a u0020 u0648_u0627_u062d_u062f u0020 u002c u0020 u0641_u062a_u0639_u062f_u062f u0020 u0627_u0644_u062c_u0631_u0627_u0626_u0645 u0020 u064a_u0639_u0648_u062f u0020 u0627_u0644_u0649 u0020 u062a_u0639_u062f_u062f_u0020", 
        "u0627_u0644_u0627_u0648_u0635_u0627_u0641 u0020 u0627_u0644_u062a_u064a u0020 u064a_u0635_u0641 u0020 u0628_u0647_u0627 u0020 u0627_u0644_u0642_u0627_u0646_u0648_u0646 u0020 u0647_u0630_u0627 u0020 u0627_u0644_u0641_u0639_u0644 u0020 u0648_u062d_u0627_u0644_u0629 u0020 u0627_u0644_u062a_u0639_u062f_u062f u0020 u0627_u0644_u0635_u0648_u0631_u064a u0020 u0644_u0627_u0020", 
        "u062a_u062b_u064a_u0631 u0020 u062c_u062f_u0644_u0627 u0020 u0644_u0627_u0646 u0020 u0627_u0644_u0645_u062a_u0647_u0645 u0020 u0644_u0645 u0020 u064a_u0631_u062a_u0643_u0628 u0020 u0625_u0644_u0627 u0020 u0641_u0639_u0644_u0627 u0020 u0648_u0627_u062d_u062f_u0627 u0020 u0020_u0648_u0627_u0646 u0020 u0643_u0627_u0646 u0020 u0628_u0627_u0644_u0625_u0645_u0643_u0627_u0646 u0020 u0627_u0646_u0020", 
        "u064a_u0646_u0637_u0628_u0642 u0020 u0639_u0644_u064a_u0647 u0020 u0627_u0643_u062b_u0631 u0020 u0645_u0646 u0020 u0646_u0635 u0020 u0648_u0644_u0643_u0646 u0020 u064a_u0639_u0627_u0642_u0628 u0020 u0644_u0645_u0631_u0629 u0020 u0648_u0627_u062d_u062f_u0629 u0020 u0644_u0630_u0627 u0020 u0646_u062c_u062f u0020 u0627_u0646 u0020 u0627_u063a_u0644_u0628_u0020", 
        "u0627_u0644_u062a_u0634_u0631_u064a_u0639_u0627_u062a u0020 u0627_u062a_u0641_u0642_u062a u0020 u0628_u0623_u0646 u0020 u0627_u0644_u062c_u0627_u0646_u064a u0020 u0644_u0627 u0020 u064a_u0639_u0627_u0642_u0628 u0020 u0625_u0644_u0627 u0020 u0628_u0639_u0642_u0648_u0628_u0629 u0020 u0648_u0627_u062d_u062f_u0629 u0020 u0020_u0648_u0647_u064a_u0020", 
        "u0627_u0644_u0639_u0642_u0648_u0628_u0629 u0020 u0627_u0644_u0627_u0634_u062f u0020 u0645_u0646 u0020 u0628_u064a_u0646 u0020 u0627_u0644_u0639_u0642_u0648_u0628_u0627_u062a u0020 u0627_u0644_u0645_u062a_u0639_u062f_u062f_u0629 u0020 u0648_u0642_u062f u0020 u0627_u0642_u0631 u0020 u0627_u0644_u0645_u0634_u0631_u0639 u0020 u0627_u0644_u0639_u0631_u0627_u0642_u064a u0020 u0647_u0630_u0647_u0020", 
        "u0627_u0644_u0642_u0627_u0639_u062f_u0629 u0020 u0641_u064a u0020 u0627_u0644_u0645_u0627_u062f_u0629 u0020 u0028_u0031_u0034_u0031_u0029 u0020 u0645_u0646 u0020 u0642_u002e_u0639_u002e_u0639"
    ]
}