{
    "bounding_box": [
        [
            250, 
            216, 
            210, 
            67
        ], 
        [
            279, 
            507, 
            151, 
            15
        ]
    ], 
    "image_height": 540, 
    "image_width": 720, 
    "transcription": [
        "u0627_u0644_u0645_u062a_u062d_u0631_u0643", 
        "u062f_u002e u0020 u062a_u063a_u0631_u064a_u062f u0020 u0639_u0628_u062f u0020 u0627_u0644_u0641_u062a_u0627_u062d u0020 u0627_u0644_u0631_u062d_u064a_u0644_u064a"
    ]
}