{
    "bounding_box": [
        [
            161, 
            241, 
            399, 
            42
        ], 
        [
            247, 
            499, 
            213, 
            23
        ]
    ], 
    "image_height": 540, 
    "image_width": 720, 
    "transcription": [
        "u0648_u0642_u0641_u0627_u062a u0020 u0648_u0627_u062d_u0635_u0627_u0626_u064a_u0627_u062a u0020 u0641_u064a u0020 u0627_u0644_u0642_u0631_u0635_u0646_u0629", 
        "u062f_u002e u0020 u062a_u063a_u0631_u064a_u062f u0020 u0639_u0628_u062f u0020 u0627_u0644_u0641_u062a_u0627_u062d u0020 u0627_u0644_u0631_u062d_u064a_u0644_u064a"
    ]
}