{
    "bounding_box": [
        [
            316, 
            30, 
            324, 
            55
        ], 
        [
            58, 
            38, 
            561, 
            27
        ], 
        [
            66, 
            67, 
            552, 
            33
        ], 
        [
            152, 
            105, 
            466, 
            23
        ], 
        [
            66, 
            137, 
            552, 
            26
        ], 
        [
            94, 
            167, 
            524, 
            25
        ], 
        [
            438, 
            197, 
            180, 
            24
        ], 
        [
            70, 
            230, 
            548, 
            26
        ], 
        [
            84, 
            259, 
            534, 
            25
        ], 
        [
            401, 
            289, 
            217, 
            24
        ], 
        [
            65, 
            346, 
            575, 
            2
        ], 
        [
            567, 
            373, 
            73, 
            3
        ], 
        [
            92, 
            386, 
            526, 
            25
        ], 
        [
            88, 
            413, 
            530, 
            25
        ], 
        [
            113, 
            444, 
            506, 
            24
        ], 
        [
            202, 
            471, 
            416, 
            26
        ]
    ], 
    "image_height": 540, 
    "image_width": 720, 
    "transcription": [
        "u062a_u0643_u0648_u064a_u0646 u0020 u0627_u0644_u0634_u062e_u0635_u064a_u0627_u062a u0020 u003a_u002d", 
        "u0646_u0633_u0628_u064a_u0629 u0020 u0627_u0644_u0623_u0646_u0645_u0627_u0637 u0020 u003a u0020 u0646_u0650_u0633_u064e_u0628 u0020 u062a_u0648_u0627_u062c_u062f u0020 u0643_u0644 u0020 u0633_u0650_u0645_u064e_u0629 u0020 u0645_u0646 u0020 u0627_u0644_u0633_u0650_u0645_u064e_u0627_u062a u0020 u0627_u0644_u062b_u0645_u0627_u0646_u064a_u0629 u0020 u0641_u064a u0020 u0627_u0644_u0634_u062e_u0635_u064a_u0629 u0020 u002e_u000d", 
        "u0627_u062e_u062a_u0644_u0627_u0641 u0020 u0627_u0644_u0646_u0645_u0637 u0020 u062d_u0633_u0628 u0020 u0627_u0644_u0628_u064a_u0626_u0629 u0020 u003a u0020 u0641_u0642_u062f u0020 u062a_u062d_u0645_u0644 u0020 u0627_u0644_u0634_u062e_u0635_u064a_u0629 u0020 u0633_u0645_u062a_u064a_u0646 u0020 u0645_u062e_u062a_u0644_u0641_u062a_u064a_u0646 u0020 u0645_u0639_u0627_u064b u0020 u002c_u0020", 
        "u0623_u062d_u062f_u0647_u0645_u0627 u0020 u062a_u0638_u0647_u0631 u0020 u0641_u064a u0020 u0628_u064a_u0626_u0629 u0020 u0645_u0639_u064a_u0646_u0629 u0020 u0648_u0627_u0644_u0623_u062e_u0631_u0649 u0020 u062a_u0638_u0647_u0631 u0020 u0641_u064a u0020 u0628_u064a_u0626_u0629 u0020 u0623_u062e_u0631_u0649 u0020 u002e_u000d", 
        "u062a_u0623_u062b_u064a_u0631 u0020 u0627_u0644_u0628_u064a_u0626_u0629 u0020 u0639_u0644_u0649 u0020 u0638_u0647_u0648_u0631 u0020 u0627_u0644_u0646_u0645_u0637 u0020 u003a u0020 u0627_u0644_u062a_u0631_u0628_u064a_u0629 u0020 u0641_u064a u0020 u0628_u064a_u0626_u0629 u0020 u062a_u0639_u062a_u0645_u062f u0020 u0633_u0645_u0627_u062a u0020 u0645_u062e_u062a_u0644_u0641_u0629 u0020 u0639_u0646_u0020", 
        "u0627_u0644_u0633_u0645_u0629 u0020 u0627_u0644_u0637_u0628_u0639_u064a_u0629 u0020 u0627_u0644_u0623_u0635_u0644_u064a_u0629 u0020 u0641_u064a u0020 u0627_u0644_u0634_u062e_u0635_u064a_u0629 u0020 u002c u0020 u0641_u0625_u0646_u0647_u0627 u0020 u0642_u062f u0020 u062a_u063a_u064a_u0631_u0647_u0627 u0020 u0641_u062a_u062a_u0637_u0628_u0639 u0020 u0628_u0633_u0645_u0629_u0020", 
        "u0627_u0644_u0628_u064a_u0626_u0629 u0020 u0627_u0644_u062a_u064a u0020 u062a_u0631_u0628_u062a u0020 u0641_u064a_u0647_u0627 u0020 u002e_u000d", 
        "u0645_u064a_u0648_u0644 u0020 u0627_u0644_u0645_u0633_u062a_u062c_u0648_u0628 u0020 u003a u0020 u062d_u064f_u0628_u0651 u0020 u0627_u0644_u0634_u062e_u0635_u064a_u0629 u0020 u0644_u0633_u0645_u0629 u0020 u0645_u0639_u064a_u0646_u0629 u0020 u0642_u062f u0020 u064a_u0645_u064a_u0644 u0020 u0625_u0644_u0649 u0020 u0627_u062e_u062a_u064a_u0627_u0631_u0647_u0627 u0020 u0641_u064a_u0020", 
        "u0627_u0644_u0627_u062e_u062a_u0628_u0627_u0631 u0020 u0644_u062a_u0645_u0646_u064a_u0647 u0020 u062a_u0648_u0627_u062c_u062f_u0647_u0627 u0020 u0639_u0646_u062f_u0647 u0020 u0648_u0647_u064a u0020 u0644_u064a_u0633_u062a u0020 u0645_u0646 u0020 u0633_u0645_u0627_u062a_u0647 u0020 u0627_u0644_u0623_u0635_u0644_u064a_u0629 u0020 u002c u0020 u0625_u0646 u0020 u0647_u0630_u0627_u0020", 
        "u064a_u0624_u062b_u0631 u0020 u0641_u064a u0020 u062a_u062d_u062f_u064a_u062f u0020 u0627_u0644_u0634_u062e_u0635_u064a_u0629 u0020 u002e u0020 u000d", 
        "u005f_u005f_u005f_u005f_u005f_u005f_u005f_u005f_u005f_u005f_u005f_u005f_u005f_u005f_u005f_u005f_u005f_u005f_u005f_u005f_u005f_u005f_u005f_u005f_u005f_u005f_u005f_u005f_u005f_u005f_u005f_u005f_u005f_u005f_u005f_u005f_u005f_u005f_u005f_u005f_u005f_u005f_u005f", 
        "u005f_u005f_u005f_u005f_u005f_u000d", 
        "u0645_u0644_u0627_u062d_u0638_u0629 u0020 u0645_u0647_u0645_u0629 u0020 u003a u0020 u0639_u0646_u062f u0020 u062a_u062d_u062f_u064a_u062f u0020 u0627_u0644_u0634_u062e_u0635_u064a_u0629 u0020 u064a_u062c_u0628 u0020 u0639_u062f_u0645 u0020 u0627_u0644_u0627_u0633_u062a_u0639_u062c_u0627_u0644 u0020 u0641_u064a u0020 u062a_u062d_u062f_u064a_u062f_u0020", 
        "u0627_u0644_u0646_u0645_u0637_u002e_u002e u0020 u0648_u0627_u0644_u0627_u0633_u062a_u0639_u0627_u0646_u0629 u0020 u0628_u0627_u0644_u062e_u0628_u0631_u0627_u0621_u002e_u002e u0020 u0648_u0627_u0644_u0627_u0633_u062a_u0641_u0627_u062f_u0629 u0020 u0645_u0646 u0020 u0627_u0644_u0645_u0642_u0631_u0628_u064a_u0646_u060c u0020 u0644_u0623_u0646 u0020 u0623_u0635_u062f_u0642_u0627_u0621_u0646_u0627_u0020", 
        "u0627_u0644_u0645_u0642_u0631_u0628_u064a_u0646 u0020 u002d u0020 u0641_u064a u0020 u0643_u062b_u064a_u0631 u0020 u0645_u0646 u0020 u0627_u0644_u0623_u062d_u064a_u0627_u0646 u0020 u002d u0020 u064a_u0639_u0631_u0641_u0648_u0646 u0020 u0639_u0646_u0627 u0020 u0623_u0643_u062b_u0631 u0020 u0645_u0645_u0627 u0020 u0646_u0639_u0631_u0641 u0020 u0639_u0646_u0020", 
        "u0623_u0646_u0641_u0633_u0646_u0627_u0021 u0020 u0648_u0641_u064a u0020 u0645_u0639_u0646_u0649 u0020 u0627_u0644_u062d_u062f_u064a_u062b u0020 u003a u0020 u00ab u0020 u0627_u0644_u0645_u0624_u0645_u0646 u0020 u0645_u0631_u0622_u0629 u0020 u0623_u062e_u064a_u0647 u0020 u00bb u0020 u002e_u000d"
    ]
}