{
    "bounding_box": [
        [
            407, 
            11, 
            306, 
            30
        ], 
        [
            361, 
            44, 
            351, 
            27
        ], 
        [
            231, 
            72, 
            481, 
            27
        ], 
        [
            519, 
            98, 
            193, 
            37
        ], 
        [
            279, 
            132, 
            432, 
            27
        ], 
        [
            297, 
            160, 
            415, 
            27
        ], 
        [
            189, 
            192, 
            524, 
            37
        ], 
        [
            409, 
            228, 
            303, 
            27
        ], 
        [
            362, 
            251, 
            349, 
            27
        ], 
        [
            160, 
            280, 
            551, 
            37
        ], 
        [
            16, 
            326, 
            697, 
            27
        ], 
        [
            19, 
            360, 
            691, 
            27
        ], 
        [
            591, 
            390, 
            119, 
            26
        ], 
        [
            490, 
            415, 
            225, 
            37
        ], 
        [
            337, 
            461, 
            380, 
            27
        ], 
        [
            177, 
            492, 
            538, 
            27
        ]
    ], 
    "image_height": 540, 
    "image_width": 720, 
    "transcription": [
        "u0034_u002e_u0627_u0645_u0627_u0646_u062a u0020 u062f_u0627_u0631_u06cc u0020 u0648 u0020 u0648_u0641_u0627_u06cc u0020 u0628_u0647 u0020 u0639_u0647_u062f", 
        "u0648_u064e_u0623_u064e_u0648_u0652_u0641_u064f_u0648_u0627 u0020 u0628_u0650_u0627_u0644_u0652_u0639_u064e_u0647_u0652_u062f_u0650 u0020 u0625_u0650_u0646_u0651_u064e u0020 u0627_u0644_u0652_u0639_u064e_u0647_u0652_u062f_u064e u0020 u0643_u064e_u0627_u0646_u064e u0020 u0645_u064e_u0633_u0652_u0626_u064f_u0648_u0644_u064b_u0627_u0028_u0627_u0633_u0631_u0627 u0020 u0033_u0034_u0029", 
        "u0648 u0020 u0628_u0647 u0020 u067e_u064a_u0645_u0627_u0646 u0020 u005b_u062e_u0648_u062f_u005d u0020 u0648_u0641_u0627 u0020 u0643_u0646_u064a_u062f_u060c u0020 u0632_u064a_u0631_u0627 u0020 u0643_u0647 u0020 u0627_u0632 u0020 u067e_u064a_u0645_u0627_u0646 u0020 u067e_u0631_u0633_u0634 u0020 u062e_u0648_u0627_u0647_u062f u0020 u0634_u062f_u002e", 
        "u0035_u002e_u062f_u0639_u0648_u062a u0020 u0628_u0647 u0020 u0648_u062d_u062f_u062a", 
        "u0648_u064e_u0627_u0639_u0652_u062a_u064e_u0635_u0650_u0645_u064f_u0648_u0627 u0020 u0628_u0650_u062d_u064e_u0628_u0652_u0644_u0650 u0020 u0627_u0644_u0644_u0651_u064e_u0640_u0647_u0650 u0020 u062c_u064e_u0645_u0650_u064a_u0639_u064b_u0627 u0020 u0648_u064e_u0644_u064e_u0627 u0020 u062a_u064e_u0641_u064e_u0631_u0651_u064e_u0642_u064f_u0648_u0627_u0028_u0622_u0644 u0020 u0639_u0645_u0631_u0627_u0646 u0020 u0031_u0030_u0033_u0029", 
        "u0648 u0020 u0647_u0645_u06af_u0649 u0020 u0628_u0647 u0020 u0631_u064a_u0633_u0645_u0627_u0646 u0020 u062e_u062f_u0627 u0020 u0686_u0646_u06af u0020 u0632_u0646_u064a_u062f_u060c u0020 u0648 u0020 u067e_u0631_u0627_u0643_u0646_u062f_u0647 u0020 u0646_u0634_u0648_u064a_u062f_u002e_u0020", 
        "u0036_u002e_u0635_u0644_u062d u0020 u0648 u0020 u067e_u0631_u0647_u06cc_u0632 u0020 u0627_u0632 u0020 u062c_u0646_u06af_u0028_u062c_u0632 u0020 u062f_u0631 u0020 u0645_u0648_u0627_u0631_u062f u0020 u0636_u0631_u0648_u0631_u06cc_u0029", 
        "u0648_u064e_u0625_u0650_u0646 u0020 u062c_u064e_u0646_u064e_u062d_u064f_u0648_u0627 u0020 u0644_u0650_u0644_u0633_u0651_u064e_u0644_u0652_u0645_u0650 u0020 u0641_u064e_u0627_u062c_u0652_u0646_u064e_u062d_u0652 u0020 u0644_u064e_u0647_u064e_u0627_u0028_u0627_u0646_u0641_u0627_u0644 u0020 u0036_u0031_u0029_u0020", 
        "u0648 u0020 u0627_u06af_u0631 u0020 u0628_u0647 u0020 u0635_u0644_u062d u0020 u06af_u0631_u0627_u064a_u064a_u062f_u0646_u062f_u060c u0020 u062a_u0648 u0020 u005b_u0646_u064a_u0632_u005d u0020 u0628_u062f_u0627_u0646 u0020 u06af_u0631_u0627_u0649_u002e_u0020", 
        "u0037_u002e_u0633_u0627_u0644_u0645 u0020 u0633_u0627_u0632_u06cc u0020 u0645_u062d_u06cc_u0637 u0020 u0628_u0627 u0020 u0627_u0645_u0631 u0020 u0628_u0647 u0020 u0645_u0639_u0631_u0648_u0641 u0020 u0648 u0020 u0646_u0647_u06cc u0020 u0627_u0632 u0020 u0645_u0646_u06a9_u0631", 
        "u0648_u064e_u0644_u0652_u062a_u064e_u0643_u064f_u0646 u0020 u0645_u0650_u0651_u0646_u0643_u064f_u0645_u0652 u0020 u0623_u064f_u0645_u0651_u064e_u0629_u064c u0020 u064a_u064e_u062f_u0652_u0639_u064f_u0648_u0646_u064e u0020 u0625_u0650_u0644_u064e_u0649 u0020 u0627_u0644_u0652_u062e_u064e_u064a_u0652_u0631_u0650 u0020 u0648_u064e_u064a_u064e_u0623_u0652_u0645_u064f_u0631_u064f_u0648_u0646_u064e u0020 u0628_u0650_u0627_u0644_u0652_u0645_u064e_u0639_u0652_u0631_u064f_u0648_u0641_u0650 u0020 u0648_u064e_u064a_u064e_u0646_u0652_u0647_u064e_u0648_u0652_u0646_u064e u0020 u0639_u064e_u0646_u0650 u0020 u0627_u0644_u0652_u0645_u064f_u0646_u0643_u064e_u0631_u0650_u0028_u0622_u0644 u0020 u0639_u0645_u0631_u0627_u0646 u0020 u0031_u0030_u0034_u0029", 
        "u0648 u0020 u0628_u0627_u064a_u062f u0020 u0627_u0632 u0020 u0645_u064a_u0627_u0646 u0020 u0634_u0645_u0627_u060c u0020 u06af_u0631_u0648_u0647_u0649_u060c u0020 u005b_u0645_u0631_u062f_u0645 u0020 u0631_u0627_u005d u0020 u0628_u0647 u0020 u0646_u064a_u0643_u0649 u0020 u062f_u0639_u0648_u062a u0020 u0643_u0646_u0646_u062f u0020 u0648 u0020 u0628_u0647 u0020 u0643_u0627_u0631 u0020 u0634_u0627_u064a_u0633_u062a_u0647 u0020 u0648_u0627_u062f_u0627_u0631_u0646_u062f u0020 u0648 u0020 u0627_u0632_u0020", 
        "u0632_u0634_u062a_u0649 u0020 u0628_u0627_u0632_u062f_u0627_u0631_u0646_u062f_u002e", 
        "u0038_u002e_u062f_u0641_u0627_u0639 u0020 u0627_u0632 u0020 u062d_u0642_u0648_u0642 u0020 u0632_u0646_u0627_u0646", 
        "u0648_u064e_u0625_u0650_u0630_u064e_u0627 u0020 u0627_u0644_u0652_u0645_u064e_u0648_u0652_u0621_u064f_u0648_u062f_u064e_u0629_u064f u0020 u0633_u064f_u0626_u0650_u0644_u064e_u062a_u0652 u0020 ufd3f_u0668_ufd3e_u0628_u0650_u0623_u064e_u064a_u0650_u0651 u0020 u0630_u064e_u0646_u0628_u064d u0020 u0642_u064f_u062a_u0650_u0644_u064e_u062a_u0652_u0028_u062a_u06a9_u0648_u06cc_u0631 u0020 u0039_u0029", 
        "u067e_u0631_u0633_u0646_u062f u0020 u0686_u0648 u0020 u0632_u0627_u0646 u0020 u062f_u062e_u062a_u0631_u0643 u0020 u0632_u0646_u062f_u0647 u0020 u0628_u0647_u200c_u06af_u0648_u0631_u003a u0020 u0028_u0668_u0029_u0628_u0647 u0020 u0643_u062f_u0627_u0645_u064a_u0646 u0020 u06af_u0646_u0627_u0647 u0020 u0643_u0634_u062a_u0647 u0020 u0634_u062f_u0647 u0020 u0627_u0633_u062a_u061f"
    ]
}