{
    "bounding_box": [
        [
            401, 
            64, 
            271, 
            43
        ], 
        [
            295, 
            139, 
            361, 
            25
        ], 
        [
            381, 
            198, 
            274, 
            24
        ], 
        [
            224, 
            254, 
            431, 
            25
        ], 
        [
            479, 
            316, 
            176, 
            21
        ]
    ], 
    "image_height": 540, 
    "image_width": 720, 
    "transcription": [
        "u0623_u0647_u0645_u064a_u0629 u0020 u062f_u0631_u0627_u0633_u0629 u0020 u0627_u0644_u062a_u0646_u0638_u064a_u0645_u000d", 
        "u062a_u062d_u0642_u064a_u0642 u0020 u0642_u062f_u0631_u0629 u0020 u0639_u0644_u064a u0020 u0627_u0644_u062a_u0639_u0627_u0645_u0644 u0020 u0645_u0639 u0020 u0627_u0644_u0638_u0631_u0648_u0641 u0020 u0627_u0644_u0645_u062e_u062a_u0644_u0641_u0629_u000d", 
        "u062a_u062d_u0642_u064a_u0642 u0020 u0645_u064a_u0632_u0629 u0020 u062a_u0646_u0627_u0641_u0633_u064a_u0629 u0020 u0639_u0627_u0644_u064a_u0629 u0020 u0644_u0644_u0645_u0646_u0638_u0645_u0629_u000d", 
        "u062a_u062d_u0642_u064a_u0642 u0020 u0642_u062f_u0631_u0629 u0020 u0639_u0644_u064a u0020 u0627_u0644_u062a_u0639_u0627_u0645_u0644 u0020 u0645_u0639 u0020 u0627_u0644_u062a_u0646_u0648_u0639 u0020 u0641_u064a u0020 u0627_u0644_u0645_u0648_u0627_u0631_u062f u0020 u0627_u0644_u0628_u0634_u0631_u064a_u0629_u000d", 
        "u062a_u062d_u0642_u064a_u0642 u0020 u0627_u0644_u0625_u0628_u062f_u0627_u0639 u0020 u0648_u0627_u0644_u0627_u0628_u062a_u0643_u0627_u0631"
    ]
}