{
    "bounding_box": [
        [
            201, 
            50, 
            305, 
            36
        ], 
        [
            461, 
            124, 
            188, 
            26
        ], 
        [
            412, 
            167, 
            236, 
            28
        ], 
        [
            374, 
            209, 
            274, 
            30
        ], 
        [
            294, 
            247, 
            355, 
            33
        ], 
        [
            317, 
            289, 
            332, 
            31
        ], 
        [
            423, 
            336, 
            225, 
            30
        ], 
        [
            166, 
            377, 
            482, 
            31
        ], 
        [
            532, 
            419, 
            116, 
            26
        ]
    ], 
    "image_height": 540, 
    "image_width": 720, 
    "transcription": [
        "u0627_u062e_u0637_u0627_u0621 u0020 u0627_u0644_u062a_u0641_u0643_u064a_u0631 u0020 u0627_u0644_u0634_u0627_u0626_u0639_u0629_u0020", 
        "u0031_u002f u0020 u0627_u0628_u064a_u0636 u0020 u0627_u0648 u0020 u0627_u0633_u0648_u062f_u000d", 
        "u0032_u002f u0020 u0627_u0644_u0645_u0642_u0627_u0631_u0646 u0020 u063a_u064a_u0631_u0627_u0644_u0639_u0627_u062f_u0644 u0020 u000d", 
        "u0033_u002f_u0627_u0644_u0630_u064a u0020 u064a_u0628_u0642_u064a u0020 u0639_u0644_u064a u0020 u0627_u0644_u0633_u0644_u0628_u064a_u0627_u062a_u000d", 
        "u0034_u002f_u0627_u0644_u0645_u0634_u062e_u0635 u0020 u0644_u0644_u062e_u0637_u0623 u0020 u0644_u0639_u0628_u0629 u0020 u0644_u0648_u0645 u0020 u0627_u0644_u0630_u0627_u062a u0020 u000d", 
        "u0035_u002f_u0627_u0644_u0642_u0631_u0627_u0621_u0629 u0020 u0627_u0644_u062e_u0637_u0623 u0020 u0644_u0639_u0642_u0648_u0644 u0020 u0627_u0644_u0627_u062e_u0631_u064a_u0646 u0020 u000d", 
        "u0036_u002f_u0627_u0644_u062a_u0633_u0631_u0639 u0020 u0641_u064a u0020 u0627_u0644_u062a_u0639_u0645_u064a_u0645 u0020 u000d", 
        "u0037_u002f u0020 u0627_u0639_u062a_u0645_u0627_u062f u0020 u0627_u0644_u062a_u0641_u0643_u064a_u0631 u0020 u0639_u0644_u064a u0020 u0627_u0644_u0645_u0634_u0627_u0639_u0631 u0020 u0644_u0627_u0639_u0644_u064a u0020 u0627_u0644_u062d_u0642_u0627_u0626_u0642 u0020 u000d", 
        "u0038_u002f u0020 u0627_u0644_u0645_u0628_u0627_u0644_u063a_u0629_u0020"
    ]
}