{
    "bounding_box": [
        [
            159, 
            19, 
            539, 
            28
        ], 
        [
            149, 
            359, 
            549, 
            34
        ]
    ], 
    "image_height": 540, 
    "image_width": 720, 
    "transcription": [
        "u0645_u062b_u0627_u0644_u003a u0020 u0627_u0644_u0645_u0642_u0635_u0651_u002d u0020 u0631_u0627_u0641_u0639_u062a_u0627_u0646 u0020 u0645_u0648_u0635_u0648_u0644_u062a_u0627_u0646 u0020 u0628_u0648_u0627_u0633_u0637_u0629 u0020 u0645_u062d_u0648_u0631_u002e_u000d", 
        "u0645_u062b_u0627_u0644_u0627_u0646_u003a u0020 u0623_u0631_u062c_u0648_u062d_u0629 u0020 u0641_u064a u0020 u0645_u0644_u0639_u0628 u0020 u0648_u0639_u062a_u0644_u0629 u0020 u0644_u0646_u0632_u0639 u0020 u0627_u0644_u0645_u0633_u0627_u0645_u064a_u0631 u0020 u000d"
    ]
}