{
    "bounding_box": [
        [
            14, 
            68, 
            665, 
            30
        ], 
        [
            159, 
            102, 
            530, 
            30
        ], 
        [
            166, 
            134, 
            514, 
            31
        ], 
        [
            262, 
            169, 
            418, 
            30
        ], 
        [
            59, 
            202, 
            621, 
            31
        ], 
        [
            157, 
            236, 
            532, 
            30
        ], 
        [
            239, 
            270, 
            441, 
            30
        ], 
        [
            391, 
            302, 
            289, 
            29
        ], 
        [
            418, 
            341, 
            262, 
            26
        ], 
        [
            220, 
            374, 
            459, 
            24
        ], 
        [
            158, 
            404, 
            522, 
            28
        ], 
        [
            246, 
            14, 
            236, 
            33
        ], 
        [
            670, 
            509, 
            20, 
            13
        ]
    ], 
    "image_height": 540, 
    "image_width": 720, 
    "transcription": [
        "u0020_u062a_u0642_u062f_u064a_u0645 u0020 u0627_u0644_u0645_u0633_u0627_u0639_u062f_u0629 u0020 u0627_u0644_u0641_u0646_u064a_u0629 u0020 u0644_u0641_u0627_u0626_u062f_u0629 u0020 u0623_u0639_u0636_u0627_u0626_u0647 u0020 u0648 u0020 u062e_u0627_u0635_u0629 u0020 u0641_u064a u0020 u0645_u062c_u0627_u0644 u0020 u0627_u0644_u062a_u0635_u0631_u0641 u0020 u0648 u0020 u0627_u0644_u0645_u062d_u0627_u0633_u0628_u0629_u0020", 
        "u0648 u0020 u0627_u0644_u0645_u0627_u0644_u064a_u0629 u0020 u0648 u0020 u0627_u0644_u062a_u0639_u0644_u064a_u0645 u0020 u0648 u0020 u0627_u0644_u062a_u0643_u0648_u064a_u0646 u0020 u0648 u0020 u0639_u0645_u0644_u064a_u0627_u062a u0020 u0627_u0644_u0627_u0646_u062f_u0645_u0627_u062c u0020 u0628_u064a_u0646 u0020 u0623_u0639_u0636_u0627_u0626_u0647_u002e_u000d", 
        "u0020_u0627_u0644_u0645_u0631_u0627_u0642_u0628_u0629 u0020 u0648 u0020 u0627_u0644_u062a_u062f_u0642_u064a_u0642 u0020 u0641_u064a u0020 u0627_u0644_u062d_u0633_u0627_u0628_u0627_u062a u0020 u0648 u0020 u0627_u0644_u0642_u0648_u0627_u0626_u0645 u0020 u0627_u0644_u0645_u0627_u0644_u064a_u0629 u0020 u0644_u0623_u0639_u0636_u0627_u0626_u0647_u002e_u000d", 
        "u0020_u062a_u0645_u062b_u064a_u0644 u0020 u0623_u0639_u0636_u0627_u0626_u0647 u0020 u0639_u0644_u0649 u0020 u0627_u0644_u0645_u0633_u062a_u0648_u0649 u0020 u0627_u0644_u0648_u0637_u0646_u064a u0020 u0648 u0020 u0627_u0644_u062f_u0648_u0644_u064a_u002e_u000d", 
        "u0020_u062a_u0646_u0638_u064a_u0645 u0020 u0627_u0644_u062a_u0636_u0627_u0645_u0646 u0020 u0627_u0644_u0645_u0627_u0644_u064a u0020 u0628_u064a_u0646 u0020 u0623_u0639_u0636_u0627_u0626_u0647 u0020 u0641_u064a u0020 u062d_u0627_u0644 u0020 u0641_u0634_u0644 u0020 u0648_u0627_u062d_u062f u0020 u0623_u0648 u0020 u0623_u0643_u062b_u0631 u0020 u0645_u0646_u0647_u0645 u0020 u0645_u0639_u0020", 
        "u0636_u0645_u0627_u0646 u0020 u0627_u0644_u062d_u0641_u0627_u0638 u0020 u0639_u0644_u0649 u0020 u0627_u0644_u0627_u0633_u062a_u0642_u0631_u0627_u0631 u0020 u0627_u0644_u0645_u0627_u0644_u064a u0020 u0627_u0644_u0639_u0627_u0645 u0020 u0644_u0644_u0627_u062a_u062d_u0627_u062f u0020 u0648 u0020 u0623_u0639_u0636_u0627_u0626_u0647_u002e_u000d", 
        "u0020_u062a_u0648_u0638_u064a_u0641 u0020 u0627_u0644_u0633_u064a_u0648_u0644_u0629 u0020 u0644_u062f_u0649 u0020 u0627_u0644_u0642_u0637_u0627_u0639 u0020 u0627_u0644_u0645_u0627_u0644_u064a u0020 u0644_u0641_u0627_u0626_u062f_u0629 u0020 u0623_u0639_u0636_u0627_u0626_u0647_u002e_u000d", 
        "u0020_u0625_u062f_u0627_u0631_u0629 u0020 u0627_u0644_u0645_u0648_u0627_u0631_u062f u0020 u0627_u0644_u0628_u0634_u0631_u064a_u0629 u0020 u0644_u0623_u0639_u0636_u0627_u0626_u0647_u002e_u000d", 
        "u0020_u0625_u0639_u062f_u0627_u062f u0020 u0627_u0644_u0642_u0648_u0627_u0626_u0645 u0020 u0627_u0644_u0645_u0627_u0644_u064a_u0629 u0020 u0627_u0644_u0645_u062c_u0645_u0639_u0629_u002e_u000d", 
        "u0020_u0636_u0628_u0637 u0020 u0625_u0633_u062a_u0631_u0627_u062a_u064a_u062c_u064a_u0629 u0020 u062a_u062c_u0627_u0631_u064a_u0629 u0020 u0648 u0020 u0627_u0642_u062a_u0635_u0627_u062f_u064a_u0629 u0020 u0634_u0627_u0645_u0644_u0629 u0020 u0644_u0644_u0627_u062a_u062d_u0627_u062f_u002e_u000d", 
        "u0020_u0627_u0644_u0633_u0647_u0631 u0020 u0639_u0644_u0649 u0020 u062a_u0648_u0627_u0632_u0646 u0020 u0647_u064a_u0643_u0644_u062a_u0647 u0020 u0627_u0644_u0645_u0627_u0644_u064a_u0629 u0020 u0648 u0020 u0627_u0644_u0647_u064a_u0643_u0644_u0629 u0020 u0627_u0644_u0645_u0627_u0644_u064a_u0629 u0020 u0644_u0623_u0639_u0636_u0627_u0626_u0647_u002e_u000d", 
        "u0635_u0644_u0627_u062d_u064a_u0627_u062a u0020 u0627_u0644_u0627_u062a_u062d_u0627_u062f u0020 u003a", 
        "u0033_u0036"
    ]
}