{
    "bounding_box": [
        [
            190, 
            215, 
            334, 
            38
        ]
    ], 
    "image_height": 540, 
    "image_width": 720, 
    "transcription": [
        "u0627_u0644_u0627_u0644_u062a_u0632_u0627_u0645_u0627_u062a u0020 u0627_u0644_u0637_u0627_u0631_u0626_u0629_u000d"
    ]
}