{
    "bounding_box": [
        [
            369, 
            11, 
            196, 
            35
        ], 
        [
            15, 
            69, 
            914, 
            25
        ], 
        [
            551, 
            96, 
            386, 
            26
        ], 
        [
            317, 
            125, 
            612, 
            25
        ], 
        [
            332, 
            154, 
            596, 
            26
        ], 
        [
            15, 
            182, 
            914, 
            27
        ], 
        [
            15, 
            211, 
            923, 
            27
        ], 
        [
            827, 
            240, 
            110, 
            26
        ], 
        [
            391, 
            268, 
            538, 
            27
        ], 
        [
            485, 
            297, 
            444, 
            27
        ], 
        [
            168, 
            326, 
            761, 
            27
        ], 
        [
            313, 
            355, 
            616, 
            27
        ], 
        [
            605, 
            383, 
            324, 
            27
        ], 
        [
            15, 
            412, 
            896, 
            27
        ], 
        [
            15, 
            442, 
            923, 
            26
        ], 
        [
            15, 
            470, 
            923, 
            27
        ], 
        [
            575, 
            499, 
            362, 
            27
        ]
    ], 
    "image_height": 540, 
    "image_width": 960, 
    "transcription": [
        "u0645_u0643_u0627_u0633_u0628 u0020 u0627_u0644_u0645_u0634_u0631_u0648_u0639", 
        "u062a_u0648_u0644_u064a_u062f_u00a0_u0637_u0627_u0642_u0629 u0020 u0643_u0647_u0631_u0628_u0627_u0626_u064a_u0629_u00a0_u0646_u0638_u064a_u0641_u0629_u060c u0020 u062a_u0635_u0644 u0020 u0625_u0644_u064a u0020 u0032_u0035_u0030_u0030_u00a0_u0643_u064a_u0644_u0648_u0648_u0627_u062a_u002f_u0633_u0627_u0639_u0629_u060c u0020 u062a_u0648_u0641_u0631 u0020 u0031_u0035_u0030_u0030 u0020 u0645_u0644_u064a_u0648_u0646 u0020 u062f_u0648_u0644_u0627_u0631 u0020 u0639_u0644_u0649 u0020 u0627_u0644_u062e_u0632_u0627_u0646_u0629 u0020 u0627_u0644_u0645_u0635_u0631_u064a_u0629 u0020 u0633_u0646_u0648_u064a_u0627_u0020", 
        "u0648_u062a_u0632_u064a_u062f u0020 u0645_u0646 u0020 u0641_u0631_u0635 u0020 u0627_u0644_u0627_u0633_u062a_u062b_u0645_u0627_u0631 u0020 u0627_u0644_u0635_u0646_u0627_u0639_u064a u0020 u0641_u064a u0020 u0627_u0644_u0645_u0646_u0637_u0642_u0629 u0020 u002e_u000d", 
        "u0020_u064a_u0645_u0643_u0646 u0020 u0632_u064a_u0627_u062f_u0629 u0020 u0643_u0645_u064a_u0629 u0020 u0627_u0644_u0643_u0647_u0631_u0628_u0627_u0621 u0020 u0627_u0644_u0645_u062a_u0648_u0644_u062f_u0629 u0020 u0639_u0646 u0020 u0637_u0631_u064a_u0642 u0020 u062c_u0639_u0644 u0020 u0627_u0644_u0642_u0646_u0627_u0629 u0020 u0623_u0643_u062b_u0631 u0020 u0627_u0646_u062d_u062f_u0627_u0631_u0627_u064b u0020 u0644_u0644_u062c_u0646_u0648_u0628_u002e_u000d", 
        "u064a_u0645_u0643_u0646 u0020 u0627_u0633_u062a_u062e_u062f_u0627_u0645 u0020 u0627_u0644_u0645_u0637_u0631 u0020 u0627_u0644_u0646_u0627_u062a_u062c u0020 u0639_u0646 u0020 u0627_u0644_u0628_u062e_u0631 u0020 u0641_u064a u0020 u0632_u0631_u0627_u0639_u0629 u0020 u0645_u0644_u0627_u064a_u064a_u0646 u0020 u0627_u0644_u0623_u0641_u062f_u0646_u0629 u0020 u0641_u064a u0020 u0627_u0644_u0635_u062d_u0631_u0627_u0621_u002e_u000d", 
        "u0020_u0627_u0633_u062a_u062e_u062f_u0627_u0645 u0020 u062c_u0632_u0621 u0020 u0645_u0646 u0020 u0627_u0644_u0643_u0647_u0631_u0628_u0627_u0621 u0020 u0627_u0644_u0645_u062a_u0648_u0644_u062f_u0629 u0020 u0641_u064a u0020 u0633_u062d_u0628 u0020 u0627_u0644_u0645_u064a_u0627_u0629 u0020 u0645_u0646 u0020 u0627_u0644_u0645_u0646_u062e_u0641_u0636 u0020 u0648_u062a_u0646_u0642_u064a_u062a_u0647_u0627 u0020 u0645_u0645_u0627 u0020 u064a_u062c_u0639_u0644 u0020 u0645_u0635_u0631 u0020 u0623_u0643_u0628_u0631 u0020 u062f_u0648_u0644_u0629 u0020 u0641_u064a u0020 u0627_u0644_u0639_u0627_u0644_u0645 u0020 u0627_u0646_u062a_u0627_u062c_u0627_u064b_u0020", 
        "u0644_u0644_u0623_u0645_u0644_u0627_u062d u0020 u0648_u064a_u062a_u064a_u062d u0020 u0627_u0633_u062a_u0635_u0644_u0627_u062d u0020 u0643_u0645_u064a_u0629 u0020 u0623_u0643_u0628_u0631 u0020 u0645_u0646 u0020 u0627_u0644_u0627_u0631_u0627_u0636_u064a u0020 u0643_u0645_u0627 u0020 u064a_u062a_u064a_u062d u0020 u062a_u0639_u0648_u064a_u0636 u0020 u0646_u0642_u0635 u0020 u0627_u0644_u0645_u064a_u0627_u0647 u0020 u0627_u0644_u0639_u0630_u0628_u0629 u0020 u0648_u064a_u062c_u0646_u0628 u0020 u0645_u0635_u0631 u0020 u0627_u0644_u0645_u0634_u0627_u0643_u0644 u0020 u0645_u0639 u0020 u062f_u0648_u0644_u0020", 
        "u062d_u0648_u0636 u0020 u0627_u0644_u0646_u064a_u0644 u0020 u002e_u000d", 
        "u0645_u0633_u0627_u0647_u0645_u0629 u0020 u0627_u0644_u0628_u062d_u064a_u0631_u0629 u0020 u0627_u0644_u0635_u0646_u0627_u0639_u064a_u0629 u0020 u0641_u064a u0020 u0625_u0646_u062a_u0627_u062c u0020 u0643_u0645_u064a_u0627_u062a u0020 u0647_u0627_u0626_u0644_u0629 u0020 u0645_u0646 u0020 u0627_u0644_u0645_u0644_u062d u0020 u0648_u0627_u0644_u0623_u0633_u0645_u0627_u0643_u002e_u000d", 
        "u0627_u0646_u0634_u0627_u0621 u0020 u0645_u064a_u0646_u0627_u0621 u0020 u0628_u062d_u0631_u064a u0020 u064a_u062e_u0641_u0641 u0020 u0627_u0644_u0636_u063a_u0637 u0020 u0639_u0644_u064a_u00a0_u0645_u064a_u0646_u0627_u0621 u0020 u0627_u0644_u0627_u0633_u0643_u0646_u062f_u0631_u064a_u0629 u0020 u002e_u000d", 
        "u0627_u0646_u0634_u0627_u0621 u0020 u0645_u0634_u0631_u0648_u0639_u0627_u062a u0020 u0633_u064a_u0627_u062d_u064a_u0629 u0020 u062e_u0635_u0648_u0635_u0627_u064b u0020 u0628_u0627_u0644_u0642_u0631_u0628 u0020 u0645_u0646 u0020 u0645_u0648_u0642_u0639 u0020 u0627_u0644_u0633_u062f u0020 u0627_u0644_u0630_u064a u0020 u0633_u064a_u0643_u0648_u0646 u0020 u0623_u0643_u0628_u0631 u0020 u0633_u062f u0020 u0628_u0646_u062a_u0647 u0020 u0627_u0644_u064a_u062f u0020 u0627_u0644_u0628_u0634_u0631_u064a_u0629 u0020 u002e_u000d", 
        "u062a_u0633_u0643_u064a_u0646 u0020 u0645_u0644_u0627_u064a_u064a_u0646 u0020 u0627_u0644_u0645_u0635_u0631_u064a_u064a_u0646 u0020 u0627_u0644_u0642_u0627_u062f_u0645_u064a_u0646 u0020 u0645_u0646_u00a0_u0648_u0627_u062f_u0649 u0020 u0627_u0644_u0646_u064a_u0644 u0020 u0627_u0644_u0636_u064a_u0642 u0020 u0648_u062e_u0644_u0642 u0020 u0641_u0631_u0635 u0020 u0639_u0645_u0644 u0020 u0644_u0647_u0645_u002e_u000d", 
        "u062a_u0642_u0644_u064a_u0644 u0020 u0622_u062b_u0627_u0631 u0020 u0627_u0644_u0627_u062d_u062a_u0628_u0627_u0633 u0020 u0627_u0644_u062d_u0631_u0627_u0631_u064a u0020 u0639_u0644_u0649 u0020 u0645_u0635_u0631 u0020 u002e_u000d", 
        "u062a_u062a_u0648_u0641_u0631 u0020 u0645_u0624_u0634_u0631_u0627_u062a u0020 u0642_u0648_u064a_u0629 u0020 u0639_u0644_u0649 u0020 u0648_u062c_u0648_u062f u0020 u0625_u062d_u062a_u064a_u0627_u0637_u0649 u0020 u0628_u062a_u0631_u0648_u0644_u0649 u0020 u0636_u062e_u0645 u0020 u062a_u062d_u062a u0020 u0623_u0631_u0636_u064a_u0629 u0020 u0627_u0644_u0645_u0646_u062e_u0641_u0636 u0020 u0627_u0644_u062a_u0649 u0020 u062a_u0628_u0644_u063a u0020 u0645_u0633_u0627_u062d_u062a_u0647_u0627 u0020 u0035_u0038_u0030_u0030 u0020 u0643_u064a_u0644_u0648_u0645_u062a_u0631_u0020", 
        "u0645_u0631_u0628_u0639 u0020 u060c u0020 u0648_u064a_u0635_u0639_u0628 u0020 u0627_u0644_u0625_u0633_u062a_u0641_u0627_u062f_u0629 u0020 u0645_u0646_u0647 u0020 u062d_u0627_u0644_u064a_u0627 u0020 u0644_u0625_u0633_u062a_u062d_u0627_u0644_u0629 u0020 u062a_u062d_u0631_u064a_u0643 u0020 u0623_u0648 u0020 u0648_u0636_u0639 u0020 u062d_u0641_u0627_u0631_u0627_u062a u0020 u0623_u0648 u0020 u0625_u0646_u0634_u0627_u0621 u0020 u0645_u0646_u0634_u0622_u062a u0020 u0639_u0644_u0649 u0020 u0623_u0631_u0636_u064a_u0629 u0020 u0627_u0644_u0645_u0646_u062e_u0641_u0636 u0020 u0627_u0644_u0645_u0643_u0648_u0646_u0629_u0020", 
        "u0645_u0646 u0020 u0627_u0644_u0633_u0628_u062e_u0629 u0020 u0028_u062e_u0644_u064a_u0637 u0020 u0645_u0646 u0020 u0627_u0644_u0631_u0645_u0627_u0644 u0020 u0648_u0627_u0644_u0623_u0645_u0644_u0627_u062d u0020 u0648_u0627_u0644_u0645_u064a_u0627_u0647_u0029 u0020 u060c u0020 u0641_u0625_u0630_u0627 u0020 u0627_u0645_u062a_u0644_u0623 u0020 u0627_u0644_u0645_u0646_u062e_u0641_u0636 u0020 u0628_u0645_u064a_u0627_u0647 u0020 u0627_u0644_u0628_u062d_u0631 u0020 u0648_u0623_u0635_u0628_u062d u0020 u0628_u062d_u064a_u0631_u0629 u0020 u060c u0020 u0633_u0647_u064f_u0644 u0020 u0627_u0633_u062a_u063a_u0644_u0627_u0644 u0020 u0647_u0630_u0627_u0020", 
        "u0627_u0644_u0625_u062d_u062a_u064a_u0627_u0637_u0649 u0020 u0628_u0627_u0644_u062d_u0641_u0627_u0631_u0627_u062a u0020 u0627_u0644_u0628_u062d_u0631_u064a_u0629_u00a0_u006f_u0066_u0066_u002d_u0073_u0068_u006f_u0072_u0065 u0020 u002e_u002e_u002e_u002e"
    ]
}