{
    "bounding_box": [
        [
            262, 
            45, 
            193, 
            24
        ], 
        [
            505, 
            127, 
            158, 
            28
        ], 
        [
            567, 
            172, 
            97, 
            22
        ], 
        [
            558, 
            212, 
            105, 
            21
        ], 
        [
            485, 
            248, 
            178, 
            24
        ], 
        [
            467, 
            283, 
            197, 
            27
        ], 
        [
            565, 
            323, 
            99, 
            26
        ], 
        [
            605, 
            365, 
            58, 
            23
        ], 
        [
            620, 
            403, 
            44, 
            24
        ]
    ], 
    "image_height": 540, 
    "image_width": 720, 
    "transcription": [
        "u0627_u062c_u0632_u0627_u06cc u0020 u0627_u0635_u0644_u06cc u0020 u062f_u0644_u0641_u06cc", 
        "u062a_u06a9_u0631_u0627_u0631 u0020 u06cc_u0627 u0020 u0628_u0627_u0632_u06af_u0648_u06cc_u06cc_u000d", 
        "u067e_u0631_u0633_u0634_u200c_u0646_u0627_u0645_u0647_u000d", 
        "u0645_u062a_u062e_u0635_u0635_u064a_u0646_u000d", 
        "u0628_u0627_u0632_u062e_u0648_u0631_u062f u0020 u0643_u0646_u062a_u0631_u0644 u0020 u0634_u062f_u0647_u000d", 
        "u06af_u0645_u0646_u0627_u0645_u06cc u0020 u0634_u0631_u06a9_u062a_u200c_u06a9_u0646_u0646_u062f_u06af_u0627_u0646_u000d", 
        "u0622_u0646_u0627_u0644_u064a_u0632 u0020 u0646_u062a_u0627_u064a_u062c_u000d", 
        "u0627_u062c_u0645_u0627_u0639_u000d", 
        "u0632_u0645_u0627_u0646"
    ]
}