{
    "bounding_box": [
        [
            180, 
            94, 
            479, 
            25
        ], 
        [
            81, 
            125, 
            589, 
            33
        ], 
        [
            50, 
            160, 
            628, 
            26
        ], 
        [
            87, 
            231, 
            573, 
            28
        ], 
        [
            326, 
            260, 
            344, 
            25
        ], 
        [
            232, 
            293, 
            397, 
            30
        ], 
        [
            153, 
            331, 
            476, 
            24
        ], 
        [
            100, 
            361, 
            529, 
            25
        ], 
        [
            58, 
            393, 
            571, 
            29
        ], 
        [
            543, 
            423, 
            86, 
            24
        ], 
        [
            271, 
            454, 
            358, 
            30
        ], 
        [
            129, 
            21, 
            461, 
            34
        ]
    ], 
    "image_height": 540, 
    "image_width": 720, 
    "transcription": [
        "u0020_u062f_u0631_u0627_u0633_u0629 u0020 u0633_u0644_u0648_u0643 u0020 u0627_u0644_u0645_u0633_u062a_u0647_u0644_u0643 u0020 u0641_u064a u0020 u0627_u0644_u0627_u0633_u0648_u0627_u0642 u0020 u0627_u0644_u0627_u0644_u0643_u062a_u0631_u0648_u0646_u064a_u0629_u003a_u000d", 
        "u0646_u0638_u0631_u0627_u064b u0020 u0644_u0623_u0646 u0020 u0627_u0633_u062a_u0642_u0637_u0627_u0628 u0020 u0627_u0644_u0632_u0628_u0627_u0626_u0646 u0020 u0648_u0627_u0644_u0645_u062d_u0627_u0641_u0638_u0629 u0020 u0639_u0644_u064a_u0647_u0645 u0020 u0647_u0645_u0627 u0020 u0639_u0627_u0645_u0644_u0627 u0020 u0646_u062c_u0627_u062d_u0020", 
        "u0644_u062c_u0645_u064a_u0639 u0020 u0634_u0631_u0643_u0627_u062a u0020 u0627_u0644_u0627_u0639_u0645_u0627_u0644_u002c u0020 u0641_u0645_u0646 u0020 u0627_u0644_u0636_u0631_u0648_u0631_u064a u0020 u0641_u0647_u0645 u0020 u0633_u0644_u0648_u0643_u0647_u0645 u0020 u0627_u062b_u0646_u0627_u0621 u0020 u0627_u0627_u0644_u062a_u0633_u0648_u0642_u000d", 
        "u062a_u0631_u0643_u0632 u0020 u0645_u0639_u0638_u0645 u0020 u0627_u0644_u0646_u0645_u0627_u0630_u062c u0020 u0627_u0644_u0645_u0633_u062a_u062e_u062f_u0645_u0629 u0020 u0644_u062f_u0631_u0627_u0633_u0629 u0020 u0633_u0644_u0648_u0643 u0020 u0627_u0644_u0645_u0633_u062a_u0647_u0644_u0643_u064a_u0646 u0020 u0641_u064a_u0020", 
        "u0645_u062c_u0645_u0648_u0639_u062a_u064a_u0646 u0020 u0627_u0633_u0627_u0633_u064a_u062a_u064a_u0646 u0020 u0645_u0646 u0020 u0627_u0644_u0645_u062a_u063a_u064a_u0631_u0627_u062a_u003a_u000d", 
        "u0627_u0644_u0645_u062a_u063a_u064a_u0631_u0627_u062a u0020 u0627_u0644_u0645_u0633_u062a_u0642_u0644_u0629 u0020 u003a u0020 u0644_u0627 u0020 u064a_u0645_u0643_u0646 u0020 u0627_u0644_u062a_u062d_u0643_u0645 u0020 u0628_u0647_u0627 u0020 u000d", 
        "u0627_u0644_u062e_u0635_u0627_u0626_u0635 u0020 u0627_u0644_u0634_u062e_u0635_u064a_u0629 u0020 u0644_u0644_u0645_u0633_u062a_u0647_u0644_u0643 u0020 u0028_u0627_u0644_u0639_u0645_u0631_u002c u0020 u0627_u0644_u062c_u0646_u0633_u002c u0020 u0627_u0644_u0645_u0633_u062a_u0648_u0649_u0029_u000d", 
        "u0627_u0644_u0645_u062a_u063a_u064a_u0631_u0627_u062a u0020 u0627_u0644_u0628_u064a_u0626_u064a_u0629 u0020 u0028 u0020 u0627_u0644_u0627_u062c_u062a_u0645_u0627_u0639_u064a_u0629 u0020 u002c u0020 u0627_u0644_u062b_u0642_u0627_u0641_u064a_u0629 u0020 u002c u0020 u0627_u0644_u062a_u0634_u0631_u064a_u0639_u0627_u062a u0020 u002c u0020 u0627_u0644_u0642_u0648_u0627_u0646_u064a_u0646 u0020 u0029_u000d", 
        "u0627_u0644_u0645_u062a_u063a_u064a_u0631_u0627_u062a u0020 u0627_u0644_u062a_u064a u0020 u064a_u0645_u0643_u0646 u0020 u0644_u0644_u0628_u0627_u0626_u0639 u0020 u0627_u0644_u062a_u062d_u0643_u0645 u0020 u0628_u0647_u0627 u0020 u003a u0020 u0028_u0627_u0644_u0633_u0639_u0631 u0020 u002c u0020 u0627_u0644_u0627_u0639_u0644_u0627_u0646 u0020 u002c_u0020", 
        "u0627_u0644_u062c_u0648_u062f_u0629 u0020 u0029_u000d", 
        "u0627_u0644_u0645_u062a_u063a_u064a_u0631_u0627_u062a u0020 u0627_u0644_u062a_u0627_u0628_u0639_u0629 u0020 u003a u0020 u062a_u062a_u0645_u062b_u0644 u0020 u0642_u0631_u0627_u0631 u0020 u0627_u0644_u0634_u0631_u0627_u0621", 
        "u0639_u0645_u0644_u064a_u0629 u0020 u0627_u062a_u062e_u0627_u0630 u0020 u0642_u0631_u0627_u0631 u0020 u0634_u0631_u0627_u0621 u0020 u0641_u064a u0020 u0627_u0644_u0633_u0648_u0642 u0020 u0627_u0644_u0627_u0644_u0643_u062a_u0631_u0648_u0646_u064a"
    ]
}