{
    "bounding_box": [
        [
            294, 
            26, 
            131, 
            46
        ], 
        [
            39, 
            133, 
            400, 
            42
        ], 
        [
            41, 
            176, 
            412, 
            47
        ], 
        [
            117, 
            229, 
            336, 
            42
        ], 
        [
            114, 
            276, 
            325, 
            43
        ], 
        [
            88, 
            324, 
            365, 
            43
        ], 
        [
            236, 
            372, 
            217, 
            38
        ], 
        [
            90, 
            427, 
            363, 
            29
        ]
    ], 
    "image_height": 540, 
    "image_width": 720, 
    "transcription": [
        "u0633_u0624_u0627_u0644_u061f_u061f", 
        "u0648_u0644_u0643_u0646 u0020 u0643_u064a_u0641 u0020 u0623_u0633_u062a_u0637_u064a_u0639 u0020 u0623_u0646 u0020 u0623_u0633_u062a_u0631_u062c_u0639_u0020", 
        "u0645_u0644_u0641_u0627_u062a_u064a u0020 u0627_u0644_u0645_u062d_u0630_u0648_u0641_u0629 u0020 u063a_u064a_u0631 u0020 u0627_u0644_u0645_u0648_u062c_u0648_u062f_u0629_u0020", 
        "u0641_u064a u0020 u0627_u0644 u0020 u0052_u0065_u0063_u0079_u0063_u006c_u0065 u0020 u0042_u0069_u006e_u061f_u000d", 
        "u0643_u064a_u0641 u0020 u0623_u0633_u062a_u0637_u064a_u0639 u0020 u0623_u0646 u0020 u0623_u0633_u062a_u0631_u062c_u0639_u0020", 
        "u0645_u0644_u0641_u0627_u062a_u064a u0020 u0627_u0644_u0645_u062d_u0630_u0648_u0641_u0629 u0020 u0645_u0646 u0020 u0648_u0633_u0627_u0626_u0637_u0020", 
        "u0627_u0644_u062a_u062e_u0632_u064a_u0646 u0020 u0627_u0644_u0645_u062a_u0646_u0642_u0644_u0629_u0020", 
        "u0052_u0065_u006d_u006f_u0076_u0061_u0062_u006c_u0065 u0020 u004d_u0065_u0064_u0069_u0061_u061f_u000d"
    ]
}