{
    "bounding_box": [
        [
            25, 
            142, 
            647, 
            22
        ], 
        [
            143, 
            180, 
            529, 
            22
        ], 
        [
            25, 
            223, 
            647, 
            23
        ], 
        [
            25, 
            262, 
            647, 
            22
        ], 
        [
            25, 
            300, 
            647, 
            22
        ], 
        [
            25, 
            337, 
            647, 
            22
        ], 
        [
            610, 
            374, 
            62, 
            18
        ], 
        [
            25, 
            417, 
            647, 
            23
        ], 
        [
            25, 
            456, 
            647, 
            22
        ], 
        [
            372, 
            494, 
            299, 
            22
        ], 
        [
            276, 
            74, 
            436, 
            28
        ], 
        [
            137, 
            23, 
            569, 
            38
        ]
    ], 
    "image_height": 540, 
    "image_width": 720, 
    "transcription": [
        "u064a_u062c_u0628 u0020 u0639_u0644_u0649 u0020 u0627_u0644_u0645_u062f_u0642_u0642 u0020 u0644_u0641_u0647_u0645 u0020 u0627_u0644_u0645_u0646_u0634_u0623_u0629 u0020 u0623_u0646 u0020 u064a_u0646_u0638_u0631 u0020 u0645_u0627 u0020 u0625_u0630_u0627 u0020 u0643_u0627_u0646_u062a u0020 u0647_u0646_u0627_u0644_u0643 u0020 u0623_u062d_u062f_u0627_u062b u0020 u0623_u0648 u0020 u0627_u062d_u0648_u0627_u0644 u0020 u0648_u0645_u0627 u0020 u064a_u062a_u0639_u0644_u0642 u0020 u0628_u0647_u0627 u0020 u0645_u0646_u0020", 
        "u0645_u062e_u0627_u0637_u0631 u0020 u0627_u0644_u0639_u0645_u0644 u0020 u0627_u0644_u062a_u064a u0020 u0642_u062f u0020 u062a_u0644_u0642_u064a u0020 u0628_u0627_u0644_u0643_u062b_u064a_u0631 u0020 u0645_u0646 u0020 u0627_u0644_u0634_u0643 u0020 u0639_u0644_u0649 u0020 u0642_u062f_u0631_u0629 u0020 u0627_u0644_u0645_u0646_u0634_u0623_u0629 u0020 u0639_u0644_u0649 u0020 u0627_u0644_u0627_u0633_u062a_u0645_u0631_u0627_u0631_u002e_u000d", 
        "u0627_u0644_u062a_u0646_u0628_u0647 u0020 u0625_u0644_u0649 u0020 u0623_u062f_u0644_u0629 u0020 u0627_u0644_u062a_u062f_u0642_u064a_u0642 u0020 u0639_u0644_u0649 u0020 u0648_u062c_u0648_u062f u0020 u0627_u0644_u0623_u062d_u062f_u0627_u062b u0020 u0627_u0648 u0020 u0627_u0644_u0623_u062d_u0648_u0627_u0644 u0020 u0648_u0645_u0627 u0020 u064a_u062a_u0639_u0644_u0642 u0020 u0628_u0647_u0627 u0020 u0645_u0646 u0020 u0645_u062e_u0627_u0637_u0631 u0020 u0627_u0644_u0639_u0645_u0644 u0020 u0627_u0644_u062a_u064a u0020 u0642_u062f_u0020", 
        "u062a_u0644_u0642_u064a u0020 u0628_u0627_u0644_u0643_u062b_u064a_u0631 u0020 u0645_u0646 u0020 u0627_u0644_u0634_u0643 u0020 u0639_u0644_u0649 u0020 u0642_u062f_u0631_u0629 u0020 u0627_u0644_u0645_u0646_u0634_u0623_u0629 u0020 u0639_u0644_u0649 u0020 u0627_u0644_u0627_u0633_u062a_u0645_u0631_u0627_u0631 u0020 u0637_u0648_u0627_u0644 u0020 u0641_u062a_u0631_u0629 u0020 u0627_u0644_u062a_u062f_u0642_u064a_u0642_u002e u0020 u0648_u0625_u0630_u0627 u0020 u062a_u0645 u0020 u0645_u0644_u0627_u062d_u0638_u0629_u0020", 
        "u0645_u062b_u0644 u0020 u0647_u0630_u0647 u0020 u0627_u0644_u0623_u062d_u062f_u0627_u062b u0020 u0623_u0648 u0020 u0627_u0644_u0623_u062d_u0648_u0627_u0644 u0020 u0641_u064a_u062c_u0628 u0020 u0639_u0644_u0649 u0020 u0627_u0644_u0645_u062f_u0642_u0642 u0020 u0623_u0646 u0020 u064a_u0642_u0648_u0645 u0020 u0628_u0627_u0644_u0645_u0632_u064a_u062f u0020 u0645_u0646 u0020 u0625_u062c_u0631_u0627_u0621_u0627_u062a u0020 u0627_u0644_u062a_u062f_u0642_u064a_u0642 u0020 u0627_u0644_u062a_u064a_u0020", 
        "u0633_u0646_u062a_u0646_u0627_u0648_u0644_u0647_u0627 u0020 u0641_u064a_u0645_u0627 u0020 u064a_u0644_u064a u0020 u0648_u0627_u0646 u0020 u064a_u0646_u0638_u0631 u0020 u0641_u064a_u0645_u0627 u0020 u0625_u0630_u0627 u0020 u0643_u0627_u0646_u062a u0020 u062a_u0624_u062b_u0631 u0020 u0639_u0644_u0649 u0020 u062a_u0642_u062f_u064a_u0631 u0020 u0627_u0644_u0645_u062f_u0642_u0642 u0020 u0644_u0645_u062e_u0627_u0637_u0631 u0020 u0627_u0644_u0628_u064a_u0627_u0646_u0627_u062a u0020 u0627_u0644_u062c_u0648_u0647_u0631_u064a_u0629_u0020", 
        "u0627_u0644_u062e_u0627_u0637_u0626_u0629_u002e_u000d", 
        "u0627_u0644_u0646_u0638_u0631 u0020 u0641_u064a u0020 u0627_u0644_u0623_u062d_u062f_u0627_u062b u0020 u0648_u0627_u0644_u0623_u062d_u0648_u0627_u0644 u0020 u0627_u0644_u0645_u062a_u0639_u0644_u0642_u0629 u0020 u0628_u0627_u0641_u062a_u0631_u0627_u0636_u0627_u062a u0020 u0627_u0633_u062a_u0645_u0631_u0627_u0631_u064a_u0629 u0020 u0627_u0644_u0645_u0646_u0634_u0623_u0629 u0020 u0639_u0646_u062f u0020 u0627_u0644_u0642_u064a_u0627_u0645 u0020 u0628_u0625_u062c_u0631_u0627_u0621_u0627_u062a u0020 u062a_u0642_u062f_u064a_u0631_u0020", 
        "u0627_u0644_u0645_u062e_u0627_u0637_u0631_u060c u0020 u0641_u0630_u0644_u0643 u0020 u064a_u062a_u064a_u062d u0020 u0645_u0646_u0627_u0642_u0634_u0629 u0020 u0627_u0644_u0625_u062f_u0627_u0631_u0629 u0020 u0641_u064a u0020 u0627_u0644_u0623_u0648_u0642_u0627_u062a u0020 u0627_u0644_u0645_u0646_u0627_u0633_u0628_u0629 u0020 u0020_u0648_u0645_u0631_u0627_u062c_u0639_u0629 u0020 u062e_u0637_u0637 u0020 u0627_u0644_u0627_u062f_u0627_u0631_u0629 u0020 u0648_u0642_u0631_u0627_u0631_u0647_u0627_u0020", 
        "u0628_u062e_u0635_u0648_u0635 u0020 u0623_u064a u0020 u0642_u0636_u064a_u0629 u0020 u0645_u0646 u0020 u0642_u0636_u0627_u064a_u0627 u0020 u0627_u0633_u062a_u0645_u0631_u0627_u0631_u064a_u062a_u0647_u0627_u002e_u000d", 
        "u0627_u0644_u062a_u062e_u0637_u064a_u0637 u0020 u0644_u0644_u062a_u062f_u0642_u064a_u0642 u0020 u0648_u0627_u0644_u0642_u064a_u0627_u0645 u0020 u0628_u0625_u062c_u0631_u0627_u0621_u0627_u062a u0020 u062a_u0642_u062f_u064a_u0631 u0020 u0627_u0644_u0645_u062e_u0627_u0637_u0631", 
        "u0628_u0631_u0646_u0627_u0645_u062c u0020 u062a_u062f_u0642_u064a_u0642 u0020 u0641_u062d_u0635 u0020 u0627_u0644_u062a_u062d_u0645_u0644 u0020 u2013 u0020 u0627_u0633_u062a_u0645_u0631_u0627_u0631_u064a_u0629 u0020 u0627_u0644_u0645_u0646_u0634_u0623_u0629"
    ]
}