{
    "bounding_box": [
        [
            43, 
            37, 
            285, 
            29
        ], 
        [
            64, 
            114, 
            587, 
            30
        ], 
        [
            42, 
            159, 
            608, 
            27
        ], 
        [
            581, 
            193, 
            69, 
            28
        ]
    ], 
    "image_height": 540, 
    "image_width": 720, 
    "transcription": [
        "u0648_u0643_u0627_u0644_u0629 u0020 u0627_u0644_u062a_u0648_u0638_u064a_u0641 u0020 u0627_u0644_u062e_u0635_u0648_u0635_u064a_u0629_u000b", 
        "u062c_u0645_u064a_u0639 u0020 u0623_u0633_u0648_u0627_u0642 u0020 u0627_u0644_u0634_u063a_u0644_u003a u0020 u0645_u062d_u0644_u064a_u060c u0020 u062c_u0647_u0648_u064a_u060c u0020 u0648_u0637_u0646_u064a u0020 u0028_u062d_u0633_u0628 u0020 u062d_u062c_u0645 u0020 u0627_u0644_u0648_u0643_u0627_u0644_u0629_u0029_u000d", 
        "u0627_u0644_u0627_u064a_u062c_u0627_u0628_u064a_u0627_u062a_u003a u0020 u062a_u0641_u0648_u064a_u0636 u0020 u0645_u0633_u0624_u0648_u0644_u064a_u0629 u0020 u0627_u0644_u062a_u0648_u0638_u064a_u0641 u0020 u0644_u062c_u0647_u0629 u0020 u0645_u062a_u062e_u0635_u0635_u0629 u0020 u0028_u062e_u0628_u064a_u0631_u0629 u0020 u0641_u064a_u0020", 
        "u0627_u0644_u0645_u062c_u0627_u0644_u0029"
    ]
}