{
    "bounding_box": [
        [
            222, 
            112, 
            416, 
            33
        ], 
        [
            55, 
            182, 
            597, 
            28
        ], 
        [
            55, 
            216, 
            597, 
            28
        ], 
        [
            55, 
            248, 
            597, 
            29
        ], 
        [
            102, 
            282, 
            550, 
            29
        ]
    ], 
    "image_height": 540, 
    "image_width": 720, 
    "transcription": [
        "u0020_u0641_u0631_u0645 u0020 u062f_u0631_u062e_u0648_u0627_u0633_u062a u0020 u06af_u0634_u0627_u064a_u0634 u0020 u0627_u0639_u062a_u0628_u0627_u0631 u0020 u0627_u0633_u0646_u0627_u062f_u064a u0020 u003a", 
        "u0627_u064a_u0646 u0020 u0641_u0631_u0645 u0020 u0627_u0632 u0020 u0637_u0631_u0641 u0020 u0628_u0627_u0646_u0643 u0020 u0628_u0647 u0020 u0627_u0634_u062e_u0627_u0635_u064a u0020 u0643_u0647 u0020 u0627_u0632 u0020 u0637_u0631_u064a_u0642 u0020 u0627_u0641_u062a_u062a_u0627_u062d u0020 u0627_u0639_u062a_u0628_u0627_u0631_u0020", 
        "u0627_u0633_u0646_u0627_u062f_u064a u0020 u0645_u0628_u0627_u062f_u0631_u062a u0020 u0628_u0647 u0020 u0648_u0631_u0648_u062f u0020 u0643_u0627_u0644_u0627 u0020 u0645_u064a_u0643_u0646_u0646_u062f_u062f_u0627_u062f_u0647 u0020 u0645_u064a_u0634_u0648_u062f u0020 u062a_u0627 u0020 u0628_u0627 u0020 u062a_u0643_u0645_u064a_u0644 u0020 u0622_u0646_u0020", 
        "u0634_u0631_u0627_u064a_u0637 u0020 u0627_u0646_u062c_u0627_u0645 u0020 u0645_u0639_u0627_u0645_u0644_u0647 u0020 u0631_u0627 u0020 u0628_u0631_u0627_u064a u0020 u0628_u0627_u0646_u0643 u0020 u0645_u0634_u062e_u0635 u0020 u0646_u0645_u0648_u062f_u0647 u0020 u0648 u0020 u0628_u0648_u064a_u0698_u0647 u0020 u0627_u0633_u0646_u0627_u062f_u0020", 
        "u0645_u0648_u0631_u062f u0020 u062f_u0631_u062e_u0648_u0627_u0633_u062a u0020 u062e_u0648_u062f u0020 u0631_u0627 u0020 u0628_u0631_u0627_u064a u0020 u0627_u0628_u0644_u0627_u063a u0020 u0628_u0647 u0020 u0641_u0631_u0648_u0634_u0646_u062f_u0647 u0020 u0627_u0639_u0644_u0627_u0645 u0020 u0646_u0645_u0627_u064a_u0646_u062f_u002e"
    ]
}