{
    "bounding_box": [
        [
            74, 
            684, 
            395, 
            13
        ], 
        [
            497, 
            664, 
            7, 
            9
        ], 
        [
            109, 
            34, 
            300, 
            33
        ], 
        [
            40, 
            106, 
            442, 
            14
        ], 
        [
            42, 
            121, 
            415, 
            14
        ], 
        [
            37, 
            137, 
            424, 
            14
        ], 
        [
            70, 
            153, 
            358, 
            13
        ], 
        [
            81, 
            183, 
            335, 
            18
        ], 
        [
            121, 
            202, 
            257, 
            14
        ], 
        [
            104, 
            217, 
            290, 
            18
        ], 
        [
            29, 
            238, 
            439, 
            13
        ], 
        [
            171, 
            252, 
            155, 
            14
        ], 
        [
            110, 
            267, 
            274, 
            17
        ], 
        [
            28, 
            287, 
            442, 
            13
        ], 
        [
            89, 
            302, 
            321, 
            14
        ], 
        [
            96, 
            317, 
            305, 
            17
        ], 
        [
            29, 
            337, 
            440, 
            14
        ], 
        [
            112, 
            352, 
            275, 
            14
        ], 
        [
            28, 
            383, 
            442, 
            13
        ], 
        [
            43, 
            398, 
            412, 
            14
        ], 
        [
            27, 
            413, 
            444, 
            14
        ], 
        [
            63, 
            429, 
            372, 
            14
        ], 
        [
            38, 
            459, 
            422, 
            14
        ], 
        [
            38, 
            475, 
            423, 
            14
        ], 
        [
            89, 
            490, 
            320, 
            14
        ], 
        [
            29, 
            521, 
            441, 
            14
        ], 
        [
            140, 
            536, 
            218, 
            14
        ], 
        [
            25, 
            613, 
            489, 
            10
        ], 
        [
            25, 
            627, 
            321, 
            11
        ]
    ], 
    "image_height": 720, 
    "image_width": 540, 
    "transcription": [
        "u0645_u0641_u0627_u062c_u0622_u062a u0020 u0635_u064a_u0641 u0020 u062f_u0628_u064a u0020 u0032_u0030_u0030_u0035 u0020 u0020 u0020 u0020 u0020 u0627_u0644_u0630_u0643_u0627_u0621 u0020 u0627_u0644_u0648_u062c_u062f_u0627_u0646_u064a u0020 u003a u0020 u201d_u0645_u0648_u0639_u062f u0020 u0645_u0639 u0020 u0627_u0644_u0642_u0645_u0629 u0020 u201c u0020 u0020 u0020 u0020 u0020 u0020_u062f_u002e_u0645_u0635_u0637_u0641_u0649 u0020 u0623_u0628_u0648_u0633_u0639_u062f", 
        "u0037", 
        "u0627_u0644_u0645_u0642_u0627_u064a_u064a_u0633 u0020 u0627_u0644_u0645_u062e_u062a_u0644_u0641_u0629 u0020 u0644_u0644_u0639_u0645_u0631 u0020 u003a", 
        "u062d_u064a_u0646 u0020 u0646_u0633_u0623_u0644 u0020 u0634_u062e_u0635_u0627_u064b u0020 u0645_u0627_u003a u0020 u0645_u0627 u0020 u0639_u0645_u0631_u0643 u0020 u061f u0020 u064a_u062c_u064a_u0628_u0646_u0627 u0020 u0639_u0644_u0649 u0020 u0627_u0644_u0641_u0648_u0631_u003a u0020 u062e_u0645_u0633_u0648_u0646 u0020 u0633_u0646_u0629 u0020 u0028_u0645_u062b_u0644_u0627_u064b_u0029_u002e u0020 u0647_u0630_u0647 u0020 u0627_u0644_u0625_u062c_u0627_u0628_u0629_u0020", 
        "u0642_u0627_u0635_u0631_u0629 u0020 u062c_u062f_u0627_u064b u0020 u0644_u0623_u0646_u0647 u0020 u0647_u0646_u0627 u0020 u0630_u0643_u0631 u0020 u0639_u0645_u0631_u0647 u0020 u0627_u0644_u0632_u0645_u0646_u064a u0020 u0641_u0642_u0637_u060c u0020 u0648_u0647_u0630_u0627 u0020 u0627_u0644_u0639_u0645_u0631 u0020 u0627_u0644_u0632_u0645_u0646_u064a u0020 u0644_u0627 u0020 u064a_u0641_u064a_u062f_u0646_u0627 u0020 u0643_u062b_u064a_u0631_u0627_u064b u0020 u0641_u064a_u0020", 
        "u0645_u0639_u0631_u0641_u0629 u0020 u0623_u0628_u0639_u0627_u062f u0020 u0634_u062e_u0635_u064a_u0629 u0020 u0645_u0646 u0020 u0633_u0623_u0644_u0646_u0627_u0647 u0020 u0644_u0623_u0646 u0020 u0647_u0646_u0627_u0643 u0020 u0645_u0642_u0627_u064a_u064a_u0633 u0020 u0648_u0623_u0628_u0639_u0627_u062f u0020 u0623_u062e_u0631_u0649 u0020 u0644_u0644_u0639_u0645_u0631 u0020 u0028_u0623_u062d_u064a_u0627_u0646_u0627_u064b u0020 u062a_u0643_u0648_u0646_u0020", 
        "u0645_u0646_u0633_u062c_u0645_u0629 u0020 u0645_u0639 u0020 u0627_u0644_u0639_u0645_u0631 u0020 u0627_u0644_u0632_u0645_u0646_u064a u0020 u0648_u0623_u062d_u064a_u0627_u0646_u0627_u064b u0020 u0623_u062e_u0631_u0649 u0020 u0644_u0627 u0020 u062a_u0646_u0633_u062c_u0645_u0029_u060c u0020 u0646_u0630_u0643_u0631_u0647_u0627 u0020 u0641_u064a_u0645_u0627 u0020 u064a_u0644_u064a_u003a_u000b", 
        "u0031_u002d u0020 u0627_u0644_u0639_u0645_u0631 u0020 u0627_u0644_u0632_u0645_u0646_u064a u0020 u0028 u0020 u0043_u0068_u006f_u0072_u006f_u006e_u006f_u006c_u006f_u0067_u0069_u0063_u0061_u006c u0020 u0061_u0067_u0065 u0020 u0029 u0020 u003a_u000b", 
        "u0647_u0648 u0020 u0639_u062f_u062f u0020 u0627_u0644_u0633_u0646_u0648_u0627_u062a u0020 u0627_u0644_u062a_u064a u0020 u0639_u0627_u0634_u0647_u0627 u0020 u0627_u0644_u0625_u0646_u0633_u0627_u0646 u0020 u0641_u064a u0020 u0627_u0644_u062d_u064a_u0627_u0629 u0020 u002e_u000b", 
        "u0032_u002d u0020 u0627_u0644_u0639_u0645_u0631 u0020 u0627_u0644_u0639_u0642_u0644_u064a u0020 u0028 u0020 u0049_u006e_u0074_u0065_u006c_u006c_u0065_u0063_u0074_u0075_u0061_u006c u0020 u0061_u0067_u0065 u0020 u0029 u0020 u003a_u000b", 
        "u0648_u0647_u0648 u0020 u064a_u0634_u064a_u0631 u0020 u0625_u0644_u0649 u0020 u0645_u0627 u0020 u0625_u0630_u0627 u0020 u0643_u0627_u0646 u0020 u0630_u0643_u0627_u0621 u0020 u0647_u0630_u0627 u0020 u0627_u0644_u0634_u062e_u0635 u0020 u0623_u0642_u0644 u0020 u0623_u0648 u0020 u0623_u0643_u062b_u0631 u0020 u0623_u0648 u0020 u0645_u0633_u0627_u0648_u064a u0020 u0644_u0639_u0645_u0631_u0647 u0020 u0627_u0644_u0632_u0645_u0646_u064a u0020 u0028_u0623_u064a_u0020", 
        "u0627_u0644_u0630_u0643_u0627_u0621 u0020 u0628_u0627_u0644_u0646_u0633_u0628_u0629 u0020 u0644_u0644_u0639_u0645_u0631 u0020 u0627_u0644_u0632_u0645_u0646_u064a_u0029_u002e_u000b", 
        "u0033_u002d u0020 u0627_u0644_u0639_u0645_u0631 u0020 u0627_u0644_u0627_u062c_u062a_u0645_u0627_u0639_u064a u0020 u0028 u0020 u0053_u006f_u0063_u0069_u0061_u006c u0020 u0061_u0067_u0065 u0020 u0029 u0020 u003a u0020 u000b", 
        "u0648_u0647_u0648 u0020 u064a_u0642_u0627_u0631_u0646 u0020 u0627_u0644_u0646_u0645_u0648 u0020 u0627_u0644_u0627_u062c_u062a_u0645_u0627_u0639_u064a u0020 u0644_u0644_u0634_u062e_u0635 u0020 u0628_u0639_u0645_u0631_u0647 u0020 u0627_u0644_u0632_u0645_u0646_u064a_u060c u0020 u0628_u0645_u0639_u0646_u0649_u003a u0020 u0022_u0647_u0644 u0020 u0647_u0630_u0627 u0020 u0627_u0644_u0634_u062e_u0635 u0020 u064a_u062a_u0639_u0627_u0645_u0644_u0020", 
        "u0645_u0639 u0020 u0627_u0644_u0646_u0627_u0633 u0020 u0627_u062c_u062a_u0645_u0627_u0639_u064a_u0627_u064b u0020 u0643_u0645_u0627 u0020 u064a_u062a_u0648_u0642_u0639 u0020 u0644_u0645_u0646 u0020 u0647_u0645 u0020 u0641_u064a u0020 u0645_u062b_u0644 u0020 u0639_u0645_u0631_u0647 u0020 u0627_u0644_u0632_u0645_u0646_u064a_u061f_u0022_u000b", 
        "u0034_u002d u0020 u0627_u0644_u0639_u0645_u0631 u0020 u0627_u0644_u0648_u062c_u062f_u0627_u0646_u064a u0020 u0028 u0020 u0045_u006d_u006f_u0074_u0069_u006f_u006e_u0061_u006c u0020 u0061_u0067_u0065 u0020 u0029 u0020 u003a u0020 u000b", 
        "u0648_u0647_u0648 u0020 u064a_u0642_u0627_u0631_u0646 u0020 u0627_u0644_u0646_u0636_u062c u0020 u0627_u0644_u0648_u062c_u062f_u0627_u0646_u064a u0020 u0644_u0644_u0634_u062e_u0635 u0020 u0628_u0639_u0645_u0631_u0647 u0020 u0627_u0644_u0639_u0642_u0644_u064a_u060c u0020 u0628_u0645_u0639_u0646_u0649_u003a u0020 u0022_u0647_u0644 u0020 u0647_u0630_u0627 u0020 u0627_u0644_u0634_u062e_u0635 u0020 u064a_u062a_u0639_u0627_u0645_u0644_u0020", 
        "u0645_u0639 u0020 u0645_u0634_u0627_u0639_u0631_u0647 u0020 u0643_u0645_u0627 u0020 u064a_u0641_u0639_u0644 u0020 u0645_u0646 u0020 u0647_u0645 u0020 u0641_u064a u0020 u0645_u062b_u0644 u0020 u0639_u0645_u0631_u0647 u0020 u0627_u0644_u0632_u0645_u0646_u064a_u061f_u0022_u000b", 
        "u0648_u0647_u0630_u0647 u0020 u0627_u0644_u0623_u0646_u0648_u0627_u0639 u0020 u0627_u0644_u0645_u062e_u062a_u0644_u0641_u0629 u0020 u0645_u0646 u0020 u0627_u0644_u0623_u0639_u0645_u0627_u0631 u0020 u0644_u0627 u0020 u062a_u0633_u064a_u0631 u0020 u0645_u062a_u0648_u0627_u0632_u064a_u0629 u0020 u0648_u0645_u062a_u0633_u0627_u0648_u064a_u0629 u0020 u0641_u064a u0020 u0623_u063a_u0644_u0628 u0020 u0627_u0644_u0623_u062d_u0648_u0627_u0644_u060c u0020 u0641_u0646_u062c_u062f_u0020", 
        "u0628_u0639_u0636_u0647_u0627 u0020 u064a_u0633_u0628_u0642 u0020 u0627_u0644_u0622_u062e_u0631_u060c u0020 u0648_u0643_u0644_u0645_u0627 u0020 u0643_u0627_u0646_u062a u0020 u0627_u0644_u0645_u0633_u0627_u0641_u0629 u0020 u0643_u0628_u064a_u0631_u0629 u0020 u0628_u064a_u0646_u0647_u0627 u0020 u0643_u0644_u0645_u0627 u0020 u0623_u062f_u0649 u0020 u0630_u0644_u0643 u0020 u0625_u0644_u0649 u0020 u0627_u0636_u0637_u0631_u0627_u0628_u0020", 
        "u0627_u0644_u062a_u0648_u0627_u0641_u0642 u0020 u0641_u0646_u062c_u062f u0020 u0645_u062b_u0644_u0627_u064b u0020 u0631_u062c_u0644_u0627_u064b u0020 u0642_u062f u0020 u0628_u0644_u063a u0020 u0627_u0644_u0633_u062a_u064a_u0646 u0020 u0645_u0646 u0020 u0627_u0644_u0639_u0645_u0631 u0020 u0648_u0644_u0643_u0646 u0020 u0639_u0644_u0627_u0642_u0627_u062a_u0647 u0020 u0627_u0644_u0627_u062c_u062a_u0645_u0627_u0639_u064a_u0629 u0020 u062a_u0634_u0628_u0647 u0020 u0625_u0644_u0649 u0020 u062d_u062f_u0020", 
        "u0643_u0628_u064a_u0631 u0020 u0639_u0644_u0627_u0642_u0627_u062a u0020 u0627_u0644_u0645_u0631_u0627_u0647_u0642_u064a_u0646_u060c u0020 u0643_u0645_u0627 u0020 u0623_u0646 u0020 u0646_u0636_u062c_u0647 u0020 u0627_u0644_u0648_u062c_u062f_u0627_u0646_u064a u0020 u0644_u0627 u0020 u064a_u062a_u0639_u062f_u0649 u0020 u0646_u0636_u062c u0020 u0627_u0644_u0623_u0637_u0641_u0627_u0644_u002e_u000b", 
        "u0648_u0646_u062d_u0646 u0020 u0644_u064a_u0633_u062a u0020 u0644_u0646_u0627 u0020 u0633_u064a_u0637_u0631_u0629 u0020 u0623_u0648 u0020 u062a_u062d_u0643_u0645 u0020 u0641_u064a u0020 u0639_u0645_u0631_u0646_u0627 u0020 u0627_u0644_u0632_u0645_u0646_u064a_u060c u0020 u0648_u0628_u0627_u0644_u0643_u0627_u062f u0020 u0644_u0646_u0627 u0020 u0633_u064a_u0637_u0631_u0629 u0020 u0636_u0639_u064a_u0641_u0629 u0020 u0639_u0644_u0649_u0020", 
        "u0639_u0645_u0631_u0646_u0627 u0020 u0627_u0644_u0639_u0642_u0644_u064a_u060c u0020 u0623_u0645_u0627 u0020 u0639_u0645_u0631_u0646_u0627 u0020 u0627_u0644_u0627_u062c_u062a_u0645_u0627_u0639_u064a u0020 u0648_u0639_u0645_u0631_u0646_u0627 u0020 u0627_u0644_u0648_u062c_u062f_u0627_u0646_u064a u0020 u0641_u064a_u0645_u0643_u0646_u0646_u0627 u0020 u062a_u0646_u0645_u064a_u062a_u0647_u0645_u0627 u0020 u0648_u062a_u062d_u0633_u064a_u0646_u0647_u0645_u0627_u0020", 
        "u0628_u062f_u0631_u062c_u0629 u0020 u0643_u0628_u064a_u0631_u0629 u0020 u0648_u0635_u0648_u0644_u0627_u064b u0020 u0625_u0644_u0649 u0020 u0627_u0644_u0646_u0636_u062c u0020 u0627_u0644_u0627_u062c_u062a_u0645_u0627_u0639_u064a u0020 u0648_u0627_u0644_u0646_u0636_u062c u0020 u0627_u0644_u0648_u062c_u062f_u0627_u0646_u064a_u002e_u000b", 
        "u0648_u0644_u0643_u064a u0020 u0646_u0641_u0647_u0645 u0020 u0623_u0646_u0641_u0633_u0646_u0627 u0020 u0623_u0643_u062b_u0631 u0020 u0648_u0646_u0639_u0631_u0641 u0020 u0623_u064a_u0646 u0020 u0646_u062d_u0646 u0020 u0645_u0646 u0020 u0645_u0631_u0627_u062d_u0644 u0020 u0627_u0644_u0646_u0636_u062c u0020 u0627_u0644_u0648_u062c_u062f_u0627_u0646_u064a u0020 u0641_u0633_u0648_u0641 u0020 u0646_u0633_u062a_u0639_u0631_u0636_u0020", 
        "u062e_u0635_u0627_u0626_u0635 u0020 u062a_u0623_u062e_u0631 u0020 u0627_u0644_u0646_u0636_u062c u0020 u062b_u0645 u0020 u062e_u0635_u0627_u0626_u0635 u0020 u0627_u0644_u0646_u0636_u062c_u0020", 
        "u002d u0020 u004a_u0065_u0072_u006f_u006d_u0065 u0020 u004d_u0075_u0072_u0072_u0061_u0079 u0020 u0028_u0032_u0030_u0030_u0034_u0029 u0020 u002e u0020 u0041_u0072_u0065 u0020 u0079_u006f_u0075 u0020 u0067_u0072_u006f_u0077_u0069_u006e_u0067 u0020 u0075_u0070 u0020 u006f_u0072 u0020 u006a_u0075_u0073_u0074 u0020 u0067_u0065_u0074_u0074_u0069_u006e_u0067 u0020 u006f_u006c_u0064_u0065_u0072_u003f_u002e u0020 u0041_u006e u0020 u0069_u006e_u0074_u0065_u0072_u006e_u0065_u0074 u0020 u0061_u0072_u0074_u0069_u0063_u006c_u0065_u0020", 
        "u0075_u006e_u0064_u0065_u0072 u0020 u0074_u0068_u0065 u0020 u0074_u0069_u0074_u006c_u0065_u0022 u0020 u0045_u006d_u006f_u0074_u0069_u006f_u006e_u0061_u006c u0020 u004d_u0061_u0074_u0075_u0072_u0069_u0074_u0079_u0022 u0020 u0077_u0069_u0074_u0068 u0020 u006d_u006f_u0064_u0069_u0066_u0069_u0063_u0061_u0074_u0069_u006f_u006e_u0073 u0020 u002e_u0020"
    ]
}