{
    "bounding_box": [
        [
            166, 
            149, 
            403, 
            52
        ]
    ], 
    "image_height": 540, 
    "image_width": 720, 
    "transcription": [
        "u0647_u064a_u0627 u0020 u0628_u0646_u0627 u0020 u0625_u0644_u0649 u0020 u0643_u062a_u0627_u0628 u0020 u0627_u0644_u0646_u0634_u0627_u0637"
    ]
}