{
    "bounding_box": [
        [
            140, 
            95, 
            514, 
            45
        ], 
        [
            129, 
            186, 
            539, 
            33
        ], 
        [
            133, 
            226, 
            521, 
            33
        ], 
        [
            256, 
            269, 
            285, 
            33
        ]
    ], 
    "image_height": 540, 
    "image_width": 720, 
    "transcription": [
        "u0026 u0020 u0648_u0638_u064a_u0641_u0629 u0020 u0627_u0644_u0646_u0638_u0631_u064a_u0629 u0020 u0641_u0649 u0020 u0627_u0644_u0646_u0638_u0627_u0645 u0020 u0627_u0644_u062a_u0631_u0628_u0648_u064a_u0020", 
        "u0625_u0646_u0628_u062b_u0627_u0642_u0627 u0020 u0639_u0646 u0020 u0645_u0641_u0647_u0648_u0645 u0020 u0627_u0644_u0646_u0638_u0631_u064a_u0629 u0020 u0648_u0645_u0627 u0020 u064a_u0645_u0643_u0646 u0020 u0623_u0646 u0020 u062a_u0642_u062f_u0645_u0647 u0020 u0644_u0644_u0646_u0638_u0627_u0645_u0020", 
        "u0627_u0644_u062a_u0631_u0628_u0648_u064a u0020 u0641_u0625_u0646 u0020 u0623_u0649 u0020 u0645_u0648_u0642_u0641 u0020 u0625_u062f_u0627_u0631_u064a u0020 u0644_u0627_u0628_u062f u0020 u0623_u0646 u0020 u064a_u0634_u062a_u0645_u0644 u0020 u0639_u0644_u064a u0020 u000d", 
        "u062b_u0644_u0627_u062b_u0629 u0020 u0645_u0643_u0648_u0646_u0627_u062a u0020 u0631_u0626_u064a_u0633_u064a_u0629 u0020 u0647_u0649 u0020 u003a_u0020"
    ]
}