{
    "bounding_box": [
        [
            55, 
            12, 
            596, 
            41
        ], 
        [
            207, 
            55, 
            305, 
            37
        ], 
        [
            357, 
            156, 
            324, 
            49
        ], 
        [
            23, 
            246, 
            658, 
            58
        ], 
        [
            23, 
            338, 
            631, 
            51
        ], 
        [
            239, 
            416, 
            415, 
            57
        ]
    ], 
    "image_height": 540, 
    "image_width": 720, 
    "transcription": [
        "u0627_u0647_u062f_u0627_u0641 u0020 u0627_u0637_u0644_u0627_u0639 u0020 u0631_u0633_u0627_u0646_u06cc u0020 u0648 u0020 u062a_u0628_u0644_u06cc_u063a_u0627_u062a u0020 u0628_u0633_u062a_u06af_u06cc u0020 u0628_u0647_u0020", 
        "u0648_u0638_u0627_u06cc_u0641 u0020 u0633_u0627_u0632_u0645_u0627_u0646 u0020 u062f_u0627_u0631_u062f_u003a", 
        "u0633_u0627_u0632_u0645_u0627_u0646 u0020 u0639_u0645_u0648_u0645_u06cc u0020 u003a_u000d", 
        "u0628_u0627_u0644_u0627 u0020 u0628_u0631_u062f_u0646 u0020 u0633_u0637_u062d u0020 u0632_u0646_u062f_u06af_u06cc u0020 u0627_u0641_u0631_u0627_u062f u0020 u06cc_u06a9_u0020", 
        "u062c_u0627_u0645_u0639_u0647 u0020 u0028_u06a9_u0627_u0631_u06cc u0020 u06a9_u0647 u0020 u0633_u0627_u0632_u0645_u0627_u0646 u0020 u0648 u0020 u0627_u062f_u0627_u0631_u0627_u062a_u0020", 
        "u062f_u0648_u0644_u062a_u06cc u0020 u0645_u062a_u0648_u0644_u06cc u0020 u0622_u0646 u0020 u0647_u0633_u062a_u0646_u062f_u0029"
    ]
}