{
    "bounding_box": [
        [
            18, 
            29, 
            447, 
            21
        ], 
        [
            350, 
            53, 
            114, 
            19
        ], 
        [
            19, 
            77, 
            445, 
            20
        ], 
        [
            11, 
            101, 
            454, 
            21
        ], 
        [
            52, 
            125, 
            412, 
            20
        ], 
        [
            10, 
            149, 
            454, 
            21
        ], 
        [
            5, 
            173, 
            459, 
            21
        ], 
        [
            46, 
            197, 
            418, 
            22
        ], 
        [
            29, 
            221, 
            435, 
            20
        ], 
        [
            75, 
            245, 
            389, 
            21
        ], 
        [
            122, 
            294, 
            343, 
            20
        ], 
        [
            27, 
            389, 
            437, 
            22
        ], 
        [
            39, 
            413, 
            425, 
            21
        ], 
        [
            49, 
            437, 
            415, 
            22
        ], 
        [
            31, 
            461, 
            433, 
            22
        ], 
        [
            58, 
            485, 
            406, 
            22
        ], 
        [
            400, 
            512, 
            64, 
            19
        ], 
        [
            152, 
            533, 
            312, 
            22
        ], 
        [
            57, 
            557, 
            407, 
            22
        ], 
        [
            13, 
            581, 
            451, 
            22
        ], 
        [
            17, 
            605, 
            448, 
            21
        ], 
        [
            138, 
            629, 
            327, 
            22
        ]
    ], 
    "image_height": 720, 
    "image_width": 540, 
    "transcription": [
        "u0623_u0635_u0628_u062d_u062a u0020 u0627_u0644_u0645_u0627_u062f_u0629 u0020 u0627_u0644_u0639_u0636_u0648_u064a_u0647 u0020 u062a_u0639_u0631_u0641 u0020 u0639_u0644_u0649 u0020 u0623_u0633_u0627_u0633 u0020 u062a_u0631_u0643_u064a_u0628_u0647_u0627 u0020 u0627_u0644_u0628_u0646_u0627_u0626_u0649_u00a0_u0648_u0644_u064a_u0633 u0020 u0639_u0644_u0649_u0020", 
        "u0623_u0633_u0627_u0633 u0020 u0645_u0635_u062f_u0631_u0647_u0627_u00a0_u002e_u000b", 
        "u0648_u0627_u0644_u0645_u0631_u0643_u0628_u0627_u062a u0020 u0627_u0644_u0639_u0636_u0648_u064a_u0647 u0020 u0623_u0643_u062b_u0631 u0020 u0628_u0643_u062b_u064a_u0631 u0020 u0645_u0646_u00a0_u0627_u0644_u0645_u0631_u0643_u0628_u0627_u062a u0020 u0627_u0644_u063a_u064a_u0631 u0020 u0639_u0636_u0648_u064a_u0629 u0020 u062d_u064a_u062b u0020 u064a_u0635_u0644_u0020", 
        "u0639_u062f_u062f u0020 u0627_u0644_u0645_u0631_u0643_u0628_u0627_u062a u0020 u0627_u0644_u0639_u0636_u0648_u064a_u0629 u0020 u0625_u0644_u0649 u0020 u0623_u0643_u062b_u0631 u0020 u0645_u0646 u0020 u0031_u0030 u0020 u0645_u0644_u0627_u064a_u064a_u0646 u0020 u0645_u0631_u0643_u0628 u0020 u0641_u0649_u00a0_u062d_u064a_u0646 u0020 u0646_u062c_u062f u0020 u0623_u0646_u0020", 
        "u0639_u062f_u062f u0020 u0627_u0644_u0645_u0631_u0643_u0628_u0627_u062a u0020 u0627_u0644_u063a_u064a_u0631_u0639_u0636_u0648_u064a_u0629 u0020 u0644_u0627_u064a_u0632_u064a_u062f u0020 u0639_u0646 u0020 u0646_u0635_u0641 u0020 u0645_u0644_u064a_u0648_u0646 u0020 u0645_u0631_u0643_u0628 u0020 u0648_u0639_u062f_u062f_u0020", 
        "u0627_u0644_u0639_u0646_u0627_u0635_u0631 u0020 u0641_u0649_u00a0_u0627_u0644_u0643_u064a_u0645_u064a_u0627_u0621 u0020 u0627_u0644_u063a_u064a_u0631 u0020 u0639_u0636_u0648_u064a_u0647 u0020 u062d_u0648_u0627_u0644_u0649 u0020 u0639_u0646 u0020 u0031_u0031_u0031 u0020 u0639_u0646_u0635_u0631 u0020 u0641_u0649 u0020 u062d_u064a_u0646 u0020 u0623_u0646_u0020", 
        "u0627_u0644_u0639_u0646_u0635_u0631 u0020 u0627_u0644_u0648_u062d_u064a_u062f u0020 u0627_u0644_u0630_u0649 u0020 u064a_u0634_u062a_u0631_u0637 u0020 u0648_u062c_u0648_u062f_u0647_u00a0_u0641_u0649 u0020 u0623_u0649 u0020 u0645_u0631_u0643_u0628 u0020 u0639_u0636_u0648_u0649 u0020 u0647_u0648 u0020 u0627_u0644_u0643_u0631_u0628_u0648_u0646 u0020 u002e_u0020", 
        "u0648_u0645_u0639 u0020 u0627_u0644_u0639_u0644_u0645 u0020 u0623_u0646 u0020 u0643_u0644 u0020 u064a_u0648_u0645 u0020 u064a_u0643_u062a_u0634_u0641 u0020 u0639_u062f_u062f u0020 u0643_u0628_u064a_u0631 u0020 u0645_u0646 u0020 u0627_u0644_u0645_u0631_u0643_u0628_u0627_u062a_u00a0_u0627_u0644_u0639_u0636_u0648_u064a_u0647 u0020 u064a_u062a_u0645_u0020", 
        "u062a_u062d_u0636_u0628_u0631_u0647 u0020 u0623_u0649 u0020 u064a_u0632_u062f_u0627_u062f u0020 u0639_u062f_u062f_u0647_u0627 u0020 u064a_u0648_u0645_u0627_u0022 u0020 u0628_u0639_u062f u0020 u064a_u0648_u0645 u0020 u0648_u062a_u0635_u0644 u0020 u0627_u0644_u0646_u0633_u0628_u0647 u0020 u0628_u064a_u0646 u0020 u0627_u0644_u0645_u0631_u0643_u0628_u0627_u062a_u0020", 
        "u0627_u0644_u0639_u0636_u0648_u064a_u0629_u00a0_u0648_u0627_u0644_u063a_u064a_u0631 u0020 u0639_u0636_u0648_u064a_u0647 u0020 u0643_u0646_u0633_u0628_u0629 u0020 u0032_u0030 u0020 u003a_u0031_u0639_u0644_u0649 u0020 u0627_u0644_u062a_u0631_u062a_u064a_u0628_u00a0_u062a_u0641_u0631_u064a_u0628_u0627_u0022_u002e_u000b", 
        "u0625_u0630_u0627_u0022 u0020 u0645_u0627 u0020 u0627_u0644_u0633_u0628_u0628 u0020 u0641_u0649 u0020 u0648_u0641_u0631_u0629 u0020 u0627_u0644_u0645_u0631_u0643_u0628_u0627_u062a u0020 u0627_u0644_u0639_u0636_u0648_u064a_u0647_u00a0_u0648_u0643_u062b_u0631_u062a_u0647_u0627_u003a_u002d_u000b", 
        "u064a_u0631_u062c_u0639 u0020 u0627_u0644_u0633_u0628_u0628 u0020 u0625_u0644_u0649 u0020 u0031_u002d u0020 u0642_u062f_u0631_u0629 u0020 u0630_u0631_u0629 u0020 u0627_u0644_u0643_u0631_u0628_u0648_u0646 u0020 u0639_u0644_u0649 u0020 u0627_u0644_u0623_u0631_u062a_u0628_u0627_u0637 u0020 u0645_u0639_u00a0_u063a_u064a_u0631_u0647_u0627 u0020 u0648_u0645_u0639_u0020", 
        "u0646_u0641_u0633_u0647_u0627 u0020 u0628_u0637_u0631_u0642 u0020 u0639_u062f_u064a_u062f_u0647 u0020 u0641_u0642_u062f u0020 u062a_u0631_u062a_u0628_u0637 u0020 u0628_u0631_u0648_u0627_u0628_u0637 u0020 u0623_u062d_u0627_u062f_u064a_u0647 u0020 u0623_u0648 u0020 u062b_u0646_u0627_u0626_u064a_u0647 u0020 u0623_u0648_u0639_u062f_u064a_u062f_u0647_u002e_u0032_u002d_u0020", 
        "u0625_u0645_u0643_u0627_u0646_u064a_u0629_u00a0_u0625_u0631_u062a_u0628_u0627_u0637 u0020 u0630_u0631_u0627_u062a u0020 u0627_u0644_u0643_u0631_u0628_u0648_u0646 u0020 u0645_u0639 u0020 u0628_u0639_u0636_u0647_u0627 u0020 u0628_u0637_u0631_u0642 u0020 u0645_u062e_u062a_u0644_u0641_u0647 u0020 u0639_u0644_u0649 u0020 u0647_u064a_u0626_u0629_u0020", 
        "u0633_u0644_u0627_u0633_u0644 u0020 u0645_u0633_u062a_u0645_u0631_u0629 u0020 u0623_u0648 u0020 u0645_u062a_u0641_u0631_u0639_u0647 u0020 u0623_u0648 u0020 u0639_u0644_u0649_u00a0_u0647_u064a_u0626_u0629 u0020 u062d_u0644_u0642_u0627_u062a u0020 u0645_u062a_u062c_u0627_u0646_u0633_u0647 u0020 u0028_u0643_u0644 u0020 u0630_u0631_u0627_u062a_u0020", 
        "u0627_u0644_u062d_u0644_u0642_u0647 u0020 u0643_u0631_u0628_u0648_u0646_u0029_u0623_u0648 u0020 u063a_u064a_u0631 u0020 u0645_u062a_u062c_u0627_u0646_u0633_u0629 u0020 u0028_u0644_u064a_u0633 u0020 u0643_u0644 u0020 u0627_u0644_u0630_u0631_u0627_u062a u0020 u0627_u0644_u0645_u0643_u0648_u0646_u00a0_u0644_u0644_u062d_u0644_u0642_u0647_u0020", 
        "u0643_u0631_u0628_u0648_u0646_u00a0_u0028_u00a0_u000b", 
        "u0627_u0633_u062a_u062e_u062f_u0627_u0645_u0627_u062a u0020 u0627_u0644_u0645_u0631_u0643_u0628_u0627_u062a u0020 u0627_u0644_u0639_u0636_u0648_u064a_u0629 u0020 u0641_u064a u0020 u062d_u064a_u0627_u062a_u0646_u0627_u00a0_u0627_u0644_u064a_u0648_u0645_u064a_u0629_u000b", 
        "u0627_u0633_u062a_u062e_u062f_u0627_u0645_u0627_u062a u0020 u0627_u0644_u0645_u0631_u0643_u0628_u0627_u062a u0020 u0627_u0644_u0639_u0636_u0648_u064a_u0629 u0020 u064a_u0628_u062f_u0623 u0020 u0645_u0639 u0020 u0628_u062f_u0627_u064a_u0629 u0020 u064a_u0648_u0645_u0646_u0627_u002e u0020 u0641_u064a_u00a0_u0627_u0644_u0635_u0628_u0627_u062d_u002c_u0020", 
        "u0628_u0627_u0633_u062a_u062e_u062f_u0627_u0645 u0020 u0645_u064a_u0627_u0647 u0020 u0627_u0644_u063a_u0631_u063a_u0631_u0629 u0020 u0648_u0645_u0639_u062c_u0648_u0646 u0020 u0627_u0644_u0623_u0633_u0646_u0627_u0646 u0020 u0641_u064a_u0633_u062a_u062e_u062f_u0645 u0020 u0627_u0644_u0627_u064a_u062b_u0627_u0646_u0648_u0644 u0020 u0641_u064a u0020 u0645_u062d_u0627_u0644_u064a_u0644_u0020", 
        "u0627_u0644_u063a_u0631_u063a_u0631_u0629_u00a0_u0648_u0645_u0639_u0627_u062c_u064a_u0646 u0020 u0627_u0644_u0623_u0633_u0646_u0627_u0646 u0020 u0644_u0645_u0627 u0020 u0644_u0647 u0020 u0645_u0646 u0020 u0642_u062f_u0631_u0629 u0020 u0641_u0627_u0626_u0642_u0629 u0020 u0639_u0644_u0649 u0020 u0642_u062a_u0644 u0020 u0627_u0644_u0645_u064a_u0643_u0631_u0648_u0628_u0627_u062a_u002e_u0020", 
        "u0643_u0645_u0627 u0020 u064a_u0633_u062a_u062e_u062f_u0645 u0020 u0623_u064a_u0636_u0627 u0020 u0641_u064a_u00a0_u0627_u0644_u0639_u0637_u0648_u0631 u0020 u0648_u0645_u0633_u062a_u062d_u0636_u0631_u0627_u062a u0020 u0627_u0644_u062a_u062c_u0645_u064a_u0644"
    ]
}