{
    "bounding_box": [
        [
            69, 
            39, 
            586, 
            38
        ], 
        [
            69, 
            86, 
            586, 
            39
        ], 
        [
            69, 
            134, 
            586, 
            39
        ], 
        [
            69, 
            182, 
            586, 
            35
        ], 
        [
            69, 
            224, 
            586, 
            44
        ], 
        [
            69, 
            274, 
            586, 
            38
        ], 
        [
            69, 
            327, 
            586, 
            37
        ], 
        [
            69, 
            370, 
            586, 
            43
        ], 
        [
            69, 
            423, 
            586, 
            37
        ], 
        [
            103, 
            462, 
            551, 
            43
        ], 
        [
            21, 
            503, 
            15, 
            10
        ]
    ], 
    "image_height": 540, 
    "image_width": 720, 
    "transcription": [
        "u0648_u0628_u0627_u0644_u0625_u0636_u0627_u0641_u0629 u0020 u0625_u0644_u0649 u0020 u0645_u0627_u0633_u0628_u0642 u0020 u062a_u0639_u0627_u0646_u064a u0020 u0628_u0639_u0636 u0020 u0627_u0644_u062c_u0627_u0645_u0639_u0627_u062a_u0020", 
        "u0627_u0644_u062e_u0627_u0635_u0629 u0020 u0641_u064a u0020 u0627_u0644_u0648_u0637_u0646 u0020 u0627_u0644_u0639_u0631_u0628_u064a u0020 u0645_u0646 u0020 u0627_u0644_u0633_u064a_u0637_u0631_u0629_u0020", 
        "u0627_u0644_u0645_u0637_u0644_u0642_u0629 u0020 u0644_u0645_u0627_u0644_u0643_u064a u0020 u0647_u0630_u0647 u0020 u0627_u0644_u062c_u0627_u0645_u0639_u0627_u062a u0020 u0641_u064a u0020 u0631_u0633_u0645_u0020", 
        "u0633_u064a_u0627_u0633_u0627_u062a_u0647_u0627 u0020 u0648_u0627_u062e_u062a_u064a_u0627_u0631 u0020 u0627_u0644_u0639_u0627_u0645_u0644_u064a_u0646 u0020 u0641_u064a_u0647_u0627 u0020 u0648_u062a_u062e_u0637_u064a_u0637_u0020", 
        "u0645_u0646_u0627_u0647_u062c_u0647_u0627 u0020 u0648_u0641_u0642_u0627_u064b u0020 u0644_u0642_u0646_u0627_u0639_u0627_u062a_u0647_u0645 u0020 u0627_u0644_u0634_u062e_u0635_u064a_u0629 u0020 u0628_u0639_u064a_u062f_u0627_u064b u0020 u0645_u0646_u0020", 
        "u0627_u0644_u0645_u0633_u0623_u0644_u0629 u0020 u0627_u0644_u062a_u0639_u0644_u064a_u0645_u064a_u0629 u0020 u0648_u0645_u0627 u0020 u062a_u062a_u0637_u0644_u0628_u0647 u0020 u0645_u0646 u0020 u062d_u064a_u0627_u062f_u064a_u0629_u0020", 
        "u0648_u0645_u0648_u0636_u0648_u0639_u064a_u0629_u060c u0020 u0648_u0647_u0630_u0627 u0020 u064a_u0648_u0644_u062f u0020 u062c_u0648_u0627 u0020 u0645_u0646 u0020 u0639_u062f_u0645 u0020 u0627_u0644_u0627_u0633_u062a_u0642_u0631_u0627_u0631_u0020", 
        "u0648_u0627_u0641_u062a_u0642_u0627_u062f u0020 u0627_u0644_u0623_u0645_u0646 u0020 u0627_u0644_u0648_u0638_u064a_u0641_u064a u0020 u0644_u0644_u0643_u062b_u064a_u0631 u0020 u0645_u0646 u0020 u0627_u0644_u0639_u0627_u0645_u0644_u064a_u0646 u0020 u0641_u064a_u0020", 
        "u0647_u0630_u0647 u0020 u0627_u0644_u062c_u0627_u0645_u0639_u0627_u062a u0020 u0645_u0645_u0627 u0020 u064a_u0636_u0639_u0641 u0020 u0627_u0646_u062a_u0645_u0627_u0626_u0647_u0645 u0020 u0020_u0644_u062c_u0627_u0645_u0639_u0627_u062a_u0647_u0645_u0020", 
        "u0648_u064a_u062e_u0644_u0642 u0020 u062c_u0648_u0627 u0020 u0645_u0646 u0020 u0627_u0644_u0633_u0644_u0628_u064a_u0629 u0020 u0627_u0644_u062a_u064a u0020 u062a_u0624_u062b_u0631 u0020 u0639_u0644_u0649 u0020 u0623_u062f_u0627_u0626_u0647_u0645_u002e", 
        "u0032_u0033"
    ]
}