{
    "bounding_box": [
        [
            11, 
            87, 
            648, 
            51
        ], 
        [
            11, 
            144, 
            664, 
            51
        ], 
        [
            11, 
            202, 
            664, 
            51
        ], 
        [
            11, 
            260, 
            664, 
            51
        ], 
        [
            11, 
            319, 
            664, 
            50
        ], 
        [
            245, 
            375, 
            430, 
            45
        ]
    ], 
    "image_height": 540, 
    "image_width": 720, 
    "transcription": [
        "u0628_u0646_u0649 u0020 u0647_u0630_u0627 u0020 u0627_u0644_u0645_u0642_u0627_u0645_u00a0_u0627_u0644_u0623_u0645_u064a_u0631 u0020 u0627_u0644_u0645_u0647_u062f_u0627_u0648_u064a u0020 u0641_u064a u0020 u0632_u0645_u0646_u0020", 
        "u0627_u0644_u0645_u0645_u0627_u0644_u064a_u0643_u060c u0020 u0648_u0639_u0646 u0020 u0635_u062d_u0629 u0020 u0648_u062c_u0648_u062f u0020 u0627_u0644_u0645_u0642_u0627_u0645 u0020 u0628_u0627_u0644_u0641_u0639_u0644_u0020", 
        "u0641_u064a u0020 u0647_u0630_u0647 u0020 u0627_u0644_u0645_u0646_u0637_u0642_u0629 u0020 u0628_u0627_u0644_u0630_u0627_u062a_u060c u0020 u0641_u0642_u062f u0020 u0630_u0643_u0631 u0020 u0623_u0646 u0020 u062c_u0628_u0644_u0020", 
        "u0627_u0641_u0631_u0627_u064a_u0645 u0020 u0627_u0644_u0648_u0627_u0631_u062f u0020 u0630_u0643_u0631_u0647 u0020 u0641_u064a u0020 u0627_u0644_u062a_u0648_u0631_u0627_u0629 u0020 u0647_u0648 u0020 u0646_u0641_u0633_u0020", 
        "u0627_u0644_u062c_u0628_u0644 u0020 u0627_u0644_u0645_u0648_u062c_u0648_u062f u0020 u0641_u064a u0020 u0647_u0630_u0627 u0020 u0627_u0644_u0645_u0643_u0627_u0646 u0020 u062d_u0633_u0628_u0020", 
        "u0627_u0644_u062f_u0644_u0627_u0626_u0644 u0020 u0648_u0627_u0644_u0634_u0648_u0627_u0647_u062f u0020 u0627_u0644_u062a_u0627_u0631_u064a_u062e_u064a_u0629_u002e_u000d"
    ]
}