{
    "bounding_box": [
        [
            256, 
            104, 
            219, 
            45
        ], 
        [
            219, 
            159, 
            294, 
            47
        ], 
        [
            188, 
            214, 
            356, 
            44
        ], 
        [
            165, 
            274, 
            401, 
            41
        ], 
        [
            252, 
            330, 
            215, 
            33
        ]
    ], 
    "image_height": 540, 
    "image_width": 720, 
    "transcription": [
        "u062a_u0643_u0627_u062a_u0641 u0020 u0627_u0644_u062c_u0645_u064a_u0639_u000b", 
        "u0642_u0631_u0627_u0631 u0020 u0633_u064a_u0627_u0633_u064a u0020 u062c_u0631_u0626_u000b", 
        "u062a_u0641_u0639_u064a_u0644 u0020 u0644_u0644_u0646_u064a_u0627_u0628_u0629 u0020 u0648 u0020 u0627_u0644_u0642_u0636_u0627_u0621_u000b", 
        "u0627_u062c_u062a_u062b_u0627_u062b u0020 u0627_u0644_u0641_u0633_u0627_u062f u0020 u0648_u0627_u0644_u0645_u0641_u0633_u062f_u064a_u0646_u000b", 
        "u0627_u0639_u062a_u0645_u0627_u062f u0020 u0627_u0644_u0643_u0641_u0627_u0621_u0629"
    ]
}