{
    "bounding_box": [
        [
            277, 
            116, 
            164, 
            35
        ], 
        [
            167, 
            205, 
            436, 
            27
        ], 
        [
            134, 
            253, 
            469, 
            22
        ], 
        [
            159, 
            295, 
            445, 
            26
        ], 
        [
            270, 
            338, 
            334, 
            26
        ]
    ], 
    "image_height": 540, 
    "image_width": 720, 
    "transcription": [
        "u0630_u064a u0020 u0627_u0644_u0642_u0631_u0646_u064a_u0646_u0020", 
        "u0648_u0643_u0627_u0646 u0020 u0645_u0644_u0643_u0627_u064b u0020 u0639_u0627_u062f_u0644_u0627_u064b u0020 u064a_u0645_u062a_u0644_u0643 u0020 u0627_u0644_u0639_u0644_u0645 u0020 u0648_u064a_u0646_u062a_u0642_u0644 u0020 u0645_u0646 u0020 u0645_u0634_u0631_u0642 u0020 u0627_u0644_u0623_u0631_u0636 u0020 u0625_u0644_u0649_u0020", 
        "u0645_u063a_u0631_u0628_u0647_u0627 u0020 u064a_u0639_u064a_u0646 u0020 u0627_u0644_u0646_u0627_u0633 u0020 u0648_u064a_u062f_u0639_u0648 u0020 u0625_u0644_u0649 u0020 u0627_u0644_u0644_u0647 u0020 u0648_u064a_u0646_u0634_u0631 u0020 u0627_u0644_u062e_u064a_u0631 u0020 u062d_u062a_u0649 u0020 u0648_u0635_u0644 u0020 u0625_u0644_u0649_u0020", 
        "u0639_u064a_u0646 u0020 u0630_u064a u0020 u0627_u0644_u0642_u0631_u0646_u064a_u0646 u0020 u0627_u0644_u062d_u0645_u0626_u0629 u0020 u0020_u062b_u0645 u0020 u0630_u0647_u0628 u0020 u0625_u0644_u0649 u0020 u0642_u0648_u0645 u0020 u062e_u0627_u0626_u0641_u064a_u0646 u0020 u0645_u0646 u0020 u0647_u062c_u0648_u0645_u0020", 
        "u064a_u0623_u062c_u0648_u062c u0020 u0648 u0020 u0645_u0623_u062c_u0648_u062c u0020 u0641_u0623_u0639_u0627_u0646_u0647_u0645 u0020 u0639_u0644_u0649 u0020 u0628_u0646_u0627_u0621 u0020 u0631_u062f_u0645 u0020 u062f_u0648_u0646_u0647_u0645"
    ]
}