{
    "bounding_box": [
        [
            266, 
            33, 
            175, 
            44
        ], 
        [
            250, 
            101, 
            212, 
            24
        ], 
        [
            459, 
            130, 
            137, 
            22
        ], 
        [
            299, 
            160, 
            253, 
            18
        ], 
        [
            373, 
            186, 
            179, 
            17
        ], 
        [
            371, 
            210, 
            181, 
            17
        ], 
        [
            329, 
            233, 
            222, 
            18
        ], 
        [
            536, 
            258, 
            60, 
            19
        ], 
        [
            510, 
            289, 
            42, 
            13
        ], 
        [
            469, 
            313, 
            83, 
            13
        ], 
        [
            408, 
            335, 
            143, 
            17
        ], 
        [
            499, 
            361, 
            53, 
            13
        ], 
        [
            457, 
            383, 
            95, 
            17
        ], 
        [
            509, 
            409, 
            86, 
            18
        ]
    ], 
    "image_height": 540, 
    "image_width": 720, 
    "transcription": [
        "u0623_u0628_u0648_u0627_u0628 u0020 u0627_u0644_u0645_u0648_u0642_u0639_u0020", 
        "u0042_u0065_u0061_u0075_u0074_u0079 u0020 u0061_u006e_u0064 u0020 u006d_u006f_u0072_u0065 u0020 u000d", 
        "u0645_u0648_u0636_u0629 u0020 u002e_u002e u0020 u0645_u0648_u0636_u0629_u003a_u000d", 
        "u0635_u064a_u062d_u0627_u062a u0020 u0648_u0645_u0648_u0627_u0633_u0645 u0020 u002f u0020 u0625_u0643_u0633_u0633_u0648_u0627_u0631_u0627_u062a u0020 u002f u0020 u0623_u0632_u064a_u0627_u0621 u0020 u000d", 
        "u0645_u0642_u0627_u0628_u0644_u0627_u062a u0020 u002f u0020 u0646_u0635_u0627_u0626_u062d u0020 u0645_u0635_u0645_u0645_u064a_u0646 u0020 u000d", 
        "u0057_u0068_u0061_u0074 u0020 u0067_u006f_u0065_u0073 u0020 u0077_u0069_u0074_u0068 u0020 u0077_u0068_u0061_u0074 u0020 u000d", 
        "u0059_u006f_u0075_u0072 u0020 u0054_u0072_u0061_u0064_u0069_u0074_u0069_u006f_u006e u0020 u002e_u002e u0020 u0079_u006f_u0075_u0072 u0020 u0053_u0074_u0079_u006c_u0065 u0020 u000d", 
        "u0637_u0644_u0651_u062a_u0643 u0020 u003a_u000d", 
        "u0048_u0061_u0069_u0072 u0020 u000d", 
        "u0053_u006b_u0069_u006e_u002d_u0063_u0061_u0072_u0065 u0020 u000d", 
        "u062c_u062f_u064a_u062f u0020 u0639_u0645_u0644_u064a_u0627_u062a u0020 u0627_u0644_u062a_u062c_u0645_u064a_u0644 u0020 u000d", 
        "u0053_u006d_u0069_u006c_u0065 u0020 u000d", 
        "u0644_u0643_u0644 u0020 u0645_u0648_u0633_u0645 u0020 u0644_u0648_u0646_u000d", 
        "u0625_u0633_u062a_u0634_u0627_u0631_u0627_u062a u0020 u000d"
    ]
}