{
    "bounding_box": [
        [
            249, 
            40, 
            215, 
            15
        ], 
        [
            57, 
            56, 
            599, 
            20
        ], 
        [
            350, 
            90, 
            18, 
            2
        ], 
        [
            170, 
            106, 
            506, 
            31
        ], 
        [
            182, 
            150, 
            493, 
            34
        ], 
        [
            127, 
            196, 
            522, 
            31
        ], 
        [
            83, 
            242, 
            566, 
            34
        ], 
        [
            383, 
            281, 
            266, 
            29
        ], 
        [
            34, 
            326, 
            614, 
            34
        ], 
        [
            574, 
            367, 
            75, 
            31
        ], 
        [
            101, 
            412, 
            548, 
            33
        ], 
        [
            471, 
            453, 
            178, 
            30
        ]
    ], 
    "image_height": 540, 
    "image_width": 720, 
    "transcription": [
        "u0627_u0627_u0644_u0639_u062f_u0648_u0627_u0646 u0020 u0627_u0644_u0628_u064a_u0626_u064a u0020 u0627_u0644_u0625_u0633_u0631_u0627_u0626_u064a_u0644_u064a u0020 u0639_u0644_u0649 u0020 u0644_u0628_u0646_u0627_u0646_u000b", 
        "u0645_u0624_u062a_u0645_u0631 u0020 u0627_u0644_u062c_u0646_u0648_u0628 u0020 u0627_u0644_u0623_u0648_u0644_u003a u0020 u201d_u0627_u0644_u0627_u0639_u062a_u062f_u0627_u0621_u0627_u062a u0020 u0648_u0627_u0644_u062d_u0631_u0648_u0628 u0020 u0627_u0644_u0627_u0633_u0631_u0627_u0626_u064a_u0644_u064a_u0629 u0020 u0639_u0644_u0649 u0020 u0644_u0628_u0646_u0627_u0646 u0020 u0648_u0622_u062b_u0627_u0631_u0647_u0627 u0020 u0639_u0644_u0649 u0020 u0628_u0646_u064a_u0629 u0020 u0627_u0644_u0645_u062c_u062a_u0645_u0639 u0020 u0627_u0644_u0644_u0628_u0646_u0627_u0646_u064a_u201c_u000b", 
        "u002d_u002d_u002d", 
        "u0033_u002d u0020 u0627_u0644_u0639_u062f_u0648_u0627_u0646 u0020 u0627_u0644_u0628_u064a_u0626_u064a u0020 u0627_u0644_u0625_u0633_u0631_u0627_u0626_u064a_u0644_u064a u0020 u0639_u0644_u0649 u0020 u0627_u0644_u0647_u0648_u0627_u0621 u0020 u0627_u0644_u062c_u0648_u064a_u000d", 
        "u0645_u0646_u0630 u0020 u0646_u0634_u0648_u0621 u0020 u0627_u0644_u0643_u064a_u0627_u0646 u0020 u0627_u0644_u0635_u0647_u064a_u0648_u0646_u064a u0020 u0639_u0644_u0649 u0020 u0623_u0631_u0636 u0020 u0641_u0644_u0633_u0637_u064a_u0646_u000d", 
        "u0642_u0635_u0641 u0020 u0627_u0644_u0642_u0631_u0649 u0020 u0648_u0645_u062d_u064a_u0637_u0647_u0627 u0020 u060c u0020 u0627_u0646_u0641_u062c_u0627_u0631_u0627_u062a u0020 u0648_u0627_u0646_u0628_u0639_u0627_u062b_u0627_u062a u0020 u0643_u062b_u064a_u0641_u0629_u000d", 
        "u062a_u0644_u0648_u064a_u062b u0020 u0645_u0648_u0636_u0639_u064a u0020 u0648_u0644_u0645_u062f_u0629 u0020 u0020_u0642_u0635_u064a_u0631_u0629 u0020 u0641_u064a u0020 u0627_u0644_u0628_u064a_u0626_u0629 u0020 u0627_u0644_u0633_u0643_u0646_u064a_u0629 u0020 u0644_u0644_u0642_u0631_u0649_u0020", 
        "u0648_u0627_u0644_u0628_u0644_u062f_u0627_u062a u0020 u0648_u0627_u0644_u0645_u062f_u0646 u0020 u0627_u0644_u062c_u0646_u0648_u0628_u064a_u0629_u000d", 
        "u0627_u0633_u062a_u0639_u0645_u0627_u0644 u0020 u0642_u0630_u0627_u0626_u0641 u0020 u0645_u062d_u0631_u0645_u0629 u0020 u062f_u0648_u0644_u064a_u0627 u0020 u062a_u0624_u062f_u064a u0020 u0625_u0644_u0649 u0020 u062a_u0644_u0648_u064a_u062b u0020 u0646_u0648_u0639_u064a u0020 u0644_u0644_u0647_u0648_u0627_u0621_u0020", 
        "u0627_u0644_u062c_u0648_u064a_u000d", 
        "u0628_u0644_u063a u0020 u0639_u062f_u0648_u0627_u0646 u0020 u062a_u0645_u0648_u0632 u0020 u0032_u0030_u0030_u0036 u0020 u0630_u0631_u0648_u0629 u0020 u0634_u0643_u0644_u062a u0020 u0646_u0645_u0648_u0630_u062c_u0627 u0020 u0644_u0644_u0639_u062f_u0648_u0627_u0646_u0020", 
        "u0627_u0644_u0628_u064a_u0626_u064a u0020 u0639_u0644_u0649 u0020 u0644_u0628_u0646_u0627_u0646_u000d"
    ]
}