{
    "bounding_box": [
        [
            18, 
            63, 
            649, 
            41
        ], 
        [
            18, 
            116, 
            665, 
            46
        ], 
        [
            18, 
            170, 
            665, 
            39
        ], 
        [
            18, 
            222, 
            665, 
            40
        ], 
        [
            18, 
            273, 
            665, 
            41
        ], 
        [
            18, 
            326, 
            665, 
            47
        ], 
        [
            329, 
            378, 
            354, 
            45
        ]
    ], 
    "image_height": 540, 
    "image_width": 720, 
    "transcription": [
        "u0627_u0644_u0622_u0644_u0627_u0641 u0020 u0645_u0646 u0020 u0627_u0644_u0623_u0631_u062f_u0646_u064a_u064a_u0646 u0020 u064a_u0644_u062c_u0623_u0648_u0646 u0020 u0644_u0644_u0633_u064a_u0627_u062d_u0629_u0020", 
        "u0627_u0644_u062e_u0627_u0631_u062c_u064a_u0629 u0020 u0648_u062e_u0627_u0635_u0629 u0020 u0641_u064a u0020 u0627_u0644_u0645_u0648_u0627_u0633_u0645 u0020 u0648_u0627_u0644_u0623_u0639_u064a_u0627_u062f_u0020", 
        "u0648_u0627_u0644_u0639_u0637_u0644_u0627_u062a_u060c u0020 u062d_u064a_u062b u0020 u064a_u062c_u062f u0020 u0647_u0624_u0644_u0627_u0621 u0020 u062a_u0631_u0648_u064a_u062c_u0627 u0020 u0643_u0628_u064a_u0631_u0627 u0020 u0645_u0646_u0020", 
        "u0642_u0628_u0644 u0020 u0634_u0631_u0643_u0627_u062a u0020 u0627_u0644_u0633_u064a_u0627_u062d_u0629 u0020 u0648_u0627_u0644_u0633_u0641_u0631 u0020 u0644_u0644_u0645_u062f_u0646_u0020", 
        "u0648_u0627_u0644_u0645_u0646_u062a_u062c_u0639_u0627_u062a u0020 u0627_u0644_u0633_u064a_u0627_u062d_u064a_u0629 u0020 u0627_u0644_u0639_u0631_u0628_u064a_u0629 u0020 u0648_u0627_u0644_u0623_u062c_u0646_u0628_u064a_u0629_u0020", 
        "u0648_u0628_u0623_u0633_u0639_u0627_u0631 u0020 u0648_u0625_u0645_u062a_u064a_u0627_u0632_u0627_u062a u0020 u062a_u0634_u062f_u0647_u0645 u0020 u0625_u0644_u0649 u0020 u0627_u0644_u0644_u062c_u0648_u0621 u0020 u0644_u0644_u0633_u0641_u0631_u0020", 
        "u0648_u0627_u0644_u062a_u0645_u062a_u0639 u0020 u0628_u0647_u0630_u0647 u0020 u0028_u0627_u0644_u0645_u063a_u0631_u064a_u0627_u062a_u0029_u002e"
    ]
}