{
    "bounding_box": [
        [
            424, 
            65, 
            281, 
            25
        ], 
        [
            12, 
            127, 
            658, 
            25
        ], 
        [
            12, 
            166, 
            658, 
            24
        ], 
        [
            362, 
            201, 
            308, 
            22
        ], 
        [
            90, 
            264, 
            580, 
            24
        ], 
        [
            12, 
            324, 
            658, 
            23
        ], 
        [
            12, 
            361, 
            658, 
            26
        ], 
        [
            219, 
            400, 
            451, 
            22
        ]
    ], 
    "image_height": 540, 
    "image_width": 720, 
    "transcription": [
        "u062a_u0635_u0645_u064a_u0645 u0020 u06af_u064a_u0631_u06cc u0020 u062f_u0631 u0020 u0634_u0631_u0627_u064a_u0637 u0020 u0622_u0634_u0648_u0628 u0020 u0020_u0028_u0033_u0029_u000d", 
        "u064a_u0643_u06cc u0020 u0627_u0632 u0020 u0645_u062f_u0644_u0647_u0627_u064a_u06cc u0020 u0643_u0647 u0020 u062f_u0631_u067e_u0627_u0633_u062e u0020 u0628_u0647 u0020 u0634_u0631_u0627_u064a_u0637 u0020 u0643_u0646_u0648_u0646_u064a u0020 u0645_u0637_u0631_u062d u0020 u0634_u062f_u0647 u0020 u0645_u062f_u0644_u06cc u0020 u0627_u0633_u062a u0020 u0643_u0647 u0020 u0622_u0646_u0631_u0627 u0020 u0627_u0635_u0637_u0644_u0627_u062d_u0627_u0651_u0020", 
        "u0646_u0627_u0645 u0020 u0646_u0647_u0627_u062f_u0647 u0020 u0627_u0646_u062f u0020 u0643_u0647 u0020 u0634_u0627_u064a_u062f u0020 u0627_u0634_u0627_u0631_u0647 u0020 u0627_u06cc u0020 u0628_u0647 u0020 u0628_u064a u0020 u0646_u0638_u0645_u06cc u0020 u0648 u0020 u062f_u0631_u0647_u0645 u0020 u0648_u0628_u0631_u0647_u0645 u0020 u0628_u0648_u062f_u0646_u0047_u0061_u0072_u0062_u0061_u0067_u0065 u0020 u0063_u0061_u006e u0020 u0020", 
        "u0638_u0631_u0641 u0020 u0632_u0628_u0627_u0644_u0647 u0020 u0634_u0631_u0627_u064a_u0637 u0020 u062a_u0635_u0645_u064a_u0645 u0020 u06af_u064a_u0631_u06cc u0020 u0628_u0627_u0634_u062f u0020 u002e_u000d", 
        "u0627_u064a_u0646 u0020 u0645_u062f_u0644 u0020 u0631_u0627 u0020 u0627_u0628_u062a_u062f_u0627 u0020 u0633_u0647 u0020 u0646_u0641_u0631 u0020 u0628_u0647 u0020 u0646_u0627_u0645_u0647_u0627_u06cc u0020 u0643_u0648_u0647_u0646_u060c u0020 u0645_u0627_u0631_u0686 u0020 u0648 u0020 u0627_u0644_u0633_u0646 u0020 u0637_u0631_u0627_u062d_u06cc u0020 u0643_u0631_u062f_u0647 u0020 u0627_u0646_u062f u0020 u002e u0020 u000d", 
        "u0622_u0646_u0627_u0646 u0020 u0633_u0627_u0632_u0645_u0627_u0646 u0020 u0631_u0627 u0020 u0628_u0647 u0020 u0645_u062b_u0627_u0628_u0647 u0020 u062d_u0648_u0632_u0647 u0020 u062a_u0635_u0645_u064a_u0645 u0020 u06af_u064a_u0631_u06cc u0020 u062f_u0627_u0631_u0627_u06cc u0020 u0645_u062d_u064a_u0637 u0020 u0628_u064a_u0631_u0648_u0646_u06cc u0020 u0648_u0646_u0638_u0627_u0645_u0647_u0627_u06cc_u0020", 
        "u0628_u0632_u0631_u06af_u062a_u0631_u06cc u0020 u0645_u06cc u0020 u062f_u0627_u0646_u0633_u062a_u0646_u062f u0020 u0643_u0647 u0020 u0622_u0646 u0020 u0631_u0627 u0020 u0627_u062d_u0627_u0637_u0647 u0020 u0643_u0631_u062f_u0647 u0020 u0627_u0646_u062f u0020 u0648 u0020 u0633_u0631_u0634_u0627_u0631 u0020 u0627_u0632 u0020 u0627_u0628_u0647_u0627_u0645 u0020 u0648_u0639_u062f_u0645 u0020 u0648_u0636_u0648_u062d_u0020", 
        "u0647_u0633_u062a_u0646_u062f u0020 u002e u0020 u0627_u064a_u0646 u0020 u0627_u0628_u0647_u0627_u0645_u0627_u062a u0020 u0645_u0639_u0645_u0648_u0644_u0627_u0651 u0020 u0628_u0647 u0020 u0633_u0647 u0020 u0635_u0648_u0631_u062a u0020 u0628_u0631_u0648_u0632 u0020 u0645_u06cc u0020 u0643_u0646_u0646_u062f_u002e_u0020"
    ]
}