{
    "bounding_box": [
        [
            21, 
            28, 
            677, 
            39
        ], 
        [
            27, 
            72, 
            671, 
            37
        ], 
        [
            64, 
            114, 
            634, 
            38
        ], 
        [
            41, 
            158, 
            656, 
            36
        ], 
        [
            46, 
            201, 
            652, 
            38
        ], 
        [
            92, 
            245, 
            605, 
            38
        ], 
        [
            46, 
            288, 
            651, 
            37
        ], 
        [
            65, 
            330, 
            632, 
            34
        ], 
        [
            31, 
            376, 
            667, 
            36
        ], 
        [
            72, 
            417, 
            625, 
            34
        ], 
        [
            211, 
            460, 
            487, 
            38
        ]
    ], 
    "image_height": 540, 
    "image_width": 720, 
    "transcription": [
        "u062a_u0648_u0644_u0649 u0020 u0647_u0630_u0647 u0020 u0627_u0644_u0645_u0647_u0645_u0629 u0020 u0043_u006f_u0072_u0074_u0065_u007a u0020 u0020_u0648_u0647_u0648 u0020 u0645_u0641_u0643_u0631 u0020 u0623_u0633_u0628_u0627_u0646_u0649 u0020 u064a_u0646_u062a_u0645_u064a u0020 u0644_u0639_u0627_u0626_u0644_u0629_u0020", 
        "u0645_u064a_u0633_u0648_u0631_u0629 u0020 u0628_u062f_u0623 u0020 u062d_u064a_u0627_u062a_u0647 u0020 u0641_u0649 u0020 u062f_u0631_u0627_u0633_u0629 u0020 u0627_u0644_u0642_u0627_u0646_u0648_u0646 u0020 u0641_u0649 u0020 u062c_u0627_u0645_u0639_u0629 u0020 u0633_u0644_u0645_u0646_u063a_u0627 u0020 u0625_u0644_u0627_u0020", 
        "u0623_u0646 u0020 u0631_u0648_u062d u0020 u0627_u0644_u0645_u063a_u0627_u0645_u0631_u0629 u0020 u0641_u064a_u0647 u0020 u062f_u0641_u0639_u062a_u0647 u0020 u0644_u062a_u0631_u0643 u0020 u0627_u0644_u062c_u0627_u0645_u0639_u0629 u0020 u0648_u0627_u0644_u0647_u062c_u0631_u0629 u0020 u0627_u0644_u0649_u0020", 
        "u0643_u0648_u0628_u0627 u0020 u062d_u064a_u062b u0020 u0627_u0644_u062a_u062d_u0642 u0020 u0628_u062e_u062f_u0645_u0629 u0020 u062d_u0627_u0643_u0645_u0647_u0627 u0020 u002e u0020 u0648_u0644_u0645_u0627 u0020 u0643_u0627_u0646 u0020 u0647_u0630_u0627 u0020 u0627_u0644_u0623_u062e_u064a_u0631 u0020 u0642_u062f_u0020", 
        "u0646_u0638_u0645 u0020 u0639_u062f_u0629 u0020 u062d_u0645_u0644_u0627_u062a u0020 u0627_u0644_u0649 u0020 u0634_u0628_u0629 u0020 u062c_u0632_u064a_u0631_u0629 u0020 u064a_u0648_u0643_u0627_u062a_u0627_u0646 u0020 u0641_u0642_u062f u0020 u0623_u0648_u0643_u0644 u0020 u0645_u0647_u0645_u0629_u0020", 
        "u0625_u062d_u062f_u0627_u0647_u0627 u0020 u0627_u0644_u0649 u0020 u0643_u0648_u0631_u062a_u064a_u0632 u0020 u0648_u0643_u0627_u0646_u062a u0020 u062a_u062a_u0623_u0644_u0641 u0020 u0645_u0646 u0020 u062e_u0645_u0633_u0645_u0627_u0626_u0629 u0020 u062c_u0646_u062f_u0649_u0020", 
        "u0648_u0636_u0627_u0628_u0637 u0020 u0648_u0645_u0627_u0626_u0629 u0020 u0628_u062d_u0627_u0631 u0020 u0648 u0020 u0031_u0034 u0020 u0645_u062f_u0641_u0639_u0627 u0020 u002e u0020 u0625_u0644_u0627 u0020 u0623_u0646 u0020 u0627_u0644_u062e_u0644_u0627_u0641 u0020 u0644_u0645 u0020 u064a_u0644_u0628_u062b_u0020", 
        "u0623_u0646 u0020 u062f_u0628 u0020 u0628_u064a_u0646 u0020 u0627_u0644_u0631_u062c_u0644_u064a_u0646 u0020 u0641_u0627_u0633_u062a_u0642_u0644 u0020 u0643_u0648_u0631_u062a_u064a_u0632 u0020 u0628_u0627_u0644_u062d_u0645_u0644_u0629 u0020 u0648_u0627_u062e_u0630 u0020 u064a_u0639_u0645_u0644_u0020", 
        "u0645_u0633_u062a_u0642_u0644_u0627 u0020 u0639_u0646 u0020 u062d_u0627_u0643_u0645 u0020 u0643_u0648_u0628_u0627 u0020 u002e u0020 u0648_u0639_u0646_u062f u0020 u0648_u0635_u0648_u0644_u0647 u0020 u0627_u0644_u0649 u0020 u0627_u0644_u0634_u0627_u0637_u0626 u0020 u0627_u0644_u063a_u0631_u0628_u064a_u0020", 
        "u0644_u0634_u0628_u0629 u0020 u0627_u0644_u062c_u0632_u064a_u0631_u0629 u0020 u0646_u0632_u0644 u0020 u0647_u0646_u0627_u0643 u0020 u0628_u0639_u062f u0020 u0645_u0642_u0627_u0648_u0645_u0629 u0020 u0639_u0646_u064a_u0641_u0629 u0020 u0645_u0646 u0020 u0627_u0644_u0633_u0643_u0627_u0646_u0020", 
        "u0627_u0644_u0623_u0635_u0644_u064a_u064a_u0646 u0020 u0623_u0633_u0633 u0020 u0639_u0644_u0649 u0020 u0627_u0644_u0634_u0627_u0637_u0626 u0020 u0645_u062f_u064a_u0646_u0629 u0020 u0627_u0633_u0645_u0627_u0647_u0627"
    ]
}