{
    "bounding_box": [
        [
            398, 
            42, 
            255, 
            35
        ], 
        [
            278, 
            82, 
            398, 
            32
        ], 
        [
            487, 
            123, 
            166, 
            30
        ], 
        [
            61, 
            157, 
            592, 
            35
        ], 
        [
            78, 
            201, 
            575, 
            30
        ], 
        [
            61, 
            234, 
            592, 
            35
        ], 
        [
            107, 
            276, 
            546, 
            28
        ], 
        [
            456, 
            316, 
            197, 
            30
        ]
    ], 
    "image_height": 540, 
    "image_width": 720, 
    "transcription": [
        "u0623_u0648_u0644_u0627_u003a u0020 u0627_u0644_u0646_u0641_u0642_u0627_u062a u0020 u0627_u0644_u0639_u0633_u0643_u0631_u064a_u0629_u003a u0020 u000d", 
        "u0627_u062e_u062a_u0635_u062a u0020 u0647_u0630_u0647 u0020 u0627_u0644_u0646_u0641_u0642_u0627_u062a u0020 u0628_u0627_u0644_u0627_u064a_u0631_u0627_u062f_u0627_u062a u0020 u0627_u0644_u062a_u0627_u0644_u064a_u0647_u003a_u000d", 
        "u0633_u0647_u0645 u0020 u0645_u0646 u0020 u0627_u0644_u0632_u0643_u0627_u0629 u0020 u000d", 
        "u0627_u0631_u0628_u0639 u0020 u0627_u062e_u0645_u0627_u0633 u0020 u0627_u0644_u0641_u064a_u0621 u0020 u0628_u0646_u0627_u0621 u0020 u0639_u0644_u0649 u0020 u0627_u0644_u0631_u0627_u064a u0020 u0627_u0644_u0627_u0638_u0647_u0631 u0020 u0639_u0646_u062f u0020 u0627_u0644_u0634_u0627_u0641_u0639_u064a_u0647_u002e u0020 u000d", 
        "u0020_u0646_u0635_u064a_u0628 u0020 u0645_u0646 u0020 u0627_u0644_u0645_u0627_u0644 u0020 u0627_u0644_u0645_u062e_u0635_u0635 u0020 u0644_u0645_u0635_u0627_u0644_u062d u0020 u0627_u0644_u0645_u0633_u0644_u0645_u064a_u0646 u0020 u0639_u0644_u0649 u0020 u0631_u0627_u064a_u0020", 
        "u0627_u0644_u0627_u062d_u0646_u0627_u0641 u0020 u060c u0020 u0641_u0647_u0645 u0020 u064a_u0639_u0637_u0648_u0646 u0020 u0627_u0644_u0645_u0642_u0627_u062a_u0644_u064a_u0646 u0020 u0648_u0630_u0631_u064a_u0627_u062a_u0647_u0645 u0020 u0645_u0646 u0020 u0633_u0647_u0645 u0020 u0645_u0635_u0627_u0644_u062d_u0020", 
        "u0627_u0644_u0645_u0633_u0644_u0645_u064a_u0646 u0020 u002e u0020 u0643_u0645_u0627 u0020 u062e_u0635 u0020 u0627_u0644_u0645_u0627_u0644_u0643_u064a_u0647 u0020 u0627_u0644_u063a_u0632_u0648 u0020 u0648_u0646_u0641_u0642_u0627_u062a_u0647 u0020 u0628_u062c_u0632_u0621 u0020 u0645_u0646_u0020", 
        "u0645_u0635_u0627_u0644_u062d u0020 u0627_u0644_u0645_u0633_u0644_u0645_u064a_u0646_u002e u0020 u000d"
    ]
}