{
    "bounding_box": [
        [
            153, 
            22, 
            343, 
            36
        ], 
        [
            197, 
            78, 
            265, 
            43
        ], 
        [
            296, 
            196, 
            331, 
            25
        ], 
        [
            523, 
            234, 
            105, 
            22
        ], 
        [
            455, 
            276, 
            172, 
            24
        ]
    ], 
    "image_height": 540, 
    "image_width": 720, 
    "transcription": [
        "u0628_u0639_u0636 u0020 u062f_u0644_u0627_u0644_u0627_u062a u0020 u0644_u063a_u0629 u0020 u0627_u0644_u062c_u0633_u062f u0020 u000b", 
        "u0641_u064a u0020 u0627_u0644_u0645_u064a_u062f_u0627_u0646 u0020 u0627_u0644_u062a_u0631_u0628_u0648_u064a_u0020", 
        "u0627_u0644_u0648_u0642_u0648_u0641 u0020 u0639_u0644_u0649 u0020 u0642_u062f_u0645 u0020 u0648_u0627_u062d_u062f_u0647_u060c u0020 u0645_u0639 u0020 u062a_u0645_u0627_u0633_u0643 u0020 u0627_u0644_u0623_u064a_u062f_u064a_u000d", 
        "u0645_u0624_u0634_u0631 u0020 u0639_u0644_u0649 u0020 u003a_u000d", 
        "u0627_u0644_u0627_u0631_u062a_u064a_u0627_u062d u0020 u0627_u0644_u062a_u0627_u0645 u0020 u0644_u0644_u0645_u0642_u0627_u0628_u0644_u002e_u000d"
    ]
}