{
    "bounding_box": [
        [
            92, 
            75, 
            571, 
            26
        ], 
        [
            102, 
            119, 
            562, 
            23
        ], 
        [
            519, 
            164, 
            144, 
            25
        ], 
        [
            96, 
            206, 
            568, 
            26
        ], 
        [
            90, 
            249, 
            574, 
            25
        ], 
        [
            93, 
            335, 
            570, 
            26
        ], 
        [
            102, 
            379, 
            562, 
            26
        ], 
        [
            103, 
            422, 
            561, 
            26
        ], 
        [
            347, 
            467, 
            317, 
            23
        ]
    ], 
    "image_height": 540, 
    "image_width": 720, 
    "transcription": [
        "u2013 u0020 u0627_u0644_u062a_u0643_u0628_u064a_u0631 u0020 u004d_u0061_u0067_u006e_u0069_u0066_u0079 u0020 u003a u0020 u0647_u0648 u0020 u062a_u0643_u0628_u064a_u0631 u0020 u0641_u064a u0020 u0627_u0644_u0634_u0643_u0644 u0020 u0623_u0648 u0020 u0627_u0644_u0646_u0648_u0639 u0020 u0645_u0646 u0020 u062e_u0644_u0627_u0644 u0020 u0627_u0644_u0625_u0636_u0627_u0641_u0629 u0020 u0625_u0644_u064a_u0647_u0020", 
        "u0648_u062c_u0639_u0644_u0647 u0020 u0623_u0643_u062b_u0631 u0020 u0627_u0631_u062a_u0641_u0627_u0639_u0627_u060c u0020 u0623_u0648 u0020 u0623_u0643_u062b_u0631 u0020 u0642_u0648_u0629_u060c u0020 u0623_u0648 u0020 u0623_u0643_u062b_u0640_u0640_u0640_u0640_u0640_u0640_u0640_u0631 u0020 u0633_u0645_u0643_u0627_u060c u0020 u0623_u0648 u0020 u0623_u0643_u062b_u0640_u0640_u0640_u0640_u0640_u0640_u0640_u0640_u0640_u0640_u0640_u0640_u0640_u0640_u0640_u0640_u0640_u0640_u0640_u0640_u0631_u0020", 
        "u0637_u0648_u0644_u0627_u002e_u002e_u002e_u0627_u0644_u0640_u0640_u0640_u0640_u0640_u0640_u0640_u0640_u0640_u0640_u0640_u062e_u002e_u000b", 
        "u2013 u0020 u0627_u0644_u062a_u0635_u063a_u064a_u0631 u0020 u004d_u0069_u006e_u0069_u0066_u0079 u0020 u003a u0020 u0647_u0648 u0020 u062a_u0635_u063a_u064a_u0631 u0020 u0627_u0644_u0634_u064a_u0621 u0020 u0644_u064a_u0643_u0648_u0646 u0020 u0623_u0635_u063a_u0631 u0020 u0623_u0648 u0020 u0623_u0642_u0644 u0020 u0645_u0646 u0020 u062e_u0640_u0640_u0640_u0640_u0640_u0640_u0644_u0627_u0644_u0020", 
        "u062c_u0639_u0644_u0647 u0020 u0623_u0635_u063a_u0631_u060c u0020 u0623_u0648 u0020 u0623_u062e_u0641_u060c u0020 u0623_u0648 u0020 u0623_u0628_u0637_u0623_u060c u0020 u0623_u0648 u0020 u0623_u0642_u0644 u0020 u062d_u062f_u0648_u062b_u0627 u0020 u0648_u062a_u0643_u0631_u0627_u0631_u0627_u060c u0020 u0623_u0648 u0020 u0623_u0642_u0644 u0020 u0633_u0645_u0627_u0643_u0629_u002e_u002e_u002e_u0627_u0644_u062e_u002e_u000b", 
        "u0035_u002d_u00a0_u0627_u0644_u0627_u0633_u062a_u062e_u062f_u0627_u0645_u0627_u062a u0020 u0627_u0644_u0623_u062e_u0631_u0649 u0020 u0050_u0075_u0074 u0020 u0074_u006f u0020 u004f_u0074_u0068_u0065_u0072 u0020 u0055_u0073_u0065_u0073 u0020 u003a_u00a0_u0627_u0633_u062a_u062e_u062f_u0627_u0645 u0020 u0627_u0644_u0634_u0640_u0640_u0640_u0640_u0640_u0640_u0640_u0640_u0640_u0640_u0640_u0640_u0640_u064a_u0621_u0020", 
        "u0644_u0623_u063a_u0631_u0627_u0636 u0020 u063a_u064a_u0631 u0020 u062a_u0644_u0643 u0020 u0627_u0644_u062a_u064a u0020 u0648_u0636_u0639 u0020 u0645_u0646 u0020 u0623_u062c_u0644_u0647_u0627 u0020 u0623_u0635_u0644_u0627_u002e u0020 u0648_u062a_u062a_u0636_u0645_u0646 u0020 u0627_u0644_u062a_u0633_u0627_u0624_u0644_u0627_u062a u0020 u0627_u0644_u0622_u062a_u064a_u0629_u003a_u0020", 
        "u0645_u0627 u0020 u0647_u0640_u0640_u0640_u0640_u064a u0020 u0627_u0644_u0627_u0633_u062a_u062e_u062f_u0627_u0645_u0627_u062a u0020 u0627_u0644_u062c_u062f_u064a_u062f_u0629_u061f u0020 u0645_u0627 u0020 u0647_u064a u0020 u0627_u0644_u0623_u0645_u0627_u0643_u0646 u0020 u0627_u0644_u0623_u062e_u0631_u0649 u0020 u0627_u0644_u062a_u064a u0020 u064a_u0633_u062a_u062e_u062f_u0645 u0020 u0628_u0647_u0627_u061f_u0020", 
        "u0645_u062a_u0640_u0640_u0640_u0640_u0640_u0640_u0640_u0640_u0640_u0649 u0020 u064a_u0633_u062a_u062e_u062f_u0645_u061f u0020 u0648_u0643_u064a_u0641 u0020 u064a_u0633_u062a_u062e_u062f_u0645_u061f_u002e_u002e_u002e_u0627_u0644_u062e_u002e"
    ]
}