{
    "bounding_box": [
        [
            220, 
            62, 
            279, 
            37
        ], 
        [
            341, 
            410, 
            339, 
            27
        ], 
        [
            48, 
            449, 
            633, 
            23
        ], 
        [
            65, 
            477, 
            615, 
            24
        ], 
        [
            286, 
            123, 
            389, 
            25
        ], 
        [
            60, 
            157, 
            595, 
            26
        ], 
        [
            60, 
            186, 
            595, 
            25
        ], 
        [
            535, 
            216, 
            120, 
            24
        ], 
        [
            193, 
            242, 
            461, 
            33
        ], 
        [
            73, 
            286, 
            581, 
            24
        ], 
        [
            309, 
            318, 
            345, 
            24
        ], 
        [
            548, 
            355, 
            106, 
            22
        ], 
        [
            271, 
            388, 
            405, 
            25
        ]
    ], 
    "image_height": 540, 
    "image_width": 720, 
    "transcription": [
        "u0623_u0633_u0626_u0644_u0629 u0020 u0627_u0644_u0645_u0633_u062a_u0648_u0649 u0020 u0627_u0644_u062b_u0627_u0644_u062b", 
        "u0020_u0627_u0644_u0643_u0644_u0645_u0627_u062a u0020 u0627_u0644_u0645_u0641_u062a_u0627_u062d_u064a_u0629 u0020 u0644_u0623_u0633_u0626_u0644_u0629 u0020 u0627_u0644_u0634_u0631_u062d u0020 u0648_u0627_u0644_u062a_u0641_u0633_u064a_u0631_u003a_u000d", 
        "u0627_u0634_u0631_u062d u0020 u002e_u002e_u002e_u002e_u002d u0020 u0636_u0639 u0020 u0628_u0639_u0628_u0627_u0631_u0629 u0020 u0645_u0646 u0020 u0639_u0646_u062f_u0643 u0020 u002e_u002e_u002e u0020 u2013 u0020 u0627_u0636_u0631_u0628 u0020 u0645_u062b_u0627_u0644_u0627 u0020 u002e_u002e_u002e_u002e u0020 u2013 u0020 u062d_u0644 u0020 u0627_u0644_u062a_u0645_u0631_u064a_u0646 u0020 u0627_u0644_u0622_u062a_u064a u0020 u002e_u002e_u002e u0020 u2013_u0020", 
        "u0627_u0633_u062a_u062e_u0644_u0635 u0020 u0627_u0644_u0639_u0644_u0627_u0642_u0629 u0020 u002e_u002e_u002e u0020 u2013 u0020 u0639_u0644_u0644 u0020 u002e_u002e_u002e_u002d u0020 u0648_u0636_u062d u0020 u0623_u0633_u0628_u0627_u0628 u0020 u002e_u002e_u002e u0020 u2013 u0020 u0646_u0627_u0642_u0634 u0020 u0645_u0627 u0020 u064a_u0623_u062a_u064a u0020 u002e_u002e_u002e_u002e_u002d u0020 u0644_u0645_u0627_u0630_u0627_u002e_u002e_u002e_u061f_u0020", 
        "u0020_u0623_u0633_u0626_u0644_u0629 u0020 u0627_u0644_u0634_u0631_u062d u0020 u0648_u0627_u0644_u062a_u0641_u0633_u064a_u0631 u0020 u003a u0020 u0648_u0641_u064a_u0647_u0627 u0020 u064a_u0637_u0644_u0628 u0020 u0645_u0646 u0020 u0627_u0644_u0637_u0627_u0644_u0628_u003a_u000d", 
        "u0020_u0634_u0631_u062d u0020 u0623_u0648 u0020 u062a_u0648_u0636_u064a_u062d u0020 u0641_u0643_u0631_u0629 u0020 u0623_u0648 u0020 u0646_u0635 u0020 u0645_u0639_u064a_u0646 u0020 u0628_u0623_u0633_u0644_u0648_u0628_u0647 u0020 u0627_u0644_u062e_u0627_u0635_u0028 u0020 u0634_u0631_u062d u0020 u003a u0020 u0622_u064a_u0627_u062a u0020 u0642_u0631_u0622_u0646_u064a_u0629 u0020 u2013_u0020", 
        "u062d_u062f_u064a_u062b u0020 u0634_u0631_u064a_u0641 u0020 u2013 u0020 u0642_u0635_u064a_u062f_u0629 u0020 u0634_u0639_u0631_u064a_u0629 u0020 u2013 u0020 u0645_u0642_u0627_u0644_u0629 u0020 u2013 u0020 u0642_u0627_u0639_u062f_u0629 u0020 u0646_u062d_u0648_u064a_u0629 u0020 u002d u0020 u002e_u002e_u002e_u0029 u0020 u0648_u064a_u0643_u0648_u0646 u0020 u0647_u0630_u0627_u0020", 
        "u0627_u0644_u0634_u0631_u062d u0020 u0645_u0623_u0644_u0648_u0641_u002e_u000d", 
        "u062d_u0644 u0020 u062a_u062f_u0631_u064a_u0628_u0627_u062a u0020 u0648_u062a_u0645_u0627_u0631_u064a_u0646 u0020 u0645_u0639_u062a_u0627_u062f_u0629 u0020 u062a_u0634_u0628_u0647 u0020 u0646_u0648_u0639_u0627 u0020 u0645_u0627 u0020 u0633_u0628_u0642 u0020 u0644_u0647 u0020 u062f_u0631_u0627_u0633_u062a_u0647_u002e_u000d", 
        "u0627_u0633_u062a_u062e_u0644_u0627_u0635 u0020 u0627_u0644_u0646_u062a_u0627_u0626_u062c u0020 u0648_u0627_u0644_u0645_u062a_u0636_u0645_u0646_u0627_u062a u0020 u0645_u0646 u0020 u0627_u0644_u0646_u0635_u0648_u0635 u0020 u0648_u0627_u0644_u0645_u0639_u0644_u0648_u0645_u0627_u062a u0020 u0627_u0644_u0628_u0633_u064a_u0637_u0629 u0020 u0627_u0644_u0645_u0639_u0637_u0627_u0629_u002e_u000d", 
        "u0627_u0644_u062a_u0639_u0644_u064a_u0644 u0020 u0644_u0644_u0645_u0648_u0627_u0642_u0641 u0020 u0648_u0627_u0644_u0623_u062d_u062f_u0627_u062b u0020 u0648_u0627_u0644_u0638_u0648_u0627_u0647_u0631 u0020 u0627_u0644_u0633_u0647_u0644_u0629_u002e_u000d", 
        "u0636_u0631_u0628 u0020 u0627_u0644_u0623_u0645_u062b_u0644_u0629_u000d", 
        "u0020_u0645_u062b_u0627_u0644_u003a u0020 u0020 u0020 u0645_u0627 u0020 u0627_u0644_u0641_u0643_u0631_u0629 u0020 u0627_u0644_u0631_u0626_u064a_u0633_u0629 u0020 u0644_u0645_u0642_u0627_u0644 u0020 u00ab u0020 u062b_u0648_u0631_u0629 u0020 u0627_u0644_u0634_u0628_u0627_u0628 u0020 u00ab_u061f_u000d"
    ]
}