{
    "bounding_box": [
        [
            43, 
            49, 
            348, 
            39
        ], 
        [
            40, 
            133, 
            579, 
            33
        ], 
        [
            112, 
            172, 
            506, 
            31
        ], 
        [
            62, 
            210, 
            557, 
            33
        ], 
        [
            88, 
            247, 
            531, 
            32
        ]
    ], 
    "image_height": 540, 
    "image_width": 720, 
    "transcription": [
        "u0644_u063a_u0629 u0020 u062a_u0639_u0631_u064a_u0641 u0020 u0627_u0644_u0628_u064a_u0627_u0646_u0627_u062a u0020 u0044_u0044_u004c", 
        "u062a_u0636_u0645 u0020 u0643_u0627_u0641_u0629 u0020 u0627_u0644_u0623_u0648_u0627_u0645_u0631 u0020 u0627_u0644_u062e_u0627_u0635_u0629 u0020 u0628_u0639_u0645_u0644_u064a_u0629 u0020 u0627_u0644_u0625_u0646_u0634_u0627_u0621 u0020 u0623_u0648 u0020 u0627_u0644_u062a_u0637_u0648_u064a_u0631 u0020 u0645_u062b_u0644_u0020", 
        "u0623_u0648_u0627_u0645_u0631 u0020 u0627_u0644_u0625_u0646_u0634_u0627_u0621 u0020 u0063_u0072_u0065_u0061_u0074_u0065 u0020 u0648_u0623_u0645_u0631 u0020 u0627_u0644_u062d_u0630_u0641 u0020 u0044_u0052_u004f_u0050 u0020 u0648_u0623_u0645_u0631_u0020", 
        "u0627_u0644_u0648_u0635_u0641 u0020 u0044_u0045_u0053_u0043_u0052_u0049_u0042_u0045 u0020 u0648_u0623_u0645_u0631 u0020 u0627_u0644_u062a_u0639_u062f_u064a_u0644 u0020 u0041_u004c_u0054_u0045_u0052 u0020 u0648_u0647_u064a u0020 u062a_u0639_u0645_u0644_u0020", 
        "u0639_u0644_u0649 u0020 u0627_u0644_u062c_u062f_u0627_u0648_u0644 u0020 u0648_u062d_u0642_u0648_u0644_u0647_u0627 u0020 u062f_u0648_u0646 u0020 u0627_u0644_u062a_u0639_u0631_u0636 u0020 u0646_u0647_u0627_u0626_u064a_u0627_u064b u0020 u0644_u0644_u0628_u064a_u0627_u0646_u0627_u062a u0020 u002e_u000d"
    ]
}