{
    "bounding_box": [
        [
            310, 
            76, 
            92, 
            19
        ], 
        [
            173, 
            102, 
            361, 
            21
        ], 
        [
            302, 
            130, 
            109, 
            21
        ], 
        [
            221, 
            158, 
            272, 
            20
        ], 
        [
            127, 
            189, 
            432, 
            20
        ], 
        [
            309, 
            222, 
            95, 
            19
        ], 
        [
            176, 
            253, 
            326, 
            17
        ], 
        [
            310, 
            283, 
            56, 
            16
        ], 
        [
            285, 
            314, 
            107, 
            16
        ], 
        [
            301, 
            339, 
            75, 
            17
        ], 
        [
            290, 
            370, 
            133, 
            13
        ], 
        [
            331, 
            396, 
            51, 
            14
        ], 
        [
            321, 
            423, 
            72, 
            16
        ], 
        [
            664, 
            511, 
            12, 
            8
        ]
    ], 
    "image_height": 540, 
    "image_width": 720, 
    "transcription": [
        "u0627_u0633_u0645 u0020 u0627_u0644_u0645_u0634_u0631_u0648_u0639_u000d", 
        "u0627_u0644_u0645_u0634_u0627_u0631_u0643_u0629 u0020 u0641_u064a u0020 u0627_u0644_u062f_u0648_u0631_u0629 u0020 u0627_u0644_u0631_u0627_u0628_u0639_u0629 u0020 u0644_u0644_u0645_u0639_u0631_u0636 u0020 u0627_u0644_u0645_u063a_u0631_u0628_u064a u0020 u0627_u0644_u0625_u0633_u0628_u0627_u0646_u064a u0020 u000d", 
        "u0623_u0647_u062f_u0627_u0641 u0020 u0627_u0644_u0645_u0634_u0631_u0648_u0639_u000d", 
        "u002d u0020 u062a_u0639_u0632_u064a_u0632 u0020 u0627_u0644_u062a_u0639_u0627_u0648_u0646 u0020 u0628_u064a_u0646 u0020 u062c_u0647_u0629 u0020 u0627_u0644_u0631_u0628_u0627_u0637 u0020 u0648_u0627_u0644_u0623_u0646_u062f_u0644_u0633_u002e_u000d", 
        "u062a_u0648_u0633_u064a_u0639 u0020 u062f_u0627_u0626_u0631_u0629 u0020 u0627_u0644_u062a_u0639_u0627_u0648_u0646 u0020 u0628_u064a_u0646 u0020 u0627_u0644_u063a_u0631_u0641_u0629 u0020 u0648 u0020 u062c_u0645_u0639_u064a_u0629 u0020 u0631_u062c_u0627_u0644 u0020 u0627_u0644_u0623_u0639_u0645_u0627_u0644 u0020 u0648_u0627_u0644_u0635_u0646_u0627_u0639_u064a_u064a_u0646_u000d", 
        "u0627_u0644_u0645_u0633_u062a_u0641_u064a_u062f_u0648_u0646_u000d", 
        "u0627_u0644_u062a_u062c_u0627_u0631 u0020 u060c u0020 u0627_u0644_u0635_u0646_u0627_u0639_u064a_u0648_u0646 u0020 u0648 u0020 u0627_u0644_u062e_u062f_u0645_u0627_u062a_u064a_u0648_u0646 u0020 u0627_u0644_u0645_u0646_u062a_u0645_u0648_u0646 u0020 u0644_u0644_u0648_u0644_u0627_u064a_u0629_u002e_u000d", 
        "u0627_u0644_u0634_u0631_u0643_u0627_u0621_u000d", 
        "u0048_u0069_u0073_u0070_u0061 u0020 u004d_u0061_u0072_u006f_u0063_u000d", 
        "u0641_u062a_u0631_u0629 u0020 u0627_u0644_u062a_u0646_u0641_u064a_u0630_u000d", 
        "u0020_u0646_u0648_u0646_u0628_u0631 u0020 u002f u0020 u062f_u062c_u0646_u0628_u0631 u0020 u0032_u0030_u0031_u0032_u000d", 
        "u0627_u0644_u062a_u0645_u0648_u064a_u0644_u000d", 
        "u0627_u0644_u0645_u0634_u0627_u0631_u0643_u0648_u0646_u000d", 
        "u0032_u0037"
    ]
}