{
    "bounding_box": [
        [
            90, 
            54, 
            596, 
            34
        ], 
        [
            86, 
            92, 
            578, 
            35
        ], 
        [
            59, 
            134, 
            605, 
            30
        ], 
        [
            94, 
            174, 
            571, 
            31
        ], 
        [
            104, 
            214, 
            561, 
            30
        ], 
        [
            61, 
            251, 
            604, 
            30
        ], 
        [
            44, 
            285, 
            621, 
            35
        ], 
        [
            76, 
            325, 
            589, 
            34
        ], 
        [
            43, 
            360, 
            622, 
            37
        ], 
        [
            42, 
            401, 
            623, 
            33
        ], 
        [
            107, 
            444, 
            558, 
            29
        ]
    ], 
    "image_height": 540, 
    "image_width": 720, 
    "transcription": [
        "u0020 u0020 u0648_u062a_u0639_u062a_u0645_u062f u0020 u062f_u0648_u0644 u0020 u063a_u0631_u0628 u0020 u0623_u0648_u0631_u0648_u0628_u0627 u0020 u0627_u0644_u0635_u0646_u0627_u0639_u064a_u0629 u0020 u0648_u0643_u0630_u0627 u0020 u0627_u0644_u0648_u0644_u0627_u064a_u0627_u062a u0020 u0627_u0644_u0645_u062a_u062d_u062f_u0629_u0020", 
        "u0627_u0639_u062a_u0645_u0627_u062f_u0627_u064b u0020 u0643_u0628_u064a_u0631_u0627_u064b u0020 u0639_u0644_u0649 u0020 u0628_u062a_u0631_u0648_u0644 u0020 u0627_u0644_u0634_u0631_u0642 u0020 u0627_u0644_u0623_u0648_u0633_u0637 u0020 u002c u0020 u0648_u0645_u0646 u0020 u0647_u0646_u0627 u0020 u062a_u062a_u0632_u0627_u064a_u062f_u0020", 
        "u0628_u0627_u0633_u062a_u0645_u0631_u0627_u0631 u0020 u0627_u0644_u0623_u0647_u0645_u064a_u0629 u0020 u0627_u0644_u0627_u0633_u062a_u0631_u0627_u062a_u064a_u062c_u064a_u0629 u0020 u0644_u0647_u0630_u0647 u0020 u0627_u0644_u0645_u0646_u0637_u0642_u0629 u0020 u0648_u0633_u0627_u0639_u062f u0020 u0639_u0644_u0649 u0020 u0630_u0644_u0643_u0020", 
        "u0627_u0644_u0639_u0648_u0627_u0626_u062f u0020 u0627_u0644_u0636_u062e_u0645_u0629 u0020 u0627_u0644_u062a_u064a u0020 u062a_u062f_u0641_u0642_u062a u0020 u0639_u0644_u0649 u0020 u062f_u0648_u0644 u0020 u0627_u0644_u0646_u0641_u0637 u0020 u0628_u0647 u0020 u062e_u0627_u0635_u0629 u0020 u0628_u0639_u062f_u0020", 
        "u0627_u0644_u0632_u064a_u0627_u062f_u0629 u0020 u0627_u0633_u0639_u0627_u0631_u0647 u0020 u0639_u062f_u0629 u0020 u0645_u0631_u0627_u062a u0020 u0641_u064a_u0645_u0627 u0020 u0628_u0639_u062f u0020 u062d_u0631_u0628 u0020 u0627_u0643_u062a_u0648_u0628_u0631 u0020 u0031_u0039_u0037_u0033_u0645_u0020", 
        "u0648_u0641_u0631_u0636 u0020 u062d_u0638_u0631 u0020 u0639_u0644_u0649 u0020 u062a_u0635_u062f_u064a_u0631 u0020 u0627_u0644_u0646_u0641_u0637 u0020 u0645_u0646 u0020 u0645_u0639_u0638_u0645 u0020 u0627_u0644_u062f_u0648_u0644 u0020 u0627_u0644_u0639_u0631_u0628_u064a_u0629 u0020 u0625_u0644_u0649_u0020", 
        "u0627_u0648_u0631_u0648_u0628_u0627 u0020 u0627_u0644_u063a_u0631_u0628_u064a_u0629 u0020 u0648_u0627_u0644_u0648_u0644_u0627_u064a_u0627_u062a u0020 u0627_u0644_u0645_u062a_u062d_u062f_u0647 u0020 u0643_u0639_u0627_u0645_u0644 u0020 u0645_u0633_u0627_u0639_u062f u0020 u064a_u0645_u0643_u0646 u0020 u0623_u0646 u0020 u064a_u0633_u0647_u0645_u0020", 
        "u0641_u064a u0020 u062a_u062d_u0642_u064a_u0642 u0020 u0628_u0639_u0636 u0020 u0627_u0644_u0623_u0645_u0627_u0646_u064a u0020 u0627_u0644_u0639_u0631_u0628_u064a_u0629 u0020 u0641_u064a u0020 u0623_u0639_u0642_u0627_u0628 u0020 u062a_u0644_u0643 u0020 u0627_u0644_u062d_u0631_u0628_u002e u0020 u0623_u0645_u0627_u0020", 
        "u0627_u0644_u0637_u0627_u0642_u0629 u0020 u0627_u0644_u0630_u0631_u064a_u0629 u0020 u0641_u064a_u0645_u0643_u0646 u0020 u0623_u0646 u0020 u062a_u0643_u0648_u0646 u0020 u0645_u0635_u062f_u0631_u0627_u064b u0020 u0643_u0628_u064a_u0631_u0627_u064b u0020 u0644_u0644_u0642_u0648_u0649 u0020 u0627_u0644_u0645_u062d_u0631_u0643_u0629 u0020 u0641_u064a_u0020", 
        "u0627_u0644_u0645_u0633_u062a_u0642_u0628_u0644 u0020 u0648_u0644_u0643_u0646 u0020 u0645_u0627_u0632_u0627_u0644 u0020 u0625_u0633_u062a_u062e_u062f_u0627_u0645_u0647_u0627 u0020 u0645_u0642_u062a_u0635_u0631_u0627_u064b u0020 u062d_u062a_u0649 u0020 u0627_u0644_u0622_u0646 u0020 u0639_u0644_u0649 u0020 u0628_u0639_u0636_u0020", 
        "u0627_u0644_u062f_u0648_u0644 u0020 u0627_u0644_u0645_u062a_u0642_u062f_u0645_u0647 u0020 u0645_u062b_u0644 u0020 u0627_u0644_u0648_u0644_u0627_u064a_u0627_u062a u0020 u0627_u0644_u0645_u062a_u062d_u062f_u0647 u0020 u0648_u0628_u0631_u064a_u0637_u0627_u0646_u064a_u0627 u0020 u0648_u0641_u0631_u0646_u0633_u0627 u0020 u002c_u0020"
    ]
}