{
    "bounding_box": [
        [
            445, 
            25, 
            191, 
            25
        ], 
        [
            224, 
            61, 
            431, 
            26
        ], 
        [
            442, 
            95, 
            199, 
            26
        ], 
        [
            574, 
            137, 
            67, 
            20
        ], 
        [
            597, 
            179, 
            44, 
            16
        ], 
        [
            464, 
            240, 
            178, 
            25
        ], 
        [
            300, 
            288, 
            362, 
            21
        ], 
        [
            581, 
            314, 
            68, 
            21
        ], 
        [
            575, 
            340, 
            74, 
            20
        ], 
        [
            582, 
            366, 
            67, 
            20
        ], 
        [
            564, 
            393, 
            85, 
            19
        ], 
        [
            601, 
            420, 
            48, 
            13
        ], 
        [
            577, 
            444, 
            72, 
            19
        ]
    ], 
    "image_height": 540, 
    "image_width": 720, 
    "transcription": [
        "u0645_u062c_u0645_u0648_u0639_u0629 u0020 u0623_u0646_u0645_u0627_u0637 u0020 u0627_u0644_u062c_u062f_u0648_u0644", 
        "u062a_u0633_u0645_u062d u0020 u0645_u062c_u0645_u0648_u0639_u062a_u0646_u0627 u0020 u0627_u0644_u0645_u0642_u0628_u0644_u0629 u0020 u0628_u0627_u0644_u062a_u062d_u0643_u0645 u0020 u0641_u064a u0020 u0645_u0638_u0647_u0631 u0020 u0627_u0644_u062c_u062f_u0648_u0644_u002e_u000d", 
        "u0645_u0639_u0631_u0636 u0020 u0623_u0646_u0645_u0627_u0637 u0020 u0627_u0644_u062c_u062f_u0648_u0644 u0020 u000d", 
        "u0627_u0644_u062a_u0638_u0644_u064a_u0644_u000d", 
        "u062d_u062f_u0648_u062f", 
        "u0645_u062c_u0645_u0648_u0639_u0629 u0020 u0631_u0633_u0645 u0020 u0627_u0644_u062d_u062f_u0648_u062f", 
        "u062a_u062a_u064a_u062d u0020 u0647_u0630_u0647 u0020 u0627_u0644_u0645_u062c_u0645_u0648_u0639_u0629 u0020 u062a_u062e_u0635_u064a_u0635 u0020 u0627_u0644_u062d_u062f_u0648_u062f u0020 u0641_u064a u0020 u0627_u0644_u062c_u062f_u0648_u0644_u002e_u000d", 
        "u0646_u0645_u0637 u0020 u0627_u0644_u0642_u0644_u0645_u000d", 
        "u0648_u0632_u0646 u0020 u0627_u0644_u0642_u0644_u0645_u000d", 
        "u0644_u0648_u0646 u0020 u0627_u0644_u0642_u0644_u0645_u000d", 
        "u0631_u0633_u0645 u0020 u062c_u062f_u0648_u0644_u000d", 
        "u0645_u0645_u062d_u0627_u0629_u000d", 
        "u0632_u0631 u0020 u0627_u0644_u062e_u064a_u0627_u0631"
    ]
}