{
    "bounding_box": [
        [
            131, 
            47, 
            475, 
            38
        ], 
        [
            491, 
            149, 
            125, 
            22
        ], 
        [
            488, 
            184, 
            127, 
            23
        ], 
        [
            369, 
            222, 
            246, 
            25
        ], 
        [
            323, 
            262, 
            293, 
            25
        ], 
        [
            398, 
            300, 
            218, 
            24
        ], 
        [
            303, 
            337, 
            313, 
            25
        ], 
        [
            460, 
            378, 
            156, 
            24
        ], 
        [
            382, 
            411, 
            234, 
            29
        ], 
        [
            417, 
            452, 
            199, 
            25
        ]
    ], 
    "image_height": 540, 
    "image_width": 720, 
    "transcription": [
        "u0645_u062a_u0637_u0644_u0628_u0627_u062a u0020 u062a_u0637_u0628_u064a_u0642 u0020 u0627_u0644_u0625_u062f_u0627_u0631_u0629 u0020 u0627_u0644_u0627_u0644_u0643_u062a_u0631_u0648_u0646_u064a_u0629", 
        "u062a_u0648_u0641_u0631 u0020 u0627_u0644_u0627_u0631_u0627_u062f_u0629_u002e_u000d", 
        "u0627_u0644_u0628_u0646_u064a_u0629 u0020 u0627_u0644_u062a_u062d_u062a_u064a_u0629_u002e_u000d", 
        "u062a_u0648_u0641_u064a_u0631 u0020 u0627_u0644_u0648_u0633_u0627_u0626_u0644 u0020 u0627_u0644_u0627_u0644_u0643_u062a_u0631_u0648_u0646_u064a_u0629_u002e_u000d", 
        "u062a_u0648_u0641_u064a_u0631 u0020 u0627_u0644_u0648_u0635_u0648_u0644 u0020 u0644_u0634_u0628_u0643_u0629 u0020 u0627_u0644_u0627_u0646_u062a_u0631_u0646_u062a_u002e_u000d", 
        "u0627_u0644_u062a_u062f_u0631_u064a_u0628 u0020 u0648_u0628_u0646_u0627_u0621 u0020 u0627_u0644_u0642_u062f_u0631_u0627_u062a_u002e_u000d", 
        "u062a_u0648_u0627_u0641_u0631 u0020 u0645_u0633_u062a_u0648_u0649 u0020 u0645_u0646_u0627_u0633_u0628 u0020 u0645_u0646 u0020 u0627_u0644_u062a_u0645_u0648_u064a_u0644_u002e_u000d", 
        "u0648_u062c_u0648_u062f u0020 u062a_u0634_u0631_u064a_u0639_u0627_u062a_u002e_u000d", 
        "u0627_u0644_u0627_u0647_u062a_u0645_u0627_u0645 u0020 u0628_u0623_u0645_u0646 u0020 u0627_u0644_u0645_u0639_u0644_u0648_u0645_u0627_u062a_u002e_u000d", 
        "u062e_u0637_u0629 u0020 u062a_u0633_u0648_u064a_u0642_u064a_u0629 u0020 u062f_u0639_u0627_u0626_u064a_u0629_u002e_u000d"
    ]
}