{
    "bounding_box": [
        [
            363, 
            46, 
            289, 
            26
        ], 
        [
            167, 
            108, 
            482, 
            29
        ], 
        [
            123, 
            142, 
            527, 
            28
        ], 
        [
            144, 
            173, 
            505, 
            29
        ], 
        [
            580, 
            206, 
            69, 
            21
        ]
    ], 
    "image_height": 540, 
    "image_width": 720, 
    "transcription": [
        "u0627_u0633_u062a_u062e_u062f_u0627_u0645 u0020 u0645_u0631_u0643_u0632 u0020 u0627_u0644_u0634_u0631_u0648_u0639 u0020 u0641_u064a u0020 u0627_u0644_u0639_u0645_u0644", 
        "u0644_u0627_u0633_u062a_u0639_u0631_u0627_u0636 u0020 u0645_u0631_u0643_u0632 u0020 u0627_u0644_u0634_u0631_u0648_u0639 u0020 u0641_u064a u0020 u0627_u0644_u0639_u0645_u0644_u060c u0020 u0627_u0646_u0642_u0631 u0020 u0639_u0644_u0649 u0020 u0632_u0631 u0020 u0627_u0628_u062f_u0623_u002e_u0020", 
        "u0648_u064a_u062c_u0628 u0020 u0623_u0646 u0020 u064a_u0643_u0648_u0646 u0020 u0639_u0646_u0635_u0631 u0020 u0627_u0644_u0634_u0631_u0648_u0639 u0020 u0641_u064a u0020 u0627_u0644_u0639_u0645_u0644 u0020 u0645_u0648_u062c_u0648_u062f_u0627 u0020 u0628_u0627_u0644_u0642_u0631_u0628 u0020 u0645_u0646_u0020", 
        "u0623_u0639_u0644_u0649 u0020 u0627_u0644_u0642_u0627_u0626_u0645_u0629_u002e u0020 u0627_u0646_u0642_u0631 u0020 u0639_u0644_u0649 u0020 u0647_u0630_u0627 u0020 u0627_u0644_u0639_u0646_u0635_u0631 u0020 u0644_u0641_u062a_u062d u0020 u0645_u0631_u0643_u0632 u0020 u0627_u0644_u0634_u0631_u0648_u0639 u0020 u0641_u064a_u0020", 
        "u0627_u0644_u0639_u0645_u0644_u002e u0020 u000d"
    ]
}