{
    "bounding_box": [
        [
            155, 
            36, 
            412, 
            42
        ], 
        [
            378, 
            321, 
            272, 
            30
        ], 
        [
            188, 
            124, 
            461, 
            30
        ], 
        [
            213, 
            471, 
            439, 
            30
        ], 
        [
            94, 
            394, 
            555, 
            30
        ], 
        [
            96, 
            195, 
            554, 
            29
        ], 
        [
            65, 
            225, 
            585, 
            29
        ], 
        [
            261, 
            256, 
            389, 
            28
        ], 
        [
            670, 
            518, 
            6, 
            1
        ]
    ], 
    "image_height": 540, 
    "image_width": 720, 
    "transcription": [
        "u0627_u0644_u0623_u0647_u062f_u0627_u0641 u0020 u0627_u0644_u0631_u0626_u064a_u0633_u064a_u0629 u0020 u0644_u0644_u0627_u0633_u062a_u0631_u0627_u062a_u064a_u062c_u064a_u0629_u0020", 
        "u0627_u0644_u0627_u0631_u062a_u0642_u0627_u0621 u0020 u0628_u062c_u0648_u062f_u0629 u0020 u0646_u0638_u0627_u0645 u0020 u0627_u0644_u062a_u0639_u0644_u064a_u0645_u000d", 
        "u0628_u0646_u0627_u0621 u0020 u0646_u0638_u0627_u0645 u0020 u0641_u0627_u0639_u0644 u0020 u0644_u0625_u062f_u0627_u0631_u0629 u0020 u0020_u0648_u062d_u0648_u0643_u0645_u0629 u0020 u0642_u0637_u0627_u0639 u0020 u0627_u0644_u062a_u0639_u0644_u064a_u0645_u002e_u000d", 
        "u0628_u0646_u0627_u0621 u0020 u0646_u0638_u0627_u0645 u0020 u062a_u0645_u0648_u064a_u0644 u0020 u0641_u0627_u0639_u0644 u0020 u0648_u0645_u0633_u062a_u062f_u0627_u0645 u0020 u0644_u0642_u0637_u0627_u0639 u0020 u0627_u0644_u062a_u0639_u0644_u064a_u0645", 
        "u062a_u0639_u0632_u064a_u0632 u0020 u0627_u0644_u0627_u0628_u062a_u0643_u0627_u0631 u0020 u0648_u0627_u0644_u0625_u0628_u062f_u0627_u0639 u0020 u0648_u0627_u0644_u0628_u062d_u062b u0020 u0627_u0644_u0639_u0644_u0645_u064a u0020 u0641_u064a u0020 u0642_u0637_u0627_u0639 u0020 u0627_u0644_u062a_u0639_u0644_u064a_u0645", 
        "u062a_u062d_u0642_u064a_u0642 u0020 u0645_u0639_u062f_u0644_u0627_u062a u0020 u0627_u0644_u062a_u062d_u0627_u0642 u0020 u0639_u0627_u0644_u064a_u0629 u0020 u0628_u0627_u0644_u062a_u0639_u0644_u064a_u0645 u0020 u0648_u0628_u0642_u0627_u0621 u0020 u0627_u0644_u0637_u0644_u0627_u0628 u0020 u0639_u0628_u0631_u0020", 
        "u0627_u0644_u0645_u0631_u0627_u062d_u0644 u0020 u0627_u0644_u062a_u0639_u0644_u064a_u0645_u064a_u0629 u0020 u0627_u0644_u0645_u062e_u062a_u0644_u0641_u0629 u0020 u0648_u062a_u062d_u0642_u064a_u0642 u0020 u0627_u0644_u0645_u0648_u0627_u0621_u0645_u0629 u0020 u0628_u064a_u0646 u0020 u0645_u062e_u0631_u062c_u0627_u062a_u0020", 
        "u0646_u0638_u0627_u0645 u0020 u0627_u0644_u062a_u0639_u0644_u064a_u0645 u0020 u0648_u0645_u062a_u0637_u0644_u0628_u0627_u062a u0020 u0642_u0637_u0627_u0639_u0627_u062a u0020 u0627_u0644_u0639_u0645_u0644_u002e_u000d", 
        "u0039"
    ]
}