{
    "bounding_box": [
        [
            14, 
            27, 
            584, 
            43
        ], 
        [
            328, 
            79, 
            305, 
            35
        ], 
        [
            216, 
            123, 
            382, 
            38
        ], 
        [
            14, 
            171, 
            584, 
            43
        ], 
        [
            14, 
            223, 
            619, 
            35
        ], 
        [
            420, 
            271, 
            213, 
            35
        ], 
        [
            201, 
            315, 
            397, 
            38
        ], 
        [
            14, 
            367, 
            584, 
            39
        ], 
        [
            14, 
            411, 
            619, 
            39
        ], 
        [
            440, 
            463, 
            193, 
            35
        ]
    ], 
    "image_height": 540, 
    "image_width": 720, 
    "transcription": [
        "u0648_u062a_u0642_u0633_u0645 u0020 u0623_u062d_u064a_u0627_u0621 u0020 u0645_u062c_u0647_u0631_u064a_u0629 u0020 u0627_u0644_u062a_u0631_u0628_u0629 u0020 u062d_u0633_u0628 u0020 u0645_u0635_u0627_u062f_u0631_u0020", 
        "u0627_u0644_u0637_u0627_u0642_u0629 u0020 u0648_u0627_u0644_u0643_u0627_u0631_u0628_u0648_u0646 u0020 u0625_u0644_u0649 u0020 u003a_u002d_u000d", 
        "u002e_u0031 u0020 u0623_u062d_u064a_u0627_u0621 u0020 u0630_u0627_u062a_u064a_u0629 u0020 u0627_u0644_u062a_u063a_u0630_u064a_u0629 u0020 u0636_u0648_u0626_u064a_u0627 u0020 u003a_u000d", 
        "u0648_u0647_u0630_u0647 u0020 u0627_u0644_u0623_u062d_u064a_u0627_u0621 u0020 u062a_u0633_u062a_u0639_u0645_u0644 u0020 u063a_u0627_u0632 u0020 u062b_u0646_u0627_u0626_u064a u0020 u0627_u0648_u0643_u0633_u064a_u062f_u0020", 
        "u0627_u0644_u0643_u0627_u0631_u0628_u0648_u0646 u0020 u0643_u0645_u0635_u062f_u0631 u0020 u0644_u0644_u0643_u0627_u0631_u0628_u0648_u0646 u0020 u0648_u0636_u0648_u0621 u0020 u0627_u0644_u0634_u0645_u0633_u0020", 
        "u0643_u0645_u0635_u062f_u0631 u0020 u0644_u0644_u0637_u0627_u0642_u0629 u0020 u002e_u000d", 
        "u002e_u0032_u0623_u062d_u064a_u0627_u0621 u0020 u0630_u0627_u062a_u064a_u0629 u0020 u0627_u0644_u062a_u063a_u0630_u064a_u0629 u0020 u0643_u064a_u0645_u064a_u0627_u0626_u064a_u0629 u0020 u003a u0020 u000d", 
        "u0648_u0647_u064a u0020 u0627_u0644_u062a_u064a u0020 u062a_u0633_u062a_u0639_u0645_u0644 u0020 u062b_u0646_u0627_u0626_u064a u0020 u0627_u0648_u0643_u0633_u064a_u062f u0020 u0627_u0644_u0643_u0627_u0631_u0628_u0648_u0646_u0020", 
        "u0643_u0645_u0635_u062f_u0631 u0020 u0644_u0644_u0643_u0627_u0631_u0628_u0648_u0646 u0020 u0648_u0623_u0643_u0633_u062f_u0629 u0020 u0627_u0644_u0645_u0631_u0643_u0628_u0627_u062a u0020 u0627_u0644_u0639_u0636_u0648_u064a_u0629_u0020", 
        "u0643_u0645_u0635_u062f_u0631 u0020 u0644_u0644_u0637_u0627_u0642_u0629_u002e"
    ]
}