{
    "bounding_box": [
        [
            248, 
            28, 
            223, 
            39
        ], 
        [
            294, 
            79, 
            373, 
            24
        ], 
        [
            434, 
            108, 
            233, 
            24
        ], 
        [
            566, 
            138, 
            101, 
            21
        ], 
        [
            421, 
            167, 
            246, 
            22
        ], 
        [
            549, 
            195, 
            118, 
            21
        ], 
        [
            575, 
            225, 
            92, 
            20
        ], 
        [
            496, 
            253, 
            171, 
            23
        ], 
        [
            620, 
            283, 
            47, 
            20
        ], 
        [
            607, 
            311, 
            60, 
            21
        ], 
        [
            628, 
            341, 
            39, 
            18
        ], 
        [
            576, 
            371, 
            91, 
            18
        ], 
        [
            556, 
            397, 
            111, 
            21
        ], 
        [
            549, 
            425, 
            118, 
            22
        ], 
        [
            616, 
            455, 
            51, 
            16
        ], 
        [
            554, 
            485, 
            113, 
            19
        ], 
        [
            484, 
            513, 
            183, 
            20
        ]
    ], 
    "image_height": 540, 
    "image_width": 720, 
    "transcription": [
        "u0627_u0644_u0645_u0632_u064a_u062f u0020 u0645_u0646 u0020 u0627_u0644_u0645_u0631_u062d_u0020", 
        "u0627_u0644_u0634_u064a_u0645_u0628_u0627_u0646_u0632_u064a u0020 u0631_u064a_u062a_u0627 u0020 u062d_u0635_u0644_u062a u0020 u0639_u0644_u064a u0020 u0645_u0648_u0627_u062f u0020 u0627_u062b_u0631_u0627_u0621 u0020 u0627_u062e_u0631_u064a u0020 u003a_u000d", 
        "u0639_u0635_u064a_u0631 u0020 u0641_u0627_u0643_u0647_u0629 u0020 u0645_u062c_u0645_u062f u0020 u0639_u0644_u064a u0020 u0639_u0635_u0627_u000d", 
        "u0633_u0639_u0641 u0020 u0627_u0644_u0646_u062e_u064a_u0644_u000d", 
        "u0627_u0646_u0627_u0628_u064a_u0628 u0020 u0643_u0631_u062a_u0648_u0646_u064a_u0629 u0020 u0628_u0647_u0627 u0020 u0628_u0630_u0648_u0631 u0020 u0648 u0020 u0648_u0631_u0642_u000d", 
        "u0627_u0637_u0627_u0631 u0020 u0643_u0627_u0648_u062a_u0634_u0648_u0643_u000d", 
        "u0643_u0631_u0629 u0020 u0628_u0627_u0633_u0643_u062a_u000d", 
        "u0642_u0637_u0639 u0020 u0645_u0646 u0020 u062c_u0630_u0648_u0639 u0020 u0627_u0644_u0634_u062c_u0631_u000d", 
        "u0642_u0645_u0627_u0634_u000d", 
        "u0634_u0631_u064a_u0637_u0629_u000d", 
        "u0643_u062a_u0628_u000d", 
        "u0645_u0648_u0632 u0020 u0645_u062c_u0645_u062f u0020 u000d", 
        "u0627_u062a_u0627_u0628_u064a_u0628 u0020 u0628_u0644_u0627_u0633_u062a_u0643_u000d", 
        "u062c_u0631_u0646 u0020 u0648 u0020 u0645_u0637_u0631_u0642_u0629_u000d", 
        "u0633_u0644_u0633_u0644_u0629_u000d", 
        "u0641_u0631_u0634_u0627_u0629 u0020 u062a_u0646_u0636_u064a_u0641_u000d", 
        "u0641_u0631_u0634_u0627_u0629 u0020 u0648 u0020 u0645_u0639_u062c_u0648_u0646 u0020 u0627_u0633_u0646_u0627_u0646 u0020 u000d"
    ]
}