{
    "bounding_box": [
        [
            26, 
            32, 
            658, 
            33
        ], 
        [
            26, 
            67, 
            658, 
            33
        ], 
        [
            26, 
            101, 
            658, 
            33
        ], 
        [
            26, 
            136, 
            658, 
            33
        ], 
        [
            26, 
            170, 
            658, 
            33
        ], 
        [
            139, 
            206, 
            545, 
            32
        ], 
        [
            26, 
            260, 
            658, 
            34
        ], 
        [
            26, 
            296, 
            658, 
            33
        ], 
        [
            26, 
            330, 
            658, 
            33
        ], 
        [
            26, 
            365, 
            658, 
            33
        ], 
        [
            26, 
            400, 
            658, 
            32
        ], 
        [
            149, 
            435, 
            535, 
            32
        ]
    ], 
    "image_height": 540, 
    "image_width": 720, 
    "transcription": [
        "u0648_u0642_u062f u0020 u062a_u0631_u0643 u0020 u0644_u0646_u0627 u0020 u0627_u0644_u0623_u0637_u0628_u0627_u0621 u0020 u0627_u0644_u0639_u0631_u0628 u0020 u0648_u0627_u0644_u0645_u0633_u0644_u0645_u0648_u0646 u0020 u0627_u0644_u0623_u0648_u0627_u0626_u0644 u0020 u062a_u0631_u0627_u062b_u0627 u0020 u062e_u0627_u0644_u062f_u0627 u0020 u0641_u064a_u0020", 
        "u0627_u0644_u0637_u0628 u0020 u0627_u0644_u0639_u0631_u0628_u064a_u002c u0020 u0648_u0627_u0631_u0633_u0648_u0627 u0020 u062a_u0642_u0627_u0644_u064a_u062f_u0627 u0020 u0631_u0627_u0633_u062e_u0629 u0020 u0641_u064a u0020 u0627_u0644_u0623_u062e_u0644_u0627_u0642 u0020 u0627_u0644_u0637_u0628_u064a_u0629_u0020", 
        "u0648_u0627_u0644_u0633_u0644_u0648_u0643 u0020 u0627_u0644_u0645_u0647_u0646_u064a u0020 u0642_u0627_u0645_u062a u0020 u0639_u0644_u0649 u0020 u0627_u0644_u0645_u0628_u0627_u062f_u0626 u0020 u0627_u0644_u062a_u064a u0020 u0627_u0633_u062a_u0645_u062f_u062a u0020 u0623_u0635_u0648_u0644_u0647_u0627 u0020 u0645_u0646_u0020", 
        "u0627_u0644_u0641_u0642_u0647 u0020 u0627_u0644_u0625_u0633_u0644_u0627_u0645_u064a_u002c u0020 u0625_u0636_u0627_u0641_u0629 u0020 u0625_u0644_u0649 u0020 u0645_u0627_u062a_u0631_u062c_u0645_u0648_u0647 u0020 u0645_u0646 u0020 u0645_u0624_u0644_u0641_u0627_u062a u0020 u0644_u0644_u0623_u0637_u0628_u0627_u0621_u0020", 
        "u0627_u0644_u064a_u0648_u0646_u0627_u0646_u064a_u064a_u0646 u0020 u0645_u062b_u0644 u0020 u0623_u0628_u0642_u0631_u0627_u0637 u0020 u0648 u0020 u062c_u0627_u0644_u064a_u0646_u0648_u0633 u0020 u0648_u0642_u062f u0020 u0643_u0627_u0646 u0020 u0627_u0635_u0637_u0644_u0627_u062d u0020 u0623_u062f_u0628 u0020 u0627_u0644_u0637_u0628_u0020", 
        "u0639_u0646_u062f_u0647_u0645 u0020 u0028_u0647_u0648 u0020 u0645_u0627_u0646_u0637_u0644_u0642 u0020 u0639_u0644_u064a_u0647 u0020 u0627_u0644_u064a_u0648_u0645 u0020 u0627_u0644_u0633_u0644_u0648_u0643 u0020 u0627_u0644_u0645_u0647_u0646_u064a u0020 u0627_u0644_u0637_u0628_u064a_u0029_u002e_u000d", 
        "u0020_u0641_u0642_u062f u0020 u0642_u0627_u0645 u0020 u0623_u062c_u062f_u0627_u062f_u0646_u0627 u0020 u0645_u0646 u0020 u0631_u0648_u0627_u062f u0020 u0627_u0644_u0639_u0631_u0628 u0020 u0648_u0627_u0644_u0645_u0633_u0644_u0645_u064a_u0646 u0020 u0645_u062b_u0644 u0020 u0627_u0644_u0637_u0628_u0631_u064a_u0020", 
        "u0648_u0627_u0644_u0631_u0627_u0632_u064a u0020 u0648_u0627_u0628_u0646 u0020 u0633_u064a_u0646_u0627 u0020 u0628_u0635_u0642_u0644 u0020 u0648_u062a_u062c_u062f_u064a_u062f u0020 u0648_u0625_u0636_u0627_u0641_u0629 u0020 u0623_u0633_u0633 u0020 u0623_u062e_u0631_u0649 u0020 u0625_u0644_u0649 u0020 u0645_u0627_u0647_u0648_u0020", 
        "u0642_u0627_u0626_u0645 u0020 u0645_u0645_u0627 u0020 u064a_u062e_u0635 u0020 u0645_u0645_u0627_u0631_u0633_u0629 u0020 u0627_u0644_u0645_u0647_u0646_u0629 u0020 u0648_u0633_u0644_u0648_u0643_u0647_u0627 u0020 u0648_u0623_u062f_u0628_u0647_u0627 u0020 u0641_u064a u0020 u0643_u062a_u0627_u0628_u0627_u062a_u0647_u0645 u0020 u0627_u0644_u062a_u064a_u0020", 
        "u062a_u0638_u0647_u0631 u0020 u0628_u0648_u0636_u0648_u062d u0020 u0623_u0647_u0645_u064a_u0629 u0020 u0627_u0644_u062a_u0642_u064a_u062f u0020 u0628_u0627_u0644_u0633_u0644_u0648_u0643 u0020 u0627_u0644_u0637_u0628_u064a u0020 u0645_u0646 u0020 u0642_u0628_u0644 u0020 u0627_u0644_u0637_u0628_u064a_u0628_u0020", 
        "u0648_u0648_u062c_u0648_u0628 u0020 u062d_u0631_u0635_u0647 u0020 u0639_u0644_u0649 u0020 u062d_u0633_u0646 u0020 u0645_u0638_u0647_u0631_u0647 u0020 u0648_u062a_u0635_u0631_u0641_u0627_u062a_u0647 u0020 u0645_u0639 u0020 u0627_u0644_u0645_u0631_u064a_u0636 u0020 u0645_u0646_u0020", 
        "u062c_u0647_u0629 u0020 u0648_u0645_u0639 u0020 u0623_u0633_u0627_u062a_u0630_u062a_u0647 u0020 u0648_u0632_u0645_u0644_u0627_u0626_u0647 u0020 u0648_u0627_u0644_u0645_u062c_u062a_u0645_u0639 u0020 u0645_u0646 u0020 u062c_u0647_u0629 u0020 u0623_u062e_u0631_u0649_u002e_u000d"
    ]
}