{
    "bounding_box": [
        [
            270, 
            57, 
            185, 
            27
        ]
    ], 
    "image_height": 540, 
    "image_width": 720, 
    "transcription": [
        "u0627_u0644_u0642_u0627_u0628_u0648_u0646 u0020 u2013 u0020 u0032_u0030_u0031_u0034_u0020"
    ]
}