{
    "bounding_box": [
        [
            199, 
            23, 
            331, 
            38
        ], 
        [
            272, 
            77, 
            175, 
            34
        ], 
        [
            60, 
            133, 
            616, 
            34
        ], 
        [
            87, 
            173, 
            562, 
            31
        ], 
        [
            89, 
            211, 
            560, 
            30
        ], 
        [
            228, 
            247, 
            420, 
            30
        ]
    ], 
    "image_height": 540, 
    "image_width": 720, 
    "transcription": [
        "u0627_u0644_u0631_u0645_u0648_u0632 u0020 u0627_u0644_u0623_u0633_u0627_u0633_u064a_u0629 u0020 u0644_u0644_u0635_u0641_u062d_u0629_u000b", 
        "u0020_u004d_u0061_u0069_u006e u0020 u0054_u0061_u0067_u0073", 
        "u0648_u0647_u064a u0020 u0627_u0644_u0631_u0645_u0648_u0632 u0020 u0627_u0644_u062a_u064a u0020 u062a_u062d_u062f_u062f u0020 u062e_u0635_u0627_u0626_u0635 u0020 u0627_u0644_u0623_u062c_u0632_u0627_u0621 u0020 u0627_u0644_u0623_u0633_u0627_u0633_u064a_u0629 u0020 u0644_u0644_u0635_u0641_u062d_u0629_u0020", 
        "u0645_u062b_u0644 u0020 u0628_u062f_u0627_u064a_u0629 u0020 u0627_u0644_u0635_u0641_u062d_u0629 u0020 u0648_u0646_u0647_u0627_u064a_u062a_u0647_u0627 u0020 u0648_u0639_u0646_u0648_u0627_u0646 u0020 u0627_u0644_u0635_u0641_u062d_u0629 u0020 u0648_u0627_u062a_u062c_u0627_u0647_u0647_u0627_u0020", 
        "u0648_u0643_u0630_u0644_u0643 u0020 u0628_u062f_u0627_u064a_u0629 u0020 u0627_u0644_u062c_u0632_u0621 u0020 u0627_u0644_u062e_u0627_u0635 u0020 u0628_u0645_u062d_u062a_u0648_u064a_u0627_u062a u0020 u0627_u0644_u0635_u0641_u062d_u0629 u0020 u0648_u0646_u0647_u0627_u064a_u062a_u0647_u0020", 
        "u0648_u063a_u064a_u0631 u0020 u0630_u0644_u0643 u0020 u0645_u0646 u0020 u0627_u0644_u0627_u062c_u0632_u0627_u0621 u0020 u0627_u0644_u0623_u0633_u0627_u0633_u064a_u0629 u0020 u0644_u0644_u0635_u0641_u062d_u0629_u002e"
    ]
}