{
    "bounding_box": [
        [
            332, 
            40, 
            380, 
            32
        ]
    ], 
    "image_height": 405, 
    "image_width": 720, 
    "transcription": [
        "u0627_u0644_u0639_u0635_u0631 u0020 u0627_u0644_u062c_u0644_u064a_u062f_u064a_u003a u0020 u0645_u0646_u0630 u0020 u0033_u0030 u0020 u0627_u0644_u0641 u0020 u0639_u0627_u0645"
    ]
}