{
    "bounding_box": [
        [
            442, 
            38, 
            198, 
            22
        ], 
        [
            93, 
            71, 
            546, 
            25
        ], 
        [
            67, 
            100, 
            573, 
            28
        ], 
        [
            74, 
            135, 
            566, 
            22
        ], 
        [
            472, 
            170, 
            168, 
            21
        ]
    ], 
    "image_height": 540, 
    "image_width": 720, 
    "transcription": [
        "u0034_u002e_u00a0_u0645_u0627_u062a_u0634_u0648_u0628_u064a_u062a_u0634_u0648_u060c u0020 u0627_u0644_u0628_u064a_u0631_u0648_u000b", 
        "u062a_u0639_u0646_u064a u0020 u0643_u0644_u0645_u0629 u0020 u0022_u0645_u0627_u062a_u0634_u0648_u0628_u064a_u062a_u0634_u0648_u0022 u0020 u0627_u0644_u0645_u0633_u062a_u0648_u0637_u0646_u0629 u0020 u0627_u0644_u0642_u062f_u064a_u0645_u0629_u060c u0020 u0648_u0627_u0644_u062a_u064a u0020 u062a_u0642_u0639 u0020 u0641_u064a u0020 u0648_u0633_u0637_u0020", 
        "u063a_u0627_u0628_u0627_u062a u0020 u0627_u0644_u0623_u0645_u0627_u0632_u0648_u0646_u060c u0020 u0641_u064a u0020 u0623_u0639_u0644_u0649 u0020 u0646_u0647_u0631 u0020 u0623_u0648_u0631_u0648_u0628_u0627_u0645_u0628_u0627_u002e u0020 u0648_u0642_u062f u0020 u0628_u0646_u064a_u062a u0020 u0647_u0630_u0647 u0020 u0627_u0644_u0645_u062f_u064a_u0646_u0629 u0020 u0641_u064a_u0020", 
        "u0627_u0644_u0642_u0631_u0646 u0020 u0627_u0644_u062e_u0627_u0645_u0633 u0020 u0639_u0634_u0631_u060c u0020 u0648_u0645_u0646 u0020 u062b_u0645 u0020 u0627_u062e_u062a_u0641_u062a u0020 u0645_u062f_u0629 u0020 u062b_u0644_u0627_u062b_u0629 u0020 u0642_u0631_u0648_u0646_u060c u0020 u0644_u064a_u062a_u0645 u0020 u0627_u0643_u062a_u0634_u0627_u0641_u0647_u0627_u0020", 
        "u0645_u0646 u0020 u062c_u062f_u064a_u062f u0020 u0639_u0627_u0645 u0020 u0031_u0039_u0031_u0031"
    ]
}