{
    "bounding_box": [
        [
            266, 
            54, 
            187, 
            28
        ], 
        [
            73, 
            135, 
            575, 
            31
        ], 
        [
            36, 
            175, 
            613, 
            31
        ], 
        [
            40, 
            213, 
            609, 
            31
        ], 
        [
            478, 
            250, 
            171, 
            28
        ], 
        [
            126, 
            299, 
            549, 
            28
        ]
    ], 
    "image_height": 540, 
    "image_width": 720, 
    "transcription": [
        "u0044_u0069_u0073_u0063_u0075_u0073_u0073_u0069_u006f_u006e", 
        "u0648_u0647_u0630_u0647 u0020 u0627_u0644_u0646_u062a_u064a_u062c_u0629 u0020 u064a_u0645_u0643_u0646 u0020 u062a_u0641_u0633_u064a_u0631_u0647_u0627 u0020 u0641_u064a u0020 u0636_u0648_u0621 u0020 u0633_u0647_u0648_u0644_u0629 u0020 u062a_u0639_u0644_u0645 u0020 u0643_u062a_u0627_u0628_u0629 u0020 u0644_u063a_u0629_u0020", 
        "u0627_u0644_u0627_u0634_u0627_u0631_u0629 u0020 u0648_u0627_u0644_u0641_u0627_u0626_u062f_u0629 u0020 u0627_u0644_u0643_u0628_u064a_u0631_u0629 u0020 u0645_u0646 u0020 u0643_u062a_u0627_u0628_u0629 u0020 u0644_u063a_u0629 u0020 u0627_u0644_u0627_u0634_u0627_u0631_u0629 u0020 u0641_u064a u0020 u0627_u0644_u062d_u064a_u0627_u0629 u0020 u0627_u0644_u064a_u0648_u0645_u064a_u0629_u0020", 
        "u0648_u0627_u0644_u062a_u0648_u0627_u0635_u0644 u0020 u0648_u0627_u0644_u062a_u0639_u0644_u064a_u0645 u0020 u0648_u0647_u0630_u0647 u0020 u0627_u0644_u0646_u062a_u064a_u062c_u0629 u0020 u062a_u062a_u0641_u0642 u0020 u0645_u0639 u0020 u0627_u0644_u062f_u0631_u0627_u0633_u0627_u062a u0020 u062d_u0648_u0644 u0020 u0643_u062a_u0627_u0628_u0629_u0020", 
        "u0644_u063a_u0629 u0020 u0627_u0644_u0627_u0634_u0627_u0631_u0629 u0020 u0645_u062b_u0644_u003a_u000d", 
        "u0028_u0066_u006c_u006f_u006f_u0064_u002c_u0032_u0030_u0030_u0032_u061b u0020 u0061_u0062_u0075_u0073_u0068_u0061_u0069_u0072_u0061_u002c_u0032_u0030_u0030_u0037_u061b_u0047_u0061_u006c_u0065_u0061_u002c u0020 u0032_u0030_u0031_u0033_u0029_u000d"
    ]
}