{
    "bounding_box": [
        [
            328, 
            61, 
            336, 
            24
        ], 
        [
            111, 
            117, 
            550, 
            26
        ], 
        [
            90, 
            148, 
            571, 
            28
        ], 
        [
            87, 
            179, 
            574, 
            29
        ], 
        [
            524, 
            214, 
            138, 
            23
        ]
    ], 
    "image_height": 540, 
    "image_width": 720, 
    "transcription": [
        "u0627_u0644_u062f_u0631_u0633 u0020 u0032_u002d_u0033_u003a u0020 u0627_u0644_u0639_u0645_u0644 u0020 u0645_u0639 u0020 u0627_u0644_u0645_u0644_u0641_u0627_u062a u0020 u0648_u0627_u0644_u0645_u062c_u0644_u062f_u0627_u062a", 
        "u0644_u0642_u062f u0020 u063a_u0637_u064a_u0646_u0627 u0020 u0643_u064a_u0641_u064a_u0629 u0020 u0627_u0644_u062a_u0646_u0642_u0644 u0020 u0641_u064a u0020 u0633_u0637_u062d u0020 u0627_u0644_u0645_u0643_u062a_u0628 u0020 u0648_u0643_u064a_u0641_u064a_u0629 u0020 u0627_u0644_u062a_u062d_u0643_u0645 u0020 u0628_u0627_u0644_u0625_u0637_u0627_u0631_u0627_u062a_u0020", 
        "u0648_u0643_u064a_u0641_u064a_u0629 u0020 u0627_u0644_u0642_u064a_u0627_u0645 u0020 u0628_u0628_u0639_u0636 u0020 u0627_u0644_u0645_u0647_u0627_u0645 u0020 u0627_u0644_u0623_u0633_u0627_u0633_u064a_u0629 u0020 u0641_u064a u0020 u0628_u0631_u0646_u0627_u0645_u062c u0020 u0645_u0627_u002e u0020 u0648_u0641_u064a u0020 u0647_u0630_u0627 u0020 u0627_u0644_u062f_u0631_u0633_u0020", 
        "u0641_u0625_u0646_u0646_u0627 u0020 u0633_u0646_u062a_u0648_u0633_u0639 u0020 u0623_u0643_u062b_u0631 u0020 u0628_u0634_u0627_u0646 u0020 u0647_u0630_u0647 u0020 u0627_u0644_u0645_u0641_u0627_u0647_u064a_u0645 u0020 u0648_u0633_u0646_u0633_u062a_u0643_u0634_u0641 u0020 u0627_u0644_u0645_u0632_u064a_u062f u0020 u062d_u0648_u0644 u0020 u0643_u064a_u0641_u064a_u0629_u0020", 
        "u0639_u0645_u0644 u0020 u0627_u0644_u0643_u0645_u0628_u064a_u0648_u062a_u0631_u002e_u0020"
    ]
}