{
    "bounding_box": [
        [
            34, 
            15, 
            657, 
            18
        ], 
        [
            65, 
            43, 
            597, 
            13
        ], 
        [
            25, 
            68, 
            638, 
            12
        ], 
        [
            37, 
            85, 
            626, 
            12
        ], 
        [
            365, 
            101, 
            298, 
            12
        ], 
        [
            55, 
            121, 
            608, 
            16
        ], 
        [
            30, 
            142, 
            632, 
            12
        ], 
        [
            29, 
            156, 
            633, 
            15
        ], 
        [
            224, 
            176, 
            438, 
            12
        ], 
        [
            35, 
            195, 
            627, 
            16
        ], 
        [
            32, 
            216, 
            631, 
            12
        ], 
        [
            183, 
            233, 
            480, 
            12
        ], 
        [
            61, 
            247, 
            601, 
            22
        ], 
        [
            58, 
            271, 
            604, 
            15
        ], 
        [
            50, 
            290, 
            613, 
            12
        ], 
        [
            43, 
            307, 
            620, 
            12
        ], 
        [
            71, 
            323, 
            591, 
            13
        ], 
        [
            35, 
            338, 
            628, 
            15
        ], 
        [
            36, 
            357, 
            626, 
            13
        ], 
        [
            52, 
            373, 
            611, 
            13
        ], 
        [
            37, 
            390, 
            626, 
            13
        ], 
        [
            42, 
            415, 
            621, 
            12
        ], 
        [
            77, 
            429, 
            586, 
            15
        ], 
        [
            75, 
            455, 
            588, 
            13
        ], 
        [
            42, 
            469, 
            620, 
            15
        ], 
        [
            310, 
            486, 
            353, 
            15
        ]
    ], 
    "image_height": 540, 
    "image_width": 720, 
    "transcription": [
        "u0627_u0644_u0625_u064a_u062c_u0627_u0628_u064a_u0629 u0020 u0648_u0627_u0644_u0641_u0631_u0635 u0020 u0627_u0644_u062a_u064a u0020 u064a_u0646_u0628_u063a_u064a u0020 u0627_u0633_u062a_u062b_u0645_u0627_u0631_u0647_u0627 u0020 u0641_u064a u0020 u0645_u062c_u0627_u0644_u0627_u062a u0020 u0646_u0642_u0644 u0020 u0627_u0644_u0639_u0644_u0648_u0645 u0020 u0020_u0648_u0627_u0644_u062a_u0642_u0646_u064a_u0629 u0020 u0644_u0644_u0645_u062c_u0627_u0644_u0627_u062a u0020 u0627_u0644_u0645_u062e_u062a_u0644_u0641_u0629_u0020", 
        "u0638_u0647_u0648_u0631 u0020 u062a_u0642_u0646_u064a_u0627_u062a u0020 u0645_u0633_u062a_u062d_u062f_u062b_u0629 u0020 u0645_u0631_u0634_u062d_u0629 u0020 u0644_u0623_u0646 u0020 u062a_u0644_u0639_u0628 u0020 u062f_u0648_u0631_u0627 u0020 u062d_u0627_u0633_u0645_u0627 u0020 u0641_u064a u0020 u0627_u0644_u0627_u0642_u062a_u0635_u0627_u062f u0020 u0627_u0644_u0639_u0627_u0644_u0645_u064a u0020 u062e_u0644_u0627_u0644 u0020 u0647_u0630_u0627 u0020 u0627_u0644_u0639_u0642_u062f u0020 u0648_u0627_u0644_u0639_u0642_u0648_u062f u0020 u0627_u0644_u0645_u0642_u0628_u0644_u0629_u002e u0020 u000d", 
        "u0648_u062c_u0648_u062f u0020 u062a_u0648_u0633_u0639 u0020 u0643_u0628_u064a_u0631 u0020 u0641_u064a u0020 u0627_u0644_u0648_u0637_u0646 u0020 u0627_u0644_u0639_u0631_u0628_u064a u0020 u0641_u064a u0020 u0645_u062c_u0627_u0644_u0627_u062a u0020 u0635_u0646_u0627_u0639_u064a_u0629 u0020 u0648_u0635_u0646_u0627_u0639_u0629 u0020 u0647_u0630_u0647 u0020 u0627_u0644_u062a_u0642_u0646_u064a_u0627_u062a u0020 u0645_u062b_u0644 u0020 u062a_u0642_u0646_u064a_u0629 u0020 u0627_u0644_u0645_u0639_u0644_u0648_u0645_u0627_u062a_u060c u0020 u062a_u0642_u0646_u064a_u0627_u062a u0020 u0627_u0644_u0645_u0648_u0627_u062f_u0020", 
        "u0627_u0644_u062c_u062f_u064a_u062f_u0629_u060c u0020 u0627_u0644_u062a_u0642_u0646_u064a_u0627_u062a u0020 u0627_u0644_u062d_u064a_u0648_u064a_u0629_u060c u0020 u0628_u0645_u0627 u0020 u0641_u064a_u0647_u0627 u0020 u0627_u0644_u0647_u0646_u062f_u0633_u0629 u0020 u0627_u0644_u0648_u0631_u0627_u062b_u064a_u0629_u002d u0020 u0647_u0646_u062f_u0633_u0629 u0020 u0627_u0644_u062c_u064a_u0646_u0627_u062a_u060c u0020 u062a_u0642_u0646_u064a_u0627_u062a u0020 u0627_u0644_u0625_u0644_u0643_u062a_u0631_u0648_u0646_u064a_u0627_u062a u0020 u0627_u0644_u062f_u0642_u064a_u0642_u0629 u0020 u0648_u0627_u0644_u0625_u0644_u0643_u062a_u0631_u0648_u0646_u064a_u0627_u062a_u0020", 
        "u0627_u0644_u0628_u0635_u0631_u064a_u0629 u0020 u0648_u0627_u0644_u0631_u0648_u0628_u0648_u062a u0020 u0648_u063a_u064a_u0631_u0647_u0627 u0020 u0645_u0645_u0627 u0020 u0644_u0627 u0020 u064a_u062a_u0633_u0639 u0020 u0627_u0644_u0645_u062c_u0627_u0644 u0020 u0644_u0630_u0643_u0631_u0647_u002e u0020 u000d", 
        "u062a_u0623_u062b_u0631 u0020 u0648_u062a_u0623_u062b_u064a_u0631 u0020 u0647_u0630_u0647 u0020 u0627_u0644_u062a_u0642_u0646_u064a_u0627_u062a u0020 u0627_u0644_u062c_u062f_u064a_u062f_u0629 u0020 u0633_u062a_u0624_u062f_u064a u0020 u0625_u0644_u0649 u0020 u0627_u0644_u0627_u0646_u062a_u0642_u0627_u0644 u0020 u0628_u0627_u0642_u062a_u0635_u0627_u062f_u064a_u0627_u062a u0020 u0627_u0644_u062f_u0648_u0644 u0020 u0645_u0646 u0020 u0627_u0644_u0627_u0642_u062a_u0635_u0627_u062f u0020 u0627_u0644_u0635_u0646_u0627_u0639_u064a u0020 u0627_u0644_u062a_u0642_u0644_u064a_u062f_u064a u0020 u0627_u0644_u0642_u0627_u0626_u0645_u0020", 
        "u0639_u0644_u0649 u0020 u0635_u0646_u0627_u0639_u0629 u0020 u0627_u0644_u0645_u0648_u0627_u062f u0020 u0627_u0644_u062e_u0627_u0645_u060c u0020 u0625_u0644_u0649 u0020 u0627_u0642_u062a_u0635_u0627_u062f u0020 u0627_u0644_u0645_u0639_u0644_u0648_u0645_u0627_u062a u0020 u0648_u0627_u0644_u0645_u0639_u0631_u0641_u0629 u0020 u0627_u0644_u0645_u062a_u0645_u062b_u0644 u0020 u0641_u064a u0020 u062a_u0642_u0646_u064a_u0627_u062a u0020 u0627_u0644_u0645_u0639_u0644_u0648_u0645_u0627_u062a u0020 u0648_u0627_u0644_u0634_u0628_u0643_u0627_u062a u0020 u0648_u0627_u0644_u0625_u0644_u0643_u062a_u0631_u0648_u0646_u064a_u0627_u062a_u0020", 
        "u0648_u0627_u0644_u0627_u062a_u0635_u0627_u0644_u0627_u062a u0020 u0648_u0627_u0644_u062d_u0627_u0633_u0628_u0627_u062a_u060c u0020 u0645_u0645_u0627 u0020 u062c_u0639_u0644 u0020 u0627_u0644_u0639_u0627_u0644_u0645 u0020 u064a_u0628_u062f_u0648 u0020 u0643_u0634_u0628_u0643_u0629 u0020 u0627_u062a_u0635_u0627_u0644_u0627_u062a u0020 u0648_u0627_u062d_u062f_u0629_u060c u0020 u0628_u062d_u064a_u062b u0020 u0623_u062a_u0627_u062d_u062a u0020 u0648_u0633_u062a_u062a_u064a_u062d u0020 u0641_u0631_u0635_u0627 u0020 u0645_u062a_u0639_u062f_u062f_u0629 u0020 u0644_u0644_u0627_u0646_u0637_u0644_u0627_u0642_u0020", 
        "u0627_u0644_u0633_u0631_u064a_u0639 u0020 u063a_u064a_u0631 u0020 u0627_u0644_u0645_u062a_u062f_u0631_u062c u0020 u0644_u0644_u062f_u0648_u0644 u0020 u0627_u0644_u0646_u0627_u0645_u064a_u0629 u0020 u0628_u0645_u0627 u0020 u0641_u064a_u0647_u0627 u0020 u0627_u0644_u062f_u0648_u0644 u0020 u0627_u0644_u0639_u0631_u0628_u064a_u0629 u0020 u0648_u0627_u0644_u0625_u0633_u0644_u0627_u0645_u064a_u0629 u0020 u0648_u0627_u0644_u0646_u0627_u0645_u064a_u0629 u0020 u002e u0020 u000d", 
        "u0623_u062b_u0631 u0020 u0627_u0644_u062a_u0639_u0644_u064a_u0645 u0020 u0627_u0644_u0639_u0627_u0645 u0020 u0648_u0627_u0644_u0639_u0627_u0644_u064a u0020 u0648_u0627_u0644_u062a_u062f_u0631_u064a_u0628 u0020 u0627_u0644_u0641_u0646_u064a u0020 u0648_u0627_u0644_u0645_u0647_u0646_u064a u0020 u0641_u064a u0020 u0646_u0642_u0644 u0020 u0627_u0644_u0639_u0644_u0648_u0645 u0020 u0648_u0627_u0644_u062a_u0642_u0646_u064a_u0629 u0020 u0648_u062a_u0648_u0637_u064a_u0646_u0647_u0627 u0020 u0641_u064a u0020 u0627_u0644_u062f_u0648_u0644 u0020 u0627_u0644_u0639_u0631_u0628_u064a_u0629 u0020 u0628_u062f_u0621 u0020 u0628_u0627_u0644_u062a_u0632_u0627_u064a_u062f_u0020", 
        "u0648_u0627_u0644_u0627_u0647_u062a_u0645_u0627_u0645 u0020 u0628_u0647 u0020 u0645_u0645_u0627 u0020 u064a_u0646_u0639_u0643_u0633 u0020 u0627_u064a_u062c_u0627_u0628_u064a_u0627_u064b u0020 u0639_u0644_u0649 u0020 u0627_u0644_u0635_u0646_u0627_u0639_u0627_u062a u0020 u0648_u0646_u0642_u0644 u0020 u0648_u062a_u0628_u0627_u062f_u0644 u0020 u0627_u0644_u0645_u0639_u0644_u0648_u0645_u0627_u062a u0020 u0645_u0646 u0020 u062e_u0644_u0627_u0644 u0020 u0627_u0644_u0634_u0628_u0643_u0627_u062a u0020 u0627_u0644_u0645_u062e_u062a_u0644_u0641_u0629 u0020 u0648_u0627_u0644_u0645_u062a_u062e_u0635_u0635_u0629_u0020", 
        "u0628_u064a_u0646 u0020 u0627_u0644_u0634_u0639_u0648_u0628 u0020 u0648_u062a_u062f_u0627_u0648_u0644_u0647_u0627 u0020 u0648_u0646_u0642_u0644 u0020 u0627_u0644_u0645_u0639_u0631_u0641_u0629 u0020 u0648_u0627_u0644_u062e_u0628_u0631_u0627_u062a u0020 u0627_u0644_u0645_u062a_u0631_u0627_u0643_u0645_u0629 u0020 u0644_u062e_u0644_u0642 u0020 u0645_u062c_u062a_u0645_u0639 u0020 u0627_u0644_u0639_u0644_u0645 u0020 u0648_u0627_u0644_u0645_u0639_u0631_u0641_u0629 u0020 u002e_u000d", 
        "u0628_u0644 u0020 u0625_u0646 u0020 u0627_u0644_u062a_u0648_u062c_u0647 u0020 u0646_u062d_u0648 u0020 u0627_u0644_u0633_u0648_u0642 u0020 u0627_u0644_u0639_u0631_u0628_u064a_u0629 u0020 u0627_u0644_u0645_u0634_u062a_u0631_u0643_u0629 u0020 u0648_u0625_u064a_u062c_u0627_u062f u0020 u0627_u0644_u0645_u064a_u0632_u0629 u0020 u0627_u0644_u062a_u0646_u0627_u0641_u0633_u064a_u0629 u0020 u0644_u0644_u0635_u0646_u0627_u0639_u0627_u062a u0020 u0627_u0644_u0648_u0637_u0646_u064a_u0629 u0020 u0627_u0644_u0639_u0631_u0628_u064a_u0629 u0020 u064a_u0635_u0628_u062d u0020 u0627_u0644_u0645_u062d_u0631_u0643_u0020", 
        "u0627_u0644_u0623_u0633_u0627_u0633 u0020 u0644_u0644_u0635_u0627_u062f_u0631_u0627_u062a u0020 u0627_u0644_u062a_u064a u0020 u064a_u062a_u0645 u0020 u062a_u0635_u0646_u064a_u0639_u0647_u0627 u0020 u0639_u0631_u0628_u064a_u0627_u064b u0020 u0645_u0646 u0020 u062e_u0644_u0627_u0644 u0020 u062a_u0628_u0627_u062f_u0644 u0020 u0627_u0644_u0645_u0639_u0644_u0648_u0645_u0627_u062a u0020 u0627_u0644_u0635_u0646_u0627_u0639_u064a_u0629 u0020 u0641_u064a u0020 u0627_u0644_u0645_u062c_u0627_u0644_u0627_u062a u0020 u0627_u0644_u0645_u0647_u0645_u0629 u0020 u0648_u0627_u0644_u0646_u0627_u062f_u0631_u0629_u0020", 
        "u0648_u0627_u0644_u0645_u062a_u062e_u0635_u0635_u0629 u0020 u0645_u0645_u0627 u0020 u064a_u0643_u0648_u0646 u0020 u0630_u0644_u0643 u0020 u0641_u0631_u0635_u0629 u0020 u0644_u0646_u0642_u0644 u0020 u0627_u0644_u0639_u0644_u0648_u0645 u0020 u0648_u0627_u0644_u062a_u0642_u0646_u064a_u0629 u0020 u0641_u064a u0020 u0645_u062c_u0627_u0644 u0020 u0627_u0644_u0648_u0637_u0646 u0020 u0627_u0644_u0639_u0631_u0628_u064a u0020 u0627_u0644_u0630_u064a u0020 u0633_u064a_u0642_u0648_u062f u0020 u0627_u0644_u062a_u0637_u0648_u0631 u0020 u0627_u0644_u0635_u0646_u0627_u0639_u064a_u002e_u002e_u0020", 
        "u0648_u0628_u0630_u0644_u0643 u0020 u064a_u0635_u0628_u062d u0020 u0627_u0644_u062a_u062c_u062f_u064a_u062f u0020 u0648_u0627_u0644_u062a_u0637_u0648_u0631 u0020 u0648_u0627_u0644_u0645_u062d_u0627_u0641_u0638_u0629 u0020 u0639_u0644_u0649 u0020 u0627_u0644_u062c_u0648_u062f_u0629 u0020 u0648_u0627_u0644_u0645_u0648_u0627_u0635_u0641_u0627_u062a u0020 u0627_u0644_u0642_u064a_u0627_u0633_u064a_u0629 u0020 u0645_u0646 u0020 u0627_u0644_u0639_u0646_u0627_u0635_u0631 u0020 u0627_u0644_u0645_u0647_u0645_u0629 u0020 u0644_u062a_u062d_u0642_u064a_u0642 u0020 u0627_u0644_u0645_u064a_u0632_u0627_u062a_u0020", 
        "u0627_u0644_u062a_u0646_u0627_u0641_u0633_u064a_u0629 u0020 u0028 u0020 u0645_u062b_u0644 u0020 u0627_u062a_u0641_u0627_u0642_u064a_u0627_u062a u0020 u0627_u0644_u0627_u0639_u062a_u0631_u0627_u0641 u0020 u0627_u0644_u0645_u062a_u0628_u0627_u062f_u0644_u0629 u0020 u0029 u0020 u0648_u0647_u0646_u0627_u0644_u0643 u0020 u062a_u062c_u0631_u0628_u0629 u0020 u0631_u0627_u0626_u062f_u0629 u0020 u0644_u0644_u0647_u064a_u0626_u0629 u0020 u0627_u0644_u0633_u0639_u0648_u062f_u064a_u0629 u0020 u0644_u0644_u0645_u0648_u0627_u0635_u0641_u0627_u062a u0020 u0648_u0627_u0644_u0645_u0642_u0627_u064a_u064a_u0633_u0020", 
        "u0648_u0627_u0644_u062c_u0648_u062f_u0629 u0020 u060c u0020 u0648_u0647_u064a u0020 u062a_u062d_u0642_u064a_u0642 u0020 u0627_u0644_u0623_u0633_u0627_u0633 u0020 u0627_u0644_u0633_u0627_u062f_u0633 u0020 u0644_u0644_u062e_u0637_u0629 u0020 u0627_u0644_u0648_u0637_u0646_u064a_u0629 u0020 u0644_u0644_u0639_u0644_u0648_u0645 u0020 u0648_u0627_u0644_u062a_u0642_u0646_u064a_u0629 u0020 u0028 u0020 u0627_u0644_u0627_u0633_u062a_u0645_u0631_u0627_u0631 u0020 u0641_u064a u0020 u0646_u0642_u0644 u0020 u0648_u062a_u0648_u0637_u064a_u0646 u0020 u0648_u0627_u0633_u062a_u0646_u0628_u0627_u062a_u0020", 
        "u0648_u062a_u0637_u0648_u064a_u0631 u0020 u0627_u0644_u062a_u0642_u0646_u064a_u0629 u0020 u0627_u0644_u0645_u0644_u0627_u0626_u0645_u0629 u0020 u0644_u0631_u0641_u0639 u0020 u0627_u0644_u0643_u0641_u0627_u0621_u0629 u0020 u0627_u0644_u0625_u0646_u062a_u0627_u062c_u064a_u0629 u0020 u060c u0020 u0648_u062a_u0639_u0632_u064a_u0632 u0020 u0627_u0644_u0642_u062f_u0631_u0627_u062a u0020 u0627_u0644_u062a_u0646_u0627_u0641_u0633_u064a_u0629 u0020 u0644_u0644_u0642_u0637_u0627_u0639_u0627_u062a u0020 u0627_u0644_u0625_u0646_u062a_u0627_u062c_u064a_u0629 u0020 u0648_u0627_u0644_u062e_u062f_u0645_u064a_u0629 u0020 u002e_u002e_u002e u0020 u0029 u0020 u0648_u0630_u0644_u0643_u0020", 
        "u0645_u0646 u0020 u062e_u0644_u0627_u0644 u0020 u0648_u0639_u0644_u0649 u0020 u0633_u0628_u064a_u0644 u0020 u0627_u0644_u0645_u062b_u0627_u0644 u0020 u0020_u0627_u0644_u0633_u064a_u0627_u0633_u0629 u0020 u0627_u0644_u0639_u0627_u0634_u0631_u0629 u0020 u0627_u0644_u062a_u064a u0020 u062a_u0646_u0635 u0020 u0639_u0644_u0649 u0020 u0028 u0020 u0627_u0644_u0627_u0633_u062a_u0645_u0631_u0627_u0631 u0020 u0641_u064a u0020 u062a_u0637_u0648_u064a_u0631 u0020 u0627_u0644_u062a_u0642_u064a_u064a_u0633 u0020 u201d u0020 u0645_u0648_u0627_u0635_u0641_u0627_u062a_u0020", 
        "u0648_u062c_u0648_u062f_u0629 u0020 u0648_u0645_u0639_u0627_u064a_u0631_u0629 u0020 u201d u0020 u0628_u0645_u0627 u0020 u064a_u0643_u0641_u0644 u0020 u0631_u0641_u0639 u0020 u0627_u0644_u0642_u062f_u0631_u0629 u0020 u0627_u0644_u062a_u0646_u0627_u0641_u0633_u064a_u0629 u0020 u0644_u0644_u0645_u0646_u062a_u062c_u0627_u062a u0020 u0627_u0644_u0648_u0637_u0646_u064a_u0629 u0020 u0645_u062d_u0644_u064a_u0627_u064b u0020 u0648_u062f_u0648_u0644_u064a_u0627_u064b u0020 u060c u0020 u0648_u064a_u0636_u0645_u0646 u0020 u062d_u0645_u0627_u064a_u0629 u0020 u0627_u0644_u0645_u0633_u062a_u0647_u0644_u0643 u0020 u0029 u0020 u0020_u002e u0020 u0020_u000d", 
        "u062a_u0639_u0632_u064a_u0632 u0020 u0627_u0644_u0639_u0645_u0644 u0020 u0639_u0644_u0649 u0020 u0646_u0642_u0644 u0020 u0646_u0638_u0645 u0020 u0627_u0644_u062c_u0648_u062f_u0629 u0020 u0627_u0644_u0639_u0627_u0644_u0645_u064a_u0629 u0020 u0648_u062a_u0648_u0637_u064a_u0646_u0647_u0627 u0020 u0645_u0646 u0020 u062e_u0644_u0627_u0644 u0020 u0627_u0644_u062f_u0627_u0631_u0633_u0627_u062a u0020 u0648_u0627_u0644_u062a_u0637_u0648_u064a_u0631 u0020 u0648_u0627_u0644_u062a_u062d_u0633_u064a_u0646 u0020 u0627_u0644_u0645_u0633_u062a_u0645_u0631 u0020 u0628_u0627_u0644_u0627_u0639_u062a_u0645_u0627_u062f_u0020", 
        "u0639_u0644_u0649 u0020 u0020_u0645_u062c_u0627_u0644_u0627_u062a u0020 u0627_u0644_u0627_u0628_u062a_u0643_u0627_u0631 u0020 u0648_u0627_u0644_u0625_u0628_u062f_u0627_u0639 u0020 u0020_u0641_u064a u0020 u0627_u0644_u0645_u062c_u0627_u0644_u0627_u062a u0020 u0627_u0644_u0635_u0646_u0627_u0639_u064a_u0629 u0020 u0648_u0627_u0644_u0645_u0639_u0644_u0648_u0645_u0627_u062a_u064a_u0629 u0020 u0648_u0627_u0644_u0634_u0628_u0643_u0627_u062a u0020 u0627_u0644_u0645_u062e_u062a_u0644_u0641_u0629 u0020 u0628_u0627_u0644_u0648_u0637_u0646 u0020 u0627_u0644_u0639_u0631_u0628_u064a u0020 u002e u0020 u000d", 
        "u0625_u0646 u0020 u0628_u0646_u0627_u0621 u0020 u0627_u0644_u0625_u0646_u0633_u0627_u0646 u0020 u0627_u0644_u0639_u0631_u0628_u064a u0020 u0627_u0644_u0645_u0639_u0627_u0635_u0631 u0020 u0648_u062a_u0633_u0644_u064a_u062d_u0647 u0020 u0628_u0627_u0644_u0645_u0639_u0627_u0631_u0641 u0020 u0648_u0627_u0644_u0645_u0647_u0627_u0631_u0627_u062a u0020 u0627_u0644_u062a_u0642_u0646_u064a_u0629 u0020 u0627_u0644_u062a_u064a u0020 u062a_u0645_u0643_u0646_u0647 u0020 u0645_u0646 u0020 u0627_u0644_u0627_u0628_u062a_u0643_u0627_u0631_u0020", 
        "u0648_u0627_u0644_u0625_u0628_u062f_u0627_u0639 u0020 u064a_u0639_u062f u0020 u0634_u0631_u0637_u0627 u0020 u0644_u0627_u0632_u0645_u0627 u0020 u0644_u0644_u062a_u0637_u0648_u0631 u0020 u0627_u0644_u0639_u0644_u0645_u064a u0020 u0648_u0627_u0644_u062a_u0642_u0646_u064a u0020 u0648_u0627_u0644_u0635_u0646_u0627_u0639_u064a_u002e u0020 u0643_u0645_u0627 u0020 u064a_u0633_u062a_u0644_u0632_u0645 u0020 u0623_u0646 u0020 u064a_u0643_u0648_u0646 u0020 u0647_u0630_u0627 u0020 u0627_u0644_u062a_u0637_u0648_u0631 u0020 u0645_u0628_u0646_u064a_u0627_u064b_u0020", 
        "u0639_u0644_u0649 u0020 u0642_u0627_u0639_u062f_u0629 u0020 u0645_u0646 u0020 u062a_u0623_u0635_u064a_u0644 u0020 u0627_u0644_u0641_u0643_u0631 u0020 u0648_u0645_u0647_u0627_u0631_u0629 u0020 u0627_u0644_u0627_u0628_u062a_u0643_u0627_u0631 u0020 u002e_u002e_u002e_u002e u0020 u0648_u0627_u0644_u0625_u0628_u062f_u0627_u0639 u0020 u002e"
    ]
}