{
    "bounding_box": [
        [
            95, 
            167, 
            580, 
            26
        ], 
        [
            41, 
            200, 
            608, 
            31
        ], 
        [
            57, 
            236, 
            591, 
            31
        ], 
        [
            538, 
            276, 
            111, 
            20
        ], 
        [
            534, 
            356, 
            142, 
            14
        ], 
        [
            286, 
            82, 
            366, 
            51
        ]
    ], 
    "image_height": 540, 
    "image_width": 720, 
    "transcription": [
        "u00ab_u0642_u062f_u0631_u062a_u0645_u0646_u062f_u062a_u0631_u06cc_u0646 u0020 u0627_u0628_u0632_u0627_u0631 u0020 u062a_u063a_u06cc_u06cc_u0631 u0020 u062f_u0631 u0020 u06a9_u0627_u0647_u0634 u0020 u0646_u0633_u0628_u06cc u0020 u0642_u062f_u0631_u062a u0020 u062f_u0648_u0644_u062a u0020 u0647_u0627 u0020 u0648_u0020", 
        "u0638_u0647_u0648_u0631 u0020 u0628_u0627_u0632_u06cc_u06af_u0631_u0627_u0646 u0020 u063a_u06cc_u0631 u0020 u062f_u0648_u0644_u062a_u06cc_u060c u0020 u06a9_u0627_u0645_u067e_u06cc_u0648_u062a_u0631 u0020 u0648 u0020 u0627_u0646_u0642_u0644_u0627_u0628 u0020 u0627_u0631_u062a_u0628_u0627_u0637_u0627_u062a u0020 u0627_u0633_u062a_u0020", 
        "u06a9_u0647 u0020 u067e_u06cc_u0627_u0645_u062f_u0647_u0627_u06cc u0020 u0633_u06cc_u0627_u0633_u06cc u0020 u0648 u0020 u0627_u062c_u062a_u0645_u0627_u0639_u06cc u0020 u0622_u0646 u0020 u0628_u0647 u0020 u0637_u0648_u0631 u0020 u06a9_u0627_u0645_u0644 u0020 u0646_u0627_u062f_u06cc_u062f_u0647 u0020 u06af_u0631_u0641_u062a_u0647_u0020", 
        "u0634_u062f_u0647 u0020 u0627_u0633_u062a_u00bb_u000d", 
        "u0028_u062c_u0633_u06cc_u06a9_u0627 u0020 u0645_u062a_u06cc_u0648_u0632_u060c u0020 u0642_u062f_u0631_u062a u0020 u062a_u063a_u06cc_u06cc_u0631_u0029_u000d", 
        "u0686_u0631_u0627 u0020 u0627_u0644_u06af_u0648 u0020 u062a_u063a_u06cc_u06cc_u0631 u0020 u0645_u06cc u0020 u06a9_u0646_u062f_u061f"
    ]
}