{
    "bounding_box": [
        [
            358, 
            30, 
            299, 
            30
        ], 
        [
            69, 
            84, 
            581, 
            29
        ], 
        [
            66, 
            121, 
            583, 
            25
        ], 
        [
            62, 
            149, 
            588, 
            29
        ], 
        [
            107, 
            179, 
            542, 
            26
        ]
    ], 
    "image_height": 540, 
    "image_width": 720, 
    "transcription": [
        "u0625_u0633_u062a_u062e_u062f_u0627_u0645 u0020 u0639_u0644_u0627_u0645_u0627_u062a u0020 u0627_u0644_u062a_u0628_u0648_u064a_u0628 u0020 u0627_u0644_u0642_u064a_u0627_u0633_u064a_u0629", 
        "u0643_u0645_u0627 u0020 u0646_u0639_u0644_u0645 u0020 u0628_u0623_u0646 u0020 u0628_u0631_u0646_u0627_u0645_u062c u0020 u0623_u0643_u0633_u0633 u0020 u0032_u0030_u0031_u0030 u0020 u064a_u0633_u062a_u062e_u062f_u0645 u0020 u0627_u0644_u062a_u0628_u0648_u064a_u0628_u0627_u062a u0020 u0628_u062f_u0644_u0627_u064b u0020 u0645_u0646 u0020 u0627_u0644_u0642_u0648_u0627_u0626_u0645_u0020", 
        "u0648_u0627_u0644_u0642_u0648_u0627_u0626_u0645 u0020 u0627_u0644_u0641_u0631_u0639_u064a_u0629 u0020 u0627_u0644_u062a_u0642_u0644_u064a_u062f_u064a_u0629_u002e u0020 u062d_u064a_u062b u0020 u062a_u064e_u0638_u0647_u0631 u0020 u0645_u064a_u0632_u0627_u062a u0020 u0628_u0631_u0646_u0627_u0645_u062c u0020 u0625_u0643_u0633_u0644 u0020 u0645_u0646 u0020 u062e_u0644_u0627_u0644_u0020", 
        "u0623_u0631_u0628_u0639 u0020 u062a_u0628_u0648_u064a_u0628_u0627_u062a u0020 u0639_u0646_u062f u0020 u0641_u062a_u062d u0020 u0628_u0631_u0646_u0627_u0645_u062c u0020 u0623_u0643_u0633_u0633 u0020 u0032_u0030_u0031_u0030 u0020 u0648_u0647_u064a u0020 u0022_u0645_u0644_u0641_u0022 u0020 u0648_u0022_u0627_u0644_u0635_u0641_u062d_u0629_u0020", 
        "u0627_u0644_u0631_u0626_u064a_u0633_u064a_u0629_u0022 u0020 u0648_u0022_u0625_u0646_u0634_u0627_u0621_u0022 u0020 u0648_u0022_u0628_u064a_u0627_u0646_u0627_u062a u0020 u062e_u0627_u0631_u062c_u064a_u0629_u0022 u0020 u0648_u0022_u0623_u062f_u0648_u0627_u062a u0020 u0642_u0627_u0639_u062f_u0629 u0020 u0627_u0644_u0628_u064a_u0627_u0646_u0627_u062a_u0022_u003a"
    ]
}