{
    "bounding_box": [
        [
            28, 
            106, 
            620, 
            57
        ], 
        [
            28, 
            171, 
            626, 
            52
        ], 
        [
            28, 
            236, 
            626, 
            57
        ], 
        [
            28, 
            301, 
            626, 
            57
        ], 
        [
            189, 
            364, 
            466, 
            50
        ]
    ], 
    "image_height": 540, 
    "image_width": 720, 
    "transcription": [
        "u0648_u0644_u0623_u0647_u0645_u064a_u0629 u0020 u0647_u0630_u0647 u0020 u0627_u0644_u0645_u0634_u0627_u0631_u064a_u0639 u0020 u0645_u0646 u0020 u0627_u0644_u0646_u0627_u062d_u064a_u0629_u0020", 
        "u0627_u0644_u0625_u0642_u062a_u0635_u0627_u062f_u064a_u0629 u0020 u0648_u0627_u0644_u0625_u062c_u062a_u0645_u0627_u0639_u064a_u0629 u0020 u0641_u0627_u0646 u0020 u0630_u0644_u0643_u0020", 
        "u064a_u0633_u062a_u062f_u0639_u064a u0020 u0645_u0646_u0627 u0020 u062f_u0631_u0627_u0633_u0629 u0020 u0628_u0639_u0636 u0020 u0647_u0630_u0647_u0020", 
        "u0627_u0644_u0645_u0634_u0627_u0631_u064a_u0639 u0020 u0648_u0623_u062b_u0631_u0647_u0627 u0020 u0641_u064a u0020 u062a_u0646_u0645_u064a_u0629_u0020", 
        "u0627_u0644_u0645_u062c_u062a_u0645_u0639_u0627_u062a u0020 u0627_u0644_u0645_u0648_u062c_u0648_u062f_u0629 u0020 u0641_u064a_u0647_u0627_u002e_u000d"
    ]
}