{
    "bounding_box": [
        [
            254, 
            25, 
            232, 
            30
        ], 
        [
            219, 
            66, 
            304, 
            29
        ]
    ], 
    "image_height": 540, 
    "image_width": 720, 
    "transcription": [
        "u0020 u0020 u0627_u0644_u0645_u0634_u0631_u0648_u0639_u003a u0020 u0639_u0644_u0645 u0020 u0644_u0628_u0646_u0627_u0646_u000d", 
        "u0645_u062f_u0631_u0633_u0629_u003a u0020 u0627_u0644_u0627_u0634_u0631_u0641_u064a_u0629 u0020 u0627_u0644_u0627_u0648_u0644_u0649 u0020 u0644_u0644_u0635_u0628_u064a_u0627_u0646_u000d"
    ]
}