{
    "bounding_box": [
        [
            46, 
            78, 
            577, 
            32
        ], 
        [
            71, 
            168, 
            234, 
            22
        ], 
        [
            72, 
            213, 
            362, 
            29
        ], 
        [
            72, 
            259, 
            269, 
            29
        ], 
        [
            72, 
            305, 
            433, 
            29
        ], 
        [
            71, 
            352, 
            430, 
            28
        ]
    ], 
    "image_height": 540, 
    "image_width": 720, 
    "transcription": [
        [
            "u0049_u006d_u0061_u0067_u0065", 
            "u0020", 
            "u0042_u0075_u0069_u006c_u0064_u0069_u006e_u0067", 
            "u0020", 
            "u0061_u006e_u0064", 
            "u0020", 
            "u0042_u0072_u0061_u006e_u0064", 
            "u0020", 
            "u0049_u0064_u0065_u006e_u0074_u0069_u0074_u0079"
        ], 
        [
            "u0041_u0074_u0074_u0072_u0061_u0063_u0074_u0073", 
            "u0020", 
            "u0061_u0074_u0074_u0065_u006e_u0074_u0069_u006f_u006e", 
            "u0020", 
            "u000d"
        ], 
        [
            "u0042_u0075_u0069_u006c_u0064_u0073", 
            "u0020", 
            "u0066_u0061_u006d_u0069_u006c_u0069_u0061_u0072_u0069_u0074_u0079", 
            "u0020", 
            "u0061_u006e_u0064", 
            "u0020", 
            "u0074_u0072_u0075_u0073_u0074", 
            "u0020", 
            "u000d"
        ], 
        [
            "u0043_u006f_u006e_u0076_u0065_u0079_u0073", 
            "u0020", 
            "u0061", 
            "u0020", 
            "u0070_u0072_u006f_u006d_u0069_u0073_u0065", 
            "u0020", 
            "u000d"
        ], 
        [
            "u0043_u006f_u006e_u0076_u0065_u0079_u0073", 
            "u0020", 
            "u0065_u0078_u0070_u0065_u0063_u0074_u0061_u0074_u0069_u006f_u006e", 
            "u0020", 
            "u006f_u0066", 
            "u0020", 
            "u0062_u0065_u006e_u0065_u0066_u0069_u0074", 
            "u0020", 
            "u000d"
        ], 
        [
            "u0041_u0074_u0074_u0072_u0061_u0063_u0074_u0073", 
            "u0020", 
            "u0070_u0065_u006f_u0070_u006c_u0065", 
            "u0020", 
            "u0074_u006f", 
            "u0020", 
            "u0074_u0068_u0065", 
            "u0020", 
            "u006d_u0075_u0073_u0065_u0075_u006d_u0020"
        ]
    ]
}