{
    "bounding_box": [
        [
            43, 
            129, 
            605, 
            23
        ], 
        [
            43, 
            152, 
            605, 
            23
        ], 
        [
            43, 
            175, 
            604, 
            23
        ], 
        [
            42, 
            198, 
            605, 
            23
        ], 
        [
            42, 
            221, 
            605, 
            23
        ], 
        [
            42, 
            244, 
            605, 
            23
        ], 
        [
            42, 
            267, 
            605, 
            23
        ], 
        [
            43, 
            290, 
            604, 
            23
        ], 
        [
            334, 
            313, 
            313, 
            22
        ], 
        [
            42, 
            340, 
            606, 
            24
        ], 
        [
            42, 
            365, 
            605, 
            23
        ], 
        [
            43, 
            388, 
            604, 
            23
        ], 
        [
            42, 
            411, 
            606, 
            23
        ], 
        [
            342, 
            434, 
            305, 
            20
        ], 
        [
            283, 
            34, 
            400, 
            42
        ], 
        [
            43, 
            510, 
            13, 
            9
        ]
    ], 
    "image_height": 540, 
    "image_width": 720, 
    "transcription": [
        [
            "u062a_u0633_u062a_u0637_u064a_u0639", 
            "u0020", 
            "u0627_u0644_u062d_u0627_u0633_u0628_u0627_u062a", 
            "u0020", 
            "u0623_u0646", 
            "u0020", 
            "u062a_u0643_u0648_u0646", 
            "u0020", 
            "u0622_u0644_u0629", 
            "u0020", 
            "u0623_u0644_u0639_u0627_u0628", 
            "u0020", 
            "u0644_u062a_u0633_u0644_u064a_u0629", 
            "u0020", 
            "u062c_u064a_u062f_u0629", 
            "u0020", 
            "u061b_u0644_u0623_u0646_u0647_u0627", 
            "u0020", 
            "u062a_u0633_u062a_u0637_u064a_u0639", 
            "u0020", 
            "u0623_u0646", 
            "u0020", 
            "u062a_u0643_u0648_u0646", 
            "u0020", 
            "u0637_u0631_u0641_u0627_u0020"
        ], 
        [
            "u0641_u064a", 
            "u0020", 
            "u0627_u0644_u0644_u0639_u0628_u0629", 
            "u0020", 
            "u060c_u0648_u0628_u0639_u0643_u0633", 
            "u0020", 
            "u0627_u0644_u062a_u0644_u0641_u0627_u0632", 
            "u0020", 
            "u0641_u0625_u0646", 
            "u0020", 
            "u0627_u0644_u062d_u0627_u0633_u0628", 
            "u0020", 
            "u0644_u0627", 
            "u0020", 
            "u064a_u0643_u062a_u0641_u064a", 
            "u0020", 
            "u0628_u0639_u0631_u0636", 
            "u0020", 
            "u0627_u0644_u0644_u0639_u0628_u0629", 
            "u0020", 
            "u0641_u062d_u0633_u0628", 
            "u0020", 
            "u0628_u0644", 
            "u0020", 
            "u0645_u0639_u0020"
        ], 
        [
            "u0627_u0644_u0644_u0627_u0639_u0628_u0030", 
            "u0020", 
            "u0648_u062d_u062a_u0649", 
            "u0020", 
            "u0627_u0644_u0645_u0627_u0636_u064a", 
            "u0020", 
            "u0627_u0644_u0642_u0631_u064a_u0628", 
            "u0020", 
            "u0643_u0627_u0646_u062a", 
            "u0020", 
            "u0642_u062f_u0631_u0629", 
            "u0020", 
            "u0627_u0644_u062d_u0627_u0633_u0628", 
            "u0020", 
            "u0641_u064a", 
            "u0020", 
            "u0627_u0644_u0623_u0644_u0639_u0627_u0628", 
            "u0020", 
            "u0645_u062d_u062f_u0648_u062f_u0629", 
            "u0020", 
            "u0628_u0633_u0628_u0628_u0020"
        ], 
        [
            "u0627_u0644_u0631_u0633_u0648_u0645", 
            "u0020", 
            "u0627_u0644_u0645_u062a_u0648_u0627_u0636_u0639_u0629", 
            "u0020", 
            "u0627_u0644_u062a_u064a", 
            "u0020", 
            "u064a_u0633_u062a_u0637_u064a_u0639", 
            "u0020", 
            "u0627_u0644_u062d_u0627_u0633_u0628", 
            "u0020", 
            "u0625_u0646_u0634_u0627_u0621_u0647_u0627", 
            "u0020", 
            "u0648_u0639_u0631_u0636_u0647_u0627", 
            "u0020", 
            "u060c_u0648_u0627_u0644_u0623_u0635_u0648_u0627_u062a", 
            "u0020", 
            "u0627_u0644_u0628_u0633_u064a_u0637_u0629_u0020"
        ], 
        [
            "u0627_u0644_u062a_u064a", 
            "u0020", 
            "u064a_u0645_u0643_u0646_u0647", 
            "u0020", 
            "u0625_u0635_u062f_u0627_u0631_u0647_u0627", 
            "u0020", 
            "u0628_u0627_u0644_u0645_u0642_u0627_u0631_u0646_u0629", 
            "u0020", 
            "u0645_u0639", 
            "u0020", 
            "u0627_u0644_u062a_u0644_u0641_u0627_u0632", 
            "u0020", 
            "u0648_u0635_u0648_u062a", 
            "u0020", 
            "u0627_u0644_u0623_u0633_u062a_u0631_u064a_u0648_u0030", 
            "u0020", 
            "u0625_u0644_u0627", 
            "u0020", 
            "u0623_u0646", 
            "u0020", 
            "u062a_u0637_u0648_u0631", 
            "u0020", 
            "u0642_u062f_u0631_u0629_u0020"
        ], 
        [
            "u0627_u0644_u062d_u0627_u0633_u0628_u0627_u062a", 
            "u0020", 
            "u0627_u0644_u0634_u062e_u0635_u064a_u0629", 
            "u0020", 
            "u0645_u0624_u062e_u0631_u0627", 
            "u0020", 
            "u062c_u0639_u0644_u0647_u0627", 
            "u0020", 
            "u0623_u062c_u0647_u0632_u0629", 
            "u0020", 
            "u0631_u0627_u0626_u0639_u0629", 
            "u0020", 
            "u0644_u0644_u062a_u0633_u0644_u064a_u0629", 
            "u0020", 
            "u0648_u0627_u0644_u0623_u0644_u0639_u0627_u0628", 
            "u0020", 
            "u0645_u0646", 
            "u0020", 
            "u0645_u062e_u062a_u0644_u0641_u0020"
        ], 
        [
            "u0627_u0644_u0623_u0646_u0648_u0627_u0639", 
            "u0020", 
            "u0648_u064a_u0648_u062c_u062f", 
            "u0020", 
            "u062d_u0627_u0644_u064a_u0627", 
            "u0020", 
            "u0623_u0646_u0638_u0645_u0629", 
            "u0020", 
            "u062a_u0633_u0644_u064a_u0629", 
            "u0020", 
            "u062a_u062f_u0645_u062c", 
            "u0020", 
            "u062e_u0635_u0627_u0626_u0635", 
            "u0020", 
            "u0627_u0644_u062d_u0627_u0633_u0628", 
            "u0020", 
            "u0627_u0644_u0634_u062e_u0635_u064a", 
            "u0020", 
            "u0645_u0639", 
            "u0020", 
            "u0642_u062f_u0631_u0629_u0020"
        ], 
        [
            "u0627_u0644_u0623_u0633_u062a_u0631_u064a_u0648", 
            "u0020", 
            "u0648_u0627_u0644_u062a_u0644_u0641_u0627_u0632", 
            "u0020", 
            "u0648_u0627_u0644_u0645_u0630_u064a_u0627_u0639", 
            "u0020", 
            "u0648_u0645_u0633_u062c_u0644", 
            "u0020", 
            "u0627_u0644_u0641_u064a_u062f_u064a_u0648", 
            "u0020", 
            "u0648_u0645_u0646", 
            "u0020", 
            "u0627_u0644_u0645_u062a_u0648_u0642_u0639", 
            "u0020", 
            "u0623", 
            "u0020", 
            "u062a_u0624_u062f_u064a", 
            "u0020", 
            "u0625_u0644_u0649", 
            "u0020", 
            "u0623_u0646", 
            "u0020", 
            "u064a_u0635_u0628_u062d_u0020"
        ], 
        [
            "u0639_u0627_u0644_u0645", 
            "u0020", 
            "u0627_u0644_u062d_u0627_u0633_u0628_u0627_u062a", 
            "u0020", 
            "u0648_u0639_u0627_u0644_u0645", 
            "u0020", 
            "u0627_u0644_u062a_u0633_u0644_u064a_u0629", 
            "u0020", 
            "u0639_u0627_u0644_u0645_u0627", 
            "u0020", 
            "u0648_u0627_u062d_u062f_u0627", 
            "u0020", 
            "u002e_u000d"
        ], 
        [
            "u0648_u0645_u0646", 
            "u0020", 
            "u0647_u0630_u0627", 
            "u0020", 
            "u0627_u0644_u0645_u0646_u0637_u0644_u0642", 
            "u0020", 
            "u064a_u0645_u0643_u0646", 
            "u0020", 
            "u0644_u0646_u0627", 
            "u0020", 
            "u0623_u060c", 
            "u0020", 
            "u0646_u0639_u0631_u0641", 
            "u0020", 
            "u0623_u0644_u0639_u0627_u0628", 
            "u0020", 
            "u0627_u0644_u062d_u0627_u0633_u0628", 
            "u0020", 
            "u0628_u0623_u0646_u0647_u0627", 
            "u0020", 
            "u0022", 
            "u0020", 
            "u0628_u0631_u0645_u062c_u064a_u0627_u062a", 
            "u0020", 
            "u0645_u062d_u0627_u0643_u0627_u0629_u0020"
        ], 
        [
            "u0627_u0644_u062d_u0633_u0628", 
            "u0020", 
            "u0644_u0644_u0627_u0639_u0628_u064a_u0646", 
            "u0020", 
            "u0628_u0645_u0634_u0627_u0631_u0643_u0629", 
            "u0020", 
            "u0641_u0631_u062f", 
            "u0020", 
            "u0648_u0627_u0647_u062c_u062f", 
            "u0020", 
            "u0623_u0648", 
            "u0020", 
            "u0623_u0643_u062b_u0631", 
            "u0020", 
            "u0641_u064a", 
            "u0020", 
            "u0645_u062d_u0627_u0648_u0644_u0629", 
            "u0020", 
            "u0644_u062a_u062d_u0642_u064a_u0642", 
            "u0020", 
            "u0628_u0639_u0636", 
            "u0020", 
            "u0623_u0647_u062f_u0641_u0020"
        ], 
        [
            "u0627_u0644_u0644_u0639_u0628_u0022", 
            "u0020", 
            "u0641_u0641_u064a", 
            "u0020", 
            "u0644_u0639_u0628_u0629", 
            "u0020", 
            "u0643_u0631_u0629", 
            "u0020", 
            "u0627_u0644_u0642_u062f_u0645", 
            "u0020", 
            "u0645_u062b_u0644_u0627", 
            "u0020", 
            "u0642_u062f", 
            "u0020", 
            "u064a_u0643_u0648_u0646", 
            "u0020", 
            "u0627_u0644_u0647_u062f_u0641", 
            "u0020", 
            "u0647_u0648", 
            "u0020", 
            "u0645_u062d_u0627_u0648_u0644_u0629", 
            "u0020", 
            "u062a_u0633_u062c_u064a_u0644", 
            "u0020", 
            "u0623_u0643_u0628_u0631", 
            "u0020", 
            "u0639_u062f_u062f_u0020"
        ], 
        [
            "u0645_u0645_u0643_u0646", 
            "u0020", 
            "u0645_u0646", 
            "u0020", 
            "u0627_u0644_u0623_u0640_u0647_u062f_u0627_u0641", 
            "u0020", 
            "u0648_u0641_u064a", 
            "u0020", 
            "u0623_u0644_u0639_u0627_u0628", 
            "u0020", 
            "u0627_u0644_u0645_u063a_u0627_u0645_u0631_u0627_u062a", 
            "u0020", 
            "u0642_u062f", 
            "u0020", 
            "u064a_u0643_u0648_u0646", 
            "u0020", 
            "u0627_u0644_u0647_u062f_u0641", 
            "u0020", 
            "u0645_u062b_u0644_u0627", 
            "u0020", 
            "u0627_u0644_u062d_u0635_u0648_u0644", 
            "u0020", 
            "u0639_u0644_u0649_u0020"
        ], 
        [
            "u0627_u0644_u0643_u0646_u0632", 
            "u0020", 
            "u0623_u0648", 
            "u0020", 
            "u0625_u0646_u0642_u0627_u0630", 
            "u0020", 
            "u062d_u064a_u0627_u0629", 
            "u0020", 
            "u0623_u0634_u062e_u0627_u0635", 
            "u0020", 
            "u0645_u0639_u064a_u0646_u064a_u0646", 
            "u0020", 
            "u0648_u0647_u0643_u0630_u0627_u0020"
        ], 
        [
            "u0034_u002d_u0032", 
            "u0020", 
            "u0623_u0644_u0639_u0627_u0628", 
            "u0020", 
            "u0627_u0644_u062d_u0627_u0633_u0628", 
            "u0020", 
            "u0028_u0028_u0047_u0061_u006d_u0065_u0073_u0020"
        ], 
        [
            "u0031_u0033"
        ]
    ]
}