{
    "bounding_box": [
        [
            94, 
            38, 
            480, 
            41
        ], 
        [
            92, 
            91, 
            579, 
            34
        ], 
        [
            129, 
            165, 
            72, 
            22
        ], 
        [
            160, 
            200, 
            345, 
            19
        ], 
        [
            160, 
            231, 
            459, 
            19
        ], 
        [
            160, 
            255, 
            64, 
            19
        ], 
        [
            160, 
            286, 
            478, 
            19
        ], 
        [
            128, 
            319, 
            373, 
            22
        ], 
        [
            160, 
            353, 
            345, 
            19
        ], 
        [
            160, 
            384, 
            449, 
            19
        ], 
        [
            160, 
            408, 
            487, 
            19
        ], 
        [
            159, 
            432, 
            211, 
            18
        ]
    ], 
    "image_height": 540, 
    "image_width": 720, 
    "transcription": [
        [
            "u0046_u0061_u0063_u0075_u006c_u0074_u0079_u002c", 
            "u0020", 
            "u0061_u006e_u0064", 
            "u0020", 
            "u0053_u0063_u0068_u006f_u006c_u0061_u0072_u006c_u0079", 
            "u0020", 
            "u0020"
        ], 
        [
            "u0061_u006e_u0064", 
            "u0020", 
            "u0050_u0072_u006f_u0066_u0065_u0073_u0073_u0069_u006f_u006e_u0061_u006c", 
            "u0020", 
            "u0041_u0063_u0074_u0069_u0076_u0069_u0074_u0069_u0065_u0073"
        ], 
        [
            "u0046_u0061_u0063_u0075_u006c_u0074_u0079", 
            "u0020", 
            "u000d"
        ], 
        [
            "u004d_u006f_u0073_u0074", 
            "u0020", 
            "u0064_u0061_u0074_u0061", 
            "u0020", 
            "u0063_u006f_u006c_u006c_u0065_u0063_u0074_u0065_u0064_u002f_u0063_u006f_u006d_u0070_u0069_u006c_u0065_u0064", 
            "u0020", 
            "u0069_u006e_u0074_u0065_u0072_u006e_u0061_u006c_u006c_u0079_u000d"
        ], 
        [
            "u0050_u0072_u006f_u0063_u0065_u0073_u0073_u0065_u0073", 
            "u0020", 
            "u0061_u0073", 
            "u0020", 
            "u0067_u006f_u0076_u0065_u0072_u006e_u0065_u0064", 
            "u0020", 
            "u0062_u0079", 
            "u0020", 
            "u0053_u0063_u0068_u006f_u006f_u006c_u002f_u0043_u006f_u006c_u006c_u0065_u0067_u0065_u002f_u0055_u006e_u0069_u0076_u0065_u0072_u0073_u0069_u0074_u0079_u0020"
        ], 
        [
            "u0070_u006f_u006c_u0069_u0063_u0069_u0065_u0073_u000d"
        ], 
        [
            "u0053_u006f_u006d_u0065", 
            "u0020", 
            "u0069_u006e_u0066_u006f_u0072_u006d_u0061_u0074_u0069_u006f_u006e", 
            "u0020", 
            "u006f_u0062_u0074_u0061_u0069_u006e_u0065_u0064", 
            "u0020", 
            "u0074_u0068_u0072_u006f_u0075_u0067_u0068", 
            "u0020", 
            "u0048_u0075_u006d_u0061_u006e", 
            "u0020", 
            "u0052_u0065_u0073_u006f_u0075_u0072_u0063_u0065_u0073_u000d"
        ], 
        [
            "u0053_u0063_u0068_u006f_u006c_u0061_u0072_u006c_u0079", 
            "u0020", 
            "u0061_u006e_u0064", 
            "u0020", 
            "u0050_u0072_u006f_u0066_u0065_u0073_u0073_u0069_u006f_u006e_u0061_u006c", 
            "u0020", 
            "u0041_u0063_u0074_u0069_u0076_u0069_u0074_u0069_u0065_u0073_u000d"
        ], 
        [
            "u004d_u006f_u0073_u0074", 
            "u0020", 
            "u0064_u0061_u0074_u0061", 
            "u0020", 
            "u0063_u006f_u006c_u006c_u0065_u0063_u0074_u0065_u0064_u002f_u0063_u006f_u006d_u0070_u0069_u006c_u0065_u0064", 
            "u0020", 
            "u0069_u006e_u0074_u0065_u0072_u006e_u0061_u006c_u006c_u0079_u000d"
        ], 
        [
            "u0053_u006f_u006d_u0065", 
            "u0020", 
            "u0064_u0061_u0074_u0061", 
            "u0020", 
            "u0061_u0076_u0061_u0069_u006c_u0061_u0062_u006c_u0065", 
            "u0020", 
            "u0074_u0068_u0072_u006f_u0075_u0067_u0068", 
            "u0020", 
            "u0070_u0072_u006f_u006d_u006f_u0074_u0069_u006f_u006e", 
            "u0020", 
            "u0061_u006e_u0064", 
            "u0020", 
            "u0074_u0065_u006e_u0075_u0072_u0065_u0020"
        ], 
        [
            "u0070_u006f_u0072_u0074_u0066_u006f_u006c_u0069_u006f_u0073", 
            "u0020", 
            "u0068_u0065_u006c_u0064", 
            "u0020", 
            "u0062_u0079", 
            "u0020", 
            "u0054_u0065_u006e_u0075_u0072_u0065", 
            "u0020", 
            "u0061_u006e_u0064", 
            "u0020", 
            "u0050_u0072_u006f_u006d_u006f_u0074_u0069_u006f_u006e", 
            "u0020", 
            "u0043_u006f_u006d_u006d_u0069_u0074_u0074_u0065_u0065_u002c", 
            "u0020", 
            "u006f_u0072_u0020"
        ], 
        [
            "u0074_u0068_u0065", 
            "u0020", 
            "u0056_u0050_u0041_u0041_u002f_u0050_u0072_u006f_u0076_u006f_u0073_u0074", 
            "u0020", 
            "u004f_u0066_u0066_u0069_u0063_u0065"
        ]
    ]
}