{
    "bounding_box": [
        [
            56, 
            56, 
            264, 
            28
        ], 
        [
            239, 
            447, 
            239, 
            23
        ], 
        [
            274, 
            476, 
            168, 
            22
        ], 
        [
            275, 
            505, 
            168, 
            22
        ], 
        [
            551, 
            507, 
            161, 
            11
        ], 
        [
            592, 
            523, 
            119, 
            12
        ]
    ], 
    "image_height": 540, 
    "image_width": 720, 
    "transcription": [
        [
            "u004c_u0061_u006e_u0064_u0073_u006c_u0069_u0064_u0065", 
            "u0020", 
            "u0023_u0031_u0032"
        ], 
        [
            "u0053_u0065_u0061_u0074_u0074_u006c_u0065_u002c", 
            "u0020", 
            "u0057_u0061_u0073_u0068_u0069_u006e_u0067_u0074_u006f_u006e_u000d"
        ], 
        [
            "u0041_u0070_u0072_u0069_u006c", 
            "u0020", 
            "u0032_u0039_u002c", 
            "u0020", 
            "u0031_u0039_u0036_u0035_u000d"
        ], 
        [
            "u004d_u0061_u0067_u006e_u0069_u0074_u0075_u0064_u0065", 
            "u0020", 
            "u0036_u002e_u0035"
        ], 
        [
            "u0050_u0068_u006f_u0074_u006f", 
            "u0020", 
            "u0043_u0072_u0065_u0064_u0069_u0074_u003a", 
            "u0020", 
            "u0055_u006e_u0069_u0076_u0065_u0072_u0073_u0069_u0074_u0079", 
            "u0020", 
            "u006f_u0066_u0020"
        ], 
        [
            "u0043_u0061_u006c_u0069_u0066_u006f_u0072_u006e_u0069_u0061_u002c", 
            "u0020", 
            "u0042_u0065_u0072_u006b_u0065_u006c_u0065_u0079"
        ]
    ]
}