{
    "bounding_box": [
        [
            101, 
            41, 
            432, 
            40
        ], 
        [
            100, 
            94, 
            321, 
            40
        ]
    ], 
    "image_height": 540, 
    "image_width": 720, 
    "transcription": [
        [
            "u004d_u006f_u0073_u0074", 
            "u0020", 
            "u0044_u0079_u0065_u0073", 
            "u0020", 
            "u0043_u0061_u006d_u0065", 
            "u0020", 
            "u0066_u0072_u006f_u006d_u0020"
        ], 
        [
            "u004f_u0072_u0067_u0061_u006e_u0069_u0063", 
            "u0020", 
            "u0053_u006f_u0075_u0072_u0063_u0065_u0073"
        ]
    ]
}