{
    "bounding_box": [
        [
            329, 
            56, 
            61, 
            18
        ], 
        [
            127, 
            133, 
            500, 
            28
        ], 
        [
            240, 
            178, 
            190, 
            30
        ], 
        [
            620, 
            230, 
            55, 
            23
        ], 
        [
            573, 
            273, 
            100, 
            25
        ], 
        [
            336, 
            319, 
            337, 
            28
        ]
    ], 
    "image_height": 540, 
    "image_width": 720, 
    "transcription": [
        [
            "u0645_u0642_u062f_u0645_u0629"
        ], 
        [
            "u0623_u0647_u0645_u064a_u0629", 
            "u0020", 
            "u0627_u0644_u062e_u0627_u0645_u0627_u062a", 
            "u0020", 
            "u0648_u0627_u0646_u0647_u0627", 
            "u0020", 
            "u0627_u0644_u0627_u0633_u0627_u0633", 
            "u0020", 
            "u0627_u0644_u0630_u064a", 
            "u0020", 
            "u064a_u0646_u0628_u0646_u064a", 
            "u0020", 
            "u0639_u0644_u064a_u0647", 
            "u0020", 
            "u0642_u0631_u0627_u0631", 
            "u0020", 
            "u0627_u0644_u0634_u0631_u0627_u0621_u002e_u000d"
        ], 
        [
            "u0627_u0644_u062e_u0627_u0645_u0629", 
            "u0020", 
            "u0627_u0644_u0623_u0648_u0644_u0649_u003a", 
            "u0020", 
            "u0627_u0644_u062d_u062f_u064a_u062f_u000d"
        ], 
        [
            "u0645_u0645_u064a_u0632_u0627_u062a_u0647_u000d"
        ], 
        [
            "u002d", 
            "u0020", 
            "u0642_u0648_u0629", 
            "u0020", 
            "u062a_u062d_u0645_u0644_u0647_u002e_u000d"
        ], 
        [
            "u002d", 
            "u0020", 
            "u0627_u0646_u062e_u0641_u0627_u0636", 
            "u0020", 
            "u0633_u0639_u0631_u0647", 
            "u0020", 
            "u0628_u0627_u0644_u0646_u0633_u0628_u0629", 
            "u0020", 
            "u0644_u0644_u0645_u0639_u0627_u062f_u0646", 
            "u0020", 
            "u0627_u0644_u0623_u062e_u0631_u0649_u002e_u000d"
        ]
    ]
}