{
    "bounding_box": [
        [
            94, 
            171, 
            175, 
            25
        ], 
        [
            96, 
            206, 
            139, 
            25
        ], 
        [
            96, 
            239, 
            123, 
            25
        ], 
        [
            95, 
            273, 
            118, 
            25
        ], 
        [
            95, 
            306, 
            173, 
            19
        ], 
        [
            95, 
            340, 
            132, 
            19
        ]
    ], 
    "image_height": 540, 
    "image_width": 720, 
    "transcription": [
        [
            "u0020", 
            "u0020", 
            "u0020_u0054_u0068_u0069_u0073", 
            "u0020", 
            "u0070_u006c_u0061_u0074_u0065", 
            "u0020", 
            "u0077_u0061_u0073_u0020"
        ], 
        [
            "u0070_u006c_u0061_u0063_u0065_u0064", 
            "u0020", 
            "u0020_u0069_u006e", 
            "u0020", 
            "u0061_u0020"
        ], 
        [
            "u006d_u006f_u0073_u0061_u0069_u0063", 
            "u0020", 
            "u0062_u0079_u0020"
        ], 
        [
            "u004a_u0075_u006a_u006f_u006c_u002c", 
            "u0020", 
            "u0074_u0068_u0061_u0074_u0020"
        ], 
        [
            "u0063_u0061_u006d_u0065", 
            "u0020", 
            "u0066_u0072_u006f_u006d", 
            "u0020", 
            "u0068_u0069_u0073_u0020"
        ], 
        [
            "u006f_u0077_u006e", 
            "u0020", 
            "u0068_u006f_u006d_u0065_u002e"
        ]
    ]
}