{
    "bounding_box": [
        [
            32, 
            206, 
            643, 
            39
        ], 
        [
            32, 
            251, 
            622, 
            42
        ], 
        [
            572, 
            306, 
            81, 
            27
        ], 
        [
            21, 
            503, 
            15, 
            10
        ], 
        [
            198, 
            500, 
            58, 
            9
        ]
    ], 
    "image_height": 540, 
    "image_width": 720, 
    "transcription": [
        "u067e_u0634_u062a u0020 u0645_u064a_u0632 u0020 u062c_u0627_u064a u0020 u0643_u0648_u062a_u0627_u0647_u064a u0020 u0628_u0631_u0627_u064a u0020 u062f_u064a_u062f_u0646 u0020 u0628_u0627_u0632_u0627_u0631 u0020 u0627_u0633_u062a_u060c_u0020", 
        "u0627_u06af_u0631 u0020 u0645_u064a u0020 u062e_u0648_u0627_u0647_u064a_u062f u0020 u0628_u0627_u0632_u0627_u0631 u0020 u0631_u0627 u0020 u0628_u0628_u064a_u0646_u064a_u062f u0020 u0628_u0647 u0020 u0633_u0631_u0627_u063a u0020 u0622_u0646_u0020", 
        "u0628_u0631_u0648_u064a_u062f_u002e", 
        "u0032_u0036", 
        "u0041_u002e_u0045_u0062_u0072_u0061_u0068_u0069_u006d_u0069"
    ]
}