{
    "bounding_box": [
        [
            162, 
            20, 
            233, 
            28
        ], 
        [
            100, 
            205, 
            420, 
            20
        ], 
        [
            100, 
            230, 
            420, 
            18
        ], 
        [
            367, 
            253, 
            153, 
            17
        ], 
        [
            100, 
            283, 
            420, 
            17
        ], 
        [
            100, 
            303, 
            420, 
            20
        ], 
        [
            100, 
            328, 
            420, 
            18
        ], 
        [
            100, 
            349, 
            420, 
            19
        ], 
        [
            398, 
            374, 
            122, 
            18
        ], 
        [
            110, 
            404, 
            410, 
            18
        ], 
        [
            102, 
            431, 
            417, 
            20
        ], 
        [
            332, 
            456, 
            188, 
            18
        ], 
        [
            546, 
            784, 
            5, 
            9
        ], 
        [
            174, 
            57, 
            242, 
            10
        ], 
        [
            311, 
            117, 
            186, 
            31
        ], 
        [
            214, 
            156, 
            313, 
            19
        ], 
        [
            15, 
            357, 
            27, 
            352
        ]
    ], 
    "image_height": 810, 
    "image_width": 567, 
    "transcription": [
        [
            "u0020", 
            "u0020", 
            "u0020", 
            "u0020", 
            "u0020_u0634_u0631_u0643_u062a", 
            "u0020", 
            "u062c_u0647_u0627_u0646", 
            "u0020", 
            "u0633_u0648_u0644_u0647", 
            "u0020", 
            "u0647_u0645_u062a", 
            "u0020", 
            "u0020", 
            "u0020", 
            "u0020", 
            "u0020", 
            "u0020", 
            "u0020", 
            "u000d"
        ], 
        [
            "u0628_u0627", 
            "u0020", 
            "u062a_u0648_u062c_u0647", 
            "u0020", 
            "u0628_u0647", 
            "u0020", 
            "u062d_u064a_u0637_u0647", 
            "u0020", 
            "u0641_u0639_u0627_u0644_u064a_u062a_u0647_u0627_u064a_u0645_u0627_u0646", 
            "u0020", 
            "u002c_u0634_u0631_u0643_u062a_u0647_u0627", 
            "u0020", 
            "u0648_u0628_u0627_u0632_u0631_u06af_u0627_u0646_u0627_u0646", 
            "u0020", 
            "u0628_u0632_u0631_u06af_u0020"
        ], 
        [
            "u0648_u062e_u0648_u0634_u0646_u0627_u0645", 
            "u0020", 
            "u062f_u0631", 
            "u0020", 
            "u0632_u0645_u064a_u0646_u0647", 
            "u0020", 
            "u0622_u0647_u0646", 
            "u0020", 
            "u0622_u0644_u0627_u062a", 
            "u0020", 
            "u0648", 
            "u0020", 
            "u0643_u0627_u0644_u0627_u064a", 
            "u0020", 
            "u0635_u0646_u0639_u062a_u064a", 
            "u0020", 
            "u0628_u0647", 
            "u0020", 
            "u062c_u0645_u0639_u0020"
        ], 
        [
            "u062f_u0648_u0633_u062a_u0627_u0646", 
            "u0020", 
            "u0645_u0627", 
            "u0020", 
            "u067e_u064a_u0648_u0633_u062a_u0647", 
            "u0020", 
            "u0627_u0646_u062f_u002e_u000d"
        ], 
        [
            "u0645_u062f_u064a_u0631_u064a_u062a", 
            "u0020", 
            "u0641_u0631_u0648_u0634", 
            "u0020", 
            "u0634_u0631_u0643_u062a", 
            "u0020", 
            "u0628_u0627", 
            "u0020", 
            "u062f_u0627_u0634_u062a_u0646", 
            "u0020", 
            "u0627_u0631_u062a_u0628_u0627_u0637_u0627_u062a", 
            "u0020", 
            "u0646_u0632_u062f_u064a_u0643", 
            "u0020", 
            "u0648_u0631_u0648_u0632_u0627_u0646_u0647", 
            "u0020", 
            "u0628_u0627_u0020"
        ], 
        [
            "u0628_u0627_u0632_u0627_u0631", 
            "u0020", 
            "u0622_u0645_u0627_u062f_u06af_u064a", 
            "u0020", 
            "u062f_u0627_u0631_u062f", 
            "u0020", 
            "u0646_u064a_u0627_u0632_u0645_u0646_u062f_u064a_u0647_u0627_u064a", 
            "u0020", 
            "u0645_u0634_u062a_u0631_u064a_u0627_u0646", 
            "u0020", 
            "u06af_u0631_u0627_u0645_u064a", 
            "u0020", 
            "u062e_u0648_u062f", 
            "u0020", 
            "u0631_u0627", 
            "u0020", 
            "u0628_u0647_u0020"
        ], 
        [
            "u0628_u0647_u062a_u0631_u064a_u0646", 
            "u0020", 
            "u0635_u0648_u0631_u062a", 
            "u0020", 
            "u062a_u0627_u0645_u064a_u0646", 
            "u0020", 
            "u0646_u0645_u0627_u064a_u062f_u002e", 
            "u0020", 
            "u0627_u064a_u0646", 
            "u0020", 
            "u062e_u062f_u0645_u062a", 
            "u0020", 
            "u0631_u0633_u0627_u0646_u064a", 
            "u0020", 
            "u062f_u0631", 
            "u0020", 
            "u062c_u0647_u062a", 
            "u0020", 
            "u0631_u0641_u0639_u0020"
        ], 
        [
            "u062f_u063a_u062f_u063a_u0647", 
            "u0020", 
            "u0647_u0627_u064a", 
            "u0020", 
            "u0645_u0639_u0645_u0648_u0644", 
            "u0020", 
            "u0648", 
            "u0020", 
            "u062c_u0644_u0648_u06af_u064a_u0631_u064a", 
            "u0020", 
            "u0627_u0632", 
            "u0020", 
            "u0647_u062f_u0631", 
            "u0020", 
            "u0631_u0641_u062a_u0646", 
            "u0020", 
            "u0648_u0642_u062a", 
            "u0020", 
            "u0648_u067e_u0648_u0644_u0020"
        ], 
        [
            "u0639_u0632_u064a_u0632_u0627_u0646", 
            "u0020", 
            "u0645_u064a", 
            "u0020", 
            "u0628_u0627_u0634_u062f_u002e_u000d"
        ], 
        [
            "u0628_u0631_u062e_u064a", 
            "u0020", 
            "u0627_u0632", 
            "u0020", 
            "u062e_u062f_u0645_u0627_u062a", 
            "u0020", 
            "u0641_u0631_u0648_u0634", 
            "u0020", 
            "u0634_u0631_u0643_u062a", 
            "u0020", 
            "u0634_u0627_u0645_u0644", 
            "u0020", 
            "u0627_u064a_u0646", 
            "u0020", 
            "u0645_u0648_u0627_u0631_u062f", 
            "u0020", 
            "u0645_u064a", 
            "u0020", 
            "u0628_u0627_u0634_u062f_u003a_u000d"
        ], 
        [
            "u0627_u0646_u0648_u0627_u0639", 
            "u0020", 
            "u0622_u0647_u0646", 
            "u0020", 
            "u0627_u0644_u0627_u062a", 
            "u0020", 
            "u0648", 
            "u0020", 
            "u0645_u064a_u0644_u06af_u0631_u062f", 
            "u0020", 
            "u002c", 
            "u0020", 
            "u067e_u0648_u0634_u0634", 
            "u0020", 
            "u002c_u0633_u0642_u0641", 
            "u0020", 
            "u002c", 
            "u0020", 
            "u0622_u0631_u062f_u0648_u0627_u0632", 
            "u0020", 
            "u002c", 
            "u0020", 
            "u0641_u0648_u0645", 
            "u0020", 
            "u002c", 
            "u0020", 
            "u0020"
        ], 
        [
            "u0641_u0648_u0646_u062f_u0627_u0633_u064a_u0648_u0646_u002c", 
            "u0020", 
            "u062f_u064a_u0648_u0627_u0631_u0643_u0634_u064a", 
            "u0020", 
            "u0648_u002e_u002e_u002e_u000d"
        ], 
        [
            "u0034"
        ], 
        [
            "u0045_u006e_u0067_u0069_u006e_u0065_u0065_u0072_u0069_u006e_u0067", 
            "u0020", 
            "u0026", 
            "u0020", 
            "u0063_u006f_u006e_u0073_u0074_u0072_u0075_u0063_u0074_u0069_u006f_u006e"
        ], 
        [
            "u0641_u0631_u0648_u0634", 
            "u0020", 
            "u0648_u062e_u062f_u0645_u0627_u062a_u000d"
        ], 
        [
            "u0647_u064a_u0686", 
            "u0020", 
            "u0641_u0639_u0627_u0644_u064a_u062a_u064a", 
            "u0020", 
            "u0646_u0645_u064a_u062a_u0648_u0627_u0646_u062f", 
            "u0020", 
            "u0628_u0647", 
            "u0020", 
            "u062a_u0646_u0647_u0627_u064a_u064a", 
            "u0020", 
            "u0628_u0627_u0642_u064a", 
            "u0020", 
            "u0628_u0645_u0627_u0646_u062f_u002e", 
            "u0020", 
            "u0020_u000d"
        ], 
        [
            "u0053_u0074_u0065_u0065_u006c", 
            "u0020", 
            "u0073_u0074_u0072_u0075_u0063_u0074_u0075_u0072_u0065", 
            "u0020", 
            "u0063_u006f_u002e"
        ]
    ]
}