{
    "bounding_box": [
        [
            27, 
            104, 
            397, 
            32
        ]
    ], 
    "image_height": 540, 
    "image_width": 720, 
    "transcription": [
        [
            "u0043_u006f_u006d_u0070_u0075_u0074_u0065_u0072_u0073", 
            "u0020", 
            "u0026", 
            "u0020", 
            "u0043_u0061_u006c_u006c_u0069_u0067_u0072_u0061_u0070_u0068_u0079"
        ]
    ]
}