{
    "bounding_box": [
        [
            372, 
            34, 
            286, 
            26
        ], 
        [
            75, 
            76, 
            587, 
            28
        ], 
        [
            100, 
            105, 
            561, 
            28
        ], 
        [
            603, 
            137, 
            58, 
            21
        ], 
        [
            471, 
            201, 
            190, 
            28
        ], 
        [
            132, 
            232, 
            529, 
            31
        ], 
        [
            412, 
            264, 
            250, 
            28
        ], 
        [
            415, 
            329, 
            246, 
            28
        ], 
        [
            65, 
            364, 
            596, 
            29
        ], 
        [
            493, 
            394, 
            169, 
            25
        ]
    ], 
    "image_height": 540, 
    "image_width": 720, 
    "transcription": [
        "u062a_u0646_u0633_u064a_u0642 u0020 u0627_u0644_u0623_u0634_u0643_u0627_u0644 u0020 u0628_u0627_u0633_u062a_u062e_u062f_u0627_u0645 u0020 u0627_u0644_u0623_u0646_u0645_u0627_u0637", 
        "u0645_u0646 u0020 u0623_u062c_u0644 u0020 u062a_u0637_u0628_u064a_u0642 u0020 u0646_u0645_u0637 u0020 u0645_u0639_u064a_u0646 u0020 u0639_u0644_u0649 u0020 u0627_u0644_u0634_u0643_u0644_u060c u0020 u0642_u0645 u0020 u0628_u0627_u0644_u0646_u0642_u0631 u0020 u0639_u0644_u0649 u0020 u0635_u0648_u0631_u062a_u0647 u0020 u0627_u0644_u0643_u0628_u064a_u0631_u0629_u0020", 
        "u0641_u064a u0020 u0627_u0644_u0645_u0639_u0631_u0636_u002e u0020 u0633_u062a_u0631_u0649 u0020 u0645_u0639_u0627_u064a_u0646_u0629 u0020 u0644_u0643_u0644 u0020 u0635_u0648_u0631_u0629 u0020 u0643_u0628_u064a_u0631_u0629 u0020 u0623_u062b_u0646_u0627_u0621 u0020 u062a_u0645_u0631_u064a_u0631 u0020 u0627_u0644_u0645_u0627_u0648_u0633_u0020", 
        "u0639_u0644_u064a_u0647_u0627_u002e_u000d", 
        "u062a_u0646_u0633_u064a_u0642 u0020 u0627_u0644_u0623_u0634_u0643_u0627_u0644 u0020 u064a_u062f_u0648_u064a_u0627_u064b_u000d", 
        "u062d_u062a_u0649 u0020 u0648_u0625_u0646 u0020 u0643_u0646_u062a u0020 u062a_u0637_u0628_u0642 u0020 u0646_u0645_u0637 u0020 u0645_u0639_u064a_u0646_u060c u0020 u064a_u0645_u0643_u0646_u0643 u0020 u062a_u062e_u0635_u064a_u0635 u0020 u062a_u0639_u0628_u0626_u0629 u0020 u0627_u0644_u0634_u0643_u0644_u0020", 
        "u0648_u0645_u062e_u0637_u0637_u0647 u0020 u0627_u0644_u062a_u0641_u0635_u064a_u0644_u064a u0020 u0648_u062a_u0623_u062b_u064a_u0631_u0627_u062a_u0647_u000d", 
        "u0625_u0639_u0627_u062f_u0629 u0020 u0627_u0644_u062a_u062d_u0643_u0645 u0020 u0628_u062d_u062c_u0645 u0020 u0627_u0644_u0623_u0634_u0643_u0627_u0644_u000d", 
        "u064a_u0645_u0643_u0646_u0643 u0020 u0625_u0639_u0627_u062f_u0629 u0020 u0627_u0644_u062a_u062d_u0643_u0645 u0020 u0628_u062d_u062c_u0645 u0020 u0627_u0644_u0623_u0634_u0643_u0627_u0644 u0020 u0648_u0646_u0642_u0644_u0647_u0627 u0020 u0628_u0646_u0641_u0633 u0020 u0627_u0644_u0637_u0631_u064a_u0642_u0629 u0020 u0627_u0644_u062a_u064a u0020 u062a_u062a_u062d_u0643_u0645 u0020 u0628_u0647_u0627_u0020", 
        "u0628_u062d_u062c_u0645 u0020 u0623_u064a u0020 u0643_u0627_u0626_u0646 u0020 u0622_u062e_u0631_u000d"
    ]
}