{
    "bounding_box": [
        [
            172, 
            211, 
            364, 
            37
        ]
    ], 
    "image_height": 540, 
    "image_width": 720, 
    "transcription": [
        [
            "u0050_u006f_u006c_u006c", 
            "u0020", 
            "u0051_u0075_u0065_u0073_u0074_u0069_u006f_u006e", 
            "u0020", 
            "u0023_u0031"
        ]
    ]
}