{
    "bounding_box": [
        [
            37, 
            64, 
            273, 
            36
        ], 
        [
            122, 
            144, 
            488, 
            23
        ], 
        [
            122, 
            177, 
            525, 
            23
        ], 
        [
            122, 
            211, 
            502, 
            23
        ], 
        [
            123, 
            251, 
            272, 
            23
        ], 
        [
            168, 
            287, 
            469, 
            17
        ], 
        [
            167, 
            312, 
            296, 
            16
        ], 
        [
            123, 
            345, 
            374, 
            23
        ], 
        [
            168, 
            380, 
            403, 
            17
        ], 
        [
            122, 
            414, 
            270, 
            23
        ], 
        [
            168, 
            449, 
            427, 
            17
        ]
    ], 
    "image_height": 540, 
    "image_width": 720, 
    "transcription": [
        [
            "u0054_u0072_u0061_u0063_u0065_u0061_u0062_u0069_u006c_u0069_u0074_u0079"
        ], 
        [
            "u0054_u0072_u0061_u0063_u0065_u0061_u0062_u0069_u006c_u0069_u0074_u0079", 
            "u0020", 
            "u0069_u0073", 
            "u0020", 
            "u0063_u006f_u006e_u0063_u0065_u0072_u006e_u0065_u0064", 
            "u0020", 
            "u0077_u0069_u0074_u0068", 
            "u0020", 
            "u0074_u0068_u0065_u0020"
        ], 
        [
            "u0072_u0065_u006c_u0061_u0074_u0069_u006f_u006e_u0073_u0068_u0069_u0070_u0073", 
            "u0020", 
            "u0062_u0065_u0074_u0077_u0065_u0065_u006e", 
            "u0020", 
            "u0072_u0065_u0071_u0075_u0069_u0072_u0065_u006d_u0065_u006e_u0074_u0073_u002c_u0020"
        ], 
        [
            "u0074_u0068_u0065_u0069_u0072", 
            "u0020", 
            "u0073_u006f_u0075_u0072_u0063_u0065_u0073", 
            "u0020", 
            "u0061_u006e_u0064", 
            "u0020", 
            "u0074_u0068_u0065", 
            "u0020", 
            "u0073_u0079_u0073_u0074_u0065_u006d", 
            "u0020", 
            "u0064_u0065_u0073_u0069_u0067_u006e_u000d"
        ], 
        [
            "u0053_u006f_u0075_u0072_u0063_u0065", 
            "u0020", 
            "u0074_u0072_u0061_u0063_u0065_u0061_u0062_u0069_u006c_u0069_u0074_u0079_u000d"
        ], 
        [
            "u004c_u0069_u006e_u006b_u0073", 
            "u0020", 
            "u0066_u0072_u006f_u006d", 
            "u0020", 
            "u0072_u0065_u0071_u0075_u0069_u0072_u0065_u006d_u0065_u006e_u0074_u0073", 
            "u0020", 
            "u0074_u006f", 
            "u0020", 
            "u0073_u0074_u0061_u006b_u0065_u0068_u006f_u006c_u0064_u0065_u0072_u0073", 
            "u0020", 
            "u0077_u0068_u006f_u0020"
        ], 
        [
            "u0070_u0072_u006f_u0070_u006f_u0073_u0065_u0064", 
            "u0020", 
            "u0074_u0068_u0065_u0073_u0065", 
            "u0020", 
            "u0072_u0065_u0071_u0075_u0069_u0072_u0065_u006d_u0065_u006e_u0074_u0073_u000d"
        ], 
        [
            "u0052_u0065_u0071_u0075_u0069_u0072_u0065_u006d_u0065_u006e_u0074_u0073", 
            "u0020", 
            "u0074_u0072_u0061_u0063_u0065_u0061_u0062_u0069_u006c_u0069_u0074_u0079_u000d"
        ], 
        [
            "u004c_u0069_u006e_u006b_u0073", 
            "u0020", 
            "u0062_u0065_u0074_u0077_u0065_u0065_u006e", 
            "u0020", 
            "u0064_u0065_u0070_u0065_u006e_u0064_u0065_u006e_u0074", 
            "u0020", 
            "u0072_u0065_u0071_u0075_u0069_u0072_u0065_u006d_u0065_u006e_u0074_u0073_u000d"
        ], 
        [
            "u0044_u0065_u0073_u0069_u0067_u006e", 
            "u0020", 
            "u0074_u0072_u0061_u0063_u0065_u0061_u0062_u0069_u006c_u0069_u0074_u0079_u000d"
        ], 
        [
            "u004c_u0069_u006e_u006b_u0073", 
            "u0020", 
            "u0066_u0072_u006f_u006d", 
            "u0020", 
            "u0074_u0068_u0065", 
            "u0020", 
            "u0072_u0065_u0071_u0075_u0069_u0072_u0065_u006d_u0065_u006e_u0074_u0073", 
            "u0020", 
            "u0074_u006f", 
            "u0020", 
            "u0074_u0068_u0065", 
            "u0020", 
            "u0064_u0065_u0073_u0069_u0067_u006e"
        ]
    ]
}