{
    "bounding_box": [
        [
            389, 
            27, 
            293, 
            34
        ], 
        [
            32, 
            84, 
            648, 
            32
        ], 
        [
            154, 
            182, 
            527, 
            32
        ], 
        [
            95, 
            239, 
            585, 
            29
        ], 
        [
            33, 
            296, 
            649, 
            30
        ], 
        [
            317, 
            333, 
            364, 
            34
        ], 
        [
            33, 
            391, 
            648, 
            32
        ], 
        [
            33, 
            430, 
            649, 
            31
        ], 
        [
            463, 
            470, 
            218, 
            28
        ]
    ], 
    "image_height": 540, 
    "image_width": 720, 
    "transcription": [
        [
            "u062b_u0627_u0646_u064a_u0627", 
            "u0020", 
            "u003a", 
            "u0020", 
            "u0627_u0644_u0623_u0633_u0628_u0648_u0639", 
            "u0020", 
            "u0627_u0644_u062b_u0627_u0646_u064a", 
            "u0020", 
            "u0648_u062d_u062a_u0649", 
            "u0020", 
            "u0627_u0644_u062a_u0627_u0633_u0639", 
            "u0020", 
            "u000d"
        ], 
        [
            "u0031_u002d", 
            "u0020", 
            "u0627_u0644_u062a_u062f_u0631_u064a_u0628", 
            "u0020", 
            "u0641_u064a", 
            "u0020", 
            "u0627_u0644_u0642_u0633_u0645", 
            "u0020", 
            "u0627_u0644_u0630_u064a", 
            "u0020", 
            "u064a_u062e_u062a_u0627_u0631_u0647", 
            "u0020", 
            "u0648_u064a_u0646_u0627_u0633_u0628", 
            "u0020", 
            "u062a_u062e_u0635_u0635_u0647", 
            "u0020", 
            "u0639_u0644_u0649", 
            "u0020", 
            "u0623_u0646", 
            "u0020", 
            "u064a_u0642_u0648_u0645", 
            "u0020", 
            "u0628_u0627_u0644_u062a_u0627_u0644_u064a_u0020"
        ], 
        [
            "u0032_u002d", 
            "u0020", 
            "u0627_u0644_u062a_u0639_u0631_u0641", 
            "u0020", 
            "u0627_u0644_u062f_u0642_u064a_u0642", 
            "u0020", 
            "u0639_u0644_u0649", 
            "u0020", 
            "u0623_u0633_u0627_u0644_u064a_u0628", 
            "u0020", 
            "u0648_u0645_u062c_u0627_u0644_u0627_u062a", 
            "u0020", 
            "u0627_u0644_u0639_u0645_u0644", 
            "u0020", 
            "u0641_u064a", 
            "u0020", 
            "u0627_u0644_u0642_u0633_u0645", 
            "u0020", 
            "u002e_u000d"
        ], 
        [
            "u0033_u002d", 
            "u0020", 
            "u062f_u0631_u0627_u0633_u0629", 
            "u0020", 
            "u0648_u0633_u0627_u0626_u0644", 
            "u0020", 
            "u0648_u0637_u0631_u0642", 
            "u0020", 
            "u0627_u0644_u0639_u0645_u0644", 
            "u0020", 
            "u0648_u0645_u0642_u0627_u0631_u0646_u062a_u0647_u0627", 
            "u0020", 
            "u0628_u0627_u0644_u062f_u0631_u0627_u0633_u0627_u062a", 
            "u0020", 
            "u0627_u0644_u0646_u0638_u0631_u064a_u0629", 
            "u0020", 
            "u0628_u0627_u0644_u0643_u0644_u064a_u0629", 
            "u0020", 
            "u002e_u000d"
        ], 
        [
            "u0034_u002d", 
            "u0020", 
            "u064a_u062f_u0648_u0646", 
            "u0020", 
            "u0645_u0644_u0627_u062d_u0638_u0627_u062a_u0647", 
            "u0020", 
            "u0627_u0644_u064a_u0648_u0645_u064a_u0629", 
            "u0020", 
            "u0645_u0633_u062a_u062e_u062f_u0645_u0627", 
            "u0020", 
            "u0627_u0644_u0631_u0633_u0648_u0645_u0627_u062a", 
            "u0020", 
            "u0648_u0645_u062f_u0648_u0646_u0627", 
            "u0020", 
            "u0643_u0644", 
            "u0020", 
            "u0645_u0627", 
            "u0020", 
            "u064a_u062a_u0645", 
            "u0020", 
            "u0625_u0646_u062c_u0627_u0632_u0647_u0020"
        ], 
        [
            "u0641_u064a", 
            "u0020", 
            "u0627_u0644_u0642_u0633_u0645", 
            "u0020", 
            "u0645_u062a_u0636_u0645_u0646_u0627_u064b", 
            "u0020", 
            "u0627_u0644_u0625_u064a_u062c_u0627_u0628_u064a_u0627_u062a", 
            "u0020", 
            "u0648_u0627_u0644_u0633_u0644_u0628_u064a_u0627_u062a", 
            "u0020", 
            "u002e_u000d"
        ], 
        [
            "u0035_u002d", 
            "u0020", 
            "u064a_u0642_u0636_u064a", 
            "u0020", 
            "u0623_u0633_u0628_u0648_u0639_u0627", 
            "u0020", 
            "u0623_u0648", 
            "u0020", 
            "u0627_u0643_u062b_u0631", 
            "u0020", 
            "u0641_u064a", 
            "u0020", 
            "u0643_u0644", 
            "u0020", 
            "u0645_u0631_u062d_u0644_u0647", 
            "u0020", 
            "u0645_u0646", 
            "u0020", 
            "u0645_u0631_u0627_u062d_u0644", 
            "u0020", 
            "u0627_u0644_u0639_u0645_u0644", 
            "u0020", 
            "u0641_u064a", 
            "u0020", 
            "u0627_u0644_u0642_u0633_u0645", 
            "u0020", 
            "u0648_u0639_u0644_u0649_u0020"
        ], 
        [
            "u0623_u0646", 
            "u0020", 
            "u064a_u0642_u0648_u0645", 
            "u0020", 
            "u0628_u062f_u0631_u0627_u0633_u062a_u0647_u0627", 
            "u0020", 
            "u0648_u062a_u062f_u0648_u064a_u0646", 
            "u0020", 
            "u0627_u0644_u0623_u0633_u0627_u0644_u064a_u0628", 
            "u0020", 
            "u0627_u0644_u0639_u0644_u0645_u064a_u0629", 
            "u0020", 
            "u0648_u0627_u0644_u0646_u0638_u0631_u064a_u0627_u062a", 
            "u0020", 
            "u0627_u0644_u0645_u0633_u062a_u062e_u062f_u0645_u0629", 
            "u0020", 
            "u0645_u0633_u062a_u0639_u064a_u0646_u0627_u0020"
        ], 
        [
            "u0628_u0627_u0644_u0631_u0633_u0648_u0645_u0627_u062a", 
            "u0020", 
            "u0642_u062f_u0631", 
            "u0020", 
            "u0627_u0644_u0625_u0645_u0643_u0627_u0646", 
            "u0020", 
            "u002e_u000d"
        ]
    ]
}