{
    "bounding_box": [
        [
            236, 
            51, 
            314, 
            39
        ], 
        [
            259, 
            236, 
            268, 
            32
        ]
    ], 
    "image_height": 595, 
    "image_width": 793, 
    "transcription": [
        [
            "u0041_u006e_u0079", 
            "u0020", 
            "u0051_u0075_u0065_u0073_u0074_u0069_u006f_u006e_u0073", 
            "u0020", 
            "u003f_u000d"
        ], 
        [
            "u0077_u0077_u0077_u002e_u0067_u006f_u006f_u0067_u006c_u0065_u002e_u0063_u006f_u006d", 
            "u0020", 
            "u003a_u0050"
        ]
    ]
}