{
    "bounding_box": [
        [
            224, 
            79, 
            274, 
            33
        ], 
        [
            72, 
            191, 
            592, 
            21
        ], 
        [
            70, 
            214, 
            582, 
            21
        ], 
        [
            71, 
            237, 
            155, 
            16
        ], 
        [
            78, 
            294, 
            555, 
            21
        ], 
        [
            71, 
            317, 
            520, 
            21
        ], 
        [
            73, 
            375, 
            601, 
            21
        ], 
        [
            72, 
            433, 
            597, 
            20
        ], 
        [
            71, 
            456, 
            385, 
            19
        ]
    ], 
    "image_height": 540, 
    "image_width": 720, 
    "transcription": [
        [
            "u0048_u0061_u0069_u006e_u0061_u006e", 
            "u0020", 
            "u0055_u006e_u0069_u0076_u0065_u0072_u0073_u0069_u0074_u0079"
        ], 
        [
            "u004c_u006f_u0063_u0061_u0074_u0065_u0064", 
            "u0020", 
            "u0069_u006e", 
            "u0020", 
            "u0048_u0061_u0069_u006b_u006f_u0075_u002c", 
            "u0020", 
            "u0074_u0068_u0065", 
            "u0020", 
            "u0063_u0061_u0070_u0069_u0074_u0061_u006c", 
            "u0020", 
            "u0063_u0069_u0074_u0079", 
            "u0020", 
            "u006f_u0066", 
            "u0020", 
            "u0020_u0048_u0061_u0069_u006e_u0061_u006e", 
            "u0020", 
            "u0070_u0072_u006f_u0076_u0069_u006e_u0063_u0065", 
            "u0020", 
            "u0069_u006e_u0020"
        ], 
        [
            "u0074_u0068_u0065", 
            "u0020", 
            "u0073_u006f_u0075_u0074_u0068", 
            "u0020", 
            "u006f_u0066", 
            "u0020", 
            "u0043_u0068_u0069_u006e_u0061_u002c", 
            "u0020", 
            "u0048_u0061_u0069_u006e_u0061_u006e", 
            "u0020", 
            "u0049_u0073_u006c_u0061_u006e_u0064", 
            "u0020", 
            "u0069_u0073", 
            "u0020", 
            "u0074_u0068_u0065", 
            "u0020", 
            "u0073_u0065_u0063_u006f_u006e_u0064", 
            "u0020", 
            "u006c_u0061_u0072_u0067_u0065_u0073_u0074_u0020"
        ], 
        [
            "u0069_u0073_u006c_u0061_u006e_u0064", 
            "u0020", 
            "u0069_u006e", 
            "u0020", 
            "u0043_u0068_u0069_u006e_u0061_u000d"
        ], 
        [
            "u0020_u0069_u0073", 
            "u0020", 
            "u0074_u0068_u0065", 
            "u0020", 
            "u006f_u006e_u006c_u0079", 
            "u0020", 
            "u0063_u006f_u006d_u0070_u0072_u0065_u0068_u0065_u006e_u0073_u0069_u0076_u0065", 
            "u0020", 
            "u0075_u006e_u0069_u0076_u0065_u0072_u0073_u0069_u0074_u0079", 
            "u0020", 
            "u0069_u006e", 
            "u0020", 
            "u0074_u0068_u0069_u0073", 
            "u0020", 
            "u0070_u0072_u006f_u0076_u0069_u006e_u0063_u0065_u002c_u0020"
        ], 
        [
            "u0061_u006c_u0073_u006f", 
            "u0020", 
            "u0074_u0068_u0065", 
            "u0020", 
            "u006c_u0061_u0072_u0067_u0065_u0073_u0074", 
            "u0020", 
            "u0075_u006e_u0069_u0076_u0065_u0072_u0073_u0069_u0074_u0079_u002c", 
            "u0020", 
            "u0063_u006f_u006d_u0070_u0072_u0069_u0073_u0065_u0073", 
            "u0020", 
            "u0031_u0033", 
            "u0020", 
            "u0063_u006f_u006c_u006c_u0065_u0067_u0065_u0073_u000d"
        ], 
        [
            "u0031_u0030_u002c_u0030_u0030_u0030", 
            "u0020", 
            "u0075_u006e_u0064_u0065_u0072_u0067_u0072_u0061_u0064_u0075_u0061_u0074_u0065", 
            "u0020", 
            "u0073_u0074_u0075_u0064_u0065_u006e_u0074_u0073", 
            "u0020", 
            "u0061_u006e_u0064", 
            "u0020", 
            "u0035_u002c_u0030_u0030_u0030", 
            "u0020", 
            "u0061_u0064_u0075_u006c_u0074", 
            "u0020", 
            "u0073_u0074_u0075_u0064_u0065_u006e_u0074_u0073", 
            "u0020", 
            "u000d"
        ], 
        [
            "u0048_u0061_u0069_u006e_u0061_u006e", 
            "u0020", 
            "u0055_u006e_u0069_u0076_u0065_u0072_u0073_u0069_u0074_u0079", 
            "u0020", 
            "u004c_u0069_u0062_u0072_u0061_u0072_u0079_u003a", 
            "u0020", 
            "u0077_u0069_u0074_u0068", 
            "u0020", 
            "u0074_u0068_u0065", 
            "u0020", 
            "u0073_u0069_u007a_u0065", 
            "u0020", 
            "u006f_u0066", 
            "u0020", 
            "u0033_u0032_u002c_u0030_u0030_u0030", 
            "u0020", 
            "u0073_u0071_u0075_u0061_u0072_u0065_u0020"
        ], 
        [
            "u006d_u0065_u0074_u0065_u0072_u0073_u002c", 
            "u0020", 
            "u0031_u002e_u0032", 
            "u0020", 
            "u006d_u0069_u006c_u006c_u0069_u006f_u006e", 
            "u0020", 
            "u0076_u006f_u006c_u0075_u006d_u0065_u0073", 
            "u0020", 
            "u006f_u0066", 
            "u0020", 
            "u0062_u006f_u006f_u006b_u0073"
        ]
    ]
}