{
    "bounding_box": [
        [
            99, 
            38, 
            517, 
            32
        ], 
        [
            53, 
            201, 
            449, 
            27
        ], 
        [
            25, 
            103, 
            645, 
            28
        ], 
        [
            54, 
            318, 
            537, 
            26
        ], 
        [
            54, 
            422, 
            622, 
            26
        ], 
        [
            53, 
            366, 
            509, 
            26
        ], 
        [
            53, 
            482, 
            484, 
            27
        ], 
        [
            53, 
            153, 
            610, 
            27
        ], 
        [
            53, 
            261, 
            653, 
            21
        ]
    ], 
    "image_height": 540, 
    "image_width": 720, 
    "transcription": [
        [
            "u0054_u0068_u0065", 
            "u0020", 
            "u0070_u0072_u0065_u002d_u0031_u0038_u0038_u0035", 
            "u0020", 
            "u0053_u0070_u006f_u0072_u0074", 
            "u0020", 
            "u0026", 
            "u0020", 
            "u0066_u0069_u0074_u006e_u0065_u0073_u0073", 
            "u0020", 
            "u0073_u0063_u0065_u006e_u0065"
        ], 
        [
            "u0020", 
            "u0020", 
            "u0031_u0038_u0032_u0037", 
            "u0020", 
            "u002d_u0046_u0069_u0072_u0073_u0074", 
            "u0020", 
            "u0063_u006f_u006d_u0070_u0065_u0074_u0069_u0074_u0069_u0076_u0065", 
            "u0020", 
            "u0066_u006f_u006f_u0074_u0062_u0061_u006c_u006c", 
            "u0020", 
            "u0067_u0061_u006d_u0065"
        ], 
        [
            "u0053_u006f_u006d_u0065", 
            "u0020", 
            "u0073_u0061_u006d_u0070_u006c_u0065", 
            "u0020", 
            "u006d_u0061_u0072_u0071_u0075_u0065_u0065", 
            "u0020", 
            "u0064_u0065_u0076_u0065_u006c_u006f_u0070_u006d_u0065_u006e_u0074_u0073_u003a", 
            "u0020", 
            "u0028_u0073_u0065_u0065", 
            "u0020", 
            "u0061_u006c_u0073_u006f", 
            "u0020", 
            "u0042_u006f_u0078", 
            "u0020", 
            "u0032_u002e_u0031_u0029"
        ], 
        [
            "u0020", 
            "u0020", 
            "u0031_u0038_u0033_u0039", 
            "u0020", 
            "u002d_u0046_u0069_u0072_u0073_u0074", 
            "u0020", 
            "u0074_u0065_u0061_u0063_u0068_u0065_u0072", 
            "u0020", 
            "u0074_u0072_u0061_u0069_u006e_u0069_u006e_u0067", 
            "u0020", 
            "u0070_u0072_u006f_u0067_u0072_u0061_u006d", 
            "u0020", 
            "u0066_u006f_u0075_u006e_u0064_u0065_u0064_u0020"
        ], 
        [
            "u0020", 
            "u0020", 
            "u0031_u0038_u0035_u0031", 
            "u0020", 
            "u002d_u0046_u0069_u0072_u0073_u0074", 
            "u0020", 
            "u0059_u004d_u0043_u0041", 
            "u0020", 
            "u0069_u006e", 
            "u0020", 
            "u0041_u006d_u0065_u0072_u0069_u0063_u0061", 
            "u0020", 
            "u0028_u0063_u0068_u0061_u0072_u0061_u0063_u0074_u0065_u0072", 
            "u0020", 
            "u0065_u0064_u0075", 
            "u0020", 
            "u0026", 
            "u0020", 
            "u0050_u0041_u0029"
        ], 
        [
            "u0020", 
            "u0020", 
            "u0031_u0038_u0034_u0038", 
            "u0020", 
            "u002d_u201c_u0054_u0075_u0072_u006e_u0076_u0065_u0072_u0065_u0069_u006e_u201d", 
            "u0020", 
            "u0063_u006c_u0075_u0062", 
            "u0020", 
            "u0028_u0047_u0065_u0072_u006d_u0061_u006e_u0029", 
            "u0020", 
            "u0066_u006f_u0072_u006d_u0065_u0064"
        ], 
        [
            "u0020", 
            "u0020", 
            "u0031_u0038_u0035_u0039", 
            "u0020", 
            "u002d_u0046_u0069_u0072_u0073_u0074", 
            "u0020", 
            "u0069_u006e_u0074_u0065_u0072_u0063_u006f_u006c_u006c_u0065_u0067_u0069_u0061_u0074_u0065", 
            "u0020", 
            "u0062_u0061_u0073_u0065_u0062_u0061_u006c_u006c", 
            "u0020", 
            "u0067_u0061_u006d_u0065_u0020"
        ], 
        [
            "u0020", 
            "u0020", 
            "u0031_u0038_u0032_u0035", 
            "u0020", 
            "u002d_u0031_u0073_u0074", 
            "u0020", 
            "u0050_u0068_u0079_u0073_u0069_u0063_u0061_u006c", 
            "u0020", 
            "u0045_u0064_u0075_u0063_u0061_u0074_u0069_u006f_u006e", 
            "u0020", 
            "u0074_u0065_u0061_u0063_u0068_u0065_u0072_u003a", 
            "u0020", 
            "u0043_u0068_u0061_u0072_u006c_u0065_u0073", 
            "u0020", 
            "u0042_u0065_u0063_u006b"
        ], 
        [
            "u0020", 
            "u0020", 
            "u0031_u0038_u0033_u0037", 
            "u0020", 
            "u002d_u0043_u0061_u0074_u0068_u0065_u0072_u0069_u006e_u0065", 
            "u0020", 
            "u0042_u0065_u0065_u0063_u0068_u0065_u0072", 
            "u0020", 
            "u0066_u006f_u0075_u006e_u0064_u0065_u0064", 
            "u0020", 
            "u0057_u0065_u0073_u0074_u0065_u0072_u006e", 
            "u0020", 
            "u0046_u0065_u006d_u0061_u006c_u0065", 
            "u0020", 
            "u0049_u006e_u0073_u0074"
        ]
    ]
}