{
    "bounding_box": [
        [
            45, 
            54, 
            404, 
            47
        ], 
        [
            66, 
            149, 
            162, 
            21
        ], 
        [
            91, 
            182, 
            570, 
            16
        ], 
        [
            90, 
            209, 
            215, 
            16
        ], 
        [
            90, 
            240, 
            528, 
            20
        ], 
        [
            90, 
            267, 
            558, 
            20
        ], 
        [
            90, 
            293, 
            445, 
            20
        ], 
        [
            66, 
            326, 
            201, 
            21
        ], 
        [
            91, 
            359, 
            550, 
            20
        ], 
        [
            90, 
            386, 
            142, 
            15
        ], 
        [
            90, 
            418, 
            500, 
            20
        ], 
        [
            91, 
            444, 
            321, 
            20
        ], 
        [
            665, 
            506, 
            10, 
            18
        ]
    ], 
    "image_height": 540, 
    "image_width": 720, 
    "transcription": [
        [
            "u0053_u006f_u0066_u0074_u0077_u0061_u0072_u0065", 
            "u0020", 
            "u0070_u0072_u006f_u0064_u0075_u0063_u0074_u0073"
        ], 
        [
            "u0047_u0065_u006e_u0065_u0072_u0069_u0063", 
            "u0020", 
            "u0070_u0072_u006f_u0064_u0075_u0063_u0074_u0073_u000d"
        ], 
        [
            "u0053_u0074_u0061_u006e_u0064_u002d_u0061_u006c_u006f_u006e_u0065", 
            "u0020", 
            "u0073_u0079_u0073_u0074_u0065_u006d_u0073", 
            "u0020", 
            "u0074_u0068_u0061_u0074", 
            "u0020", 
            "u0061_u0072_u0065", 
            "u0020", 
            "u006d_u0061_u0072_u006b_u0065_u0074_u0065_u0064", 
            "u0020", 
            "u0061_u006e_u0064", 
            "u0020", 
            "u0073_u006f_u006c_u0064", 
            "u0020", 
            "u0074_u006f", 
            "u0020", 
            "u0061_u006e_u0079", 
            "u0020", 
            "u0063_u0075_u0073_u0074_u006f_u006d_u0065_u0072_u0020"
        ], 
        [
            "u0077_u0068_u006f", 
            "u0020", 
            "u0077_u0069_u0073_u0068_u0065_u0073", 
            "u0020", 
            "u0074_u006f", 
            "u0020", 
            "u0062_u0075_u0079", 
            "u0020", 
            "u0074_u0068_u0065_u006d_u002e_u000d"
        ], 
        [
            "u0045_u0078_u0061_u006d_u0070_u006c_u0065_u0073", 
            "u0020", 
            "u2013", 
            "u0020", 
            "u0050_u0043", 
            "u0020", 
            "u0073_u006f_u0066_u0074_u0077_u0061_u0072_u0065", 
            "u0020", 
            "u0073_u0075_u0063_u0068", 
            "u0020", 
            "u0061_u0073", 
            "u0020", 
            "u0065_u0064_u0069_u0074_u0069_u006e_u0067_u002c", 
            "u0020", 
            "u0067_u0072_u0061_u0070_u0068_u0069_u0063_u0073", 
            "u0020", 
            "u0070_u0072_u006f_u0067_u0072_u0061_u006d_u0073_u002c_u0020"
        ], 
        [
            "u0070_u0072_u006f_u006a_u0065_u0063_u0074", 
            "u0020", 
            "u006d_u0061_u006e_u0061_u0067_u0065_u006d_u0065_u006e_u0074", 
            "u0020", 
            "u0074_u006f_u006f_u006c_u0073_u003b", 
            "u0020", 
            "u0043_u0041_u0044", 
            "u0020", 
            "u0073_u006f_u0066_u0074_u0077_u0061_u0072_u0065_u003b", 
            "u0020", 
            "u0073_u006f_u0066_u0074_u0077_u0061_u0072_u0065", 
            "u0020", 
            "u0066_u006f_u0072", 
            "u0020", 
            "u0073_u0070_u0065_u0063_u0069_u0066_u0069_u0063_u0020"
        ], 
        [
            "u006d_u0061_u0072_u006b_u0065_u0074_u0073", 
            "u0020", 
            "u0073_u0075_u0063_u0068", 
            "u0020", 
            "u0061_u0073", 
            "u0020", 
            "u0061_u0070_u0070_u006f_u0069_u006e_u0074_u006d_u0065_u006e_u0074_u0073", 
            "u0020", 
            "u0073_u0079_u0073_u0074_u0065_u006d_u0073", 
            "u0020", 
            "u0066_u006f_u0072", 
            "u0020", 
            "u0064_u0065_u006e_u0074_u0069_u0073_u0074_u0073_u002e_u000d"
        ], 
        [
            "u0043_u0075_u0073_u0074_u006f_u006d_u0069_u007a_u0065_u0064", 
            "u0020", 
            "u0070_u0072_u006f_u0064_u0075_u0063_u0074_u0073_u000d"
        ], 
        [
            "u0053_u006f_u0066_u0074_u0077_u0061_u0072_u0065", 
            "u0020", 
            "u0074_u0068_u0061_u0074", 
            "u0020", 
            "u0069_u0073", 
            "u0020", 
            "u0063_u006f_u006d_u006d_u0069_u0073_u0073_u0069_u006f_u006e_u0065_u0064", 
            "u0020", 
            "u0062_u0079", 
            "u0020", 
            "u0061", 
            "u0020", 
            "u0073_u0070_u0065_u0063_u0069_u0066_u0069_u0063", 
            "u0020", 
            "u0063_u0075_u0073_u0074_u006f_u006d_u0065_u0072", 
            "u0020", 
            "u0074_u006f", 
            "u0020", 
            "u006d_u0065_u0065_u0074_u0020"
        ], 
        [
            "u0074_u0068_u0065_u0069_u0072", 
            "u0020", 
            "u006f_u0077_u006e", 
            "u0020", 
            "u006e_u0065_u0065_u0064_u0073_u002e", 
            "u0020", 
            "u000d"
        ], 
        [
            "u0045_u0078_u0061_u006d_u0070_u006c_u0065_u0073", 
            "u0020", 
            "u2013", 
            "u0020", 
            "u0065_u006d_u0062_u0065_u0064_u0064_u0065_u0064", 
            "u0020", 
            "u0063_u006f_u006e_u0074_u0072_u006f_u006c", 
            "u0020", 
            "u0073_u0079_u0073_u0074_u0065_u006d_u0073_u002c", 
            "u0020", 
            "u0061_u0069_u0072", 
            "u0020", 
            "u0074_u0072_u0061_u0066_u0066_u0069_u0063", 
            "u0020", 
            "u0063_u006f_u006e_u0074_u0072_u006f_u006c_u0020"
        ], 
        [
            "u0073_u006f_u0066_u0074_u0077_u0061_u0072_u0065_u002c", 
            "u0020", 
            "u0074_u0072_u0061_u0066_u0066_u0069_u0063", 
            "u0020", 
            "u006d_u006f_u006e_u0069_u0074_u006f_u0072_u0069_u006e_u0067", 
            "u0020", 
            "u0073_u0079_u0073_u0074_u0065_u006d_u0073_u002e"
        ], 
        [
            "u0033"
        ]
    ]
}