{
    "bounding_box": [
        [
            46, 
            54, 
            156, 
            27
        ], 
        [
            71, 
            130, 
            557, 
            12
        ], 
        [
            71, 
            144, 
            590, 
            12
        ], 
        [
            71, 
            156, 
            280, 
            13
        ], 
        [
            71, 
            174, 
            591, 
            11
        ], 
        [
            71, 
            186, 
            575, 
            13
        ], 
        [
            71, 
            201, 
            32, 
            9
        ], 
        [
            71, 
            218, 
            568, 
            11
        ], 
        [
            70, 
            230, 
            584, 
            13
        ], 
        [
            71, 
            243, 
            61, 
            10
        ], 
        [
            71, 
            261, 
            588, 
            12
        ], 
        [
            70, 
            275, 
            598, 
            12
        ], 
        [
            71, 
            287, 
            101, 
            13
        ], 
        [
            71, 
            305, 
            590, 
            11
        ], 
        [
            71, 
            317, 
            423, 
            13
        ], 
        [
            71, 
            335, 
            550, 
            12
        ], 
        [
            71, 
            349, 
            481, 
            12
        ], 
        [
            71, 
            365, 
            578, 
            12
        ], 
        [
            71, 
            379, 
            55, 
            9
        ], 
        [
            71, 
            396, 
            581, 
            11
        ], 
        [
            71, 
            409, 
            54, 
            9
        ]
    ], 
    "image_height": 540, 
    "image_width": 720, 
    "transcription": [
        [
            "u004c_u0069_u0074_u0065_u0072_u0061_u0074_u0075_u0072_u0065"
        ], 
        [
            "u0050_u0065_u0072_u0076_u00f6_u006c_u007a_u002c", 
            "u0020", 
            "u004b_u002e_u003b", 
            "u0020", 
            "u0053_u0075_u0072_u006d_u0061_u006e_u006e_u002c", 
            "u0020", 
            "u0048_u002e", 
            "u0020", 
            "u0026", 
            "u0020", 
            "u004d_u0061_u0079_u002c", 
            "u0020", 
            "u0053_u002e", 
            "u0020", 
            "u0028_u0032_u0030_u0030_u0036_u0029_u002c", 
            "u0020", 
            "u0033_u0044", 
            "u0020", 
            "u004c_u0061_u0073_u0065_u0072", 
            "u0020", 
            "u0053_u0063_u0061_u006e_u006e_u0065_u0072", 
            "u0020", 
            "u0066_u006f_u0072", 
            "u0020", 
            "u0054_u0065_u006c_u0065_u002d_u0065_u0078_u0070_u006c_u006f_u0072_u0061_u0074_u0069_u006f_u006e", 
            "u0020", 
            "u0052_u006f_u0062_u006f_u0074_u0069_u0063_u0020"
        ], 
        [
            "u0053_u0079_u0073_u0074_u0065_u006d_u0073_u002c", 
            "u0020", 
            "u0069_u006e", 
            "u0020", 
            "u0027_u0050_u0072_u006f_u0063_u0065_u0065_u0064_u0069_u006e_u0067_u0073", 
            "u0020", 
            "u006f_u0066", 
            "u0020", 
            "u0074_u0068_u0065", 
            "u0020", 
            "u0049_u006e_u0074_u0065_u0072_u006e_u0061_u0074_u0069_u006f_u006e_u0061_u006c", 
            "u0020", 
            "u0057_u006f_u0072_u006b_u0073_u0068_u006f_u0070", 
            "u0020", 
            "u006f_u006e", 
            "u0020", 
            "u0053_u0061_u0066_u0074_u0079_u002c", 
            "u0020", 
            "u0053_u0065_u0063_u0075_u0072_u0069_u0074_u0079", 
            "u0020", 
            "u0061_u006e_u0064", 
            "u0020", 
            "u0052_u0065_u0073_u0063_u0075_u0065", 
            "u0020", 
            "u0052_u006f_u0062_u006f_u0074_u0069_u0063_u0073_u0020"
        ], 
        [
            "u0028_u0053_u0053_u0052_u0052", 
            "u0020", 
            "u0032_u0030_u0030_u0036_u0029_u002c", 
            "u0020", 
            "u0047_u0061_u0069_u0074_u0068_u0065_u0072_u0073_u0062_u0075_u0072_u0067_u002c", 
            "u0020", 
            "u004d_u0061_u0072_u0079_u006c_u0061_u006e_u0064_u002c", 
            "u0020", 
            "u0055_u0053_u0041_u002c_u0027_u002e_u000d"
        ], 
        [
            "u0050_u006f_u0077_u0065_u006c_u006c_u002c", 
            "u0020", 
            "u0044_u002e_u003b", 
            "u0020", 
            "u0047_u0069_u006c_u0062_u0072_u0065_u0061_u0074_u0068_u002c", 
            "u0020", 
            "u0047_u002e", 
            "u0020", 
            "u0026", 
            "u0020", 
            "u0042_u0072_u0075_u0063_u0068_u002c", 
            "u0020", 
            "u004d_u002e", 
            "u0020", 
            "u0028_u0032_u0030_u0030_u0036_u0029_u002c", 
            "u0020", 
            "u0027_u004d_u0075_u006c_u0074_u0069_u002d_u0072_u006f_u0062_u006f_u0074", 
            "u0020", 
            "u006f_u0070_u0065_u0072_u0061_u0074_u006f_u0072", 
            "u0020", 
            "u0063_u006f_u006e_u0074_u0072_u006f_u006c", 
            "u0020", 
            "u0075_u006e_u0069_u0074_u0027_u002c", 
            "u0020", 
            "u0053_u0050_u0049_u0045", 
            "u0020", 
            "u0050_u0072_u006f_u0063_u002e", 
            "u0020", 
            "u0036_u0032_u0033_u0030_u003a_u0020"
        ], 
        [
            "u0055_u006e_u006d_u0061_u006e_u006e_u0065_u0064", 
            "u0020", 
            "u0053_u0079_u0073_u0074_u0065_u006d_u0073", 
            "u0020", 
            "u0054_u0065_u0063_u0068_u006e_u006f_u006c_u006f_u0067_u0079", 
            "u0020", 
            "u0056_u0049_u0049_u0049_u002c", 
            "u0020", 
            "u0044_u0065_u0066_u0065_u006e_u0073_u0065", 
            "u0020", 
            "u0053_u0065_u0063_u0075_u0072_u0069_u0074_u0079", 
            "u0020", 
            "u0053_u0079_u006d_u0070_u006f_u0073_u0069_u0075_u006d_u002c", 
            "u0020", 
            "u004f_u0072_u006c_u0061_u006e_u0064_u006f_u002c", 
            "u0020", 
            "u0046_u004c_u002c", 
            "u0020", 
            "u0031_u0038_u002d_u0032_u0030", 
            "u0020", 
            "u0041_u0070_u0072_u0069_u006c_u002c_u0020"
        ], 
        [
            "u0032_u0030_u0030_u0036_u002e_u000d"
        ], 
        [
            "u0052_u0061_u007a_u006c_u0069_u0067_u0068_u002c", 
            "u0020", 
            "u0051_u002e", 
            "u0020", 
            "u0052_u002e", 
            "u0020", 
            "u0026", 
            "u0020", 
            "u004b_u0065_u0068_u0074_u0061_u0072_u006e_u0061_u0076_u0061_u007a_u002c", 
            "u0020", 
            "u004e_u002e", 
            "u0020", 
            "u0028_u0032_u0030_u0030_u0037_u0029_u002c", 
            "u0020", 
            "u0027_u0049_u006d_u0061_u0065_u0067", 
            "u0020", 
            "u0042_u006c_u0075_u0072", 
            "u0020", 
            "u0052_u0065_u0064_u0075_u0063_u0074_u0069_u006f_u006e", 
            "u0020", 
            "u0066_u006f_u0072", 
            "u0020", 
            "u0043_u0065_u006c_u006c_u002d_u0050_u0068_u006f_u006e_u0065", 
            "u0020", 
            "u0043_u0061_u006d_u0065_u0072_u0061_u0073", 
            "u0020", 
            "u0056_u0069_u0061_u0020"
        ], 
        [
            "u0041_u0064_u0061_u0070_u0074_u0069_u0076_u0065", 
            "u0020", 
            "u0054_u006f_u006e_u0061_u006c", 
            "u0020", 
            "u0043_u006f_u0072_u0072_u0065_u0063_u0074_u0069_u006f_u006e_u0027_u002c", 
            "u0020", 
            "u0049_u0043_u0049_u0050_u003a", 
            "u0020", 
            "u0049_u0045_u0045_u0045", 
            "u0020", 
            "u0049_u006e_u0074_u0065_u0072_u006e_u0061_u0074_u0069_u006f_u006e_u0061_u006c", 
            "u0020", 
            "u0043_u006f_u006e_u0066_u0065_u0072_u0065_u006e_u0063_u0065", 
            "u0020", 
            "u006f_u006e", 
            "u0020", 
            "u0049_u006d_u0061_u0067_u0065", 
            "u0020", 
            "u0050_u0072_u006f_u0063_u0065_u0073_u0073_u0069_u006e_u0067_u002c", 
            "u0020", 
            "u0032_u0030_u0030_u0037", 
            "u0020", 
            "u0031_u002c_u0020"
        ], 
        [
            "u0031_u0031_u0033", 
            "u0020", 
            "u002d", 
            "u0020", 
            "u0031_u0031_u0036_u002e_u000d"
        ], 
        [
            "u0052_u006f_u0062_u0065_u0072_u0074_u0073_u002c", 
            "u0020", 
            "u004b_u002e", 
            "u0020", 
            "u0026", 
            "u0020", 
            "u0050_u0069_u0063_u006b_u002c", 
            "u0020", 
            "u004a_u002e", 
            "u0020", 
            "u0028_u0032_u0030_u0030_u0034_u0029_u002c", 
            "u0020", 
            "u0027_u0054_u0065_u0063_u0068_u006e_u006f_u006c_u006f_u0067_u0079", 
            "u0020", 
            "u0066_u0061_u0063_u0074_u006f_u0072_u0073", 
            "u0020", 
            "u0069_u006e", 
            "u0020", 
            "u0063_u006f_u0072_u0070_u006f_u0072_u0061_u0074_u0065", 
            "u0020", 
            "u0061_u0064_u006f_u0070_u0074_u0069_u006f_u006e", 
            "u0020", 
            "u006f_u0066", 
            "u0020", 
            "u006d_u006f_u0062_u0069_u006c_u0065", 
            "u0020", 
            "u0063_u0065_u006c_u006c", 
            "u0020", 
            "u0070_u0068_u006f_u006e_u0065_u0073_u003a", 
            "u0020", 
            "u0061_u0020"
        ], 
        [
            "u0063_u0061_u0073_u0065", 
            "u0020", 
            "u0073_u0074_u0075_u0064_u0079", 
            "u0020", 
            "u0061_u006e_u0061_u006c_u0079_u0073_u0069_u0073_u0027_u002c", 
            "u0020", 
            "u0050_u0072_u006f_u0063_u0065_u0065_u0064_u0069_u006e_u0067_u0073", 
            "u0020", 
            "u006f_u0066", 
            "u0020", 
            "u0074_u0068_u0065", 
            "u0020", 
            "u0033_u0037_u0074_u0068", 
            "u0020", 
            "u0041_u006e_u006e_u0075_u0061_u006c", 
            "u0020", 
            "u0048_u0061_u0077_u0061_u0069_u0069", 
            "u0020", 
            "u0049_u006e_u0074_u0065_u0072_u006e_u0061_u0074_u0069_u006f_u006e_u0061_u006c", 
            "u0020", 
            "u0043_u006f_u006e_u0066_u0065_u0072_u0065_u006e_u0063_u0065", 
            "u0020", 
            "u006f_u006e", 
            "u0020", 
            "u0053_u0079_u0073_u0074_u0065_u006d_u0020"
        ], 
        [
            "u0053_u0063_u0069_u0065_u006e_u0063_u0065_u0073_u002c", 
            "u0020", 
            "u0031_u0030", 
            "u0020", 
            "u0070_u0070_u002e_u000d"
        ], 
        [
            "u0052_u006f_u0063_u0068_u0065_u002c", 
            "u0020", 
            "u0050_u002e_u003b", 
            "u0020", 
            "u0053_u0075_u006e_u002c", 
            "u0020", 
            "u004d_u002e", 
            "u0020", 
            "u0026", 
            "u0020", 
            "u0053_u0063_u006c_u0061_u0062_u0061_u0073_u0073_u0069_u002c", 
            "u0020", 
            "u0052_u002e", 
            "u0020", 
            "u0028_u0032_u0030_u0030_u0035_u0029_u002c", 
            "u0020", 
            "u0027_u0055_u0073_u0069_u006e_u0067", 
            "u0020", 
            "u0061", 
            "u0020", 
            "u0063_u0065_u006c_u006c", 
            "u0020", 
            "u0070_u0068_u006f_u006e_u0065", 
            "u0020", 
            "u0066_u006f_u0072", 
            "u0020", 
            "u0062_u0069_u006f_u0074_u0065_u006c_u0065_u006d_u0065_u0074_u0072_u0079_u0027_u002c", 
            "u0020", 
            "u0050_u0072_u006f_u0063_u0065_u0065_u0064_u0069_u006e_u0067_u0073", 
            "u0020", 
            "u006f_u0066_u0020"
        ], 
        [
            "u0074_u0068_u0065", 
            "u0020", 
            "u0049_u0045_u0045_u0045", 
            "u0020", 
            "u0033_u0031_u0073_u0074", 
            "u0020", 
            "u0041_u006e_u006e_u0075_u0061_u006c", 
            "u0020", 
            "u004e_u006f_u0072_u0074_u0068_u0065_u0061_u0073_u0074", 
            "u0020", 
            "u0042_u0069_u006f_u0065_u006e_u0067_u0069_u006e_u0065_u0065_u0072_u0069_u006e_u0067", 
            "u0020", 
            "u0043_u006f_u006e_u0066_u0065_u0072_u0065_u006e_u0063_u0065_u002c", 
            "u0020", 
            "u0036_u0035", 
            "u0020", 
            "u002d", 
            "u0020", 
            "u0036_u0036_u002e_u000d"
        ], 
        [
            "u0052_u006f_u0076_u0065_u0074_u0074_u0061_u002c", 
            "u0020", 
            "u0041_u002e_u003b", 
            "u0020", 
            "u0053_u0061_u006c_u0061_u002c", 
            "u0020", 
            "u0052_u002e_u003b", 
            "u0020", 
            "u0057_u0065_u006e_u002c", 
            "u0020", 
            "u0058_u002e", 
            "u0020", 
            "u0026", 
            "u0020", 
            "u0054_u006f_u0067_u006e_u006f_u002c", 
            "u0020", 
            "u0041_u002e", 
            "u0020", 
            "u0028_u0031_u0039_u0039_u0036_u0029_u002c", 
            "u0020", 
            "u0027_u0052_u0065_u006d_u006f_u0074_u0065", 
            "u0020", 
            "u0063_u006f_u006e_u0074_u0072_u006f_u006c", 
            "u0020", 
            "u0069_u006e", 
            "u0020", 
            "u0074_u0065_u006c_u0065_u0072_u006f_u0062_u006f_u0074_u0069_u0063", 
            "u0020", 
            "u0073_u0075_u0072_u0067_u0065_u0072_u0079_u0027_u002c_u0020"
        ], 
        [
            "u0053_u0079_u0073_u0074_u0065_u006d_u0073_u002c", 
            "u0020", 
            "u004d_u0061_u006e", 
            "u0020", 
            "u0061_u006e_u0064", 
            "u0020", 
            "u0043_u0079_u0062_u0065_u0072_u006e_u0065_u0074_u0069_u0063_u0073_u002c", 
            "u0020", 
            "u0050_u0061_u0072_u0074", 
            "u0020", 
            "u0041_u002c", 
            "u0020", 
            "u0049_u0045_u0045_u0045", 
            "u0020", 
            "u0054_u0072_u0061_u006e_u0073_u0061_u0063_u0074_u0069_u006f_u006e_u0073", 
            "u0020", 
            "u006f_u006e", 
            "u0020", 
            "u0032_u0036_u0028_u0034_u0029_u002c", 
            "u0020", 
            "u0034_u0033_u0038_u002d_u0034_u0034_u0034_u002e_u000d"
        ], 
        [
            "u0052_u00f6_u0074_u0074_u0067_u0065_u0072_u0073_u002c", 
            "u0020", 
            "u004a_u002e", 
            "u0020", 
            "u0028_u0032_u0030_u0030_u0038_u0029_u002c", 
            "u0020", 
            "u0027_u0045_u0054_u0065_u0063_u0068_u003a", 
            "u0020", 
            "u004d_u0065_u0068_u0072", 
            "u0020", 
            "u0053_u0069_u0063_u0068_u0065_u0072_u0068_u0065_u0069_u0074_u0073_u0072_u0069_u0073_u0069_u006b_u0065_u006e", 
            "u0020", 
            "u0064_u0075_u0072_u0063_u0068", 
            "u0020", 
            "u0047_u006f_u006f_u0067_u006c_u0065_u0073", 
            "u0020", 
            "u004d_u006f_u0062_u0069_u006c_u0066_u0075_u006e_u006b_u0073_u0079_u0073_u0074_u0065_u006d", 
            "u0020", 
            "u0041_u006e_u0064_u0072_u006f_u0069_u0064_u0027_u002c_u0020"
        ], 
        [
            "u0068_u0065_u0069_u0073_u0065_u002e_u0064_u0065_u002e_u000d"
        ], 
        [
            "u0052_u00f6_u0074_u007a_u0065_u0072_u002c", 
            "u0020", 
            "u0046_u002e", 
            "u0020", 
            "u0028_u0032_u0030_u0030_u0038_u0029_u002c", 
            "u0020", 
            "u0027_u0049_u006e_u0074_u0065_u0072_u006e_u0061_u0074_u0069_u006f_u006e_u0061_u006c_u0065_u0073", 
            "u0020", 
            "u0041_u0062_u006b_u006f_u006d_u006d_u0065_u006e", 
            "u0020", 
            "u007a_u0075_u006d", 
            "u0020", 
            "u0056_u0065_u0072_u0062_u006f_u0074", 
            "u0020", 
            "u0061_u0075_u0074_u006f_u006e_u006f_u006d_u0065_u0072", 
            "u0020", 
            "u004b_u0061_u006d_u0070_u0066_u0072_u006f_u0062_u006f_u0074_u0065_u0072", 
            "u0020", 
            "u0067_u0065_u0066_u006f_u0072_u0064_u0065_u0072_u0074_u0027_u002c_u0020"
        ], 
        [
            "u0068_u0065_u0069_u0073_u0065_u002e_u0064_u0065_u002e"
        ]
    ]
}