{
    "bounding_box": [
        [
            662, 
            500, 
            13, 
            8
        ]
    ], 
    "image_height": 540, 
    "image_width": 720, 
    "transcription": [
        [
            "u0031_u0033"
        ]
    ]
}