{
    "bounding_box": [
        [
            118, 
            71, 
            485, 
            32
        ], 
        [
            53, 
            148, 
            314, 
            16
        ], 
        [
            53, 
            170, 
            307, 
            15
        ], 
        [
            53, 
            187, 
            58, 
            16
        ], 
        [
            53, 
            213, 
            335, 
            15
        ], 
        [
            52, 
            235, 
            202, 
            12
        ], 
        [
            85, 
            261, 
            235, 
            12
        ], 
        [
            53, 
            286, 
            317, 
            16
        ], 
        [
            52, 
            308, 
            297, 
            16
        ], 
        [
            53, 
            334, 
            313, 
            12
        ], 
        [
            53, 
            356, 
            326, 
            15
        ], 
        [
            53, 
            377, 
            125, 
            16
        ], 
        [
            53, 
            403, 
            337, 
            15
        ], 
        [
            52, 
            425, 
            115, 
            15
        ]
    ], 
    "image_height": 540, 
    "image_width": 720, 
    "transcription": [
        [
            "u0043_u0061_u0066_u0066_u0065_u0069_u006e_u0065", 
            "u0020", 
            "u002d", 
            "u0020", 
            "u0050_u0072_u006f_u0076_u0065_u006e", 
            "u0020", 
            "u0045_u0066_u0066_u0065_u0063_u0074_u0073"
        ], 
        [
            "u0045_u0066_u0066_u0065_u0063_u0074_u0073", 
            "u0020", 
            "u0068_u0061_u0076_u0065", 
            "u0020", 
            "u0062_u0065_u0065_u006e", 
            "u0020", 
            "u0073_u0074_u0075_u0064_u0069_u0065_u0064", 
            "u0020", 
            "u0066_u006f_u0072", 
            "u0020", 
            "u0031_u0030_u0030", 
            "u0020", 
            "u0079_u0065_u0061_u0072_u0073_u000d"
        ], 
        [
            "u004d_u006f_u0073_u0074", 
            "u0020", 
            "u0073_u0074_u0075_u0064_u0069_u0065_u0073", 
            "u0020", 
            "u003d", 
            "u0020", 
            "u0032_u002d_u0039_u006d_u0067_u002f_u006b_u0067", 
            "u0020", 
            "u0070_u0065_u0072", 
            "u0020", 
            "u0064_u0061_u0079", 
            "u0020", 
            "u0028_u0032_u0035_u0030_u002d"
        ], 
        [
            "u0037_u0035_u0030_u006d_u0067_u0029_u000d"
        ], 
        [
            "u0028_u0043_u006f_u0073_u0074_u0069_u006c_u006c", 
            "u0020", 
            "u0065_u0074", 
            "u0020", 
            "u0061_u006c_u002e_u002c", 
            "u0020", 
            "u0031_u0039_u0037_u0038_u0029", 
            "u0020", 
            "u002d", 
            "u0020", 
            "u0033_u0030_u0030_u006d_u0067_u002c", 
            "u0020", 
            "u0063_u0079_u0063_u006c_u0065", 
            "u0020", 
            "u0061_u0074", 
            "u0020", 
            "u0038_u0030_u0025_u0020"
        ], 
        [
            "u0056_u004f_u0032", 
            "u0020", 
            "u004d_u0061_u0078", 
            "u0020", 
            "u0075_u006e_u0074_u0069_u006c", 
            "u0020", 
            "u0065_u0078_u0068_u0061_u0075_u0073_u0074_u0069_u006f_u006e_u000d"
        ], 
        [
            "u0039_u0030_u002e_u0032", 
            "u0020", 
            "u006d_u0069_u006e_u0075_u0074_u0065_u0073", 
            "u0020", 
            "u0076_u0073_u002e", 
            "u0020", 
            "u0037_u0035_u002e_u0035", 
            "u0020", 
            "u006d_u0069_u006e_u0075_u0074_u0065_u0073_u000d"
        ], 
        [
            "u0049_u006e_u0063_u0072_u0065_u0061_u0073_u0065", 
            "u0020", 
            "u006d_u0061_u0078", 
            "u0020", 
            "u0070_u006f_u0077_u0065_u0072", 
            "u0020", 
            "u0069_u006e", 
            "u0020", 
            "u0063_u0079_u0063_u006c_u0069_u0073_u0074_u0073", 
            "u0020", 
            "u0066_u0072_u006f_u006d", 
            "u0020", 
            "u0039_u0030_u0034_u0020"
        ], 
        [
            "u0057_u0061_u0074_u0074_u0073", 
            "u0020", 
            "u0074_u006f", 
            "u0020", 
            "u0039_u0036_u0034", 
            "u0020", 
            "u0057_u0061_u0074_u0074_u0073", 
            "u0020", 
            "u0028_u0061_u006c_u0073_u006f", 
            "u0020", 
            "u0076_u0073_u002e", 
            "u0020", 
            "u0070_u006c_u0061_u0063_u0065_u0062_u006f_u0029_u000d"
        ], 
        [
            "u0044_u0065_u0063_u0072_u0065_u0061_u0073_u0065", 
            "u0020", 
            "u0072_u0061_u0063_u0065", 
            "u0020", 
            "u0074_u0069_u006d_u0065_u0073", 
            "u0020", 
            "u0066_u0072_u006f_u006d", 
            "u0020", 
            "u006d_u0061_u0072_u0061_u0074_u0068_u006f_u006e_u0073", 
            "u0020", 
            "u0074_u006f_u0020"
        ], 
        [
            "u0073_u0068_u006f_u0072_u0074", 
            "u0020", 
            "u0073_u0070_u0072_u0069_u006e_u0074_u0073", 
            "u0020", 
            "u006c_u0061_u0073_u0074_u0069_u006e_u0067", 
            "u0020", 
            "u006c_u0065_u0073_u0073", 
            "u0020", 
            "u0074_u0068_u0061_u006e", 
            "u0020", 
            "u0039_u0030", 
            "u0020", 
            "u0073_u0065_u0063_u006f_u006e_u0064_u0073_u0020"
        ], 
        [
            "u0028_u0047_u0072_u0061_u0068_u0061_u006d_u002c", 
            "u0020", 
            "u0032_u0030_u0030_u0031_u0029_u000d"
        ], 
        [
            "u0053_u0074_u0075_u0064_u0069_u0065_u0073", 
            "u0020", 
            "u0069_u006e", 
            "u0020", 
            "u0061_u006c_u006c", 
            "u0020", 
            "u0074_u0068_u0072_u0065_u0065", 
            "u0020", 
            "u0063_u006f_u006d_u0070_u006f_u006e_u0065_u006e_u0074_u0073", 
            "u0020", 
            "u006f_u0066", 
            "u0020", 
            "u0074_u0072_u0069_u0061_u0074_u0068_u006c_u006f_u006e_u0020"
        ], 
        [
            "u0073_u0075_u0070_u0070_u006f_u0072_u0074_u0069_u006e_u0067", 
            "u0020", 
            "u0074_u0068_u0069_u0073"
        ]
    ]
}