{
    "bounding_box": [
        [
            181, 
            46, 
            389, 
            41
        ]
    ], 
    "image_height": 540, 
    "image_width": 720, 
    "transcription": [
        [
            "u0625_u0639_u062f_u0627_u062f", 
            "u0020", 
            "u0627_u0644_u062c_u062f_u0648_u0644", 
            "u0020", 
            "u0627_u0644_u0632_u0645_u0646_u064a", 
            "u0020", 
            "u0644_u0644_u0623_u0646_u0634_u0637_u0629"
        ]
    ]
}