{
    "bounding_box": [
        [
            74, 
            39, 
            535, 
            34
        ], 
        [
            75, 
            87, 
            178, 
            33
        ], 
        [
            111, 
            161, 
            191, 
            18
        ], 
        [
            111, 
            187, 
            109, 
            18
        ], 
        [
            110, 
            222, 
            203, 
            18
        ], 
        [
            110, 
            249, 
            185, 
            18
        ], 
        [
            110, 
            284, 
            239, 
            18
        ], 
        [
            111, 
            311, 
            79, 
            14
        ], 
        [
            110, 
            346, 
            131, 
            18
        ], 
        [
            111, 
            372, 
            145, 
            18
        ], 
        [
            110, 
            408, 
            247, 
            18
        ], 
        [
            110, 
            434, 
            200, 
            18
        ]
    ], 
    "image_height": 540, 
    "image_width": 720, 
    "transcription": [
        [
            "u0051_u0075_u0065_u0073_u0074_u0069_u006f_u006e_u0073", 
            "u0020", 
            "u0074_u006f", 
            "u0020", 
            "u0064_u0065_u0076_u0065_u006c_u006f_u0070", 
            "u0020", 
            "u0061", 
            "u0020", 
            "u0063_u006f_u0061_u0063_u0068_u0069_u006e_u0067_u0020"
        ], 
        [
            "u0070_u0068_u0069_u006c_u006f_u0073_u006f_u0070_u0068_u0079"
        ], 
        [
            "u0057_u0068_u0061_u0074", 
            "u0020", 
            "u0064_u006f", 
            "u0020", 
            "u0079_u006f_u0075", 
            "u0020", 
            "u0077_u0061_u006e_u0074", 
            "u0020", 
            "u0074_u006f_u0020"
        ], 
        [
            "u0061_u0063_u0063_u006f_u006d_u0070_u006c_u0069_u0073_u0068_u003f_u000d"
        ], 
        [
            "u0057_u0068_u0061_u0074", 
            "u0020", 
            "u0064_u006f", 
            "u0020", 
            "u0079_u006f_u0075_u0072", 
            "u0020", 
            "u0061_u0074_u0068_u006c_u0065_u0074_u0065_u0073_u0020"
        ], 
        [
            "u0077_u0061_u006e_u0074", 
            "u0020", 
            "u0074_u006f", 
            "u0020", 
            "u0061_u0063_u0063_u006f_u006d_u0070_u006c_u0069_u0073_u0068_u003f_u000d"
        ], 
        [
            "u0057_u0068_u0061_u0074", 
            "u0020", 
            "u0061_u0072_u0065", 
            "u0020", 
            "u0074_u0068_u0065", 
            "u0020", 
            "u0070_u0072_u0069_u006f_u0072_u0069_u0074_u0069_u0065_u0073", 
            "u0020", 
            "u0066_u006f_u0072_u0020"
        ], 
        [
            "u0061_u006c_u006c", 
            "u0020", 
            "u006f_u0066", 
            "u0020", 
            "u0075_u0073_u003f_u000d"
        ], 
        [
            "u0057_u0068_u0061_u0074", 
            "u0020", 
            "u0061_u0072_u0065", 
            "u0020", 
            "u0079_u006f_u0075_u0072_u0020"
        ], 
        [
            "u0072_u0065_u0073_u0070_u006f_u006e_u0073_u0069_u0062_u0069_u006c_u0069_u0074_u0069_u0065_u0073_u003f_u000d"
        ], 
        [
            "u0057_u0068_u0061_u0074", 
            "u0020", 
            "u006d_u0065_u0074_u0068_u006f_u0064_u0073", 
            "u0020", 
            "u0077_u0069_u006c_u006c", 
            "u0020", 
            "u0079_u006f_u0075", 
            "u0020", 
            "u0075_u0073_u0065_u0020"
        ], 
        [
            "u0074_u006f", 
            "u0020", 
            "u0061_u0063_u0068_u0069_u0065_u0076_u0065", 
            "u0020", 
            "u0079_u006f_u0075_u0072", 
            "u0020", 
            "u0067_u006f_u0061_u006c_u0073_u003f"
        ]
    ]
}