{
    "bounding_box": [
        [
            319, 
            26, 
            321, 
            32
        ], 
        [
            290, 
            89, 
            634, 
            26
        ], 
        [
            28, 
            117, 
            896, 
            27
        ], 
        [
            28, 
            146, 
            896, 
            27
        ], 
        [
            866, 
            181, 
            58, 
            21
        ], 
        [
            221, 
            203, 
            703, 
            27
        ], 
        [
            596, 
            232, 
            328, 
            27
        ], 
        [
            28, 
            261, 
            896, 
            27
        ], 
        [
            28, 
            290, 
            896, 
            27
        ], 
        [
            28, 
            319, 
            896, 
            27
        ], 
        [
            28, 
            347, 
            896, 
            27
        ], 
        [
            28, 
            376, 
            896, 
            27
        ], 
        [
            28, 
            406, 
            896, 
            26
        ], 
        [
            423, 
            434, 
            500, 
            27
        ], 
        [
            28, 
            464, 
            896, 
            26
        ], 
        [
            159, 
            491, 
            765, 
            27
        ]
    ], 
    "image_height": 540, 
    "image_width": 960, 
    "transcription": [
        "u0627_u0645_u0643_u0627_u0646_u064a_u0627_u062a u0020 u062a_u0646_u0645_u064a_u0629 u0020 u0645_u0646_u062e_u0641_u0636 u0020 u0627_u0644_u0642_u0637_u0627_u0631_u0647", 
        "u062a_u062a_u0648_u0627_u0641_u0631 u0020 u0645_u0648_u0627_u0631_u062f u0020 u0627_u0644_u0645_u064a_u0627_u0647 u0020 u0627_u0644_u062c_u0648_u0641_u064a_u0629 u0020 u0648_u0627_u0644_u062a_u0649 u0020 u0642_u062f u0020 u062a_u0643_u0641_u0649 u0020 u0644_u0627_u0633_u062a_u0635_u0644_u0627_u062d u0020 u0645_u0627 u0020 u064a_u0642_u0631_u0628 u0020 u0645_u0646 u0020 u0032 u0020 u0645_u0644_u064a_u0648_u0646 u0020 u0641_u062f_u0627_u0646_u002e_u000d", 
        "u062a_u062a_u0648_u0641_u0631 u0020 u0627_u0644_u062a_u0631_u0628_u0629 u0020 u0627_u0644_u0631_u0645_u0644_u064a_u0629 u0020 u0648_u0627_u0644_u0635_u0644_u0635_u0627_u0644_u064a_u0629 u0020 u0648_u062a_u0631_u0628_u0629 u0020 u0627_u0644_u0623_u0648_u062f_u064a_u0629 u0020 u0028_u062f_u0644_u062a_u0627 u0020 u0627_u0644_u0646_u0647_u0631 u0020 u0627_u0644_u0644_u064a_u0628_u0649 u0020 u0627_u0644_u0642_u062f_u064a_u0645 u0020 u0029 u0020 u0648_u062a_u0648_u0636_u062d u0020 u062f_u0631_u0627_u0633_u0627_u062a u0020 u0627_u0644_u062a_u0631_u0628_u0629 u0020 u0627_u0645_u0643_u0627_u0646_u064a_u0629 u0020 u0627_u0633_u062a_u0635_u0644_u0627_u062d_u0020", 
        "u0031_u0035_u0030 u0020 u0623_u0644_u0641 u0020 u0641_u062f_u0627_u0646 u0020 u0641_u0649 u0020 u0645_u0646_u0637_u0642_u0629 u0020 u0645_u063a_u0631_u0647 u0020 u0648_u0646_u062d_u0648 u0020 u0035_u0030 u0020 u0623_u0644_u0641 u0020 u0641_u062f_u0627_u0646 u0020 u062c_u0646_u0648_u0628 u0020 u0645_u0646_u062e_u0641_u0636 u0020 u0627_u0644_u0642_u0637_u0627_u0631_u0647 u0020 u0627_u0639_u062a_u0645_u0627_u062f_u0627_u064b u0020 u0020_u0639_u0644_u0649 u0020 u0627_u0644_u0645_u064a_u0627_u0647 u0020 u0627_u0644_u062c_u0648_u0641_u064a_u0629 u0020 u0028_u062e_u0632_u0627_u0646_u0020", 
        "u0645_u063a_u0631_u0647_u0029_u002e_u000d", 
        "u064a_u0645_u0643_u0646 u0020 u062a_u0646_u0641_u064a_u0630 u0020 u0645_u0634_u0631_u0648_u0639 u0020 u0644_u0632_u0631_u0627_u0639_u0629 u0020 u0627_u0644_u063a_u0627_u0628_u0627_u062a u0020 u0627_u0644_u0634_u062c_u0631_u064a_u0629 u0020 u0648_u0627_u0644_u0646_u0628_u0627_u062a_u0627_u062a u0020 u0627_u0644_u0637_u0628_u064a_u0629 u0020 u0628_u0627_u0633_u062a_u062e_u062f_u0627_u0645 u0020 u0637_u0631_u0642 u0020 u0627_u0644_u0631_u0649 u0020 u0627_u0644_u062d_u062f_u064a_u062b_u0629_u002e_u000d", 
        "u0627_u0633_u062a_u0632_u0631_u0627_u0639 u0020 u0646_u0628_u0627_u062a_u0627_u062a u0020 u0627_u0644_u0648_u0642_u0648_u062f u0020 u0627_u0644_u062d_u064a_u0648_u0649 u0020 u0648_u0627_u0644_u0627_u0639_u0644_u0627_u0641_u002e_u000d", 
        "u062a_u0645_u062a_u0644_u0643 u0020 u0627_u0644_u0645_u0646_u0637_u0642_u0629 u0020 u0645_u062d_u0627_u062c_u0631 u0020 u0644_u0644_u062d_u062c_u0631 u0020 u0627_u0644_u062c_u064a_u0631_u0649 u0020 u0648_u0644_u0647 u0020 u0642_u064a_u0645_u0629 u0020 u0627_u0642_u062a_u0635_u0627_u062f_u064a_u0629 u0020 u0639_u0638_u0645_u0649 u0020 u0644_u062a_u0639_u062f_u0651_u064f_u062f u0020 u0627_u0633_u062a_u062e_u062f_u0627_u0645_u0627_u062a_u0647 u0020 u0641_u064a u0020 u0623_u063a_u0631_u0627_u0636 u0020 u0627_u0644_u0628_u0646_u0627_u0621 u0020 u0648_u0627_u0644_u0635_u0646_u0627_u0639_u0627_u062a_u0020", 
        "u0627_u0644_u0645_u062e_u062a_u0644_u0641_u0629 u0020 u0645_u062b_u0644 u0020 u0635_u0646_u0627_u0639_u0629 u0020 u0627_u0644_u0623_u0633_u0645_u0646_u062a u0020 u0627_u0644_u0628_u0648_u0631_u062a_u0644_u0627_u0646_u062f_u064a_u060c u0020 u0643_u0645_u0627 u0020 u064a_u064f_u0633_u062a_u062e_u062f_u0645 u0020 u0643_u0639_u0627_u0645_u0644 u0020 u0645_u0633_u0627_u0639_u062f u0020 u0648_u0643_u0639_u0627_u0645_u0644 u0020 u0627_u062e_u062a_u0632_u0627_u0644 u0020 u0627_u062e_u0627_u0645_u0627_u062a u0020 u0627_u0644_u062d_u062f_u064a_u062f_u060c u0020 u0648_u0627_u0644_u0643_u0627_u0644_u0633_u064a_u062a_u0020", 
        "u0627_u0644_u0645_u062a_u0628_u0644_u0648_u0631 u0020 u0627_u0644_u0646_u0642_u064a u0020 u064a_u064f_u0633_u062a_u062e_u062f_u0645 u0020 u0641_u064a u0020 u0628_u0639_u0636 u0020 u0627_u0644_u0623_u063a_u0631_u0627_u0636 u0020 u0627_u0644_u0628_u0635_u0631_u064a_u0629 u0020 u0648_u0627_u0644_u0639_u0644_u0645_u064a_u0629_u060c_u0643_u0645_u0627 u0020 u064a_u0633_u062a_u062e_u062f_u0645 u0020 u0641_u0649 u0020 u0627_u0646_u062a_u0627_u062c u0020 u0020_u0623_u0646_u0648_u0627_u0639 u0020 u0645_u0646 u0020 u0627_u0644_u0637_u0648_u0628 u0020 u0630_u0627_u062a u0020 u0623_u0628_u0639_u0627_u062f_u0020", 
        "u0645_u0646_u062a_u0638_u0645_u0629 u0020 u064a_u064f_u0633_u0645_u0649 u0020 u0637_u0648_u0628 u0020 u0627_u0644_u0628_u0637_u064a_u062d_u060c u0020 u0648_u064a_u064f_u0639_u062a_u0628_u0631 u0020 u0645_u0646 u0020 u0623_u0647_u0645 u0020 u0628_u062f_u0627_u0626_u0644 u0020 u0627_u0644_u0637_u0648_u0628 u0020 u0627_u0644_u0623_u062d_u0645_u0631_u060c u0020 u0643_u0645_u0627 u0020 u0623_u0646 u0020 u0644_u0647 u0020 u062e_u0648_u0627_u0635 u0020 u0623_u0641_u0636_u0644 u0020 u0641_u064a u0020 u0627_u0644_u0639_u0632_u0644 u0020 u0627_u0644_u062d_u0631_u0627_u0631_u064a_u060c_u0020", 
        "u0648_u064a_u064f_u0633_u062a_u062e_u062f_u0645 u0020 u0641_u064a u0020 u0628_u0646_u0627_u0621 u0020 u0627_u0644_u0642_u0631_u0649 u0020 u0648_u0627_u0644_u0645_u062f_u0646 u0020 u0627_u0644_u062c_u062f_u064a_u062f_u0629 u0020 u0648_u0627_u0644_u0633_u064a_u0627_u062d_u064a_u0629 u0020 u0630_u0627_u062a u0020 u0627_u0644_u0625_u0631_u062a_u0641_u0627_u0639_u0627_u062a u0020 u0627_u0644_u0645_u0646_u062e_u0641_u0636_u0629_u060c u0020 u0648_u064a_u0639_u062a_u0628_u0631 u0020 u0627_u0644_u062d_u062c_u0631 u0020 u0627_u0644_u062c_u064a_u0631_u064a u0020 u0627_u0644_u0639_u0645_u0627_u062f u0020 u0627_u0644_u0623_u0648_u0644_u0020", 
        "u0641_u064a u0020 u0639_u0645_u0644_u064a_u0627_u062a u0020 u0631_u0635_u0641 u0020 u0627_u0644_u0637_u0631_u0642_u061b u0020 u062d_u064a_u062b u0020 u064a_u062a_u0645 u0020 u062a_u0643_u0633_u064a_u0631_u0647 u0020 u0625_u0644_u0649 u0020 u062d_u0635_u0648_u0627_u062a u0020 u0630_u0627_u062a u0020 u0623_u062d_u062c_u0627_u0645 u0020 u0645_u062e_u062a_u0644_u0641_u0629 u0020 u064a_u064f_u0633_u062a_u0646_u062e_u062f_u0645 u0020 u062c_u0632_u0621 u0020 u0645_u0646_u0647_u0627 u0020 u0641_u064a u0020 u062a_u0643_u0633_u064a_u0627_u062a u0020 u0627_u0644_u0637_u0631_u0642_u0020", 
        "u0648_u062c_u0632_u0621 u0020 u0622_u062e_u0631 u0020 u064a_u064f_u0633_u062a_u062e_u062f_u0645 u0020 u0628_u0639_u062f u0020 u062e_u0644_u0637_u0647 u0020 u0628_u0645_u0648_u0627_u062f u0020 u0623_u0633_u0641_u0644_u062a_u064a_u0629 u0020 u0641_u064a u0020 u0639_u0645_u0644_u064a_u0627_u062a u0020 u0627_u0644_u0631_u0635_u0641_u002e_u000d", 
        "u062a_u0648_u062c_u062f u0020 u0628_u0627_u0644_u0645_u0646_u0637_u0642_u0629 u0020 u0627_u0644_u0631_u0645_u0627_u0644 u0020 u0648_u062a_u0635_u0644_u062d u0020 u0643_u0645_u0627_u062f_u0629 u0020 u0628_u0646_u0627_u0621 u0020 u060c u0020 u0643_u0645_u0627 u0020 u0627_u0646_u0647_u0627 u0020 u062a_u062d_u062a_u0648_u0649 u0020 u0639_u0644_u0649 u0020 u0627_u0644_u0633_u0644_u064a_u0643_u0627 u0020 u0648_u062a_u062f_u062e_u0644 u0020 u0641_u0649 u0020 u0635_u0646_u0627_u0639_u0629 u0020 u0627_u0644_u0632_u062c_u0627_u062c u0020 u0648_u0627_u0644_u0645_u0648_u0627_u062f_u0020", 
        "u0627_u0644_u0645_u0635_u0646_u0641_u0631_u0629 u0020 u0643_u0645_u0627 u0020 u064a_u0633_u062a_u062e_u062f_u0645 u0020 u0641_u0649 u0020 u0635_u0646_u0627_u0639_u0629 u0020 u0627_u0644_u0633_u064a_u0631_u0627_u0645_u064a_u0643 u0020 u0648_u0627_u0644_u0623_u062f_u0648_u0627_u062a u0020 u0627_u0644_u0635_u062d_u064a_u0629 u0020 u0648_u0627_u0644_u0628_u0648_u064a_u0627_u062a u0020 u0643_u0645_u0627 u0020 u064a_u0645_u0643_u0646 u0020 u062a_u0635_u062f_u064a_u0631_u0647 u0020 u0644_u0644_u062e_u0627_u0631_u062c_u002e_u000d"
    ]
}