{
    "bounding_box": [
        [
            47, 
            75, 
            453, 
            31
        ], 
        [
            72, 
            167, 
            231, 
            24
        ], 
        [
            72, 
            201, 
            244, 
            25
        ], 
        [
            71, 
            234, 
            223, 
            19
        ], 
        [
            72, 
            273, 
            80, 
            20
        ], 
        [
            401, 
            167, 
            256, 
            25
        ], 
        [
            401, 
            201, 
            256, 
            25
        ], 
        [
            402, 
            234, 
            226, 
            25
        ]
    ], 
    "image_height": 540, 
    "image_width": 720, 
    "transcription": [
        [
            "u0048_u0065_u0061_u0064", 
            "u0020", 
            "u0054_u0069_u006c_u0074", 
            "u0020", 
            "u0076_u0073", 
            "u0020", 
            "u004a_u0061_u0077", 
            "u0020", 
            "u0054_u0068_u0072_u0075_u0073_u0074"
        ], 
        [
            "u0048_u0065_u0061_u0064", 
            "u0020", 
            "u0074_u0069_u006c_u0074_u002c", 
            "u0020", 
            "u0063_u0068_u0069_u006e_u002d_u006c_u0069_u0066_u0074", 
            "u0020", 
            "u0069_u0073_u0020"
        ], 
        [
            "u0075_u0073_u0065_u0064", 
            "u0020", 
            "u0074_u006f", 
            "u0020", 
            "u006f_u0070_u0065_u006e", 
            "u0020", 
            "u0061_u0069_u0072_u0077_u0061_u0079_u0020"
        ], 
        [
            "u006f_u0066", 
            "u0020", 
            "u0061_u006e", 
            "u0020", 
            "u0075_u006e_u0063_u006f_u006e_u0073_u0063_u0069_u006f_u0075_u0073_u0020"
        ], 
        [
            "u0070_u0065_u0072_u0073_u006f_u006e"
        ], 
        [
            "u004a_u0061_u0077", 
            "u0020", 
            "u0074_u0068_u0072_u0075_u0073_u0074", 
            "u0020", 
            "u006f_u0070_u0065_u006e_u0073", 
            "u0020", 
            "u0074_u0068_u0065_u0020"
        ], 
        [
            "u0061_u0069_u0072_u0077_u0061_u0079", 
            "u0020", 
            "u0077_u0068_u0065_u006e", 
            "u0020", 
            "u0061", 
            "u0020", 
            "u0073_u0070_u0069_u006e_u0061_u006c_u0020"
        ], 
        [
            "u0069_u006e_u006a_u0075_u0072_u0079", 
            "u0020", 
            "u0069_u0073", 
            "u0020", 
            "u0073_u0075_u0073_u0070_u0065_u0063_u0074_u0065_u0064"
        ]
    ]
}