{
    "bounding_box": [
        [
            98, 
            52, 
            523, 
            38
        ], 
        [
            76, 
            137, 
            525, 
            30
        ], 
        [
            78, 
            183, 
            516, 
            30
        ], 
        [
            77, 
            228, 
            112, 
            17
        ], 
        [
            77, 
            267, 
            437, 
            30
        ], 
        [
            77, 
            306, 
            185, 
            30
        ], 
        [
            77, 
            352, 
            578, 
            30
        ], 
        [
            77, 
            390, 
            74, 
            24
        ]
    ], 
    "image_height": 540, 
    "image_width": 720, 
    "transcription": [
        [
            "u0052_u0065_u0070_u006c_u0065_u006e_u0069_u0073_u0068_u0069_u006e_u0067", 
            "u0020", 
            "u004d_u0075_u0073_u0063_u006c_u0065", 
            "u0020", 
            "u0047_u006c_u0079_u0063_u006f_u0067_u0065_u006e"
        ], 
        [
            "u0041_u0076_u0061_u0069_u006c_u0061_u0062_u0069_u006c_u0069_u0074_u0079", 
            "u0020", 
            "u006f_u0066", 
            "u0020", 
            "u0061_u0064_u0065_u0071_u0075_u0061_u0074_u0065", 
            "u0020", 
            "u0063_u0061_u0072_u0062_u006f_u0068_u0079_u0064_u0072_u0061_u0074_u0065_u000d"
        ], 
        [
            "u0049_u006e_u0067_u0065_u0073_u0074_u0069_u006f_u006e", 
            "u0020", 
            "u006f_u0066", 
            "u0020", 
            "u0063_u0061_u0072_u0062_u006f_u0068_u0079_u0064_u0072_u0061_u0074_u0065", 
            "u0020", 
            "u0073_u006f_u006f_u006e", 
            "u0020", 
            "u0061_u0066_u0074_u0065_u0072_u0020"
        ], 
        [
            "u0065_u0078_u0065_u0072_u0063_u0069_u0073_u0065_u000d"
        ], 
        [
            "u0053_u0065_u006c_u0065_u0063_u0074_u0069_u006f_u006e", 
            "u0020", 
            "u006f_u0066", 
            "u0020", 
            "u0068_u0069_u0067_u0068_u002d_u0067_u006c_u0079_u0063_u0065_u006d_u0069_u0063_u002d_u006c_u006f_u0061_u0064_u0020"
        ], 
        [
            "u0063_u0061_u0072_u0062_u006f_u0068_u0079_u0064_u0072_u0061_u0074_u0065_u000d"
        ], 
        [
            "u0043_u006f_u006d_u0062_u0069_u006e_u0061_u0074_u0069_u006f_u006e", 
            "u0020", 
            "u006f_u0066", 
            "u0020", 
            "u0063_u0061_u0072_u0062_u006f_u0068_u0079_u0064_u0072_u0061_u0074_u0065", 
            "u0020", 
            "u0061_u006e_u0064", 
            "u0020", 
            "u0070_u0072_u006f_u0074_u0065_u0069_u006e_u0020"
        ], 
        [
            "u0066_u006f_u006f_u0064_u0073"
        ]
    ]
}