{
    "bounding_box": [
        [
            570, 
            71, 
            115, 
            26
        ], 
        [
            98, 
            107, 
            578, 
            33
        ], 
        [
            74, 
            148, 
            602, 
            27
        ], 
        [
            94, 
            182, 
            582, 
            34
        ], 
        [
            339, 
            222, 
            346, 
            29
        ]
    ], 
    "image_height": 540, 
    "image_width": 720, 
    "transcription": [
        "u0032_u002d_u0627_u0644_u062a_u062d_u0648_u064a_u0644_u000b", 
        "u062a_u062a_u0636_u0645_u0646 u0020 u0647_u0630_u0647 u0020 u0623_u0644_u0637_u0631_u064a_u0642_u0647 u0020 u0639_u0645_u0644_u064a_u062a_u064a u0020 u0627_u0644_u062a_u0643_u0633_u064a_u0631 u0020 u0627_u0644_u062d_u0631_u0627_u0631_u064a u0020 u0648_u0627_u0644_u062a_u0643_u0633_u064a_u0631_u0020", 
        "u0628_u0627_u0644_u0639_u0648_u0627_u0645_u0644 u0020 u0627_u0644_u0645_u0633_u0627_u0639_u062f_u0629 u0020 u0648_u0628_u0647_u0627_u062a_u064a_u0646 u0020 u0627_u0644_u0639_u0645_u0644_u064a_u062a_u064a_u0646 u0020 u0627_u0648_u0627_u062d_u062f_u0627_u0647_u0627_u064a_u0645_u0643_u0646 u0020 u062a_u062d_u0648_u064a_u0644_u0020", 
        "u0645_u0642_u0637_u0631_u0627_u062a u0020 u0627_u0644_u0632_u064a_u062a u0020 u0627_u0644_u062b_u0642_u064a_u0644_u0629 u0020 u0630_u0627_u062a u0020 u0627_u0644_u0623_u0648_u0632_u0627_u0646 u0020 u0020_u0627_u0644_u062c_u0632_u064a_u0626_u064a_u0629 u0020 u0627_u0644_u0643_u0628_u064a_u0631_u0629 u0020 u0625_u0644_u0649_u0020", 
        "u062c_u0632_u064a_u0626_u0627_u062a u0020 u0630_u0627_u062a u0020 u0623_u0648_u0632_u0627_u0646 u0020 u062c_u0632_u064a_u0626_u064a_u0647 u0020 u0627_u0635_u063a_u0631_u000b"
    ]
}