{
    "bounding_box": [
        [
            534, 
            23, 
            82, 
            25
        ], 
        [
            18, 
            74, 
            654, 
            23
        ], 
        [
            496, 
            101, 
            176, 
            21
        ], 
        [
            18, 
            138, 
            654, 
            23
        ], 
        [
            18, 
            165, 
            654, 
            25
        ], 
        [
            18, 
            194, 
            654, 
            24
        ], 
        [
            18, 
            221, 
            654, 
            26
        ], 
        [
            18, 
            253, 
            654, 
            23
        ], 
        [
            18, 
            280, 
            654, 
            25
        ], 
        [
            90, 
            307, 
            582, 
            26
        ], 
        [
            18, 
            345, 
            654, 
            23
        ], 
        [
            18, 
            371, 
            654, 
            26
        ], 
        [
            18, 
            403, 
            654, 
            23
        ], 
        [
            18, 
            430, 
            654, 
            25
        ], 
        [
            18, 
            460, 
            654, 
            24
        ], 
        [
            192, 
            485, 
            480, 
            26
        ], 
        [
            21, 
            503, 
            15, 
            10
        ]
    ], 
    "image_height": 540, 
    "image_width": 720, 
    "transcription": [
        "u0020_u062d_u0643_u0627_u064a_u062a_u000b", 
        "u0628_u062e_u0634 u0020 u067e_u0648_u0646_u062a_u064a_u0627_u0643 u0020 u0634_u0631_u0643_u062a u0020 u062e_u0648_u062f_u0631_u0648_u0633_u0627_u0632_u064a u0020 u062c_u0646_u0631_u0627_u0644 u0020 u0645_u0648_u062a_u0648_u0631_u0632 u0020 u0634_u0643_u0627_u064a_u062a_u064a u0020 u0631_u0627 u0020 u0627_u0632 u0020 u064a_u0643 u0020 u0645_u0634_u062a_u0631_u064a u0020 u0628_u0627 u0020 u0627_u064a_u0646_u0020", 
        "u0645_u0636_u0645_u0648_u0646 u0020 u062f_u0631_u064a_u0627_u0641_u062a u0020 u0643_u0631_u062f_u003a u0020 u000d", 
        "u00ab_u0627_u064a_u0646 u0020 u062f_u0648_u0645_u064a_u0646 u0020 u0628_u0627_u0631_u064a u0020 u0627_u0633_u062a u0020 u0643_u0647 u0020 u0628_u0631_u0627_u064a_u062a_u0627_u0646 u0020 u0645_u064a u0020 u0646_u0648_u064a_u0633_u0645 u0020 u0648 u0020 u0628_u0631_u0627_u064a u0020 u0627_u064a_u0646 u0020 u0643_u0647 u0020 u0628_u0627_u0631 u0020 u0642_u0628_u0644 u0020 u067e_u0627_u0633_u062e_u064a u0020 u0646_u062f_u0627_u062f_u0647_u0020", 
        "u0627_u064a_u062f_u060c u0020 u06af_u0644_u0627_u064a_u0647 u0020 u0627_u064a u0020 u0646_u062f_u0627_u0631_u0645 u0020 u061b u0020 u0686_u0631_u0627_u0643_u0647 u0020 u0645_u0648_u0636_u0648_u0639 u0020 u0627_u0632 u0020 u0646_u0638_u0631 u0020 u0645_u0646 u0020 u0646_u064a_u0632 u0020 u0627_u062d_u0645_u0642_u0627_u0646_u0647 u0020 u0627_u0633_u062a_u0021 u0020 u0628_u0647 u0020 u0647_u0631 u0020 u062d_u0627_u0644 u0020 u060c_u0020", 
        "u0645_u0648_u0636_u0648_u0639 u0020 u0627_u064a_u0646 u0020 u0627_u0633_u062a u0020 u0643_u0647 u0020 u0637_u0628_u0642 u0020 u064a_u0643 u0020 u0631_u0633_u0645 u0020 u0642_u062f_u064a_u0645_u064a u0020 u060c u0020 u062e_u0627_u0646_u0648_u0627_u062f_u0647 u0020 u0645_u0627 u0020 u0639_u0627_u062f_u062a u0020 u062f_u0627_u0631_u062f u0020 u0647_u0631 u0020 u0634_u0628 u0020 u067e_u0633 u0020 u0627_u0632_u0020", 
        "u0634_u0627_u0645 u0020 u0628_u0647 u0020 u0639_u0646_u0648_u0627_u0646 u0020 u062f_u0633_u0631 u0020 u0628_u0633_u062a_u0646_u064a u0020 u0628_u062e_u0648_u0631_u062f_u002e u0020 u0633_u0627_u0644_u0647_u0627_u0633_u062a u0020 u0643_u0647 u0020 u0645_u0627 u0020 u067e_u0633 u0020 u0627_u0632 u0020 u0634_u0627_u0645 u0020 u0631_u0627_u064a u0020 u06af_u064a_u0631_u064a u0020 u0645_u064a u0020 u0643_u0646_u064a_u0645_u0020", 
        "u0648 u0020 u0628_u0631_u0627_u0633_u0627_u0633 u0020 u0627_u0643_u062b_u0631_u064a_u062a u0020 u0622_u0631_u0627 u0020 u0646_u0648_u0639 u0020 u0628_u0633_u062a_u0646_u064a u0020 u060c u0020 u0627_u0646_u062a_u062e_u0627_u0628 u0020 u0648 u0020 u062e_u0631_u064a_u062f_u0627_u0631_u064a u0020 u0645_u064a_u0634_u0648_u062f_u002e u0020 u0627_u064a_u0646 u0020 u0631_u0627 u0020 u0647_u0645 u0020 u0628_u0627_u064a_u062f_u0020", 
        "u0628_u06af_u0648_u064a_u0645 u0020 u0643_u0647 u0020 u0645_u0646 u0020 u0628_u062a_u0627_u0632_u06af_u064a u0020 u064a_u0643 u0020 u062e_u0648_u062f_u0631_u0648_u064a u0020 u0634_u0648_u0631_u0648_u0644_u062a u0020 u067e_u0648_u0646_u062a_u064a_u0627_u0643 u0020 u062c_u062f_u064a_u062f u0020 u062e_u0631_u064a_u062f_u0647 u0020 u0627_u0645 u0020 u0648 u0020 u0628_u0627 u0020 u062e_u0631_u064a_u062f u0020 u0627_u064a_u0646_u0020", 
        "u062e_u0648_u062f_u0631_u0648_u060c u0020 u0631_u0641_u062a u0020 u0648 u0020 u0622_u0645_u062f_u0645 u0020 u0628_u0647 u0020 u0641_u0631_u0648_u0634_u06af_u0627_u0647 u0020 u0628_u0631_u0627_u064a u0020 u062a_u0647_u064a_u0647 u0020 u0628_u0633_u062a_u0646_u064a u0020 u062f_u0686_u0627_u0631 u0020 u0645_u0634_u0643_u0644 u0020 u0634_u062f_u0647 u0020 u0627_u0633_u062a_u002e_u000d", 
        "u0644_u0637_u0641_u0627 u0020 u062f_u0642_u062a u0020 u0628_u0641_u0631_u0645_u0627_u064a_u064a_u062f_u0021 u0020 u0647_u0631 u0020 u062f_u0641_u0639_u0647 u0020 u0643_u0647 u0020 u0628_u0631_u0627_u064a u0020 u062e_u0631_u064a_u062f u0020 u0628_u0633_u062a_u0646_u064a u0020 u0648_u0627_u0646_u064a_u0644_u064a u0020 u0628_u0647 u0020 u0645_u063a_u0627_u0632_u0647 u0020 u0645_u064a u0020 u0631_u0648_u0645 u0020 u0648 u0020 u0628_u0647_u0020", 
        "u062e_u0648_u062f_u0631_u0648 u0020 u0628_u0627_u0632_u0645_u064a u0020 u06af_u0631_u062f_u0645 u0020 u060c u0020 u0645_u0627_u0634_u064a_u0646 u0020 u0631_u0648_u0634_u0646 u0020 u0646_u0645_u064a u0020 u0634_u0648_u062f_u061b u0020 u0627_u0645_u0627 u0020 u0647_u0631 u0020 u0628_u0633_u062a_u0646_u064a u0020 u062f_u064a_u06af_u0631_u064a u0020 u0643_u0647 u0020 u0628_u062e_u0631_u0645 u0020 u060c_u0020", 
        "u0686_u0646_u064a_u0646 u0020 u0645_u0634_u0643_u0644_u064a u0020 u0646_u062e_u0648_u0627_u0647_u0645 u0020 u062f_u0627_u0634_u062a_u002e u0020 u062e_u0648_u0627_u0647_u0634 u0020 u0645_u064a u0020 u0643_u0646_u0645 u0020 u062f_u0631_u0643 u0020 u0643_u0646_u064a_u062f u0020 u0643_u0647 u0020 u0627_u064a_u0646 u0020 u0645_u0633_u0627_u0644_u0647 u0020 u0628_u0631_u0627_u064a u0020 u0645_u0646_u0020", 
        "u0628_u0633_u064a_u0627_u0631 u0020 u062c_u062f_u064a u0020 u0648 u0020 u062f_u0631_u062f_u0633_u0631_u0622_u0641_u0631_u064a_u0646 u0020 u0627_u0633_u062a u0020 u0648 u0020 u0645_u0646 u0020 u0647_u0631_u06af_u0632 u0020 u0642_u0635_u062f u0020 u0634_u0648_u062e_u064a u0020 u0628_u0627 u0020 u0634_u0645_u0627 u0020 u0631_u0627 u0020 u0646_u062f_u0627_u0631_u0645_u002e u0020 u0645_u064a_u0020", 
        "u062e_u0648_u0627_u0647_u0645 u0020 u0628_u067e_u0631_u0633_u0645 u0020 u0686_u0637_u0648_u0631 u0020 u0645_u064a u0020 u0634_u0648_u062f u0020 u067e_u0648_u0646_u062a_u064a_u0627_u0643 u0020 u0645_u0646 u0020 u0648_u0642_u062a_u064a u0020 u0628_u0633_u062a_u0646_u064a u0020 u0648_u0627_u0646_u064a_u0644_u064a u0020 u0645_u064a u0020 u062e_u0631_u0645 u0020 u060c u0020 u0631_u0648_u0634_u0646_u0020", 
        "u0646_u0645_u064a u0020 u0634_u0648_u062f_u061b u0020 u0627_u0645_u0627 u0020 u0628_u0627 u0020 u0647_u0631 u0020 u0628_u0633_u062a_u0646_u064a u0020 u062f_u064a_u06af_u0631_u064a u0020 u0631_u0627_u062d_u062a u0020 u0627_u0633_u062a_u0627_u0631_u062a u0020 u0645_u064a u0020 u062e_u0648_u0631_u062f_u00bb_u000d", 
        "u0035_u0034"
    ]
}