{
    "bounding_box": [
        [
            354, 
            515, 
            11, 
            8
        ], 
        [
            97, 
            25, 
            529, 
            40
        ], 
        [
            212, 
            78, 
            295, 
            40
        ], 
        [
            99, 
            152, 
            538, 
            30
        ], 
        [
            99, 
            198, 
            470, 
            31
        ], 
        [
            97, 
            245, 
            275, 
            23
        ], 
        [
            99, 
            290, 
            416, 
            31
        ], 
        [
            99, 
            337, 
            256, 
            29
        ]
    ], 
    "image_height": 540, 
    "image_width": 720, 
    "transcription": [
        [
            "u0031_u0037"
        ], 
        [
            "u0050_u006f_u0074_u0065_u006e_u0074_u0069_u0061_u006c", 
            "u0020", 
            "u004c_u0069_u0061_u0062_u0069_u006c_u0069_u0074_u0079", 
            "u0020", 
            "u0049_u0073_u0073_u0075_u0065_u0073", 
            "u0020", 
            "u0066_u006f_u0072_u0020"
        ], 
        [
            "u0054_u006f_u0075_u0072", 
            "u0020", 
            "u004f_u0070_u0065_u0072_u0061_u0074_u006f_u0072_u0073"
        ], 
        [
            "u004e_u006f_u006e_u0070_u0061_u0079_u006d_u0065_u006e_u0074", 
            "u0020", 
            "u0066_u006f_u0072", 
            "u0020", 
            "u0070_u0072_u0065_u0061_u0072_u0072_u0061_u006e_u0067_u0065_u0064", 
            "u0020", 
            "u0073_u0065_u0072_u0076_u0069_u0063_u0065_u0073_u002e_u000d"
        ], 
        [
            "u004e_u006f_u006e_u0064_u0065_u006c_u0069_u0076_u0065_u0072_u0079", 
            "u0020", 
            "u006f_u0066", 
            "u0020", 
            "u0070_u0072_u006f_u006d_u0069_u0073_u0065_u0064", 
            "u0020", 
            "u0073_u0065_u0072_u0076_u0069_u0063_u0065_u0073_u002e_u000d"
        ], 
        [
            "u0041_u0064_u0068_u0065_u0073_u0069_u006f_u006e", 
            "u0020", 
            "u0063_u006f_u006e_u0074_u0072_u0061_u0063_u0074_u0073_u002e_u000d"
        ], 
        [
            "u004c_u0069_u0061_u0062_u0069_u006c_u0069_u0074_u0079", 
            "u0020", 
            "u0066_u006f_u0072", 
            "u0020", 
            "u0069_u006e_u006a_u0075_u0072_u0079", 
            "u0020", 
            "u006f_u0072", 
            "u0020", 
            "u0061_u0063_u0063_u0069_u0064_u0065_u006e_u0074_u002e_u000d"
        ], 
        [
            "u004d_u0069_u0073_u0072_u0065_u0070_u0072_u0065_u0073_u0065_u006e_u0074_u0061_u0074_u0069_u006f_u006e_u002e"
        ]
    ]
}