{
    "bounding_box": [
        [
            294, 
            137, 
            332, 
            34
        ], 
        [
            76, 
            45, 
            568, 
            47
        ], 
        [
            308, 
            249, 
            76, 
            22
        ], 
        [
            188, 
            437, 
            88, 
            19
        ], 
        [
            433, 
            437, 
            90, 
            19
        ]
    ], 
    "image_height": 540, 
    "image_width": 720, 
    "transcription": [
        [
            "u0627_u0644_u062a_u0642_u0633_u064a_u0645", 
            "u0020", 
            "u062d_u0633_u0628", 
            "u0020", 
            "u0645_u0631_u0627_u062d_u0644", 
            "u0020", 
            "u0627_u0644_u0627_u0646_u062a_u0627_u062c_u003a_u000d"
        ], 
        [
            "u0637_u0631_u0642", 
            "u0020", 
            "u062a_u0642_u0633_u064a_u0645", 
            "u0020", 
            "u0627_u0644_u0639_u0645_u0644", 
            "u0020", 
            "u0641_u064a", 
            "u0020", 
            "u0627_u0644_u0645_u0646_u0638_u0645_u0629", 
            "u0020", 
            "u0623_u0648", 
            "u0020", 
            "u0627_u0644_u0645_u0643_u062a_u0628"
        ], 
        [
            "u0634_u0631_u0643_u0629", 
            "u0020", 
            "u0623_u0646_u062a_u0627_u062c"
        ], 
        [
            "u0625_u062f_u0627_u0631_u0629", 
            "u0020", 
            "u0627_u0644_u062a_u062c_u0645_u064a_u0639"
        ], 
        [
            "u0625_u062f_u0627_u0631_u0629", 
            "u0020", 
            "u0627_u0644_u062a_u0635_u0646_u064a_u0639_u0020"
        ]
    ]
}