{
    "bounding_box": [
        [
            235, 
            55, 
            250, 
            36
        ], 
        [
            125, 
            143, 
            499, 
            25
        ], 
        [
            125, 
            177, 
            541, 
            25
        ], 
        [
            125, 
            217, 
            542, 
            25
        ], 
        [
            124, 
            251, 
            559, 
            25
        ], 
        [
            125, 
            284, 
            188, 
            25
        ], 
        [
            124, 
            325, 
            556, 
            25
        ], 
        [
            124, 
            358, 
            543, 
            19
        ], 
        [
            124, 
            392, 
            387, 
            25
        ]
    ], 
    "image_height": 540, 
    "image_width": 720, 
    "transcription": [
        [
            "u004f_u0062_u006a_u0065_u0063_u0074", 
            "u0020", 
            "u006d_u006f_u0064_u0065_u006c_u0073"
        ], 
        [
            "u0053_u0074_u0072_u0075_u0063_u0074_u0075_u0072_u0065", 
            "u0020", 
            "u0074_u0068_u0065", 
            "u0020", 
            "u0073_u0079_u0073_u0074_u0065_u006d", 
            "u0020", 
            "u0069_u006e_u0074_u006f", 
            "u0020", 
            "u0061", 
            "u0020", 
            "u0073_u0065_u0074", 
            "u0020", 
            "u006f_u0066", 
            "u0020", 
            "u006c_u006f_u006f_u0073_u0065_u006c_u0079_u0020"
        ], 
        [
            "u0063_u006f_u0075_u0070_u006c_u0065_u0064", 
            "u0020", 
            "u006f_u0062_u006a_u0065_u0063_u0074_u0073", 
            "u0020", 
            "u0077_u0069_u0074_u0068", 
            "u0020", 
            "u0077_u0065_u006c_u006c_u002d_u0064_u0065_u0066_u0069_u006e_u0065_u0064", 
            "u0020", 
            "u0069_u006e_u0074_u0065_u0072_u0066_u0061_u0063_u0065_u0073_u002e_u000d"
        ], 
        [
            "u004f_u0062_u006a_u0065_u0063_u0074_u002d_u006f_u0072_u0069_u0065_u006e_u0074_u0065_u0064", 
            "u0020", 
            "u0064_u0065_u0063_u006f_u006d_u0070_u006f_u0073_u0069_u0074_u0069_u006f_u006e", 
            "u0020", 
            "u0069_u0073", 
            "u0020", 
            "u0063_u006f_u006e_u0063_u0065_u0072_u006e_u0065_u0064_u0020"
        ], 
        [
            "u0077_u0069_u0074_u0068", 
            "u0020", 
            "u0069_u0064_u0065_u006e_u0074_u0069_u0066_u0079_u0069_u006e_u0067", 
            "u0020", 
            "u006f_u0062_u006a_u0065_u0063_u0074", 
            "u0020", 
            "u0063_u006c_u0061_u0073_u0073_u0065_u0073_u002c", 
            "u0020", 
            "u0074_u0068_u0065_u0069_u0072", 
            "u0020", 
            "u0061_u0074_u0074_u0072_u0069_u0062_u0075_u0074_u0065_u0073_u0020"
        ], 
        [
            "u0061_u006e_u0064", 
            "u0020", 
            "u006f_u0070_u0065_u0072_u0061_u0074_u0069_u006f_u006e_u0073_u002e_u000d"
        ], 
        [
            "u0057_u0068_u0065_u006e", 
            "u0020", 
            "u0069_u006d_u0070_u006c_u0065_u006d_u0065_u006e_u0074_u0065_u0064_u002c", 
            "u0020", 
            "u006f_u0062_u006a_u0065_u0063_u0074_u0073", 
            "u0020", 
            "u0061_u0072_u0065", 
            "u0020", 
            "u0063_u0072_u0065_u0061_u0074_u0065_u0064", 
            "u0020", 
            "u0066_u0072_u006f_u006d_u0020"
        ], 
        [
            "u0074_u0068_u0065_u0073_u0065", 
            "u0020", 
            "u0063_u006c_u0061_u0073_u0073_u0065_u0073", 
            "u0020", 
            "u0061_u006e_u0064", 
            "u0020", 
            "u0073_u006f_u006d_u0065", 
            "u0020", 
            "u0063_u006f_u006e_u0074_u0072_u006f_u006c", 
            "u0020", 
            "u006d_u006f_u0064_u0065_u006c", 
            "u0020", 
            "u0075_u0073_u0065_u0064_u0020"
        ], 
        [
            "u0074_u006f", 
            "u0020", 
            "u0063_u006f_u006f_u0072_u0064_u0069_u006e_u0061_u0074_u0065", 
            "u0020", 
            "u006f_u0062_u006a_u0065_u0063_u0074", 
            "u0020", 
            "u006f_u0070_u0065_u0072_u0061_u0074_u0069_u006f_u006e_u0073_u002e"
        ]
    ]
}