{
    "bounding_box": [
        [
            45, 
            75, 
            619, 
            31
        ], 
        [
            73, 
            164, 
            234, 
            29
        ], 
        [
            72, 
            206, 
            316, 
            30
        ], 
        [
            103, 
            247, 
            184, 
            19
        ], 
        [
            103, 
            284, 
            163, 
            19
        ], 
        [
            104, 
            321, 
            197, 
            19
        ], 
        [
            104, 
            358, 
            257, 
            25
        ]
    ], 
    "image_height": 540, 
    "image_width": 720, 
    "transcription": [
        [
            "u0043_u006f_u006e_u0073_u0075_u006d_u0065_u0072", 
            "u0020", 
            "u0042_u0065_u0068_u0061_u0076_u0069_u006f_u0072", 
            "u0020", 
            "u0049_u006e_u0066_u006c_u0075_u0065_u006e_u0063_u0065"
        ], 
        [
            "u004d_u0061_u0072_u006b_u0065_u0074_u0069_u006e_u0067", 
            "u0020", 
            "u0073_u0074_u0069_u006d_u0075_u006c_u0069_u000d"
        ], 
        [
            "u004f_u0074_u0068_u0065_u0072", 
            "u0020", 
            "u0073_u0074_u0069_u006d_u0075_u006c_u0069", 
            "u0020", 
            "u0028_u0065_u0078_u0074_u0065_u0072_u006e_u0061_u006c_u0029_u000d"
        ], 
        [
            "u0043_u0075_u006c_u0074_u0075_u0072_u0061_u006c", 
            "u0020", 
            "u0066_u0061_u0063_u0074_u006f_u0072_u0073_u000d"
        ], 
        [
            "u0053_u006f_u0063_u0069_u0061_u006c", 
            "u0020", 
            "u0066_u0061_u0063_u0074_u006f_u0072_u0073_u000d"
        ], 
        [
            "u0050_u0065_u0072_u0073_u006f_u006e_u0061_u006c", 
            "u0020", 
            "u0066_u0061_u0063_u0074_u006f_u0072_u0073_u000d"
        ], 
        [
            "u0050_u0073_u0079_u0063_u0068_u006f_u006c_u006f_u0067_u0069_u0063_u0061_u006c", 
            "u0020", 
            "u0066_u0061_u0063_u0074_u006f_u0072_u0073"
        ]
    ]
}