{
    "bounding_box": [
        [
            526, 
            208, 
            262, 
            45
        ], 
        [
            523, 
            261, 
            305, 
            41
        ], 
        [
            523, 
            314, 
            184, 
            27
        ], 
        [
            523, 
            344, 
            183, 
            17
        ], 
        [
            522, 
            379, 
            191, 
            25
        ], 
        [
            523, 
            404, 
            198, 
            25
        ], 
        [
            523, 
            436, 
            197, 
            25
        ]
    ], 
    "image_height": 567, 
    "image_width": 992, 
    "transcription": [
        [
            "u062a_u062d_u0642_u06cc_u0642", 
            "u0020", 
            "u0642_u0648_u0645", 
            "u0020", 
            "u0646_u06af_u0627_u0631_u0627_u0646_u0647_u003a_u0020"
        ], 
        [
            "u062f_u0631_u0643", 
            "u0020", 
            "u0641_u0631_u0647_u0646_u06af", 
            "u0020", 
            "u0648", 
            "u0020", 
            "u062a_u062c_u0631_u0628_u0647_u000b"
        ], 
        [
            "u0648_u0627_u0644_u0631_u064a", 
            "u0020", 
            "u062c_u064a_u002e", 
            "u0020", 
            "u062c_u064a_u0646_u200c_u0633_u064a_u0643_u000b"
        ], 
        [
            "u0628_u0631_u06af_u0631_u062f_u0627_u0646_u003a", 
            "u0020", 
            "u062f_u0643_u062a_u0631", 
            "u0020", 
            "u0645_u062d_u0645_u062f_u0635_u0627_u062f_u0642", 
            "u0020", 
            "u0641_u0631_u0628_u062f"
        ], 
        [
            "u0627_u0633_u062a_u0627_u062f_u003a_u062c_u0646_u0627_u0628", 
            "u0020", 
            "u0622_u0642_u0627_u06cc", 
            "u0020", 
            "u062f_u06a9_u062a_u0631_u0020"
        ], 
        [
            "u063a_u0644_u0627_u0645_u062d_u0633_u06cc_u0646", 
            "u0020", 
            "u0642_u0645_u06cc", 
            "u0020", 
            "u062a_u0641_u0631_u0634_u06cc_u000d"
        ], 
        [
            "u062f_u0627_u0646_u0634_u062c_u0648_u003a_u0645_u062c_u062a_u0628_u06cc", 
            "u0020", 
            "u062a_u0633_u0644_u06cc_u0645_u06cc_u000d"
        ]
    ]
}