{
    "bounding_box": [
        [
            28, 
            60, 
            553, 
            14
        ], 
        [
            56, 
            158, 
            613, 
            20
        ], 
        [
            56, 
            186, 
            424, 
            20
        ]
    ], 
    "image_height": 540, 
    "image_width": 720, 
    "transcription": [
        [
            "u0031_u0038_u002e_u0031_u0039_u002e_u0033", 
            "u0020", 
            "u0050_u0041_u0052_u0054_u0049_u0043_u0049_u0050_u0041_u0054_u0049_u004f_u004e", 
            "u0020", 
            "u0057_u0049_u0054_u0048", 
            "u0020", 
            "u0054_u0048_u0045", 
            "u0020", 
            "u0048_u0049_u0047_u0048", 
            "u0020", 
            "u0053_u0043_u0048_u004f_u004f_u004c", 
            "u0020", 
            "u0054_u0045_u0041_u004d_u0020"
        ], 
        [
            "u0054_u0068_u0065", 
            "u0020", 
            "u0073_u0063_u0068_u006f_u006f_u006c", 
            "u0020", 
            "u006d_u0075_u0073_u0074", 
            "u0020", 
            "u0068_u0061_u0076_u0065", 
            "u0020", 
            "u0061", 
            "u0020", 
            "u0068_u0069_u0073_u0074_u006f_u0072_u0079", 
            "u0020", 
            "u006f_u0066", 
            "u0020", 
            "u006f_u0066_u0066_u0065_u0072_u0069_u006e_u0067", 
            "u0020", 
            "u0074_u0068_u0065", 
            "u0020", 
            "u0073_u0070_u006f_u0072_u0074", 
            "u0020", 
            "u0061_u0074", 
            "u0020", 
            "u0074_u0068_u0061_u0074", 
            "u0020", 
            "u006c_u0065_u0076_u0065_u006c_u002c_u0020"
        ], 
        [
            "u0061_u006e_u0064", 
            "u0020", 
            "u0069_u0073", 
            "u0020", 
            "u006e_u006f_u0074", 
            "u0020", 
            "u0062_u0065_u0067_u0069_u006e_u006e_u0069_u006e_u0067", 
            "u0020", 
            "u0061", 
            "u0020", 
            "u0070_u0072_u006f_u0067_u0072_u0061_u006d", 
            "u0020", 
            "u0061_u0074", 
            "u0020", 
            "u0061_u006e_u0079", 
            "u0020", 
            "u006c_u0065_u0076_u0065_u006c_u002e"
        ]
    ]
}