{
    "bounding_box": [
        [
            49, 
            44, 
            547, 
            17
        ], 
        [
            49, 
            68, 
            578, 
            17
        ], 
        [
            50, 
            92, 
            440, 
            17
        ], 
        [
            43, 
            493, 
            274, 
            10
        ]
    ], 
    "image_height": 540, 
    "image_width": 720, 
    "transcription": [
        [
            "u0041_u0066_u0074_u0065_u0072", 
            "u0020", 
            "u0033_u002b", 
            "u0020", 
            "u0064_u0065_u0063_u0061_u0064_u0065_u0073", 
            "u0020", 
            "u006f_u0066", 
            "u0020", 
            "u0077_u006f_u0072_u006b", 
            "u0020", 
            "u0061_u0073", 
            "u0020", 
            "u0070_u0061_u0069_u006e_u0074_u0065_u0072_u002c", 
            "u0020", 
            "u0066_u0069_u006c_u006d_u006d_u0061_u006b_u0065_u0072_u002c", 
            "u0020", 
            "u0070_u0068_u006f_u0074_u006f_u0067_u0072_u0061_u0070_u0068_u0065_u0072_u002c", 
            "u0020", 
            "u006d_u0075_u0073_u0069_u0063_u0020"
        ], 
        [
            "u0070_u0072_u006f_u006d_u006f_u0074_u0065_u0072_u002c", 
            "u0020", 
            "u0069_u006c_u006c_u0075_u0073_u0074_u0072_u0061_u0074_u006f_u0072_u002c", 
            "u0020", 
            "u0061_u0075_u0074_u0068_u006f_u0072_u002c", 
            "u0020", 
            "u0070_u0075_u0062_u006c_u0069_u0073_u0068_u0065_u0072_u002c", 
            "u0020", 
            "u0063_u006f_u006c_u006c_u0065_u0063_u0074_u006f_u0072", 
            "u0020", 
            "u0061_u006e_u0064", 
            "u0020", 
            "u006d_u006f_u0064_u0065_u006c_u002c", 
            "u0020", 
            "u0057_u0061_u0072_u0068_u006f_u006c", 
            "u0020", 
            "u0064_u0069_u0065_u0064_u0020"
        ], 
        [
            "u0069_u006e", 
            "u0020", 
            "u0031_u0039_u0038_u0037", 
            "u0020", 
            "u006f_u0066", 
            "u0020", 
            "u0063_u006f_u006d_u0070_u006c_u0069_u0063_u0061_u0074_u0069_u006f_u006e_u0073", 
            "u0020", 
            "u0066_u006f_u006c_u006c_u006f_u0077_u0069_u006e_u0067", 
            "u0020", 
            "u0067_u0061_u006c_u006c_u0062_u006c_u0061_u0064_u0064_u0065_u0072", 
            "u0020", 
            "u0073_u0075_u0072_u0067_u0065_u0072_u0079_u002e_u0020"
        ], 
        [
            "u0044_u0061_u0069_u006c_u0079", 
            "u0020", 
            "u004e_u0065_u0077_u0073_u002c", 
            "u0020", 
            "u0046_u0065_u0062_u0072_u0075_u0061_u0072_u0079", 
            "u0020", 
            "u0032_u0033_u002c", 
            "u0020", 
            "u0031_u0039_u0038_u0037_u002c", 
            "u0020", 
            "u00a9", 
            "u0020", 
            "u0032_u0030_u0030_u0036", 
            "u0020", 
            "u0044_u0061_u0069_u006c_u0079", 
            "u0020", 
            "u004e_u0065_u0077_u0073", 
            "u0020", 
            "u004c_u002e_u0050_u002e"
        ]
    ]
}