{
    "bounding_box": [
        [
            291, 
            78, 
            138, 
            30
        ], 
        [
            88, 
            165, 
            452, 
            17
        ], 
        [
            88, 
            194, 
            166, 
            17
        ], 
        [
            88, 
            223, 
            444, 
            17
        ]
    ], 
    "image_height": 540, 
    "image_width": 720, 
    "transcription": [
        [
            "u0056_u0065_u0072_u0074_u0069_u0063_u0061_u006c"
        ], 
        [
            "u0046_u0069_u006c_u006c_u0065_u0074_u002f_u0047_u0072_u006f_u006f_u0076_u0065", 
            "u0020", 
            "u002d", 
            "u0020", 
            "u0077_u0065_u0061_u0076_u0065", 
            "u0020", 
            "u0028_u006f_u0072", 
            "u0020", 
            "u0077_u0068_u0069_u0070", 
            "u0020", 
            "u0062_u0075_u0074", 
            "u0020", 
            "u006e_u006f_u0074", 
            "u0020", 
            "u0073_u0074_u0072_u0061_u0069_u0067_u0068_u0074", 
            "u0020", 
            "u0073_u0074_u0072_u0069_u006e_u0067_u0065_u0072_u0073_u0029_u000d"
        ], 
        [
            "u0052_u006f_u006f_u0074", 
            "u0020", 
            "u0070_u0061_u0073_u0073", 
            "u0020", 
            "u0036_u0030_u0031_u0030", 
            "u0020", 
            "u0077_u0068_u0069_u0070_u000d"
        ], 
        [
            "u0052_u006f_u006f_u0074", 
            "u0020", 
            "u0070_u0061_u0073_u0073", 
            "u0020", 
            "u0037_u0030_u0031_u0038", 
            "u0020", 
            "u0073_u0074_u0072_u0061_u0069_u0067_u0068_u0074", 
            "u0020", 
            "u0073_u0074_u0072_u0069_u006e_u0067_u0065_u0072", 
            "u0020", 
            "u006f_u0072", 
            "u0020", 
            "u0077_u0065_u0061_u0076_u0065", 
            "u0020", 
            "u0028_u006f_u0070_u0065_u006e", 
            "u0020", 
            "u0063_u006c_u006f_u0073_u0065_u0064_u0029"
        ]
    ]
}